,316.2099914550781,317.2099914550781,318.2099914550781,319.2099914550781,320.2099914550781,321.2099914550781,322.2099914550781
2.051500082015991,0.0,16.0,19.0,50.0,36.0,55.0,0.0
2.0530166625976562,41.0,63.0,13.0,1028.0,1512.0,878.0,837.0
2.0545332431793213,66.0,11.0,1252.0,26.0,1090.0,1155.0,37.0
2.0560500621795654,5.0,35.0,737.0,409.0,72.0,273.0,249.0
2.0575666427612305,0.0,24.0,10.0,358.0,5.0,15.0,16.0
2.0590832233428955,40.0,30.0,34.0,606.0,42.0,26.0,10.0
2.0606000423431396,17.0,30.0,14.0,484.0,23.0,34.0,30.0
2.0621166229248047,0.0,28.0,35.0,361.0,5.0,41.0,49.0
2.063633441925049,26.0,26.0,342.0,1123.0,14.0,106.0,56.0
2.065150022506714,42.0,23.0,576.0,1972.0,403.0,63.0,8.0
2.066666603088379,53.0,17.0,487.0,1815.0,438.0,19.0,26.0
2.0682499408721924,15.0,11.0,268.0,824.0,472.0,17.0,24.0
2.0697667598724365,49.0,23.0,49.0,52.0,586.0,15.0,22.0
2.0712833404541016,24.0,28.0,27.0,435.0,484.0,329.0,20.0
2.0727999210357666,23.0,18.0,42.0,631.0,382.0,642.0,8.0
2.0743167400360107,22.0,23.0,38.0,0.0,26.0,679.0,20.0
2.075833320617676,19.0,29.0,34.0,0.0,1230.0,717.0,365.0
2.077349901199341,15.0,5.0,36.0,0.0,858.0,51.0,200.0
2.078866720199585,46.0,33.0,39.0,645.0,485.0,258.0,35.0
2.08038330078125,30.0,26.0,55.0,587.0,26.0,465.0,16.0
2.081899881362915,14.0,19.0,862.0,528.0,5.0,53.0,12.0
2.083416700363159,5.0,29.0,701.0,271.0,323.0,32.0,5.0
2.0850000381469727,24.0,32.0,541.0,13.0,338.0,10.0,21.0
2.0865166187286377,32.0,37.0,56.0,303.0,354.0,10.0,119.0
2.088033437728882,40.0,10.0,589.0,169.0,597.0,10.0,70.0
2.089550018310547,26.0,14.0,10.0,36.0,839.0,21.0,22.0
2.091066598892212,37.0,23.0,601.0,38.0,422.0,13.0,15.0
2.092583417892456,42.0,32.0,740.0,40.0,5.0,5.0,59.0
2.094099998474121,15.0,27.0,305.0,244.0,61.0,3.0,399.0
2.095616579055786,14.0,22.0,775.0,145.0,375.0,0.0,1013.0
2.0971333980560303,29.0,26.0,899.0,46.0,225.0,9.0,1264.0
2.0986499786376953,24.0,31.0,1214.0,367.0,76.0,17.0,1162.0
2.1001665592193604,20.0,28.0,648.0,688.0,1298.0,9.0,24.0
2.101749897003174,30.0,0.0,40.0,1218.0,732.0,0.0,32.0
2.103266716003418,24.0,19.0,122.0,1295.0,167.0,10.0,10.0
2.104783296585083,19.0,5.0,24.0,116.0,712.0,22.0,8.0
2.106300115585327,21.0,43.0,25.0,1648.0,368.0,23.0,6.0
2.107816696166992,25.0,47.0,23.0,388.0,24.0,24.0,6.0
2.1093332767486572,26.0,28.0,25.0,2137.0,715.0,21.0,5.0
2.1108500957489014,32.0,15.0,28.0,21.0,840.0,17.0,11.0
2.1123666763305664,21.0,5.0,36.0,888.0,966.0,18.0,16.0
2.1138832569122314,10.0,23.0,44.0,404.0,938.0,18.0,44.0
2.1154000759124756,10.0,15.0,15.0,1184.0,909.0,193.0,41.0
2.1169166564941406,19.0,7.0,677.0,2035.0,492.0,367.0,39.0
2.118483304977417,15.0,28.0,1276.0,1765.0,433.0,300.0,34.0
2.120016574859619,35.0,11.0,1224.0,1277.0,332.0,0.0,12.0
2.121516704559326,48.0,73.0,518.0,1007.0,231.0,1043.0,416.0
2.123033285140991,0.0,70.0,965.0,680.0,2163.0,2086.0,440.0
2.1245501041412354,23.0,20.0,594.0,493.0,1206.0,2574.0,465.0
2.1260666847229004,47.0,74.0,787.0,255.0,250.0,2785.0,5.0
2.1275999546051025,11.0,5.0,1158.0,741.0,3705.0,380.0,46.0
2.1291000843048096,0.0,16.0,18.0,40.0,5137.0,2230.0,339.0
2.1306166648864746,17.0,10.0,16.0,518.0,3403.0,2381.0,715.0
2.1321332454681396,31.0,45.0,1480.0,1380.0,4122.0,3352.0,832.0
2.133650064468384,41.0,64.0,975.0,1075.0,2859.0,2885.0,718.0
2.1352334022521973,10.0,84.0,499.0,769.0,5529.0,1123.0,605.0
2.1367499828338623,24.0,20.0,22.0,407.0,6708.0,3715.0,1002.0
2.1382665634155273,39.0,41.0,10.0,45.0,6200.0,1468.0,1007.0
2.1397833824157715,31.0,10.0,24.0,2347.0,6667.0,4719.0,1012.0
2.1412999629974365,23.0,703.0,39.0,2111.0,5989.0,3512.0,513.0
2.1428167819976807,7.0,352.0,53.0,1875.0,7120.0,2305.0,14.0
2.1443333625793457,38.0,0.0,71.0,1931.0,4246.0,5393.0,443.0
2.1458499431610107,19.0,0.0,59.0,1099.0,6593.0,2450.0,384.0
2.147366762161255,10.0,22.0,46.0,1068.0,6342.0,5819.0,833.0
2.14888334274292,0.0,555.0,39.0,1037.0,6090.0,3940.0,1250.0
2.150399923324585,18.0,290.0,30.0,1567.0,7360.0,6871.0,1008.0
2.1519665718078613,11.0,25.0,20.0,1472.0,8628.0,5544.0,766.0
2.1535000801086426,12.0,791.0,813.0,1376.0,7765.0,4426.0,845.0
2.1550166606903076,37.0,407.0,721.0,981.0,8836.0,3308.0,924.0
2.1565332412719727,47.0,22.0,629.0,3011.0,5984.0,3263.0,1190.0
2.158050060272217,57.0,21.0,821.0,3426.0,7397.0,3219.0,1455.0
2.159566640853882,43.0,19.0,38.0,1115.0,7603.0,5613.0,1942.0
2.161083221435547,56.0,39.0,402.0,2414.0,7808.0,4077.0,1317.0
2.162600040435791,36.0,58.0,766.0,3555.0,10220.0,2542.0,692.0
2.164116621017456,18.0,35.0,395.0,942.0,4438.0,2614.0,1244.0
2.1656334400177,19.0,12.0,23.0,2174.0,11032.0,7286.0,1797.0
2.1671500205993652,42.0,21.0,780.0,1960.0,13476.0,8360.0,1608.0
2.1686666011810303,30.0,24.0,28.0,2394.0,4498.0,5751.0,1419.0
2.1702499389648438,17.0,28.0,39.0,458.0,12716.0,4808.0,1130.0
2.171766757965088,10.0,36.0,833.0,530.0,12688.0,3864.0,1249.0
2.173283338546753,10.0,858.0,655.0,1999.0,6591.0,6184.0,1369.0
2.174799919128418,16.0,1140.0,477.0,1421.0,6926.0,8228.0,1688.0
2.176316738128662,29.0,932.0,719.0,1528.0,8588.0,7022.0,5.0
2.177833318710327,22.0,649.0,591.0,1634.0,8628.0,7485.0,2162.0
2.179349899291992,15.0,15.0,464.0,1656.0,3598.0,5758.0,385.0
2.1808667182922363,20.0,480.0,29.0,1679.0,8356.0,6619.0,1229.0
2.1823832988739014,18.0,232.0,20.0,1905.0,5935.0,6254.0,502.0
2.1839001178741455,10.0,259.0,438.0,2131.0,5712.0,6847.0,1363.0
2.1854166984558105,20.0,286.0,224.0,649.0,5489.0,6685.0,892.0
2.186983346939087,28.0,170.0,10.0,3280.0,6390.0,6523.0,421.0
2.188499927520752,33.0,54.0,11.0,2404.0,7728.0,4212.0,1507.0
2.190016746520996,38.0,53.0,11.0,4920.0,6191.0,6501.0,1235.0
2.191533327102661,15.0,59.0,572.0,4434.0,4654.0,5659.0,1138.0
2.193049907684326,21.0,64.0,310.0,2446.0,6724.0,9308.0,2256.0
2.1945667266845703,26.0,39.0,47.0,1239.0,7733.0,8212.0,2051.0
2.1960833072662354,0.0,926.0,421.0,1893.0,7243.0,10204.0,1847.0
2.1975998878479004,8.0,475.0,936.0,35.0,6753.0,5282.0,595.0
2.1991167068481445,15.0,24.0,684.0,2268.0,6034.0,5341.0,1271.0
2.2006332874298096,17.0,135.0,1153.0,1311.0,6544.0,5143.0,564.0
2.2021501064300537,17.0,246.0,608.0,1142.0,7055.0,5462.0,808.0
2.203733444213867,16.0,1113.0,62.0,2631.0,5436.0,4914.0,642.0
2.2052500247955322,10.0,1120.0,146.0,2136.0,6983.0,4366.0,2360.0
2.2067666053771973,15.0,1845.0,23.0,3935.0,8532.0,5792.0,1947.0
2.2082834243774414,13.0,1546.0,0.0,28.0,7942.0,4751.0,1534.0
2.2098000049591064,11.0,30.0,31.0,2327.0,7354.0,3711.0,2052.0
2.2113165855407715,15.0,708.0,16.0,1722.0,2949.0,3809.0,2570.0
2.2128334045410156,31.0,10.0,14.0,151.0,8272.0,5530.0,707.0
2.2143499851226807,35.0,57.0,11.0,3763.0,8284.0,4832.0,794.0
2.2158665657043457,17.0,10.0,23.0,2460.0,11804.0,3249.0,1429.0
2.21738338470459,0.0,204.0,35.0,1156.0,10444.0,5143.0,1652.0
2.218899965286255,46.0,255.0,34.0,5100.0,5387.0,4477.0,43.0
2.2204833030700684,31.0,104.0,33.0,216.0,9292.0,3812.0,616.0
2.2219998836517334,15.0,48.0,20.0,2812.0,5398.0,5271.0,2401.0
2.2235167026519775,35.0,36.0,138.0,944.0,6959.0,4360.0,2115.0
2.2250332832336426,10.0,23.0,256.0,1798.0,5978.0,3450.0,2450.0
2.2265501022338867,0.0,0.0,597.0,1191.0,7155.0,5124.0,205.0
2.2280666828155518,19.0,30.0,330.0,1566.0,7347.0,3685.0,579.0
2.229583263397217,39.0,29.0,62.0,2366.0,4253.0,3034.0,101.0
2.231100082397461,26.0,39.0,183.0,2492.0,4519.0,3347.0,729.0
2.232616662979126,47.0,37.0,102.0,957.0,2385.0,1736.0,28.0
2.234133243560791,67.0,36.0,21.0,817.0,3851.0,1921.0,533.0
2.235650062561035,48.0,5.0,23.0,1458.0,2381.0,903.0,42.0
2.2372167110443115,30.0,10.0,30.0,1090.0,4370.0,28.0,645.0
2.2387332916259766,26.0,15.0,36.0,948.0,1972.0,456.0,788.0
2.2402501106262207,33.0,512.0,1365.0,693.0,4125.0,885.0,1191.0
2.241783380508423,43.0,267.0,691.0,41.0,2825.0,744.0,31.0
2.243283271789551,10.0,22.0,17.0,474.0,442.0,604.0,32.0
2.244800090789795,25.0,640.0,28.0,902.0,3351.0,687.0,2093.0
2.24631667137146,21.0,347.0,23.0,24.0,782.0,770.0,1307.0
2.247833251953125,15.0,53.0,12.0,276.0,996.0,858.0,1116.0
2.249350070953369,5.0,1719.0,0.0,527.0,1981.0,946.0,5.0
2.250866651535034,259.0,1275.0,20.0,13.0,995.0,1162.0,0.0
2.252383232116699,138.0,1070.0,15.0,14.0,2314.0,1378.0,6.0
2.2539665699005127,17.0,865.0,28.0,24.0,586.0,11.0,11.0
2.255483388900757,634.0,1857.0,10.0,23.0,1873.0,1044.0,61.0
2.256999969482422,643.0,3884.0,61.0,21.0,1910.0,1243.0,33.0
2.258516550064087,1010.0,3291.0,48.0,18.0,1736.0,19.0,5.0
2.260033369064331,30.0,3818.0,35.0,14.0,702.0,33.0,40.0
2.261549949645996,235.0,3460.0,20.0,890.0,695.0,974.0,5.0
2.2630667686462402,5.0,4331.0,5.0,1661.0,962.0,15.0,5.0
2.2645833492279053,30.0,10.0,0.0,1465.0,802.0,34.0,40.0
2.2660999298095703,29.0,2687.0,953.0,6.0,642.0,1169.0,11.0
2.2676167488098145,24.0,2703.0,615.0,6.0,546.0,1023.0,0.0
2.2691333293914795,20.0,3827.0,278.0,894.0,8.0,454.0,7.0
2.2706832885742188,18.0,4360.0,6.0,55.0,33.0,893.0,14.0
2.272233247756958,16.0,4909.0,10.0,686.0,578.0,21.0,22.0
2.273733377456665,16.0,4727.0,19.0,769.0,476.0,6.0,11.0
2.27524995803833,19.0,3974.0,29.0,756.0,622.0,312.0,0.0
2.276766777038574,22.0,4115.0,17.0,743.0,645.0,156.0,383.0
2.2782833576202393,23.0,3957.0,5.0,41.0,669.0,0.0,211.0
2.2797999382019043,22.0,3799.0,22.0,217.0,792.0,0.0,39.0
2.2813334465026855,20.0,6225.0,24.0,12.0,762.0,44.0,36.0
2.2828333377838135,80.0,6699.0,26.0,65.0,137.0,38.0,33.0
2.2843499183654785,93.0,4855.0,947.0,46.0,33.0,11.0,33.0
2.2858834266662598,16.0,9068.0,786.0,26.0,1628.0,39.0,34.0
2.287400007247925,30.0,9828.0,625.0,37.0,1371.0,43.0,31.0
2.288933277130127,43.0,7804.0,21.0,47.0,414.0,48.0,28.0
2.290450096130371,39.0,4831.0,459.0,57.0,1163.0,29.0,25.0
2.291966676712036,35.0,5750.0,595.0,61.0,1048.0,10.0,5.0
2.293483257293701,16.0,5523.0,732.0,20.0,502.0,46.0,31.0
2.2950000762939453,10.0,5007.0,38.0,47.0,1340.0,7.0,57.0
2.2965166568756104,34.0,4492.0,898.0,75.0,1197.0,12.0,45.0
2.2980332374572754,16.0,3518.0,723.0,460.0,16.0,16.0,33.0
2.2995500564575195,26.0,6088.0,22.0,1806.0,222.0,44.0,46.0
2.30281662940979,31.0,6680.0,349.0,1529.0,700.0,49.0,58.0
2.3060998916625977,30.0,3472.0,791.0,15.0,0.0,54.0,319.0
2.30935001373291,17.0,7566.0,938.0,41.0,12.0,736.0,185.0
2.3125998973846436,5.0,3154.0,1086.0,24.0,29.0,850.0,51.0
2.315850019454956,10.0,3622.0,1270.0,674.0,11.0,964.0,16.0
2.3190999031066895,11.0,3001.0,1454.0,869.0,388.0,17.0,7.0
2.322383403778076,12.0,3437.0,670.0,13.0,429.0,45.0,40.0
2.3256332874298096,34.0,3873.0,1517.0,1107.0,470.0,9.0,11.0
2.328883409500122,43.0,3143.0,1991.0,633.0,258.0,295.0,149.0
2.3321332931518555,29.0,10.0,2117.0,727.0,47.0,157.0,81.0
2.335383415222168,15.0,622.0,1229.0,223.0,44.0,19.0,13.0
2.3386833667755127,10.0,1735.0,60.0,595.0,116.0,37.0,20.0
2.341933250427246,5.0,2028.0,331.0,315.0,63.0,161.0,23.0
2.3451833724975586,10.0,2085.0,19.0,35.0,11.0,85.0,25.0
2.348433256149292,15.0,1942.0,222.0,253.0,826.0,8.0,13.0
2.3516833782196045,27.0,1310.0,425.0,8.0,429.0,24.0,5.0
2.3550000190734863,21.0,12.0,16.0,0.0,33.0,40.0,13.0
2.3582499027252197,14.0,0.0,6.0,18.0,849.0,5.0,19.0
2.3615000247955322,9.0,11.0,0.0,37.0,5.0,36.0,25.0
2.3647499084472656,16.0,23.0,16.0,26.0,11.0,28.0,22.0
2.368000030517578,16.0,21.0,20.0,15.0,36.0,21.0,19.0
2.3712499141693115,16.0,23.0,23.0,5.0,18.0,14.0,50.0
2.3745665550231934,17.0,26.0,27.0,18.0,29.0,17.0,49.0
2.377816677093506,19.0,29.0,31.0,9.0,39.0,19.0,31.0
2.3810665607452393,21.0,18.0,33.0,0.0,37.0,20.0,23.0
2.3843166828155518,17.0,7.0,0.0,23.0,10.0,21.0,15.0
2.387566566467285,13.0,16.0,824.0,315.0,19.0,7.0,26.0
2.390883445739746,29.0,46.0,650.0,166.0,29.0,23.0,279.0
2.3941333293914795,24.0,1130.0,25.0,16.0,30.0,33.0,145.0
2.397383451461792,15.0,1066.0,10.0,37.0,27.0,26.0,10.0
2.4006333351135254,5.0,45.0,36.0,72.0,24.0,20.0,0.0
2.403883218765259,21.0,11.0,15.0,53.0,31.0,22.0,5.0
2.4072000980377197,38.0,41.0,22.0,33.0,5.0,23.0,3.0
2.410449981689453,46.0,37.0,43.0,24.0,10.0,25.0,0.0
2.4137001037597656,25.0,20.0,419.0,15.0,10.0,28.0,19.0
2.416949987411499,5.0,19.0,221.0,17.0,25.0,26.0,33.0
2.4202001094818115,22.0,19.0,22.0,13.0,41.0,21.0,16.0
2.423466682434082,39.0,10.0,29.0,12.0,20.0,15.0,0.0
2.4267165660858154,42.0,0.0,45.0,18.0,0.0,26.0,20.0
2.429966688156128,16.0,26.0,13.0,24.0,0.0,38.0,15.0
2.4332165718078613,13.0,44.0,34.0,23.0,36.0,526.0,10.0
2.436466693878174,24.0,59.0,26.0,22.0,27.0,693.0,18.0
2.4397833347320557,45.0,29.0,24.0,10.0,18.0,12.0,27.0
2.443033218383789,26.0,20.0,21.0,96.0,14.0,36.0,21.0
2.4462833404541016,8.0,31.0,80.0,400.0,10.0,40.0,0.0
2.449533224105835,15.0,34.0,53.0,203.0,0.0,10.0,12.0
2.4527833461761475,22.0,37.0,26.0,6.0,16.0,5.0,8.0
2.456033229827881,29.0,27.0,21.0,47.0,19.0,16.0,46.0
2.459350109100342,31.0,16.0,15.0,5.0,0.0,24.0,41.0
2.462599992752075,23.0,18.0,568.0,50.0,62.0,76.0,30.0
2.4658501148223877,16.0,20.0,1121.0,37.0,31.0,80.0,14.0
2.469099998474121,28.0,13.0,839.0,30.0,0.0,84.0,19.0
2.4723498821258545,26.0,5.0,12.0,0.0,32.0,39.0,21.0
2.475616693496704,36.0,9.0,0.0,10.0,23.0,53.0,26.0
2.4788665771484375,15.0,12.0,710.0,13.0,46.0,12.0,24.0
2.48211669921875,18.0,31.0,14.0,12.0,5.0,698.0,21.0
2.4853665828704834,44.0,50.0,5.0,9.0,5.0,357.0,20.0
2.488616704940796,33.0,39.0,61.0,6.0,188.0,16.0,19.0
2.4919333457946777,22.0,39.0,7.0,7.0,106.0,241.0,38.0
2.495183229446411,34.0,0.0,6.0,7.0,24.0,17.0,27.0
2.4984333515167236,38.0,22.0,5.0,580.0,38.0,30.0,16.0
2.501683235168457,42.0,29.0,14.0,540.0,11.0,37.0,0.0
2.5049333572387695,33.0,16.0,12.0,37.0,850.0,0.0,18.0
2.5082499980926514,23.0,24.0,11.0,13.0,1053.0,20.0,14.0
2.5114998817443848,20.0,33.0,34.0,395.0,1017.0,32.0,18.0
2.5147500038146973,28.0,18.0,40.0,208.0,11.0,43.0,34.0
2.5179998874664307,21.0,6.0,22.0,21.0,616.0,43.0,23.0
2.521250009536743,11.0,8.0,5.0,0.0,5.0,43.0,13.0
2.524566650390625,0.0,9.0,0.0,225.0,30.0,20.0,38.0
2.5278167724609375,29.0,10.0,17.0,130.0,5.0,5.0,14.0
2.531066656112671,12.0,15.0,16.0,35.0,149.0,135.0,30.0
2.5343167781829834,15.0,19.0,14.0,44.0,1001.0,72.0,46.0
2.537566661834717,42.0,18.0,16.0,0.0,510.0,9.0,27.0
2.5408666133880615,26.0,16.0,16.0,23.0,19.0,27.0,24.0
2.544133424758911,11.0,16.0,11.0,38.0,28.0,21.0,0.0
2.5473833084106445,5.0,16.0,5.0,30.0,29.0,15.0,14.0
2.550633430480957,16.0,8.0,6.0,11.0,30.0,10.0,36.0
2.5539000034332275,31.0,0.0,10.0,18.0,0.0,5.0,47.0
2.557149887084961,31.0,22.0,14.0,24.0,40.0,27.0,12.0
2.5604500770568848,31.0,0.0,677.0,16.0,36.0,27.0,34.0
2.563699960708618,31.0,19.0,368.0,607.0,32.0,26.0,31.0
2.5669500827789307,10.0,0.0,59.0,654.0,0.0,28.0,29.0
2.570199966430664,26.0,33.0,30.0,35.0,0.0,36.0,37.0
2.5734500885009766,6.0,43.0,5.0,5.0,13.0,16.0,21.0
2.5767667293548584,30.0,6.0,20.0,712.0,468.0,26.0,6.0
2.580016613006592,17.0,21.0,26.0,5.0,780.0,55.0,14.0
2.5832667350769043,11.0,25.0,32.0,701.0,609.0,30.0,10.0
2.5865166187286377,22.0,34.0,17.0,755.0,437.0,5.0,5.0
2.58976674079895,24.0,16.0,13.0,22.0,0.0,17.0,9.0
2.593083381652832,0.0,54.0,8.0,250.0,41.0,10.0,13.0
2.5963332653045654,16.0,54.0,17.0,22.0,324.0,17.0,15.0
2.599583387374878,17.0,24.0,11.0,0.0,140.0,24.0,8.0
2.6028332710266113,17.0,16.0,52.0,12.0,15.0,0.0,0.0
2.606083393096924,19.0,9.0,59.0,8.0,20.0,21.0,13.0
2.6094000339508057,21.0,29.0,45.0,28.0,25.0,18.0,17.0
2.612649917602539,0.0,20.0,41.0,278.0,16.0,15.0,8.0
2.6159000396728516,17.0,12.0,37.0,154.0,16.0,907.0,12.0
2.619149923324585,19.0,9.0,40.0,30.0,12.0,771.0,15.0
2.6224000453948975,17.0,22.0,22.0,74.0,17.0,27.0,24.0
2.625683307647705,23.0,7.0,13.0,40.0,24.0,0.0,34.0
2.6289665699005127,24.0,17.0,21.0,37.0,21.0,18.0,28.0
2.632216691970825,27.0,17.0,14.0,35.0,18.0,19.0,19.0
2.6354665756225586,17.0,17.0,7.0,17.0,22.0,20.0,24.0
2.638716697692871,7.0,18.0,42.0,22.0,387.0,21.0,21.0
2.6419665813446045,32.0,51.0,30.0,28.0,204.0,12.0,30.0
2.645233392715454,34.0,36.0,18.0,35.0,21.0,5.0,26.0
2.6484832763671875,37.0,20.0,11.0,43.0,20.0,99.0,22.0
2.6517333984375,49.0,23.0,24.0,36.0,44.0,78.0,23.0
2.6549832820892334,17.0,13.0,22.0,23.0,5.0,56.0,23.0
2.658233404159546,24.0,25.0,11.0,10.0,0.0,11.0,22.0
2.6615500450134277,22.0,15.0,0.0,0.0,285.0,15.0,18.0
2.664799928665161,19.0,21.0,28.0,19.0,157.0,8.0,20.0
2.6680500507354736,26.0,27.0,25.0,5.0,29.0,17.0,11.0
2.671299934387207,33.0,26.0,23.0,13.0,16.0,11.0,11.0
2.6745500564575195,26.0,24.0,23.0,19.0,12.0,5.0,10.0
2.6778833866119385,20.0,28.0,22.0,24.0,13.0,7.0,8.0
2.681133270263672,0.0,24.0,18.0,0.0,14.0,9.0,10.0
2.6843833923339844,15.0,13.0,17.0,16.0,12.0,14.0,11.0
2.6876332759857178,6.0,0.0,6.0,41.0,10.0,47.0,10.0
2.6908833980560303,9.0,24.0,5.0,25.0,5.0,29.0,31.0
2.694183349609375,11.0,53.0,5.0,25.0,0.0,11.0,48.0
2.6974332332611084,13.0,79.0,5.0,25.0,9.0,32.0,65.0
2.700683355331421,34.0,71.0,5.0,27.0,17.0,10.0,33.0
2.7039332389831543,193.0,12.0,15.0,29.0,15.0,28.0,0.0
2.707183361053467,102.0,32.0,7.0,20.0,13.0,18.0,16.0
2.7105000019073486,10.0,8.0,0.0,10.0,292.0,12.0,21.0
2.713749885559082,27.0,44.0,5.0,12.0,571.0,5.0,17.0
2.7170000076293945,18.0,35.0,6.0,41.0,488.0,18.0,17.0
2.720249891281128,57.0,23.0,7.0,25.0,20.0,12.0,1225.0
2.7235000133514404,46.0,24.0,21.0,10.0,0.0,5.0,1283.0
2.726749897003174,10.0,25.0,14.0,28.0,366.0,20.0,42.0
2.7300667762756348,19.0,40.0,6.0,16.0,433.0,11.0,19.0
2.733316659927368,18.0,29.0,13.0,5.0,30.0,29.0,20.0
2.7365667819976807,14.0,18.0,19.0,5.0,0.0,20.0,31.0
2.739816665649414,10.0,28.0,17.0,5.0,8.0,11.0,13.0
2.7430665493011475,12.0,31.0,12.0,17.0,17.0,22.0,10.0
2.7463834285736084,14.0,30.0,5.0,29.0,25.0,5.0,5.0
2.749633312225342,30.0,27.0,28.0,26.0,30.0,14.0,0.0
2.7528834342956543,26.0,24.0,18.0,16.0,20.0,75.0,32.0
2.7561333179473877,22.0,20.0,7.0,5.0,11.0,136.0,24.0
2.7593834400177,17.0,713.0,10.0,44.0,14.0,74.0,17.0
2.762700080871582,11.0,362.0,12.0,176.0,5.0,12.0,9.0
2.7659499645233154,48.0,11.0,26.0,107.0,13.0,17.0,0.0
2.769200086593628,53.0,29.0,42.0,38.0,20.0,22.0,34.0
2.7724499702453613,29.0,24.0,37.0,49.0,24.0,0.0,21.0
2.775700092315674,21.0,20.0,32.0,21.0,1431.0,13.0,8.0
2.7790000438690186,13.0,10.0,21.0,53.0,1360.0,15.0,5.0
2.782249927520752,20.0,30.0,10.0,35.0,10.0,16.0,31.0
2.7855000495910645,10.0,43.0,28.0,16.0,37.0,100.0,54.0
2.788749933242798,0.0,57.0,10.0,54.0,81.0,62.0,38.0
2.7920000553131104,17.0,5.0,24.0,0.0,24.0,23.0,22.0
2.795316696166992,35.0,732.0,39.0,31.0,24.0,16.0,35.0
2.7985665798187256,22.0,382.0,2086.0,61.0,23.0,21.0,24.0
2.801816701889038,10.0,33.0,1857.0,74.0,17.0,13.0,6.0
2.8050665855407715,386.0,1201.0,879.0,87.0,21.0,7.0,0.0
2.808316707611084,1184.0,1007.0,111.0,528.0,24.0,45.0,0.0
2.8115665912628174,2199.0,918.0,49.0,272.0,23.0,36.0,15.0
2.814883232116699,1592.0,532.0,35.0,15.0,22.0,6.0,20.0
2.8181333541870117,10.0,730.0,81.0,16.0,24.0,42.0,24.0
2.821383237838745,1007.0,927.0,48.0,17.0,47.0,33.0,16.0
2.8246333599090576,16.0,317.0,15.0,10.0,33.0,50.0,8.0
2.827883243560791,413.0,811.0,10.0,11.0,19.0,26.0,42.0
2.831183433532715,40.0,5.0,5.0,12.0,19.0,42.0,51.0
2.8344333171844482,25.0,5.0,928.0,218.0,91.0,19.0,23.0
2.8376834392547607,160.0,289.0,1182.0,147.0,82.0,33.0,5.0
2.840933322906494,294.0,572.0,841.0,76.0,22.0,47.0,31.0
2.8441834449768066,928.0,443.0,15.0,853.0,24.0,16.0,0.0
2.8475167751312256,944.0,27.0,5.0,745.0,27.0,33.0,17.0
2.850766658782959,664.0,33.0,12.0,111.0,14.0,17.0,14.0
2.8540167808532715,759.0,46.0,16.0,12.0,18.0,25.0,10.0
2.857266664505005,41.0,59.0,41.0,592.0,21.0,0.0,6.0
2.8605165481567383,41.0,51.0,33.0,31.0,0.0,7.0,19.0
2.863816738128662,1145.0,44.0,24.0,34.0,23.0,14.0,0.0
2.8670666217803955,1197.0,10.0,39.0,69.0,23.0,14.0,16.0
2.870316743850708,389.0,15.0,33.0,121.0,22.0,14.0,23.0
2.8735666275024414,44.0,54.0,27.0,173.0,17.0,16.0,17.0
2.876816749572754,675.0,17.0,7.0,89.0,7.0,17.0,10.0
2.8801333904266357,0.0,25.0,638.0,5.0,23.0,27.0,37.0
2.883383274078369,19.0,28.0,664.0,11.0,16.0,38.0,33.0
2.8866333961486816,18.0,20.0,60.0,1278.0,5.0,334.0,29.0
2.889883279800415,23.0,5.0,464.0,1239.0,17.0,180.0,43.0
2.8931334018707275,5.0,22.0,26.0,962.0,1447.0,25.0,5.0
2.896383285522461,45.0,22.0,487.0,1463.0,1528.0,166.0,10.0
2.8996999263763428,880.0,20.0,29.0,385.0,10.0,11.0,41.0
2.9029500484466553,976.0,15.0,15.0,16.0,41.0,36.0,44.0
2.9061999320983887,19.0,23.0,10.0,10.0,123.0,50.0,48.0
2.909450054168701,0.0,10.0,5.0,5.0,21.0,36.0,39.0
2.9126999378204346,7.0,10.0,10.0,56.0,62.0,22.0,41.0
2.9160165786743164,11.0,10.0,23.0,49.0,22.0,24.0,15.0
2.919266700744629,15.0,0.0,19.0,42.0,29.0,26.0,40.0
2.9225165843963623,18.0,0.0,15.0,5.0,36.0,8.0,5.0
2.925766706466675,20.0,14.0,28.0,19.0,36.0,21.0,17.0
2.929016590118408,29.0,10.0,16.0,33.0,46.0,23.0,34.0
2.93233323097229,44.0,6.0,5.0,27.0,35.0,12.0,0.0
2.9355833530426025,33.0,11.0,11.0,21.0,24.0,0.0,25.0
2.938833236694336,21.0,16.0,0.0,41.0,0.0,30.0,22.0
2.9420833587646484,6.0,0.0,18.0,10.0,23.0,5.0,11.0
2.945333242416382,41.0,18.0,14.0,35.0,5.0,0.0,0.0
2.9486000537872314,25.0,36.0,10.0,23.0,5.0,0.0,6.0
2.951849937438965,10.0,33.0,39.0,10.0,19.0,17.0,11.0
2.9551000595092773,33.0,30.0,41.0,36.0,20.0,13.0,21.0
2.9583499431610107,40.0,23.0,43.0,17.0,20.0,20.0,45.0
2.9616000652313232,26.0,34.0,44.0,15.0,22.0,12.0,49.0
2.964916706085205,36.0,26.0,27.0,13.0,23.0,5.0,12.0
2.9681665897369385,45.0,31.0,30.0,30.0,19.0,5.0,11.0
2.971416711807251,36.0,7.0,12.0,46.0,14.0,5.0,31.0
2.9746665954589844,33.0,36.0,17.0,28.0,10.0,20.0,0.0
2.977916717529297,27.0,33.0,10.0,10.0,23.0,13.0,58.0
2.9811666011810303,32.0,22.0,5.0,42.0,37.0,5.0,37.0
2.984483242034912,7.0,17.0,41.0,55.0,30.0,11.0,16.0
2.9877333641052246,10.0,22.0,41.0,32.0,29.0,17.0,20.0
2.990983247756958,10.0,28.0,41.0,5.0,28.0,15.0,15.0
2.9942333698272705,5.0,25.0,10.0,11.0,18.0,12.0,23.0
