,245.0800018310547,246.0800018310547,247.0800018310547,248.0800018310547
2.1012165546417236,30.0,51.0,35.0,62.0
2.1025166511535645,101.0,49.0,37.0,5.0
2.1048998832702637,26.0,16.0,119.0,36.0
2.107283353805542,5.0,20.0,5.0,5.0
2.1097333431243896,25.0,15.0,33.0,5.0
2.112116575241089,0.0,5.0,5.0,20.0
2.114500045776367,28.0,15.0,32.0,17.0
2.1168832778930664,15.0,25.0,32.0,13.0
2.1192667484283447,20.0,19.0,40.0,21.0
2.121649980545044,23.0,19.0,36.0,13.0
2.1240334510803223,26.0,26.0,32.0,33.0
2.12648344039917,29.0,33.0,33.0,101.0
2.128866672515869,12.0,52.0,33.0,69.0
2.1312499046325684,41.0,43.0,28.0,36.0
2.1336333751678467,5.0,32.0,20.0,52.0
2.136016607284546,18.0,13.0,11.0,32.0
2.138400077819824,31.0,39.0,21.0,35.0
2.1407833099365234,49.0,30.0,21.0,30.0
2.143199920654297,58.0,40.0,21.0,24.0
2.145583391189575,26.0,18.0,21.0,46.0
2.1479666233062744,10.0,60.0,26.0,14.0
2.1503500938415527,22.0,43.0,31.0,237.0
2.152733325958252,21.0,27.0,0.0,461.0
2.155116558074951,23.0,51.0,15.0,638.0
2.1575000286102295,22.0,32.0,16.0,815.0
2.159916639328003,26.0,13.0,17.0,16.0
2.1623001098632812,25.0,28.0,10.0,8.0
2.1646833419799805,24.0,43.0,18.0,991.0
2.1670665740966797,26.0,0.0,25.0,970.0
2.169450044631958,27.0,26.0,32.0,30.0
2.1718332767486572,27.0,0.0,39.0,643.0
2.1742167472839355,22.0,17.0,40.0,966.0
2.176633358001709,37.0,33.0,32.0,341.0
2.179016590118408,5.0,23.0,23.0,550.0
2.1814000606536865,38.0,19.0,28.0,31.0
2.1837832927703857,24.0,15.0,6.0,1182.0
2.186166763305664,10.0,15.0,12.0,1599.0
2.1885499954223633,13.0,5.0,17.0,16.0
2.1909332275390625,14.0,16.0,24.0,416.0
2.193350076675415,15.0,26.0,29.0,895.0
2.1957333087921143,13.0,26.0,20.0,0.0
2.1981167793273926,10.0,26.0,30.0,28.0
2.200500011444092,0.0,5.0,40.0,26.0
2.202883243560791,19.0,13.0,12.0,25.0
2.2052667140960693,21.0,42.0,30.0,23.0
2.2076499462127686,13.0,34.0,35.0,7.0
2.210066556930542,38.0,25.0,10.0,52.0
2.2124500274658203,35.0,26.0,22.0,32.0
2.2148332595825195,13.0,33.0,16.0,12.0
2.217216730117798,32.0,5.0,20.0,313.0
2.219599962234497,48.0,0.0,24.0,160.0
2.2219834327697754,5.0,35.0,20.0,6.0
2.2243666648864746,28.0,113.0,32.0,33.0
2.226783275604248,25.0,63.0,5.0,28.0
2.2291667461395264,27.0,13.0,15.0,22.0
2.2315499782562256,28.0,30.0,25.0,54.0
2.233933448791504,21.0,28.0,15.0,30.0
2.236316680908203,25.0,40.0,20.0,5.0
2.2386999130249023,28.0,23.0,25.0,26.0
2.2410833835601807,0.0,34.0,29.0,17.0
2.243499994277954,38.0,39.0,28.0,7.0
2.2458832263946533,22.0,13.0,27.0,8.0
2.2482666969299316,5.0,12.0,27.0,18.0
2.250649929046631,35.0,10.0,39.0,27.0
2.253033399581909,47.0,24.0,6.0,21.0
2.2554166316986084,0.0,38.0,31.0,17.0
2.2578001022338867,63.0,38.0,21.0,12.0
2.26021671295166,66.0,32.0,13.0,20.0
2.2625999450683594,13.0,21.0,0.0,5.0
2.2649834156036377,20.0,11.0,10.0,5.0
2.267366647720337,25.0,12.0,14.0,22.0
2.2697501182556152,13.0,15.0,22.0,23.0
2.2721333503723145,0.0,14.0,15.0,23.0
2.2745165824890137,5.0,13.0,40.0,11.0
2.276933431625366,10.0,14.0,33.0,20.0
2.2793166637420654,46.0,15.0,45.0,29.0
2.2816998958587646,53.0,32.0,64.0,14.0
2.284083366394043,12.0,32.0,11.0,37.0
2.286466598510742,0.0,32.0,47.0,27.0
2.2888500690460205,23.0,28.0,35.0,17.0
2.2912333011627197,32.0,1807.0,26.0,67.0
2.293649911880493,41.0,1728.0,1397.0,419.0
2.2960333824157715,40.0,4600.0,1229.0,770.0
2.2984166145324707,39.0,7471.0,217.0,6463.0
2.300800085067749,16.0,35904.0,3049.0,12440.0
2.3031833171844482,23.0,67920.0,4297.0,14456.0
2.3055665493011475,29.0,139072.0,5546.0,27996.0
2.307950019836426,24.0,205824.0,20544.0,49824.0
2.310366630554199,5.0,301888.0,28060.0,86960.0
2.3127501010894775,11.0,502976.0,53424.0,131776.0
2.3151333332061768,12.0,695552.0,64208.0,177280.0
2.317516565322876,16.0,918784.0,83600.0,230784.0
2.3199000358581543,20.0,1223168.0,103552.0,266368.0
2.3222832679748535,48.0,1435904.0,116800.0,382784.0
2.324666738510132,49.0,1831680.0,150848.0,411648.0
2.3270833492279053,51.0,1930752.0,194240.0,463424.0
2.3294665813446045,54.0,2052864.0,198272.0,551168.0
2.331850051879883,42.0,2447360.0,188864.0,634880.0
2.334233283996582,31.0,2625536.0,238400.0,668672.0
2.3366167545318604,38.0,2918400.0,227648.0,702464.0
2.3389999866485596,23.0,3055616.0,255616.0,735488.0
2.341383218765259,40.0,3052544.0,301312.0,707328.0
2.3438000679016113,38.0,3403776.0,287296.0,755200.0
2.3461833000183105,43.0,3320832.0,305088.0,780544.0
2.348566770553589,40.0,3640320.0,290944.0,881152.0
2.350950002670288,36.0,3794944.0,325888.0,854528.0
2.3533332347869873,87.0,3584000.0,318208.0,892928.0
2.3557167053222656,138.0,3772416.0,310208.0,837888.0
2.358099937438965,158.0,3869696.0,340032.0,945920.0
2.3605165481567383,520.0,4072448.0,340480.0,915200.0
2.3629000186920166,347.0,4101120.0,330304.0,966144.0
2.365283250808716,174.0,3950592.0,332480.0,904192.0
2.367666721343994,162.0,4128768.0,334656.0,937984.0
2.3700499534606934,85.0,4003840.0,335232.0,897024.0
2.3724334239959717,81.0,4219904.0,335872.0,963584.0
2.374816656112671,78.0,4188160.0,346240.0,965888.0
2.3772332668304443,109.0,3991552.0,356672.0,921344.0
2.3796167373657227,117.0,4021248.0,351808.0,957184.0
2.381999969482422,126.0,3996672.0,301504.0,918528.0
2.3843834400177,91.0,3859456.0,340544.0,833024.0
2.3867666721343994,57.0,3700736.0,324416.0,839936.0
2.3891499042510986,92.0,3595264.0,292736.0,830208.0
2.391533374786377,80.0,3421184.0,301952.0,798208.0
2.3939499855041504,135.0,3478528.0,305472.0,823552.0
2.3963332176208496,138.0,3140608.0,248192.0,765184.0
2.398716688156128,136.0,3028992.0,246784.0,709632.0
2.401099920272827,134.0,2933760.0,252544.0,591872.0
2.4034833908081055,131.0,2595840.0,247424.0,601344.0
2.4058666229248047,49.0,2470912.0,214016.0,562176.0
2.408250093460083,43.0,2198528.0,168064.0,482944.0
2.4106667041778564,38.0,1857024.0,160832.0,395136.0
2.4130499362945557,375.0,1589760.0,139904.0,372224.0
2.415433406829834,217.0,1385728.0,120608.0,269248.0
2.417816638946533,60.0,1088256.0,92032.0,232128.0
2.4202001094818115,62.0,991232.0,78960.0,209792.0
2.4225833415985107,0.0,782848.0,57856.0,154048.0
2.42496657371521,88.0,595968.0,43696.0,131136.0
2.4273834228515625,39.0,489600.0,39648.0,109008.0
2.4297666549682617,20.0,348736.0,25256.0,98512.0
2.432149887084961,21.0,295296.0,26996.0,62768.0
2.4345333576202393,30.0,230656.0,17496.0,48240.0
2.4369165897369385,39.0,193728.0,16912.0,52448.0
2.439300060272217,48.0,184128.0,14316.0,21568.0
2.441683292388916,57.0,145024.0,9724.0,39360.0
2.4440999031066895,43.0,127312.0,4900.0,28060.0
2.4464833736419678,10.0,105760.0,10992.0,19836.0
2.448866605758667,53.0,106608.0,10568.0,28828.0
2.4512500762939453,131.0,82928.0,6007.0,20384.0
2.4536333084106445,79.0,75488.0,6100.0,18996.0
2.456016778945923,26.0,78448.0,7909.0,23988.0
2.458400011062622,34.0,76512.0,7854.0,22412.0
2.4608166217803955,53.0,69280.0,7799.0,11224.0
2.463200092315674,37.0,71264.0,7608.0,15084.0
2.465583324432373,30.0,70416.0,6029.0,12552.0
2.4679665565490723,45.0,49104.0,2198.0,14712.0
2.4703500270843506,10.0,56480.0,6375.0,8284.0
2.47273325920105,11.0,48480.0,3260.0,13764.0
2.475116729736328,42.0,41936.0,2393.0,11964.0
2.4775333404541016,25.0,45408.0,2342.0,10836.0
2.479916572570801,18.0,46880.0,3076.0,11752.0
2.482300043106079,36.0,48352.0,2847.0,10948.0
2.4846832752227783,33.0,48608.0,2827.0,10144.0
2.4870667457580566,29.0,44736.0,2806.0,8840.0
2.489449977874756,38.0,40320.0,3330.0,7736.0
2.491833448410034,28.0,29452.0,5054.0,7998.0
2.4942500591278076,39.0,38096.0,5635.0,10460.0
2.496633291244507,62.0,31468.0,3040.0,9128.0
2.499016761779785,57.0,32008.0,2208.0,7799.0
2.5009665489196777,33.0,28684.0,2656.0,7780.0
2.501833438873291,32.0,30648.0,1619.0,7937.0
2.502683401107788,31.0,32608.0,582.0,7956.0
2.5035500526428223,33.0,33792.0,4468.0,7976.0
2.5044167041778564,33.0,31672.0,2539.0,5546.0
2.5053000450134277,32.0,36208.0,611.0,7879.0
2.506150007247925,43.0,20668.0,1154.0,6365.0
2.507016658782959,55.0,29032.0,1850.0,6840.0
2.507883310317993,59.0,25492.0,1509.0,7315.0
2.5087499618530273,45.0,31708.0,1097.0,7471.0
2.5096333026885986,17.0,26344.0,686.0,2478.0
2.51051664352417,18.0,28908.0,1433.0,8164.0
2.511383295059204,51.0,30372.0,823.0,9332.0
2.5122499465942383,26.0,31900.0,944.0,2869.0
2.5131165981292725,45.0,32344.0,1064.0,5132.0
2.5139832496643066,61.0,31668.0,2789.0,4480.0
2.514849901199341,78.0,24852.0,2740.0,4690.0
2.515716552734375,76.0,24824.0,2691.0,3695.0
2.5165834426879883,25.0,24376.0,1490.0,5574.0
2.5174500942230225,57.0,21640.0,1618.0,5306.0
2.5183167457580566,46.0,23728.0,1746.0,7526.0
2.519183397293091,62.0,25504.0,1701.0,7445.0
2.520050048828125,24.0,24748.0,1656.0,8468.0
2.520916700363159,50.0,24680.0,1783.0,3379.0
2.5217833518981934,21.0,24612.0,1913.0,7959.0
2.5226500034332275,31.0,17720.0,2042.0,5907.0
2.5235166549682617,5.0,24512.0,1316.0,4245.0
2.524383306503296,43.0,31656.0,2192.0,3302.0
2.52524995803833,41.0,30056.0,3199.0,3737.0
2.5261166095733643,55.0,15432.0,489.0,6436.0
2.5270333290100098,29.0,24064.0,1869.0,6519.0
2.527916669845581,30.0,31376.0,1048.0,6815.0
2.5287833213806152,32.0,20644.0,453.0,7444.0
2.5296499729156494,46.0,26584.0,1062.0,8688.0
2.5305166244506836,51.0,22740.0,1671.0,8856.0
2.5313832759857178,55.0,28088.0,1479.0,1494.0
2.532249927520752,32.0,20368.0,1287.0,8212.0
2.533116579055786,10.0,19620.0,2620.0,3722.0
2.5339832305908203,32.0,18112.0,3217.0,1664.0
2.5348498821258545,25.0,20720.0,3040.0,5222.0
2.5357167720794678,17.0,23324.0,2877.0,2863.0
2.536583423614502,20.0,24944.0,1007.0,4532.0
2.537450075149536,23.0,11500.0,696.0,2355.0
2.5383167266845703,74.0,23272.0,425.0,4197.0
2.5391833782196045,47.0,18764.0,882.0,3885.0
2.5400500297546387,19.0,22172.0,452.0,2710.0
2.540916681289673,69.0,20660.0,918.0,6100.0
2.541783332824707,44.0,19148.0,1317.0,6153.0
2.542649984359741,17.0,15940.0,2829.0,6441.0
2.5435166358947754,5.0,18240.0,2042.0,7999.0
2.544433355331421,22.0,20540.0,1255.0,3380.0
2.545300006866455,22.0,23652.0,1151.0,8536.0
2.5461666584014893,21.0,11708.0,1528.0,7361.0
2.5470333099365234,31.0,27324.0,1856.0,2536.0
2.5478999614715576,23.0,22260.0,593.0,6682.0
2.548766613006592,15.0,30392.0,2091.0,3248.0
2.549633264541626,23.0,13536.0,2794.0,8416.0
2.55049991607666,30.0,23120.0,690.0,7578.0
2.5513665676116943,30.0,24600.0,49.0,3193.0
2.5522332191467285,28.0,16848.0,2376.0,3698.0
2.5531165599823,34.0,20900.0,2064.0,6405.0
2.553966760635376,22.0,17408.0,701.0,4690.0
2.55483341217041,29.0,21312.0,1615.0,794.0
2.5557000637054443,58.0,13804.0,30.0,4411.0
2.5565834045410156,37.0,15048.0,34.0,5943.0
2.5574333667755127,17.0,23316.0,37.0,4488.0
2.558300018310547,33.0,18956.0,1228.0,2267.0
2.559166669845581,31.0,22956.0,785.0,6026.0
2.5600333213806152,28.0,12680.0,342.0,5672.0
2.5609500408172607,22.0,10904.0,951.0,4235.0
2.561833381652832,36.0,15052.0,1035.0,3455.0
2.562700033187866,50.0,11928.0,1120.0,2675.0
2.5635666847229004,50.0,10336.0,1905.0,6174.0
2.5644333362579346,5.0,8744.0,2092.0,6497.0
2.5652999877929688,23.0,13776.0,1645.0,2225.0
2.566166639328003,50.0,18804.0,1198.0,3910.0
2.567033290863037,31.0,20088.0,2483.0,6045.0
2.5678999423980713,40.0,16492.0,1914.0,5534.0
2.5687665939331055,20.0,17584.0,1185.0,3879.0
2.5696332454681396,26.0,11596.0,768.0,2065.0
2.570499897003174,31.0,12244.0,1735.0,3319.0
2.571366548538208,35.0,12888.0,1658.0,4574.0
2.5722334384918213,26.0,13684.0,1581.0,2526.0
2.5731000900268555,35.0,13488.0,1800.0,4771.0
2.5739667415618896,22.0,13088.0,821.0,5169.0
2.574833393096924,18.0,13644.0,1348.0,4746.0
2.575700044631958,13.0,14200.0,674.0,3896.0
2.576566696166992,16.0,9500.0,1667.0,3450.0
2.5774333477020264,13.0,17484.0,2075.0,2473.0
2.578366756439209,10.0,14700.0,1523.0,2971.0
2.579233407974243,21.0,11568.0,1356.0,3660.0
2.5801000595092773,20.0,10100.0,1154.0,2321.0
2.5809667110443115,19.0,16464.0,1426.0,5259.0
2.5818333625793457,11.0,13240.0,1257.0,5091.0
2.58270001411438,20.0,14004.0,1295.0,3698.0
2.583566665649414,29.0,8772.0,1553.0,4827.0
2.5844333171844482,59.0,18076.0,39.0,2769.0
2.5852999687194824,39.0,14548.0,1192.0,1415.0
2.5861666202545166,20.0,14336.0,30.0,2691.0
2.587033271789551,63.0,15008.0,445.0,2896.0
2.587899923324585,46.0,11372.0,1256.0,3506.0
2.588766574859619,40.0,12976.0,1736.0,4116.0
2.5896332263946533,73.0,15868.0,1125.0,3566.0
2.5905001163482666,81.0,8704.0,477.0,3180.0
2.591366767883301,89.0,13984.0,505.0,2499.0
2.592233419418335,12.0,16084.0,948.0,2637.0
2.593100070953369,40.0,17740.0,755.0,2086.0
2.5939667224884033,5.0,19360.0,561.0,1534.0
2.5948667526245117,26.0,10780.0,405.0,1958.0
2.59576678276062,42.0,7752.0,701.0,1426.0
2.5966334342956543,32.0,8800.0,998.0,1276.0
2.5975000858306885,21.0,13408.0,1122.0,1126.0
2.5983667373657227,10.0,13256.0,176.0,1108.0
2.599233388900757,5.0,13104.0,304.0,1090.0
2.600100040435791,18.0,13800.0,432.0,964.0
2.600966691970825,12.0,14500.0,1042.0,838.0
2.6018333435058594,6.0,15180.0,1120.0,1195.0
2.6026999950408936,13.0,15860.0,166.0,1552.0
2.6035666465759277,20.0,16104.0,86.0,2996.0
2.604433298110962,30.0,10444.0,5.0,2693.0
2.605299949645996,33.0,8106.0,623.0,1886.0
2.6061666011810303,49.0,15460.0,872.0,2001.0
2.6070332527160645,40.0,9228.0,1121.0,2325.0
2.6078999042510986,47.0,13344.0,45.0,3936.0
2.608766555786133,53.0,10740.0,463.0,3879.0
2.609633445739746,27.0,9788.0,1360.0,3254.0
2.6105000972747803,84.0,14492.0,167.0,2127.0
2.6113667488098145,141.0,8264.0,1621.0,2887.0
2.612299919128418,175.0,11308.0,705.0,3647.0
2.613166570663452,207.0,10084.0,1994.0,1484.0
2.6140332221984863,305.0,8816.0,40.0,4854.0
2.6149001121520996,403.0,7545.0,1282.0,3769.0
2.615766763687134,592.0,9524.0,458.0,957.0
2.616633415222168,312.0,9172.0,423.0,2841.0
2.617500066757202,31.0,8058.0,387.0,3224.0
2.6183667182922363,1016.0,8872.0,385.0,2443.0
2.6192333698272705,1692.0,9692.0,382.0,1661.0
2.6201000213623047,3618.0,9016.0,209.0,1030.0
2.620966672897339,2419.0,8340.0,35.0,1130.0
2.621833324432373,1220.0,6169.0,20.0,1231.0
2.6226999759674072,2068.0,8944.0,545.0,1877.0
2.6235666275024414,4853.0,6345.0,2448.0,1827.0
2.6244332790374756,4811.0,10184.0,2060.0,2596.0
2.6252999305725098,695.0,9992.0,1404.0,480.0
2.626166582107544,2496.0,9800.0,627.0,1358.0
2.627033233642578,3127.0,8704.0,39.0,1277.0
2.6278998851776123,2669.0,6641.0,33.0,905.0
2.6287832260131836,4583.0,4577.0,27.0,2740.0
2.629650115966797,5931.0,5896.0,844.0,2943.0
2.630516767501831,4962.0,6021.0,459.0,2018.0
2.6313834190368652,3993.0,6773.0,75.0,1093.0
2.6322500705718994,3125.0,7526.0,11.0,3311.0
2.6331167221069336,11836.0,8119.0,438.0,794.0
2.6339833736419678,9892.0,8044.0,865.0,1276.0
2.634850025177002,6824.0,8720.0,1084.0,1459.0
2.635716676712036,7803.0,8656.0,992.0,1140.0
2.6365833282470703,8828.0,8588.0,1094.0,821.0
2.6374499797821045,8113.0,6929.0,10.0,825.0
2.6383166313171387,6421.0,5268.0,1066.0,829.0
2.639183282852173,5614.0,9548.0,958.0,949.0
2.640049934387207,7190.0,4446.0,10.0,1069.0
2.640916585922241,8768.0,8608.0,35.0,1519.0
2.6417832374572754,8488.0,8548.0,28.0,45.0
2.6426498889923096,12164.0,10648.0,57.0,28.0
2.643516778945923,11592.0,5879.0,684.0,2139.0
2.644383430480957,14560.0,6366.0,374.0,1576.0
2.645250082015991,7973.0,8568.0,64.0,1202.0
2.6461832523345947,17020.0,5607.0,361.0,2442.0
2.647049903869629,8848.0,5870.0,35.0,1315.0
2.647916555404663,12376.0,6406.0,41.0,769.0
2.6487834453582764,9236.0,8084.0,46.0,1923.0
2.6496500968933105,8996.0,7142.0,63.0,970.0
2.6505167484283447,12620.0,6200.0,80.0,17.0
2.651383399963379,13772.0,6252.0,63.0,1072.0
2.652250051498413,14928.0,6305.0,45.0,754.0
2.6531167030334473,13944.0,5484.0,388.0,564.0
2.6539833545684814,13720.0,4664.0,731.0,372.0
2.6548500061035156,13492.0,5568.0,745.0,180.0
2.65571665763855,14744.0,6661.0,116.0,55.0
2.656583309173584,10496.0,7230.0,92.0,2065.0
2.657449960708618,19568.0,5393.0,723.0,2503.0
2.6583166122436523,18104.0,6083.0,435.0,3012.0
2.6591832637786865,16640.0,4642.0,147.0,810.0
2.6600499153137207,19408.0,9868.0,1230.0,770.0
2.660916566848755,13596.0,9388.0,1346.0,730.0
2.661783218383789,21564.0,5095.0,1787.0,5.0
2.6626999378204346,16152.0,4679.0,720.0,674.0
2.6635665893554688,20112.0,4401.0,165.0,35.0
2.664433240890503,23140.0,5917.0,0.0,594.0
2.665299892425537,26104.0,5147.0,952.0,471.0
2.6661667823791504,22720.0,4377.0,11.0,348.0
2.6670334339141846,18872.0,4072.0,32.0,854.0
2.6679000854492188,20620.0,4911.0,1119.0,972.0
2.668766736984253,18124.0,4858.0,26.0,1090.0
2.669633388519287,15628.0,4804.0,719.0,919.0
2.6705000400543213,16248.0,3769.0,36.0,1207.0
2.6713666915893555,18692.0,2733.0,32.0,708.0
2.6722333431243896,16960.0,370.0,28.0,22.0
2.673099994659424,12708.0,3960.0,391.0,1515.0
2.673966646194458,13220.0,4291.0,740.0,2003.0
2.674833297729492,13736.0,2932.0,388.0,1856.0
2.6756999492645264,14788.0,2803.0,36.0,134.0
2.6765666007995605,20480.0,4754.0,10.0,25.0
2.6774332523345947,22172.0,2919.0,26.0,968.0
2.678299903869629,12104.0,4006.0,51.0,1495.0
2.679166555404663,19444.0,5002.0,28.0,1819.0
2.6800999641418457,16060.0,4176.0,5.0,0.0
2.68096661567688,10140.0,3401.0,32.0,778.0
2.681833267211914,16608.0,4631.0,28.0,299.0
2.6826999187469482,19968.0,1613.0,23.0,625.0
2.6835665702819824,17588.0,2125.0,21.0,596.0
2.6844332218170166,11984.0,3835.0,19.0,568.0
2.68530011177063,15228.0,2680.0,63.0,553.0
2.686166763305664,10172.0,2869.0,995.0,539.0
2.6870334148406982,12664.0,2128.0,823.0,890.0
2.6879000663757324,12328.0,3910.0,795.0,1241.0
2.6887667179107666,10708.0,4733.0,10.0,16.0
2.689633369445801,9092.0,6099.0,1093.0,447.0
2.690500020980835,8404.0,6788.0,41.0,15.0
2.691366672515869,7719.0,3367.0,999.0,43.0
2.6922333240509033,8119.0,1242.0,23.0,38.0
2.6930999755859375,7945.0,7284.0,61.0,25.0
2.6939666271209717,7771.0,3407.0,435.0,558.0
2.694833278656006,7248.0,4252.0,43.0,657.0
2.69569993019104,7105.0,3027.0,49.0,755.0
2.6966333389282227,6962.0,2103.0,16.0,428.0
2.697499990463257,6288.0,2969.0,91.0,369.0
2.698366641998291,5391.0,2519.0,69.0,27.0
2.699233293533325,4493.0,1949.0,47.0,186.0
