,316.2099914550781,317.2099914550781,318.2099914550781,319.2099914550781,320.2099914550781,321.2099914550781,322.2099914550781
2.051500082015991,0.0,0.0,303.0,1376.0,1340.0,29.0,15.0
2.0530166625976562,10.0,11.0,2354.0,35.0,1331.0,219.0,26.0
2.0545332431793213,5.0,17.0,7.0,544.0,3329.0,638.0,10.0
2.0560500621795654,5.0,20.0,979.0,205.0,15.0,773.0,360.0
2.0575666427612305,21.0,13.0,1116.0,12.0,795.0,57.0,228.0
2.0590832233428955,38.0,5.0,571.0,10.0,0.0,38.0,95.0
2.0606000423431396,33.0,3.0,15.0,403.0,70.0,5.0,68.0
2.0621166229248047,27.0,0.0,1176.0,797.0,140.0,5.0,42.0
2.063633441925049,11.0,35.0,52.0,403.0,11.0,19.0,151.0
2.065150022506714,28.0,24.0,15.0,10.0,137.0,592.0,99.0
2.066666603088379,20.0,14.0,884.0,35.0,82.0,478.0,47.0
2.0682499408721924,20.0,0.0,13.0,13.0,26.0,22.0,19.0
2.0697667598724365,23.0,22.0,30.0,16.0,39.0,576.0,10.0
2.0712833404541016,26.0,14.0,13.0,18.0,51.0,7.0,8.0
2.0727999210357666,0.0,5.0,13.0,10.0,529.0,17.0,5.0
2.0743167400360107,7.0,55.0,13.0,1232.0,523.0,27.0,34.0
2.075833320617676,38.0,44.0,438.0,978.0,776.0,25.0,32.0
2.077349901199341,17.0,72.0,468.0,19.0,73.0,0.0,30.0
2.078866720199585,21.0,18.0,499.0,1423.0,387.0,657.0,5.0
2.08038330078125,24.0,25.0,458.0,10.0,702.0,833.0,15.0
2.081899881362915,37.0,20.0,364.0,36.0,5.0,1264.0,25.0
2.083416700363159,27.0,16.0,11.0,265.0,366.0,101.0,19.0
2.0849833488464355,17.0,11.0,5.0,39.0,255.0,12.0,93.0
2.0864999294281006,20.0,30.0,36.0,51.0,130.0,932.0,448.0
2.0880167484283447,15.0,24.0,36.0,10.0,5.0,481.0,233.0
2.0895333290100098,18.0,18.0,20.0,21.0,20.0,30.0,18.0
2.091049909591675,26.0,44.0,5.0,31.0,0.0,742.0,8.0
2.092566728591919,88.0,58.0,8.0,20.0,893.0,1091.0,0.0
2.094083309173584,60.0,73.0,10.0,8.0,721.0,38.0,5.0
2.095599889755249,33.0,51.0,11.0,26.0,1127.0,267.0,29.0
2.097116708755493,6.0,52.0,596.0,64.0,871.0,5.0,18.0
2.098633289337158,71.0,49.0,780.0,101.0,614.0,15.0,6.0
2.1001501083374023,45.0,47.0,36.0,517.0,1004.0,84.0,11.0
2.101733446121216,31.0,6.0,5.0,540.0,1281.0,153.0,13.0
2.103250026702881,9.0,13.0,133.0,358.0,1416.0,722.0,15.0
2.104766607284546,33.0,27.0,81.0,177.0,1521.0,374.0,10.0
2.10628342628479,20.0,18.0,28.0,0.0,1307.0,26.0,17.0
2.107800006866455,10.0,18.0,17.0,261.0,1413.0,24.0,23.0
2.10931658744812,10.0,15.0,20.0,522.0,1519.0,21.0,209.0
2.1108334064483643,26.0,17.0,22.0,1025.0,2071.0,1547.0,177.0
2.1123499870300293,35.0,18.0,33.0,1327.0,2624.0,5523.0,12.0
2.1138665676116943,44.0,17.0,44.0,1416.0,7212.0,5823.0,170.0
2.1153833866119385,10.0,15.0,5.0,26.0,6191.0,4058.0,329.0
2.1168999671936035,0.0,17.0,6.0,2307.0,6395.0,4691.0,1181.0
2.11846661567688,53.0,19.0,14.0,2586.0,6517.0,3706.0,1360.0
2.119983434677124,30.0,19.0,12.0,4325.0,6640.0,3437.0,2499.0
2.121500015258789,7.0,23.0,10.0,4063.0,5705.0,4854.0,2594.0
2.123016595840454,29.0,26.0,16.0,1665.0,4770.0,3872.0,322.0
2.1245334148406982,20.0,5.0,22.0,520.0,6794.0,2889.0,578.0
2.1260499954223633,11.0,15.0,466.0,2946.0,8816.0,4942.0,1541.0
2.1275665760040283,16.0,24.0,301.0,1297.0,11104.0,4389.0,2010.0
2.1290833950042725,20.0,188.0,136.0,2133.0,10460.0,3835.0,2794.0
2.1305999755859375,13.0,351.0,661.0,1741.0,9104.0,5219.0,3578.0
2.1321165561676025,20.0,179.0,500.0,1350.0,9884.0,3644.0,2557.0
2.1336333751678467,27.0,6.0,686.0,2345.0,8188.0,7761.0,1535.0
2.13521671295166,0.0,6.0,24.0,1505.0,6774.0,6796.0,5702.0
2.136733293533325,22.0,5.0,34.0,1055.0,11788.0,7389.0,5382.0
2.1382501125335693,14.0,605.0,44.0,604.0,13284.0,4542.0,2868.0
2.1397666931152344,7.0,1204.0,803.0,1196.0,7290.0,8844.0,4827.0
2.1412832736968994,0.0,885.0,814.0,1788.0,11128.0,4143.0,1701.0
2.1428000926971436,35.0,1488.0,463.0,2403.0,8106.0,4712.0,3093.0
2.1443166732788086,29.0,22.0,112.0,2775.0,7315.0,5280.0,3016.0
2.1458332538604736,22.0,58.0,312.0,448.0,9392.0,6150.0,2648.0
2.1473500728607178,0.0,1364.0,512.0,371.0,10004.0,7052.0,4056.0
2.148866653442383,8.0,32.0,511.0,2915.0,10612.0,7955.0,907.0
2.150383234024048,14.0,18.0,176.0,328.0,13236.0,6918.0,4675.0
2.151949882507324,30.0,0.0,31.0,2645.0,11808.0,8204.0,796.0
2.1535000801086426,22.0,4.0,24.0,3069.0,10380.0,7625.0,1185.0
2.1549999713897705,0.0,8.0,1380.0,24.0,11336.0,5897.0,991.0
2.1565332412719727,7.0,599.0,1678.0,3982.0,7514.0,4145.0,2170.0
2.158050060272217,12.0,458.0,5.0,2339.0,8680.0,8316.0,2745.0
2.159566640853882,14.0,229.0,569.0,5758.0,7230.0,7279.0,3233.0
2.161083221435547,15.0,400.0,1133.0,2880.0,10588.0,8424.0,2567.0
2.162600040435791,30.0,24.0,10.0,1255.0,10772.0,3568.0,1901.0
2.164099931716919,28.0,5.0,9.0,4870.0,11240.0,2957.0,1874.0
2.165616750717163,14.0,631.0,8.0,0.0,8328.0,4702.0,1628.0
2.1671500205993652,0.0,668.0,38.0,2303.0,12072.0,4782.0,606.0
2.1686666011810303,16.0,706.0,35.0,2997.0,10112.0,4554.0,721.0
2.1702001094818115,7.0,62.0,33.0,1949.0,8152.0,5528.0,836.0
2.1717166900634766,16.0,10.0,52.0,835.0,11732.0,6044.0,989.0
2.1732332706451416,11.0,328.0,499.0,1628.0,9320.0,6560.0,1620.0
2.1747500896453857,5.0,14.0,609.0,2203.0,7980.0,4075.0,1911.0
2.176266670227051,18.0,0.0,15.0,2234.0,6088.0,5677.0,125.0
2.177799940109253,15.0,18.0,249.0,2029.0,10096.0,3877.0,797.0
2.17930006980896,12.0,25.0,501.0,1823.0,9496.0,2078.0,1230.0
2.180816650390625,23.0,32.0,254.0,1774.0,11544.0,6757.0,606.0
2.18233323097229,955.0,21.0,8.0,1725.0,10740.0,7310.0,1738.0
2.183850049972534,1110.0,10.0,20.0,45.0,9936.0,7863.0,1345.0
2.185366630554199,20.0,525.0,5.0,1451.0,10716.0,6317.0,2251.0
2.1869499683380127,29.0,1040.0,0.0,2857.0,9932.0,4771.0,1750.0
2.1884665489196777,5.0,685.0,0.0,2731.0,9144.0,4869.0,1188.0
2.189983367919922,5.0,272.0,17.0,2605.0,4942.0,4967.0,795.0
2.191499948501587,26.0,6.0,16.0,1317.0,9212.0,7648.0,1552.0
2.193016767501831,49.0,8.0,213.0,28.0,8065.0,6743.0,2309.0
2.194533348083496,64.0,9.0,409.0,2242.0,6611.0,5838.0,1872.0
2.196049928665161,35.0,6.0,223.0,1390.0,8132.0,4803.0,557.0
2.1975667476654053,12.0,9.0,38.0,537.0,7545.0,7525.0,1950.0
2.1990833282470703,12.0,12.0,454.0,2138.0,6958.0,6818.0,978.0
2.2005999088287354,12.0,25.0,741.0,1362.0,8840.0,6110.0,1222.0
2.2021167278289795,66.0,15.0,801.0,585.0,11024.0,8268.0,1466.0
2.203700065612793,48.0,5.0,50.0,2159.0,11928.0,5086.0,1532.0
2.205216646194458,31.0,18.0,545.0,334.0,10184.0,6545.0,1597.0
2.206733226776123,25.0,743.0,1039.0,2111.0,7347.0,4410.0,1100.0
2.208250045776367,21.0,717.0,17.0,2253.0,6116.0,2797.0,1125.0
2.2097666263580322,34.0,757.0,40.0,10.0,3636.0,3927.0,941.0
2.2112834453582764,120.0,397.0,19.0,2498.0,5789.0,5056.0,756.0
2.2128000259399414,72.0,38.0,11.0,1632.0,6581.0,1097.0,975.0
2.2143166065216064,23.0,10.0,646.0,1583.0,7373.0,5032.0,1822.0
2.2158334255218506,37.0,13.0,866.0,108.0,3896.0,5146.0,1627.0
2.2173500061035156,50.0,15.0,11.0,13.0,3293.0,6859.0,1432.0
2.2188665866851807,33.0,0.0,953.0,552.0,6834.0,4464.0,144.0
2.220433235168457,5.0,21.0,31.0,1873.0,5010.0,3403.0,1757.0
2.221950054168701,8.0,0.0,372.0,2223.0,4304.0,2456.0,2301.0
2.223466634750366,11.0,299.0,13.0,1188.0,4606.0,1769.0,1203.0
2.2249832153320312,6.0,164.0,0.0,1743.0,3447.0,2782.0,1809.0
2.2265000343322754,0.0,28.0,11.0,1527.0,3258.0,2677.0,20.0
2.2280166149139404,5.0,568.0,21.0,5.0,3771.0,2572.0,5.0
2.2295334339141846,10.0,316.0,49.0,1169.0,1960.0,710.0,5.0
2.2310500144958496,20.0,64.0,56.0,785.0,647.0,2229.0,0.0
2.2325665950775146,18.0,11.0,5.0,576.0,1233.0,1280.0,17.0
2.234083414077759,5.0,650.0,23.0,368.0,797.0,878.0,152.0
2.235599994659424,7.0,1259.0,301.0,1964.0,1188.0,1855.0,92.0
2.2371833324432373,9.0,1643.0,153.0,2334.0,1571.0,1288.0,33.0
2.2386999130249023,15.0,2028.0,5.0,556.0,1955.0,721.0,24.0
2.2402167320251465,20.0,689.0,5.0,409.0,1290.0,1598.0,11.0
2.2417333126068115,10.0,3101.0,20.0,29.0,626.0,1342.0,5.0
2.2432498931884766,0.0,2810.0,18.0,33.0,1762.0,1576.0,11.0
2.2447667121887207,0.0,2519.0,16.0,37.0,16.0,920.0,16.0
2.2462832927703857,0.0,5019.0,18.0,15.0,20.0,11.0,20.0
2.24780011177063,0.0,4595.0,19.0,20.0,48.0,875.0,23.0
2.249316692352295,21.0,3547.0,166.0,44.0,337.0,56.0,7.0
2.25083327293396,20.0,182.0,83.0,22.0,627.0,1316.0,10.0
2.252350091934204,18.0,3380.0,0.0,0.0,585.0,669.0,14.0
2.2539167404174805,9.0,3090.0,12.0,244.0,543.0,21.0,9.0
2.2554333209991455,0.0,2801.0,24.0,272.0,0.0,11.0,5.0
2.2569499015808105,15.0,3633.0,18.0,300.0,6.0,21.0,28.0
2.2584667205810547,21.0,4486.0,11.0,462.0,12.0,579.0,91.0
2.2599833011627197,26.0,4126.0,14.0,231.0,423.0,1352.0,62.0
2.2614998817443848,20.0,3654.0,2075.0,0.0,926.0,1018.0,33.0
2.263016700744629,19.0,1171.0,2149.0,32.0,1430.0,16.0,54.0
2.264533281326294,19.0,5240.0,1753.0,63.0,2049.0,26.0,76.0
2.266050100326538,20.0,4249.0,1091.0,27.0,1569.0,9.0,19.0
2.267566680908203,20.0,3705.0,505.0,27.0,1089.0,128.0,14.0
2.269083261489868,27.0,5165.0,15.0,27.0,497.0,80.0,32.0
2.2706665992736816,34.0,2103.0,372.0,433.0,738.0,31.0,22.0
2.272183418273926,35.0,5287.0,13.0,570.0,1273.0,0.0,13.0
2.273699998855591,37.0,3581.0,907.0,30.0,39.0,12.0,15.0
2.275216579437256,5.0,3512.0,815.0,574.0,29.0,18.0,17.0
2.2767333984375,37.0,2233.0,724.0,35.0,17.0,24.0,15.0
2.278249979019165,6.0,3986.0,87.0,17.0,27.0,20.0,0.0
2.27976655960083,37.0,2227.0,40.0,0.0,16.0,15.0,0.0
2.281283378601074,28.0,4772.0,32.0,29.0,5.0,32.0,19.0
2.2827999591827393,20.0,3908.0,23.0,207.0,17.0,29.0,5.0
2.2843167781829834,43.0,3257.0,259.0,112.0,28.0,5.0,31.0
2.2858333587646484,66.0,1020.0,494.0,17.0,33.0,9.0,29.0
2.2873833179473877,62.0,3361.0,1374.0,37.0,38.0,10.0,28.0
2.28891658782959,10.0,888.0,694.0,27.0,183.0,10.0,20.0
2.290433406829834,18.0,1911.0,13.0,39.0,106.0,5.0,12.0
2.291949987411499,11.0,942.0,0.0,51.0,29.0,0.0,17.0
2.293466567993164,25.0,1948.0,9.0,755.0,13.0,11.0,19.0
2.294983386993408,17.0,2954.0,18.0,757.0,9.0,58.0,16.0
2.2964999675750732,8.0,2457.0,133.0,693.0,5.0,45.0,12.0
2.2980165481567383,20.0,2012.0,797.0,261.0,50.0,31.0,46.0
2.2995333671569824,16.0,1568.0,401.0,39.0,25.0,7.0,23.0
2.302799940109253,12.0,2368.0,5.0,571.0,0.0,704.0,0.0
2.3060998916625977,5.0,3168.0,456.0,402.0,164.0,371.0,54.0
2.30935001373291,23.0,2796.0,21.0,2642.0,328.0,38.0,30.0
2.3125998973846436,18.0,2474.0,39.0,2650.0,557.0,5.0,21.0
2.315850019454956,12.0,2096.0,22.0,14.0,363.0,9.0,38.0
2.3190999031066895,21.0,1506.0,6.0,30.0,169.0,861.0,34.0
2.3224000930786133,20.0,1541.0,13.0,0.0,90.0,446.0,28.0
2.3256499767303467,18.0,2698.0,13.0,564.0,12.0,31.0,25.0
2.328900098800659,8.0,454.0,12.0,526.0,260.0,47.0,21.0
2.3321666717529297,5.0,2654.0,9.0,488.0,132.0,43.0,0.0
2.335416555404663,25.0,984.0,5.0,22.0,5.0,33.0,27.0
2.338716745376587,25.0,800.0,42.0,339.0,18.0,23.0,16.0
2.3419666290283203,0.0,29.0,40.0,656.0,906.0,11.0,28.0
2.345216751098633,11.0,61.0,38.0,60.0,456.0,13.0,27.0
2.348466634750366,21.0,63.0,19.0,26.0,5.0,15.0,25.0
2.3517167568206787,37.0,0.0,0.0,997.0,39.0,7.0,17.0
2.354966640472412,38.0,18.0,50.0,808.0,484.0,12.0,12.0
2.358283281326294,5.0,1358.0,0.0,23.0,254.0,17.0,8.0
2.3615334033966064,29.0,1522.0,417.0,60.0,24.0,23.0,22.0
2.36478328704834,33.0,820.0,834.0,1039.0,11.0,28.0,16.0
2.3680334091186523,26.0,18.0,850.0,57.0,25.0,26.0,913.0
2.3712832927703857,40.0,806.0,52.0,559.0,39.0,13.0,971.0
2.3745999336242676,0.0,78.0,1038.0,60.0,823.0,13.0,43.0
2.37785005569458,0.0,28.0,1069.0,22.0,1102.0,13.0,34.0
2.3810999393463135,5.0,16.0,954.0,29.0,333.0,7.0,13.0
2.384350061416626,26.0,11.0,48.0,19.0,0.0,11.0,12.0
2.3875999450683594,33.0,5.0,22.0,26.0,5.0,0.0,38.0
2.390899896621704,15.0,34.0,0.0,33.0,12.0,29.0,12.0
2.3941500186920166,11.0,48.0,76.0,12.0,19.0,22.0,25.0
2.39739990234375,19.0,26.0,43.0,9.0,59.0,14.0,36.0
2.4006500244140625,12.0,13.0,10.0,5.0,46.0,5.0,18.0
2.403916597366333,5.0,0.0,10.0,770.0,10.0,11.0,34.0
2.4072165489196777,0.0,20.0,15.0,625.0,22.0,0.0,17.0
2.4104666709899902,19.0,40.0,16.0,1080.0,26.0,18.0,31.0
2.4137165546417236,29.0,856.0,16.0,43.0,12.0,15.0,45.0
2.416966676712036,28.0,1059.0,34.0,0.0,12.0,5.0,31.0
2.4202165603637695,17.0,0.0,23.0,1288.0,15.0,23.0,17.0
2.4235167503356934,5.0,23.0,11.0,13.0,17.0,0.0,12.0
2.4267666339874268,17.0,16.0,33.0,0.0,38.0,29.0,6.0
2.4300334453582764,10.0,10.0,6.0,26.0,39.0,26.0,8.0
2.4332833290100098,5.0,41.0,18.0,14.0,41.0,22.0,10.0
2.4365334510803223,0.0,44.0,29.0,21.0,15.0,29.0,30.0
2.4397833347320557,11.0,18.0,30.0,17.0,60.0,23.0,50.0
2.443049907684326,11.0,17.0,31.0,428.0,911.0,11.0,36.0
2.4463000297546387,11.0,21.0,24.0,214.0,855.0,14.0,25.0
2.449566602706909,14.0,11.0,16.0,0.0,45.0,16.0,49.0
2.4528167247772217,17.0,0.0,21.0,293.0,0.0,1586.0,12.0
2.456066608428955,29.0,14.0,28.0,467.0,6.0,1199.0,27.0
2.4593665599823,42.0,7.0,35.0,641.0,13.0,535.0,24.0
2.4626166820526123,36.0,11.0,31.0,31.0,388.0,5.0,39.0
2.4658665657043457,33.0,0.0,17.0,682.0,352.0,13.0,0.0
2.469116687774658,18.0,16.0,22.0,15.0,189.0,380.0,31.0
2.4723665714263916,274.0,19.0,26.0,26.0,26.0,45.0,10.0
2.4756834506988525,141.0,21.0,5.0,319.0,70.0,20.0,294.0
2.478933334350586,8.0,20.0,9.0,14.0,44.0,32.0,150.0
2.4821832180023193,7.0,18.0,13.0,158.0,385.0,8.0,6.0
2.485433340072632,0.0,10.0,255.0,425.0,451.0,19.0,36.0
2.4886832237243652,12.0,16.0,143.0,691.0,413.0,12.0,50.0
2.491983413696289,0.0,5.0,31.0,701.0,216.0,5.0,31.0
2.4952332973480225,7.0,9.0,6.0,1095.0,18.0,34.0,8.0
2.498483419418335,15.0,30.0,3.0,16.0,360.0,25.0,34.0
2.5017333030700684,22.0,26.0,0.0,80.0,14.0,17.0,42.0
2.505000114440918,28.0,13.0,9.0,349.0,66.0,56.0,7.0
2.5083000659942627,25.0,0.0,13.0,194.0,15.0,55.0,29.0
2.511549949645996,10.0,28.0,16.0,39.0,950.0,54.0,43.0
2.5148000717163086,5.0,6.0,206.0,23.0,1166.0,37.0,26.0
2.518049955368042,25.0,29.0,103.0,5.0,66.0,22.0,25.0
2.5213000774383545,57.0,33.0,0.0,12.0,11.0,18.0,24.0
2.524583339691162,38.0,26.0,7.0,26.0,48.0,23.0,20.0
2.5278666019439697,18.0,27.0,115.0,22.0,685.0,24.0,5.0
2.5311167240142822,45.0,27.0,22.0,17.0,804.0,25.0,78.0
2.5343666076660156,25.0,7.0,41.0,13.0,37.0,22.0,39.0
2.537616729736328,5.0,20.0,59.0,28.0,32.0,18.0,0.0
2.5408666133880615,26.0,0.0,75.0,26.0,20.0,49.0,19.0
2.544133424758911,24.0,3.0,91.0,24.0,11.0,80.0,21.0
2.5473833084106445,22.0,6.0,28.0,12.0,17.0,58.0,0.0
2.550633430480957,0.0,7.0,20.0,0.0,22.0,37.0,58.0
2.5538833141326904,16.0,7.0,290.0,15.0,0.0,0.0,57.0
2.557133436203003,5.0,8.0,559.0,22.0,9.0,18.0,33.0
2.5604500770568848,13.0,8.0,829.0,29.0,212.0,32.0,18.0
2.563699960708618,20.0,39.0,423.0,32.0,109.0,31.0,45.0
2.5669500827789307,20.0,67.0,16.0,35.0,7.0,31.0,71.0
2.570199966430664,19.0,37.0,5.0,17.0,36.0,35.0,46.0
2.5734500885009766,21.0,6.0,34.0,0.0,1261.0,27.0,21.0
2.5767667293548584,5.0,44.0,5.0,10.0,1427.0,19.0,18.0
2.580016613006592,17.0,41.0,10.0,19.0,10.0,23.0,15.0
2.5832667350769043,38.0,9.0,23.0,213.0,26.0,27.0,15.0
2.5865166187286377,27.0,10.0,36.0,107.0,491.0,7.0,34.0
2.58976674079895,17.0,49.0,38.0,0.0,18.0,24.0,19.0
2.5930333137512207,29.0,13.0,38.0,20.0,30.0,41.0,5.0
2.596283435821533,12.0,25.0,39.0,41.0,0.0,0.0,16.0
2.5995333194732666,16.0,26.0,13.0,9.0,13.0,6.0,5.0
2.602799892425537,20.0,5.0,20.0,18.0,26.0,12.0,21.0
2.6060500144958496,19.0,5.0,27.0,26.0,21.0,13.0,529.0
2.6093499660491943,12.0,6.0,26.0,33.0,16.0,14.0,275.0
2.612600088119507,340.0,5.0,25.0,31.0,20.0,15.0,21.0
2.6158499717712402,182.0,5.0,26.0,5.0,19.0,5.0,35.0
2.6191000938415527,23.0,6.0,16.0,194.0,18.0,7.0,44.0
2.622349977493286,10.0,7.0,5.0,102.0,19.0,16.0,5.0
2.6256000995635986,17.0,4.0,21.0,10.0,19.0,10.0,59.0
2.6289000511169434,6.0,0.0,22.0,42.0,18.0,15.0,22.0
2.6321499347686768,11.0,21.0,23.0,23.0,5.0,6.0,28.0
2.6354167461395264,16.0,25.0,36.0,5.0,19.0,6.0,36.0
2.6386666297912598,12.0,9.0,35.0,17.0,33.0,5.0,29.0
2.6419167518615723,15.0,33.0,5.0,28.0,21.0,6.0,22.0
2.645216703414917,17.0,25.0,33.0,23.0,10.0,6.0,11.0
2.6484665870666504,36.0,17.0,24.0,19.0,18.0,6.0,0.0
2.651716709136963,42.0,0.0,27.0,15.0,16.0,29.0,6.0
2.6549665927886963,5.0,5.0,5.0,17.0,5.0,26.0,12.0
2.658216714859009,26.0,20.0,9.0,35.0,25.0,24.0,11.0
2.6615166664123535,25.0,16.0,12.0,35.0,46.0,22.0,10.0
2.664766550064087,5.0,8.0,5.0,0.0,40.0,19.0,12.0
2.6680333614349365,11.0,0.0,7.0,8.0,33.0,0.0,15.0
2.67128324508667,0.0,5.0,8.0,16.0,36.0,18.0,17.0
2.6745333671569824,37.0,23.0,6.0,13.0,39.0,12.0,16.0
2.677833318710327,47.0,21.0,9.0,22.0,13.0,5.0,15.0
2.6810834407806396,41.0,19.0,8.0,25.0,524.0,40.0,19.0
2.684333324432373,34.0,11.0,8.0,25.0,281.0,31.0,17.0
2.6875834465026855,14.0,8.0,31.0,24.0,38.0,22.0,15.0
2.690833330154419,19.0,31.0,19.0,21.0,6.0,27.0,18.0
2.6941332817077637,16.0,25.0,7.0,18.0,14.0,31.0,20.0
2.697383403778076,23.0,18.0,30.0,12.0,17.0,15.0,33.0
2.7006332874298096,29.0,10.0,16.0,5.0,12.0,22.0,22.0
2.703900098800659,25.0,29.0,5.0,8.0,0.0,30.0,10.0
2.7071499824523926,21.0,18.0,31.0,11.0,15.0,38.0,0.0
2.710400104522705,37.0,5.0,44.0,37.0,41.0,9.0,23.0
2.7136666774749756,5.0,8.0,57.0,23.0,31.0,5.0,17.0
2.716916561126709,26.0,4.0,0.0,10.0,76.0,13.0,11.0
2.7201833724975586,9.0,0.0,0.0,15.0,60.0,13.0,9.0
2.723433256149292,6.0,21.0,25.0,19.0,45.0,10.0,0.0
2.7266833782196045,8.0,88.0,13.0,15.0,52.0,8.0,11.0
2.729983329772949,10.0,154.0,0.0,10.0,17.0,5.0,5.0
2.7332334518432617,47.0,88.0,54.0,0.0,38.0,12.0,14.0
2.736483335494995,33.0,22.0,57.0,24.0,19.0,12.0,12.0
2.7397332191467285,19.0,12.0,17.0,245.0,10.0,12.0,10.0
2.742983341217041,27.0,19.0,21.0,341.0,7.0,15.0,14.0
2.7462832927703857,35.0,12.0,0.0,641.0,8.0,18.0,20.0
2.7495334148406982,43.0,22.0,0.0,333.0,9.0,29.0,13.0
2.7527999877929688,9.0,31.0,12.0,24.0,10.0,20.0,6.0
2.7560501098632812,6.0,31.0,20.0,21.0,11.0,10.0,35.0
2.7592999935150146,6.0,18.0,33.0,18.0,11.0,15.0,26.0
2.762566566467285,34.0,5.0,43.0,12.0,30.0,19.0,14.0
2.7658166885375977,27.0,27.0,24.0,5.0,31.0,20.0,10.0
2.769083261489868,21.0,14.0,5.0,220.0,33.0,20.0,21.0
2.7723333835601807,14.0,0.0,18.0,434.0,33.0,28.0,20.0
2.775583267211914,10.0,6.0,31.0,412.0,34.0,9.0,19.0
2.778883218765259,17.0,11.0,5.0,1254.0,16.0,132.0,21.0
2.7821333408355713,294.0,5.0,49.0,1090.0,29.0,98.0,13.0
2.7853832244873047,299.0,115.0,468.0,851.0,24.0,64.0,13.0
2.788633346557617,304.0,225.0,248.0,487.0,18.0,28.0,14.0
2.7918832302093506,73.0,340.0,28.0,13.0,15.0,5.0,15.0
2.7951834201812744,18.0,179.0,33.0,45.0,11.0,0.0,5.0
2.798433303833008,126.0,17.0,339.0,6.0,33.0,11.0,35.0
2.8016834259033203,233.0,179.0,196.0,17.0,27.0,18.0,25.0
2.8049333095550537,117.0,341.0,53.0,28.0,21.0,41.0,15.0
2.808199882507324,0.0,179.0,24.0,20.0,10.0,24.0,12.0
2.8114500045776367,1128.0,17.0,15.0,11.0,104.0,7.0,15.0
2.8147499561309814,1565.0,20.0,30.0,19.0,69.0,11.0,17.0
2.818000078201294,764.0,23.0,1242.0,15.0,34.0,18.0,14.0
2.8212499618530273,37.0,15.0,1122.0,11.0,40.0,25.0,10.0
2.82450008392334,19.0,7.0,16.0,15.0,48.0,27.0,22.0
2.8277499675750732,181.0,139.0,36.0,10.0,5.0,5.0,0.0
2.831049919128418,1186.0,270.0,1104.0,5.0,122.0,11.0,10.0
2.8343000411987305,1729.0,483.0,14.0,24.0,239.0,6.0,12.0
2.837566614151001,1109.0,914.0,27.0,21.0,127.0,5.0,10.0
2.8408167362213135,1882.0,1495.0,705.0,17.0,15.0,5.0,20.0
2.844066619873047,478.0,1569.0,368.0,423.0,8.0,5.0,29.0
2.8473665714263916,18.0,44.0,31.0,636.0,0.0,0.0,41.0
2.850616693496704,10.0,804.0,24.0,850.0,5.0,15.0,0.0
2.8538832664489746,26.0,1435.0,39.0,48.0,14.0,10.0,40.0
2.857133388519287,21.0,13.0,522.0,5.0,21.0,5.0,5.0
2.8603832721710205,16.0,40.0,269.0,716.0,27.0,27.0,24.0
2.8636832237243652,17.0,26.0,15.0,35.0,27.0,47.0,26.0
2.8669333457946777,17.0,24.0,551.0,25.0,26.0,36.0,0.0
2.870183229446411,22.0,29.0,15.0,35.0,36.0,23.0,8.0
2.8734333515167236,26.0,35.0,81.0,29.0,6.0,5.0,23.0
2.876683235168457,0.0,5.0,10.0,24.0,33.0,299.0,5.0
2.879983425140381,10.0,22.0,20.0,13.0,24.0,171.0,12.0
2.8832333087921143,17.0,41.0,34.0,272.0,12.0,44.0,19.0
2.8864998817443848,26.0,37.0,31.0,149.0,0.0,10.0,18.0
2.8897500038146973,50.0,33.0,27.0,26.0,9.0,8.0,5.0
2.8929998874664307,31.0,28.0,17.0,16.0,41.0,29.0,7.0
2.896250009536743,12.0,22.0,23.0,5.0,280.0,14.0,36.0
2.899549961090088,21.0,8.0,26.0,14.0,146.0,20.0,44.0
2.9028000831604004,31.0,7.0,29.0,23.0,12.0,19.0,19.0
2.906049966812134,22.0,0.0,20.0,17.0,10.0,17.0,118.0
2.9093000888824463,13.0,6.0,10.0,11.0,60.0,0.0,162.0
2.9125499725341797,33.0,8.0,10.0,20.0,15.0,17.0,90.0
2.9158499240875244,5.0,16.0,5.0,14.0,37.0,20.0,87.0
2.919100046157837,14.0,24.0,0.0,8.0,12.0,23.0,25.0
2.9223499298095703,37.0,15.0,12.0,193.0,15.0,16.0,34.0
2.92561674118042,51.0,5.0,23.0,109.0,11.0,6.0,0.0
2.9288666248321533,66.0,15.0,23.0,25.0,14.0,8.0,30.0
2.932166576385498,80.0,24.0,18.0,36.0,17.0,9.0,6.0
2.9354166984558105,14.0,40.0,25.0,47.0,35.0,12.0,12.0
2.938666582107544,70.0,36.0,16.0,0.0,41.0,11.0,17.0
2.9419333934783936,35.0,11.0,22.0,24.0,14.0,12.0,21.0
2.945183277130127,0.0,0.0,27.0,15.0,22.0,13.0,5.0
2.9484832286834717,10.0,16.0,31.0,13.0,26.0,7.0,45.0
2.951733350753784,23.0,12.0,21.0,11.0,16.0,7.0,38.0
2.9549832344055176,15.0,7.0,19.0,19.0,15.0,5.0,30.0
2.95823335647583,7.0,27.0,5.0,20.0,13.0,10.0,30.0
2.9614832401275635,0.0,37.0,10.0,21.0,15.0,5.0,29.0
2.9647834300994873,3.0,30.0,5.0,31.0,16.0,0.0,28.0
2.9680333137512207,5.0,27.0,21.0,5.0,17.0,11.0,12.0
2.971283435821533,0.0,5.0,19.0,15.0,17.0,52.0,5.0
2.9745500087738037,5.0,39.0,12.0,22.0,16.0,263.0,36.0
2.977799892425537,9.0,31.0,5.0,18.0,15.0,176.0,25.0
2.9810500144958496,12.0,29.0,14.0,41.0,31.0,89.0,13.0
2.9843499660491943,17.0,27.0,22.0,42.0,29.0,5.0,34.0
2.987600088119507,14.0,27.0,24.0,38.0,27.0,59.0,38.0
2.9908499717712402,11.0,27.0,26.0,34.0,35.0,5.0,67.0
2.9941000938415527,12.0,38.0,24.0,55.0,30.0,21.0,39.0
