,486.2099914550781,487.2099914550781,488.2099914550781,489.2099914550781,490.2099914550781,491.2099914550781,492.2099914550781,493.2099914550781
5.101733207702637,17.0,39.0,89.0,30.0,38.0,0.0,25.0,47.0
5.103466510772705,24.0,33.0,33.0,76.0,58.0,25.0,50.0,0.0
5.105199813842773,8.0,0.0,10.0,82.0,31.0,45.0,6.0,41.0
5.106933116912842,25.0,34.0,54.0,19.0,0.0,22.0,44.0,16.0
5.108666896820068,29.0,179.0,39.0,20.0,44.0,0.0,43.0,18.0
5.110400199890137,27.0,110.0,23.0,5.0,6.0,0.0,40.0,28.0
5.112133502960205,28.0,41.0,18.0,9.0,8.0,16.0,9.0,16.0
5.113866806030273,22.0,22.0,31.0,12.0,17.0,30.0,11.0,10.0
5.115600109100342,15.0,30.0,21.0,24.0,17.0,22.0,12.0,25.0
5.1173834800720215,0.0,24.0,10.0,20.0,0.0,17.0,13.0,5.0
5.11911678314209,34.0,5.0,38.0,15.0,7.0,12.0,15.0,12.0
5.120850086212158,33.0,28.0,35.0,0.0,18.0,17.0,23.0,24.0
5.122583389282227,11.0,23.0,0.0,12.0,13.0,0.0,30.0,20.0
5.124316692352295,37.0,24.0,45.0,7.0,6.0,11.0,26.0,15.0
5.126049995422363,5.0,21.0,15.0,6.0,3.0,5.0,5.0,15.0
5.127783298492432,20.0,18.0,20.0,5.0,0.0,14.0,32.0,14.0
5.1295166015625,20.0,12.0,17.0,12.0,24.0,7.0,35.0,31.0
5.131249904632568,29.0,6.0,16.0,9.0,25.0,0.0,37.0,29.0
5.132983207702637,23.0,12.0,13.0,6.0,26.0,27.0,42.0,43.0
5.1347832679748535,16.0,15.0,12.0,8.0,22.0,14.0,23.0,35.0
5.136516571044922,8.0,37.0,14.0,18.0,24.0,0.0,25.0,27.0
5.13824987411499,0.0,39.0,12.0,15.0,26.0,27.0,26.0,20.0
5.139983177185059,5.0,6.0,10.0,11.0,26.0,16.0,7.0,12.0
5.141716480255127,11.0,15.0,13.0,13.0,23.0,37.0,23.0,37.0
5.143449783325195,5.0,11.0,20.0,23.0,15.0,31.0,21.0,27.0
5.145183563232422,0.0,11.0,27.0,36.0,6.0,25.0,0.0,24.0
5.14691686630249,10.0,10.0,23.0,27.0,23.0,11.0,10.0,20.0
5.148650169372559,39.0,14.0,32.0,18.0,18.0,39.0,11.0,16.0
5.150383472442627,39.0,18.0,32.0,33.0,36.0,0.0,12.0,12.0
5.152183532714844,5.0,52.0,32.0,19.0,24.0,8.0,15.0,19.0
5.153916835784912,19.0,45.0,15.0,20.0,0.0,44.0,29.0,22.0
5.155666828155518,17.0,41.0,22.0,15.0,18.0,18.0,25.0,25.0
5.157400131225586,15.0,37.0,15.0,10.0,36.0,0.0,11.0,24.0
5.159133434295654,15.0,25.0,16.0,11.0,17.0,43.0,0.0,23.0
5.160866737365723,15.0,11.0,16.0,11.0,0.0,12.0,12.0,27.0
5.162600040435791,16.0,13.0,28.0,25.0,18.0,0.0,16.0,31.0
5.164316654205322,17.0,24.0,27.0,27.0,34.0,39.0,20.0,30.0
5.166066646575928,12.0,34.0,27.0,28.0,27.0,7.0,0.0,24.0
5.167783260345459,6.0,0.0,26.0,25.0,5.0,5.0,14.0,10.0
5.16961669921875,0.0,28.0,28.0,5.0,19.0,5.0,28.0,43.0
5.171350002288818,10.0,26.0,11.0,18.0,34.0,5.0,23.0,5.0
5.173083305358887,21.0,25.0,11.0,9.0,26.0,5.0,14.0,16.0
5.174816608428955,20.0,0.0,20.0,0.0,10.0,24.0,12.0,11.0
5.176549911499023,8.0,0.0,0.0,30.0,29.0,30.0,5.0,5.0
5.178283214569092,13.0,0.0,11.0,26.0,28.0,37.0,0.0,18.0
5.18001651763916,17.0,0.0,12.0,25.0,7.0,13.0,6.0,10.0
5.1817498207092285,14.0,0.0,12.0,23.0,27.0,9.0,11.0,20.0
5.183483123779297,11.0,29.0,11.0,19.0,5.0,5.0,18.0,29.0
5.185266494750977,26.0,26.0,10.0,17.0,10.0,17.0,17.0,32.0
5.186999797821045,22.0,16.0,10.0,15.0,15.0,11.0,16.0,33.0
5.188733100891113,0.0,5.0,5.0,15.0,24.0,5.0,30.0,30.0
5.19046688079834,26.0,14.0,6.0,15.0,42.0,10.0,0.0,9.0
5.192200183868408,12.0,27.0,7.0,5.0,48.0,14.0,15.0,18.0
5.193933486938477,5.0,41.0,19.0,10.0,54.0,13.0,21.0,27.0
5.195666790008545,9.0,31.0,26.0,13.0,35.0,11.0,5.0,47.0
5.197400093078613,0.0,31.0,24.0,12.0,0.0,24.0,21.0,52.0
5.199133396148682,5.0,24.0,5.0,11.0,7.0,15.0,24.0,43.0
5.202666759490967,10.0,21.0,8.0,11.0,28.0,5.0,6.0,37.0
5.2061333656311035,5.0,17.0,11.0,10.0,5.0,6.0,7.0,0.0
5.209616661071777,8.0,13.0,11.0,24.0,30.0,11.0,15.0,3.0
5.213083267211914,11.0,11.0,11.0,12.0,22.0,11.0,8.0,6.0
5.216549873352051,8.0,5.0,44.0,0.0,25.0,0.0,0.0,22.0
5.220066547393799,5.0,8.0,45.0,16.0,27.0,26.0,0.0,25.0
5.2235331535339355,6.0,11.0,14.0,8.0,19.0,32.0,5.0,36.0
5.2270002365112305,7.0,16.0,56.0,5.0,0.0,29.0,10.0,43.0
5.230466842651367,23.0,28.0,30.0,13.0,22.0,26.0,14.0,6.0
5.233933448791504,17.0,14.0,5.0,12.0,23.0,23.0,17.0,8.0
5.237450122833252,10.0,0.0,18.0,6.0,10.0,18.0,12.0,27.0
5.240933418273926,10.0,25.0,232.0,7.0,12.0,16.0,14.0,0.0
5.2444000244140625,10.0,15.0,116.0,4.0,13.0,13.0,16.0,5.0
5.247866630554199,23.0,5.0,0.0,0.0,16.0,19.0,21.0,10.0
5.251333236694336,22.0,13.0,10.0,22.0,18.0,0.0,21.0,18.0
5.254849910736084,13.0,16.0,32.0,41.0,16.0,24.0,20.0,12.0
5.258316516876221,19.0,12.0,10.0,52.0,16.0,36.0,26.0,5.0
5.261783123016357,31.0,18.0,14.0,10.0,16.0,7.0,0.0,18.0
5.265250205993652,15.0,23.0,20.0,56.0,5.0,42.0,9.0,10.0
5.268716812133789,0.0,28.0,5.0,11.0,20.0,17.0,17.0,14.0
5.272233486175537,12.0,20.0,3.0,13.0,21.0,26.0,65.0,29.0
5.275700092315674,24.0,11.0,0.0,34.0,57.0,18.0,59.0,17.0
5.279183387756348,31.0,22.0,16.0,19.0,52.0,0.0,36.0,5.0
5.282649993896484,17.0,32.0,11.0,19.0,12.0,3.0,63.0,23.0
5.286116600036621,15.0,0.0,5.0,29.0,75.0,5.0,16.0,12.0
5.289633274078369,14.0,28.0,12.0,22.0,68.0,13.0,11.0,11.0
5.293099880218506,26.0,29.0,21.0,15.0,43.0,31.0,8.0,23.0
5.296566486358643,0.0,30.0,16.0,31.0,35.0,24.0,8.0,0.0
5.3000335693359375,8.0,5.0,11.0,8.0,19.0,16.0,8.0,17.0
5.303500175476074,16.0,23.0,23.0,12.0,47.0,5.0,9.0,28.0
5.307016849517822,31.0,6.0,39.0,17.0,43.0,22.0,10.0,31.0
5.310500144958496,18.0,25.0,26.0,18.0,54.0,19.0,26.0,30.0
5.313966751098633,5.0,27.0,14.0,11.0,17.0,16.0,22.0,28.0
5.3174333572387695,28.0,28.0,33.0,8.0,18.0,24.0,6.0,24.0
5.320950031280518,9.0,26.0,0.0,5.0,19.0,11.0,38.0,5.0
5.324416637420654,0.0,13.0,43.0,5.0,17.0,0.0,43.0,8.0
5.327883243560791,0.0,33.0,24.0,14.0,14.0,5.0,6.0,10.0
5.331349849700928,18.0,19.0,33.0,22.0,45.0,16.0,15.0,10.0
5.3348164558410645,12.0,10.0,43.0,33.0,38.0,12.0,21.0,22.0
5.3383331298828125,6.0,36.0,42.0,25.0,30.0,8.0,17.0,11.0
5.341800212860107,22.0,42.0,26.0,38.0,56.0,10.0,5.0,0.0
5.345283508300781,18.0,34.0,6.0,30.0,10.0,5.0,49.0,20.0
5.348750114440918,14.0,36.0,25.0,6.0,11.0,12.0,47.0,13.0
5.352216720581055,17.0,38.0,34.0,36.0,11.0,10.0,18.0,5.0
5.355733394622803,28.0,19.0,26.0,21.0,9.0,8.0,18.0,17.0
5.3592000007629395,25.0,0.0,5.0,26.0,6.0,5.0,15.0,39.0
5.362666606903076,19.0,25.0,13.0,31.0,3.0,3.0,20.0,25.0
5.366133213043213,8.0,5.0,22.0,9.0,0.0,0.0,8.0,12.0
5.36959981918335,10.0,21.0,60.0,726.0,26.0,6.0,5.0,22.0
5.373133182525635,19.0,21.0,33.0,769.0,38.0,7.0,21.0,31.0
5.3765997886657715,6.0,21.0,6.0,45.0,24.0,16.0,12.0,28.0
5.380066871643066,5.0,19.0,5.0,12.0,34.0,11.0,0.0,5.0
5.383533477783203,10.0,17.0,12.0,5.0,29.0,5.0,9.0,22.0
5.38700008392334,0.0,14.0,21.0,16.0,16.0,14.0,27.0,14.0
5.390516757965088,29.0,15.0,32.0,5.0,90.0,17.0,21.0,11.0
5.393983364105225,30.0,16.0,44.0,0.0,77.0,19.0,28.0,8.0
5.397449970245361,26.0,32.0,30.0,12.0,38.0,34.0,5.0,35.0
5.400933265686035,6.0,28.0,10.0,23.0,17.0,32.0,5.0,33.0
5.404399871826172,41.0,255.0,14.0,31.0,72.0,30.0,20.0,19.0
5.40791654586792,36.0,151.0,18.0,23.0,0.0,15.0,35.0,5.0
5.411383152008057,28.0,47.0,0.0,0.0,5.0,0.0,47.0,9.0
5.414850234985352,36.0,39.0,25.0,41.0,14.0,22.0,23.0,12.0
5.418316841125488,42.0,0.0,16.0,28.0,26.0,21.0,13.0,14.0
5.421783447265625,0.0,17.0,13.0,21.0,21.0,13.0,5.0,10.0
5.42531681060791,39.0,34.0,10.0,0.0,16.0,12.0,14.0,5.0
5.428783416748047,12.0,10.0,40.0,27.0,12.0,6.0,22.0,5.0
5.432250022888184,16.0,0.0,42.0,22.0,5.0,11.0,27.0,12.0
5.43571662902832,20.0,5.0,45.0,0.0,26.0,13.0,47.0,19.0
5.439183235168457,23.0,65.0,17.0,1049.0,375.0,14.0,30.0,27.0
5.442683219909668,26.0,836.0,1839.0,2098.0,5200.0,3253.0,14.0,186.0
5.446149826049805,46.0,5748.0,14192.0,8304.0,8019.0,7040.0,1218.0,488.0
5.449616432189941,61.0,9976.0,21528.0,28488.0,23220.0,11224.0,4064.0,1707.0
5.453083515167236,82.0,26280.0,39696.0,44272.0,41712.0,18028.0,13704.0,3826.0
5.456600189208984,59.0,34016.0,89984.0,88800.0,70928.0,34608.0,16540.0,3592.0
5.460066795349121,65.0,61504.0,120064.0,123152.0,105088.0,67872.0,29388.0,3358.0
5.463533401489258,72.0,67952.0,141504.0,170176.0,132672.0,80640.0,42288.0,12556.0
5.4670000076293945,105.0,108896.0,218880.0,250240.0,169216.0,114336.0,39424.0,15108.0
5.470466613769531,431.0,112288.0,301120.0,307264.0,233344.0,130192.0,55696.0,16756.0
5.473983287811279,285.0,148608.0,307392.0,322368.0,259712.0,164096.0,61776.0,25752.0
5.477466583251953,140.0,172992.0,359104.0,338176.0,274624.0,145472.0,69904.0,23848.0
5.48093318939209,120.0,168384.0,382848.0,327360.0,261824.0,150336.0,64992.0,17732.0
5.484399795532227,110.0,185408.0,354880.0,338048.0,280896.0,152320.0,60064.0,18456.0
5.4878668785095215,66.0,175488.0,330304.0,348672.0,277056.0,148928.0,73280.0,14032.0
5.4913835525512695,119.0,138624.0,300864.0,291264.0,250624.0,125472.0,44176.0,14424.0
5.494850158691406,24.0,127312.0,270976.0,266624.0,210240.0,111744.0,38496.0,18272.0
5.498316764831543,56.0,96800.0,224960.0,192256.0,171008.0,94528.0,35792.0,13572.0
5.50178337097168,40.0,93520.0,181248.0,158592.0,149504.0,76160.0,35440.0,7905.0
5.505249977111816,50.0,71088.0,143040.0,143744.0,115072.0,63088.0,26036.0,7667.0
5.508783340454102,7.0,45328.0,110432.0,107088.0,88848.0,43024.0,18192.0,6071.0
5.512249946594238,34.0,59904.0,93376.0,82512.0,64576.0,45584.0,18344.0,835.0
5.515716552734375,34.0,28604.0,68704.0,68608.0,57152.0,26440.0,7335.0,936.0
5.519183158874512,49.0,23604.0,46688.0,44576.0,30772.0,16344.0,7088.0,4457.0
5.522649765014648,29.0,20784.0,39952.0,31612.0,24540.0,18760.0,8196.0,2605.0
5.526183128356934,54.0,13932.0,17804.0,31952.0,19128.0,15996.0,3910.0,691.0
5.5296502113342285,53.0,9156.0,35648.0,19264.0,12740.0,8153.0,2551.0,1209.0
5.533116817474365,37.0,11784.0,20344.0,16908.0,8165.0,12556.0,5868.0,1367.0
5.536583423614502,56.0,7203.0,17324.0,20672.0,12536.0,7039.0,3327.0,1236.0
5.540050029754639,13.0,9172.0,15704.0,18460.0,11268.0,6563.0,3179.0,1104.0
5.543566703796387,14.0,11140.0,10272.0,21756.0,11192.0,5767.0,1838.0,1340.0
5.547033309936523,15.0,9268.0,16888.0,12916.0,8312.0,5258.0,886.0,27.0
5.550516605377197,18.0,3619.0,12148.0,12256.0,6986.0,4749.0,3007.0,1014.0
5.553983211517334,21.0,7594.0,12076.0,8636.0,12292.0,3398.0,2557.0,704.0
5.557449817657471,14.0,5937.0,9524.0,9412.0,7401.0,2045.0,2593.0,235.0
5.560966491699219,6.0,3821.0,4687.0,6980.0,5657.0,3588.0,3796.0,149.0
5.5644330978393555,14.0,1878.0,6070.0,9736.0,7879.0,4167.0,3153.0,64.0
5.56790018081665,5.0,7001.0,6291.0,6290.0,2859.0,4622.0,2511.0,2098.0
5.571366786956787,7.0,4508.0,4302.0,7518.0,3442.0,2985.0,1469.0,1893.0
5.574866771697998,19.0,1438.0,5138.0,9344.0,5362.0,517.0,240.0,593.0
5.578366756439209,26.0,1909.0,4172.0,4709.0,3314.0,1146.0,2657.0,913.0
5.581833362579346,27.0,3216.0,7203.0,3585.0,1733.0,4224.0,1194.0,1282.0
5.585299968719482,27.0,1914.0,1253.0,7408.0,2238.0,2994.0,904.0,1680.0
5.588766574859619,17.0,2793.0,2678.0,3119.0,2742.0,2334.0,1783.0,34.0
5.592249870300293,23.0,3776.0,5328.0,1586.0,2706.0,784.0,1672.0,152.0
5.59571647644043,6.0,1392.0,4653.0,4013.0,2670.0,2303.0,1561.0,33.0
