,335.2099914550781,336.2099914550781,337.2099914550781,338.2099914550781,339.2099914550781,340.2099914550781,341.2099914550781,342.2099914550781,343.2099914550781,344.2099914550781,345.2099914550781
5.702383518218994,7.0,7.0,17.0,22.0,12.0,0.0,33.0,23.0,17.0,10.0,202.0
5.704766750335693,56.0,5.0,10.0,25.0,24.0,5.0,45.0,28.0,36.0,19.0,16.0
5.707149982452393,5.0,0.0,56.0,34.0,41.0,19.0,10.0,10.0,64.0,44.0,10.0
5.709533214569092,29.0,18.0,15.0,8.0,10.0,38.0,17.0,22.0,21.0,0.0,53.0
5.711916446685791,19.0,17.0,33.0,33.0,5.0,46.0,0.0,0.0,27.0,30.0,18.0
5.714300155639648,18.0,19.0,19.0,46.0,19.0,54.0,40.0,18.0,21.0,0.0,22.0
5.716683387756348,17.0,0.0,11.0,22.0,32.0,21.0,32.0,27.0,39.0,4.0,41.0
5.719133377075195,18.0,9.0,5.0,6.0,24.0,36.0,24.0,19.0,25.0,7.0,45.0
5.7215166091918945,14.0,17.0,7.0,17.0,5.0,5.0,36.0,33.0,11.0,46.0,22.0
5.723899841308594,29.0,20.0,42.0,14.0,17.0,7.0,37.0,41.0,10.0,33.0,18.0
5.726283550262451,37.0,23.0,57.0,5.0,14.0,8.0,37.0,10.0,38.0,20.0,5.0
5.72866678237915,38.0,10.0,72.0,10.0,10.0,10.0,30.0,12.0,19.0,24.0,21.0
5.73105001449585,51.0,13.0,19.0,0.0,14.0,25.0,35.0,29.0,0.0,22.0,19.0
5.733433246612549,16.0,16.0,30.0,9.0,31.0,16.0,33.0,0.0,16.0,19.0,17.0
5.735866546630859,0.0,17.0,15.0,18.0,29.0,7.0,31.0,10.0,31.0,28.0,11.0
5.738249778747559,64.0,5.0,11.0,25.0,26.0,16.0,34.0,29.0,15.0,30.0,13.0
5.740633487701416,14.0,16.0,25.0,31.0,12.0,15.0,0.0,23.0,0.0,23.0,15.0
5.743016719818115,47.0,18.0,5.0,25.0,5.0,5.0,22.0,27.0,36.0,13.0,12.0
5.7453999519348145,51.0,31.0,14.0,24.0,0.0,0.0,55.0,23.0,14.0,30.0,6.0
5.747783184051514,0.0,29.0,21.0,0.0,7.0,25.0,36.0,5.0,0.0,24.0,0.0
5.750166893005371,5.0,33.0,16.0,12.0,13.0,15.0,16.0,36.0,16.0,11.0,25.0
5.752616882324219,47.0,23.0,6.0,10.0,23.0,21.0,21.0,10.0,15.0,29.0,20.0
5.755000114440918,10.0,19.0,8.0,27.0,22.0,0.0,27.0,0.0,10.0,6.0,15.0
5.757383346557617,34.0,26.0,10.0,51.0,20.0,5.0,15.0,17.0,23.0,15.0,5.0
5.759766578674316,27.0,16.0,17.0,39.0,9.0,6.0,14.0,16.0,0.0,23.0,0.0
5.762149810791016,18.0,13.0,86.0,46.0,14.0,6.0,32.0,10.0,5.0,25.0,14.0
5.764533519744873,14.0,0.0,52.0,54.0,22.0,0.0,19.0,62.0,5.0,11.0,14.0
5.766916751861572,5.0,11.0,17.0,25.0,19.0,5.0,6.0,31.0,8.0,14.0,15.0
5.76936674118042,10.0,22.0,8.0,6.0,16.0,30.0,6.0,0.0,8.0,25.0,19.0
5.771749973297119,14.0,11.0,13.0,10.0,0.0,40.0,3.0,12.0,8.0,21.0,16.0
5.774133205413818,14.0,0.0,7.0,14.0,16.0,19.0,0.0,23.0,14.0,20.0,12.0
5.776516437530518,5.0,0.0,49.0,43.0,62.0,0.0,0.0,33.0,11.0,15.0,19.0
5.778900146484375,5.0,19.0,56.0,47.0,67.0,15.0,18.0,23.0,9.0,10.0,32.0
5.781283378601074,0.0,19.0,65.0,33.0,0.0,31.0,25.0,37.0,13.0,5.0,36.0
5.783666610717773,13.0,18.0,0.0,47.0,26.0,34.0,15.0,7.0,13.0,28.0,34.0
5.786099910736084,11.0,0.0,22.0,0.0,20.0,28.0,5.0,16.0,12.0,33.0,26.0
5.788483142852783,15.0,17.0,35.0,38.0,13.0,0.0,8.0,46.0,15.0,42.0,46.0
5.790866851806641,5.0,33.0,13.0,5.0,34.0,8.0,12.0,56.0,13.0,32.0,26.0
5.79325008392334,5.0,41.0,16.0,26.0,39.0,37.0,16.0,66.0,10.0,27.0,7.0
5.795633316040039,10.0,21.0,31.0,0.0,6.0,13.0,0.0,14.0,8.0,5.0,11.0
5.798016548156738,11.0,0.0,29.0,11.0,20.0,0.0,6.0,31.0,5.0,8.0,13.0
5.8003997802734375,12.0,19.0,0.0,30.0,25.0,19.0,11.0,19.0,27.0,10.0,14.0
5.802849769592285,18.0,29.0,0.0,32.0,8.0,0.0,16.0,10.0,40.0,8.0,30.0
5.805233478546143,0.0,38.0,20.0,23.0,7.0,0.0,21.0,30.0,33.0,5.0,36.0
5.807616710662842,14.0,38.0,19.0,5.0,6.0,29.0,29.0,15.0,45.0,3.0,33.0
5.809999942779541,24.0,39.0,18.0,13.0,3.0,26.0,27.0,19.0,41.0,0.0,0.0
5.81238317489624,17.0,40.0,17.0,31.0,0.0,0.0,27.0,19.0,37.0,16.0,48.0
5.814766883850098,6.0,5.0,41.0,44.0,10.0,19.0,21.0,21.0,12.0,30.0,17.0
5.817150115966797,3.0,7.0,47.0,33.0,14.0,7.0,15.0,22.0,10.0,40.0,0.0
5.819583415985107,0.0,0.0,30.0,0.0,18.0,6.0,5.0,22.0,0.0,7.0,21.0
5.821966648101807,31.0,10.0,23.0,8.0,16.0,23.0,13.0,26.0,10.0,17.0,19.0
5.824349880218506,47.0,14.0,8.0,32.0,24.0,18.0,21.0,42.0,39.0,18.0,16.0
5.826733112335205,62.0,17.0,0.0,23.0,19.0,15.0,5.0,0.0,34.0,11.0,19.0
5.8291168212890625,43.0,0.0,0.0,17.0,14.0,11.0,11.0,18.0,13.0,15.0,15.0
5.831500053405762,0.0,14.0,6.0,40.0,26.0,9.0,5.0,25.0,19.0,5.0,25.0
5.833899974822998,35.0,36.0,12.0,6.0,15.0,7.0,33.0,28.0,68.0,22.0,0.0
5.836333274841309,15.0,27.0,9.0,0.0,36.0,0.0,32.0,26.0,54.0,19.0,0.0
5.838716506958008,15.0,13.0,5.0,0.0,38.0,0.0,7.0,24.0,0.0,15.0,22.0
5.841100215911865,22.0,9.0,6.0,13.0,12.0,49.0,19.0,0.0,28.0,18.0,0.0
5.8434834480285645,27.0,27.0,12.0,11.0,0.0,251.0,36.0,19.0,7.0,21.0,29.0
5.845866680145264,33.0,14.0,18.0,26.0,15.0,315.0,5.0,5.0,360.0,13.0,21.0
5.848249912261963,34.0,0.0,12.0,24.0,5.0,10.0,19.0,5.0,180.0,15.0,25.0
5.850633144378662,34.0,25.0,5.0,7.0,14.0,17.0,10.0,5.0,0.0,16.0,0.0
5.853066444396973,13.0,7.0,7.0,0.0,16.0,39.0,10.0,25.0,319.0,11.0,5.0
5.85545015335083,21.0,5.0,8.0,0.0,18.0,36.0,9.0,27.0,167.0,17.0,7.0
5.857833385467529,28.0,38.0,7.0,22.0,11.0,33.0,5.0,6.0,15.0,23.0,0.0
5.8602166175842285,0.0,56.0,7.0,18.0,15.0,14.0,0.0,7.0,31.0,24.0,7.0
5.862599849700928,14.0,74.0,7.0,0.0,18.0,6.0,5.0,6.0,882.0,25.0,13.0
5.864983558654785,28.0,50.0,11.0,16.0,11.0,27.0,9.0,19.0,466.0,46.0,15.0
5.867366790771484,15.0,28.0,13.0,31.0,6.0,8.0,12.0,18.0,51.0,821.0,30.0
5.869800090789795,26.0,0.0,14.0,25.0,0.0,0.0,5.0,16.0,183.0,708.0,15.0
5.872200012207031,18.0,28.0,30.0,18.0,6.0,13.0,11.0,11.0,316.0,1014.0,0.0
5.8745832443237305,10.0,46.0,35.0,40.0,0.0,10.0,16.0,0.0,827.0,51.0,5.0
5.87696647644043,17.0,22.0,39.0,41.0,27.0,42.0,31.0,314.0,424.0,726.0,8.0
5.879350185394287,15.0,37.0,13.0,0.0,25.0,32.0,45.0,164.0,22.0,25.0,11.0
5.881733417510986,12.0,18.0,7.0,59.0,30.0,27.0,23.0,14.0,1025.0,28.0,8.0
5.8841166496276855,6.0,8.0,0.0,5.0,25.0,0.0,0.0,10.0,512.0,178.0,5.0
5.886499881744385,0.0,5.0,25.0,21.0,19.0,8.0,0.0,5.0,1061.0,10.0,15.0
5.888933181762695,7.0,16.0,18.0,45.0,18.0,20.0,32.0,6.0,30.0,174.0,14.0
5.891316890716553,13.0,492.0,20.0,36.0,9.0,17.0,64.0,15.0,648.0,17.0,13.0
5.893700122833252,11.0,266.0,21.0,0.0,0.0,9.0,49.0,372.0,720.0,7.0,6.0
5.896083354949951,11.0,40.0,0.0,18.0,15.0,0.0,34.0,729.0,698.0,9.0,6.0
5.89846658706665,11.0,8.0,25.0,47.0,35.0,0.0,7.0,2080.0,675.0,10.0,5.0
5.90084981918335,11.0,14.0,0.0,23.0,23.0,7.0,19.0,1591.0,5.0,27.0,8.0
5.903233528137207,11.0,31.0,11.0,41.0,10.0,13.0,30.0,1627.0,741.0,44.0,7.0
5.905683517456055,14.0,32.0,28.0,24.0,10.0,31.0,19.0,741.0,490.0,33.0,5.0
5.908066749572754,17.0,19.0,45.0,28.0,22.0,22.0,8.0,19.0,43.0,9.0,11.0
5.910449981689453,15.0,49.0,31.0,14.0,20.0,12.0,7.0,4990.0,34.0,32.0,17.0
5.912833213806152,13.0,24.0,17.0,0.0,19.0,0.0,5.0,6365.0,10.0,25.0,12.0
5.915216445922852,24.0,0.0,5.0,5.0,26.0,7.0,0.0,1604.0,8.0,13.0,7.0
5.917600154876709,17.0,5.0,16.0,0.0,20.0,14.0,12.0,10.0,5.0,0.0,25.0
5.919983386993408,11.0,24.0,24.0,0.0,14.0,26.0,23.0,5045.0,18.0,24.0,33.0
5.922416687011719,6.0,21.0,32.0,0.0,11.0,13.0,21.0,3720.0,9.0,22.0,41.0
5.924799919128418,0.0,17.0,22.0,8.0,13.0,0.0,19.0,2395.0,0.0,20.0,32.0
5.927183151245117,9.0,0.0,38.0,11.0,15.0,121.0,10.0,5134.0,24.0,13.0,18.0
5.929566860198975,10.0,10.0,0.0,18.0,14.0,73.0,13.0,907.0,0.0,14.0,10.0
5.931950092315674,10.0,9.0,33.0,25.0,22.0,24.0,16.0,3240.0,4.0,36.0,22.0
5.934333324432373,10.0,8.0,160.0,20.0,0.0,10.0,8.0,365.0,7.0,29.0,30.0
5.936716556549072,64.0,23.0,94.0,5.0,0.0,5.0,0.0,1678.0,21.0,22.0,22.0
5.93916654586792,32.0,21.0,28.0,5.0,24.0,7.0,11.0,30.0,22.0,18.0,14.0
5.941549777984619,0.0,13.0,53.0,23.0,23.0,8.0,9.0,1292.0,11.0,6.0,44.0
5.943933486938477,34.0,5.0,13.0,8.0,8.0,28.0,7.0,1122.0,0.0,27.0,49.0
5.946316719055176,13.0,23.0,18.0,15.0,10.0,49.0,10.0,38.0,3.0,47.0,0.0
5.948699951171875,0.0,16.0,15.0,21.0,15.0,46.0,13.0,2008.0,5.0,53.0,10.0
5.951083183288574,5.0,5.0,0.0,19.0,23.0,23.0,17.0,11.0,11.0,12.0,36.0
5.953466892242432,6.0,22.0,0.0,17.0,39.0,11.0,23.0,736.0,10.0,0.0,0.0
5.955900192260742,6.0,19.0,11.0,6.0,56.0,66.0,28.0,22.0,13.0,24.0,22.0
5.958283424377441,16.0,12.0,75.0,870.0,2527.0,710.0,982.0,20.0,27.0,18.0,10.0
5.960666656494141,19.0,680.0,1761.0,707.0,3752.0,1428.0,1472.0,896.0,27.0,42.0,14.0
5.96304988861084,42.0,955.0,2496.0,3856.0,2346.0,1957.0,1468.0,915.0,1140.0,38.0,23.0
5.965433120727539,31.0,2500.0,5392.0,4407.0,4413.0,4538.0,2689.0,933.0,1000.0,25.0,54.0
5.9678168296813965,20.0,6864.0,10664.0,9852.0,13840.0,7307.0,9448.0,1444.0,2265.0,23.0,27.0
5.970200061798096,32.0,11376.0,15132.0,17092.0,14012.0,15992.0,10364.0,2271.0,1894.0,20.0,0.0
5.972650051116943,25.0,18124.0,31220.0,27252.0,27624.0,20628.0,18024.0,2049.0,5253.0,3460.0,17.0
5.975033283233643,0.0,25944.0,39232.0,46608.0,45536.0,26848.0,23720.0,8320.0,5590.0,3860.0,3195.0
5.977416515350342,6.0,34240.0,61440.0,71600.0,53744.0,57056.0,33616.0,15220.0,12080.0,5867.0,2731.0
5.979800224304199,28.0,68480.0,103408.0,100848.0,67456.0,47584.0,37904.0,17952.0,9708.0,5147.0,2119.0
5.982183456420898,15.0,56928.0,117824.0,119136.0,102304.0,96848.0,63280.0,24824.0,8107.0,4427.0,4896.0
5.984566688537598,32.0,84192.0,146048.0,132544.0,121136.0,90464.0,80272.0,35520.0,17524.0,14184.0,6935.0
5.986949920654297,43.0,88928.0,176192.0,162112.0,119856.0,114768.0,90368.0,36432.0,26692.0,14592.0,6255.0
5.989383220672607,30.0,120512.0,187584.0,172480.0,161024.0,137728.0,81344.0,46288.0,29888.0,10588.0,6533.0
5.991766452789307,23.0,124160.0,208192.0,198464.0,192960.0,140992.0,95920.0,54576.0,23636.0,8660.0,2114.0
5.994150161743164,24.0,124928.0,250816.0,209408.0,170624.0,132096.0,102288.0,58080.0,25772.0,7467.0,7718.0
5.996533393859863,31.0,133760.0,230912.0,221312.0,172416.0,138304.0,104832.0,43664.0,30848.0,12892.0,5217.0
5.9989166259765625,16.0,137600.0,243584.0,201600.0,169216.0,138496.0,103472.0,61232.0,28656.0,11668.0,3920.0
6.001299858093262,62.0,139392.0,226816.0,220544.0,168128.0,138688.0,96016.0,53024.0,26036.0,10912.0,7269.0
6.003683567047119,74.0,113376.0,236672.0,196736.0,167104.0,120176.0,83680.0,51088.0,29020.0,8564.0,2883.0
6.006133556365967,17.0,120400.0,196544.0,170048.0,157440.0,102816.0,83792.0,47168.0,22612.0,6776.0,2416.0
6.008516788482666,66.0,115712.0,183040.0,171904.0,136576.0,98608.0,64400.0,36864.0,21956.0,5724.0,2498.0
6.010900020599365,54.0,85616.0,158336.0,131392.0,97664.0,85392.0,53776.0,34352.0,9144.0,9332.0,1747.0
6.0132832527160645,42.0,83920.0,147072.0,117200.0,89584.0,75952.0,48608.0,33536.0,14004.0,5558.0,4109.0
6.015666484832764,68.0,66640.0,129472.0,92224.0,79184.0,58432.0,46688.0,26424.0,12824.0,4017.0,15.0
6.018050193786621,0.0,43952.0,88864.0,78832.0,65760.0,45152.0,31072.0,20216.0,10148.0,4429.0,22.0
6.02043342590332,49.0,48448.0,62544.0,72208.0,53600.0,46432.0,31680.0,12440.0,8141.0,5593.0,1360.0
6.022866725921631,48.0,35216.0,64416.0,57920.0,41952.0,24392.0,20368.0,5836.0,5345.0,425.0,37.0
6.02524995803833,10.0,26988.0,40960.0,51168.0,35664.0,18764.0,15892.0,9636.0,2857.0,1459.0,61.0
6.027633190155029,33.0,30644.0,31576.0,26680.0,22752.0,16144.0,17268.0,5428.0,4547.0,1561.0,13.0
6.030016899108887,27.0,19912.0,32944.0,24904.0,21224.0,11584.0,9892.0,2633.0,576.0,59.0,56.0
6.032400131225586,31.0,5062.0,15792.0,21832.0,12744.0,10184.0,5286.0,4237.0,818.0,968.0,49.0
6.034783363342285,35.0,6449.0,11924.0,8328.0,13308.0,10740.0,2264.0,3928.0,73.0,1633.0,42.0
6.037166595458984,29.0,4590.0,18208.0,10032.0,8036.0,11748.0,3684.0,1448.0,759.0,11.0,34.0
6.039616584777832,22.0,3844.0,6264.0,6939.0,4799.0,5355.0,2175.0,1341.0,595.0,979.0,39.0
6.041999816894531,16.0,4333.0,9788.0,6086.0,1376.0,3073.0,2585.0,1488.0,96.0,17.0,43.0
6.044383525848389,16.0,2749.0,4047.0,2331.0,4399.0,2885.0,2180.0,1576.0,28.0,26.0,63.0
6.046766757965088,28.0,1712.0,3547.0,2265.0,2414.0,1602.0,2693.0,51.0,29.0,41.0,11.0
6.049149990081787,32.0,852.0,9992.0,8130.0,4430.0,661.0,1256.0,0.0,12.0,5.0,37.0
6.051533222198486,6.0,3057.0,4907.0,6072.0,5015.0,2205.0,635.0,602.0,9.0,16.0,33.0
6.053933143615723,13.0,2770.0,2004.0,1249.0,1811.0,386.0,14.0,464.0,5.0,40.0,33.0
6.056350231170654,24.0,4144.0,3952.0,3668.0,2641.0,1271.0,365.0,9.0,15.0,27.0,35.0
6.058766841888428,11.0,1520.0,1952.0,1866.0,2277.0,1265.0,570.0,615.0,7.0,13.0,37.0
6.06113338470459,5.0,555.0,4359.0,332.0,1751.0,571.0,776.0,23.0,0.0,15.0,6.0
6.063516616821289,23.0,1472.0,1378.0,889.0,1881.0,96.0,611.0,1440.0,7.0,60.0,37.0
6.065916538238525,32.0,3140.0,1269.0,1310.0,2011.0,42.0,618.0,1871.0,13.0,58.0,11.0
6.068299770355225,27.0,2789.0,4387.0,3344.0,1765.0,699.0,783.0,20.0,12.0,10.0,25.0
6.070683479309082,25.0,1023.0,2717.0,3955.0,860.0,711.0,829.0,786.0,10.0,0.0,16.0
6.073066711425781,23.0,891.0,1436.0,2738.0,1026.0,723.0,1100.0,150.0,13.0,7.0,5.0
6.075466632843018,18.0,1454.0,310.0,1599.0,1437.0,17.0,1372.0,15.0,15.0,23.0,7.0
6.077849864959717,16.0,0.0,1367.0,49.0,1848.0,736.0,27.0,37.0,22.0,20.0,7.0
6.080233097076416,13.0,225.0,779.0,1729.0,2160.0,1349.0,714.0,100.0,49.0,21.0,6.0
6.082616806030273,19.0,450.0,970.0,59.0,286.0,1046.0,497.0,163.0,287.0,63.0,26.0
6.085000038146973,7.0,816.0,509.0,337.0,1301.0,586.0,270.0,88.0,170.0,37.0,22.0
6.087383270263672,12.0,867.0,6.0,801.0,402.0,1103.0,44.0,13.0,54.0,12.0,11.0
6.089766502380371,16.0,15.0,853.0,410.0,924.0,887.0,44.0,752.0,0.0,18.0,0.0
6.092216491699219,5.0,15.0,605.0,18.0,462.0,672.0,44.0,392.0,0.0,27.0,23.0
6.094600200653076,15.0,34.0,737.0,727.0,0.0,396.0,39.0,32.0,21.0,26.0,30.0
6.096983432769775,8.0,20.0,870.0,371.0,1085.0,654.0,34.0,22.0,19.0,24.0,5.0
6.099366664886475,0.0,5.0,39.0,15.0,1084.0,912.0,33.0,26.0,17.0,0.0,6.0
6.101749897003174,7.0,383.0,62.0,768.0,1082.0,912.0,32.0,7.0,16.0,18.0,6.0
6.104133129119873,6.0,762.0,890.0,547.0,1227.0,721.0,17.0,6.0,11.0,34.0,9.0
6.1065168380737305,5.0,784.0,0.0,327.0,1371.0,575.0,502.0,30.0,8.0,17.0,11.0
6.108950138092041,5.0,407.0,13.0,26.0,247.0,428.0,341.0,24.0,5.0,33.0,15.0
6.11133337020874,0.0,29.0,481.0,421.0,54.0,356.0,179.0,44.0,6.0,29.0,14.0
6.1137166023254395,0.0,29.0,451.0,579.0,396.0,31.0,131.0,42.0,7.0,5.0,13.0
6.116099834442139,0.0,488.0,421.0,17.0,312.0,0.0,44.0,60.0,11.0,24.0,10.0
6.118483543395996,16.0,665.0,736.0,569.0,227.0,112.0,27.0,12.0,13.0,37.0,6.0
6.120866775512695,14.0,625.0,524.0,14.0,133.0,28.0,21.0,25.0,16.0,0.0,15.0
6.1232500076293945,11.0,22.0,311.0,1546.0,39.0,46.0,15.0,16.0,19.0,6.0,37.0
6.125699996948242,18.0,7.0,736.0,1467.0,18.0,237.0,24.0,14.0,0.0,5.0,24.0
6.128083229064941,31.0,4.0,388.0,14.0,10.0,427.0,5.0,15.0,11.0,12.0,11.0
6.130466461181641,32.0,0.0,39.0,47.0,204.0,219.0,829.0,19.0,0.0,11.0,5.0
6.132850170135498,5.0,45.0,22.0,458.0,116.0,10.0,699.0,21.0,27.0,18.0,865.0
6.135233402252197,16.0,47.0,5.0,16.0,27.0,35.0,569.0,22.0,42.0,24.0,1046.0
6.1376166343688965,11.0,49.0,34.0,58.0,6.0,25.0,999.0,24.0,29.0,12.0,402.0
6.139999866485596,12.0,39.0,0.0,27.0,17.0,14.0,42.0,17.0,57.0,0.0,8.0
6.142433166503906,11.0,29.0,12.0,26.0,1190.0,20.0,35.0,10.0,49.0,32.0,13.0
6.144816875457764,10.0,485.0,6.0,5.0,667.0,10.0,43.0,13.0,18.0,18.0,5.0
6.147200107574463,8.0,254.0,0.0,32.0,145.0,0.0,0.0,7.0,0.0,26.0,0.0
6.149583339691162,5.0,24.0,0.0,10.0,11.0,11.0,0.0,0.0,5.0,342.0,12.0
6.151966571807861,3.0,293.0,0.0,42.0,496.0,22.0,10.0,14.0,22.0,177.0,5.0
6.1543498039245605,0.0,39.0,36.0,28.0,15.0,16.0,22.0,9.0,22.0,13.0,8.0
6.156733512878418,16.0,22.0,30.0,13.0,19.0,19.0,33.0,5.0,33.0,7.0,10.0
6.159183502197266,16.0,5.0,23.0,16.0,16.0,21.0,32.0,16.0,33.0,28.0,19.0
6.161566734313965,15.0,0.0,15.0,8.0,12.0,37.0,30.0,0.0,0.0,31.0,14.0
6.163949966430664,13.0,21.0,0.0,0.0,34.0,24.0,19.0,12.0,15.0,33.0,8.0
6.166333198547363,10.0,21.0,8.0,7.0,21.0,10.0,8.0,617.0,10.0,23.0,10.0
6.1687164306640625,7.0,21.0,16.0,8.0,8.0,40.0,23.0,316.0,5.0,12.0,18.0
6.17110013961792,0.0,5.0,16.0,8.0,0.0,70.0,5.0,15.0,8.0,5.0,26.0
6.173483371734619,16.0,9.0,15.0,20.0,27.0,39.0,25.0,5.0,11.0,41.0,19.0
6.17591667175293,25.0,12.0,13.0,20.0,23.0,9.0,45.0,10.0,12.0,27.0,11.0
6.178299903869629,33.0,9.0,223.0,310.0,19.0,65.0,35.0,22.0,12.0,13.0,27.0
6.180683135986328,22.0,5.0,433.0,157.0,10.0,0.0,24.0,34.0,15.0,10.0,44.0
6.1830668449401855,10.0,8.0,663.0,5.0,16.0,15.0,30.0,28.0,17.0,0.0,50.0
6.185450077056885,9.0,10.0,755.0,21.0,22.0,415.0,24.0,26.0,34.0,3.0,25.0
6.187833309173584,7.0,8.0,839.0,49.0,10.0,221.0,22.0,23.0,42.0,5.0,46.0
6.190216541290283,17.0,6.0,72.0,37.0,767.0,27.0,20.0,17.0,8.0,5.0,66.0
6.192666530609131,29.0,9.0,17.0,25.0,682.0,602.0,22.0,11.0,26.0,9.0,0.0
6.19504976272583,25.0,5.0,80.0,26.0,527.0,320.0,24.0,26.0,16.0,13.0,12.0
6.1974334716796875,13.0,0.0,24.0,24.0,80.0,38.0,25.0,11.0,16.0,29.0,24.0
