,303.1099853515625,304.1099853515625,305.1099853515625,306.1099853515625,307.1099853515625,308.1099853515625
0.5012999773025513,28.0,39.0,6.0,39.0,17.0,16.0
0.5026000142097473,33.0,12.0,5.0,26.0,0.0,44.0
0.5038999915122986,26.0,5.0,8.0,54.0,32.0,34.0
0.5052000284194946,27.0,12.0,0.0,23.0,17.0,0.0
0.5065000057220459,17.0,23.0,9.0,35.0,41.0,32.0
0.5077999830245972,6.0,22.0,18.0,16.0,33.0,28.0
0.5091000199317932,35.0,21.0,9.0,14.0,25.0,5.0
0.5103999972343445,5.0,21.0,0.0,13.0,39.0,14.0
0.5116999745368958,32.0,26.0,15.0,17.0,10.0,22.0
0.5130000114440918,10.0,29.0,24.0,11.0,6.0,18.0
0.5142999887466431,5.0,43.0,20.0,6.0,13.0,14.0
0.5156000256538391,0.0,5.0,6.0,11.0,9.0,54.0
0.5169000029563904,25.0,45.0,22.0,8.0,6.0,49.0
0.5182666778564453,23.0,16.0,23.0,5.0,12.0,19.0
0.5195666551589966,21.0,28.0,45.0,43.0,18.0,22.0
0.5208666920661926,22.0,5.0,30.0,38.0,13.0,7.0
0.5221666693687439,24.0,25.0,16.0,39.0,8.0,25.0
0.5234666466712952,22.0,14.0,21.0,35.0,13.0,19.0
0.5247666835784912,20.0,9.0,21.0,24.0,17.0,6.0
0.5260666608810425,28.0,27.0,22.0,41.0,20.0,10.0
0.5273666381835938,21.0,25.0,17.0,40.0,5.0,32.0
0.5286666750907898,14.0,13.0,28.0,39.0,23.0,20.0
0.5299666523933411,41.0,16.0,5.0,19.0,23.0,8.0
0.5312666893005371,34.0,0.0,13.0,22.0,23.0,31.0
0.5325666666030884,23.0,4.0,28.0,43.0,0.0,40.0
0.5338666439056396,21.0,8.0,0.0,28.0,17.0,16.0
0.5352166891098022,0.0,11.0,12.0,27.0,33.0,44.0
0.5365166664123535,29.0,15.0,10.0,10.0,36.0,16.0
0.5378166437149048,58.0,29.0,6.0,19.0,30.0,12.0
0.5391166806221008,86.0,25.0,35.0,16.0,19.0,14.0
0.5404166579246521,44.0,20.0,61.0,14.0,0.0,7.0
0.5417166948318481,16.0,21.0,62.0,25.0,22.0,0.0
0.5430166721343994,25.0,27.0,39.0,37.0,25.0,0.0
0.5443166494369507,33.0,15.0,32.0,30.0,35.0,39.0
0.5456166863441467,16.0,33.0,36.0,37.0,13.0,60.0
0.546916663646698,20.0,17.0,23.0,12.0,31.0,50.0
0.5482166409492493,39.0,0.0,13.0,30.0,50.0,37.0
0.5495166778564453,5.0,9.0,32.0,22.0,0.0,25.0
0.5508166551589966,23.0,6.0,36.0,14.0,58.0,12.0
0.5521833300590515,56.0,9.0,33.0,31.0,25.0,34.0
0.5534833073616028,42.0,13.0,29.0,26.0,5.0,0.0
0.5547833442687988,38.0,21.0,13.0,27.0,28.0,5.0
0.5560833215713501,39.0,32.0,40.0,25.0,12.0,15.0
0.5573833584785461,0.0,32.0,32.0,0.0,8.0,10.0
0.5586833357810974,32.0,32.0,31.0,5.0,5.0,16.0
0.5599833130836487,10.0,20.0,29.0,5.0,9.0,16.0
0.5612833499908447,39.0,14.0,10.0,20.0,12.0,13.0
0.562583327293396,16.0,24.0,29.0,19.0,56.0,10.0
0.5638833045959473,43.0,13.0,17.0,18.0,74.0,6.0
0.5651833415031433,44.0,18.0,11.0,0.0,58.0,16.0
0.5664833188056946,5.0,13.0,5.0,21.0,30.0,16.0
0.5677833557128906,24.0,19.0,20.0,21.0,34.0,13.0
0.5691333413124084,13.0,25.0,5.0,33.0,16.0,14.0
0.5704333186149597,43.0,34.0,41.0,12.0,43.0,15.0
0.5717333555221558,25.0,30.0,30.0,33.0,63.0,10.0
0.573033332824707,8.0,27.0,13.0,20.0,43.0,0.0
0.5743333101272583,22.0,16.0,41.0,7.0,22.0,38.0
0.5756333470344543,5.0,5.0,31.0,16.0,29.0,35.0
0.5769333243370056,16.0,0.0,18.0,10.0,47.0,32.0
0.5782333612442017,26.0,27.0,33.0,22.0,36.0,28.0
0.5795333385467529,20.0,24.0,30.0,0.0,26.0,0.0
0.5808333158493042,12.0,0.0,41.0,0.0,17.0,47.0
0.5821333527565002,6.0,26.0,32.0,14.0,27.0,33.0
0.5834333300590515,0.0,34.0,23.0,16.0,5.0,42.0
0.5847333073616028,5.0,39.0,21.0,18.0,12.0,51.0
0.5861166715621948,6.0,33.0,5.0,40.0,8.0,48.0
0.5874000191688538,33.0,5.0,12.0,22.0,5.0,28.0
0.5887166857719421,40.0,10.0,0.0,5.0,6.0,18.0
0.5899999737739563,14.0,26.0,12.0,5.0,27.0,46.0
0.5913000106811523,23.0,12.0,0.0,5.0,23.0,5.0
0.5925999879837036,33.0,14.0,19.0,31.0,22.0,28.0
0.593916654586792,32.0,17.0,28.0,31.0,5.0,12.0
0.5952000021934509,27.0,10.0,32.0,31.0,27.0,35.0
0.5965166687965393,16.0,18.0,0.0,30.0,10.0,32.0
0.5978166460990906,420.0,12.0,15.0,21.0,6.0,29.0
0.5991166830062866,544.0,19.0,5.0,12.0,30.0,7.0
0.6004166603088379,23.0,29.0,25.0,40.0,42.0,37.0
0.6017166376113892,28.0,21.0,44.0,35.0,26.0,38.0
0.6030333042144775,7.0,13.0,51.0,6.0,52.0,10.0
0.6043333411216736,8.0,18.0,24.0,26.0,7.0,0.0
0.6056333184242249,9.0,23.0,25.0,5.0,38.0,47.0
0.6069499850273132,12.0,28.0,26.0,8.0,0.0,45.0
0.6082333326339722,16.0,32.0,14.0,5.0,12.0,36.0
0.6095333099365234,0.0,5.0,29.0,10.0,9.0,5.0
0.6108499765396118,16.0,19.0,5.0,16.0,6.0,20.0
0.6121500134468079,21.0,12.0,0.0,0.0,15.0,23.0
0.6134499907493591,31.0,5.0,44.0,22.0,24.0,652.0
0.6147500276565552,60.0,17.0,49.0,19.0,22.0,778.0
0.6160500049591064,62.0,29.0,48.0,13.0,19.0,27.0
0.6173499822616577,82.0,37.0,20.0,10.0,0.0,18.0
0.6186666488647461,53.0,6.0,7.0,8.0,31.0,10.0
0.6199666857719421,24.0,15.0,30.0,21.0,17.0,19.0
0.6212666630744934,22.0,24.0,46.0,20.0,30.0,12.0
0.6225666403770447,33.0,26.0,37.0,19.0,19.0,5.0
0.6238666772842407,44.0,20.0,21.0,14.0,7.0,27.0
0.625166654586792,91.0,14.0,21.0,66.0,9.0,29.0
0.626466691493988,74.0,19.0,22.0,41.0,29.0,23.0
0.6277666687965393,57.0,52.0,22.0,17.0,23.0,30.0
0.6290666460990906,16.0,46.0,22.0,23.0,17.0,5.0
0.6303666830062866,6.0,35.0,17.0,10.0,63.0,19.0
0.6316666603088379,7.0,31.0,0.0,21.0,62.0,32.0
0.6329666376113892,23.0,29.0,8.0,18.0,41.0,14.0
0.6342666745185852,39.0,22.0,4.0,14.0,28.0,23.0
0.6356333494186401,39.0,13.0,0.0,24.0,51.0,34.0
0.6369333267211914,34.0,27.0,23.0,20.0,5.0,33.0
0.6382333040237427,30.0,42.0,23.0,17.0,49.0,33.0
0.6395333409309387,75.0,38.0,34.0,0.0,31.0,10.0
0.64083331823349,236.0,33.0,40.0,7.0,28.0,20.0
0.642133355140686,128.0,22.0,35.0,0.0,24.0,41.0
0.6434333324432373,19.0,12.0,31.0,12.0,22.0,12.0
0.6447333097457886,15.0,22.0,18.0,6.0,5.0,47.0
0.6460333466529846,44.0,6.0,8.0,36.0,33.0,21.0
0.6473333239555359,10.0,6.0,0.0,34.0,28.0,46.0
0.6486333608627319,5.0,16.0,10.0,17.0,0.0,41.0
0.6499333381652832,12.0,30.0,26.0,49.0,35.0,35.0
0.6512333154678345,14.0,38.0,20.0,33.0,22.0,29.0
0.6525833606719971,0.0,43.0,6.0,15.0,5.0,5.0
0.6538833379745483,5.0,31.0,0.0,20.0,30.0,21.0
0.6551833152770996,10.0,19.0,19.0,5.0,22.0,12.0
0.6564833521842957,10.0,27.0,7.0,10.0,28.0,33.0
0.6577833294868469,10.0,16.0,13.0,16.0,25.0,25.0
0.6590833067893982,21.0,21.0,19.0,13.0,12.0,18.0
0.6603833436965942,18.0,18.0,24.0,10.0,0.0,7.0
0.6616833209991455,15.0,26.0,29.0,12.0,6.0,26.0
0.6629833579063416,19.0,33.0,26.0,14.0,11.0,17.0
0.6642833352088928,13.0,0.0,5.0,5.0,16.0,10.0
0.6655833125114441,30.0,50.0,18.0,28.0,61.0,9.0
0.6668833494186401,26.0,27.0,30.0,35.0,52.0,7.0
0.6681833267211914,22.0,0.0,22.0,20.0,5.0,27.0
0.6695500016212463,20.0,31.0,15.0,5.0,16.0,39.0
0.6708499789237976,18.0,25.0,18.0,13.0,27.0,42.0
0.6721500158309937,17.0,12.0,25.0,21.0,20.0,18.0
0.6734499931335449,12.0,16.0,19.0,14.0,14.0,18.0
0.6747499704360962,6.0,0.0,14.0,27.0,45.0,20.0
0.6760500073432922,12.0,25.0,20.0,40.0,41.0,22.0
0.6773499846458435,37.0,21.0,20.0,26.0,0.0,5.0
0.6786500215530396,51.0,6.0,19.0,13.0,19.0,10.0
0.6799499988555908,48.0,23.0,19.0,25.0,8.0,9.0
0.6812499761581421,38.0,23.0,19.0,31.0,5.0,7.0
0.6825500130653381,5.0,24.0,19.0,0.0,10.0,5.0
0.6838499903678894,29.0,20.0,26.0,31.0,15.0,12.0
0.6851500272750854,35.0,9.0,13.0,17.0,24.0,19.0
0.6865000128746033,10.0,22.0,0.0,15.0,23.0,15.0
0.6877999901771545,6.0,24.0,29.0,13.0,22.0,10.0
0.6891000270843506,27.0,26.0,12.0,42.0,24.0,5.0
0.6904000043869019,17.0,29.0,10.0,35.0,7.0,6.0
0.6916999816894531,7.0,32.0,23.0,51.0,0.0,13.0
0.6930000185966492,70.0,20.0,0.0,17.0,17.0,13.0
0.6942999958992004,56.0,28.0,28.0,0.0,10.0,13.0
0.6955999732017517,0.0,37.0,10.0,0.0,7.0,6.0
0.6969000101089478,17.0,11.0,0.0,21.0,19.0,7.0
0.698199987411499,34.0,6.0,25.0,27.0,23.0,7.0
0.6995000243186951,36.0,0.0,0.0,44.0,20.0,9.0
0.7008000016212463,53.0,22.0,0.0,31.0,18.0,12.0
0.7020999789237976,42.0,23.0,18.0,18.0,19.0,13.0
0.7034666538238525,36.0,14.0,62.0,34.0,20.0,15.0
0.7047666907310486,5.0,5.0,82.0,7.0,19.0,5.0
0.7060666680335999,7.0,3.0,5.0,34.0,19.0,7.0
0.7073666453361511,10.0,0.0,34.0,23.0,5.0,27.0
0.7086666822433472,0.0,14.0,23.0,32.0,18.0,32.0
0.7099666595458984,14.0,27.0,21.0,26.0,17.0,30.0
0.7112666964530945,53.0,17.0,29.0,6.0,8.0,31.0
0.7125666737556458,46.0,7.0,33.0,13.0,0.0,31.0
0.713866651058197,40.0,11.0,12.0,9.0,26.0,0.0
0.7151666879653931,30.0,15.0,0.0,47.0,22.0,0.0
0.7164666652679443,12.0,32.0,29.0,37.0,17.0,16.0
0.7177666425704956,12.0,19.0,25.0,26.0,12.0,14.0
0.7190666794776917,24.0,6.0,33.0,38.0,19.0,12.0
0.7204166650772095,31.0,23.0,38.0,36.0,18.0,13.0
0.7217166423797607,42.0,5.0,42.0,29.0,18.0,5.0
0.7230166792869568,0.0,10.0,40.0,5.0,9.0,22.0
0.7243166565895081,48.0,17.0,12.0,28.0,0.0,21.0
0.7256166934967041,34.0,11.0,22.0,26.0,28.0,5.0
0.7269166707992554,16.0,5.0,18.0,12.0,25.0,13.0
0.7282166481018066,20.0,5.0,14.0,23.0,22.0,9.0
0.7295166850090027,29.0,5.0,12.0,22.0,48.0,5.0
0.7308333516120911,37.0,8.0,12.0,21.0,55.0,6.0
0.7321333289146423,45.0,4.0,12.0,16.0,14.0,7.0
0.7334166765213013,0.0,0.0,11.0,0.0,34.0,14.0
0.7347166538238525,13.0,0.0,10.0,39.0,7.0,21.0
0.7360166907310486,15.0,41.0,29.0,45.0,8.0,30.0
0.7373833060264587,18.0,37.0,35.0,7.0,13.0,26.0
0.7386833429336548,27.0,6.0,10.0,40.0,5.0,0.0
0.739983320236206,16.0,43.0,33.0,32.0,5.0,5.0
0.7412833571434021,5.0,0.0,29.0,32.0,28.0,25.0
0.7425833344459534,27.0,32.0,19.0,32.0,27.0,20.0
0.7438833117485046,48.0,14.0,30.0,37.0,25.0,15.0
0.7451833486557007,45.0,41.0,42.0,17.0,32.0,19.0
0.746483325958252,40.0,9.0,50.0,0.0,32.0,23.0
0.747783362865448,47.0,17.0,37.0,57.0,32.0,27.0
0.7490833401679993,21.0,5.0,24.0,32.0,26.0,31.0
0.7503833174705505,5.0,9.0,23.0,6.0,14.0,91.0
0.7516833543777466,5.0,13.0,30.0,29.0,20.0,75.0
0.7529833316802979,32.0,20.0,34.0,17.0,26.0,15.0
0.7543333172798157,32.0,19.0,37.0,5.0,24.0,24.0
0.7556333541870117,32.0,18.0,23.0,34.0,12.0,33.0
0.756933331489563,9.0,25.0,17.0,47.0,25.0,26.0
0.7582333087921143,15.0,22.0,10.0,28.0,29.0,40.0
0.7595333456993103,8.0,19.0,9.0,33.0,33.0,10.0
0.7608333230018616,8.0,26.0,7.0,53.0,10.0,5.0
0.7621333599090576,8.0,20.0,12.0,33.0,20.0,36.0
0.7634333372116089,7.0,14.0,17.0,13.0,5.0,37.0
0.7647333145141602,7.0,21.0,16.0,27.0,10.0,38.0
0.7660333514213562,6.0,0.0,12.0,42.0,34.0,50.0
0.7673333287239075,6.0,20.0,7.0,34.0,30.0,19.0
0.7686333060264587,5.0,29.0,24.0,23.0,26.0,10.0
0.7699333429336548,30.0,30.0,23.0,16.0,14.0,10.0
0.7713000178337097,61.0,0.0,14.0,17.0,43.0,13.0
0.772599995136261,43.0,15.0,5.0,19.0,0.0,16.0
0.7738999724388123,30.0,28.0,20.0,19.0,45.0,21.0
0.7752000093460083,69.0,5.0,24.0,15.0,29.0,27.0
0.7764999866485596,55.0,40.0,19.0,12.0,0.0,5.0
0.7778000235557556,29.0,30.0,17.0,21.0,10.0,5.0
0.7791000008583069,0.0,46.0,22.0,5.0,38.0,16.0
0.7803999781608582,20.0,32.0,29.0,35.0,25.0,26.0
0.7817000150680542,0.0,7.0,28.0,46.0,23.0,24.0
0.7829999923706055,3.0,15.0,26.0,36.0,32.0,28.0
0.7843000292778015,6.0,15.0,26.0,22.0,21.0,20.0
0.7856000065803528,10.0,15.0,26.0,18.0,12.0,30.0
0.786899983882904,5.0,18.0,40.0,22.0,0.0,33.0
0.788266658782959,0.0,62.0,26.0,15.0,8.0,35.0
0.789566695690155,20.0,60.0,12.0,812.0,30.0,20.0
0.7908666729927063,40.0,1860.0,387.0,1203.0,1443.0,36.0
0.7921666502952576,24.0,8232.0,3932.0,2858.0,4739.0,1405.0
0.7934666872024536,8.0,19700.0,17336.0,10160.0,8252.0,2786.0
0.7947666645050049,40.0,38480.0,36016.0,17656.0,16044.0,4851.0
0.7960666418075562,49.0,83760.0,66976.0,35840.0,29564.0,11776.0
0.7973666787147522,5.0,103520.0,100704.0,43008.0,40784.0,10812.0
0.7986666560173035,48.0,147584.0,137024.0,75248.0,45424.0,25784.0
0.7999666929244995,28.0,185856.0,181568.0,109360.0,58896.0,21320.0
0.8012666702270508,13.0,180928.0,205376.0,110912.0,72368.0,33856.0
0.802566647529602,38.0,230848.0,201408.0,136512.0,76352.0,26864.0
0.8038666844367981,63.0,270784.0,268800.0,138112.0,82352.0,25876.0
0.8052166700363159,92.0,289920.0,253824.0,157376.0,88368.0,24888.0
0.8065166473388672,59.0,296384.0,294592.0,162176.0,108400.0,32632.0
0.8078166842460632,36.0,269120.0,279936.0,151936.0,116912.0,33840.0
0.8091166615486145,13.0,291904.0,272512.0,151872.0,109408.0,36752.0
0.8104166388511658,28.0,276416.0,276800.0,154432.0,123792.0,31000.0
0.8117333054542542,30.0,259520.0,279488.0,152768.0,88480.0,31480.0
0.8130166530609131,32.0,283264.0,282176.0,151168.0,112128.0,30872.0
0.8143166899681091,5.0,268416.0,276096.0,158272.0,139712.0,29576.0
0.8156166672706604,47.0,260736.0,270016.0,161984.0,108736.0,27400.0
0.8169166445732117,48.0,253120.0,276480.0,129120.0,132544.0,25224.0
0.8182166814804077,42.0,258688.0,283008.0,169088.0,109888.0,24040.0
0.819516658782959,42.0,227264.0,262080.0,137344.0,108208.0,32848.0
0.820816695690155,41.0,236672.0,238336.0,135680.0,90192.0,28032.0
0.8221833109855652,48.0,227456.0,256576.0,152000.0,81424.0,23208.0
0.8234833478927612,55.0,206848.0,207360.0,127248.0,75184.0,27160.0
0.8247833251953125,88.0,190464.0,194560.0,127424.0,79376.0,31176.0
0.8260833621025085,56.0,173056.0,170304.0,97952.0,69104.0,17480.0
0.8273833394050598,25.0,145344.0,161216.0,95120.0,64992.0,14808.0
0.8286833167076111,53.0,106688.0,138560.0,70656.0,58864.0,17292.0
0.8299833536148071,41.0,126928.0,117440.0,67488.0,47952.0,14568.0
0.8312833309173584,55.0,109440.0,117280.0,61680.0,47824.0,6587.0
0.8325833082199097,10.0,76432.0,88032.0,43280.0,42976.0,8720.0
0.8338833451271057,49.0,73376.0,72432.0,42352.0,27780.0,8175.0
0.835183322429657,46.0,52224.0,54528.0,36144.0,27656.0,9828.0
0.836483359336853,42.0,45232.0,63984.0,31120.0,23788.0,6722.0
0.8377833366394043,28.0,48016.0,37056.0,17636.0,14128.0,4443.0
0.8391500115394592,44.0,35120.0,26140.0,18236.0,14396.0,2852.0
0.8404499888420105,16.0,35632.0,24352.0,14336.0,7279.0,5020.0
0.8417500257492065,19.0,22656.0,18464.0,13524.0,4826.0,1994.0
0.8430500030517578,23.0,19448.0,18304.0,10776.0,7058.0,1606.0
0.8443499803543091,26.0,14352.0,11160.0,8190.0,7708.0,2959.0
0.8456500172615051,29.0,8660.0,17960.0,10024.0,7789.0,1423.0
0.8469499945640564,41.0,13004.0,10928.0,5111.0,7718.0,1434.0
0.8482499718666077,53.0,10868.0,11196.0,6713.0,4004.0,582.0
0.8495500087738037,76.0,9136.0,12056.0,7599.0,2680.0,1990.0
0.850849986076355,0.0,7616.0,5874.0,4026.0,3869.0,1601.0
0.852150022983551,20.0,5494.0,9360.0,5117.0,914.0,1212.0
0.8534500002861023,7.0,5818.0,9632.0,6126.0,4553.0,614.0
0.8547499775886536,21.0,6141.0,3563.0,2386.0,3804.0,1059.0
0.8561000227928162,46.0,5712.0,9996.0,7604.0,2195.0,602.0
0.8574000000953674,44.0,4934.0,4520.0,2061.0,1860.0,876.0
0.8586999773979187,38.0,3537.0,7072.0,5612.0,1526.0,22.0
0.8600000143051147,32.0,5176.0,3615.0,2996.0,828.0,28.0
0.861299991607666,13.0,5350.0,2739.0,2002.0,429.0,823.0
0.8626000285148621,41.0,5524.0,1862.0,2607.0,30.0,49.0
0.8639000058174133,25.0,5251.0,4456.0,2190.0,764.0,40.0
0.8651999831199646,7.0,5061.0,4644.0,1774.0,1154.0,30.0
0.8665000200271606,19.0,2757.0,3843.0,515.0,1545.0,0.0
0.8677999973297119,0.0,5400.0,4409.0,2107.0,794.0,3.0
0.8690999746322632,13.0,1896.0,3688.0,3311.0,44.0,6.0
0.8704000115394592,32.0,4526.0,2755.0,2278.0,385.0,41.0
0.8716999888420105,30.0,5195.0,3506.0,794.0,1282.0,42.0
0.873033344745636,39.0,5762.0,2761.0,460.0,1703.0,26.0
0.8743333220481873,48.0,2983.0,2907.0,31.0,2059.0,22.0
0.8756333589553833,40.0,6983.0,3725.0,35.0,130.0,39.0
0.8769333362579346,31.0,5018.0,3186.0,721.0,716.0,108.0
0.8782333135604858,45.0,3678.0,2599.0,3969.0,309.0,61.0
0.8795333504676819,0.0,7494.0,1785.0,3111.0,778.0,14.0
0.8808333277702332,24.0,7394.0,1806.0,982.0,24.0,23.0
0.8821333050727844,16.0,4065.0,1827.0,2261.0,632.0,20.0
0.8834333419799805,34.0,4934.0,1471.0,2766.0,652.0,26.0
0.8847333192825317,22.0,3319.0,1853.0,1749.0,671.0,30.0
0.8860333561897278,28.0,1704.0,2656.0,493.0,535.0,33.0
0.887333333492279,44.0,5251.0,2143.0,851.0,19.0,17.0
0.8886333107948303,5.0,1471.0,1630.0,1210.0,616.0,23.0
0.8899999856948853,27.0,5065.0,1602.0,199.0,1212.0,30.0
0.8913000226020813,10.0,4466.0,1017.0,506.0,1128.0,37.0
0.8925999999046326,18.0,6207.0,1530.0,1205.0,125.0,5.0
0.8938999772071838,26.0,5988.0,2044.0,1075.0,329.0,28.0
0.8952000141143799,16.0,3771.0,1314.0,308.0,533.0,113.0
0.8964999914169312,5.0,4089.0,584.0,1921.0,492.0,197.0
0.8978000283241272,5.0,6084.0,644.0,1882.0,246.0,265.0
0.8991000056266785,17.0,4875.0,704.0,1844.0,0.0,532.0
0.9003999829292297,22.0,3838.0,2348.0,1312.0,27.0,276.0
0.9017000198364258,29.0,7148.0,4845.0,780.0,53.0,20.0
0.902999997138977,36.0,3412.0,4497.0,685.0,164.0,22.0
0.9042999744415283,12.0,3707.0,1868.0,589.0,97.0,39.0
0.9056000113487244,28.0,5737.0,2699.0,477.0,29.0,24.0
0.9069666862487793,30.0,7768.0,1804.0,458.0,52.0,9.0
0.9082666635513306,33.0,6552.0,529.0,530.0,42.0,5.0
0.9095666408538818,14.0,3345.0,2486.0,601.0,32.0,31.0
0.9108666777610779,5.0,7139.0,507.0,594.0,32.0,30.0
0.9121666550636292,21.0,6043.0,840.0,587.0,31.0,27.0
0.9134666919708252,0.0,3215.0,1498.0,673.0,678.0,23.0
0.9147666692733765,39.0,3938.0,2343.0,16.0,1227.0,17.0
0.9160666465759277,29.0,4388.0,1792.0,1162.0,617.0,57.0
0.9173666834831238,20.0,6124.0,1766.0,873.0,6.0,44.0
0.918666660785675,30.0,5796.0,1153.0,585.0,7.0,30.0
0.9199666380882263,11.0,5572.0,805.0,924.0,6.0,37.0
0.9212666749954224,5.0,6831.0,457.0,1112.0,655.0,43.0
0.9225666522979736,34.0,7586.0,1155.0,1052.0,356.0,31.0
0.9239166378974915,31.0,7439.0,12.0,12.0,56.0,20.0
0.9252166748046875,37.0,5594.0,17.0,835.0,16.0,46.0
0.9265166521072388,21.0,5769.0,22.0,823.0,17.0,72.0
0.9278166890144348,38.0,5287.0,1683.0,415.0,18.0,218.0
0.9291166663169861,27.0,6070.0,849.0,8.0,348.0,365.0
0.9304166436195374,48.0,6854.0,15.0,8.0,679.0,192.0
0.9317166805267334,39.0,9044.0,2478.0,7.0,348.0,20.0
0.9330166578292847,24.0,11236.0,1477.0,409.0,17.0,214.0
0.9343166947364807,0.0,2835.0,1457.0,811.0,857.0,139.0
0.935616672039032,5.0,8360.0,2159.0,1047.0,25.0,63.0
0.9369166493415833,13.0,7580.0,1252.0,1231.0,210.0,29.0
0.9382166862487793,19.0,3876.0,878.0,1530.0,999.0,30.0
0.9395166635513306,17.0,3566.0,1826.0,1306.0,218.0,33.0
0.940850019454956,15.0,3759.0,2375.0,21.0,739.0,36.0
0.9421499967575073,13.0,6669.0,2031.0,1705.0,2047.0,125.0
0.9434499740600586,6.0,6177.0,0.0,2225.0,2398.0,77.0
0.9447500109672546,12.0,8356.0,3463.0,1966.0,1317.0,28.0
0.9460499882698059,20.0,6069.0,5551.0,97.0,1150.0,12.0
0.947350025177002,16.0,3933.0,3325.0,47.0,684.0,5.0
0.9486500024795532,13.0,4920.0,3157.0,676.0,35.0,217.0
0.9499499797821045,36.0,6020.0,442.0,565.0,604.0,122.0
0.9512500166893005,22.0,3786.0,1787.0,2885.0,363.0,27.0
0.9525499939918518,7.0,5945.0,3104.0,2420.0,121.0,52.0
0.9538499712944031,21.0,6010.0,1246.0,5.0,1024.0,51.0
0.9551500082015991,19.0,6076.0,1216.0,1232.0,899.0,51.0
0.9564499855041504,17.0,6172.0,2328.0,33.0,37.0,6.0
0.9578166604042053,5.0,6269.0,1154.0,22.0,516.0,40.0
0.9591166377067566,23.0,5149.0,1362.0,12.0,418.0,46.0
0.9604166746139526,0.0,4577.0,4921.0,126.0,319.0,44.0
0.9617166519165039,29.0,4890.0,4417.0,286.0,747.0,43.0
0.9630166888237,38.0,6921.0,492.0,155.0,64.0,575.0
0.9643166661262512,46.0,2372.0,4846.0,24.0,743.0,607.0
0.9656166434288025,22.0,2595.0,992.0,14.0,206.0,6.0
0.9669166803359985,0.0,2461.0,806.0,12.0,35.0,133.0
0.9682166576385498,31.0,2238.0,2219.0,93.0,525.0,5.0
0.9695166945457458,27.0,2569.0,22.0,98.0,57.0,19.0
0.9708166718482971,32.0,4721.0,229.0,103.0,56.0,32.0
0.9721166491508484,34.0,4105.0,1072.0,620.0,54.0,5.0
0.9734166860580444,29.0,3489.0,993.0,322.0,27.0,19.0
0.9747833609580994,26.0,2850.0,1479.0,24.0,0.0,14.0
0.9760833382606506,19.0,2166.0,1080.0,36.0,5.0,22.0
0.9773833155632019,40.0,2262.0,681.0,140.0,386.0,33.0
0.978683352470398,50.0,2358.0,1275.0,245.0,193.0,17.0
0.9799833297729492,0.0,2112.0,817.0,149.0,0.0,0.0
0.9812833070755005,0.0,1865.0,1353.0,54.0,754.0,204.0
0.9825833439826965,25.0,1651.0,688.0,335.0,683.0,108.0
0.9838833212852478,23.0,1436.0,23.0,615.0,612.0,12.0
0.9851833581924438,19.0,420.0,3481.0,994.0,18.0,17.0
0.9864833354949951,29.0,439.0,3067.0,778.0,16.0,59.0
0.9877833127975464,21.0,2257.0,28.0,562.0,349.0,25.0
0.9890833497047424,13.0,2857.0,127.0,170.0,1197.0,24.0
0.9903833270072937,10.0,3555.0,1260.0,7.0,1137.0,41.0
0.9917500019073486,6.0,2152.0,275.0,5.0,536.0,7.0
0.9930499792098999,21.0,3317.0,1574.0,461.0,624.0,12.0
0.994350016117096,22.0,1892.0,1173.0,917.0,421.0,17.0
0.9956499934196472,26.0,1664.0,1377.0,1014.0,530.0,5.0
0.9969499707221985,15.0,3770.0,1581.0,1189.0,638.0,10.0
0.9982500076293945,28.0,3222.0,1555.0,1091.0,759.0,24.0
0.9995499849319458,17.0,2675.0,1211.0,993.0,380.0,401.0
1.000849962234497,9.0,1844.0,483.0,2411.0,0.0,213.0
1.002150058746338,10.0,1605.0,1376.0,2803.0,32.0,26.0
1.0034500360488892,20.0,2209.0,1487.0,1678.0,35.0,39.0
1.0047500133514404,28.0,1297.0,2882.0,1835.0,39.0,50.0
1.0060499906539917,26.0,1694.0,2794.0,433.0,23.0,46.0
1.007349967956543,24.0,2536.0,1067.0,754.0,25.0,29.0
1.0087000131607056,14.0,2803.0,1394.0,1286.0,26.0,13.0
1.0099999904632568,16.0,2519.0,2122.0,501.0,24.0,6.0
1.011299967765808,6.0,2234.0,1803.0,12.0,21.0,0.0
1.0125999450683594,25.0,2389.0,2093.0,479.0,17.0,4.0
1.0139000415802002,22.0,709.0,3233.0,458.0,39.0,8.0
1.0152000188827515,19.0,1500.0,484.0,438.0,361.0,1631.0
1.0164999961853027,15.0,2290.0,712.0,695.0,1520.0,1226.0
1.017799973487854,21.0,945.0,2506.0,536.0,1370.0,13.0
1.0190999507904053,27.0,1158.0,3066.0,377.0,1082.0,1187.0
1.020400047302246,18.0,1962.0,1603.0,2084.0,59.0,726.0
1.0217000246047974,8.0,1864.0,1398.0,2930.0,642.0,786.0
1.0230000019073486,22.0,1427.0,2614.0,2004.0,359.0,1036.0
1.0242999792099,14.0,990.0,1957.0,924.0,1246.0,30.0
1.0256667137145996,6.0,1814.0,1761.0,806.0,632.0,8.0
1.0269666910171509,43.0,2664.0,2595.0,861.0,19.0,78.0
1.0282666683197021,37.0,2256.0,2081.0,1003.0,656.0,19.0
1.0295666456222534,22.0,1847.0,1833.0,1146.0,37.0,761.0
1.0308666229248047,34.0,2236.0,1577.0,13.0,1014.0,813.0
1.0321667194366455,17.0,772.0,800.0,860.0,994.0,72.0
1.0334666967391968,19.0,1033.0,23.0,251.0,63.0,1115.0
1.034766674041748,43.0,1748.0,795.0,128.0,5.0,903.0
1.0360666513442993,33.0,1434.0,1388.0,5.0,22.0,23.0
1.0373666286468506,24.0,1121.0,1981.0,544.0,39.0,730.0
1.0386667251586914,21.0,1954.0,1473.0,1690.0,56.0,379.0
1.0399667024612427,19.0,1635.0,964.0,1650.0,31.0,890.0
1.041266679763794,17.0,1316.0,1702.0,1609.0,5.0,463.0
1.0426167249679565,16.0,563.0,1477.0,1282.0,5.0,67.0
1.0439167022705078,0.0,2278.0,1252.0,2612.0,814.0,29.0
1.045216679573059,23.0,1638.0,1856.0,210.0,566.0,0.0
1.0465166568756104,19.0,1834.0,2460.0,1502.0,317.0,6.0
1.0478166341781616,0.0,2030.0,2111.0,2424.0,2001.0,304.0
1.049116611480713,39.0,1893.0,1543.0,4100.0,1992.0,312.0
1.0504167079925537,48.0,1756.0,2780.0,4386.0,490.0,320.0
1.051716685295105,6.0,2048.0,2926.0,1780.0,1078.0,33.0
1.0530166625976562,3.0,2339.0,2352.0,1376.0,2290.0,14.0
1.0543166399002075,0.0,2247.0,1858.0,2875.0,1548.0,12.0
1.0556166172027588,3.0,2156.0,1364.0,1239.0,31.0,26.0
1.0569167137145996,5.0,1314.0,1533.0,987.0,913.0,766.0
1.058233380317688,12.0,2162.0,1702.0,335.0,556.0,405.0
1.059583306312561,18.0,2668.0,2914.0,1398.0,530.0,44.0
1.0608832836151123,9.0,2406.0,4421.0,1702.0,402.0,1100.0
1.0621833801269531,0.0,2023.0,3695.0,671.0,1924.0,953.0
1.0634833574295044,23.0,1522.0,3113.0,2575.0,2243.0,806.0
1.0647833347320557,14.0,1859.0,2531.0,2471.0,757.0,32.0
1.066083312034607,19.0,2197.0,2115.0,2425.0,1085.0,10.0
1.0673832893371582,18.0,2522.0,2207.0,1811.0,861.0,278.0
1.068683385848999,18.0,2847.0,2299.0,1197.0,637.0,456.0
1.0699833631515503,27.0,1824.0,2204.0,471.0,874.0,633.0
1.0712833404541016,36.0,801.0,54.0,1040.0,1110.0,100.0
1.0725833177566528,18.0,4063.0,2368.0,1608.0,22.0,0.0
1.073883295059204,0.0,4219.0,2824.0,2503.0,719.0,767.0
1.075183391571045,22.0,1900.0,3279.0,2012.0,1741.0,1051.0
1.076533317565918,9.0,1243.0,4029.0,1522.0,1581.0,675.0
1.0778332948684692,21.0,4291.0,4779.0,2247.0,1421.0,298.0
1.07913339138031,25.0,332.0,3491.0,1291.0,1630.0,939.0
1.0804333686828613,31.0,868.0,2203.0,335.0,1545.0,442.0
1.0817333459854126,32.0,2290.0,2828.0,111.0,1460.0,0.0
1.0830333232879639,33.0,4379.0,2929.0,2190.0,566.0,649.0
1.0843333005905151,32.0,4266.0,895.0,1558.0,307.0,15.0
1.0856332778930664,47.0,4152.0,1701.0,927.0,1037.0,423.0
1.0869333744049072,61.0,3773.0,3099.0,2426.0,1767.0,227.0
1.0882333517074585,71.0,3395.0,4496.0,1752.0,3502.0,31.0
1.0895333290100098,24.0,3216.0,4359.0,2951.0,3393.0,29.0
1.090833306312561,22.0,2330.0,3880.0,4150.0,1270.0,292.0
1.0921332836151123,6.0,4602.0,4397.0,3464.0,699.0,154.0
1.0934666395187378,40.0,4168.0,7259.0,3595.0,1065.0,17.0
1.094766616821289,47.0,3328.0,7581.0,3727.0,1431.0,687.0
1.0960667133331299,55.0,4388.0,6134.0,1259.0,796.0,650.0
1.0973666906356812,19.0,6642.0,5062.0,1418.0,161.0,613.0
1.0986666679382324,0.0,718.0,3556.0,2529.0,957.0,241.0
1.0999666452407837,20.0,5143.0,3590.0,1995.0,1081.0,16.0
1.101266622543335,29.0,3487.0,4475.0,1461.0,1204.0,1923.0
1.1025667190551758,69.0,4477.0,3016.0,3001.0,754.0,2103.0
1.103866696357727,73.0,3831.0,2252.0,3403.0,304.0,295.0
1.1051666736602783,37.0,4686.0,3452.0,3400.0,943.0,338.0
1.1064666509628296,33.0,5173.0,4653.0,3131.0,712.0,0.0
1.1077666282653809,28.0,3755.0,4113.0,1752.0,481.0,337.0
1.1090667247772217,23.0,2336.0,3580.0,4048.0,1052.0,11.0
1.1104333400726318,16.0,6298.0,3048.0,1934.0,883.0,440.0
1.111733317375183,40.0,6440.0,5341.0,2672.0,715.0,21.0
1.1130332946777344,55.0,7404.0,8360.0,2532.0,375.0,1482.0
1.1143333911895752,32.0,4930.0,7225.0,2392.0,35.0,755.0
1.1156333684921265,9.0,4690.0,5600.0,3580.0,355.0,28.0
1.1169333457946777,24.0,7606.0,7782.0,963.0,3285.0,732.0
1.118233323097229,25.0,5279.0,4521.0,4436.0,2588.0,378.0
1.1195333003997803,15.0,5288.0,6789.0,5316.0,2998.0,24.0
1.1208332777023315,5.0,4570.0,8248.0,3195.0,1805.0,15.0
1.1221333742141724,59.0,6262.0,6148.0,5855.0,4207.0,5.0
1.1234333515167236,56.0,6503.0,5904.0,3624.0,3948.0,34.0
1.124733328819275,5.0,10252.0,5710.0,3218.0,3290.0,663.0
1.1260333061218262,18.0,11096.0,2382.0,2881.0,2362.0,1242.0
1.1273833513259888,30.0,5085.0,7512.0,632.0,2259.0,917.0
1.12868332862854,39.0,3704.0,5539.0,5099.0,2577.0,1849.0
1.1299833059310913,47.0,7854.0,7749.0,3430.0,2416.0,1795.0
1.1312832832336426,35.0,3736.0,7410.0,4988.0,2256.0,1741.0
1.1325833797454834,15.0,5532.0,4947.0,3540.0,970.0,419.0
1.1338833570480347,16.0,5501.0,4380.0,2185.0,2736.0,37.0
1.135183334350586,18.0,8896.0,9072.0,3660.0,355.0,1129.0
1.1364833116531372,24.0,7531.0,11660.0,2603.0,3023.0,1407.0
1.1377832889556885,29.0,5301.0,9908.0,1546.0,2349.0,1327.0
1.1390833854675293,30.0,5903.0,3806.0,387.0,3160.0,144.0
1.1403833627700806,17.0,6942.0,6866.0,1282.0,1629.0,823.0
1.1416833400726318,31.0,6828.0,8988.0,2178.0,2396.0,533.0
1.142983317375183,18.0,8068.0,6391.0,4645.0,3163.0,611.0
1.1443500518798828,31.0,4750.0,6941.0,6999.0,3267.0,688.0
1.145650029182434,44.0,6121.0,6845.0,5676.0,3371.0,1382.0
1.1469500064849854,0.0,6417.0,5250.0,3500.0,3307.0,1325.0
1.1482499837875366,18.0,7440.0,4581.0,5698.0,2281.0,1268.0
1.149549961090088,10.0,4689.0,10200.0,4341.0,2540.0,1421.0
1.1508500576019287,15.0,5335.0,9468.0,2082.0,2799.0,1574.0
1.15215003490448,19.0,5264.0,8532.0,6388.0,3217.0,673.0
1.1534500122070312,21.0,4801.0,7595.0,4854.0,3634.0,349.0
1.1547499895095825,18.0,4339.0,9948.0,2785.0,3307.0,24.0
1.1560499668121338,14.0,6184.0,9368.0,5039.0,2980.0,493.0
1.157349944114685,30.0,6510.0,8792.0,6683.0,2721.0,962.0
1.1586500406265259,15.0,6836.0,6591.0,8572.0,2473.0,808.0
1.1599500179290771,0.0,6453.0,4975.0,8059.0,2224.0,894.0
1.1613166332244873,3.0,6070.0,5890.0,4189.0,2484.0,979.0
1.1626166105270386,5.0,7898.0,6805.0,5949.0,2744.0,506.0
1.1639167070388794,23.0,7830.0,13236.0,6169.0,2745.0,32.0
1.1652166843414307,41.0,9096.0,11888.0,4055.0,2746.0,149.0
1.166516661643982,30.0,7797.0,11244.0,5807.0,3540.0,89.0
1.1678166389465332,20.0,8148.0,6502.0,5425.0,5778.0,28.0
1.1691166162490845,0.0,6743.0,6527.0,1484.0,5797.0,2489.0
1.1704167127609253,0.0,9644.0,10356.0,7875.0,5815.0,2755.0
1.1717166900634766,18.0,12364.0,11900.0,8488.0,6170.0,2263.0
1.1730166673660278,46.0,11980.0,11832.0,5236.0,6453.0,732.0
1.174316644668579,45.0,4895.0,11768.0,8492.0,2345.0,2275.0
1.1756166219711304,0.0,6004.0,9440.0,5170.0,6751.0,1277.0
1.1769167184829712,31.0,13160.0,10648.0,6050.0,4556.0,3004.0
1.1782666444778442,30.0,9340.0,9896.0,7161.0,7512.0,2621.0
1.1795666217803955,41.0,10812.0,9144.0,6876.0,1910.0,2058.0
1.1808667182922363,42.0,11168.0,13252.0,6592.0,2666.0,4306.0
1.1821666955947876,42.0,11520.0,12620.0,7439.0,7577.0,13.0
1.1834666728973389,0.0,7082.0,14144.0,7289.0,5418.0,2789.0
1.1847666501998901,5.0,9088.0,11044.0,7563.0,4345.0,1468.0
1.1860666275024414,12.0,13440.0,17920.0,7836.0,3272.0,3371.0
1.1873667240142822,12.0,12832.0,18908.0,7949.0,6532.0,19.0
1.1886667013168335,29.0,13140.0,9240.0,8063.0,5637.0,1094.0
1.1899666786193848,24.0,11964.0,14064.0,5977.0,6099.0,2904.0
1.191266655921936,30.0,11640.0,15792.0,5348.0,6056.0,13.0
1.1925666332244873,40.0,8508.0,14148.0,3955.0,6013.0,1409.0
1.1938666105270386,49.0,13076.0,13780.0,7416.0,4647.0,3049.0
1.1952333450317383,14.0,10592.0,13408.0,14432.0,5673.0,2327.0
1.1965333223342896,49.0,14520.0,13108.0,14128.0,2140.0,17.0
1.1978332996368408,19.0,12648.0,12804.0,7373.0,6412.0,648.0
1.199133276939392,45.0,14756.0,20728.0,9092.0,3195.0,1198.0
1.200433373451233,6.0,11288.0,20316.0,9520.0,6482.0,0.0
1.2017333507537842,0.0,12860.0,20456.0,4768.0,5069.0,1507.0
1.2030333280563354,16.0,16444.0,8344.0,8524.0,6398.0,1211.0
1.2043333053588867,29.0,8696.0,16232.0,10836.0,3449.0,915.0
1.205633282661438,20.0,9236.0,11420.0,9956.0,6454.0,1273.0
1.2069333791732788,12.0,14416.0,12108.0,10484.0,7552.0,982.0
1.20823335647583,13.0,7445.0,9336.0,6456.0,7328.0,690.0
1.2095333337783813,15.0,15928.0,15168.0,7079.0,6094.0,3047.0
1.2108333110809326,18.0,14636.0,14436.0,7347.0,4859.0,2853.0
1.2121833562850952,16.0,12308.0,17372.0,7771.0,4926.0,2658.0
1.2134833335876465,13.0,11916.0,15488.0,9064.0,3411.0,3181.0
1.2147833108901978,22.0,13784.0,15068.0,13316.0,5250.0,868.0
1.216083288192749,7.0,13524.0,18012.0,15236.0,4339.0,969.0
1.2173833847045898,21.0,16804.0,20956.0,13252.0,3429.0,1718.0
1.2186833620071411,36.0,17216.0,18684.0,13160.0,13088.0,2468.0
1.2199833393096924,45.0,15072.0,16416.0,11372.0,10884.0,2120.0
1.2213000059127808,55.0,16148.0,14512.0,12900.0,9396.0,2642.0
1.222583293914795,24.0,17224.0,17244.0,12892.0,14552.0,3672.0
1.2238833904266357,41.0,17400.0,16368.0,12880.0,5951.0,2952.0
1.225183367729187,36.0,17576.0,15488.0,9756.0,7196.0,2232.0
1.2264833450317383,0.0,18800.0,21848.0,9784.0,7832.0,2522.0
1.2277833223342896,7.0,13392.0,19644.0,11548.0,5723.0,1475.0
1.2291500568389893,22.0,15632.0,17444.0,17096.0,5902.0,393.0
1.2304500341415405,37.0,14500.0,22212.0,18924.0,8260.0,2888.0
1.2317500114440918,43.0,15992.0,19884.0,12976.0,7727.0,3520.0
1.233049988746643,11.0,17484.0,17560.0,12464.0,11628.0,4669.0
1.2343499660491943,52.0,17504.0,19440.0,19152.0,10280.0,1453.0
1.2356499433517456,15.0,17520.0,21320.0,10012.0,6945.0,3004.0
1.2369500398635864,88.0,17892.0,28836.0,9352.0,12688.0,3405.0
1.2382500171661377,68.0,18264.0,28696.0,12308.0,8932.0,1491.0
1.239549994468689,114.0,20036.0,23100.0,13280.0,10612.0,2214.0
1.2408499717712402,78.0,23792.0,23876.0,16632.0,10248.0,2937.0
1.2421499490737915,45.0,23532.0,21908.0,16308.0,10632.0,4944.0
1.2434500455856323,18.0,16956.0,21800.0,20172.0,11020.0,5172.0
1.2447500228881836,5.0,24120.0,20264.0,21140.0,11836.0,5057.0
1.2461166381835938,20.0,20604.0,23696.0,11580.0,12656.0,34.0
1.247416615486145,52.0,23596.0,24148.0,19484.0,12156.0,5513.0
1.2487167119979858,73.0,26508.0,24604.0,19900.0,11656.0,4284.0
1.250016689300537,54.0,18236.0,31588.0,17008.0,12100.0,3637.0
1.2513166666030884,62.0,21764.0,28520.0,17144.0,6543.0,4345.0
1.2526166439056396,35.0,25764.0,25456.0,17792.0,14400.0,4160.0
1.253916621208191,5.0,28804.0,35024.0,18444.0,15204.0,3127.0
1.2552167177200317,0.0,23436.0,41472.0,21308.0,15344.0,4292.0
1.256516695022583,43.0,23312.0,38496.0,20852.0,11008.0,3922.0
1.2578166723251343,19.0,27276.0,36400.0,15880.0,15104.0,3553.0
1.2591166496276855,36.0,24936.0,39872.0,22620.0,10168.0,4253.0
1.2604166269302368,41.0,27168.0,28456.0,24868.0,12936.0,3721.0
1.2617167234420776,21.0,25404.0,34656.0,27308.0,14160.0,3188.0
1.2630666494369507,47.0,28400.0,35488.0,16228.0,15384.0,4496.0
1.264366626739502,24.0,26300.0,36352.0,19932.0,13940.0,4626.0
1.2656667232513428,50.0,24196.0,37232.0,22520.0,11704.0,4757.0
1.266966700553894,5.0,34176.0,36448.0,20504.0,9472.0,4051.0
1.2682666778564453,16.0,33520.0,35664.0,18488.0,13220.0,3345.0
1.2695666551589966,24.0,30508.0,36832.0,18740.0,15492.0,4409.0
1.2708666324615479,22.0,30500.0,38000.0,18992.0,15396.0,4524.0
1.2721666097640991,7.0,30492.0,41184.0,22900.0,15304.0,6568.0
1.27346670627594,15.0,40928.0,44368.0,23020.0,15848.0,5397.0
1.2747666835784912,13.0,43856.0,50224.0,23140.0,16396.0,4225.0
1.2760666608810425,15.0,46080.0,55456.0,23436.0,17188.0,5117.0
1.2773666381835938,15.0,37792.0,36512.0,22464.0,20728.0,6010.0
1.278666615486145,16.0,41280.0,48960.0,24896.0,21168.0,6236.0
1.2800333499908447,18.0,38896.0,46704.0,21304.0,29172.0,4769.0
1.281333327293396,15.0,35280.0,54272.0,17716.0,27400.0,7981.0
1.2826333045959473,13.0,44832.0,40832.0,25388.0,25628.0,3245.0
1.2839332818984985,13.0,47424.0,47952.0,24028.0,21992.0,7873.0
1.2852333784103394,14.0,33760.0,49696.0,22668.0,24388.0,10208.0
1.2865333557128906,6.0,40112.0,55008.0,28336.0,24824.0,5676.0
1.287833333015442,6.0,38192.0,54864.0,25700.0,21244.0,6257.0
1.2891333103179932,6.0,37136.0,54736.0,23068.0,22824.0,8572.0
1.2904332876205444,37.0,36080.0,54672.0,27420.0,22656.0,8736.0
1.2917333841323853,34.0,41328.0,46832.0,28484.0,20124.0,9012.0
1.2930333614349365,30.0,39856.0,52624.0,27728.0,20740.0,4858.0
1.2943333387374878,42.0,38384.0,62672.0,38176.0,21356.0,6578.0
1.295633316040039,14.0,42976.0,67936.0,42000.0,20488.0,8296.0
1.2969833612442017,40.0,45200.0,60128.0,37632.0,21608.0,7469.0
1.298283338546753,55.0,49984.0,56272.0,29612.0,21364.0,6640.0
1.2995833158493042,32.0,48736.0,45744.0,31836.0,33056.0,7388.0
1.3008832931518555,31.0,39456.0,52480.0,39600.0,31884.0,8109.0
1.3021833896636963,27.0,46336.0,59216.0,39520.0,15004.0,7325.0
1.3034833669662476,30.0,47104.0,51792.0,35536.0,22320.0,6540.0
1.3047833442687988,30.0,47872.0,44352.0,41808.0,33600.0,5784.0
1.30608332157135,14.0,46848.0,60864.0,44768.0,27152.0,6285.0
1.3073832988739014,17.0,45824.0,58160.0,31412.0,28344.0,7437.0
1.3086832761764526,26.0,44208.0,56528.0,40352.0,25348.0,7229.0
1.3099833726882935,34.0,35904.0,63776.0,43552.0,25004.0,7188.0
1.3112833499908447,36.0,43088.0,67536.0,40880.0,17596.0,8380.0
1.312583327293396,18.0,41568.0,45232.0,30880.0,20508.0,8772.0
1.3139499425888062,0.0,40064.0,63472.0,28604.0,22680.0,8284.0
1.315250039100647,9.0,42512.0,65312.0,25144.0,24668.0,5472.0
1.3165500164031982,18.0,44960.0,61568.0,26760.0,25496.0,8150.0
1.3178499937057495,16.0,44080.0,66624.0,28380.0,30216.0,7782.0
1.3191499710083008,14.0,46992.0,50560.0,34016.0,14684.0,7792.0
1.320449948310852,23.0,45152.0,54528.0,32896.0,16540.0,7801.0
1.3217500448226929,0.0,43312.0,67408.0,33136.0,24148.0,6114.0
1.3230500221252441,22.0,33984.0,52512.0,29504.0,22092.0,7405.0
1.3243499994277954,0.0,37760.0,54256.0,27148.0,22788.0,4953.0
1.3256499767303467,49.0,44112.0,51440.0,22540.0,21624.0,4212.0
1.326949954032898,47.0,38368.0,54192.0,35424.0,20280.0,3472.0
1.3282500505447388,19.0,32624.0,49776.0,32520.0,19720.0,6356.0
1.32955002784729,18.0,35824.0,46992.0,25844.0,20208.0,4189.0
1.330899953842163,21.0,34192.0,43056.0,26924.0,18036.0,2021.0
1.332200050354004,23.0,31204.0,41824.0,21740.0,15140.0,4401.0
1.3335000276565552,21.0,35392.0,40944.0,24212.0,20520.0,4282.0
1.3348000049591064,12.0,34384.0,40048.0,26932.0,16916.0,6549.0
1.3360999822616577,29.0,28944.0,41904.0,27728.0,12360.0,7705.0
1.337399959564209,28.0,23588.0,38992.0,20316.0,15224.0,6487.0
1.3387000560760498,26.0,31268.0,36080.0,23140.0,14560.0,3796.0
1.340000033378601,21.0,28608.0,39040.0,24200.0,13896.0,4303.0
1.3413000106811523,54.0,25944.0,42000.0,19628.0,14136.0,4259.0
1.3425999879837036,56.0,25872.0,41488.0,19040.0,14672.0,6045.0
1.3438999652862549,22.0,28968.0,37248.0,18452.0,9932.0,7863.0
1.3451999425888062,13.0,18192.0,28436.0,16992.0,19836.0,6624.0
1.346500039100647,49.0,20172.0,38384.0,15536.0,17340.0,6065.0
1.3478666543960571,35.0,30776.0,25172.0,15356.0,15320.0,59.0
1.3491666316986084,0.0,30112.0,27572.0,14704.0,17228.0,2752.0
1.3504666090011597,12.0,24856.0,40528.0,13708.0,16612.0,3109.0
1.3517667055130005,31.0,24444.0,28924.0,15528.0,12568.0,3583.0
1.3530666828155518,18.0,21932.0,25084.0,13260.0,16960.0,3428.0
1.354366660118103,18.0,20580.0,17264.0,15112.0,4548.0,2001.0
1.3556666374206543,5.0,17036.0,17940.0,13560.0,12364.0,2825.0
1.3569666147232056,44.0,14780.0,18616.0,12008.0,8504.0,4283.0
1.3582667112350464,35.0,17676.0,24724.0,12732.0,8099.0,5440.0
1.3595666885375977,0.0,20572.0,23444.0,10168.0,11168.0,3917.0
1.360866665840149,17.0,19956.0,19932.0,14572.0,8608.0,4042.0
1.3621666431427002,33.0,12064.0,19236.0,11932.0,7431.0,5227.0
1.3634666204452515,25.0,17492.0,18548.0,9288.0,6545.0,1692.0
1.364816665649414,13.0,13092.0,16300.0,9076.0,8508.0,1439.0
1.3661166429519653,42.0,12048.0,19704.0,8896.0,5684.0,4576.0
1.3674166202545166,29.0,12196.0,20544.0,9312.0,8684.0,1515.0
1.3687167167663574,5.0,11976.0,18152.0,9728.0,9020.0,3253.0
1.3700166940689087,0.0,9364.0,16380.0,6890.0,9356.0,2276.0
1.37131667137146,0.0,6752.0,11112.0,6309.0,5507.0,652.0
1.3726166486740112,4.0,6575.0,10540.0,9728.0,2525.0,2173.0
1.3739166259765625,7.0,6398.0,10080.0,5563.0,5092.0,1259.0
1.3752167224884033,21.0,5779.0,10724.0,7895.0,8860.0,47.0
1.3765166997909546,56.0,5159.0,11368.0,7472.0,6829.0,1039.0
1.3778166770935059,56.0,6901.0,9032.0,6661.0,4942.0,196.0
1.3791166543960571,35.0,7053.0,8072.0,5851.0,3620.0,378.0
1.3804166316986084,35.0,7205.0,7277.0,6774.0,2550.0,1128.0
1.381783366203308,39.0,5429.0,6483.0,3267.0,3177.0,1593.0
1.3830833435058594,28.0,5507.0,6428.0,6382.0,1023.0,1945.0
1.3843833208084106,37.0,5585.0,5695.0,6057.0,4099.0,1249.0
1.385683298110962,42.0,5639.0,9140.0,5084.0,3124.0,553.0
1.3869832754135132,46.0,5353.0,8452.0,3848.0,2149.0,871.0
1.388283371925354,22.0,6467.0,6659.0,3274.0,2805.0,1222.0
1.3895833492279053,16.0,3716.0,4939.0,1634.0,3461.0,1574.0
1.3908833265304565,24.0,6953.0,4317.0,2784.0,1583.0,1114.0
1.3921833038330078,32.0,7241.0,5373.0,3934.0,2046.0,20.0
1.393483281135559,23.0,5696.0,4326.0,2571.0,2632.0,26.0
1.3947833776474,14.0,6029.0,3278.0,3390.0,2121.0,27.0
1.3960833549499512,13.0,3796.0,5014.0,2897.0,1610.0,507.0
1.3973833322525024,23.0,2715.0,4389.0,993.0,1676.0,987.0
1.398733377456665,18.0,1298.0,5112.0,0.0,533.0,792.0
1.4000333547592163,13.0,5009.0,3254.0,1578.0,1431.0,528.0
1.4013333320617676,0.0,5470.0,5862.0,1379.0,21.0,30.0
1.4026333093643188,6.0,4931.0,2000.0,1180.0,804.0,1114.0
1.4039332866668701,12.0,2170.0,3613.0,1818.0,1134.0,358.0
1.405233383178711,0.0,1564.0,3198.0,2006.0,1464.0,48.0
1.4065333604812622,8.0,1607.0,3398.0,377.0,777.0,0.0
1.4078333377838135,16.0,1655.0,2717.0,213.0,26.0,166.0
1.4091333150863647,39.0,1703.0,918.0,49.0,1139.0,96.0
1.410433292388916,30.0,4211.0,1396.0,988.0,978.0,26.0
1.4117333889007568,19.0,3610.0,1874.0,897.0,589.0,5.0
1.413033366203308,32.0,4473.0,1769.0,806.0,983.0,10.0
1.4143333435058594,0.0,1952.0,1665.0,268.0,546.0,651.0
1.4156999588012695,5.0,1821.0,939.0,1880.0,289.0,716.0
1.4170000553131104,23.0,173.0,2516.0,1175.0,31.0,235.0
1.4183000326156616,26.0,654.0,2578.0,470.0,419.0,30.0
1.419600009918213,18.0,606.0,1169.0,916.0,6.0,201.0
1.4208999872207642,10.0,911.0,39.0,1363.0,909.0,473.0
1.4221999645233154,14.0,788.0,491.0,1363.0,1278.0,249.0
1.4234999418258667,17.0,1079.0,1017.0,1032.0,0.0,25.0
1.4248000383377075,37.0,1046.0,36.0,29.0,749.0,40.0
1.4261000156402588,32.0,1102.0,1067.0,792.0,796.0,54.0
1.42739999294281,14.0,607.0,1059.0,732.0,588.0,21.0
1.4286999702453613,16.0,1126.0,1059.0,890.0,803.0,37.0
1.4299999475479126,90.0,2666.0,165.0,317.0,566.0,20.0
1.4313000440597534,58.0,2241.0,1013.0,368.0,588.0,21.0
1.4326499700546265,27.0,1257.0,957.0,218.0,609.0,23.0
1.4339499473571777,24.0,781.0,930.0,68.0,5.0,26.0
1.4352500438690186,18.0,1911.0,902.0,233.0,35.0,28.0
1.4365500211715698,12.0,975.0,970.0,364.0,5.0,5.0
1.437849998474121,5.0,520.0,547.0,496.0,43.0,6.0
1.4391499757766724,13.0,1888.0,61.0,383.0,34.0,0.0
1.4404499530792236,21.0,687.0,2131.0,269.0,28.0,13.0
1.4417500495910645,16.0,581.0,2506.0,7.0,619.0,22.0
1.4430500268936157,12.0,1445.0,1110.0,617.0,319.0,32.0
1.444366693496704,31.0,1513.0,200.0,319.0,19.0,22.0
1.4456499814987183,39.0,592.0,636.0,21.0,29.0,12.0
1.4469499588012695,47.0,505.0,825.0,29.0,40.0,13.0
1.4482500553131104,20.0,18.0,1014.0,572.0,86.0,14.0
1.4496166706085205,14.0,370.0,780.0,537.0,43.0,42.0
1.4509166479110718,28.0,723.0,546.0,502.0,0.0,51.0
1.452216625213623,24.0,681.0,39.0,890.0,61.0,25.0
1.4535167217254639,17.0,947.0,76.0,20.0,39.0,0.0
1.4548166990280151,31.0,1098.0,100.0,191.0,16.0,18.0
1.4561166763305664,26.0,567.0,54.0,363.0,22.0,36.0
1.4574166536331177,23.0,36.0,7.0,16.0,14.0,15.0
1.458716630935669,21.0,903.0,31.0,16.0,6.0,34.0
1.4600166082382202,25.0,478.0,23.0,351.0,36.0,54.0
1.461316704750061,29.0,54.0,16.0,206.0,434.0,37.0
1.4626166820526123,7.0,31.0,199.0,60.0,228.0,5.0
1.4639166593551636,32.0,8.0,112.0,715.0,22.0,23.0
1.4652166366577148,26.0,22.0,24.0,714.0,591.0,747.0
1.4665666818618774,20.0,35.0,477.0,714.0,52.0,395.0
1.4678666591644287,6.0,0.0,259.0,645.0,41.0,43.0
1.46916663646698,0.0,835.0,42.0,577.0,27.0,19.0
1.4704666137695312,3.0,435.0,35.0,35.0,13.0,25.0
1.471766710281372,6.0,35.0,224.0,768.0,14.0,32.0
1.4730666875839233,8.0,806.0,413.0,400.0,7.0,21.0
1.4743666648864746,11.0,484.0,695.0,31.0,0.0,10.0
1.4756666421890259,17.0,520.0,452.0,554.0,6.0,22.0
1.4769666194915771,23.0,31.0,209.0,1415.0,68.0,417.0
1.478266716003418,0.0,797.0,12.0,1162.0,297.0,334.0
1.4795666933059692,31.0,211.0,356.0,909.0,177.0,174.0
1.4808666706085205,34.0,112.0,178.0,0.0,57.0,14.0
1.4821666479110718,39.0,14.0,0.0,1188.0,756.0,325.0
1.4835333824157715,12.0,14.0,786.0,455.0,740.0,457.0
1.4848333597183228,5.0,53.0,720.0,6.0,724.0,590.0
1.486133337020874,20.0,20.0,654.0,358.0,30.0,17.0
1.4874333143234253,5.0,32.0,339.0,57.0,1219.0,20.0
1.4887332916259766,13.0,498.0,25.0,32.0,101.0,389.0
1.4900333881378174,21.0,261.0,54.0,29.0,0.0,219.0
1.4913333654403687,24.0,24.0,74.0,218.0,649.0,48.0
1.49263334274292,18.0,438.0,95.0,122.0,754.0,5.0
1.4939333200454712,5.0,55.0,23.0,27.0,16.0,13.0
1.4952332973480225,8.0,16.0,29.0,177.0,57.0,20.0
1.4965332746505737,22.0,1657.0,21.0,17.0,42.0,27.0
1.4978333711624146,16.0,1601.0,35.0,17.0,5.0,20.0
1.4991333484649658,10.0,216.0,91.0,17.0,30.0,18.0
1.5004832744598389,14.0,42.0,434.0,580.0,283.0,62.0
1.5017833709716797,17.0,37.0,217.0,1143.0,144.0,51.0
1.503083348274231,14.0,1040.0,0.0,580.0,5.0,48.0
1.5043833255767822,10.0,1055.0,20.0,17.0,198.0,46.0
1.5056833028793335,16.0,957.0,1237.0,1054.0,102.0,35.0
1.5069832801818848,7.0,860.0,1305.0,1073.0,5.0,25.0
1.5082999467849731,32.0,481.0,15.0,8.0,30.0,27.0
1.5095833539962769,36.0,1290.0,48.0,57.0,29.0,23.0
1.5108833312988281,40.0,48.0,403.0,1148.0,410.0,18.0
1.5121833086013794,17.0,918.0,32.0,1163.0,262.0,43.0
1.5134832859039307,17.0,1114.0,15.0,20.0,114.0,31.0
1.514799952507019,18.0,58.0,890.0,7.0,74.0,20.0
1.5160833597183228,24.0,813.0,652.0,580.0,34.0,24.0
1.517449975013733,15.0,1027.0,1157.0,52.0,21.0,27.0
1.5187499523162842,5.0,809.0,26.0,29.0,13.0,0.0
1.520050048828125,14.0,13.0,64.0,5.0,5.0,10.0
1.5213500261306763,23.0,476.0,21.0,10.0,263.0,17.0
1.5226500034332275,53.0,21.0,28.0,15.0,143.0,16.0
1.5239499807357788,41.0,12.0,19.0,17.0,23.0,15.0
1.52524995803833,28.0,263.0,10.0,19.0,28.0,22.0
1.526550054550171,44.0,1131.0,0.0,1025.0,22.0,22.0
1.5278500318527222,19.0,1255.0,389.0,526.0,16.0,22.0
1.5291500091552734,21.0,563.0,431.0,26.0,64.0,16.0
1.5304499864578247,14.0,703.0,473.0,986.0,67.0,9.0
1.531749963760376,18.0,13.0,688.0,0.0,6.0,8.0
1.5330499410629272,22.0,17.0,21.0,23.0,7.0,24.0
1.5343999862670898,15.0,709.0,960.0,21.0,52.0,18.0
1.5356999635696411,22.0,0.0,26.0,484.0,32.0,13.0
1.5369999408721924,19.0,61.0,33.0,249.0,17.0,15.0
1.5383000373840332,16.0,0.0,895.0,15.0,40.0,54.0
1.5396000146865845,32.0,53.0,603.0,14.0,46.0,31.0
1.5408999919891357,25.0,30.0,310.0,31.0,26.0,7.0
1.5422166585922241,19.0,201.0,7.0,387.0,18.0,12.0
1.5434999465942383,18.0,134.0,20.0,201.0,15.0,10.0
1.544800043106079,13.0,67.0,59.0,16.0,23.0,35.0
1.5461000204086304,14.0,10.0,264.0,9.0,207.0,27.0
1.5474166870117188,23.0,18.0,132.0,21.0,111.0,19.0
1.54871666431427,5.0,14.0,0.0,37.0,14.0,33.0
1.5499999523162842,53.0,10.0,15.0,31.0,45.0,5.0
1.5513666868209839,26.0,29.0,0.0,24.0,21.0,25.0
1.5526666641235352,0.0,29.0,0.0,19.0,36.0,19.0
1.5539666414260864,0.0,28.0,836.0,15.0,421.0,15.0
1.5552666187286377,8.0,19.0,2411.0,91.0,223.0,10.0
1.5565667152404785,17.0,16.0,2220.0,60.0,25.0,5.0
1.5578666925430298,12.0,5.0,36.0,28.0,39.0,6.0
1.559166669845581,8.0,5.0,2024.0,15.0,6.0,7.0
1.5604666471481323,30.0,17.0,562.0,35.0,28.0,13.0
1.5617666244506836,27.0,236.0,30.0,29.0,38.0,9.0
1.5630667209625244,21.0,124.0,18.0,7.0,21.0,5.0
1.5643666982650757,16.0,13.0,32.0,15.0,36.0,22.0
1.565666675567627,18.0,20.0,29.0,22.0,51.0,39.0
1.5669666528701782,16.0,27.0,36.0,24.0,42.0,37.0
1.5683166980743408,14.0,24.0,43.0,0.0,33.0,36.0
1.569616675376892,12.0,28.0,459.0,4.0,32.0,36.0
1.5709166526794434,10.0,32.0,865.0,7.0,30.0,12.0
1.5722166299819946,13.0,10.0,556.0,28.0,5.0,6.0
1.573516607284546,16.0,12.0,278.0,23.0,21.0,0.0
1.5748167037963867,15.0,14.0,0.0,43.0,18.0,39.0
1.576116681098938,15.0,49.0,7.0,40.0,16.0,44.0
1.5774166584014893,30.0,27.0,82.0,36.0,33.0,25.0
1.5787166357040405,32.0,5.0,45.0,29.0,23.0,30.0
1.5800166130065918,64.0,36.0,7.0,31.0,13.0,36.0
1.5813167095184326,52.0,25.0,7.0,25.0,25.0,19.0
1.5826166868209839,14.0,15.0,11.0,18.0,15.0,6.0
1.5839166641235352,25.0,43.0,15.0,32.0,5.0,20.0
1.5852832794189453,24.0,36.0,0.0,27.0,0.0,5.0
1.5865833759307861,25.0,30.0,23.0,19.0,39.0,31.0
1.5878833532333374,25.0,203.0,614.0,20.0,1940.0,25.0
1.5891833305358887,0.0,376.0,521.0,22.0,2277.0,25.0
1.59048330783844,25.0,197.0,595.0,20.0,47.0,12.0
1.5917832851409912,58.0,18.0,304.0,18.0,10.0,19.0
1.593083381652832,42.0,32.0,14.0,31.0,10.0,18.0
1.5943833589553833,7.0,41.0,26.0,0.0,58.0,21.0
1.5956833362579346,25.0,21.0,72.0,101.0,43.0,25.0
1.5969833135604858,22.0,22.0,39.0,59.0,27.0,43.0
1.598283290863037,29.0,0.0,0.0,18.0,21.0,46.0
1.599583387374878,19.0,20.0,162.0,46.0,29.0,0.0
1.6008833646774292,12.0,6.0,324.0,5.0,37.0,18.0
1.6022332906723022,20.0,10.0,1343.0,30.0,21.0,27.0
1.603533387184143,28.0,18.0,1238.0,17.0,5.0,10.0
1.6048333644866943,36.0,19.0,1501.0,33.0,10.0,5.0
1.6061333417892456,52.0,26.0,8.0,36.0,19.0,5.0
1.607450008392334,60.0,32.0,27.0,24.0,15.0,10.0
1.6087332963943481,37.0,78.0,633.0,42.0,12.0,11.0
1.610033392906189,33.0,64.0,1913.0,13.0,31.0,11.0
1.6113333702087402,33.0,51.0,1766.0,11.0,51.0,5.0
1.6126333475112915,27.0,33.0,7.0,25.0,29.0,12.0
1.6139333248138428,20.0,245.0,42.0,38.0,6.0,35.0
1.615233302116394,14.0,130.0,914.0,39.0,68.0,34.0
1.6165332794189453,25.0,16.0,684.0,49.0,12.0,33.0
1.6178333759307861,40.0,35.0,16.0,60.0,0.0,0.0
1.6191999912261963,35.0,644.0,54.0,257.0,6.0,14.0
1.6204999685287476,29.0,332.0,193.0,138.0,61.0,19.0
1.6217999458312988,22.0,20.0,112.0,20.0,57.0,32.0
1.6231000423431396,15.0,10.0,31.0,7.0,5.0,32.0
1.624400019645691,29.0,36.0,10.0,39.0,24.0,47.0
1.6257166862487793,32.0,18.0,29.0,0.0,7.0,150.0
1.6270166635513306,13.0,45.0,47.0,161.0,38.0,103.0
1.6282999515533447,0.0,12.0,38.0,102.0,94.0,56.0
1.6296000480651855,17.0,21.0,30.0,44.0,52.0,40.0
1.6309000253677368,13.0,41.0,21.0,117.0,10.0,0.0
1.6322166919708252,9.0,26.0,12.0,13.0,11.0,27.0
1.6334999799728394,16.0,5.0,25.0,13.0,12.0,20.0
1.6347999572753906,63.0,29.0,23.0,15.0,12.0,5.0
1.6361500024795532,51.0,20.0,22.0,32.0,13.0,5.0
1.6374332904815674,38.0,20.0,21.0,23.0,23.0,31.0
1.6387333869934082,20.0,21.0,27.0,15.0,34.0,21.0
1.6400500535964966,58.0,24.0,14.0,10.0,86.0,19.0
1.6413333415985107,36.0,27.0,0.0,22.0,55.0,19.0
1.6426500082015991,6.0,14.0,10.0,19.0,24.0,19.0
1.6439332962036133,22.0,0.0,47.0,16.0,5.0,66.0
1.645233392715454,19.0,35.0,72.0,19.0,19.0,41.0
1.6465333700180054,17.0,64.0,96.0,29.0,32.0,16.0
1.6478500366210938,14.0,36.0,14.0,40.0,14.0,12.0
1.649150013923645,0.0,7.0,13.0,46.0,6.0,45.0
1.6504499912261963,10.0,40.0,13.0,20.0,16.0,38.0
1.6517499685287476,20.0,12.0,10.0,23.0,34.0,31.0
1.653066635131836,30.0,29.0,7.0,16.0,28.0,25.0
1.6543666124343872,19.0,0.0,7.0,8.0,22.0,13.0
1.655666708946228,7.0,17.0,10.0,0.0,16.0,0.0
1.6569666862487793,20.0,33.0,27.0,34.0,34.0,5.0
1.6582666635513306,5.0,30.0,43.0,41.0,20.0,13.0
1.6595666408538818,24.0,27.0,39.0,48.0,5.0,6.0
1.660866618156433,25.0,22.0,26.0,59.0,20.0,0.0
1.662166714668274,33.0,17.0,20.0,46.0,5.0,19.0
1.6634833812713623,0.0,27.0,18.0,32.0,15.0,12.0
1.6647833585739136,5.0,37.0,7.0,15.0,24.0,5.0
1.6660666465759277,29.0,43.0,0.0,0.0,14.0,17.0
1.6673833131790161,5.0,48.0,42.0,6.0,24.0,9.0
1.6686999797821045,17.0,5.0,23.0,12.0,0.0,0.0
1.6699999570846558,12.0,7.0,5.0,5.0,64.0,5.0
1.6713000535964966,0.0,4.0,33.0,32.0,48.0,19.0
1.6726000308990479,21.0,0.0,21.0,33.0,21.0,26.0
1.6739000082015991,17.0,13.0,19.0,33.0,38.0,17.0
1.6751999855041504,20.0,17.0,18.0,49.0,13.0,8.0
1.6764999628067017,17.0,21.0,9.0,41.0,18.0,9.0
1.6778000593185425,50.0,16.0,0.0,33.0,5.0,7.0
1.6791000366210938,43.0,10.0,125.0,15.0,18.0,43.0
1.680400013923645,7.0,15.0,250.0,29.0,5.0,48.0
1.6816999912261963,13.0,20.0,147.0,43.0,3.0,33.0
1.6829999685287476,53.0,5.0,44.0,43.0,0.0,31.0
1.6842999458312988,23.0,52.0,43.0,44.0,9.0,36.0
1.6856666803359985,49.0,29.0,0.0,45.0,18.0,41.0
1.6869666576385498,24.0,5.0,32.0,57.0,26.0,46.0
1.688266634941101,15.0,17.0,22.0,44.0,20.0,40.0
1.6895666122436523,30.0,8.0,15.0,31.0,5.0,28.0
1.6908667087554932,27.0,7.0,8.0,12.0,44.0,24.0
1.6921666860580444,24.0,5.0,16.0,23.0,30.0,37.0
1.6934666633605957,0.0,866.0,24.0,25.0,7.0,0.0
1.694766640663147,0.0,1649.0,26.0,27.0,0.0,9.0
1.6960666179656982,3.0,1054.0,8.0,28.0,17.0,14.0
1.697366714477539,6.0,26.0,47.0,31.0,33.0,19.0
1.6986666917800903,14.0,29.0,44.0,26.0,32.0,13.0
1.6999666690826416,13.0,41.0,61.0,20.0,30.0,24.0
1.7012666463851929,12.0,39.0,0.0,29.0,26.0,15.0
1.7026166915893555,28.0,32.0,13.0,15.0,21.0,6.0
1.7039166688919067,45.0,32.0,24.0,0.0,20.0,12.0
1.705216646194458,41.0,21.0,20.0,14.0,19.0,17.0
1.7065166234970093,37.0,28.0,22.0,19.0,38.0,18.0
1.70781672000885,17.0,14.0,10.0,24.0,23.0,19.0
1.7091166973114014,21.0,0.0,17.0,31.0,8.0,7.0
1.7104166746139526,20.0,610.0,29.0,18.0,8.0,16.0
1.711716651916504,19.0,815.0,33.0,5.0,8.0,25.0
1.7130166292190552,14.0,18.0,37.0,28.0,17.0,34.0
1.714316725730896,20.0,93.0,42.0,17.0,26.0,24.0
1.7156167030334473,26.0,113.0,41.0,0.0,30.0,5.0
1.7169166803359985,46.0,41.0,334.0,3.0,19.0,6.0
1.7182166576385498,41.0,25.0,173.0,5.0,23.0,21.0
1.7195833921432495,12.0,145.0,12.0,8.0,15.0,14.0
1.7208833694458008,23.0,103.0,56.0,12.0,5.0,20.0
1.722183346748352,22.0,61.0,433.0,37.0,18.0,26.0
1.7234833240509033,5.0,15.0,706.0,39.0,12.0,0.0
1.7247833013534546,0.0,9.0,420.0,32.0,7.0,21.0
1.7260832786560059,8.0,19.0,42.0,0.0,5.0,21.0
1.7273833751678467,8.0,28.0,19.0,29.0,13.0,59.0
1.728683352470398,8.0,32.0,34.0,21.0,0.0,54.0
1.7299833297729492,14.0,36.0,24.0,13.0,6.0,22.0
1.7312833070755005,19.0,375.0,21.0,10.0,21.0,56.0
1.7325832843780518,38.0,714.0,21.0,9.0,21.0,36.0
1.7338833808898926,63.0,368.0,26.0,8.0,39.0,16.0
1.7351833581924438,52.0,22.0,9.0,19.0,25.0,54.0
1.736549973487854,10.0,30.0,6.0,13.0,10.0,57.0
1.7378499507904053,20.0,28.0,14.0,7.0,5.0,6.0
1.739150047302246,26.0,25.0,21.0,4.0,0.0,20.0
1.7404500246047974,32.0,48.0,16.0,0.0,15.0,9.0
1.7417500019073486,5.0,48.0,10.0,3.0,17.0,27.0
1.7430499792099,0.0,46.0,18.0,6.0,20.0,19.0
1.7443499565124512,3.0,26.0,14.0,5.0,28.0,12.0
1.745650053024292,5.0,0.0,38.0,5.0,35.0,31.0
1.7469500303268433,32.0,43.0,22.0,5.0,122.0,8.0
1.7482500076293945,28.0,18.0,7.0,10.0,74.0,18.0
1.7495499849319458,40.0,24.0,37.0,16.0,27.0,27.0
1.750849962234497,6.0,7.0,22.0,18.0,58.0,24.0
1.752150058746338,30.0,25.0,27.0,20.0,8.0,21.0
1.753516674041748,54.0,25.0,32.0,18.0,22.0,29.0
1.7548166513442993,19.0,26.0,10.0,16.0,16.0,10.0
1.7561166286468506,10.0,31.0,6.0,25.0,23.0,49.0
1.7574167251586914,35.0,28.0,18.0,45.0,17.0,39.0
1.7587167024612427,41.0,24.0,10.0,37.0,10.0,16.0
1.760016679763794,33.0,35.0,69.0,36.0,20.0,20.0
1.7613166570663452,14.0,47.0,44.0,12.0,29.0,20.0
1.7626166343688965,6.0,0.0,19.0,5.0,19.0,23.0
1.7639166116714478,41.0,44.0,0.0,83.0,8.0,22.0
1.7652167081832886,0.0,25.0,20.0,60.0,30.0,21.0
1.7665166854858398,42.0,5.0,6.0,38.0,29.0,26.0
1.7678166627883911,11.0,26.0,17.0,18.0,101.0,17.0
1.7691166400909424,21.0,717.0,0.0,38.0,94.0,7.0
1.770466685295105,21.0,814.0,39.0,20.0,27.0,16.0
1.7717666625976562,23.0,40.0,76.0,13.0,10.0,10.0
1.7730666399002075,21.0,19.0,222.0,19.0,33.0,5.0
1.7743666172027588,0.0,900.0,114.0,18.0,26.0,21.0
1.7756667137145996,12.0,34.0,5.0,22.0,7.0,36.0
1.7769666910171509,36.0,14.0,15.0,8.0,52.0,28.0
1.7782666683197021,61.0,12.0,25.0,37.0,51.0,26.0
1.7795666456222534,43.0,48.0,20.0,33.0,51.0,12.0
1.7808666229248047,16.0,36.0,15.0,47.0,17.0,14.0
1.7821667194366455,0.0,0.0,19.0,18.0,0.0,6.0
1.7834666967391968,48.0,14.0,23.0,5.0,24.0,16.0
1.784766674041748,31.0,12.0,22.0,14.0,0.0,25.0
1.7860666513442993,44.0,22.0,0.0,17.0,0.0,22.0
1.787433385848999,15.0,19.0,37.0,20.0,0.0,19.0
1.7887333631515503,44.0,17.0,44.0,13.0,0.0,30.0
1.7900333404541016,9.0,20.0,51.0,6.0,0.0,0.0
1.7913333177566528,51.0,24.0,35.0,7.0,26.0,26.0
1.792633295059204,6.0,24.0,19.0,7.0,27.0,0.0
1.793933391571045,10.0,22.0,33.0,0.0,28.0,7.0
1.7952333688735962,17.0,20.0,26.0,5.0,33.0,14.0
1.7965333461761475,25.0,54.0,0.0,15.0,17.0,0.0
1.7978333234786987,26.0,63.0,36.0,11.0,19.0,21.0
1.79913330078125,5.0,31.0,27.0,7.0,12.0,49.0
1.8004332780838013,5.0,23.0,19.0,6.0,5.0,44.0
1.801733374595642,21.0,16.0,37.0,5.0,12.0,31.0
1.8030333518981934,7.0,23.0,35.0,9.0,18.0,0.0
1.8043832778930664,11.0,19.0,33.0,13.0,43.0,29.0
1.8056833744049072,16.0,14.0,22.0,11.0,59.0,0.0
1.8069833517074585,18.0,16.0,10.0,10.0,37.0,36.0
1.8082833290100098,20.0,16.0,16.0,22.0,16.0,45.0
1.809583306312561,15.0,8.0,21.0,31.0,8.0,46.0
1.8108832836151123,10.0,0.0,0.0,33.0,44.0,33.0
1.8121833801269531,14.0,16.0,0.0,7.0,31.0,21.0
1.8134833574295044,28.0,16.0,0.0,35.0,45.0,17.0
1.8147833347320557,29.0,17.0,71.0,30.0,41.0,14.0
1.816083312034607,21.0,28.0,73.0,19.0,37.0,14.0
1.8173832893371582,28.0,28.0,42.0,0.0,19.0,0.0
1.818683385848999,22.0,27.0,31.0,5.0,26.0,34.0
1.8199833631515503,15.0,53.0,21.0,14.0,17.0,39.0
1.8213499784469604,6.0,41.0,26.0,9.0,31.0,43.0
1.8226499557495117,48.0,28.0,26.0,5.0,41.0,16.0
1.8239500522613525,37.0,10.0,25.0,5.0,48.0,5.0
1.8252500295639038,26.0,49.0,15.0,12.0,0.0,50.0
1.826550006866455,13.0,34.0,5.0,20.0,34.0,5.0
1.8278499841690063,0.0,19.0,10.0,28.0,39.0,29.0
1.8291499614715576,31.0,14.0,15.0,24.0,44.0,52.0
1.8304500579833984,29.0,15.0,20.0,19.0,32.0,22.0
1.8317500352859497,5.0,16.0,13.0,16.0,26.0,5.0
1.833050012588501,41.0,10.0,9.0,36.0,31.0,27.0
1.8343499898910522,21.0,11.0,5.0,18.0,55.0,31.0
1.8356499671936035,19.0,12.0,17.0,0.0,33.0,24.0
1.8369499444961548,56.0,20.0,28.0,5.0,10.0,24.0
1.8382999897003174,40.0,0.0,28.0,16.0,23.0,25.0
1.8395999670028687,28.0,30.0,27.0,26.0,30.0,26.0
1.84089994430542,16.0,21.0,21.0,32.0,13.0,10.0
1.8422000408172607,30.0,21.0,16.0,0.0,0.0,19.0
1.843500018119812,6.0,25.0,10.0,13.0,6.0,27.0
1.8447999954223633,59.0,29.0,5.0,29.0,13.0,29.0
1.8460999727249146,75.0,12.0,0.0,21.0,12.0,5.0
1.8473999500274658,24.0,0.0,8.0,13.0,23.0,23.0
1.8487000465393066,30.0,5.0,16.0,32.0,41.0,30.0
1.850000023841858,46.0,5.0,46.0,13.0,48.0,34.0
1.8513000011444092,27.0,5.0,40.0,0.0,6.0,13.0
1.8525999784469604,41.0,14.0,19.0,14.0,18.0,12.0
1.8538999557495117,5.0,13.0,34.0,13.0,10.0,10.0
1.8552666902542114,44.0,13.0,49.0,12.0,21.0,27.0
1.8565666675567627,13.0,25.0,16.0,21.0,22.0,27.0
1.857866644859314,24.0,13.0,21.0,16.0,24.0,26.0
1.8591666221618652,22.0,0.0,27.0,12.0,26.0,18.0
1.860466718673706,20.0,6.0,0.0,6.0,0.0,10.0
1.8617666959762573,25.0,12.0,19.0,8.0,22.0,12.0
1.8630666732788086,0.0,16.0,10.0,9.0,10.0,35.0
1.8643666505813599,18.0,21.0,576.0,44.0,23.0,29.0
1.8656666278839111,36.0,28.0,295.0,34.0,23.0,35.0
1.866966724395752,27.0,24.0,15.0,31.0,5.0,20.0
1.8682667016983032,21.0,0.0,25.0,27.0,39.0,5.0
1.8695666790008545,5.0,0.0,23.0,31.0,28.0,20.0
1.8708666563034058,35.0,0.0,22.0,35.0,15.0,28.0
1.8722167015075684,10.0,29.0,13.0,20.0,16.0,16.0
1.8735166788101196,11.0,55.0,10.0,23.0,30.0,26.0
1.874816656112671,12.0,892.0,8.0,39.0,21.0,32.0
1.8761166334152222,11.0,450.0,13.0,20.0,30.0,37.0
1.8774166107177734,10.0,7.0,27.0,30.0,39.0,32.0
1.8787167072296143,21.0,40.0,25.0,41.0,32.0,31.0
1.8800166845321655,31.0,18.0,29.0,16.0,14.0,29.0
1.8813166618347168,16.0,26.0,32.0,44.0,9.0,28.0
1.882616639137268,0.0,21.0,31.0,26.0,20.0,14.0
1.8839166164398193,28.0,16.0,29.0,14.0,14.0,10.0
1.8852167129516602,87.0,19.0,47.0,31.0,8.0,0.0
1.8865166902542114,68.0,34.0,57.0,26.0,4.0,14.0
1.8878166675567627,15.0,68.0,48.0,22.0,0.0,23.0
1.8891832828521729,0.0,42.0,36.0,11.0,3.0,27.0
1.8904833793640137,53.0,16.0,25.0,0.0,5.0,30.0
1.891783356666565,93.0,48.0,14.0,15.0,0.0,12.0
1.8930833339691162,61.0,39.0,21.0,16.0,8.0,13.0
1.8943833112716675,29.0,29.0,13.0,8.0,17.0,22.0
1.8956832885742188,30.0,36.0,14.0,18.0,11.0,32.0
1.8969833850860596,63.0,30.0,15.0,28.0,5.0,28.0
1.8982833623886108,28.0,47.0,5.0,30.0,17.0,30.0
1.899583339691162,32.0,40.0,10.0,32.0,13.0,31.0
1.9008833169937134,49.0,33.0,34.0,20.0,6.0,34.0
1.9021832942962646,7.0,30.0,44.0,0.0,0.0,31.0
1.9034833908081055,55.0,26.0,54.0,0.0,10.0,28.0
1.9047833681106567,0.0,22.0,27.0,8.0,20.0,32.0
1.9061332941055298,21.0,23.0,28.0,17.0,23.0,36.0
1.9074333906173706,10.0,32.0,29.0,18.0,10.0,10.0
1.9087333679199219,20.0,31.0,25.0,35.0,29.0,0.0
1.9100333452224731,29.0,29.0,21.0,37.0,32.0,0.0
1.9113333225250244,30.0,37.0,10.0,14.0,53.0,12.0
1.9126332998275757,31.0,44.0,0.0,19.0,40.0,11.0
1.913933277130127,32.0,46.0,8.0,25.0,37.0,10.0
1.9152333736419678,15.0,19.0,16.0,21.0,26.0,13.0
1.916533350944519,31.0,24.0,17.0,19.0,23.0,15.0
1.9178333282470703,30.0,5.0,8.0,18.0,20.0,30.0
1.9191333055496216,16.0,0.0,0.0,19.0,27.0,19.0
1.9204332828521729,44.0,28.0,21.0,21.0,33.0,7.0
1.9217333793640137,38.0,832.0,13.0,5.0,31.0,10.0
1.9230666160583496,32.0,830.0,0.0,10.0,18.0,14.0
1.9243667125701904,5.0,1077.0,10.0,16.0,5.0,29.0
1.9256666898727417,28.0,20.0,20.0,37.0,22.0,75.0
1.926966667175293,21.0,431.0,24.0,37.0,45.0,82.0
1.9282666444778442,26.0,340.0,17.0,36.0,42.0,54.0
1.9295666217803955,34.0,13.0,10.0,21.0,30.0,12.0
1.9308667182922363,0.0,17.0,9.0,37.0,19.0,25.0
1.9321666955947876,22.0,20.0,10.0,0.0,24.0,24.0
1.9334666728973389,10.0,21.0,21.0,8.0,25.0,0.0
1.9347666501998901,18.0,19.0,31.0,17.0,26.0,8.0
1.9360666275024414,24.0,14.0,42.0,8.0,19.0,19.0
1.9373667240142822,29.0,9.0,57.0,0.0,0.0,16.0
1.9386667013168335,23.0,14.0,41.0,4.0,36.0,0.0
1.9400333166122437,8.0,14.0,24.0,8.0,10.0,10.0
1.941333293914795,37.0,14.0,13.0,7.0,0.0,9.0
1.9426333904266357,31.0,10.0,26.0,5.0,21.0,8.0
1.943933367729187,25.0,7.0,19.0,15.0,22.0,15.0
1.9452333450317383,6.0,23.0,12.0,7.0,27.0,16.0
1.9465333223342896,32.0,149.0,35.0,0.0,23.0,23.0
1.9478332996368408,21.0,78.0,33.0,13.0,19.0,0.0
1.949133276939392,28.0,7.0,29.0,40.0,36.0,7.0
1.950433373451233,28.0,11.0,32.0,42.0,26.0,29.0
1.9517333507537842,28.0,58.0,35.0,40.0,15.0,26.0
1.9530333280563354,6.0,6.0,21.0,37.0,23.0,27.0
1.9543333053588867,20.0,13.0,7.0,39.0,35.0,17.0
1.955633282661438,34.0,19.0,45.0,10.0,26.0,30.0
1.9569833278656006,15.0,43.0,14.0,42.0,17.0,19.0
1.9582833051681519,8.0,69.0,24.0,21.0,40.0,7.0
1.9595832824707031,5.0,47.0,12.0,10.0,28.0,13.0
1.960883378982544,15.0,25.0,0.0,10.0,16.0,35.0
1.9621833562850952,5.0,32.0,15.0,15.0,39.0,43.0
1.9634833335876465,6.0,0.0,30.0,19.0,19.0,51.0
1.9647833108901978,7.0,5.0,18.0,18.0,19.0,24.0
1.966083288192749,7.0,10.0,5.0,18.0,16.0,21.0
1.9673833847045898,7.0,9.0,34.0,10.0,18.0,18.0
1.9686833620071411,16.0,7.0,5.0,0.0,28.0,20.0
1.9699833393096924,24.0,35.0,19.0,26.0,25.0,22.0
1.9712833166122437,23.0,36.0,10.0,35.0,22.0,10.0
1.972583293914795,23.0,38.0,14.0,16.0,24.0,20.0
1.9739500284194946,18.0,23.0,18.0,0.0,18.0,15.0
1.975250005722046,14.0,36.0,18.0,36.0,12.0,10.0
1.9765499830245972,7.0,49.0,0.0,29.0,5.0,13.0
1.9778499603271484,0.0,0.0,28.0,37.0,13.0,20.0
1.9791500568389893,5.0,16.0,0.0,5.0,39.0,19.0
1.9804500341415405,7.0,31.0,23.0,22.0,37.0,19.0
1.9817500114440918,18.0,13.0,22.0,46.0,42.0,17.0
1.983049988746643,17.0,0.0,22.0,56.0,31.0,16.0
1.9843499660491943,6.0,21.0,259.0,28.0,39.0,9.0
1.9856499433517456,5.0,23.0,496.0,25.0,22.0,0.0
1.9869500398635864,5.0,19.0,599.0,5.0,6.0,12.0
1.9882500171661377,15.0,13.0,0.0,19.0,21.0,24.0
1.989549994468689,25.0,6.0,531.0,5.0,18.0,34.0
1.9909000396728516,18.0,5.0,32.0,29.0,18.0,24.0
1.9922000169754028,19.0,3.0,49.0,31.0,19.0,43.0
1.993499994277954,21.0,0.0,7.0,0.0,21.0,5.0
1.9947999715805054,13.0,16.0,22.0,22.0,22.0,17.0
1.9960999488830566,36.0,32.0,45.0,25.0,10.0,25.0
1.9974000453948975,35.0,50.0,1009.0,29.0,31.0,10.0
1.9987000226974487,33.0,32.0,511.0,26.0,5.0,22.0
