,319.2099914550781,320.2099914550781,321.2099914550781,322.2099914550781,323.2099914550781,324.2099914550781,325.2099914550781
4.5017499923706055,35.0,6.0,40.0,42.0,44.0,40.0,36.0
4.504350185394287,15.0,17.0,1553.0,31.0,74.0,142.0,56.0
4.5074334144592285,58.0,62.0,5.0,24.0,147.0,27.0,20.0
4.510483264923096,26.0,40.0,50.0,29.0,14.0,20.0,27.0
4.513516902923584,66.0,49.0,5.0,33.0,5.0,34.0,41.0
4.516550064086914,46.0,59.0,35.0,13.0,74.0,20.0,84.0
4.519583225250244,56.0,32.0,68.0,16.0,73.0,6.0,103.0
4.5226664543151855,34.0,35.0,75.0,19.0,47.0,32.0,32.0
4.525716781616211,50.0,39.0,38.0,17.0,56.0,41.0,9.0
4.528749942779541,43.0,87.0,12.0,15.0,22.0,12.0,96.0
4.531783103942871,39.0,75.0,36.0,76.0,39.0,17.0,44.0
4.534816741943359,11.0,54.0,35.0,61.0,30.0,32.0,55.0
4.5378499031066895,35.0,92.0,25.0,47.0,40.0,47.0,21.0
4.540900230407715,26.0,77.0,14.0,29.0,53.0,40.0,6.0
4.543950080871582,17.0,21.0,22.0,114.0,7.0,23.0,19.0
4.546983242034912,396.0,21.0,64.0,63.0,55.0,40.0,21.0
4.5500168800354,424.0,0.0,58.0,12.0,54.0,0.0,24.0
4.5530500411987305,452.0,5.0,38.0,35.0,40.0,5.0,26.0
4.556116580963135,84.0,10.0,31.0,35.0,15.0,44.0,27.0
4.559183120727539,68.0,25.0,46.0,33.0,15.0,6.0,5.0
4.562216758728027,546.0,32.0,5.0,31.0,0.0,28.0,50.0
4.565249919891357,392.0,16.0,17.0,20.0,10.0,22.0,63.0
4.568283557891846,37.0,11.0,15.0,7.0,20.0,25.0,56.0
4.571316719055176,608.0,28.0,21.0,7.0,256.0,22.0,49.0
4.574366569519043,27.0,20.0,28.0,6.0,146.0,20.0,22.0
4.577400207519531,34.0,13.0,24.0,14.0,36.0,21.0,29.0
4.580450057983398,56.0,9.0,25.0,12.0,42.0,24.0,0.0
4.5834832191467285,35.0,5.0,26.0,10.0,60.0,26.0,47.0
4.586516857147217,13.0,5.0,32.0,34.0,12.0,22.0,50.0
4.589550018310547,5.0,30.0,38.0,39.0,11.0,19.0,0.0
4.592599868774414,33.0,27.0,39.0,5.0,17.0,13.0,38.0
4.595633506774902,36.0,24.0,35.0,24.0,33.0,7.0,27.0
4.598666667938232,39.0,29.0,5.0,0.0,31.0,22.0,28.0
4.6016998291015625,55.0,19.0,5.0,11.0,28.0,38.0,27.0
4.604733467102051,0.0,11.0,48.0,28.0,40.0,41.0,73.0
4.607833385467529,18.0,30.0,27.0,14.0,30.0,26.0,74.0
4.610866546630859,24.0,39.0,30.0,15.0,20.0,42.0,29.0
4.613900184631348,29.0,48.0,28.0,17.0,21.0,8.0,39.0
4.616933345794678,33.0,14.0,25.0,8.0,31.0,13.0,17.0
4.619966506958008,17.0,14.0,31.0,0.0,27.0,51.0,33.0
4.623000144958496,0.0,14.0,37.0,0.0,22.0,5.0,18.0
4.626100063323975,23.0,62.0,43.0,0.0,16.0,0.0,26.0
4.629133224487305,27.0,83.0,12.0,0.0,9.0,7.0,43.0
4.632166862487793,47.0,81.0,46.0,0.0,32.0,19.0,30.0
4.635200023651123,45.0,15.0,16.0,12.0,26.0,12.0,17.0
4.638233184814453,16.0,38.0,37.0,23.0,42.0,5.0,22.0
4.641316890716553,13.0,28.0,22.0,18.0,34.0,29.0,10.0
4.644350051879883,20.0,5.0,7.0,10.0,17.0,43.0,18.0
4.647383213043213,18.0,28.0,21.0,17.0,0.0,57.0,12.0
4.650416851043701,16.0,30.0,15.0,24.0,38.0,48.0,5.0
4.653450012207031,16.0,20.0,31.0,21.0,13.0,11.0,11.0
4.656483173370361,24.0,7.0,25.0,19.0,50.0,74.0,5.0
4.659583568572998,25.0,21.0,22.0,5.0,59.0,35.0,0.0
4.662616729736328,20.0,15.0,15.0,15.0,29.0,20.0,24.0
4.665649890899658,25.0,13.0,20.0,31.0,34.0,17.0,43.0
4.6686835289001465,19.0,29.0,26.0,18.0,72.0,15.0,43.0
4.671716690063477,13.0,27.0,9.0,5.0,54.0,5.0,23.0
4.674799919128418,9.0,25.0,0.0,17.0,21.0,25.0,5.0
4.677833557128906,5.0,29.0,28.0,30.0,18.0,30.0,13.0
4.680866718292236,25.0,26.0,32.0,32.0,6.0,34.0,21.0
4.683899879455566,31.0,23.0,5.0,34.0,16.0,33.0,13.0
4.686933517456055,26.0,52.0,0.0,41.0,0.0,31.0,0.0
4.689966678619385,16.0,56.0,43.0,13.0,25.0,11.0,18.0
4.693066596984863,5.0,7.0,52.0,33.0,71.0,26.0,12.0
4.696100234985352,3.0,27.0,18.0,22.0,64.0,0.0,6.0
4.699133396148682,0.0,26.0,47.0,0.0,35.0,0.0,7.0
4.702166557312012,10.0,24.0,34.0,47.0,785.0,0.0,7.0
4.7052001953125,21.0,39.0,1161.0,1099.0,609.0,17.0,28.0
4.708266735076904,31.0,2375.0,946.0,3695.0,433.0,1018.0,308.0
4.711333274841309,41.0,2614.0,3673.0,4442.0,1725.0,2786.0,373.0
4.714366436004639,28.0,3870.0,12116.0,7630.0,10204.0,5636.0,558.0
4.717400074005127,15.0,7051.0,16348.0,22164.0,11552.0,7315.0,1572.0
4.720433235168457,27.0,10872.0,28804.0,34448.0,16928.0,5763.0,4717.0
4.723466873168945,26.0,27168.0,48928.0,61648.0,35856.0,17804.0,9848.0
4.7265167236328125,26.0,34064.0,84192.0,89712.0,55488.0,24224.0,12984.0
4.729549884796143,22.0,43456.0,112992.0,91552.0,70144.0,37808.0,11792.0
4.732600212097168,20.0,51088.0,112656.0,119008.0,94320.0,38832.0,10884.0
4.735633373260498,20.0,62544.0,138112.0,136128.0,93856.0,43056.0,12360.0
4.738666534423828,21.0,69392.0,159040.0,173248.0,99504.0,47280.0,14396.0
4.741700172424316,15.0,77008.0,158592.0,181888.0,95184.0,48736.0,16432.0
4.744750022888184,9.0,70928.0,160704.0,165504.0,90880.0,55776.0,16708.0
4.747783184051514,26.0,65840.0,148096.0,135040.0,82416.0,56800.0,14804.0
4.750816822052002,42.0,61008.0,130704.0,138048.0,78288.0,41152.0,13732.0
4.753866672515869,299.0,48192.0,108832.0,109696.0,69440.0,40368.0,11824.0
4.756899833679199,170.0,45568.0,109184.0,77392.0,58080.0,36288.0,8764.0
4.759950160980225,42.0,41632.0,78752.0,55136.0,40672.0,21280.0,8320.0
4.762983322143555,24.0,27300.0,41408.0,46720.0,29392.0,19392.0,4989.0
4.766016483306885,23.0,14600.0,46112.0,42208.0,23520.0,7439.0,5361.0
4.769050121307373,27.0,23848.0,29916.0,20384.0,15880.0,12992.0,2499.0
4.772083282470703,25.0,19408.0,18048.0,24008.0,8952.0,4974.0,1054.0
4.775116443634033,23.0,5151.0,13636.0,17840.0,7908.0,7598.0,673.0
4.77821683883667,22.0,4798.0,10508.0,10656.0,6647.0,4433.0,7.0
4.78125,15.0,173.0,4615.0,6772.0,5068.0,3653.0,6.0
4.78428316116333,44.0,2848.0,6370.0,4060.0,3728.0,1004.0,662.0
4.787316799163818,49.0,875.0,8252.0,4268.0,3554.0,424.0,1180.0
4.790349960327148,24.0,2216.0,8.0,2905.0,1748.0,22.0,1282.0
4.79343318939209,0.0,171.0,908.0,2871.0,2780.0,1055.0,361.0
4.796466827392578,34.0,1695.0,4612.0,2837.0,848.0,499.0,1067.0
4.799499988555908,28.0,1090.0,4347.0,2078.0,1126.0,52.0,0.0
4.801666736602783,22.0,1188.0,62.0,1936.0,611.0,1363.0,923.0
4.803183555603027,11.0,1285.0,1127.0,1794.0,776.0,963.0,44.0
4.804699897766113,35.0,532.0,1087.0,1556.0,941.0,342.0,1059.0
4.806216716766357,20.0,274.0,2804.0,1319.0,654.0,663.0,788.0
4.807733535766602,5.0,16.0,1595.0,3687.0,788.0,1222.0,17.0
4.809299945831299,5.0,867.0,386.0,3470.0,729.0,180.0,5.0
4.81083345413208,29.0,582.0,1584.0,1673.0,670.0,19.0,27.0
4.812349796295166,31.0,456.0,559.0,1461.0,49.0,41.0,47.0
4.81386661529541,16.0,21.0,1465.0,1148.0,105.0,432.0,40.0
4.815383434295654,6.0,13.0,933.0,2177.0,162.0,534.0,32.0
4.81689977645874,13.0,5.0,822.0,2227.0,49.0,28.0,0.0
4.818416595458984,9.0,49.0,796.0,2878.0,152.0,25.0,0.0
4.8199334144592285,5.0,872.0,234.0,775.0,255.0,22.0,5.0
4.821450233459473,19.0,1223.0,81.0,2181.0,0.0,37.0,5.0
4.822966575622559,9.0,945.0,947.0,796.0,1197.0,466.0,13.0
4.824483394622803,0.0,817.0,467.0,1708.0,1129.0,250.0,21.0
4.826000213623047,13.0,8.0,1230.0,66.0,8.0,35.0,26.0
4.827566623687744,7.0,47.0,1151.0,825.0,69.0,218.0,30.0
4.829083442687988,0.0,49.0,1071.0,1011.0,27.0,113.0,12.0
4.830599784851074,38.0,6.0,23.0,535.0,427.0,7.0,57.0
4.832116603851318,54.0,34.0,49.0,59.0,225.0,860.0,59.0
4.8336334228515625,25.0,393.0,483.0,84.0,24.0,1495.0,14.0
4.835149765014648,19.0,752.0,389.0,19.0,185.0,1057.0,27.0
4.836666584014893,14.0,608.0,296.0,0.0,53.0,20.0,71.0
4.838183403015137,41.0,317.0,21.0,11.0,20.0,38.0,12.0
4.839700222015381,40.0,26.0,2017.0,444.0,17.0,1016.0,12.0
4.841216564178467,23.0,18.0,2206.0,1050.0,56.0,584.0,18.0
4.842750072479248,9.0,39.0,342.0,1218.0,18.0,0.0,21.0
4.844316482543945,0.0,22.0,2655.0,160.0,16.0,93.0,26.0
4.8458333015441895,24.0,6.0,62.0,674.0,58.0,38.0,22.0
4.847350120544434,16.0,26.0,18.0,28.0,101.0,0.0,19.0
4.8488664627075195,32.0,25.0,702.0,621.0,55.0,46.0,0.0
4.850383281707764,31.0,24.0,310.0,30.0,9.0,33.0,3.0
4.851900100708008,21.0,17.0,6.0,715.0,16.0,21.0,6.0
4.853416442871094,33.0,15.0,200.0,376.0,18.0,48.0,26.0
4.854933261871338,46.0,13.0,454.0,38.0,36.0,30.0,22.0
4.856450080871582,9.0,17.0,254.0,53.0,18.0,22.0,30.0
4.857966899871826,21.0,22.0,53.0,477.0,0.0,14.0,11.0
4.859483242034912,32.0,21.0,7.0,257.0,30.0,0.0,8.0
4.861050128936768,22.0,21.0,53.0,1547.0,22.0,10.0,11.0
4.8625664710998535,12.0,12.0,0.0,799.0,14.0,20.0,12.0
4.864083290100098,21.0,18.0,11.0,50.0,331.0,19.0,14.0
4.865600109100342,16.0,72.0,23.0,34.0,182.0,5.0,8.0
4.867116451263428,12.0,72.0,14.0,39.0,33.0,31.0,32.0
4.868633270263672,13.0,46.0,5.0,38.0,23.0,27.0,38.0
4.870150089263916,14.0,33.0,23.0,39.0,13.0,0.0,13.0
4.871666431427002,47.0,21.0,18.0,41.0,9.0,26.0,45.0
4.873183250427246,59.0,39.0,34.0,505.0,11.0,13.0,0.0
4.87470006942749,28.0,40.0,50.0,628.0,14.0,49.0,13.0
4.876216888427734,58.0,41.0,184.0,13.0,25.0,43.0,26.0
4.877799987792969,17.0,7.0,105.0,743.0,76.0,38.0,22.0
4.879316806793213,51.0,54.0,26.0,521.0,62.0,0.0,0.0
4.880833148956299,21.0,12.0,294.0,5.0,33.0,418.0,8.0
4.882349967956543,21.0,19.0,157.0,0.0,12.0,215.0,32.0
4.883866786956787,27.0,40.0,21.0,29.0,56.0,13.0,28.0
4.885383129119873,92.0,29.0,10.0,28.0,37.0,24.0,23.0
4.886899948120117,59.0,18.0,0.0,8.0,6.0,27.0,15.0
4.888416767120361,27.0,11.0,27.0,8.0,171.0,16.0,7.0
4.889933109283447,70.0,0.0,28.0,8.0,99.0,22.0,6.0
4.891449928283691,17.0,14.0,24.0,21.0,26.0,6.0,5.0
4.8929667472839355,28.0,27.0,34.0,33.0,39.0,39.0,17.0
4.89454984664917,37.0,33.0,29.0,36.0,386.0,34.0,21.0
4.896066665649414,11.0,39.0,23.0,25.0,222.0,20.0,26.0
4.897583484649658,5.0,8.0,28.0,34.0,57.0,21.0,0.0
4.899099826812744,12.0,16.0,32.0,44.0,183.0,42.0,33.0
4.900616645812988,12.0,38.0,24.0,38.0,308.0,51.0,30.0
4.902133464813232,6.0,42.0,16.0,32.0,31.0,37.0,23.0
4.903649806976318,0.0,46.0,40.0,19.0,34.0,23.0,24.0
4.9051666259765625,45.0,41.0,11.0,27.0,26.0,34.0,26.0
4.906683444976807,37.0,36.0,25.0,23.0,17.0,29.0,39.0
4.908199787139893,34.0,43.0,29.0,20.0,11.0,23.0,52.0
4.909716606140137,31.0,49.0,15.0,10.0,28.0,5.0,0.0
4.911283493041992,28.0,0.0,0.0,0.0,18.0,0.0,0.0
4.912799835205078,24.0,12.0,27.0,10.0,7.0,9.0,32.0
4.914316654205322,17.0,8.0,16.0,21.0,33.0,19.0,19.0
4.915833473205566,5.0,27.0,5.0,19.0,0.0,13.0,6.0
4.917349815368652,27.0,24.0,192.0,18.0,24.0,7.0,12.0
4.9188666343688965,15.0,20.0,101.0,32.0,23.0,12.0,18.0
4.920383453369141,0.0,163.0,11.0,46.0,17.0,28.0,17.0
4.921899795532227,63.0,276.0,378.0,163.0,12.0,19.0,17.0
4.923416614532471,49.0,404.0,218.0,112.0,37.0,10.0,11.0
4.924933433532715,5.0,531.0,58.0,61.0,38.0,17.0,26.0
4.926449775695801,17.0,18.0,45.0,25.0,39.0,24.0,22.0
4.927999973297119,15.0,748.0,31.0,22.0,21.0,19.0,19.0
4.9295501708984375,13.0,25.0,52.0,12.0,7.0,17.0,21.0
4.931066513061523,16.0,0.0,23.0,13.0,10.0,16.0,24.0
4.932583332061768,5.0,7.0,15.0,12.0,13.0,22.0,22.0
4.934100151062012,6.0,0.0,7.0,25.0,12.0,28.0,21.0
4.935616493225098,18.0,33.0,17.0,12.0,12.0,32.0,20.0
4.937133312225342,33.0,32.0,26.0,0.0,22.0,27.0,27.0
4.938650131225586,30.0,12.0,26.0,52.0,33.0,21.0,14.0
4.940166473388672,26.0,661.0,34.0,37.0,35.0,30.0,27.0
4.941683292388916,5.0,334.0,21.0,8.0,37.0,25.0,0.0
4.94320011138916,0.0,6.0,7.0,828.0,21.0,21.0,33.0
4.944716453552246,66.0,55.0,20.0,879.0,17.0,5.0,5.0
4.946283340454102,54.0,30.0,21.0,0.0,13.0,37.0,10.0
4.947800159454346,59.0,5.0,22.0,19.0,8.0,65.0,0.0
4.949316501617432,65.0,37.0,42.0,516.0,7.0,69.0,0.0
4.950833320617676,19.0,28.0,21.0,29.0,6.0,34.0,13.0
4.95235013961792,5.0,33.0,0.0,24.0,5.0,11.0,8.0
4.953866481781006,51.0,39.0,7.0,93.0,35.0,0.0,14.0
4.95538330078125,19.0,14.0,37.0,16.0,31.0,21.0,19.0
4.956900119781494,28.0,5.0,56.0,14.0,30.0,27.0,28.0
4.95841646194458,38.0,62.0,31.0,16.0,31.0,32.0,32.0
4.959933280944824,14.0,34.0,5.0,16.0,31.0,5.0,25.0
4.961450099945068,16.0,7.0,35.0,16.0,5.0,12.0,60.0
4.963033199310303,40.0,4.0,33.0,0.0,25.0,0.0,33.0
4.964550018310547,29.0,0.0,31.0,20.0,43.0,35.0,5.0
4.966066837310791,18.0,29.0,40.0,13.0,21.0,70.0,25.0
4.967583179473877,39.0,42.0,32.0,5.0,13.0,57.0,54.0
4.969099998474121,5.0,56.0,25.0,17.0,13.0,54.0,46.0
4.970616817474365,0.0,28.0,9.0,29.0,30.0,0.0,19.0
4.972133159637451,0.0,31.0,22.0,34.0,30.0,15.0,77.0
4.973649978637695,61.0,56.0,35.0,5.0,40.0,50.0,11.0
4.9751667976379395,33.0,25.0,28.0,29.0,49.0,38.0,15.0
4.976683139801025,5.0,60.0,21.0,53.0,24.0,22.0,17.0
4.9781999588012695,33.0,37.0,31.0,32.0,0.0,61.0,20.0
4.979766845703125,13.0,7.0,30.0,5.0,5.0,19.0,16.0
4.981283187866211,12.0,26.0,29.0,7.0,20.0,47.0,13.0
4.982800006866455,20.0,21.0,46.0,5.0,18.0,23.0,52.0
4.984316825866699,19.0,16.0,41.0,12.0,16.0,21.0,47.0
4.985833168029785,19.0,25.0,37.0,19.0,29.0,43.0,24.0
4.987349987030029,16.0,25.0,41.0,26.0,23.0,43.0,13.0
4.988866806030273,29.0,19.0,53.0,69.0,18.0,7.0,53.0
4.990383148193359,48.0,13.0,5.0,48.0,11.0,28.0,22.0
4.9918999671936035,66.0,24.0,30.0,28.0,5.0,13.0,31.0
4.993416786193848,45.0,36.0,55.0,39.0,7.0,36.0,40.0
4.994933128356934,24.0,27.0,15.0,33.0,9.0,39.0,47.0
4.996516704559326,35.0,17.0,48.0,38.0,5.0,42.0,53.0
4.99803352355957,30.0,21.0,37.0,42.0,40.0,38.0,23.0
