,580.6400146484375,581.6400146484375,582.6400146484375,583.6400146484375,584.6400146484375,585.6400146484375,586.6400146484375,587.6400146484375
3.701733350753784,52.0,33.0,28.0,5.0,40.0,28.0,10.0,7.0
3.7034666538238525,43.0,28.0,36.0,43.0,20.0,27.0,30.0,10.0
3.705199956893921,14.0,0.0,19.0,15.0,20.0,7.0,5.0,20.0
3.7069332599639893,6.0,44.0,17.0,29.0,16.0,17.0,38.0,50.0
3.7086665630340576,11.0,14.0,47.0,17.0,24.0,27.0,30.0,41.0
3.710400104522705,15.0,10.0,6.0,5.0,28.0,35.0,26.0,49.0
3.7121334075927734,18.0,35.0,5.0,8.0,32.0,29.0,37.0,6.0
3.713866710662842,5.0,17.0,47.0,0.0,27.0,22.0,13.0,0.0
3.71560001373291,15.0,0.0,30.0,25.0,32.0,23.0,17.0,28.0
3.717400074005127,5.0,13.0,15.0,21.0,34.0,25.0,21.0,5.0
3.7191333770751953,33.0,10.0,23.0,21.0,5.0,27.0,13.0,5.0
3.7208666801452637,31.0,21.0,10.0,13.0,24.0,11.0,5.0,27.0
3.722599983215332,14.0,16.0,16.0,9.0,12.0,0.0,8.0,35.0
3.7243332862854004,14.0,10.0,22.0,5.0,25.0,5.0,7.0,15.0
3.7260665893554688,22.0,21.0,27.0,5.0,13.0,8.0,5.0,13.0
3.727799892425537,20.0,31.0,25.0,21.0,0.0,11.0,0.0,7.0
3.7295334339141846,35.0,33.0,27.0,23.0,5.0,12.0,6.0,17.0
3.731266736984253,32.0,23.0,5.0,24.0,12.0,38.0,19.0,26.0
3.7330000400543213,44.0,10.0,6.0,19.0,18.0,19.0,12.0,24.0
3.734800100326538,37.0,14.0,45.0,14.0,10.0,0.0,5.0,287.0
3.7365334033966064,24.0,32.0,37.0,0.0,11.0,0.0,0.0,348.0
3.738266706466675,11.0,33.0,18.0,5.0,11.0,20.0,20.0,10.0
3.740000009536743,29.0,36.0,12.0,42.0,8.0,26.0,24.0,13.0
3.7417333126068115,29.0,0.0,39.0,37.0,5.0,24.0,34.0,30.0
3.74346661567688,14.0,43.0,21.0,32.0,7.0,7.0,26.0,13.0
3.7451999187469482,18.0,22.0,25.0,5.0,6.0,33.0,18.0,8.0
3.7469332218170166,21.0,58.0,27.0,17.0,5.0,0.0,10.0,9.0
3.748666763305664,12.0,31.0,28.0,18.0,23.0,31.0,27.0,12.0
3.7504000663757324,6.0,30.0,16.0,14.0,19.0,23.0,31.0,14.0
3.752183437347412,0.0,5.0,29.0,0.0,18.0,15.0,34.0,22.0
3.7539167404174805,20.0,42.0,5.0,10.0,23.0,24.0,26.0,29.0
3.755650043487549,39.0,14.0,22.0,31.0,24.0,33.0,0.0,0.0
3.757383346557617,31.0,0.0,9.0,35.0,25.0,30.0,35.0,5.0
3.7591166496276855,23.0,19.0,18.0,20.0,13.0,33.0,10.0,5.0
3.760849952697754,14.0,16.0,27.0,38.0,0.0,35.0,37.0,28.0
3.7625832557678223,31.0,13.0,32.0,28.0,6.0,12.0,24.0,28.0
3.7643165588378906,16.0,13.0,35.0,31.0,6.0,5.0,49.0,28.0
3.766050100326538,22.0,13.0,15.0,17.0,29.0,23.0,60.0,17.0
3.7678000926971436,44.0,30.0,23.0,17.0,27.0,10.0,47.0,27.0
3.769550085067749,49.0,21.0,17.0,15.0,18.0,19.0,5.0,13.0
3.7712833881378174,9.0,12.0,28.0,30.0,5.0,22.0,5.0,26.0
3.7730166912078857,36.0,10.0,5.0,24.0,5.0,29.0,16.0,24.0
3.774749994277954,5.0,21.0,20.0,18.0,25.0,48.0,16.0,21.0
3.7764832973480225,22.0,6.0,20.0,14.0,16.0,66.0,15.0,22.0
3.778216600418091,16.0,0.0,11.0,5.0,17.0,0.0,28.0,23.0
3.779949903488159,28.0,11.0,20.0,6.0,18.0,66.0,41.0,18.0
3.7816834449768066,6.0,12.0,6.0,5.0,16.0,86.0,44.0,20.0
3.783416748046875,0.0,12.0,7.0,0.0,13.0,48.0,28.0,16.0
3.7852165699005127,5.0,7.0,8.0,10.0,34.0,27.0,22.0,17.0
3.78695011138916,28.0,8.0,0.0,13.0,28.0,7.0,0.0,17.0
3.7886834144592285,36.0,20.0,5.0,9.0,21.0,59.0,0.0,13.0
3.790416717529297,28.0,12.0,35.0,5.0,5.0,28.0,20.0,9.0
3.7921500205993652,20.0,5.0,48.0,0.0,39.0,11.0,36.0,0.0
3.7938833236694336,26.0,0.0,58.0,9.0,23.0,23.0,34.0,19.0
3.795616626739502,33.0,5.0,5.0,18.0,44.0,15.0,28.0,8.0
3.7973499298095703,31.0,14.0,13.0,15.0,22.0,16.0,5.0,15.0
3.7990832328796387,10.0,22.0,45.0,35.0,32.0,16.0,0.0,22.0
3.800816774368286,26.0,13.0,21.0,32.0,5.0,19.0,48.0,11.0
3.802616596221924,48.0,16.0,15.0,20.0,36.0,16.0,41.0,0.0
3.804349899291992,44.0,19.0,38.0,25.0,35.0,12.0,37.0,14.0
3.8060834407806396,15.0,25.0,39.0,10.0,19.0,10.0,25.0,19.0
3.807816743850708,22.0,17.0,24.0,24.0,25.0,0.0,5.0,24.0
3.8095500469207764,15.0,8.0,0.0,10.0,16.0,33.0,15.0,23.0
3.8112833499908447,28.0,0.0,24.0,14.0,6.0,35.0,16.0,6.0
3.813016653060913,41.0,6.0,12.0,18.0,20.0,37.0,8.0,6.0
3.8147499561309814,32.0,12.0,17.0,23.0,40.0,11.0,0.0,37.0
3.81648325920105,23.0,6.0,27.0,17.0,56.0,14.0,0.0,32.0
3.818216562271118,40.0,0.0,18.0,10.0,48.0,20.0,6.0,26.0
3.820016622543335,32.0,6.0,20.0,31.0,33.0,25.0,11.0,42.0
3.821733236312866,28.0,5.0,10.0,34.0,17.0,23.0,20.0,58.0
3.8234667778015137,23.0,5.0,23.0,23.0,11.0,16.0,61.0,56.0
3.825200080871582,26.0,0.0,20.0,10.0,8.0,29.0,48.0,5.0
3.8269333839416504,29.0,37.0,25.0,11.0,5.0,10.0,26.0,31.0
3.8286666870117188,7.0,27.0,22.0,11.0,13.0,22.0,0.0,25.0
3.830399990081787,30.0,16.0,26.0,0.0,21.0,34.0,56.0,25.0
3.8321332931518555,19.0,16.0,5.0,10.0,38.0,18.0,23.0,15.0
3.833883285522461,22.0,25.0,19.0,23.0,19.0,30.0,5.0,16.0
3.8356499671936035,8.0,33.0,5.0,26.0,0.0,47.0,22.0,8.0
3.837399959564209,11.0,32.0,10.0,5.0,10.0,38.0,16.0,0.0
3.8391332626342773,29.0,11.0,8.0,20.0,23.0,50.0,44.0,18.0
3.8408665657043457,25.0,16.0,5.0,23.0,21.0,60.0,37.0,13.0
3.842600107192993,21.0,10.0,33.0,31.0,19.0,60.0,39.0,8.0
3.8443334102630615,7.0,13.0,37.0,34.0,14.0,20.0,31.0,39.0
3.84606671333313,8.0,20.0,12.0,34.0,21.0,5.0,6.0,43.0
3.8478000164031982,0.0,22.0,20.0,9.0,24.0,35.0,10.0,48.0
3.8495333194732666,3.0,8.0,27.0,5.0,27.0,11.0,0.0,54.0
3.851266622543335,5.0,9.0,10.0,20.0,19.0,6.0,37.0,17.0
3.8530666828155518,49.0,12.0,33.0,22.0,45.0,31.0,36.0,17.0
3.85479998588562,35.0,8.0,28.0,16.0,31.0,15.0,19.0,21.0
3.8565332889556885,20.0,25.0,6.0,10.0,17.0,25.0,17.0,25.0
3.858266592025757,16.0,18.0,15.0,0.0,0.0,10.0,7.0,31.0
3.859999895095825,20.0,10.0,17.0,10.0,24.0,25.0,29.0,26.0
3.8617334365844727,35.0,0.0,8.0,10.0,24.0,19.0,33.0,21.0
3.863466739654541,27.0,6.0,4.0,10.0,24.0,12.0,28.0,19.0
3.8652000427246094,19.0,12.0,0.0,11.0,14.0,23.0,22.0,11.0
3.8669333457946777,24.0,26.0,6.0,12.0,13.0,34.0,15.0,10.0
3.868666648864746,16.0,22.0,34.0,17.0,30.0,0.0,28.0,8.0
3.870450019836426,19.0,22.0,36.0,22.0,18.0,31.0,33.0,6.0
3.872183322906494,22.0,22.0,40.0,0.0,5.0,10.0,22.0,0.0
3.8739166259765625,11.0,34.0,33.0,7.0,17.0,19.0,11.0,3.0
3.875649929046631,0.0,30.0,27.0,25.0,11.0,16.0,0.0,6.0
3.877383232116699,5.0,26.0,16.0,5.0,5.0,46.0,9.0,0.0
3.8791332244873047,33.0,16.0,39.0,11.0,12.0,26.0,7.0,0.0
3.880850076675415,36.0,28.0,23.0,0.0,16.0,6.0,5.0,0.0
3.8825833797454834,24.0,12.0,12.0,10.0,13.0,20.0,11.0,10.0
3.8843166828155518,11.0,20.0,17.0,19.0,34.0,0.0,16.0,10.0
3.88604998588562,5.0,15.0,14.0,18.0,44.0,4.0,20.0,10.0
3.887850046157837,0.0,10.0,10.0,16.0,30.0,7.0,24.0,20.0
3.8895833492279053,4.0,10.0,26.0,36.0,8.0,12.0,28.0,30.0
3.8913166522979736,7.0,12.0,41.0,27.0,51.0,17.0,5.0,21.0
3.893049955368042,0.0,0.0,54.0,17.0,5.0,23.0,7.0,11.0
3.8947832584381104,65.0,5.0,37.0,0.0,45.0,52.0,10.0,16.0
3.8965165615081787,52.0,9.0,51.0,7.0,11.0,45.0,38.0,21.0
3.898250102996826,13.0,13.0,29.0,0.0,11.0,38.0,42.0,26.0
3.8999834060668945,16.0,29.0,21.0,13.0,33.0,23.0,30.0,22.0
3.901716709136963,15.0,27.0,5.0,9.0,0.0,8.0,0.0,21.0
3.9035000801086426,22.0,24.0,48.0,5.0,5.0,23.0,32.0,23.0
3.905250072479248,29.0,5.0,36.0,11.0,17.0,10.0,5.0,6.0
3.9069833755493164,28.0,0.0,16.0,25.0,17.0,10.0,37.0,29.0
3.9087166786193848,35.0,14.0,0.0,40.0,19.0,10.0,28.0,25.0
3.910449981689453,34.0,10.0,12.0,32.0,20.0,29.0,5.0,21.0
3.9121832847595215,29.0,0.0,20.0,23.0,44.0,27.0,27.0,22.0
3.91391658782959,24.0,9.0,0.0,13.0,50.0,25.0,15.0,32.0
3.915649890899658,7.0,17.0,25.0,10.0,6.0,22.0,13.0,42.0
3.9173834323883057,30.0,13.0,29.0,19.0,28.0,27.0,5.0,0.0
3.919116735458374,15.0,8.0,33.0,6.0,11.0,6.0,19.0,21.0
3.9209165573120117,0.0,35.0,16.0,20.0,17.0,14.0,17.0,11.0
3.922650098800659,25.0,42.0,16.0,12.0,15.0,10.0,15.0,21.0
3.9243834018707275,10.0,22.0,16.0,5.0,10.0,47.0,51.0,22.0
3.926116704940796,10.0,417.0,16.0,591.0,12.0,37.0,42.0,22.0
3.9278500080108643,10.0,1118.0,49.0,312.0,14.0,30.0,33.0,22.0
3.9295833110809326,31.0,1946.0,785.0,33.0,12.0,22.0,37.0,17.0
3.931316614151001,371.0,1052.0,2184.0,1768.0,1182.0,645.0,23.0,11.0
3.9330499172210693,1084.0,158.0,1715.0,1737.0,1072.0,970.0,30.0,19.0
3.9347832202911377,747.0,378.0,4568.0,1706.0,2455.0,1369.0,31.0,10.0
3.936516761779785,410.0,1660.0,4551.0,2222.0,2674.0,51.0,32.0,0.0
3.938316583633423,2576.0,2941.0,1757.0,1404.0,1048.0,1509.0,318.0,15.0
3.940033435821533,2520.0,2844.0,2528.0,585.0,976.0,719.0,604.0,14.0
3.9417834281921387,2048.0,6564.0,1259.0,3377.0,3716.0,3168.0,318.0,12.0
3.94350004196167,1348.0,6583.0,4679.0,6008.0,3533.0,3553.0,31.0,31.0
3.9452333450317383,648.0,8712.0,5528.0,5183.0,4656.0,4139.0,834.0,43.0
3.9469666481018066,3026.0,9804.0,6270.0,6983.0,2130.0,451.0,926.0,38.0
3.948716640472412,3038.0,13640.0,4136.0,3928.0,4947.0,2633.0,595.0,73.0
3.9504332542419434,3049.0,12604.0,13936.0,4625.0,4639.0,1127.0,264.0,107.0
3.9521665573120117,3218.0,12128.0,10260.0,5069.0,4332.0,913.0,462.0,56.0
3.953900098800659,3387.0,10852.0,6584.0,5513.0,3651.0,1174.0,661.0,5.0
3.955699920654297,5123.0,11616.0,5397.0,6433.0,5006.0,3610.0,903.0,5.0
3.9574332237243652,5645.0,12384.0,6710.0,9264.0,4517.0,3068.0,1145.0,15.0
3.9591667652130127,6167.0,12480.0,8023.0,13760.0,4027.0,1861.0,645.0,25.0
3.960900068283081,5439.0,14064.0,8048.0,12088.0,4351.0,11.0,144.0,26.0
3.9626333713531494,7498.0,15648.0,8074.0,7742.0,4674.0,1258.0,480.0,26.0
3.9643666744232178,9624.0,15888.0,4639.0,9188.0,5844.0,1977.0,817.0,26.0
3.966099977493286,8780.0,15612.0,7366.0,8604.0,5039.0,883.0,523.0,19.0
3.9678332805633545,10480.0,10020.0,8504.0,4448.0,4234.0,2221.0,908.0,12.0
3.969566583633423,7736.0,14384.0,8468.0,12212.0,4386.0,3814.0,1292.0,470.0
3.9713499546051025,6252.0,16792.0,8100.0,14356.0,4539.0,3808.0,961.0,602.0
3.973099946975708,5957.0,14360.0,7731.0,13128.0,4210.0,2782.0,629.0,6.0
3.9748332500457764,8112.0,11928.0,8181.0,6690.0,3880.0,301.0,53.0,7.0
3.9765665531158447,5029.0,10488.0,8632.0,7404.0,4306.0,3353.0,50.0,6.0
3.978300094604492,8408.0,11636.0,8648.0,9104.0,4732.0,3593.0,47.0,29.0
3.9800333976745605,3913.0,10800.0,8664.0,7669.0,2644.0,1899.0,28.0,42.0
3.981766700744629,6450.0,8196.0,12696.0,6823.0,4534.0,1974.0,662.0,28.0
3.9835000038146973,3939.0,10692.0,3339.0,8432.0,4709.0,2176.0,780.0,15.0
3.9852333068847656,6440.0,6900.0,7525.0,9412.0,4884.0,1321.0,898.0,12.0
3.986966609954834,7897.0,7288.0,7196.0,5154.0,3226.0,466.0,894.0,590.0
3.9887499809265137,6617.0,7299.0,3739.0,6800.0,4392.0,39.0,792.0,297.0
3.990483283996582,2045.0,7545.0,4586.0,4287.0,2880.0,945.0,806.0,5.0
3.9922165870666504,1698.0,7790.0,2163.0,7638.0,2896.0,777.0,16.0,667.0
3.9939498901367188,5052.0,6519.0,5119.0,6233.0,2912.0,610.0,1395.0,23.0
3.995683431625366,1906.0,6940.0,3514.0,4735.0,2183.0,548.0,932.0,12.0
3.9974167346954346,1711.0,7923.0,4006.0,2920.0,1754.0,487.0,41.0,5.0
3.999150037765503,2209.0,3738.0,4497.0,1733.0,1324.0,16.0,318.0,12.0
4.000883102416992,392.0,3770.0,3878.0,4398.0,1347.0,648.0,20.0,21.0
4.002616882324219,1780.0,4484.0,2169.0,4678.0,0.0,817.0,61.0,29.0
4.004350185394287,3168.0,4225.0,4331.0,477.0,1493.0,725.0,291.0,23.0
4.006149768829346,64.0,2320.0,3724.0,5512.0,756.0,1028.0,27.0,0.0
4.007883548736572,1461.0,2576.0,1266.0,1836.0,497.0,37.0,10.0,16.0
4.009616851806641,896.0,3110.0,1449.0,1821.0,264.0,15.0,190.0,24.0
4.011350154876709,1104.0,641.0,1576.0,367.0,30.0,973.0,102.0,32.0
4.013083457946777,1166.0,3410.0,1703.0,1284.0,47.0,1038.0,15.0,24.0
4.014816761016846,445.0,1563.0,416.0,763.0,65.0,10.0,32.0,21.0
4.016550064086914,240.0,2861.0,227.0,1232.0,47.0,179.0,24.0,17.0
4.018283367156982,34.0,2209.0,37.0,1701.0,10.0,326.0,36.0,15.0
4.020016670227051,10.0,994.0,281.0,7.0,501.0,21.0,46.0,17.0
4.021749973297119,24.0,1589.0,0.0,767.0,899.0,11.0,56.0,19.0
4.023550033569336,38.0,1211.0,5.0,1697.0,453.0,34.0,58.0,16.0
4.025283336639404,22.0,1052.0,10.0,14.0,6.0,20.0,0.0,12.0
4.027016639709473,12.0,946.0,39.0,1147.0,18.0,44.0,12.0,9.0
4.028749942779541,59.0,841.0,745.0,337.0,13.0,33.0,7.0,5.0
4.030483245849609,260.0,5.0,767.0,925.0,25.0,17.0,36.0,3.0
4.032216548919678,139.0,29.0,36.0,463.0,29.0,0.0,63.0,0.0
4.033949851989746,18.0,733.0,19.0,20.0,43.0,35.0,45.0,3.0
4.0356831550598145,49.0,45.0,26.0,43.0,32.0,23.0,27.0,5.0
4.037416458129883,52.0,34.0,28.0,5.0,33.0,11.0,17.0,22.0
4.039183139801025,21.0,776.0,599.0,15.0,44.0,0.0,18.0,17.0
4.040933132171631,21.0,10.0,504.0,12.0,19.0,47.0,26.0,11.0
4.042683124542236,36.0,34.0,540.0,9.0,23.0,51.0,16.0,16.0
4.044400215148926,28.0,386.0,31.0,29.0,26.0,5.0,5.0,16.0
4.046133518218994,7.0,22.0,9.0,23.0,27.0,32.0,27.0,16.0
4.0478668212890625,14.0,25.0,5.0,16.0,22.0,32.0,11.0,5.0
4.049616813659668,20.0,23.0,0.0,22.0,17.0,5.0,25.0,5.0
4.051333427429199,18.0,21.0,34.0,18.0,24.0,31.0,10.0,5.0
4.053066730499268,20.0,21.0,30.0,17.0,16.0,5.0,14.0,14.0
4.054800033569336,21.0,21.0,29.0,16.0,18.0,31.0,18.0,22.0
4.0565667152404785,28.0,18.0,27.0,20.0,22.0,27.0,49.0,31.0
4.058300018310547,34.0,17.0,6.0,23.0,14.0,45.0,40.0,36.0
4.060033321380615,0.0,15.0,22.0,21.0,6.0,5.0,23.0,12.0
4.061766624450684,20.0,28.0,31.0,18.0,13.0,13.0,5.0,11.0
4.063499927520752,43.0,32.0,25.0,35.0,0.0,47.0,12.0,5.0
4.06523323059082,8.0,35.0,45.0,33.0,10.0,12.0,0.0,8.0
4.066966533660889,10.0,6.0,0.0,15.0,10.0,39.0,17.0,11.0
4.068699836730957,12.0,78.0,11.0,5.0,32.0,31.0,32.0,12.0
4.070433139801025,9.0,39.0,22.0,19.0,34.0,5.0,32.0,0.0
4.072166442871094,5.0,0.0,29.0,21.0,0.0,30.0,32.0,3.0
4.0739665031433105,0.0,13.0,19.0,23.0,22.0,13.0,23.0,5.0
4.075699806213379,11.0,39.0,18.0,14.0,19.0,16.0,11.0,9.0
4.077433109283447,21.0,12.0,13.0,17.0,15.0,26.0,33.0,12.0
4.079166889190674,33.0,21.0,0.0,15.0,33.0,15.0,41.0,10.0
4.080900192260742,29.0,13.0,20.0,17.0,34.0,15.0,11.0,8.0
4.0826334953308105,24.0,16.0,29.0,19.0,27.0,44.0,70.0,16.0
4.084366798400879,38.0,21.0,21.0,18.0,10.0,74.0,73.0,24.0
4.086100101470947,38.0,46.0,13.0,16.0,16.0,69.0,21.0,18.0
4.087833404541016,28.0,33.0,23.0,22.0,26.0,64.0,35.0,11.0
4.089566707611084,11.0,19.0,19.0,20.0,9.0,6.0,0.0,27.0
4.091366767883301,11.0,13.0,15.0,17.0,5.0,16.0,33.0,22.0
4.093100070953369,20.0,7.0,21.0,0.0,18.0,29.0,54.0,17.0
4.0948333740234375,25.0,12.0,26.0,5.0,40.0,44.0,74.0,9.0
4.096566677093506,30.0,17.0,32.0,5.0,46.0,53.0,33.0,0.0
4.098299980163574,5.0,22.0,0.0,22.0,17.0,28.0,21.0,12.0
4.100033283233643,12.0,27.0,10.0,39.0,28.0,19.0,0.0,24.0
4.101766586303711,25.0,25.0,33.0,31.0,35.0,0.0,48.0,19.0
4.103499889373779,37.0,17.0,29.0,16.0,11.0,43.0,14.0,14.0
4.105233192443848,27.0,7.0,13.0,40.0,0.0,45.0,0.0,5.0
4.1070332527160645,17.0,13.0,17.0,13.0,65.0,35.0,16.0,5.0
4.108766555786133,0.0,19.0,36.0,15.0,35.0,19.0,0.0,15.0
4.110499858856201,4.0,6.0,44.0,28.0,5.0,7.0,5.0,11.0
4.1122331619262695,7.0,26.0,30.0,5.0,12.0,39.0,5.0,6.0
4.113966464996338,59.0,42.0,0.0,16.0,16.0,5.0,8.0,56.0
4.115699768066406,68.0,54.0,7.0,12.0,11.0,26.0,11.0,46.0
4.117433547973633,39.0,0.0,21.0,12.0,0.0,10.0,6.0,25.0
4.119166851043701,32.0,19.0,18.0,12.0,13.0,28.0,0.0,11.0
4.1209001541137695,27.0,24.0,15.0,16.0,25.0,39.0,26.0,8.0
4.122633457183838,42.0,0.0,21.0,5.0,30.0,6.0,32.0,18.0
4.124433517456055,0.0,14.0,18.0,12.0,11.0,40.0,16.0,14.0
4.126166820526123,18.0,27.0,17.0,46.0,8.0,15.0,17.0,9.0
4.127900123596191,33.0,7.0,15.0,23.0,5.0,49.0,5.0,28.0
4.12963342666626,40.0,20.0,0.0,0.0,15.0,17.0,5.0,17.0
4.131366729736328,25.0,8.0,21.0,28.0,10.0,19.0,0.0,5.0
4.1331000328063965,5.0,12.0,16.0,34.0,5.0,0.0,10.0,16.0
4.134833335876465,30.0,23.0,5.0,17.0,5.0,5.0,19.0,11.0
4.136566638946533,21.0,30.0,12.0,0.0,7.0,10.0,21.0,20.0
4.138299942016602,36.0,0.0,14.0,15.0,7.0,13.0,23.0,8.0
4.14003324508667,7.0,31.0,16.0,13.0,7.0,15.0,21.0,9.0
4.14181661605835,30.0,5.0,25.0,26.0,6.0,15.0,18.0,10.0
4.143549919128418,30.0,0.0,24.0,33.0,13.0,15.0,21.0,9.0
4.145283222198486,24.0,5.0,22.0,30.0,19.0,14.0,23.0,7.0
4.147016525268555,33.0,0.0,13.0,27.0,36.0,15.0,10.0,5.0
4.14876651763916,25.0,14.0,0.0,25.0,36.0,15.0,39.0,8.0
4.150483131408691,16.0,15.0,10.0,24.0,33.0,15.0,59.0,8.0
4.15221643447876,29.0,7.0,8.0,23.0,57.0,15.0,60.0,7.0
4.153950214385986,0.0,21.0,5.0,20.0,0.0,14.0,50.0,10.0
4.155683517456055,39.0,34.0,0.0,5.0,25.0,10.0,27.0,13.0
4.157416820526123,27.0,42.0,9.0,59.0,36.0,5.0,62.0,0.0
4.15921688079834,10.0,12.0,5.0,45.0,35.0,8.0,27.0,12.0
4.160950183868408,15.0,48.0,0.0,31.0,34.0,11.0,58.0,39.0
4.162683486938477,17.0,41.0,33.0,17.0,20.0,0.0,0.0,49.0
4.164416790008545,28.0,34.0,31.0,29.0,27.0,0.0,22.0,23.0
4.166150093078613,32.0,27.0,24.0,45.0,33.0,0.0,12.0,5.0
4.167883396148682,10.0,20.0,16.0,0.0,24.0,0.0,16.0,25.0
4.16961669921875,29.0,23.0,21.0,14.0,5.0,23.0,19.0,5.0
4.171350002288818,19.0,14.0,17.0,16.0,5.0,14.0,0.0,11.0
4.173083305358887,11.0,26.0,6.0,13.0,5.0,5.0,13.0,17.0
4.1748833656311035,12.0,0.0,19.0,10.0,13.0,32.0,21.0,19.0
4.176616668701172,16.0,10.0,631.0,7.0,10.0,0.0,31.0,25.0
4.17834997177124,15.0,19.0,809.0,11.0,6.0,0.0,67.0,23.0
4.180083274841309,13.0,964.0,37.0,11.0,0.0,15.0,67.0,12.0
4.181816577911377,11.0,825.0,7.0,11.0,23.0,10.0,0.0,19.0
4.183549880981445,20.0,41.0,32.0,23.0,26.0,5.0,7.0,22.0
4.185283184051514,15.0,0.0,17.0,19.0,22.0,13.0,23.0,20.0
4.187016487121582,10.0,21.0,20.0,15.0,18.0,5.0,30.0,18.0
4.18874979019165,9.0,36.0,37.0,14.0,12.0,0.0,20.0,9.0
4.190483570098877,8.0,5.0,0.0,19.0,13.0,11.0,16.0,0.0
4.192266464233398,0.0,28.0,0.0,24.0,5.0,21.0,12.0,10.0
4.194016456604004,22.0,11.0,38.0,18.0,18.0,60.0,14.0,8.0
4.195733547210693,56.0,13.0,28.0,12.0,9.0,57.0,15.0,5.0
4.197466850280762,30.0,14.0,5.0,6.0,0.0,11.0,13.0,6.0
