,301.2099914550781,302.2099914550781,303.2099914550781,304.2099914550781,305.2099914550781,306.2099914550781,307.2099914550781,308.2099914550781
5.202000141143799,435.0,855.0,2098.0,30.0,44.0,5.0,21.0,40.0
5.204400062561035,28.0,10.0,2558.0,1454.0,589.0,58.0,44.0,0.0
5.207866668701172,14.0,150.0,1476.0,68.0,418.0,27.0,14.0,7.0
5.211349964141846,15.0,26.0,2873.0,40.0,25.0,20.0,20.0,13.0
5.214816570281982,16.0,43.0,4838.0,55.0,849.0,19.0,15.0,18.0
5.218283176422119,5.0,31.0,4456.0,18.0,5.0,29.0,21.0,17.0
5.221799850463867,21.0,18.0,4495.0,14.0,21.0,5.0,30.0,12.0
5.225266456604004,20.0,9.0,4980.0,10.0,20.0,5.0,27.0,23.0
5.228733539581299,5.0,0.0,2161.0,25.0,18.0,13.0,22.0,27.0
5.2322001457214355,28.0,5.0,2566.0,0.0,6.0,27.0,14.0,28.0
5.235666751861572,19.0,10.0,2408.0,13.0,8.0,75.0,6.0,16.0
5.23918342590332,9.0,18.0,920.0,25.0,21.0,54.0,52.0,23.0
5.242666721343994,5.0,18.0,10.0,0.0,33.0,34.0,42.0,43.0
5.246133327484131,13.0,37.0,1435.0,17.0,20.0,0.0,18.0,46.0
5.249599933624268,14.0,26.0,10.0,34.0,7.0,48.0,23.0,22.0
5.253116607666016,15.0,14.0,0.0,11.0,0.0,41.0,22.0,29.0
5.256583213806152,13.0,44.0,661.0,16.0,19.0,36.0,10.0,8.0
5.260049819946289,10.0,33.0,0.0,12.0,5.0,6.0,6.0,14.0
5.263516902923584,5.0,22.0,36.0,0.0,13.0,29.0,12.0,15.0
5.266983509063721,14.0,25.0,25.0,16.0,16.0,20.0,6.0,11.0
5.270500183105469,13.0,11.0,32.0,18.0,14.0,10.0,0.0,11.0
5.2739667892456055,12.0,12.0,0.0,20.0,20.0,25.0,27.0,10.0
5.277450084686279,11.0,5.0,42.0,19.0,33.0,23.0,14.0,34.0
5.280916690826416,15.0,6.0,25.0,27.0,19.0,16.0,0.0,38.0
5.284383296966553,11.0,6.0,26.0,5.0,6.0,23.0,10.0,0.0
5.287899971008301,7.0,5.0,33.0,14.0,30.0,11.0,20.0,23.0
5.2913665771484375,72.0,18.0,22.0,11.0,15.0,6.0,27.0,0.0
5.294833183288574,117.0,30.0,11.0,5.0,11.0,10.0,0.0,27.0
5.298299789428711,66.0,34.0,8.0,0.0,24.0,73.0,3.0,0.0
5.301766872406006,14.0,64.0,5.0,13.0,31.0,39.0,6.0,20.0
5.305283546447754,0.0,94.0,39.0,13.0,31.0,5.0,1720.0,7.0
5.308766841888428,39.0,62.0,23.0,13.0,37.0,15.0,1461.0,13.0
5.3122334480285645,19.0,31.0,8.0,40.0,44.0,34.0,46.0,22.0
5.315700054168701,11.0,33.0,20.0,37.0,18.0,53.0,0.0,25.0
5.319166660308838,19.0,34.0,14.0,8.0,12.0,42.0,12.0,28.0
5.322683334350586,13.0,55.0,7.0,37.0,10.0,5.0,47.0,7.0
5.326149940490723,7.0,0.0,5.0,40.0,7.0,37.0,5.0,41.0
5.329616546630859,24.0,5.0,15.0,30.0,36.0,28.0,24.0,6.0
5.333083152770996,18.0,19.0,24.0,40.0,23.0,20.0,649.0,28.0
5.336550235748291,12.0,33.0,19.0,32.0,11.0,21.0,336.0,41.0
5.340066432952881,5.0,43.0,14.0,18.0,11.0,21.0,23.0,32.0
5.343550205230713,5.0,44.0,10.0,9.0,10.0,20.0,623.0,24.0
5.34701681137085,5.0,23.0,5.0,0.0,5.0,18.0,17.0,14.0
5.350483417510986,11.0,34.0,8.0,0.0,0.0,20.0,5.0,32.0
5.353950023651123,17.0,20.0,10.0,0.0,37.0,22.0,52.0,16.0
5.357466697692871,23.0,7.0,8.0,41.0,41.0,5.0,46.0,0.0
5.360933303833008,18.0,27.0,9.0,30.0,28.0,19.0,15.0,13.0
5.3643999099731445,0.0,20.0,10.0,0.0,5.0,18.0,19.0,0.0
5.367866516113281,19.0,11.0,11.0,42.0,21.0,825.0,17.0,10.0
5.371333122253418,26.0,27.0,12.0,0.0,37.0,1045.0,11.0,9.0
5.374866485595703,26.0,6.0,34.0,18.0,15.0,8.0,28.0,8.0
5.378333568572998,26.0,29.0,23.0,15.0,15.0,9.0,35.0,9.0
5.381800174713135,10.0,10.0,11.0,5.0,10.0,450.0,33.0,10.0
5.3852667808532715,8.0,10.0,8.0,37.0,5.0,0.0,28.0,5.0
5.3887834548950195,6.0,5.0,5.0,50.0,16.0,44.0,22.0,5.0
5.392250061035156,11.0,0.0,18.0,50.0,39.0,28.0,7.0,5.0
5.395716667175293,16.0,34.0,20.0,18.0,30.0,16.0,27.0,21.0
5.399199962615967,28.0,39.0,21.0,6.0,35.0,5.0,23.0,18.0
5.4026665687561035,46.0,43.0,5.0,0.0,0.0,0.0,17.0,28.0
5.406183242797852,63.0,12.0,5.0,5.0,16.0,9.0,33.0,37.0
5.409649848937988,55.0,34.0,26.0,0.0,0.0,14.0,34.0,24.0
5.413116455078125,47.0,16.0,21.0,5.0,5.0,37.0,32.0,10.0
5.41658353805542,36.0,17.0,15.0,11.0,0.0,30.0,12.0,17.0
5.420050144195557,5.0,17.0,5.0,16.0,681.0,6.0,40.0,15.0
5.423583507537842,46.0,171.0,871.0,69.0,1097.0,731.0,17.0,16.0
5.4270501136779785,21.0,324.0,1737.0,7660.0,3669.0,1870.0,466.0,530.0
5.430516719818115,10.0,4337.0,15732.0,13700.0,12484.0,10256.0,3811.0,1366.0
5.433983325958252,10.0,24804.0,48416.0,51360.0,39264.0,24284.0,10800.0,2394.0
5.437449932098389,23.0,64656.0,99408.0,129136.0,110032.0,57952.0,29508.0,2407.0
5.4409499168396,23.0,117632.0,259456.0,275840.0,231424.0,162880.0,59776.0,11072.0
5.444416522979736,23.0,212416.0,408832.0,490688.0,438208.0,248576.0,91440.0,23980.0
5.447883129119873,25.0,351168.0,706560.0,810752.0,668928.0,334912.0,140992.0,32592.0
5.451350212097168,23.0,515328.0,975872.0,1072896.0,788736.0,456000.0,177728.0,39136.0
5.454816818237305,21.0,560128.0,1220352.0,1318912.0,1074432.0,596480.0,233792.0,51392.0
5.458333492279053,34.0,672256.0,1352704.0,1478912.0,1162752.0,634624.0,261184.0,59040.0
5.4618000984191895,47.0,669440.0,1445376.0,1497856.0,1284096.0,672000.0,257920.0,56432.0
5.465266704559326,40.0,771584.0,1497344.0,1544960.0,1201920.0,679680.0,257408.0,54592.0
5.468733310699463,33.0,707840.0,1441536.0,1483008.0,1239552.0,608256.0,256896.0,49552.0
5.4721999168396,174.0,632064.0,1304064.0,1421312.0,1166080.0,592128.0,230784.0,59344.0
5.475716590881348,315.0,562944.0,1122560.0,1236224.0,953088.0,527616.0,195584.0,47088.0
5.4791998863220215,530.0,503616.0,962304.0,1035520.0,808192.0,374976.0,163264.0,40448.0
5.482666492462158,302.0,388416.0,754944.0,768000.0,617728.0,323840.0,125008.0,27792.0
5.486133098602295,73.0,335360.0,625408.0,609280.0,527360.0,266816.0,90080.0,19792.0
5.48960018157959,561.0,206336.0,387072.0,410880.0,330752.0,176512.0,57728.0,20100.0
5.493116855621338,299.0,161280.0,307840.0,330816.0,261952.0,121824.0,54832.0,8404.0
5.496583461761475,37.0,112160.0,225024.0,247296.0,168576.0,90016.0,34688.0,3623.0
5.500050067901611,25.0,84272.0,166976.0,152128.0,118112.0,64048.0,29508.0,3112.0
5.503516674041748,67.0,41424.0,128480.0,146048.0,88736.0,49392.0,19612.0,1588.0
5.507033348083496,59.0,56640.0,109600.0,112640.0,76768.0,42400.0,21324.0,2239.0
5.51051664352417,46.0,39296.0,94416.0,89120.0,58592.0,47664.0,11576.0,2890.0
5.513983249664307,33.0,33648.0,87952.0,99040.0,53120.0,41472.0,10500.0,5558.0
5.517449855804443,37.0,53600.0,72656.0,76640.0,62944.0,38656.0,14652.0,4680.0
5.52091646194458,41.0,37472.0,76896.0,68464.0,59952.0,28848.0,11524.0,4698.0
5.524449825286865,44.0,35200.0,64160.0,72720.0,53728.0,25508.0,12596.0,3311.0
5.527916431427002,44.0,34208.0,59808.0,56080.0,47488.0,26708.0,8588.0,929.0
5.531383514404297,18.0,32672.0,49904.0,69424.0,42928.0,18348.0,12284.0,2175.0
5.534850120544434,49.0,28472.0,45776.0,59680.0,37440.0,29784.0,5816.0,1261.0
5.53831672668457,29.0,19112.0,45840.0,31064.0,33488.0,14660.0,6347.0,2075.0
5.541833400726318,30.0,25472.0,34528.0,35888.0,25940.0,8664.0,6921.0,1381.0
5.545300006866455,10.0,17780.0,30928.0,37328.0,23444.0,16632.0,4952.0,2563.0
5.548783302307129,12.0,10708.0,29916.0,29924.0,22384.0,7967.0,5077.0,3060.0
5.552249908447266,12.0,8976.0,12580.0,23720.0,15284.0,7534.0,2456.0,64.0
5.555716514587402,21.0,10032.0,20928.0,22360.0,19880.0,11768.0,4290.0,330.0
5.55923318862915,29.0,9196.0,21524.0,22924.0,9228.0,3308.0,3115.0,0.0
5.562699794769287,41.0,9712.0,11088.0,22004.0,9228.0,4818.0,1122.0,25.0
5.566166877746582,35.0,10492.0,14188.0,19512.0,9420.0,4926.0,2466.0,23.0
5.569633483886719,30.0,7401.0,13340.0,13888.0,4907.0,4132.0,1841.0,21.0
5.5731000900268555,30.0,5460.0,12880.0,10500.0,9056.0,5045.0,569.0,22.0
5.576633453369141,16.0,5203.0,8340.0,20932.0,6613.0,5958.0,2682.0,22.0
5.580100059509277,14.0,5582.0,8059.0,13696.0,9844.0,1709.0,16.0,16.0
5.583566665649414,11.0,5961.0,5970.0,12784.0,9700.0,2192.0,1301.0,15.0
5.587033271789551,14.0,4494.0,17628.0,21968.0,12408.0,8704.0,1837.0,543.0
5.5904998779296875,0.0,12580.0,31320.0,41104.0,42656.0,25088.0,4724.0,1071.0
5.593983173370361,17.0,37568.0,76512.0,105104.0,96000.0,61856.0,20052.0,4114.0
