,580.6400146484375,581.6400146484375,582.6400146484375,583.6400146484375,584.6400146484375,585.6400146484375,586.6400146484375,587.6400146484375
3.701733350753784,24.0,50.0,54.0,10.0,10.0,7.0,41.0,10.0
3.7034666538238525,5.0,14.0,13.0,67.0,14.0,11.0,5.0,17.0
3.705199956893921,20.0,27.0,28.0,59.0,38.0,36.0,35.0,18.0
3.7069332599639893,6.0,0.0,18.0,35.0,28.0,0.0,19.0,18.0
3.7086665630340576,38.0,12.0,5.0,42.0,26.0,37.0,10.0,18.0
3.710400104522705,28.0,8.0,27.0,5.0,22.0,5.0,5.0,20.0
3.7121334075927734,14.0,45.0,26.0,7.0,28.0,21.0,21.0,10.0
3.713866710662842,35.0,35.0,33.0,11.0,5.0,28.0,21.0,12.0
3.71560001373291,23.0,34.0,11.0,11.0,12.0,20.0,43.0,15.0
3.717400074005127,22.0,42.0,0.0,6.0,0.0,13.0,49.0,13.0
3.7191333770751953,20.0,27.0,33.0,0.0,6.0,6.0,27.0,11.0
3.7208666801452637,18.0,9.0,38.0,13.0,35.0,18.0,60.0,9.0
3.722599983215332,16.0,0.0,13.0,26.0,25.0,9.0,16.0,7.0
3.7243332862854004,14.0,5.0,0.0,20.0,12.0,0.0,0.0,6.0
3.7260665893554688,11.0,15.0,11.0,13.0,37.0,0.0,0.0,5.0
3.727799892425537,0.0,10.0,10.0,48.0,32.0,0.0,10.0,5.0
3.7295334339141846,33.0,5.0,5.0,44.0,11.0,24.0,19.0,13.0
3.731266736984253,35.0,13.0,0.0,17.0,0.0,24.0,10.0,21.0
3.7330000400543213,40.0,7.0,11.0,34.0,23.0,11.0,0.0,15.0
3.734783411026001,7.0,0.0,5.0,13.0,15.0,26.0,11.0,16.0
3.7365167140960693,5.0,10.0,0.0,5.0,14.0,23.0,17.0,16.0
3.7382500171661377,39.0,5.0,3.0,35.0,12.0,25.0,12.0,18.0
3.739983320236206,48.0,0.0,5.0,0.0,13.0,27.0,8.0,19.0
3.7417166233062744,115.0,9.0,15.0,29.0,13.0,10.0,0.0,20.0
3.7434499263763428,70.0,16.0,8.0,22.0,16.0,5.0,30.0,20.0
3.745183229446411,25.0,11.0,0.0,15.0,20.0,5.0,23.0,18.0
3.7469167709350586,14.0,5.0,11.0,13.0,21.0,7.0,0.0,24.0
3.748650074005127,20.0,0.0,22.0,11.0,22.0,11.0,5.0,12.0
3.7503833770751953,5.0,5.0,27.0,14.0,31.0,14.0,13.0,0.0
3.752183437347412,0.0,10.0,20.0,0.0,37.0,43.0,12.0,77.0
3.7539167404174805,22.0,14.0,20.0,5.0,53.0,43.0,11.0,66.0
3.755650043487549,10.0,15.0,19.0,5.0,0.0,12.0,26.0,23.0
3.757383346557617,0.0,15.0,16.0,7.0,22.0,13.0,23.0,6.0
3.7591166496276855,5.0,5.0,12.0,18.0,42.0,11.0,19.0,37.0
3.760849952697754,12.0,8.0,13.0,26.0,7.0,10.0,0.0,23.0
3.7625832557678223,24.0,11.0,13.0,22.0,15.0,5.0,18.0,10.0
3.7643165588378906,17.0,6.0,5.0,18.0,36.0,17.0,18.0,10.0
3.766050100326538,9.0,0.0,59.0,17.0,19.0,0.0,18.0,25.0
3.7677834033966064,19.0,0.0,30.0,16.0,8.0,19.0,22.0,0.0
3.769566774368286,8.0,0.0,0.0,24.0,5.0,0.0,0.0,14.0
3.7713167667388916,5.0,5.0,11.0,27.0,6.0,19.0,35.0,28.0
3.773033380508423,3.0,5.0,5.0,31.0,17.0,14.0,5.0,12.0
3.774766683578491,0.0,5.0,9.0,22.0,14.0,0.0,13.0,5.0
3.7765166759490967,8.0,5.0,13.0,24.0,0.0,17.0,6.0,21.0
3.778233289718628,34.0,18.0,20.0,23.0,0.0,13.0,6.0,13.0
3.7799665927886963,36.0,9.0,37.0,0.0,0.0,8.0,0.0,5.0
3.7817165851593018,14.0,0.0,21.0,0.0,3.0,8.0,6.0,29.0
3.783433437347412,44.0,19.0,5.0,0.0,5.0,7.0,11.0,48.0
3.78523325920105,13.0,0.0,7.0,5.0,8.0,14.0,7.0,38.0
3.786966562271118,50.0,11.0,0.0,10.0,11.0,18.0,9.0,7.0
3.7887001037597656,23.0,8.0,0.0,22.0,14.0,20.0,11.0,66.0
3.790433406829834,19.0,35.0,0.0,25.0,46.0,22.0,12.0,34.0
3.7921667098999023,5.0,37.0,7.0,14.0,37.0,17.0,9.0,15.0
3.7939000129699707,18.0,13.0,14.0,20.0,0.0,23.0,6.0,10.0
3.795633316040039,0.0,36.0,16.0,12.0,45.0,25.0,14.0,36.0
3.7973666191101074,3.0,33.0,5.0,14.0,10.0,28.0,7.0,5.0
3.799099922180176,5.0,25.0,20.0,20.0,22.0,13.0,0.0,56.0
3.800833225250244,39.0,24.0,18.0,26.0,42.0,5.0,10.0,41.0
3.802616596221924,41.0,5.0,15.0,22.0,11.0,0.0,15.0,13.0
3.804349899291992,5.0,16.0,30.0,14.0,0.0,6.0,9.0,10.0
3.8060834407806396,24.0,5.0,30.0,5.0,36.0,12.0,20.0,24.0
3.807816743850708,5.0,34.0,31.0,13.0,26.0,6.0,20.0,5.0
3.8095500469207764,31.0,29.0,27.0,20.0,5.0,0.0,20.0,0.0
3.8112833499908447,26.0,71.0,11.0,26.0,5.0,36.0,5.0,9.0
3.813016653060913,5.0,73.0,37.0,30.0,5.0,41.0,12.0,17.0
3.8147499561309814,28.0,17.0,23.0,19.0,0.0,47.0,13.0,22.0
3.81648325920105,42.0,0.0,14.0,17.0,9.0,12.0,0.0,31.0
3.818216562271118,10.0,22.0,5.0,0.0,18.0,10.0,12.0,24.0
3.820016622543335,10.0,15.0,11.0,0.0,18.0,10.0,32.0,18.0
3.8217499256134033,37.0,32.0,7.0,10.0,23.0,22.0,33.0,10.0
3.8234832286834717,6.0,18.0,0.0,10.0,40.0,14.0,38.0,5.0
3.825216770172119,12.0,24.0,33.0,11.0,35.0,6.0,50.0,10.0
3.8269500732421875,24.0,29.0,36.0,16.0,29.0,15.0,5.0,14.0
3.828683376312256,21.0,34.0,42.0,21.0,49.0,10.0,46.0,12.0
3.830416679382324,17.0,27.0,36.0,0.0,19.0,5.0,16.0,14.0
3.8321499824523926,19.0,0.0,29.0,3.0,8.0,9.0,39.0,7.0
3.833883285522461,10.0,43.0,22.0,5.0,47.0,12.0,7.0,22.0
3.8356165885925293,0.0,10.0,0.0,3.0,28.0,15.0,22.0,38.0
3.837399959564209,5.0,27.0,22.0,0.0,26.0,17.0,45.0,21.0
3.8391332626342773,20.0,23.0,0.0,27.0,7.0,0.0,8.0,5.0
3.8408665657043457,18.0,17.0,13.0,42.0,20.0,6.0,5.0,25.0
3.842600107192993,14.0,24.0,10.0,31.0,21.0,12.0,16.0,8.0
3.8443334102630615,14.0,20.0,5.0,35.0,6.0,0.0,11.0,0.0
3.84606671333313,22.0,16.0,0.0,18.0,11.0,14.0,0.0,26.0
3.8478000164031982,28.0,13.0,12.0,23.0,0.0,7.0,21.0,0.0
3.8495333194732666,0.0,10.0,33.0,5.0,0.0,0.0,18.0,10.0
3.851266622543335,14.0,27.0,24.0,12.0,0.0,13.0,14.0,33.0
3.8530666828155518,45.0,24.0,24.0,24.0,5.0,5.0,0.0,40.0
3.85479998588562,28.0,7.0,14.0,24.0,10.0,14.0,5.0,48.0
3.8565332889556885,21.0,10.0,11.0,34.0,37.0,14.0,35.0,18.0
3.858266592025757,22.0,17.0,7.0,6.0,28.0,14.0,39.0,23.0
3.859999895095825,0.0,5.0,7.0,16.0,42.0,10.0,24.0,25.0
3.8617334365844727,17.0,5.0,6.0,19.0,23.0,12.0,0.0,0.0
3.863466739654541,44.0,27.0,5.0,21.0,5.0,25.0,33.0,11.0
3.8652000427246094,53.0,33.0,0.0,23.0,40.0,60.0,5.0,13.0
3.8669333457946777,21.0,26.0,6.0,28.0,33.0,38.0,8.0,22.0
3.868666648864746,23.0,19.0,3.0,45.0,25.0,15.0,11.0,14.0
3.870450019836426,23.0,0.0,0.0,0.0,6.0,7.0,13.0,5.0
3.872183322906494,12.0,8.0,9.0,24.0,6.0,48.0,13.0,44.0
3.8739166259765625,6.0,16.0,10.0,35.0,23.0,25.0,18.0,42.0
3.875649929046631,0.0,8.0,11.0,25.0,12.0,9.0,15.0,35.0
3.8773999214172363,5.0,0.0,22.0,37.0,21.0,0.0,12.0,11.0
3.8791167736053467,6.0,52.0,22.0,26.0,0.0,13.0,21.0,46.0
3.880850076675415,7.0,47.0,26.0,12.0,11.0,16.0,0.0,0.0
3.8825833797454834,9.0,21.0,26.0,31.0,23.0,34.0,5.0,0.0
3.8843166828155518,0.0,12.0,9.0,21.0,22.0,35.0,6.0,33.0
3.88604998588562,0.0,10.0,10.0,0.0,65.0,12.0,0.0,52.0
3.887850046157837,0.0,7.0,17.0,11.0,54.0,28.0,5.0,27.0
3.8895833492279053,0.0,12.0,12.0,26.0,13.0,6.0,14.0,13.0
3.8913166522979736,6.0,11.0,6.0,21.0,22.0,13.0,17.0,18.0
3.893049955368042,5.0,10.0,0.0,12.0,5.0,19.0,24.0,13.0
3.8947832584381104,13.0,0.0,15.0,14.0,19.0,20.0,16.0,7.0
3.8965165615081787,9.0,3.0,7.0,16.0,0.0,16.0,13.0,19.0
3.898250102996826,5.0,5.0,10.0,15.0,13.0,11.0,9.0,37.0
3.8999834060668945,53.0,3.0,12.0,15.0,16.0,21.0,13.0,32.0
3.901716709136963,56.0,0.0,6.0,48.0,15.0,19.0,19.0,26.0
3.9034500122070312,36.0,15.0,0.0,31.0,11.0,17.0,20.0,11.0
3.905233383178711,21.0,16.0,6.0,15.0,10.0,0.0,10.0,39.0
3.9069666862487793,20.0,16.0,0.0,16.0,21.0,5.0,28.0,29.0
3.9086999893188477,29.0,14.0,19.0,13.0,18.0,15.0,24.0,26.0
3.910433292388916,16.0,10.0,17.0,10.0,15.0,25.0,20.0,26.0
3.9121665954589844,15.0,14.0,16.0,36.0,5.0,17.0,21.0,10.0
3.9138998985290527,36.0,17.0,7.0,32.0,20.0,22.0,20.0,13.0
3.9156334400177,25.0,9.0,25.0,5.0,19.0,27.0,10.0,19.0
3.9173667430877686,14.0,0.0,51.0,53.0,5.0,26.0,0.0,16.0
3.919100046157837,5.0,0.0,43.0,11.0,20.0,0.0,24.0,13.0
3.9209001064300537,14.0,15.0,35.0,26.0,16.0,28.0,12.0,22.0
3.922633409500122,12.0,29.0,51.0,28.0,11.0,22.0,7.0,16.0
3.9243667125701904,10.0,23.0,7.0,5.0,11.0,5.0,14.0,10.0
3.926100015640259,17.0,21.0,30.0,3.0,5.0,0.0,19.0,16.0
3.927833318710327,16.0,17.0,22.0,0.0,8.0,5.0,23.0,14.0
3.9295666217803955,15.0,5.0,18.0,29.0,11.0,34.0,20.0,11.0
3.931299924850464,8.0,253.0,47.0,806.0,14.0,271.0,17.0,30.0
3.9330332279205322,0.0,500.0,1680.0,415.0,17.0,509.0,30.0,33.0
3.9347667694091797,14.0,895.0,2200.0,23.0,1287.0,388.0,29.0,23.0
3.936500072479248,28.0,1289.0,1658.0,35.0,1805.0,267.0,57.0,13.0
3.9382998943328857,255.0,2473.0,1947.0,1518.0,3148.0,544.0,29.0,23.0
3.940033435821533,483.0,4862.0,1198.0,2216.0,2208.0,934.0,0.0,31.0
3.9417667388916016,1724.0,6312.0,2012.0,3270.0,1267.0,748.0,27.0,1571.0
3.94350004196167,3289.0,3901.0,3588.0,5246.0,1367.0,562.0,618.0,1696.0
3.9452333450317383,3908.0,4871.0,3264.0,4456.0,4865.0,963.0,1128.0,49.0
3.9469666481018066,1089.0,5842.0,4069.0,6065.0,5292.0,1508.0,577.0,26.0
3.948699951171875,3122.0,6719.0,4874.0,4472.0,3711.0,1683.0,25.0,715.0
3.9504332542419434,4421.0,9440.0,5985.0,5876.0,5925.0,3066.0,15.0,12.0
3.9521665573120117,3798.0,10032.0,7097.0,7279.0,4150.0,2603.0,16.0,787.0
3.953900098800659,3796.0,10628.0,8272.0,7292.0,4258.0,3802.0,17.0,1285.0
3.9556832313537598,4210.0,10440.0,4291.0,3392.0,4366.0,1552.0,27.0,13.0
3.9574167728424072,4624.0,10256.0,10560.0,7688.0,3841.0,3251.0,37.0,20.0
3.9591500759124756,2446.0,12504.0,10948.0,6053.0,4092.0,2298.0,458.0,35.0
3.960883378982544,5394.0,12684.0,5237.0,9152.0,4747.0,2134.0,232.0,40.0
3.9626166820526123,3841.0,13844.0,5291.0,4309.0,5376.0,2662.0,6.0,33.0
3.9643499851226807,4559.0,11160.0,8932.0,9936.0,2625.0,3189.0,40.0,26.0
3.966083288192749,4397.0,9004.0,9000.0,12172.0,4540.0,3117.0,75.0,21.0
3.9678165912628174,4235.0,7638.0,5670.0,8276.0,748.0,508.0,172.0,15.0
3.9695498943328857,1702.0,10592.0,5093.0,7078.0,2826.0,4319.0,86.0,15.0
3.971283435821533,3850.0,5266.0,7008.0,3060.0,2998.0,764.0,0.0,15.0
3.973083257675171,3154.0,5709.0,6547.0,8186.0,4562.0,810.0,6.0,191.0
3.9748165607452393,2459.0,12216.0,6086.0,5940.0,3420.0,1395.0,12.0,108.0
3.9765501022338867,3593.0,7535.0,5293.0,4289.0,2355.0,1337.0,529.0,24.0
3.978283405303955,3080.0,13736.0,3087.0,5080.0,498.0,1664.0,427.0,25.0
3.9800167083740234,2566.0,4683.0,4038.0,4874.0,2187.0,1515.0,325.0,22.0
3.981750011444092,2916.0,4109.0,4463.0,5207.0,2169.0,14.0,11.0,17.0
3.98348331451416,2613.0,4717.0,3474.0,4725.0,2151.0,0.0,1588.0,11.0
3.9852166175842285,2310.0,2636.0,453.0,4242.0,1926.0,610.0,1908.0,11.0
3.986949920654297,544.0,7410.0,3046.0,2559.0,3173.0,1220.0,746.0,11.0
3.9887332916259766,3557.0,7036.0,1461.0,3959.0,2405.0,1133.0,52.0,16.0
3.990466594696045,3803.0,3574.0,2682.0,1685.0,1637.0,22.0,52.0,20.0
3.9921998977661133,130.0,3199.0,2127.0,3054.0,1401.0,622.0,28.0,13.0
3.9939334392547607,1407.0,5248.0,2926.0,3309.0,1165.0,1263.0,5.0,5.0
3.995666742324829,8.0,4516.0,1546.0,2787.0,1164.0,118.0,5.0,6.0
3.9974000453948975,888.0,4034.0,3324.0,1743.0,1568.0,895.0,27.0,19.0
3.999133348464966,390.0,3983.0,2267.0,705.0,1236.0,35.0,24.0,33.0
4.000866889953613,1040.0,1524.0,1210.0,3431.0,905.0,11.0,8.0,25.0
4.002600193023682,395.0,2605.0,1794.0,552.0,14.0,31.0,21.0,17.0
4.00433349609375,318.0,1981.0,2540.0,1807.0,307.0,23.0,34.0,24.0
4.006133556365967,240.0,705.0,2017.0,371.0,600.0,32.0,7.0,20.0
4.007866859436035,16.0,2303.0,2043.0,1106.0,837.0,33.0,41.0,31.0
4.0096001625061035,284.0,41.0,1955.0,2708.0,689.0,43.0,19.0,23.0
4.011333465576172,1541.0,654.0,1298.0,2833.0,21.0,43.0,14.0,16.0
4.01306676864624,1321.0,1149.0,735.0,20.0,17.0,43.0,20.0,13.0
4.014800071716309,565.0,1355.0,7.0,410.0,13.0,20.0,15.0,18.0
4.016533374786377,1876.0,1561.0,1208.0,23.0,18.0,10.0,10.0,18.0
4.018266677856445,364.0,419.0,13.0,15.0,16.0,0.0,13.0,18.0
4.019999980926514,46.0,693.0,1226.0,7.0,14.0,3.0,15.0,17.0
4.021733283996582,58.0,1421.0,55.0,20.0,82.0,5.0,19.0,10.0
4.023516654968262,32.0,26.0,58.0,34.0,149.0,5.0,18.0,15.0
4.02524995803833,5.0,745.0,21.0,26.0,83.0,5.0,17.0,26.0
4.026983261108398,8.0,47.0,31.0,24.0,17.0,12.0,18.0,34.0
4.028716564178467,11.0,54.0,40.0,47.0,13.0,16.0,19.0,0.0
4.030449867248535,20.0,36.0,101.0,53.0,8.0,42.0,8.0,28.0
4.0321831703186035,20.0,35.0,57.0,15.0,14.0,30.0,11.0,0.0
4.033933162689209,19.0,33.0,13.0,58.0,20.0,18.0,21.0,23.0
4.03564977645874,34.0,5.0,0.0,28.0,22.0,22.0,16.0,20.0
4.037383556365967,33.0,22.0,57.0,5.0,16.0,14.0,0.0,23.0
4.039116859436035,5.0,43.0,5.0,32.0,8.0,31.0,15.0,25.0
4.040916442871094,41.0,27.0,21.0,6.0,0.0,42.0,15.0,15.0
4.04265022277832,5.0,11.0,34.0,16.0,11.0,38.0,15.0,10.0
4.044383525848389,38.0,15.0,28.0,47.0,22.0,35.0,15.0,23.0
4.046116828918457,29.0,18.0,23.0,34.0,32.0,35.0,12.0,17.0
4.047850131988525,16.0,15.0,6.0,20.0,42.0,13.0,14.0,26.0
4.049583435058594,16.0,14.0,22.0,34.0,37.0,33.0,15.0,13.0
4.051316738128662,24.0,12.0,11.0,15.0,26.0,15.0,7.0,17.0
4.0530500411987305,11.0,0.0,0.0,12.0,44.0,25.0,16.0,20.0
4.054783344268799,33.0,0.0,23.0,15.0,5.0,20.0,15.0,10.0
4.0565667152404785,0.0,47.0,25.0,13.0,26.0,34.0,10.0,0.0
4.058300018310547,7.0,33.0,11.0,11.0,27.0,27.0,13.0,7.0
4.060050010681152,5.0,18.0,0.0,6.0,37.0,5.0,0.0,45.0
4.061766624450684,22.0,12.0,0.0,0.0,5.0,8.0,3.0,48.0
4.063499927520752,22.0,17.0,6.0,0.0,19.0,11.0,5.0,25.0
4.06523323059082,21.0,22.0,12.0,0.0,32.0,5.0,19.0,48.0
4.066966533660889,50.0,22.0,15.0,13.0,39.0,3.0,34.0,71.0
4.068699836730957,44.0,24.0,8.0,25.0,17.0,0.0,36.0,5.0
4.0704498291015625,27.0,15.0,0.0,29.0,5.0,11.0,34.0,47.0
4.072166442871094,26.0,6.0,24.0,26.0,0.0,21.0,0.0,53.0
4.0739665031433105,34.0,7.0,16.0,23.0,0.0,18.0,20.0,22.0
4.075699806213379,28.0,6.0,8.0,29.0,0.0,14.0,0.0,40.0
4.077433109283447,35.0,5.0,15.0,11.0,14.0,6.0,6.0,21.0
4.079166889190674,31.0,12.0,11.0,58.0,17.0,18.0,12.0,8.0
4.080900192260742,26.0,6.0,6.0,387.0,14.0,18.0,13.0,8.0
4.0826334953308105,29.0,0.0,14.0,203.0,11.0,21.0,14.0,23.0
4.084366798400879,18.0,36.0,12.0,19.0,5.0,25.0,35.0,21.0
4.086100101470947,22.0,54.0,11.0,57.0,5.0,24.0,44.0,18.0
4.087833404541016,17.0,29.0,13.0,20.0,12.0,27.0,41.0,21.0
4.089566707611084,12.0,19.0,14.0,13.0,19.0,28.0,43.0,0.0
4.091350078582764,12.0,7.0,16.0,43.0,20.0,31.0,49.0,0.0
4.093083381652832,12.0,6.0,18.0,40.0,20.0,34.0,15.0,32.0
4.0948166847229,6.0,5.0,17.0,14.0,17.0,37.0,25.0,37.0
4.096549987792969,0.0,0.0,15.0,11.0,13.0,13.0,14.0,17.0
4.098283290863037,7.0,10.0,33.0,16.0,8.0,19.0,20.0,7.0
4.1000165939331055,13.0,12.0,23.0,0.0,43.0,24.0,7.0,22.0
4.101749897003174,17.0,0.0,13.0,0.0,44.0,17.0,11.0,19.0
4.103483200073242,21.0,6.0,20.0,0.0,33.0,9.0,5.0,16.0
4.1052165031433105,12.0,5.0,16.0,7.0,18.0,0.0,20.0,7.0
4.106949806213379,18.0,8.0,11.0,17.0,7.0,5.0,19.0,0.0
4.108749866485596,12.0,11.0,22.0,23.0,38.0,12.0,17.0,7.0
4.110483169555664,18.0,10.0,6.0,15.0,22.0,18.0,18.0,14.0
4.112216472625732,9.0,5.0,7.0,26.0,19.0,15.0,12.0,38.0
4.113949775695801,0.0,17.0,16.0,22.0,18.0,5.0,21.0,38.0
4.115683555603027,7.0,40.0,8.0,18.0,17.0,15.0,17.0,35.0
4.117416858673096,26.0,28.0,0.0,18.0,17.0,8.0,20.0,17.0
4.119150161743164,36.0,16.0,35.0,17.0,15.0,7.0,22.0,17.0
4.120883464813232,11.0,25.0,26.0,15.0,13.0,6.0,0.0,15.0
4.122616767883301,21.0,26.0,23.0,10.0,22.0,5.0,31.0,12.0
4.1244001388549805,31.0,0.0,20.0,8.0,22.0,18.0,13.0,23.0
4.126133441925049,8.0,17.0,0.0,6.0,21.0,31.0,20.0,12.0
4.127883434295654,0.0,8.0,20.0,11.0,17.0,37.0,26.0,0.0
4.1296000480651855,19.0,18.0,18.0,6.0,31.0,57.0,6.0,5.0
4.131333351135254,12.0,6.0,15.0,15.0,33.0,0.0,5.0,5.0
4.133066654205322,5.0,24.0,51.0,8.0,7.0,23.0,22.0,6.0
4.134799957275391,28.0,22.0,54.0,0.0,23.0,31.0,5.0,10.0
4.136533260345459,20.0,27.0,0.0,11.0,20.0,32.0,5.0,18.0
4.1382832527160645,32.0,13.0,48.0,21.0,13.0,36.0,5.0,46.0
4.139999866485596,15.0,19.0,25.0,27.0,12.0,40.0,19.0,37.0
4.1417999267578125,14.0,6.0,26.0,25.0,11.0,30.0,12.0,0.0
4.143533229827881,13.0,15.0,62.0,13.0,6.0,21.0,5.0,21.0
4.145266532897949,25.0,6.0,0.0,44.0,0.0,20.0,7.0,21.0
4.146999835968018,38.0,5.0,22.0,0.0,5.0,25.0,5.0,33.0
4.148733139038086,37.0,20.0,20.0,26.0,39.0,21.0,26.0,8.0
4.150466442108154,46.0,38.0,24.0,5.0,62.0,0.0,43.0,13.0
4.152200222015381,12.0,31.0,16.0,33.0,85.0,12.0,32.0,10.0
4.153933525085449,7.0,25.0,8.0,0.0,5.0,28.0,20.0,13.0
4.155666828155518,10.0,10.0,10.0,28.0,22.0,35.0,45.0,15.0
4.157400131225586,12.0,11.0,11.0,37.0,13.0,17.0,10.0,77.0
4.159183502197266,9.0,23.0,5.0,14.0,16.0,31.0,0.0,69.0
4.160916805267334,22.0,7.0,11.0,0.0,18.0,6.0,37.0,5.0
4.162650108337402,11.0,14.0,5.0,0.0,20.0,0.0,40.0,19.0
4.164383411407471,0.0,24.0,0.0,8.0,39.0,5.0,43.0,41.0
4.166116714477539,34.0,19.0,19.0,11.0,29.0,18.0,0.0,12.0
4.167850017547607,26.0,5.0,22.0,18.0,20.0,30.0,15.0,17.0
4.169583320617676,5.0,15.0,24.0,10.0,22.0,29.0,9.0,22.0
4.171333312988281,28.0,24.0,26.0,8.0,23.0,27.0,17.0,19.0
4.1730499267578125,65.0,5.0,27.0,5.0,10.0,12.0,46.0,5.0
4.174783229827881,56.0,15.0,35.0,5.0,14.0,7.0,38.0,31.0
4.176583290100098,5.0,33.0,37.0,11.0,28.0,15.0,34.0,14.0
4.178316593170166,23.0,0.0,40.0,8.0,7.0,14.0,15.0,24.0
4.180049896240234,0.0,32.0,14.0,5.0,5.0,36.0,7.0,20.0
4.181783199310303,28.0,21.0,5.0,15.0,0.0,36.0,5.0,5.0
4.183516502380371,20.0,11.0,16.0,23.0,12.0,36.0,17.0,7.0
4.1852498054504395,15.0,19.0,0.0,24.0,13.0,0.0,0.0,15.0
4.186983108520508,10.0,26.0,0.0,25.0,21.0,25.0,0.0,10.0
4.188716888427734,15.0,10.0,42.0,12.0,10.0,25.0,10.0,5.0
4.190450191497803,20.0,12.0,31.0,9.0,6.0,0.0,19.0,10.0
4.192233562469482,0.0,40.0,30.0,5.0,16.0,31.0,18.0,8.0
4.193966865539551,16.0,42.0,62.0,24.0,26.0,18.0,17.0,5.0
4.195700168609619,35.0,44.0,0.0,27.0,35.0,15.0,8.0,3.0
4.1974334716796875,32.0,17.0,55.0,23.0,27.0,31.0,5.0,0.0
