,374.2099914550781,375.2099914550781,376.2099914550781,377.2099914550781,378.2099914550781,379.2099914550781,380.2099914550781,381.2099914550781,382.2099914550781,383.2099914550781,384.2099914550781,385.2099914550781,386.2099914550781
5.9028167724609375,0.0,61.0,40.0,31.0,22.0,16.0,808.0,33.0,24.0,36.0,0.0,48.0,29.0
5.905633449554443,12.0,25.0,15.0,20.0,53.0,5.0,5.0,7.0,34.0,65.0,48.0,10.0,358.0
5.908450126647949,1549.0,18.0,24.0,22.0,5.0,19.0,30.0,10.0,16.0,0.0,38.0,20.0,21.0
5.911266803741455,38.0,11.0,0.0,20.0,13.0,14.0,5.0,26.0,33.0,29.0,17.0,5.0,6.0
5.914083480834961,35.0,20.0,16.0,24.0,20.0,9.0,6.0,24.0,16.0,5.0,14.0,12.0,19.0
5.916900157928467,30.0,29.0,5.0,23.0,5.0,6.0,34.0,18.0,0.0,20.0,18.0,5.0,18.0
5.919783115386963,0.0,25.0,49.0,22.0,35.0,12.0,0.0,12.0,0.0,10.0,49.0,48.0,14.0
5.922599792480469,15.0,13.0,56.0,36.0,25.0,18.0,39.0,6.0,5.0,20.0,30.0,45.0,10.0
5.925416469573975,27.0,0.0,63.0,33.0,10.0,13.0,49.0,0.0,10.0,15.0,10.0,0.0,11.0
5.9282331466674805,39.0,13.0,14.0,5.0,43.0,7.0,15.0,5.0,13.0,10.0,36.0,18.0,11.0
5.931049823760986,34.0,25.0,0.0,39.0,7.0,12.0,16.0,5.0,9.0,8.0,12.0,26.0,16.0
5.933866500854492,9.0,20.0,41.0,6.0,5.0,16.0,12.0,0.0,5.0,7.0,9.0,12.0,28.0
5.936733245849609,29.0,14.0,367.0,6.0,29.0,25.0,23.0,20.0,23.0,6.0,13.0,14.0,43.0
5.939549922943115,16.0,32.0,242.0,6.0,6.0,35.0,22.0,36.0,30.0,13.0,14.0,15.0,59.0
5.942366600036621,13.0,29.0,117.0,34.0,10.0,28.0,21.0,53.0,37.0,17.0,14.0,14.0,0.0
5.945183277130127,10.0,5.0,5.0,29.0,22.0,21.0,22.0,47.0,10.0,18.0,5.0,12.0,17.0
5.947999954223633,13.0,38.0,54.0,30.0,23.0,5.0,22.0,0.0,30.0,32.0,22.0,10.0,31.0
5.950816631317139,15.0,23.0,15.0,39.0,0.0,0.0,26.0,26.0,31.0,37.0,33.0,10.0,13.0
5.953700065612793,23.0,28.0,21.0,20.0,39.0,0.0,16.0,23.0,29.0,42.0,44.0,10.0,11.0
5.956516742706299,35.0,18.0,0.0,11.0,55.0,36.0,13.0,22.0,50.0,48.0,29.0,9.0,8.0
5.959333419799805,17.0,9.0,17.0,15.0,22.0,24.0,10.0,21.0,28.0,0.0,17.0,7.0,5.0
5.9621500968933105,0.0,18.0,5.0,18.0,20.0,12.0,8.0,29.0,5.0,74.0,5.0,16.0,6.0
5.964966773986816,4.0,26.0,15.0,0.0,34.0,34.0,5.0,37.0,21.0,148.0,22.0,25.0,6.0
5.967783451080322,8.0,36.0,790.0,12.0,20.0,18.0,495.0,28.0,34.0,98.0,35.0,25.0,65.0
5.970666885375977,12.0,33.0,526.0,19.0,7.0,37.0,250.0,19.0,28.0,47.0,48.0,8.0,36.0
5.973483562469482,13.0,30.0,263.0,5.0,12.0,34.0,6.0,10.0,44.0,24.0,42.0,10.0,6.0
5.97629976272583,14.0,24.0,12.0,16.0,17.0,31.0,26.0,1021.0,33.0,0.0,37.0,29.0,38.0
5.979116439819336,5.0,18.0,686.0,26.0,23.0,2487.0,29.0,518.0,22.0,11.0,19.0,142.0,19.0
5.981933116912842,22.0,31.0,121.0,24.0,29.0,2460.0,31.0,15.0,41.0,19.0,49.0,73.0,0.0
5.984749794006348,0.0,43.0,6.0,22.0,982.0,51.0,527.0,8.0,166.0,60.0,23.0,5.0,19.0
5.987616539001465,43.0,56.0,10.0,33.0,501.0,12.0,401.0,611.0,83.0,566.0,0.0,12.0,22.0
5.990433216094971,33.0,69.0,18.0,29.0,19.0,1222.0,274.0,333.0,0.0,1071.0,35.0,18.0,35.0
5.993249893188477,16.0,15.0,10.0,25.0,1367.0,17.0,1312.0,0.0,33.0,545.0,46.0,17.0,24.0
5.996066570281982,0.0,20.0,13.0,13.0,1179.0,596.0,1177.0,344.0,17.0,18.0,57.0,16.0,14.0
5.998883247375488,5.0,14.0,5.0,0.0,991.0,1403.0,756.0,5.0,5.0,55.0,30.0,29.0,240.0
6.001699924468994,13.0,20.0,6.0,65.0,37.0,1099.0,834.0,317.0,51.0,14.0,29.0,30.0,129.0
6.004583358764648,20.0,5.0,6.0,44.0,793.0,561.0,913.0,630.0,40.0,15.0,31.0,31.0,18.0
6.007400035858154,45.0,25.0,0.0,23.0,29.0,23.0,5.0,322.0,0.0,19.0,278.0,29.0,55.0
6.01021671295166,40.0,28.0,4.0,12.0,33.0,177.0,25.0,14.0,15.0,22.0,149.0,26.0,12.0
6.013033390045166,35.0,31.0,7.0,0.0,38.0,446.0,246.0,456.0,31.0,11.0,20.0,9.0,6.0
6.015850067138672,49.0,16.0,11.0,19.0,326.0,250.0,130.0,80.0,42.0,6.0,19.0,5.0,0.0
6.018666744232178,5.0,0.0,14.0,18.0,163.0,53.0,14.0,7.0,6.0,0.0,18.0,25.0,5.0
6.021550178527832,5.0,30.0,55.0,16.0,0.0,299.0,193.0,13.0,21.0,37.0,16.0,8.0,10.0
6.024366855621338,51.0,13.0,63.0,21.0,13.0,545.0,120.0,19.0,36.0,58.0,12.0,21.0,12.0
6.027183532714844,17.0,45.0,71.0,19.0,30.0,663.0,47.0,331.0,5.0,48.0,10.0,5.0,13.0
6.03000020980835,21.0,48.0,30.0,16.0,7.0,5.0,37.0,181.0,25.0,60.0,15.0,16.0,14.0
6.0328168869018555,23.0,10.0,45.0,16.0,6.0,42.0,47.0,32.0,17.0,22.0,19.0,19.0,10.0
6.035633563995361,24.0,5.0,28.0,16.0,13.0,5.0,5.0,29.0,15.0,16.0,28.0,22.0,10.0
6.038516521453857,12.0,15.0,0.0,14.0,9.0,35.0,15.0,27.0,13.0,15.0,14.0,30.0,13.0
6.041333198547363,16.0,26.0,15.0,12.0,5.0,36.0,40.0,12.0,45.0,19.0,0.0,27.0,13.0
6.044149875640869,17.0,35.0,31.0,0.0,12.0,37.0,5.0,0.0,46.0,22.0,14.0,32.0,12.0
6.046966552734375,18.0,35.0,13.0,12.0,8.0,35.0,8.0,18.0,15.0,36.0,13.0,31.0,782.0
6.049783229827881,18.0,36.0,25.0,19.0,5.0,18.0,7.0,9.0,31.0,40.0,31.0,31.0,812.0
6.052599906921387,17.0,5.0,38.0,6.0,3.0,21.0,29.0,0.0,10.0,52.0,22.0,25.0,639.0
6.055466651916504,16.0,18.0,38.0,15.0,0.0,27.0,30.0,3.0,38.0,5.0,13.0,38.0,961.0
6.05828332901001,11.0,39.0,38.0,16.0,17.0,12.0,11.0,6.0,21.0,33.0,0.0,27.0,222.0
6.061100006103516,5.0,59.0,15.0,17.0,16.0,9.0,13.0,3.0,61.0,22.0,16.0,15.0,1351.0
6.0639166831970215,23.0,41.0,0.0,11.0,15.0,6.0,0.0,0.0,67.0,30.0,10.0,37.0,1066.0
6.066733360290527,40.0,13.0,5.0,5.0,18.0,32.0,21.0,0.0,73.0,0.0,5.0,30.0,312.0
6.06956672668457,20.0,15.0,3.0,5.0,16.0,24.0,18.0,16.0,48.0,5.0,51.0,23.0,376.0
6.072400093078613,0.0,33.0,0.0,5.0,13.0,17.0,15.0,17.0,26.0,7.0,46.0,0.0,14.0
6.075216770172119,35.0,29.0,0.0,10.0,43.0,18.0,17.0,20.0,5.0,12.0,33.0,28.0,26.0
6.078033447265625,22.0,38.0,0.0,15.0,24.0,24.0,18.0,22.0,5.0,17.0,20.0,16.0,38.0
6.080850124359131,47.0,20.0,7.0,16.0,5.0,28.0,18.0,23.0,35.0,14.0,45.0,5.0,29.0
6.083666801452637,15.0,58.0,12.0,0.0,20.0,32.0,24.0,21.0,34.0,10.0,44.0,14.0,20.0
6.086533546447754,26.0,1171.0,9.0,25.0,10.0,0.0,35.0,11.0,0.0,22.0,16.0,10.0,15.0
6.089366436004639,19.0,2247.0,5.0,39.0,16.0,15.0,53.0,0.0,29.0,38.0,29.0,10.0,10.0
6.0921831130981445,31.0,4307.0,721.0,42.0,16.0,51.0,437.0,49.0,5.0,39.0,33.0,5.0,19.0
6.09499979019165,39.0,4553.0,582.0,23.0,12.0,59.0,408.0,41.0,281.0,44.0,5.0,14.0,37.0
6.097816467285156,558.0,2846.0,18.0,5.0,7.0,66.0,26.0,34.0,747.0,5.0,60.0,23.0,32.0
6.100633144378662,291.0,6295.0,29.0,522.0,16.0,34.0,28.0,37.0,551.0,15.0,220.0,24.0,16.0
6.103483200073242,24.0,6830.0,2254.0,278.0,25.0,8.0,16.0,18.0,360.0,46.0,120.0,6.0,0.0
6.106333255767822,32.0,8572.0,2384.0,35.0,13.0,31.0,0.0,0.0,26.0,11.0,21.0,27.0,39.0
6.109149932861328,48.0,6793.0,420.0,21.0,0.0,0.0,8.0,44.0,16.0,45.0,17.0,18.0,18.0
6.111966609954834,29.0,7605.0,575.0,12.0,18.0,12.0,15.0,22.0,19.0,44.0,0.0,20.0,39.0
6.11478328704834,33.0,5204.0,2090.0,0.0,30.0,26.0,38.0,20.0,21.0,39.0,15.0,18.0,34.0
6.117599964141846,17.0,2106.0,2161.0,28.0,1382.0,50.0,35.0,17.0,11.0,12.0,12.0,76.0,30.0
6.120450019836426,20.0,7197.0,1636.0,26.0,1086.0,75.0,23.0,7.0,0.0,8.0,10.0,61.0,11.0
6.123283386230469,29.0,8720.0,5.0,24.0,1687.0,1150.0,11.0,18.0,0.0,25.0,31.0,47.0,21.0
6.126100063323975,25.0,7828.0,24.0,30.0,293.0,982.0,34.0,30.0,3.0,28.0,31.0,0.0,37.0
6.1289167404174805,21.0,9576.0,1501.0,35.0,44.0,1169.0,28.0,31.0,5.0,43.0,0.0,26.0,0.0
6.131733417510986,41.0,9688.0,1429.0,517.0,500.0,5.0,22.0,32.0,10.0,42.0,38.0,0.0,43.0
6.134566783905029,120.0,9796.0,1634.0,269.0,279.0,700.0,10.0,19.0,51.0,42.0,27.0,15.0,9.0
6.137416839599609,75.0,7006.0,613.0,22.0,58.0,22.0,22.0,28.0,31.0,25.0,27.0,17.0,12.0
6.140250205993652,30.0,9292.0,1228.0,15.0,476.0,65.0,17.0,37.0,10.0,6.0,26.0,21.0,0.0
6.143066883087158,43.0,5856.0,1460.0,59.0,249.0,10.0,11.0,10.0,18.0,22.0,23.0,25.0,3.0
6.145883560180664,27.0,3756.0,760.0,0.0,22.0,18.0,9.0,47.0,33.0,20.0,16.0,24.0,5.0
6.14870023727417,10.0,5865.0,60.0,0.0,209.0,25.0,6.0,26.0,15.0,15.0,19.0,27.0,9.0
6.151516437530518,28.0,3705.0,295.0,0.0,15.0,21.0,12.0,18.0,5.0,21.0,25.0,30.0,13.0
6.154383182525635,32.0,4093.0,529.0,15.0,49.0,17.0,8.0,16.0,39.0,14.0,19.0,11.0,18.0
6.157216548919678,41.0,125.0,5.0,14.0,18.0,5.0,5.0,15.0,21.0,6.0,12.0,0.0,22.0
6.160033226013184,38.0,2517.0,29.0,12.0,0.0,7.0,8.0,26.0,32.0,33.0,33.0,15.0,16.0
6.1628499031066895,36.0,1691.0,48.0,5.0,5.0,9.0,11.0,23.0,12.0,27.0,5.0,28.0,12.0
6.165666580200195,25.0,743.0,34.0,17.0,10.0,7.0,26.0,19.0,33.0,20.0,23.0,19.0,21.0
6.168483257293701,31.0,1032.0,10.0,28.0,16.0,5.0,22.0,20.0,16.0,23.0,5.0,19.0,30.0
6.171333312988281,16.0,1406.0,29.0,35.0,22.0,53.0,18.0,18.0,31.0,20.0,16.0,18.0,19.0
6.174183368682861,5.0,5.0,6.0,25.0,16.0,61.0,37.0,16.0,5.0,18.0,34.0,12.0,9.0
6.177000045776367,3.0,10.0,5.0,14.0,9.0,15.0,35.0,29.0,7.0,20.0,33.0,18.0,28.0
6.179816722869873,0.0,512.0,5.0,15.0,10.0,0.0,38.0,25.0,34.0,55.0,32.0,17.0,15.0
6.182633399963379,0.0,18.0,19.0,15.0,10.0,30.0,41.0,15.0,36.0,66.0,22.0,15.0,19.0
6.185450077056885,19.0,53.0,34.0,21.0,5.0,20.0,22.0,7.0,29.0,45.0,13.0,15.0,23.0
6.188316822052002,12.0,44.0,36.0,26.0,0.0,14.0,31.0,19.0,29.0,16.0,34.0,15.0,30.0
6.191150188446045,5.0,140.0,39.0,33.0,24.0,5.0,22.0,0.0,40.0,23.0,11.0,10.0,29.0
6.193966865539551,5.0,158.0,8.0,33.0,15.0,7.0,14.0,11.0,0.0,22.0,16.0,5.0,29.0
6.196783542633057,5.0,37.0,19.0,34.0,5.0,23.0,23.0,5.0,3.0,20.0,21.0,24.0,11.0
6.1996002197265625,7.0,11.0,20.0,0.0,16.0,12.0,24.0,5.0,5.0,28.0,26.0,24.0,42.0
6.202416896820068,13.0,26.0,20.0,49.0,8.0,0.0,24.0,12.0,3.0,5.0,31.0,24.0,5.0
6.205283164978027,18.0,41.0,0.0,51.0,0.0,8.0,43.0,19.0,0.0,34.0,5.0,7.0,26.0
6.20811653137207,26.0,5.0,0.0,0.0,0.0,7.0,32.0,17.0,0.0,10.0,15.0,28.0,34.0
6.210933208465576,33.0,22.0,0.0,5.0,37.0,6.0,20.0,0.0,0.0,5.0,16.0,28.0,5.0
6.213749885559082,37.0,19.0,0.0,0.0,48.0,6.0,59.0,12.0,9.0,32.0,19.0,65.0,5.0
6.216566562652588,22.0,17.0,48.0,3.0,5.0,5.0,6.0,5.0,17.0,43.0,15.0,32.0,16.0
6.219383239746094,15.0,21.0,42.0,6.0,10.0,28.0,46.0,12.0,14.0,54.0,8.0,0.0,17.0
6.222249984741211,19.0,34.0,10.0,0.0,29.0,48.0,32.0,11.0,11.0,35.0,0.0,0.0,18.0
6.225083351135254,15.0,34.0,22.0,21.0,38.0,51.0,17.0,9.0,7.0,8.0,5.0,0.0,14.0
6.22790002822876,10.0,56.0,22.0,24.0,18.0,15.0,35.0,7.0,16.0,17.0,12.0,12.0,19.0
6.230716705322266,24.0,47.0,11.0,27.0,20.0,18.0,0.0,10.0,24.0,6.0,32.0,23.0,23.0
6.2335333824157715,50.0,38.0,27.0,7.0,21.0,62.0,16.0,10.0,30.0,26.0,32.0,52.0,0.0
6.236350059509277,31.0,20.0,22.0,15.0,26.0,18.0,23.0,15.0,14.0,19.0,12.0,36.0,12.0
6.2392168045043945,12.0,30.0,17.0,5.0,10.0,49.0,33.0,20.0,17.0,18.0,23.0,19.0,6.0
6.2420501708984375,28.0,5.0,10.0,0.0,7.0,18.0,42.0,0.0,20.0,17.0,34.0,5.0,6.0
6.244866847991943,44.0,29.0,31.0,9.0,18.0,0.0,41.0,22.0,18.0,15.0,0.0,15.0,22.0
6.247683525085449,6.0,25.0,21.0,18.0,12.0,51.0,40.0,44.0,14.0,20.0,40.0,36.0,14.0
6.250500202178955,24.0,13.0,12.0,12.0,5.0,21.0,5.0,33.0,10.0,24.0,279.0,56.0,5.0
6.253316879272461,11.0,0.0,65.0,5.0,41.0,24.0,5.0,10.0,23.0,22.0,148.0,39.0,8.0
6.256166458129883,44.0,365.0,35.0,8.0,39.0,15.0,7.0,0.0,22.0,18.0,16.0,28.0,10.0
6.258999824523926,39.0,190.0,5.0,10.0,67.0,5.0,6.0,23.0,22.0,14.0,5.0,63.0,10.0
6.261816501617432,35.0,14.0,25.0,13.0,49.0,0.0,5.0,52.0,5.0,10.0,18.0,22.0,13.0
6.264649868011475,67.0,39.0,17.0,16.0,0.0,22.0,5.0,53.0,10.0,17.0,27.0,28.0,12.0
6.2674665451049805,36.0,21.0,35.0,19.0,36.0,16.0,38.0,6.0,15.0,24.0,23.0,12.0,11.0
6.270283222198486,5.0,32.0,0.0,16.0,40.0,10.0,29.0,24.0,33.0,27.0,12.0,19.0,17.0
6.273133277893066,10.0,381.0,43.0,13.0,56.0,21.0,20.0,37.0,40.0,21.0,0.0,6.0,5.0
6.275966644287109,15.0,209.0,24.0,31.0,15.0,19.0,21.0,11.0,41.0,15.0,0.0,19.0,9.0
6.278783321380615,22.0,38.0,43.0,29.0,21.0,23.0,0.0,19.0,42.0,15.0,12.0,16.0,13.0
6.281599998474121,29.0,47.0,5.0,0.0,0.0,19.0,15.0,44.0,19.0,0.0,50.0,11.0,54.0
6.284416675567627,21.0,57.0,18.0,0.0,13.0,14.0,7.0,6.0,11.0,23.0,89.0,5.0,45.0
6.287233352661133,24.0,42.0,32.0,12.0,14.0,15.0,5.0,5.0,0.0,14.0,69.0,25.0,11.0
6.29010009765625,7.0,18.0,0.0,14.0,14.0,5.0,0.0,11.0,19.0,5.0,5.0,29.0,22.0
6.292933464050293,16.0,69.0,16.0,15.0,14.0,20.0,22.0,25.0,20.0,26.0,17.0,33.0,21.0
6.295750141143799,14.0,18.0,30.0,8.0,5.0,36.0,31.0,29.0,20.0,10.0,34.0,18.0,11.0
