,325.2099914550781,326.2099914550781,327.2099914550781,328.2099914550781,329.2099914550781,330.2099914550781,331.2099914550781,332.2099914550781
2.302150011062622,10.0,14.0,972.0,33.0,9.0,5.0,8.0,0.0
2.3045666217803955,18.0,33.0,28.0,0.0,22.0,39.0,0.0,40.0
2.307833433151245,6.0,5.0,23.0,16.0,180.0,10.0,19.0,5.0
2.3111000061035156,23.0,0.0,7.0,13.0,0.0,23.0,12.0,47.0
2.314349889755249,45.0,15.0,21.0,20.0,32.0,5.0,5.0,11.0
2.3176000118255615,66.0,27.0,11.0,15.0,0.0,0.0,15.0,54.0
2.320849895477295,73.0,33.0,10.0,10.0,11.0,3.0,5.0,17.0
2.3241500854492188,79.0,19.0,8.0,14.0,38.0,5.0,13.0,31.0
2.327399969100952,50.0,23.0,28.0,16.0,15.0,8.0,20.0,20.0
2.3306500911712646,31.0,18.0,20.0,17.0,16.0,11.0,30.0,16.0
2.333899974822998,0.0,13.0,12.0,5.0,29.0,13.0,22.0,24.0
2.3371500968933105,17.0,27.0,33.0,5.0,16.0,15.0,23.0,19.0
2.3404500484466553,6.0,12.0,15.0,14.0,17.0,0.0,24.0,14.0
2.3436999320983887,24.0,24.0,18.0,15.0,11.0,21.0,21.0,15.0
2.3469667434692383,21.0,15.0,20.0,16.0,5.0,12.0,0.0,15.0
2.3502166271209717,33.0,28.0,33.0,0.0,11.0,11.0,25.0,14.0
2.353466749191284,24.0,26.0,23.0,19.0,16.0,20.0,18.0,14.0
2.356766700744629,24.0,0.0,14.0,38.0,21.0,22.0,22.0,14.0
2.3600165843963623,13.0,0.0,24.0,25.0,0.0,7.0,24.0,10.0
2.363266706466675,5.0,13.0,36.0,33.0,19.0,10.0,25.0,5.0
2.366516590118408,16.0,26.0,31.0,41.0,19.0,13.0,18.0,0.0
2.3697667121887207,20.0,27.0,28.0,0.0,11.0,7.0,27.0,11.0
2.3730833530426025,23.0,27.0,40.0,31.0,39.0,0.0,5.0,10.0
2.376333236694336,22.0,35.0,0.0,31.0,38.0,7.0,12.0,6.0
2.3795833587646484,20.0,38.0,11.0,36.0,49.0,0.0,9.0,6.0
2.382833242416382,0.0,0.0,15.0,5.0,20.0,0.0,31.0,9.0
2.3860833644866943,5.0,27.0,35.0,37.0,17.0,44.0,36.0,0.0
2.389366626739502,10.0,11.0,283.0,208.0,641.0,38.0,41.0,11.0
2.3926498889923096,13.0,49.0,144.0,379.0,562.0,32.0,349.0,22.0
2.395900011062622,15.0,37.0,5.0,890.0,24.0,26.0,656.0,36.0
2.3991498947143555,8.0,1272.0,410.0,785.0,1841.0,101.0,556.0,50.0
2.402400016784668,0.0,1896.0,2325.0,44.0,1358.0,394.0,29.0,443.0
2.4056499004364014,0.0,4134.0,3478.0,830.0,1940.0,727.0,829.0,784.0
2.408916711807251,5.0,3322.0,6919.0,1617.0,3179.0,1417.0,1849.0,962.0
2.4121665954589844,13.0,5991.0,9652.0,4322.0,3267.0,2107.0,2209.0,1140.0
2.415416717529297,10.0,6011.0,8848.0,7968.0,3355.0,2585.0,1123.0,143.0
2.4186666011810303,6.0,4846.0,10860.0,6091.0,3146.0,3277.0,2323.0,569.0
2.4219167232513428,6.0,5763.0,10948.0,4215.0,6399.0,3969.0,1815.0,741.0
2.4252333641052246,5.0,6679.0,11036.0,7861.0,9148.0,887.0,87.0,2184.0
2.428483247756958,9.0,7492.0,11976.0,7716.0,7894.0,2207.0,3269.0,1884.0
2.4317333698272705,12.0,8304.0,12916.0,7571.0,3496.0,2814.0,1798.0,2602.0
2.434983253479004,17.0,5386.0,9760.0,7191.0,3670.0,2779.0,2988.0,1279.0
2.4382333755493164,14.0,8568.0,11720.0,9604.0,7669.0,2744.0,2102.0,1157.0
2.4415500164031982,10.0,8316.0,13848.0,12572.0,6539.0,2203.0,1402.0,3115.0
2.4447999000549316,19.0,7577.0,13632.0,11356.0,6510.0,6046.0,701.0,4097.0
2.448050022125244,12.0,8256.0,15144.0,10140.0,6995.0,5455.0,2615.0,12.0
2.4512999057769775,6.0,8932.0,15800.0,13436.0,7032.0,2557.0,1975.0,3736.0
2.45455002784729,5.0,8996.0,14976.0,7241.0,7069.0,2285.0,1336.0,1749.0
2.4578499794006348,16.0,7219.0,16264.0,9300.0,6667.0,2624.0,845.0,832.0
2.4611001014709473,15.0,5443.0,13736.0,6526.0,6266.0,995.0,354.0,849.0
2.4643499851226807,14.0,4639.0,10924.0,4212.0,4896.0,1005.0,968.0,1664.0
2.467600107192993,7.0,7634.0,8068.0,8528.0,5549.0,1015.0,486.0,0.0
2.4708499908447266,0.0,6641.0,6990.0,7729.0,5407.0,2064.0,5.0,881.0
2.4741666316986084,20.0,5648.0,9632.0,7638.0,5033.0,3112.0,224.0,701.0
2.477416753768921,11.0,2873.0,5072.0,4437.0,1090.0,2431.0,443.0,33.0
2.4806666374206543,16.0,1172.0,5240.0,1132.0,2568.0,898.0,230.0,443.0
2.483916759490967,0.0,360.0,2179.0,1711.0,2529.0,1253.0,16.0,854.0
2.4871666431427,160.0,74.0,2143.0,1293.0,5.0,20.0,236.0,29.0
2.4904167652130127,121.0,46.0,2184.0,47.0,76.0,40.0,121.0,33.0
2.4937167167663574,6.0,18.0,1670.0,571.0,1550.0,5.0,6.0,539.0
2.496966600418091,49.0,9.0,563.0,1130.0,266.0,5.0,12.0,22.0
2.5002167224884033,13.0,0.0,1582.0,27.0,27.0,5.0,18.0,15.0
2.5034666061401367,0.0,24.0,1672.0,558.0,31.0,19.0,15.0,688.0
2.506716728210449,21.0,27.0,462.0,32.0,578.0,13.0,11.0,17.0
2.510033369064331,5.0,16.0,11.0,13.0,763.0,6.0,10.0,60.0
2.5132832527160645,26.0,5.0,1557.0,8.0,104.0,8.0,0.0,35.0
2.516533374786377,12.0,12.0,0.0,74.0,19.0,10.0,9.0,22.0
2.5197832584381104,12.0,5.0,22.0,140.0,26.0,5.0,17.0,5.0
2.523033380508423,16.0,20.0,37.0,80.0,21.0,14.0,32.0,21.0
2.5263333320617676,13.0,15.0,32.0,20.0,20.0,22.0,21.0,13.0
2.529599905014038,10.0,9.0,26.0,0.0,14.0,24.0,32.0,15.0
2.5328500270843506,7.0,39.0,490.0,0.0,19.0,16.0,27.0,5.0
2.536099910736084,4.0,31.0,250.0,34.0,0.0,26.0,33.0,6.0
2.5393500328063965,0.0,23.0,10.0,67.0,14.0,7.0,29.0,6.0
2.542649984359741,0.0,26.0,41.0,54.0,27.0,12.0,25.0,0.0
2.5459001064300537,5.0,29.0,32.0,75.0,5.0,0.0,22.0,0.0
2.549149990081787,10.0,35.0,30.0,69.0,5.0,0.0,19.0,0.0
2.5524001121520996,9.0,37.0,28.0,25.0,5.0,7.0,5.0,0.0
2.555649995803833,7.0,10.0,14.0,22.0,9.0,29.0,0.0,0.0
2.5589499473571777,4.0,20.0,24.0,5.0,12.0,21.0,29.0,13.0
2.5622000694274902,0.0,29.0,35.0,19.0,11.0,13.0,16.0,10.0
2.5654666423797607,0.0,8.0,33.0,25.0,38.0,12.0,34.0,0.0
2.5687167644500732,0.0,6.0,29.0,27.0,32.0,12.0,0.0,5.0
2.5719666481018066,36.0,10.0,24.0,16.0,25.0,12.0,399.0,0.0
2.575216770172119,41.0,14.0,6.0,16.0,30.0,10.0,223.0,5.0
2.578516721725464,62.0,34.0,5.0,39.0,46.0,27.0,47.0,8.0
2.5817666053771973,13.0,25.0,22.0,39.0,5.0,24.0,15.0,11.0
2.5850167274475098,0.0,17.0,6.0,39.0,52.0,27.0,0.0,18.0
2.588266611099243,13.0,13.0,8.0,19.0,21.0,29.0,5.0,26.0
2.5915167331695557,25.0,14.0,10.0,0.0,31.0,5.0,17.0,28.0
2.5948166847229004,20.0,14.0,24.0,5.0,24.0,21.0,27.0,33.0
2.598083257675171,13.0,10.0,48.0,6.0,12.0,37.0,38.0,38.0
2.6013333797454834,19.0,5.0,30.0,0.0,0.0,19.0,27.0,17.0
2.604583263397217,24.0,3.0,12.0,33.0,3.0,11.0,17.0,10.0
2.6078333854675293,7.0,0.0,5.0,21.0,6.0,12.0,20.0,8.0
2.6110999584198,0.0,15.0,11.0,8.0,11.0,6.0,0.0,5.0
2.6143500804901123,0.0,20.0,16.0,10.0,13.0,0.0,13.0,5.0
2.6175999641418457,0.0,21.0,0.0,11.0,15.0,5.0,16.0,5.0
2.620850086212158,0.0,21.0,18.0,28.0,5.0,5.0,19.0,14.0
2.6240999698638916,3.0,10.0,5.0,34.0,10.0,7.0,17.0,22.0
2.6274166107177734,6.0,20.0,5.0,18.0,15.0,8.0,5.0,21.0
2.630666732788086,17.0,22.0,6.0,23.0,23.0,34.0,13.0,5.0
2.6339166164398193,21.0,23.0,7.0,18.0,22.0,742.0,6.0,11.0
2.637166738510132,22.0,14.0,4.0,18.0,21.0,383.0,9.0,16.0
2.6404166221618652,12.0,31.0,0.0,18.0,0.0,24.0,12.0,33.0
2.64371657371521,44.0,34.0,35.0,19.0,9.0,12.0,12.0,28.0
2.6469666957855225,24.0,11.0,29.0,19.0,18.0,5.0,12.0,24.0
2.650216579437256,5.0,6.0,44.0,15.0,9.0,12.0,10.0,0.0
2.6534667015075684,42.0,0.0,869.0,42.0,0.0,19.0,7.0,38.0
2.656733274459839,6.0,0.0,938.0,37.0,13.0,33.0,7.0,7.0
2.6599833965301514,0.0,0.0,51.0,21.0,5.0,34.0,10.0,8.0
2.663249969482422,5.0,0.0,14.0,23.0,11.0,37.0,7.0,22.0
2.6665000915527344,10.0,0.0,721.0,20.0,21.0,13.0,20.0,7.0
2.6697499752044678,5.0,4.0,27.0,12.0,22.0,10.0,16.0,17.0
2.6730000972747803,0.0,7.0,661.0,20.0,23.0,14.0,11.0,27.0
2.676266670227051,39.0,9.0,39.0,29.0,30.0,23.0,28.0,14.0
2.6795666217803955,26.0,10.0,12.0,25.0,0.0,28.0,0.0,15.0
2.682816743850708,13.0,21.0,10.0,21.0,3.0,33.0,34.0,5.0
2.6860666275024414,38.0,33.0,6.0,10.0,5.0,19.0,25.0,18.0
2.689316749572754,15.0,30.0,34.0,12.0,8.0,42.0,33.0,14.0
2.6925666332244873,14.0,27.0,27.0,13.0,11.0,10.0,29.0,21.0
2.695883274078369,12.0,18.0,27.0,14.0,6.0,27.0,25.0,5.0
2.6991333961486816,22.0,16.0,23.0,7.0,0.0,45.0,15.0,3.0
2.702383279800415,30.0,13.0,10.0,25.0,0.0,15.0,0.0,0.0
2.7056334018707275,27.0,7.0,18.0,26.0,0.0,33.0,18.0,18.0
2.708883285522461,5.0,18.0,5.0,13.0,0.0,7.0,15.0,36.0
2.7121832370758057,8.0,28.0,55.0,0.0,28.0,25.0,8.0,26.0
2.7154500484466553,9.0,21.0,46.0,25.0,25.0,13.0,0.0,23.0
2.7186999320983887,10.0,14.0,31.0,43.0,21.0,19.0,7.0,19.0
2.721950054168701,8.0,33.0,54.0,36.0,20.0,24.0,14.0,18.0
2.7251999378204346,17.0,29.0,28.0,14.0,27.0,16.0,15.0,16.0
2.7284998893737793,21.0,25.0,12.0,0.0,15.0,7.0,16.0,12.0
2.731750011444092,24.0,15.0,33.0,17.0,18.0,22.0,18.0,24.0
2.734999895095825,21.0,14.0,11.0,6.0,20.0,22.0,18.0,5.0
2.7382500171661377,23.0,13.0,11.0,12.0,17.0,5.0,17.0,11.0
2.741499900817871,0.0,9.0,10.0,5.0,14.0,12.0,15.0,17.0
2.744800090789795,21.0,5.0,13.0,11.0,12.0,11.0,0.0,0.0
2.7480666637420654,18.0,17.0,12.0,17.0,0.0,17.0,0.0,17.0
2.751316785812378,15.0,18.0,11.0,15.0,10.0,26.0,9.0,5.0
2.7545666694641113,5.0,19.0,14.0,10.0,17.0,16.0,18.0,326.0
2.7578165531158447,0.0,36.0,15.0,11.0,14.0,5.0,18.0,180.0
2.7610666751861572,3.0,53.0,0.0,15.0,10.0,25.0,11.0,35.0
2.764383316040039,5.0,53.0,12.0,14.0,45.0,31.0,23.0,16.0
2.7676334381103516,16.0,5.0,18.0,13.0,89.0,47.0,11.0,7.0
2.770883321762085,13.0,36.0,8.0,11.0,50.0,0.0,20.0,40.0
2.7741334438323975,10.0,16.0,11.0,21.0,12.0,5.0,20.0,13.0
2.777383327484131,32.0,20.0,13.0,22.0,119.0,10.0,5.0,15.0
2.7806832790374756,22.0,0.0,16.0,6.0,12.0,10.0,21.0,39.0
2.783933401107788,13.0,5.0,5.0,9.0,10.0,15.0,22.0,24.0
2.7871832847595215,18.0,5.0,21.0,27.0,54.0,19.0,18.0,10.0
2.790433406829834,15.0,5.0,18.0,26.0,28.0,20.0,22.0,39.0
2.7936999797821045,5.0,16.0,15.0,24.0,20.0,18.0,26.0,40.0
2.796999931335449,0.0,14.0,22.0,0.0,11.0,16.0,25.0,42.0
2.8002500534057617,0.0,12.0,28.0,15.0,13.0,25.0,25.0,15.0
2.803499937057495,6.0,24.0,34.0,6.0,14.0,25.0,17.0,15.0
2.8067500591278076,12.0,19.0,11.0,40.0,629.0,25.0,28.0,6.0
2.809999942779541,12.0,13.0,34.0,56.0,837.0,24.0,25.0,27.0
2.8132998943328857,12.0,5.0,8.0,37.0,786.0,24.0,22.0,748.0
2.8165500164031982,12.0,17.0,4.0,21.0,396.0,24.0,7.0,973.0
2.8197999000549316,21.0,9.0,0.0,5.0,1800.0,15.0,13.0,79.0
2.8230667114257812,20.0,0.0,10.0,11.0,1813.0,21.0,18.0,10.0
2.8263165950775146,22.0,15.0,11.0,15.0,1524.0,27.0,8.0,0.0
2.8296000957489014,7.0,57.0,14.0,27.0,1255.0,14.0,6.0,4.0
2.832866668701172,13.0,48.0,17.0,21.0,1513.0,0.0,18.0,7.0
2.8361165523529053,10.0,0.0,14.0,7.0,1771.0,51.0,625.0,20.0
2.839383363723755,5.0,18.0,10.0,9.0,680.0,49.0,1570.0,20.0
2.8426332473754883,15.0,23.0,7.0,11.0,2687.0,48.0,2515.0,19.0
2.845883369445801,15.0,29.0,19.0,26.0,30.0,12.0,9084.0,0.0
2.8491833209991455,15.0,0.0,0.0,16.0,3575.0,10.0,8896.0,39.0
2.852433443069458,12.0,18.0,13.0,5.0,2822.0,12.0,12920.0,1752.0
2.8556833267211914,9.0,18.0,26.0,8.0,1451.0,15.0,13892.0,1470.0
2.858933448791504,5.0,17.0,5.0,11.0,22.0,13.0,14860.0,604.0
2.8621833324432373,13.0,0.0,5.0,10.0,853.0,11.0,32056.0,3002.0
2.865483283996582,20.0,19.0,10.0,5.0,1048.0,0.0,28696.0,3436.0
2.8687334060668945,19.0,35.0,0.0,5.0,398.0,7.0,44080.0,1703.0
2.871999979019165,26.0,40.0,6.0,16.0,37.0,24.0,40048.0,1784.0
2.8752501010894775,48.0,30.0,11.0,15.0,79.0,19.0,42880.0,2041.0
2.878499984741211,52.0,32.0,0.0,16.0,52.0,16.0,46960.0,2198.0
2.8817999362945557,57.0,6.0,3.0,35.0,24.0,33.0,49520.0,1921.0
2.885050058364868,52.0,14.0,5.0,34.0,17.0,16.0,56544.0,1644.0
2.8883166313171387,46.0,19.0,3.0,33.0,10.0,0.0,53696.0,2932.0
2.891566753387451,48.0,10.0,0.0,26.0,24.0,13.0,43952.0,2328.0
2.8948166370391846,13.0,15.0,0.0,35.0,32.0,27.0,55296.0,1725.0
2.8981165885925293,0.0,8.0,37.0,16.0,6.0,36.0,54896.0,1322.0
2.901366710662842,19.0,0.0,48.0,44.0,23.0,5.0,37184.0,1646.0
2.904616594314575,20.0,26.0,29.0,13.0,34.0,16.0,35936.0,1970.0
2.907883405685425,26.0,23.0,5.0,5.0,0.0,20.0,23992.0,633.0
2.911133289337158,13.0,0.0,0.0,26.0,14.0,11.0,26796.0,638.0
2.914416551589966,0.0,10.0,49.0,15.0,27.0,7.0,15040.0,624.0
2.9176666736602783,16.0,14.0,39.0,19.0,22.0,10.0,13852.0,5.0
2.9209165573120117,33.0,0.0,29.0,7.0,14.0,10.0,5095.0,751.0
2.924166679382324,43.0,12.0,14.0,13.0,25.0,23.0,5604.0,44.0
2.9274165630340576,10.0,12.0,18.0,14.0,17.0,37.0,4251.0,665.0
2.93066668510437,15.0,12.0,9.0,5.0,0.0,37.0,2657.0,1037.0
2.933966636657715,40.0,12.0,0.0,18.0,18.0,33.0,3295.0,31.0
2.9372167587280273,47.0,12.0,10.0,9.0,36.0,29.0,1899.0,0.0
2.9404666423797607,54.0,17.0,0.0,0.0,58.0,49.0,143.0,545.0
2.9437167644500732,17.0,23.0,10.0,8.0,37.0,34.0,806.0,12.0
2.9469666481018066,21.0,27.0,11.0,16.0,15.0,18.0,1654.0,46.0
2.9502832889556885,13.0,31.0,12.0,22.0,5.0,26.0,896.0,33.0
2.953533411026001,6.0,24.0,12.0,14.0,12.0,19.0,458.0,58.0
2.9567832946777344,0.0,19.0,11.0,7.0,17.0,23.0,20.0,22.0
2.960033416748047,6.0,14.0,15.0,0.0,21.0,24.0,668.0,15.0
2.9632833003997803,11.0,14.0,18.0,29.0,11.0,12.0,827.0,31.0
2.966599941253662,15.0,13.0,5.0,21.0,0.0,33.0,1281.0,5.0
2.9698500633239746,19.0,12.0,12.0,0.0,3.0,5.0,0.0,31.0
2.973099946975708,30.0,11.0,18.0,0.0,5.0,5.0,1248.0,30.0
2.9763500690460205,42.0,26.0,0.0,0.0,10.0,5.0,68.0,30.0
2.979599952697754,55.0,42.0,30.0,0.0,17.0,9.0,1203.0,26.0
2.9828999042510986,48.0,47.0,23.0,18.0,23.0,13.0,620.0,0.0
2.986150026321411,10.0,53.0,21.0,9.0,25.0,10.0,320.0,26.0
2.9893999099731445,10.0,48.0,5.0,0.0,26.0,9.0,20.0,21.0
2.992650032043457,75.0,24.0,22.0,8.0,33.0,8.0,8.0,5.0
2.9958999156951904,45.0,7.0,12.0,16.0,32.0,5.0,588.0,11.0
