,289.1099853515625,290.1099853515625,291.1099853515625,292.1099853515625,293.1099853515625,294.1099853515625
2.551300048828125,29.0,14.0,18.0,21.0,0.0,53.0
2.5525999069213867,949.0,38.0,741.0,16.0,47.0,5.0
2.5539000034332275,15.0,6.0,855.0,53.0,49.0,40.0
2.5552000999450684,30.0,14.0,82.0,28.0,10.0,5.0
2.55649995803833,17.0,21.0,20.0,54.0,10.0,18.0
2.557800054550171,8.0,21.0,911.0,22.0,5.0,10.0
2.5590999126434326,10.0,20.0,10.0,20.0,24.0,17.0
2.5604000091552734,16.0,16.0,669.0,18.0,69.0,23.0
2.5617001056671143,8.0,7.0,10.0,15.0,55.0,28.0
2.562999963760376,0.0,12.0,15.0,27.0,627.0,32.0
2.564300060272217,0.0,16.0,20.0,16.0,573.0,24.0
2.5655999183654785,0.0,495.0,16.0,5.0,658.0,16.0
2.5669000148773193,12.0,256.0,11.0,21.0,458.0,5.0
2.5682666301727295,8.0,17.0,462.0,19.0,10.0,15.0
2.5695667266845703,5.0,13.0,771.0,17.0,21.0,25.0
2.570866584777832,31.0,16.0,468.0,773.0,6.0,0.0
2.572166681289673,15.0,2185.0,1133.0,954.0,397.0,29.0
2.5734667778015137,0.0,1757.0,1405.0,21.0,787.0,7.0
2.5747666358947754,24.0,35.0,1047.0,906.0,403.0,28.0
2.576066732406616,28.0,1210.0,688.0,539.0,18.0,37.0
2.577366590499878,32.0,1089.0,1586.0,682.0,1461.0,21.0
2.5786666870117188,24.0,1148.0,2407.0,173.0,1697.0,5.0
2.5799667835235596,13.0,709.0,2333.0,169.0,23.0,57.0
2.5812666416168213,54.0,304.0,612.0,166.0,26.0,47.0
2.582566738128662,61.0,649.0,1217.0,345.0,50.0,565.0
2.583866596221924,0.0,2045.0,2815.0,450.0,23.0,289.0
2.585233449935913,20.0,2720.0,3258.0,555.0,35.0,12.0
2.586533308029175,18.0,2982.0,3872.0,754.0,944.0,362.0
2.5878334045410156,16.0,2314.0,3282.0,953.0,687.0,186.0
2.5891332626342773,23.0,1142.0,1658.0,1453.0,429.0,10.0
2.590433359146118,18.0,806.0,3522.0,1800.0,0.0,10.0
2.59173321723938,12.0,576.0,1822.0,63.0,822.0,6.0
2.5930333137512207,27.0,655.0,3273.0,2023.0,563.0,59.0
2.5943334102630615,14.0,899.0,218.0,448.0,304.0,46.0
2.5956332683563232,0.0,1143.0,3224.0,1446.0,768.0,34.0
2.596933364868164,31.0,1461.0,5259.0,649.0,654.0,34.0
2.598233222961426,45.0,3455.0,1078.0,1462.0,45.0,34.0
2.5995333194732666,58.0,3569.0,1541.0,2211.0,884.0,26.0
2.6008334159851074,34.0,2581.0,3120.0,2040.0,1497.0,19.0
2.6021833419799805,20.0,1088.0,52.0,28.0,1017.0,34.0
2.6034834384918213,44.0,921.0,3079.0,1360.0,536.0,35.0
2.604783296585083,29.0,1852.0,4620.0,1052.0,1373.0,35.0
2.606083393096924,45.0,1748.0,1912.0,915.0,423.0,35.0
2.6073832511901855,0.0,1644.0,1215.0,869.0,939.0,34.0
2.6086833477020264,38.0,1538.0,2466.0,823.0,577.0,20.0
2.609983444213867,18.0,1433.0,989.0,791.0,579.0,5.0
2.611283302307129,25.0,16.0,2573.0,760.0,1341.0,17.0
2.6125833988189697,15.0,2054.0,2019.0,1720.0,822.0,28.0
2.6138832569122314,20.0,3219.0,981.0,2729.0,303.0,1312.0
2.6151833534240723,0.0,4738.0,1215.0,2176.0,173.0,1017.0
2.616483449935913,35.0,28.0,1448.0,1623.0,44.0,85.0
2.617783308029175,22.0,1330.0,2053.0,1709.0,33.0,34.0
2.619149923324585,29.0,58.0,1832.0,301.0,22.0,602.0
2.620450019836426,40.0,244.0,1610.0,2948.0,822.0,44.0
2.6217501163482666,24.0,431.0,1007.0,3006.0,1889.0,855.0
2.6230499744415283,45.0,416.0,1124.0,567.0,2195.0,383.0
2.624350070953369,37.0,402.0,1241.0,2110.0,30.0,75.0
2.625649929046631,32.0,46.0,992.0,570.0,0.0,553.0
2.6269500255584717,27.0,41.0,743.0,23.0,1189.0,24.0
2.6282498836517334,9.0,35.0,1161.0,6.0,1663.0,157.0
2.629549980163574,19.0,41.0,1099.0,44.0,951.0,88.0
2.630850076675415,51.0,41.0,1037.0,502.0,671.0,19.0
2.6321499347686768,41.0,41.0,747.0,961.0,53.0,542.0
2.6334500312805176,33.0,29.0,457.0,767.0,44.0,356.0
2.6347498893737793,7.0,32.0,25.0,230.0,35.0,170.0
2.6361167430877686,56.0,36.0,21.0,1241.0,21.0,64.0
2.6374166011810303,39.0,31.0,776.0,1307.0,20.0,41.0
2.638716697692871,21.0,27.0,934.0,17.0,19.0,18.0
2.640016555786133,15.0,306.0,1091.0,42.0,20.0,65.0
2.6413166522979736,30.0,180.0,301.0,37.0,21.0,29.0
2.6426167488098145,26.0,54.0,6.0,32.0,49.0,24.0
2.643916606903076,21.0,44.0,28.0,10.0,36.0,19.0
2.645216703414917,10.0,27.0,40.0,53.0,23.0,59.0
2.6465165615081787,20.0,10.0,28.0,36.0,29.0,45.0
2.6478166580200195,16.0,8.0,17.0,19.0,39.0,30.0
2.6491167545318604,11.0,562.0,31.0,45.0,60.0,16.0
2.650416612625122,10.0,289.0,37.0,1153.0,81.0,55.0
2.651716709136963,5.0,16.0,44.0,585.0,5.0,531.0
2.653066635131836,5.0,41.0,25.0,18.0,422.0,285.0
2.6543667316436768,21.0,0.0,20.0,73.0,838.0,40.0
2.6556665897369385,88.0,30.0,9.0,621.0,892.0,28.0
2.6569666862487793,98.0,37.0,25.0,16.0,574.0,645.0
2.65826678276062,10.0,33.0,27.0,16.0,11.0,339.0
2.659566640853882,52.0,0.0,28.0,16.0,424.0,33.0
2.6608667373657227,35.0,24.0,39.0,24.0,1449.0,27.0
2.6621665954589844,26.0,23.0,50.0,31.0,732.0,76.0
2.663466691970825,59.0,18.0,41.0,59.0,15.0,124.0
2.664766550064087,32.0,0.0,28.0,30.0,32.0,102.0
2.6660666465759277,20.0,10.0,9.0,0.0,28.0,79.0
2.6673667430877686,29.0,0.0,27.0,18.0,48.0,41.0
2.6686666011810303,38.0,34.0,27.0,21.0,35.0,10.0
2.6700332164764404,47.0,41.0,37.0,23.0,21.0,73.0
2.6713333129882812,53.0,48.0,35.0,10.0,277.0,137.0
2.672633409500122,59.0,45.0,33.0,16.0,144.0,76.0
2.673933267593384,49.0,43.0,21.0,25.0,10.0,16.0
2.6752333641052246,38.0,53.0,23.0,33.0,519.0,21.0
2.6765332221984863,5.0,90.0,25.0,61.0,285.0,25.0
2.677833318710327,58.0,670.0,18.0,41.0,52.0,22.0
2.679133415222168,287.0,663.0,0.0,21.0,237.0,18.0
2.6804332733154297,516.0,664.0,13.0,15.0,172.0,21.0
2.6817333698272705,1195.0,664.0,15.0,15.0,16.0,40.0
2.6830332279205322,610.0,344.0,17.0,15.0,32.0,34.0
2.684333324432373,24.0,23.0,20.0,16.0,47.0,5.0
2.685633420944214,20.0,40.0,46.0,17.0,37.0,394.0
2.687000036239624,18.0,56.0,43.0,27.0,26.0,213.0
2.6882998943328857,1420.0,406.0,55.0,34.0,12.0,32.0
2.6895999908447266,1320.0,206.0,6.0,28.0,1174.0,12.0
2.6909000873565674,785.0,6.0,11.0,21.0,601.0,24.0
2.692199945449829,1954.0,42.0,15.0,29.0,27.0,37.0
2.69350004196167,5.0,403.0,14.0,15.0,1261.0,18.0
2.6947999000549316,593.0,215.0,12.0,24.0,33.0,0.0
2.6960999965667725,671.0,26.0,13.0,8.0,5.0,0.0
2.6974000930786133,824.0,37.0,13.0,7.0,1688.0,9.0
2.698699951171875,923.0,48.0,12.0,7.0,22.0,21.0
2.700000047683716,918.0,1038.0,10.0,6.0,15.0,33.0
2.7012999057769775,670.0,530.0,25.0,5.0,143.0,39.0
2.7026000022888184,422.0,21.0,41.0,10.0,45.0,44.0
2.7039499282836914,154.0,707.0,26.0,11.0,41.0,28.0
2.7052500247955322,1282.0,359.0,12.0,25.0,6.0,12.0
2.706566572189331,1876.0,11.0,42.0,42.0,0.0,22.0
2.7078499794006348,1209.0,30.0,31.0,24.0,20.0,41.0
2.7091500759124756,1798.0,638.0,32.0,5.0,49.0,34.0
2.7104499340057373,570.0,1170.0,33.0,15.0,52.0,7.0
2.7117667198181152,34.0,850.0,35.0,23.0,55.0,16.0
2.71304988861084,81.0,786.0,5.0,24.0,5.0,42.0
2.7143499851226807,805.0,20.0,24.0,24.0,72.0,29.0
2.7156500816345215,1626.0,38.0,46.0,12.0,49.0,55.0
2.716949939727783,1083.0,795.0,16.0,22.0,10.0,53.0
2.718250036239624,178.0,935.0,41.0,30.0,31.0,51.0
2.7195498943328857,1976.0,15.0,31.0,26.0,27.0,405.0
2.720916748046875,1740.0,1372.0,15.0,22.0,28.0,203.0
2.7222166061401367,224.0,30.0,23.0,20.0,45.0,0.0
2.7235167026519775,5.0,35.0,27.0,17.0,39.0,348.0
2.7248165607452393,1746.0,1573.0,10.0,16.0,32.0,21.0
2.72611665725708,22.0,416.0,30.0,24.0,24.0,10.0
2.727416753768921,6.0,1439.0,23.0,17.0,25.0,25.0
2.7287166118621826,26.0,7.0,10.0,10.0,25.0,26.0
2.7300167083740234,827.0,63.0,26.0,46.0,27.0,26.0
2.731316566467285,1213.0,511.0,9.0,28.0,20.0,31.0
2.732616662979126,841.0,973.0,10.0,10.0,13.0,27.0
2.733916759490967,616.0,634.0,22.0,6.0,20.0,23.0
2.7352166175842285,391.0,295.0,7.0,7.0,5.0,39.0
2.7365167140960693,1753.0,381.0,13.0,15.0,36.0,5.0
2.7378666400909424,2135.0,468.0,5.0,17.0,35.0,5.0
2.739166736602783,21.0,12.0,32.0,23.0,34.0,5.0
2.740466594696045,36.0,234.0,27.0,19.0,17.0,5.0
2.7417666912078857,426.0,937.0,21.0,16.0,35.0,10.0
2.7430665493011475,40.0,1121.0,46.0,16.0,23.0,10.0
2.7443666458129883,417.0,35.0,29.0,16.0,10.0,25.0
2.745666742324829,11.0,43.0,12.0,10.0,5.0,30.0
2.746966600418091,707.0,88.0,31.0,111.0,15.0,38.0
2.7482666969299316,356.0,53.0,27.0,211.0,28.0,31.0
2.7495665550231934,5.0,18.0,27.0,181.0,26.0,34.0
2.750866651535034,26.0,36.0,30.0,8.0,24.0,37.0
2.752166748046875,29.0,54.0,21.0,42.0,17.0,34.0
2.7534666061401367,12.0,251.0,0.0,6.0,32.0,5.0
2.754833221435547,558.0,142.0,34.0,22.0,25.0,38.0
2.7561333179473877,393.0,33.0,35.0,0.0,18.0,458.0
2.7574334144592285,228.0,28.0,35.0,10.0,212.0,248.0
2.7587332725524902,5.0,1867.0,1299.0,28.0,406.0,38.0
2.760033369064331,7.0,2290.0,1345.0,46.0,937.0,25.0
2.7613332271575928,32.0,2277.0,1891.0,1684.0,494.0,24.0
2.7626333236694336,13.0,3185.0,2436.0,1404.0,51.0,12.0
2.7639334201812744,16.0,4261.0,5126.0,1123.0,3790.0,330.0
2.765233278274536,17.0,5338.0,5230.0,6635.0,7027.0,647.0
2.766533374786377,10.0,9932.0,9024.0,10608.0,4457.0,1477.0
2.7678332328796387,18.0,16208.0,27248.0,15444.0,18128.0,2588.0
2.7691333293914795,26.0,21212.0,30372.0,18952.0,15148.0,6067.0
2.7704334259033203,0.0,23892.0,34352.0,24480.0,25912.0,5796.0
2.7718000411987305,10.0,40192.0,63760.0,42096.0,29440.0,12276.0
2.773099899291992,20.0,65200.0,69488.0,42144.0,33088.0,13872.0
2.774399995803833,25.0,68304.0,93952.0,57488.0,45632.0,16232.0
2.775700092315674,29.0,100192.0,131840.0,80000.0,45232.0,26312.0
2.7769999504089355,40.0,135680.0,164736.0,94512.0,72128.0,25268.0
2.7783000469207764,49.0,146816.0,215680.0,126560.0,84368.0,40768.0
2.779599905014038,59.0,166656.0,264448.0,151424.0,114528.0,38704.0
2.780900001525879,51.0,204416.0,304256.0,208192.0,138560.0,36784.0
2.7822000980377197,12.0,264896.0,341760.0,194112.0,177984.0,47008.0
2.7834999561309814,66.0,313408.0,419200.0,238336.0,157632.0,64752.0
2.7848000526428223,44.0,356224.0,456320.0,296960.0,197760.0,68864.0
2.786099910736084,48.0,375040.0,533248.0,307136.0,219648.0,85776.0
2.787400007247925,26.0,473920.0,629504.0,373568.0,260480.0,80064.0
2.788766622543335,49.0,485440.0,662784.0,401280.0,272320.0,100160.0
2.7900500297546387,71.0,505088.0,765696.0,422080.0,333312.0,91968.0
2.7913498878479004,72.0,607744.0,829696.0,480768.0,350848.0,116400.0
2.792649984359741,73.0,688384.0,882944.0,514560.0,385024.0,139328.0
2.793950080871582,84.0,675584.0,919552.0,517760.0,427904.0,148288.0
2.7952499389648438,104.0,781312.0,1011968.0,535296.0,446976.0,122880.0
2.7965500354766846,101.0,770816.0,1063424.0,552960.0,409856.0,131968.0
2.7978498935699463,97.0,847104.0,1147392.0,632320.0,474944.0,153088.0
2.799149990081787,54.0,850944.0,1155584.0,732416.0,492736.0,152704.0
2.800450086593628,102.0,936448.0,1194496.0,699648.0,472960.0,177472.0
2.8017499446868896,83.0,987136.0,1329408.0,803072.0,552960.0,184000.0
2.8030667304992676,63.0,962560.0,1324032.0,780544.0,594688.0,162816.0
2.804349899291992,175.0,1099008.0,1453056.0,789248.0,582656.0,159808.0
2.8057167530059814,137.0,1150976.0,1387264.0,836864.0,575488.0,156736.0
2.807016611099243,99.0,1205248.0,1484800.0,867584.0,622592.0,169088.0
2.808316707611084,134.0,1116160.0,1622016.0,921856.0,677888.0,181376.0
2.8096165657043457,168.0,1182976.0,1556480.0,1000960.0,709376.0,200832.0
2.8109166622161865,154.0,1276160.0,1744896.0,962048.0,695808.0,228096.0
2.8122167587280273,140.0,1226752.0,1671168.0,1006336.0,697856.0,222656.0
2.813516616821289,178.0,1245440.0,1771008.0,923904.0,730368.0,210240.0
2.81481671333313,155.0,1307136.0,1746432.0,996352.0,750080.0,230848.0
2.8161165714263916,132.0,1343744.0,1910016.0,1084672.0,725504.0,239104.0
2.8174166679382324,140.0,1369344.0,1870848.0,1080576.0,700672.0,214464.0
2.8187167644500732,208.0,1364480.0,1795840.0,1039872.0,718848.0,235008.0
2.820016622543335,202.0,1358848.0,1875968.0,1059840.0,772608.0,235840.0
2.821316719055176,162.0,1353216.0,1868288.0,1079552.0,797952.0,236736.0
2.822683334350586,199.0,1424384.0,1860608.0,1036288.0,769280.0,211776.0
2.8239834308624268,231.0,1411328.0,1815296.0,1071616.0,775936.0,232640.0
2.8252832889556885,262.0,1398016.0,1907968.0,1075200.0,756992.0,206720.0
2.8265833854675293,230.0,1346816.0,1799680.0,983296.0,756736.0,219648.0
2.827883243560791,183.0,1373696.0,1915136.0,1095424.0,766976.0,224896.0
2.829183340072632,185.0,1372928.0,1876480.0,1078784.0,735232.0,237632.0
2.8304834365844727,187.0,1359104.0,1838080.0,1089792.0,779264.0,255616.0
2.8317832946777344,190.0,1345280.0,1744128.0,997888.0,799744.0,253312.0
2.833083391189575,193.0,1374208.0,1853440.0,986368.0,715264.0,220480.0
2.834383249282837,139.0,1302784.0,1696256.0,952832.0,699136.0,210752.0
2.8356833457946777,129.0,1274368.0,1679616.0,1022976.0,739072.0,215424.0
2.8369834423065186,119.0,1312000.0,1643264.0,941056.0,690432.0,229184.0
2.8382833003997803,112.0,1275648.0,1656064.0,967424.0,647936.0,199872.0
2.8396499156951904,105.0,1189888.0,1615872.0,918272.0,652544.0,195776.0
2.8409500122070312,173.0,1216512.0,1553920.0,861184.0,582912.0,177536.0
2.842250108718872,176.0,1103104.0,1592832.0,927488.0,617216.0,174784.0
2.843549966812134,179.0,1163520.0,1433856.0,869120.0,633344.0,180992.0
2.8448500633239746,243.0,990464.0,1364992.0,801024.0,595456.0,173312.0
2.8461499214172363,217.0,1097216.0,1284352.0,835328.0,566784.0,185792.0
2.847450017929077,192.0,984576.0,1272320.0,705792.0,508800.0,161536.0
2.848750114440918,172.0,971776.0,1240064.0,776192.0,482624.0,149376.0
2.8500499725341797,158.0,919040.0,1169664.0,677376.0,459584.0,122336.0
2.8513500690460205,167.0,871936.0,1103360.0,609792.0,422080.0,127568.0
2.8526499271392822,175.0,765696.0,1039104.0,605440.0,430400.0,127840.0
2.853950023651123,152.0,766464.0,1016320.0,580096.0,393216.0,112816.0
2.8552498817443848,193.0,696832.0,900096.0,485440.0,378816.0,99616.0
2.856616735458374,115.0,617728.0,839424.0,447104.0,344960.0,102944.0
2.8579165935516357,132.0,633856.0,838144.0,467712.0,292608.0,92464.0
2.8592166900634766,157.0,580352.0,691456.0,394368.0,292864.0,91600.0
2.8605165481567383,153.0,515456.0,624384.0,348736.0,273152.0,79392.0
2.861816644668579,167.0,426752.0,542464.0,315968.0,237312.0,60160.0
2.86311674118042,124.0,420352.0,550400.0,284288.0,202432.0,64464.0
2.8644165992736816,140.0,364864.0,473152.0,261696.0,198592.0,56576.0
2.8657166957855225,99.0,334208.0,416896.0,218304.0,170560.0,45488.0
2.867016553878784,113.0,310720.0,356544.0,190400.0,130080.0,50176.0
2.868316650390625,117.0,247552.0,298752.0,180160.0,114944.0,29684.0
2.869616746902466,64.0,202752.0,296512.0,167936.0,103520.0,36432.0
2.8709166049957275,56.0,217664.0,238656.0,150272.0,97344.0,26992.0
2.8722167015075684,116.0,182272.0,218944.0,120736.0,80192.0,22196.0
2.8735666275024414,114.0,146752.0,202752.0,109024.0,73776.0,19144.0
2.8748667240142822,102.0,129456.0,177856.0,103824.0,68656.0,15872.0
2.876166582107544,29.0,113728.0,161728.0,89312.0,71328.0,9356.0
2.8774666786193848,66.0,97440.0,133120.0,66736.0,52000.0,15900.0
2.8787667751312256,71.0,86288.0,133440.0,61696.0,43328.0,15536.0
2.8800666332244873,75.0,102336.0,112560.0,58736.0,40816.0,16332.0
2.881366729736328,65.0,78384.0,99456.0,53056.0,20428.0,5506.0
2.88266658782959,56.0,69264.0,88144.0,53488.0,37200.0,8064.0
2.8839666843414307,60.0,57120.0,66656.0,40160.0,21860.0,6517.0
2.8852667808532715,65.0,54080.0,60544.0,35584.0,32752.0,6882.0
2.886566638946533,42.0,58352.0,47552.0,30844.0,19756.0,5350.0
2.887866735458374,19.0,44592.0,59120.0,35616.0,16872.0,5935.0
2.8891665935516357,109.0,38080.0,49568.0,32116.0,13932.0,4985.0
2.890533447265625,111.0,34896.0,54176.0,18880.0,14248.0,4454.0
2.8918333053588867,111.0,40576.0,50944.0,25320.0,16548.0,5527.0
2.8931334018707275,73.0,29796.0,41552.0,32164.0,13456.0,5154.0
2.8944332599639893,103.0,32760.0,32540.0,20568.0,11796.0,4782.0
2.89573335647583,61.0,34032.0,39312.0,22828.0,15720.0,4458.0
2.897033214569092,45.0,18444.0,38688.0,14704.0,10000.0,581.0
2.8983333110809326,301.0,32240.0,24816.0,23300.0,12244.0,4931.0
2.8996334075927734,558.0,19876.0,24748.0,13332.0,17572.0,2907.0
2.900933265686035,756.0,25240.0,35168.0,20804.0,9516.0,3847.0
2.902233362197876,87.0,21404.0,31820.0,12100.0,12380.0,4093.0
2.9035332202911377,61.0,18564.0,21740.0,15132.0,10540.0,1058.0
2.9048333168029785,40.0,8972.0,20200.0,10976.0,8768.0,2342.0
2.9061334133148193,34.0,15512.0,11736.0,11772.0,6993.0,4173.0
2.9075000286102295,28.0,16992.0,15284.0,14432.0,6188.0,1342.0
2.908799886703491,84.0,13380.0,19792.0,10012.0,6998.0,2894.0
2.910099983215332,78.0,11924.0,14544.0,9556.0,7023.0,572.0
2.911400079727173,67.0,10868.0,14000.0,9232.0,7048.0,59.0
2.9126999378204346,33.0,12888.0,19492.0,9136.0,3760.0,3285.0
2.9140000343322754,17.0,11272.0,11012.0,9256.0,5964.0,2891.0
2.915299892425537,48.0,9404.0,20328.0,9376.0,3821.0,907.0
2.916599988937378,40.0,11984.0,11916.0,5993.0,1871.0,1065.0
2.9179000854492188,32.0,8644.0,5598.0,6226.0,3025.0,2142.0
2.9191999435424805,36.0,6137.0,14016.0,7306.0,4054.0,2251.0
2.9205000400543213,40.0,11120.0,8284.0,6603.0,2484.0,1376.0
2.921799898147583,45.0,6754.0,8556.0,6196.0,4305.0,884.0
2.923099994659424,51.0,7919.0,7605.0,1858.0,2108.0,493.0
2.924466609954834,52.0,5414.0,5774.0,3930.0,1132.0,24.0
2.925766706466675,54.0,5460.0,2834.0,3280.0,5232.0,51.0
2.9270665645599365,36.0,2783.0,4414.0,5971.0,2498.0,95.0
2.9283666610717773,18.0,2702.0,5509.0,3914.0,3268.0,139.0
2.929666757583618,22.0,2621.0,5292.0,1858.0,4440.0,75.0
2.93096661567688,19.0,1707.0,5075.0,1944.0,1490.0,10.0
2.9322667121887207,15.0,1692.0,4150.0,4795.0,3287.0,19.0
2.9335665702819824,26.0,1678.0,1867.0,799.0,25.0,28.0
2.9348666667938232,36.0,3225.0,5801.0,5503.0,3235.0,44.0
2.936166763305664,51.0,3224.0,5480.0,1866.0,3502.0,43.0
2.937466621398926,44.0,2561.0,3419.0,4441.0,1370.0,41.0
2.9387667179107666,32.0,2470.0,2959.0,3273.0,1187.0,103.0
2.9400665760040283,20.0,2379.0,1118.0,3464.0,645.0,88.0
2.9414167404174805,5.0,1635.0,2712.0,1794.0,400.0,43.0
2.942716598510742,10.0,2814.0,1982.0,760.0,957.0,0.0
2.944016695022583,31.0,2450.0,1252.0,1645.0,24.0,56.0
2.9453165531158447,40.0,3234.0,1735.0,2423.0,1509.0,43.0
2.9466166496276855,49.0,1940.0,2219.0,103.0,1987.0,697.0
2.9479167461395264,38.0,2924.0,665.0,56.0,2386.0,368.0
2.949216604232788,41.0,3727.0,3002.0,2774.0,45.0,39.0
2.950516700744629,56.0,4097.0,4485.0,1715.0,1195.0,83.0
2.9518332481384277,12.0,4272.0,4551.0,656.0,762.0,13.0
2.9531166553497314,15.0,1443.0,3392.0,748.0,385.0,26.0
2.9544167518615723,32.0,3406.0,406.0,5.0,1496.0,40.0
2.955716609954834,19.0,2034.0,3740.0,1203.0,25.0,46.0
2.957016706466675,10.0,932.0,1820.0,1351.0,1105.0,53.0
2.958383321762085,23.0,751.0,1080.0,2177.0,392.0,61.0
2.959683418273926,36.0,570.0,3110.0,47.0,537.0,33.0
2.9609832763671875,55.0,606.0,2797.0,615.0,683.0,33.0
2.9622833728790283,60.0,50.0,3132.0,777.0,23.0,34.0
2.96358323097229,66.0,57.0,2773.0,349.0,217.0,43.0
2.964883327484131,47.0,65.0,2414.0,1211.0,642.0,37.0
2.9661834239959717,57.0,1087.0,558.0,1118.0,509.0,31.0
2.9674832820892334,64.0,2108.0,2494.0,1025.0,1304.0,17.0
2.968783378601074,72.0,2084.0,924.0,424.0,670.0,14.0
2.970083236694336,55.0,1758.0,4983.0,915.0,37.0,10.0
2.9713833332061768,39.0,1561.0,3662.0,1407.0,638.0,57.0
2.9726834297180176,22.0,32.0,3409.0,727.0,38.0,42.0
2.9739832878112793,40.0,63.0,3122.0,47.0,1013.0,27.0
2.9753499031066895,57.0,2884.0,1035.0,28.0,736.0,13.0
2.9766499996185303,45.0,3621.0,4331.0,10.0,956.0,739.0
2.977950096130371,75.0,1353.0,4261.0,1586.0,1177.0,376.0
2.979249954223633,0.0,1074.0,1784.0,809.0,1120.0,13.0
2.9805500507354736,32.0,757.0,6066.0,32.0,1062.0,30.0
2.9818499088287354,65.0,1895.0,1421.0,926.0,934.0,997.0
2.983150005340576,22.0,3033.0,276.0,753.0,806.0,721.0
2.984450101852417,24.0,2837.0,4002.0,1128.0,1892.0,28.0
2.9857499599456787,26.0,2642.0,3598.0,1113.0,1913.0,1131.0
2.9870500564575195,27.0,5665.0,1875.0,1098.0,2156.0,8.0
2.9883499145507812,29.0,5354.0,1643.0,1682.0,995.0,79.0
2.989650011062622,30.0,3297.0,2023.0,2267.0,1048.0,18.0
2.990950107574463,33.0,4127.0,2403.0,1279.0,1642.0,25.0
2.992300033569336,37.0,4718.0,6332.0,290.0,1194.0,31.0
2.9935998916625977,40.0,4823.0,5314.0,2337.0,747.0,28.0
2.9948999881744385,144.0,562.0,2410.0,3655.0,575.0,24.0
2.9962000846862793,249.0,4706.0,5581.0,2617.0,476.0,387.0
2.997499942779541,135.0,3567.0,4896.0,1578.0,378.0,749.0
2.998800039291382,21.0,1006.0,4210.0,2405.0,541.0,908.0
3.0000998973846436,27.0,1810.0,4771.0,1859.0,704.0,602.0
3.0013999938964844,16.0,3225.0,5923.0,3426.0,850.0,475.0
3.002700090408325,30.0,1976.0,2684.0,2868.0,997.0,347.0
3.003999948501587,24.0,2201.0,3327.0,3438.0,1500.0,141.0
3.005316734313965,17.0,2427.0,5606.0,3424.0,1698.0,348.0
3.0065999031066895,11.0,1626.0,5694.0,2736.0,1139.0,204.0
3.0078999996185303,5.0,4103.0,3371.0,2575.0,580.0,60.0
3.0092666149139404,7.0,3534.0,7304.0,2654.0,1491.0,52.0
3.0105667114257812,9.0,2800.0,3561.0,1725.0,35.0,45.0
3.011866569519043,8.0,4624.0,4067.0,1160.0,1831.0,1477.0
3.013166666030884,7.0,2999.0,5647.0,786.0,318.0,1250.0
3.0144667625427246,121.0,1731.0,3263.0,1587.0,326.0,1113.0
3.0157666206359863,74.0,2745.0,3233.0,1564.0,174.0,54.0
3.017066717147827,27.0,2118.0,3203.0,523.0,21.0,24.0
3.018366575241089,26.0,3703.0,961.0,1725.0,699.0,57.0
3.0196666717529297,23.0,3371.0,4708.0,1635.0,1377.0,8.0
3.0209667682647705,20.0,3606.0,3099.0,1546.0,1321.0,65.0
3.0222666263580322,17.0,4033.0,3656.0,1553.0,1852.0,38.0
3.023566722869873,32.0,3637.0,4400.0,2186.0,1461.0,24.0
3.0248665809631348,47.0,3242.0,4200.0,1870.0,821.0,10.0
3.026233434677124,48.0,3121.0,3999.0,1554.0,1309.0,38.0
3.0275332927703857,49.0,2344.0,6257.0,748.0,1575.0,10.0
3.0288333892822266,38.0,3357.0,5483.0,1089.0,743.0,54.0
3.0301332473754883,26.0,4371.0,4709.0,1429.0,924.0,33.0
3.031433343887329,54.0,4389.0,3035.0,2431.0,2873.0,33.0
3.03273344039917,41.0,3670.0,5773.0,2288.0,2011.0,44.0
3.0340332984924316,27.0,3810.0,2757.0,3255.0,1149.0,29.0
3.0353333950042725,298.0,2062.0,3730.0,2974.0,356.0,31.0
3.036633253097534,370.0,2500.0,2782.0,2692.0,2823.0,33.0
3.037933349609375,442.0,3143.0,4098.0,2279.0,3382.0,32.0
3.039233446121216,164.0,1439.0,3217.0,1822.0,714.0,22.0
3.0405333042144775,170.0,32.0,3165.0,2018.0,1920.0,16.0
3.0418334007263184,176.0,3121.0,879.0,2215.0,650.0,22.0
3.0431833267211914,109.0,801.0,2555.0,277.0,850.0,48.0
3.0444834232330322,42.0,4756.0,2137.0,1155.0,775.0,36.0
3.045783281326294,44.0,5955.0,1677.0,3104.0,790.0,24.0
3.0470833778381348,27.0,2779.0,2598.0,2344.0,806.0,40.0
3.0483832359313965,21.0,2857.0,4220.0,1758.0,1328.0,55.0
3.0496833324432373,35.0,3491.0,4256.0,3240.0,5.0,176.0
3.050983428955078,48.0,1507.0,4329.0,1407.0,1287.0,100.0
3.05228328704834,1279.0,3026.0,4428.0,2069.0,2341.0,24.0
3.0535833835601807,1474.0,5254.0,5650.0,1561.0,3205.0,5.0
3.0548832416534424,156.0,5094.0,1144.0,1053.0,1637.0,49.0
3.056183338165283,582.0,642.0,3091.0,2902.0,68.0,56.0
3.057483434677124,37.0,2902.0,4008.0,2666.0,1169.0,64.0
3.0587832927703857,2290.0,5147.0,1127.0,1473.0,898.0,48.0
3.060149908065796,1820.0,3111.0,2205.0,2424.0,626.0,31.0
3.0614500045776367,663.0,4702.0,3283.0,1507.0,60.0,10.0
3.0627501010894775,963.0,3081.0,1577.0,1567.0,421.0,5.0
3.0640499591827393,1340.0,1518.0,1380.0,1626.0,21.0,22.0
3.06535005569458,26.0,1135.0,3252.0,50.0,1726.0,41.0
3.066649913787842,400.0,3715.0,3712.0,2640.0,1760.0,48.0
3.0679500102996826,22.0,3154.0,4034.0,2963.0,2330.0,54.0
3.0692501068115234,23.0,3498.0,2966.0,1546.0,24.0,962.0
3.070549964904785,24.0,983.0,2127.0,1950.0,2346.0,1235.0
3.071850061416626,27.0,742.0,3636.0,2718.0,833.0,672.0
3.0731499195098877,17.0,1261.0,3516.0,736.0,22.0,202.0
3.0744500160217285,27.0,169.0,3381.0,333.0,568.0,30.0
3.0757501125335693,16.0,649.0,3246.0,3474.0,1568.0,15.0
3.0771167278289795,28.0,1129.0,2535.0,1314.0,2859.0,10.0
3.078416585922241,29.0,1097.0,4256.0,4065.0,2042.0,11.0
3.079716682434082,25.0,2436.0,3876.0,2303.0,1766.0,7.0
3.081016778945923,16.0,2044.0,1351.0,15.0,0.0,20.0
3.0823166370391846,17.0,1652.0,2382.0,3192.0,1583.0,13.0
3.0836167335510254,26.0,1110.0,2280.0,2034.0,2932.0,6.0
3.084916591644287,39.0,2613.0,2196.0,2688.0,49.0,24.0
3.086216688156128,52.0,2216.0,2111.0,749.0,983.0,26.0
3.0875167846679688,0.0,1820.0,1378.0,1312.0,1330.0,27.0
3.0888166427612305,791.0,2482.0,1518.0,660.0,1192.0,27.0
3.0901167392730713,852.0,1871.0,1657.0,217.0,1287.0,36.0
3.091416597366333,723.0,835.0,3034.0,20.0,1069.0,45.0
3.092716693878174,593.0,3215.0,3213.0,389.0,851.0,199.0
3.094066619873047,751.0,3162.0,1806.0,216.0,28.0,110.0
3.0953667163848877,18.0,3947.0,2447.0,44.0,21.0,21.0
3.0966832637786865,15.0,1608.0,3604.0,1354.0,212.0,0.0
3.0979666709899902,35.0,402.0,1859.0,2665.0,403.0,21.0
3.099266767501831,22.0,1327.0,3117.0,2444.0,298.0,43.0
3.10058331489563,22.0,2202.0,1703.0,388.0,52.0,26.0
3.1018834114074707,49.0,1168.0,3261.0,1703.0,558.0,10.0
3.1031665802001953,53.0,1336.0,30.0,1485.0,1064.0,45.0
3.104466676712036,32.0,1222.0,3408.0,726.0,1236.0,100.0
3.105766773223877,22.0,1956.0,2842.0,570.0,1119.0,463.0
3.107083320617676,54.0,2236.0,985.0,442.0,961.0,826.0
3.1083834171295166,26.0,2515.0,3180.0,1915.0,802.0,669.0
3.1096832752227783,55.0,697.0,626.0,2359.0,858.0,32.0
3.1110000610351562,52.0,2655.0,1760.0,888.0,914.0,64.0
3.112299919128418,50.0,1387.0,590.0,450.0,947.0,451.0
3.113600015640259,39.0,3399.0,668.0,1717.0,1091.0,838.0
3.1149165630340576,28.0,2323.0,746.0,1914.0,1090.0,1459.0
3.1162166595458984,5.0,701.0,1280.0,12.0,525.0,1104.0
3.1175167560577393,32.0,2358.0,1813.0,1131.0,307.0,750.0
3.118816614151001,32.0,1008.0,1406.0,11.0,89.0,28.0
3.1201000213623047,49.0,648.0,1040.0,1243.0,262.0,53.0
3.1214001178741455,47.0,288.0,673.0,802.0,31.0,24.0
3.1227166652679443,37.0,2665.0,1874.0,1325.0,65.0,24.0
3.124016761779785,18.0,3076.0,2250.0,672.0,26.0,43.0
3.125316619873047,12.0,1438.0,32.0,19.0,1828.0,25.0
3.126650094985962,5.0,1999.0,1234.0,44.0,1856.0,7.0
3.1279666423797607,32.0,2560.0,2770.0,184.0,58.0,19.0
3.1292667388916016,41.0,1010.0,899.0,131.0,1321.0,34.0
3.1305665969848633,50.0,308.0,740.0,77.0,768.0,77.0
3.131866693496704,14.0,13.0,1983.0,761.0,31.0,51.0
3.133166551589966,28.0,725.0,1470.0,616.0,1040.0,25.0
3.1344666481018066,47.0,387.0,956.0,470.0,46.0,30.0
3.1357667446136475,31.0,49.0,64.0,1555.0,11.0,18.0
3.1370832920074463,23.0,60.0,27.0,1337.0,651.0,28.0
3.13836669921875,28.0,42.0,702.0,8.0,18.0,40.0
3.1396665573120117,16.0,23.0,360.0,849.0,31.0,0.0
3.1409666538238525,13.0,38.0,18.0,624.0,31.0,21.0
3.1422667503356934,30.0,32.0,63.0,20.0,7.0,21.0
3.1436166763305664,32.0,210.0,38.0,137.0,10.0,20.0
3.1449332237243652,34.0,387.0,12.0,18.0,16.0,5.0
3.146233320236206,14.0,205.0,563.0,15.0,17.0,16.0
3.147533416748047,11.0,22.0,310.0,11.0,17.0,26.0
3.1488332748413086,14.0,32.0,58.0,20.0,27.0,16.0
3.1501333713531494,45.0,43.0,13.0,294.0,32.0,5.0
3.151433229446411,31.0,25.0,174.0,157.0,37.0,22.0
3.152733325958252,17.0,23.0,32.0,21.0,16.0,7.0
3.1540334224700928,18.0,21.0,35.0,13.0,24.0,26.0
3.1553332805633545,11.0,5.0,39.0,37.0,11.0,52.0
3.1566333770751953,8.0,6.0,32.0,42.0,27.0,54.0
3.157933235168457,5.0,16.0,51.0,1608.0,27.0,33.0
3.159233331680298,13.0,10.0,35.0,1201.0,19.0,12.0
3.160583257675171,6.0,30.0,18.0,73.0,5.0,12.0
3.161900043487549,0.0,571.0,33.0,14.0,59.0,18.0
3.1631999015808105,19.0,302.0,48.0,27.0,39.0,18.0
3.1644999980926514,49.0,33.0,6.0,17.0,19.0,18.0
3.165800094604492,38.0,23.0,243.0,15.0,15.0,36.0
3.167099952697754,19.0,18.0,161.0,12.0,11.0,29.0
3.1684000492095947,25.0,12.0,78.0,22.0,13.0,22.0
3.1696999073028564,18.0,21.0,55.0,62.0,12.0,33.0
3.1710000038146973,10.0,30.0,40.0,67.0,11.0,25.0
3.172300100326538,24.0,31.0,51.0,5.0,14.0,15.0
3.1735999584198,12.0,7.0,39.0,24.0,22.0,31.0
3.1749000549316406,0.0,20.0,45.0,57.0,21.0,21.0
3.1761999130249023,64.0,22.0,17.0,646.0,20.0,29.0
3.1775500774383545,51.0,23.0,42.0,353.0,16.0,8.0
3.1788666248321533,31.0,24.0,38.0,60.0,55.0,20.0
3.180166721343994,25.0,250.0,41.0,67.0,60.0,10.0
3.181466579437256,43.0,138.0,38.0,48.0,35.0,5.0
3.1827666759490967,49.0,26.0,11.0,7.0,10.0,44.0
3.1840667724609375,47.0,34.0,11.0,47.0,29.0,36.0
3.185366630554199,21.0,39.0,10.0,28.0,48.0,49.0
3.18666672706604,24.0,44.0,9.0,20.0,27.0,13.0
3.1879665851593018,46.0,17.0,7.0,5.0,22.0,20.0
3.1892666816711426,41.0,28.0,5.0,37.0,18.0,15.0
3.1905667781829834,48.0,46.0,16.0,41.0,14.0,28.0
3.191866636276245,21.0,20.0,27.0,23.0,21.0,41.0
3.193166732788086,18.0,23.0,24.0,5.0,22.0,42.0
3.194499969482422,5.0,28.0,20.0,22.0,22.0,43.0
3.195833444595337,39.0,11.0,15.0,22.0,18.0,17.0
3.1971333026885986,30.0,25.0,10.0,31.0,14.0,14.0
3.1984333992004395,6.0,17.0,17.0,29.0,10.0,11.0
