,301.2099914550781,302.2099914550781,303.2099914550781,304.2099914550781,305.2099914550781,306.2099914550781,307.2099914550781,308.2099914550781
5.201733112335205,25.0,25.0,2032.0,12.0,28.0,35.0,17.0,55.0
5.203466892242432,34.0,83.0,3460.0,64.0,16.0,10.0,31.0,353.0
5.2052001953125,39.0,57.0,2234.0,293.0,57.0,74.0,826.0,8.0
5.206933498382568,13.0,0.0,1150.0,311.0,10.0,36.0,21.0,49.0
5.208666801452637,5.0,7.0,2168.0,330.0,26.0,10.0,14.0,10.0
5.210400104522705,44.0,21.0,2941.0,50.0,32.0,7.0,5.0,44.0
5.212133407592773,38.0,37.0,2838.0,13.0,26.0,62.0,28.0,10.0
5.213866710662842,35.0,47.0,2388.0,19.0,19.0,48.0,14.0,40.0
5.21560001373291,19.0,11.0,2693.0,20.0,30.0,40.0,0.0,29.0
5.217400074005127,6.0,6.0,2999.0,21.0,41.0,32.0,14.0,13.0
5.219133377075195,15.0,12.0,1940.0,20.0,25.0,7.0,15.0,22.0
5.220866680145264,24.0,13.0,2483.0,19.0,10.0,29.0,28.0,28.0
5.222599983215332,18.0,13.0,1149.0,10.0,24.0,0.0,24.0,35.0
5.2243332862854,12.0,13.0,2759.0,0.0,24.0,19.0,15.0,27.0
5.226066589355469,11.0,13.0,2463.0,10.0,23.0,15.0,5.0,19.0
5.227799892425537,0.0,13.0,2168.0,15.0,24.0,19.0,0.0,13.0
5.2295331954956055,0.0,10.0,2588.0,20.0,25.0,22.0,19.0,24.0
5.231266498565674,27.0,5.0,2196.0,10.0,28.0,25.0,21.0,34.0
5.232999801635742,22.0,0.0,2354.0,15.0,30.0,10.0,17.0,43.0
5.234799861907959,14.0,7.0,3435.0,20.0,24.0,47.0,52.0,54.0
5.236533164978027,6.0,10.0,982.0,22.0,17.0,34.0,37.0,48.0
5.238266468048096,25.0,12.0,1183.0,24.0,27.0,22.0,21.0,17.0
5.239999771118164,56.0,20.0,1603.0,31.0,16.0,5.0,51.0,5.0
5.241733551025391,43.0,21.0,1372.0,195.0,5.0,23.0,5.0,21.0
5.243466854095459,24.0,21.0,1142.0,196.0,35.0,42.0,25.0,22.0
5.245200157165527,26.0,22.0,832.0,196.0,20.0,38.0,46.0,38.0
5.246933460235596,21.0,40.0,827.0,131.0,54.0,24.0,28.0,32.0
5.248666763305664,9.0,104.0,821.0,60.0,31.0,10.0,36.0,26.0
5.250400066375732,35.0,55.0,1154.0,16.0,9.0,23.0,31.0,28.0
5.252200126647949,30.0,5.0,26.0,13.0,25.0,22.0,32.0,14.0
5.253933429718018,25.0,19.0,1715.0,10.0,27.0,32.0,5.0,17.0
5.255666732788086,5.0,52.0,17.0,10.0,27.0,31.0,42.0,0.0
5.257400035858154,9.0,24.0,776.0,10.0,10.0,29.0,11.0,8.0
5.259133338928223,13.0,11.0,38.0,35.0,28.0,5.0,15.0,16.0
5.260866641998291,23.0,16.0,23.0,43.0,23.0,0.0,37.0,11.0
5.262599945068359,32.0,28.0,19.0,18.0,17.0,47.0,6.0,6.0
5.264333248138428,25.0,25.0,12.0,5.0,27.0,26.0,30.0,18.0
5.266066551208496,17.0,21.0,5.0,18.0,47.0,41.0,52.0,30.0
5.2677998542785645,17.0,11.0,9.0,18.0,39.0,26.0,23.0,24.0
5.269583225250244,21.0,12.0,13.0,17.0,31.0,11.0,37.0,35.0
5.27133321762085,18.0,14.0,12.0,20.0,42.0,55.0,6.0,0.0
5.273049831390381,15.0,15.0,10.0,23.0,29.0,66.0,27.0,38.0
5.274783134460449,10.0,5.0,17.0,14.0,11.0,47.0,40.0,44.0
5.276516437530518,20.0,22.0,22.0,5.0,35.0,0.0,22.0,64.0
5.278250217437744,10.0,66.0,27.0,11.0,14.0,18.0,16.0,7.0
5.2799835205078125,37.0,44.0,27.0,5.0,26.0,36.0,20.0,18.0
5.281716823577881,40.0,22.0,18.0,5.0,54.0,64.0,22.0,18.0
5.283450126647949,12.0,8.0,21.0,5.0,43.0,50.0,23.0,22.0
5.285250186920166,20.0,5.0,24.0,10.0,25.0,35.0,5.0,21.0
5.286983489990234,27.0,16.0,17.0,13.0,7.0,12.0,15.0,20.0
5.288716793060303,16.0,17.0,10.0,16.0,12.0,60.0,14.0,20.0
5.290450096130371,12.0,49.0,17.0,15.0,17.0,22.0,13.0,20.0
5.2921833992004395,7.0,33.0,24.0,23.0,22.0,14.0,17.0,0.0
5.293916702270508,11.0,17.0,31.0,51.0,22.0,66.0,21.0,28.0
5.295650005340576,14.0,21.0,24.0,60.0,22.0,27.0,35.0,23.0
5.2973833084106445,23.0,41.0,16.0,15.0,20.0,1265.0,49.0,18.0
5.299116611480713,21.0,32.0,20.0,34.0,17.0,1412.0,108.0,30.0
5.300849914550781,18.0,28.0,19.0,11.0,20.0,775.0,71.0,21.0
5.302649974822998,25.0,39.0,18.0,5.0,19.0,395.0,33.0,16.0
5.304383277893066,10.0,28.0,38.0,13.0,18.0,386.0,23.0,35.0
5.306116580963135,26.0,18.0,47.0,17.0,15.0,509.0,12.0,33.0
5.307849884033203,16.0,0.0,52.0,17.0,12.0,449.0,21.0,30.0
5.3095831871032715,6.0,6.0,11.0,44.0,13.0,17.0,30.0,28.0
5.31131649017334,11.0,23.0,12.0,32.0,13.0,31.0,142.0,279.0
5.313049793243408,16.0,21.0,13.0,20.0,28.0,36.0,78.0,151.0
5.314783096313477,35.0,17.0,14.0,34.0,43.0,24.0,13.0,23.0
5.316516876220703,58.0,19.0,15.0,58.0,44.0,196.0,48.0,81.0
5.3182501792907715,34.0,20.0,11.0,343.0,45.0,117.0,36.0,18.0
5.320033550262451,11.0,0.0,24.0,202.0,62.0,38.0,24.0,25.0
5.3217668533325195,39.0,0.0,0.0,62.0,40.0,73.0,15.0,41.0
5.323500156402588,0.0,0.0,12.0,62.0,17.0,55.0,5.0,35.0
5.325233459472656,21.0,8.0,24.0,51.0,14.0,20.0,21.0,13.0
5.326983451843262,41.0,16.0,38.0,10.0,11.0,6.0,31.0,10.0
5.328700065612793,29.0,32.0,24.0,26.0,15.0,536.0,32.0,32.0
5.330433368682861,48.0,49.0,21.0,10.0,495.0,869.0,32.0,11.0
5.33216667175293,40.0,54.0,26.0,6.0,271.0,755.0,34.0,8.0
5.333899974822998,15.0,46.0,30.0,17.0,46.0,1102.0,35.0,5.0
5.335633277893066,10.0,21.0,47.0,12.0,8.0,35.0,10.0,16.0
5.337433338165283,15.0,6.0,34.0,11.0,23.0,36.0,23.0,26.0
5.339166641235352,58.0,14.0,21.0,37.0,20.0,5.0,17.0,34.0
5.34089994430542,53.0,18.0,10.0,30.0,17.0,0.0,26.0,29.0
5.342633247375488,43.0,26.0,19.0,30.0,189.0,1070.0,13.0,23.0
5.344366550445557,16.0,22.0,28.0,32.0,99.0,1182.0,32.0,10.0
5.346099853515625,75.0,18.0,35.0,34.0,10.0,36.0,24.0,13.0
5.347833156585693,53.0,24.0,228.0,47.0,40.0,16.0,15.0,17.0
5.349566459655762,31.0,29.0,126.0,12.0,25.0,22.0,21.0,23.0
5.35129976272583,33.0,31.0,24.0,27.0,10.0,27.0,24.0,40.0
5.353099822998047,25.0,33.0,88.0,6.0,20.0,22.0,10.0,57.0
5.354833126068115,5.0,27.0,10.0,49.0,29.0,16.0,23.0,45.0
5.356566429138184,19.0,21.0,12.0,38.0,25.0,8.0,12.0,21.0
5.35830020904541,47.0,27.0,11.0,17.0,29.0,0.0,18.0,48.0
5.3600335121154785,39.0,33.0,38.0,29.0,39.0,7.0,21.0,39.0
5.361766815185547,30.0,20.0,45.0,36.0,43.0,10.0,18.0,15.0
5.363500118255615,31.0,6.0,51.0,42.0,47.0,13.0,15.0,26.0
5.365233421325684,32.0,0.0,22.0,38.0,10.0,0.0,20.0,13.0
5.366966724395752,35.0,15.0,18.0,34.0,8.0,37.0,16.0,0.0
5.36870002746582,38.0,14.0,5.0,11.0,6.0,73.0,19.0,32.0
5.3704833984375,31.0,12.0,23.0,10.0,18.0,54.0,18.0,28.0
5.372216701507568,25.0,9.0,19.0,27.0,48.0,34.0,16.0,29.0
5.373950004577637,40.0,5.0,25.0,29.0,48.0,52.0,0.0,43.0
5.375683307647705,15.0,22.0,23.0,28.0,20.0,50.0,44.0,42.0
5.377416610717773,29.0,22.0,21.0,26.0,22.0,28.0,58.0,40.0
5.379149913787842,10.0,21.0,6.0,22.0,17.0,37.0,45.0,16.0
5.38088321685791,16.0,0.0,21.0,18.0,17.0,16.0,15.0,5.0
5.3826165199279785,20.0,34.0,29.0,0.0,28.0,33.0,56.0,26.0
5.384349822998047,17.0,25.0,22.0,0.0,27.0,25.0,35.0,20.0
5.386099815368652,14.0,15.0,21.0,0.0,26.0,66.0,44.0,24.0
5.387883186340332,33.0,11.0,19.0,3.0,25.0,35.0,30.0,28.0
5.3896164894104,23.0,35.0,5.0,5.0,23.0,5.0,48.0,28.0
5.391349792480469,12.0,35.0,31.0,31.0,0.0,22.0,55.0,42.0
5.393083095550537,8.0,24.0,0.0,18.0,20.0,19.0,22.0,42.0
5.394816875457764,36.0,24.0,45.0,5.0,27.0,15.0,44.0,42.0
5.396550178527832,38.0,23.0,40.0,30.0,28.0,11.0,13.0,6.0
5.3982834815979,41.0,42.0,25.0,38.0,29.0,16.0,11.0,40.0
5.400016784667969,5.0,630.0,10.0,16.0,283.0,15.0,13.0,31.0
5.401750087738037,3.0,658.0,729.0,1893.0,741.0,14.0,15.0,30.0
5.4034833908081055,0.0,647.0,807.0,2007.0,3091.0,242.0,180.0,29.0
5.405283451080322,16.0,636.0,885.0,4595.0,2326.0,469.0,110.0,7.0
5.407016754150391,32.0,1627.0,9076.0,4779.0,5002.0,2543.0,40.0,17.0
5.408750057220459,34.0,1867.0,16940.0,7047.0,5337.0,4302.0,1940.0,19.0
5.410483360290527,14.0,1772.0,18400.0,16208.0,10260.0,6060.0,4251.0,20.0
5.412216663360596,32.0,3753.0,27960.0,30544.0,18220.0,20488.0,5512.0,1454.0
5.413949966430664,43.0,8352.0,38784.0,41216.0,36688.0,24504.0,6770.0,2074.0
5.415683269500732,49.0,20824.0,69712.0,72176.0,52928.0,30152.0,15416.0,2788.0
5.417416572570801,10.0,37440.0,77728.0,91376.0,71312.0,60256.0,14780.0,1461.0
5.419149875640869,341.0,59584.0,138880.0,143616.0,121456.0,75936.0,25864.0,6140.0
5.420933246612549,191.0,67712.0,178624.0,184576.0,138880.0,82144.0,38016.0,8388.0
5.422666549682617,42.0,88816.0,226496.0,277440.0,205120.0,118112.0,41760.0,7858.0
5.4243998527526855,55.0,144128.0,286656.0,327744.0,283712.0,153728.0,61344.0,16788.0
5.426133155822754,70.0,163520.0,364416.0,394240.0,324352.0,183680.0,66256.0,17396.0
5.427866458892822,58.0,233856.0,463744.0,531456.0,401408.0,208576.0,93360.0,15556.0
5.429599761962891,50.0,236736.0,525824.0,563712.0,437824.0,273216.0,89120.0,25952.0
5.431333541870117,41.0,309504.0,561664.0,643840.0,502784.0,299392.0,111232.0,27848.0
5.433083534240723,87.0,324928.0,703744.0,776448.0,627200.0,304832.0,141056.0,24636.0
5.434800148010254,88.0,348032.0,766976.0,866048.0,655104.0,373376.0,164608.0,25232.0
5.436550140380859,88.0,394560.0,807936.0,867328.0,636672.0,369728.0,160896.0,25828.0
5.438333511352539,46.0,441920.0,911104.0,944128.0,748544.0,384320.0,154816.0,29244.0
5.440066814422607,82.0,481024.0,893184.0,984064.0,765440.0,431808.0,180800.0,40528.0
5.441800117492676,119.0,452928.0,941056.0,1043968.0,850176.0,490880.0,191680.0,40752.0
5.443533420562744,115.0,528896.0,929792.0,1036288.0,813056.0,465024.0,177536.0,42848.0
5.4452667236328125,81.0,517376.0,1018880.0,1051392.0,783616.0,427520.0,159168.0,39632.0
5.447000026702881,136.0,532992.0,1055744.0,1092096.0,876544.0,456832.0,179136.0,33952.0
5.448733329772949,93.0,540928.0,1027328.0,1121280.0,823552.0,460864.0,173696.0,28348.0
5.450466632843018,786.0,544000.0,1017856.0,1116672.0,822784.0,463680.0,170368.0,36080.0
5.452199935913086,582.0,515136.0,1002240.0,1078016.0,866304.0,453184.0,173504.0,33024.0
5.453933238983154,377.0,535552.0,1036800.0,1078016.0,850432.0,442624.0,176576.0,29976.0
5.455733299255371,137.0,508352.0,1057280.0,1017344.0,879872.0,451584.0,187776.0,30404.0
5.4574666023254395,464.0,536320.0,1048320.0,1108736.0,859392.0,460544.0,200320.0,30868.0
5.459199905395508,615.0,493184.0,969984.0,1040128.0,801536.0,428288.0,157952.0,30448.0
5.460933208465576,112.0,486336.0,1007360.0,1048320.0,783104.0,432768.0,181504.0,30024.0
5.4626665115356445,696.0,475072.0,895488.0,956416.0,791040.0,453184.0,172608.0,32336.0
5.464399814605713,1006.0,468800.0,978688.0,1006080.0,813056.0,378432.0,166656.0,34640.0
5.466133117675781,118.0,464896.0,956928.0,1073152.0,762112.0,399616.0,157184.0,34576.0
5.467866897583008,133.0,460992.0,871680.0,978176.0,747776.0,430208.0,168320.0,34496.0
5.469600200653076,346.0,477248.0,896512.0,934656.0,747776.0,374592.0,156608.0,31340.0
5.4713335037231445,234.0,414272.0,857344.0,943360.0,728576.0,394368.0,155200.0,33344.0
5.473133563995361,122.0,452160.0,873728.0,945152.0,699648.0,409792.0,156352.0,35328.0
5.474850177764893,85.0,432128.0,809472.0,799744.0,634368.0,359360.0,123040.0,32204.0
5.476583480834961,99.0,407808.0,716288.0,800512.0,598528.0,321152.0,138240.0,16460.0
5.478333473205566,1229.0,397632.0,714496.0,730880.0,544000.0,308096.0,117440.0,23200.0
5.480050086975098,1613.0,310784.0,678400.0,673280.0,505536.0,256448.0,116144.0,22684.0
5.481800079345703,122.0,323008.0,615936.0,663296.0,518976.0,244288.0,115056.0,24672.0
5.483516693115234,79.0,264832.0,550144.0,575232.0,482560.0,266432.0,95856.0,13624.0
5.485249996185303,73.0,257216.0,533248.0,530176.0,385600.0,215552.0,78608.0,12536.0
5.486999988555908,601.0,234624.0,493632.0,498048.0,383424.0,202816.0,55248.0,12500.0
5.488749980926514,571.0,219136.0,419968.0,433472.0,351168.0,157440.0,59184.0,8296.0
5.490483283996582,71.0,176448.0,385856.0,357248.0,314048.0,146560.0,61552.0,11144.0
5.49221658706665,78.0,173632.0,347968.0,364480.0,245824.0,134272.0,50592.0,7391.0
5.493949890136719,105.0,165248.0,272000.0,300800.0,190784.0,101104.0,47216.0,8071.0
5.495683193206787,84.0,104176.0,237696.0,264256.0,205568.0,100960.0,36128.0,6578.0
5.4974164962768555,62.0,110480.0,202752.0,208192.0,178176.0,91344.0,38464.0,9184.0
5.499149799346924,52.0,92688.0,207808.0,212096.0,143424.0,76976.0,33104.0,5680.0
5.500883102416992,41.0,94656.0,185472.0,181376.0,144320.0,59856.0,25772.0,8022.0
5.502616882324219,55.0,82160.0,136576.0,177664.0,118176.0,67024.0,24196.0,4237.0
5.504350185394287,68.0,76720.0,132736.0,142592.0,114064.0,66368.0,20724.0,5519.0
5.506149768829346,50.0,43216.0,129520.0,125632.0,101712.0,49600.0,13008.0,2666.0
5.507883548736572,31.0,48608.0,99040.0,110336.0,74768.0,49792.0,14588.0,3141.0
5.509616851806641,49.0,35696.0,76848.0,80768.0,66032.0,35760.0,9100.0,4056.0
5.511350154876709,46.0,45712.0,88336.0,98128.0,60480.0,34304.0,15276.0,2827.0
5.513083457946777,44.0,52544.0,79984.0,89216.0,61424.0,23932.0,12260.0,2896.0
5.514816761016846,45.0,38752.0,77984.0,77760.0,55776.0,30884.0,10420.0,2401.0
5.516550064086914,27.0,47744.0,63776.0,86960.0,54160.0,24620.0,7352.0,1659.0
5.518283367156982,32.0,32604.0,45536.0,77088.0,47744.0,22420.0,8137.0,1926.0
5.520016670227051,13.0,35248.0,68944.0,67024.0,45264.0,15004.0,9980.0,2634.0
5.521749973297119,77.0,26544.0,60432.0,54912.0,51424.0,30036.0,8312.0,931.0
5.523550033569336,70.0,20388.0,59040.0,55712.0,45808.0,24248.0,6152.0,1027.0
5.525283336639404,64.0,22196.0,61312.0,63792.0,41888.0,18176.0,6387.0,1124.0
5.527016639709473,27.0,16756.0,52640.0,47584.0,36416.0,17316.0,9220.0,1076.0
5.528749942779541,41.0,18452.0,52048.0,49344.0,29404.0,21836.0,8704.0,1028.0
5.530483245849609,24.0,14560.0,37344.0,41856.0,34256.0,18720.0,5249.0,806.0
5.532216548919678,26.0,18192.0,36016.0,41968.0,25144.0,14224.0,5144.0,553.0
5.533949851989746,27.0,21820.0,36944.0,44352.0,28400.0,27084.0,5873.0,1447.0
5.5356831550598145,26.0,19260.0,19952.0,31240.0,27996.0,24052.0,5115.0,1805.0
5.537416458129883,35.0,19448.0,30968.0,30008.0,26408.0,12868.0,4878.0,2163.0
5.539183139801025,34.0,13340.0,37840.0,36464.0,24820.0,12492.0,4804.0,657.0
5.540933132171631,22.0,16172.0,38992.0,25888.0,20888.0,9052.0,1286.0,1002.0
5.542666435241699,53.0,8468.0,24880.0,25588.0,19700.0,11964.0,3839.0,758.0
5.544416904449463,59.0,15700.0,26828.0,18464.0,21684.0,17992.0,3390.0,49.0
5.546133518218994,25.0,11160.0,26452.0,24956.0,23632.0,16284.0,3043.0,470.0
5.5478668212890625,60.0,10784.0,17924.0,20976.0,24264.0,6823.0,2365.0,973.0
5.549600124359131,14.0,9044.0,17508.0,23644.0,15940.0,6045.0,1327.0,1244.0
5.551333427429199,33.0,7872.0,22968.0,24476.0,14404.0,5552.0,964.0,22.0
5.553066730499268,28.0,6959.0,11344.0,18708.0,9256.0,6917.0,497.0,28.0
5.554816722869873,28.0,10044.0,15312.0,23208.0,11120.0,8996.0,1053.0,46.0
5.556600093841553,38.0,8208.0,14388.0,16456.0,13372.0,8768.0,1610.0,254.0
5.558333396911621,34.0,6368.0,15296.0,15620.0,10388.0,9992.0,1958.0,146.0
5.5600666999816895,30.0,6795.0,13776.0,18444.0,9412.0,5261.0,1962.0,37.0
5.561800003051758,21.0,7222.0,12256.0,18452.0,8436.0,4841.0,1967.0,47.0
5.563533306121826,12.0,6940.0,11852.0,18464.0,8388.0,6127.0,1299.0,40.0
5.5652666091918945,0.0,6658.0,11452.0,22844.0,10828.0,7995.0,1511.0,121.0
5.566999912261963,45.0,9952.0,17080.0,25720.0,13268.0,10828.0,2269.0,201.0
5.568733215332031,38.0,12120.0,29352.0,35024.0,32848.0,13864.0,2820.0,3035.0
5.5704665184021,31.0,14864.0,31644.0,42864.0,41568.0,20012.0,3372.0,2287.0
5.572199821472168,52.0,22464.0,53904.0,66816.0,54800.0,27128.0,11308.0,1568.0
5.573999881744385,5.0,33760.0,83904.0,107376.0,86704.0,52832.0,24940.0,2563.0
5.575733184814453,14.0,37296.0,91808.0,128960.0,116816.0,50912.0,21864.0,2121.0
5.5774664878845215,22.0,46848.0,160320.0,206144.0,184512.0,99616.0,39472.0,3951.0
5.57919979095459,32.0,86448.0,202816.0,299840.0,264768.0,126688.0,48864.0,5781.0
5.580933570861816,40.0,120736.0,265472.0,349120.0,318016.0,196608.0,63776.0,12888.0
5.582666873931885,52.0,141952.0,341952.0,454400.0,436352.0,241408.0,82880.0,17480.0
5.584400177001953,47.0,186752.0,421312.0,580608.0,466048.0,289088.0,93792.0,15836.0
5.5861334800720215,42.0,249408.0,545024.0,770560.0,617984.0,332032.0,121920.0,24160.0
5.58786678314209,59.0,320832.0,636416.0,897280.0,716288.0,405632.0,127680.0,26516.0
5.589600086212158,75.0,366720.0,823808.0,1103104.0,825600.0,461632.0,176640.0,42352.0
5.591400146484375,21.0,373056.0,885504.0,1178624.0,1104128.0,549888.0,175936.0,40288.0
5.593133449554443,96.0,417408.0,1010176.0,1482240.0,1128448.0,642304.0,202176.0,40672.0
5.594866752624512,18.0,514304.0,1144320.0,1515776.0,1263872.0,709632.0,246272.0,42032.0
5.59660005569458,40.0,586752.0,1273344.0,1623296.0,1331200.0,832768.0,245056.0,41920.0
5.598333358764648,62.0,604672.0,1329920.0,1765632.0,1456128.0,792576.0,258368.0,41792.0
5.600066661834717,119.0,622336.0,1352448.0,1826560.0,1525248.0,848896.0,256960.0,51424.0
5.601799964904785,110.0,696320.0,1506816.0,2080512.0,1646080.0,869632.0,263936.0,64176.0
5.6035332679748535,165.0,699392.0,1542656.0,2118656.0,1713152.0,920320.0,286272.0,58928.0
5.605266571044922,184.0,707840.0,1638144.0,2257920.0,1694464.0,946176.0,304256.0,59664.0
5.607049942016602,202.0,828416.0,1600768.0,2295808.0,1829376.0,1001984.0,338816.0,60208.0
5.608799934387207,96.0,800768.0,1778688.0,2305024.0,1905152.0,1012480.0,350080.0,60752.0
5.610533237457275,156.0,861952.0,1848576.0,2360320.0,2024704.0,1017344.0,377920.0,62944.0
5.612266540527344,140.0,858624.0,1838336.0,2416640.0,1928960.0,1022208.0,374656.0,67168.0
5.613999843597412,248.0,844800.0,1841664.0,2409472.0,1987072.0,1032192.0,352320.0,63776.0
5.6157331466674805,228.0,910336.0,1840640.0,2402304.0,1852160.0,1041920.0,347520.0,60384.0
5.617466449737549,494.0,914688.0,1839616.0,2473984.0,2022912.0,1068800.0,320576.0,65920.0
5.619200229644775,1286.0,920576.0,1932544.0,2497536.0,2079744.0,1095936.0,381504.0,71440.0
5.620933532714844,1127.0,891136.0,1912832.0,2520064.0,2074624.0,994816.0,387520.0,55312.0
5.622666835784912,902.0,842496.0,1836032.0,2363392.0,1909504.0,1062912.0,376256.0,66832.0
5.624466896057129,207.0,895232.0,1858048.0,2495488.0,2072064.0,1097472.0,337600.0,69072.0
5.626200199127197,322.0,834816.0,1855744.0,2507776.0,1900800.0,1029120.0,355200.0,61488.0
5.627933502197266,215.0,852224.0,1834240.0,2386944.0,1999616.0,1067520.0,331904.0,60288.0
5.629666805267334,231.0,862208.0,1804544.0,2361344.0,1790976.0,1006848.0,343744.0,67808.0
5.631400108337402,246.0,792064.0,1674496.0,2281472.0,1839360.0,1060096.0,337088.0,54912.0
5.633133411407471,922.0,797440.0,1686528.0,2387968.0,1716992.0,956672.0,326464.0,59840.0
5.634866714477539,785.0,775680.0,1693696.0,2178048.0,1800448.0,958208.0,296192.0,57488.0
5.636600017547607,837.0,770304.0,1666560.0,2161664.0,1686272.0,925696.0,296960.0,58048.0
5.638333320617676,960.0,711424.0,1443328.0,2057728.0,1689088.0,913664.0,277248.0,53568.0
5.640066623687744,216.0,731904.0,1501440.0,1853952.0,1502464.0,772096.0,263744.0,47088.0
5.641866683959961,192.0,648448.0,1383680.0,1896704.0,1518080.0,818176.0,308160.0,43408.0
5.643599987030029,246.0,614656.0,1240320.0,1672192.0,1377792.0,755200.0,243264.0,49392.0
5.645333290100098,209.0,558848.0,1244416.0,1505536.0,1242624.0,657152.0,223104.0,26596.0
5.647066593170166,172.0,537088.0,1200896.0,1524736.0,1201152.0,614400.0,184960.0,30772.0
5.648799896240234,222.0,509504.0,1136640.0,1392384.0,1060352.0,560128.0,186688.0,36976.0
5.650533199310303,200.0,493376.0,914944.0,1230592.0,1013760.0,523200.0,165824.0,31068.0
5.652266502380371,127.0,404736.0,864512.0,1096448.0,854272.0,465344.0,152448.0,20308.0
5.6539998054504395,179.0,403008.0,852480.0,1047552.0,772096.0,417664.0,123376.0,26884.0
5.655733108520508,102.0,351424.0,711424.0,898816.0,723200.0,407296.0,111568.0,20816.0
5.657466888427734,25.0,286336.0,620544.0,796160.0,650752.0,335808.0,105328.0,14096.0
5.659249782562256,84.0,272064.0,503872.0,699136.0,577280.0,328640.0,88928.0,15692.0
5.660999774932861,142.0,244992.0,511488.0,670720.0,482688.0,274048.0,83360.0,12288.0
5.662716865539551,137.0,215168.0,420352.0,552960.0,379584.0,219520.0,71984.0,14864.0
5.664450168609619,128.0,199232.0,360000.0,475840.0,340288.0,166848.0,57664.0,9432.0
5.6661834716796875,120.0,160448.0,313344.0,392704.0,306112.0,151808.0,46528.0,10548.0
5.667916774749756,137.0,142592.0,269824.0,380992.0,285760.0,143872.0,47552.0,15968.0
5.669650077819824,160.0,94784.0,210304.0,279232.0,227392.0,106800.0,35376.0,6109.0
5.671383380889893,183.0,99696.0,199296.0,250752.0,200320.0,98064.0,35664.0,11476.0
5.673133373260498,73.0,73792.0,144064.0,199744.0,158848.0,78800.0,25304.0,6977.0
5.674900054931641,70.0,71680.0,152640.0,158912.0,135488.0,62688.0,21588.0,1896.0
5.676650047302246,89.0,64784.0,119520.0,145152.0,124352.0,54544.0,15824.0,6570.0
5.6783833503723145,60.0,55824.0,112256.0,146368.0,113440.0,64304.0,19488.0,3792.0
5.680116653442383,70.0,55232.0,102688.0,113616.0,94928.0,54800.0,18100.0,3159.0
5.681849956512451,76.0,48864.0,74176.0,118816.0,96768.0,39696.0,15700.0,1458.0
5.6835832595825195,23.0,33808.0,70416.0,100160.0,73216.0,32848.0,18204.0,3045.0
5.685316562652588,87.0,26848.0,75680.0,102576.0,79968.0,46768.0,6712.0,2331.0
5.687049865722656,88.0,27168.0,49360.0,75600.0,58480.0,31748.0,8468.0,1618.0
5.688783168792725,119.0,22864.0,60720.0,66992.0,49600.0,39520.0,8624.0,2384.0
5.690516471862793,62.0,28132.0,58960.0,76768.0,43568.0,28588.0,6167.0,3150.0
5.69231653213501,24.0,31804.0,49328.0,59504.0,55792.0,26544.0,8032.0,3596.0
5.694049835205078,38.0,21548.0,56928.0,71168.0,34272.0,31496.0,9172.0,81.0
5.6957831382751465,58.0,17964.0,51824.0,62080.0,50512.0,22156.0,12840.0,1194.0
5.697516441345215,75.0,24484.0,50352.0,48688.0,47024.0,19552.0,11060.0,1880.0
5.699250221252441,92.0,16688.0,46928.0,54976.0,44496.0,21540.0,13260.0,2773.0
5.70098352432251,73.0,15968.0,41664.0,51840.0,42560.0,17684.0,7157.0,1512.0
5.702716827392578,67.0,12936.0,37360.0,46400.0,40752.0,19748.0,7000.0,1580.0
5.7044501304626465,62.0,14504.0,39328.0,42768.0,33840.0,15708.0,6044.0,2608.0
5.706183433532715,53.0,10928.0,40144.0,41152.0,28184.0,18344.0,6429.0,1600.0
5.707916736602783,88.0,12620.0,35296.0,40432.0,37344.0,16608.0,6815.0,2735.0
5.709700107574463,83.0,12832.0,31656.0,38160.0,27088.0,16772.0,3823.0,3499.0
5.711433410644531,44.0,12732.0,32928.0,40064.0,31276.0,12416.0,5700.0,984.0
5.7131667137146,58.0,9516.0,23580.0,29132.0,24460.0,15388.0,3692.0,658.0
5.714900016784668,21.0,10352.0,22928.0,32896.0,28864.0,14564.0,2955.0,1063.0
5.716633319854736,55.0,11188.0,19964.0,28440.0,33712.0,14664.0,5029.0,1474.0
5.718366622924805,60.0,5628.0,22584.0,33552.0,17136.0,12592.0,3681.0,45.0
5.720099925994873,56.0,11672.0,24776.0,23948.0,16024.0,11024.0,4346.0,32.0
5.721833229064941,45.0,6000.0,26556.0,37120.0,23988.0,8128.0,2476.0,860.0
5.723583221435547,49.0,7805.0,20124.0,25168.0,14404.0,9056.0,3441.0,760.0
5.725299835205078,26.0,6172.0,20904.0,26780.0,16584.0,5713.0,3861.0,661.0
5.727099895477295,22.0,8664.0,16004.0,28708.0,14968.0,8636.0,3484.0,150.0
5.728833198547363,17.0,5006.0,16928.0,19800.0,19120.0,5449.0,3107.0,43.0
5.730566501617432,35.0,10120.0,13908.0,19288.0,17916.0,7919.0,3243.0,695.0
5.7322998046875,56.0,7180.0,16428.0,26428.0,10640.0,7624.0,3380.0,46.0
5.734033107757568,60.0,5499.0,13508.0,22664.0,22344.0,6749.0,4175.0,33.0
5.735766887664795,31.0,4467.0,8272.0,12896.0,17880.0,5874.0,1622.0,59.0
5.737500190734863,47.0,4940.0,10424.0,11440.0,13056.0,7810.0,5046.0,459.0
5.739233493804932,57.0,5412.0,10608.0,14336.0,9364.0,7340.0,5399.0,859.0
5.740966796875,68.0,3091.0,10792.0,18316.0,19732.0,5318.0,1992.0,876.0
5.742733478546143,37.0,2048.0,10200.0,18572.0,13392.0,3642.0,2400.0,82.0
5.744500160217285,54.0,6590.0,10524.0,15232.0,9428.0,3722.0,1874.0,342.0
5.7462334632873535,72.0,7052.0,9636.0,18580.0,10124.0,7475.0,2394.0,181.0
5.747966766357422,32.0,5867.0,9784.0,13524.0,17028.0,6576.0,2040.0,21.0
5.74970006942749,69.0,3562.0,9932.0,19888.0,14792.0,5677.0,827.0,87.0
5.751433372497559,41.0,5925.0,9908.0,18028.0,6531.0,7550.0,2168.0,34.0
5.753166675567627,13.0,1834.0,9888.0,17004.0,11136.0,6122.0,2072.0,47.0
5.754899978637695,25.0,4801.0,13276.0,18896.0,13636.0,4942.0,1975.0,59.0
5.756633281707764,37.0,5802.0,10480.0,16036.0,4395.0,7121.0,1451.0,66.0
5.758366584777832,31.0,4712.0,7680.0,15840.0,6444.0,7417.0,2280.0,73.0
5.760149955749512,24.0,4818.0,13048.0,17896.0,12996.0,1064.0,1679.0,41.0
5.76188325881958,17.0,5650.0,10868.0,11896.0,6088.0,6683.0,1077.0,22.0
5.763616561889648,33.0,5509.0,8924.0,7722.0,8178.0,8224.0,1333.0,741.0
5.765349864959717,34.0,4787.0,6344.0,10548.0,9796.0,5889.0,1588.0,399.0
5.767083168029785,34.0,3679.0,12100.0,9496.0,7044.0,3556.0,2646.0,58.0
5.7688164710998535,20.0,2541.0,8732.0,11456.0,4294.0,5276.0,2311.0,52.0
5.770549774169922,60.0,2306.0,10044.0,12828.0,13688.0,4794.0,1975.0,42.0
5.772283554077148,52.0,4531.0,12076.0,6944.0,10540.0,4313.0,2297.0,31.0
5.774016857147217,45.0,3949.0,11244.0,8168.0,10716.0,4241.0,2763.0,44.0
5.775750160217285,0.0,3368.0,8808.0,8236.0,10000.0,4927.0,160.0,47.0
5.777550220489502,14.0,1661.0,13916.0,8264.0,5705.0,5612.0,655.0,7.0
5.77928352355957,27.0,4476.0,8272.0,8736.0,6552.0,5502.0,223.0,24.0
5.781016826629639,20.0,5972.0,13868.0,9208.0,6853.0,3691.0,39.0,41.0
5.782750129699707,13.0,5568.0,8032.0,8412.0,7794.0,2347.0,26.0,71.0
5.784483432769775,32.0,3067.0,13028.0,7620.0,7384.0,3326.0,14.0,60.0
5.786216735839844,69.0,935.0,2611.0,6055.0,6973.0,3759.0,552.0,50.0
5.787950038909912,47.0,3975.0,6680.0,9516.0,8912.0,4192.0,1090.0,33.0
5.7896833419799805,25.0,3718.0,12188.0,8564.0,9636.0,4512.0,844.0,10.0
5.791416645050049,82.0,1658.0,3905.0,7609.0,4065.0,4831.0,598.0,25.0
5.793149948120117,60.0,4634.0,6110.0,8296.0,4508.0,4488.0,1907.0,40.0
5.794950008392334,37.0,4034.0,5650.0,8980.0,4951.0,1883.0,1903.0,37.0
5.796683311462402,34.0,6123.0,4569.0,8196.0,6600.0,2498.0,1238.0,35.0
5.798416614532471,32.0,3725.0,4256.0,6454.0,7576.0,4836.0,549.0,46.0
