,301.2099914550781,302.2099914550781,303.2099914550781,304.2099914550781,305.2099914550781,306.2099914550781,307.2099914550781,308.2099914550781
5.201733112335205,13.0,0.0,306.0,32.0,37.0,24.0,16.0,43.0
5.203466892242432,9.0,15.0,900.0,33.0,19.0,26.0,21.0,31.0
5.2052001953125,0.0,23.0,10.0,39.0,18.0,27.0,10.0,5.0
5.206933498382568,43.0,32.0,764.0,21.0,11.0,14.0,25.0,34.0
5.208666801452637,33.0,41.0,1517.0,39.0,5.0,0.0,26.0,40.0
5.210400104522705,6.0,39.0,4534.0,19.0,91.0,17.0,28.0,23.0
5.212133407592773,60.0,36.0,3612.0,25.0,58.0,8.0,9.0,31.0
5.213866710662842,10.0,23.0,1702.0,29.0,25.0,0.0,12.0,7.0
5.21560001373291,26.0,5.0,1950.0,28.0,0.0,5.0,26.0,28.0
5.217400074005127,24.0,27.0,2240.0,26.0,23.0,25.0,0.0,8.0
5.219133377075195,28.0,30.0,3316.0,26.0,21.0,21.0,26.0,44.0
5.220866680145264,31.0,17.0,2758.0,26.0,37.0,56.0,28.0,58.0
5.222599983215332,25.0,56.0,2201.0,30.0,422.0,51.0,30.0,7.0
5.2243332862854,18.0,42.0,2809.0,34.0,239.0,46.0,31.0,40.0
5.226066589355469,20.0,28.0,791.0,40.0,56.0,31.0,26.0,0.0
5.227799892425537,8.0,20.0,1377.0,36.0,18.0,16.0,61.0,41.0
5.2295331954956055,21.0,33.0,1963.0,33.0,24.0,23.0,47.0,21.0
5.231266498565674,12.0,33.0,2043.0,41.0,14.0,21.0,32.0,48.0
5.232999801635742,37.0,15.0,1513.0,36.0,5.0,17.0,46.0,14.0
5.234783172607422,35.0,13.0,1259.0,31.0,15.0,5.0,14.0,12.0
5.23651647567749,10.0,12.0,2557.0,25.0,24.0,16.0,29.0,10.0
5.238249778747559,5.0,19.0,334.0,18.0,29.0,11.0,23.0,52.0
5.239983558654785,0.0,25.0,3344.0,10.0,34.0,9.0,6.0,64.0
5.2417168617248535,6.0,226.0,399.0,28.0,35.0,0.0,5.0,76.0
5.243450164794922,12.0,123.0,958.0,29.0,29.0,2.0,17.0,27.0
5.24518346786499,20.0,20.0,1864.0,12.0,10.0,5.0,11.0,0.0
5.246916770935059,17.0,28.0,941.0,0.0,23.0,7.0,5.0,40.0
5.248650074005127,22.0,54.0,285.0,13.0,33.0,15.0,16.0,19.0
5.250383377075195,27.0,54.0,877.0,0.0,32.0,22.0,23.0,5.0
5.252183437347412,52.0,22.0,11.0,0.0,40.0,16.0,30.0,5.0
5.2539167404174805,49.0,15.0,573.0,17.0,0.0,8.0,29.0,6.0
5.255650043487549,16.0,5.0,22.0,37.0,9.0,0.0,29.0,12.0
5.257383346557617,40.0,27.0,31.0,43.0,19.0,31.0,15.0,14.0
5.2591166496276855,28.0,23.0,32.0,0.0,13.0,39.0,0.0,16.0
5.260849952697754,16.0,19.0,32.0,24.0,14.0,41.0,5.0,0.0
5.262583255767822,10.0,21.0,60.0,47.0,16.0,22.0,24.0,8.0
5.264316558837891,0.0,23.0,532.0,33.0,18.0,39.0,43.0,17.0
5.266049861907959,5.0,13.0,283.0,27.0,21.0,29.0,32.0,16.0
5.267783164978027,11.0,24.0,34.0,24.0,23.0,18.0,31.0,14.0
5.269566535949707,18.0,17.0,54.0,26.0,5.0,15.0,30.0,18.0
5.271299839019775,26.0,11.0,28.0,46.0,25.0,38.0,27.0,0.0
5.273033142089844,28.0,5.0,27.0,0.0,20.0,36.0,42.0,6.0
5.274766445159912,28.0,0.0,23.0,21.0,10.0,31.0,5.0,15.0
5.276500225067139,27.0,126.0,24.0,0.0,10.0,26.0,5.0,28.0
5.278233528137207,14.0,87.0,20.0,15.0,14.0,27.0,5.0,26.0
5.279966831207275,16.0,47.0,15.0,10.0,20.0,29.0,5.0,24.0
5.281700134277344,20.0,23.0,27.0,17.0,749.0,20.0,2.0,23.0
5.283433437347412,23.0,14.0,34.0,0.0,397.0,17.0,0.0,21.0
5.285233497619629,14.0,5.0,31.0,5.0,45.0,47.0,6.0,0.0
5.286966800689697,5.0,30.0,27.0,13.0,17.0,26.0,3.0,65.0
5.288700103759766,65.0,33.0,11.0,11.0,907.0,6.0,0.0,59.0
5.290433406829834,41.0,0.0,14.0,28.0,459.0,14.0,5.0,11.0
5.292166709899902,17.0,12.0,16.0,17.0,10.0,29.0,8.0,14.0
5.293900012969971,29.0,17.0,5.0,5.0,40.0,0.0,11.0,40.0
5.295633316040039,15.0,7.0,2.0,34.0,6.0,27.0,45.0,0.0
5.297366619110107,37.0,26.0,0.0,11.0,35.0,10.0,37.0,15.0
5.299099922180176,41.0,28.0,5.0,0.0,32.0,18.0,28.0,19.0
5.300833225250244,44.0,17.0,34.0,36.0,28.0,25.0,27.0,16.0
5.302616596221924,54.0,5.0,25.0,5.0,31.0,25.0,21.0,43.0
5.304349899291992,18.0,40.0,15.0,15.0,33.0,24.0,35.0,69.0
5.3060832023620605,20.0,29.0,32.0,15.0,20.0,22.0,5.0,35.0
5.307816505432129,0.0,0.0,23.0,32.0,16.0,20.0,28.0,0.0
5.309549808502197,2.0,26.0,60.0,48.0,5.0,12.0,25.0,15.0
5.311283111572266,5.0,0.0,55.0,37.0,106.0,8.0,21.0,7.0
5.313016891479492,55.0,5.0,31.0,26.0,66.0,5.0,26.0,0.0
5.3147501945495605,47.0,19.0,11.0,16.0,26.0,380.0,31.0,4.0
5.316483497619629,686.0,0.0,0.0,36.0,19.0,190.0,5.0,7.0
5.318216800689697,900.0,5.0,5.0,10.0,12.0,0.0,25.0,28.0
5.320016860961914,60.0,18.0,0.0,14.0,19.0,299.0,38.0,32.0
5.321750164031982,32.0,12.0,19.0,19.0,33.0,5.0,22.0,5.0
5.323483467102051,17.0,17.0,17.0,10.0,19.0,8.0,23.0,38.0
5.325216770172119,9.0,22.0,14.0,36.0,5.0,12.0,545.0,23.0
5.3269500732421875,0.0,21.0,16.0,30.0,2.0,66.0,288.0,16.0
5.328683376312256,17.0,13.0,18.0,5.0,0.0,42.0,32.0,27.0
5.330416679382324,24.0,7.0,17.0,23.0,9.0,19.0,566.0,16.0
5.332149982452393,22.0,23.0,15.0,29.0,17.0,42.0,16.0,5.0
5.333883285522461,20.0,38.0,19.0,50.0,8.0,37.0,75.0,8.0
5.335616588592529,18.0,22.0,19.0,38.0,0.0,32.0,39.0,17.0
5.337399959564209,16.0,5.0,18.0,26.0,32.0,15.0,8.0,8.0
5.339133262634277,8.0,9.0,15.0,57.0,41.0,25.0,58.0,0.0
5.340866565704346,28.0,11.0,12.0,7.0,50.0,28.0,20.0,13.0
5.342599868774414,36.0,34.0,17.0,19.0,29.0,31.0,23.0,28.0
5.344333171844482,44.0,43.0,22.0,30.0,8.0,29.0,5.0,14.0
5.346066474914551,23.0,20.0,6.0,22.0,79.0,27.0,16.0,0.0
5.347799777984619,21.0,49.0,38.0,14.0,77.0,20.0,14.0,21.0
5.349533557891846,17.0,21.0,118.0,14.0,13.0,12.0,13.0,14.0
5.351266860961914,14.0,5.0,61.0,14.0,21.0,12.0,11.0,6.0
5.353066444396973,13.0,0.0,5.0,18.0,0.0,12.0,14.0,50.0
5.354800224304199,12.0,27.0,24.0,30.0,10.0,12.0,18.0,41.0
5.356533527374268,14.0,22.0,15.0,18.0,23.0,11.0,11.0,14.0
5.358266830444336,16.0,5.0,12.0,5.0,36.0,10.0,5.0,18.0
5.360000133514404,59.0,643.0,6.0,18.0,24.0,5.0,33.0,29.0
5.361733436584473,63.0,343.0,0.0,31.0,12.0,0.0,38.0,21.0
5.363466739654541,482.0,43.0,0.0,44.0,8.0,15.0,22.0,24.0
5.365200042724609,246.0,33.0,0.0,57.0,5.0,16.0,16.0,23.0
5.366933345794678,10.0,27.0,8.0,12.0,5.0,18.0,30.0,24.0
5.368666648864746,35.0,21.0,17.0,6.0,22.0,5.0,37.0,25.0
5.370450019836426,0.0,18.0,13.0,21.0,16.0,19.0,6.0,14.0
5.372183322906494,4.0,23.0,10.0,10.0,10.0,33.0,30.0,18.0
5.3739166259765625,7.0,32.0,29.0,59.0,27.0,39.0,25.0,22.0
5.375649929046631,4.0,32.0,42.0,37.0,48.0,26.0,20.0,21.0
5.377383232116699,0.0,31.0,54.0,15.0,29.0,16.0,17.0,7.0
5.379116535186768,11.0,18.0,20.0,23.0,11.0,21.0,11.0,10.0
5.380849838256836,21.0,16.0,40.0,15.0,16.0,12.0,5.0,31.0
5.382583141326904,34.0,18.0,59.0,34.0,8.0,26.0,44.0,30.0
5.384316444396973,30.0,20.0,43.0,30.0,0.0,27.0,42.0,14.0
5.386050224304199,12.0,21.0,26.0,25.0,8.0,0.0,22.0,28.0
5.387849807739258,12.0,22.0,32.0,17.0,26.0,39.0,20.0,12.0
5.389583110809326,12.0,32.0,5.0,9.0,18.0,40.0,20.0,6.0
5.391316890716553,13.0,244.0,11.0,32.0,10.0,41.0,21.0,0.0
5.393050193786621,14.0,128.0,18.0,25.0,11.0,36.0,27.0,2.0
5.3947834968566895,12.0,12.0,34.0,18.0,12.0,30.0,5.0,5.0
5.396516799926758,10.0,13.0,27.0,22.0,14.0,10.0,0.0,10.0
5.398250102996826,22.0,14.0,19.0,0.0,12.0,31.0,16.0,12.0
5.3999834060668945,59.0,28.0,5.0,29.0,11.0,16.0,18.0,15.0
5.401716709136963,68.0,38.0,19.0,6.0,14.0,0.0,26.0,16.0
5.403450012207031,78.0,48.0,17.0,85.0,17.0,20.0,23.0,18.0
5.405233383178711,8.0,26.0,25.0,824.0,31.0,15.0,20.0,12.0
5.406966686248779,0.0,41.0,33.0,1129.0,18.0,0.0,0.0,13.0
5.408699989318848,20.0,6.0,34.0,682.0,5.0,45.0,18.0,13.0
5.410433292388916,21.0,38.0,6.0,458.0,25.0,35.0,27.0,10.0
5.412166595458984,11.0,12.0,9.0,29.0,27.0,26.0,5.0,34.0
5.413899898529053,13.0,8.0,12.0,890.0,28.0,17.0,7.0,20.0
5.415633201599121,14.0,19.0,22.0,11.0,40.0,7.0,10.0,6.0
5.4173665046691895,7.0,16.0,31.0,769.0,57.0,14.0,8.0,16.0
5.419099807739258,0.0,5.0,473.0,700.0,73.0,27.0,6.0,26.0
5.420899868011475,0.0,15.0,367.0,448.0,0.0,849.0,51.0,5.0
5.422633171081543,15.0,48.0,260.0,779.0,560.0,789.0,55.0,39.0
5.424366474151611,23.0,229.0,373.0,1277.0,955.0,30.0,786.0,524.0
5.42609977722168,42.0,411.0,1159.0,4403.0,6012.0,517.0,1419.0,505.0
5.427833557128906,40.0,306.0,4287.0,8304.0,6857.0,3157.0,2263.0,23.0
5.429566860198975,0.0,3990.0,7801.0,10436.0,9992.0,4367.0,2672.0,1247.0
5.431300163269043,50.0,10748.0,23152.0,19504.0,16392.0,10892.0,3081.0,1296.0
5.433033466339111,30.0,9708.0,28512.0,34016.0,45344.0,17868.0,9760.0,1413.0
5.43476676940918,10.0,21296.0,50080.0,71712.0,64128.0,32768.0,12048.0,2296.0
5.436500072479248,62.0,33200.0,82688.0,102032.0,82608.0,53152.0,26240.0,7090.0
5.438283443450928,42.0,63344.0,147840.0,161472.0,131136.0,68192.0,28848.0,8098.0
5.440016746520996,0.0,84016.0,187328.0,202112.0,195648.0,102512.0,54208.0,10472.0
5.4417500495910645,18.0,160576.0,321856.0,335104.0,258688.0,147264.0,59696.0,18892.0
5.443483352661133,36.0,165312.0,361792.0,438976.0,336000.0,191424.0,90864.0,19960.0
5.445216655731201,38.0,261696.0,534272.0,572928.0,413568.0,271552.0,103200.0,27856.0
5.4469499588012695,39.0,318720.0,699904.0,706048.0,576256.0,333504.0,150528.0,30264.0
5.448683261871338,101.0,396864.0,776704.0,902656.0,660480.0,372224.0,164160.0,46528.0
5.450416564941406,129.0,482304.0,969728.0,1005312.0,835584.0,438656.0,201600.0,46464.0
5.452149868011475,512.0,489600.0,1072128.0,1051648.0,836352.0,489856.0,213376.0,51248.0
5.45389986038208,469.0,570112.0,1199616.0,1240576.0,945664.0,511552.0,229568.0,48656.0
5.4556498527526855,426.0,585728.0,1276928.0,1446656.0,1067776.0,610560.0,272832.0,40464.0
5.457383155822754,47.0,692224.0,1402880.0,1532160.0,1207296.0,628480.0,267584.0,46960.0
5.459116458892822,506.0,724480.0,1539072.0,1648896.0,1207552.0,700416.0,229696.0,53472.0
5.460849761962891,71.0,801536.0,1614592.0,1682176.0,1239296.0,736256.0,300736.0,51584.0
5.462583541870117,99.0,758272.0,1588992.0,1746432.0,1249536.0,722688.0,288576.0,49712.0
5.4643168449401855,218.0,803840.0,1642240.0,1731328.0,1370368.0,709120.0,290432.0,48688.0
5.466050148010254,926.0,727552.0,1527808.0,1702912.0,1344000.0,715776.0,280896.0,52656.0
5.467783451080322,999.0,816128.0,1684224.0,1807360.0,1393152.0,694528.0,265536.0,50416.0
5.469516754150391,1073.0,844544.0,1584896.0,1631744.0,1276928.0,660992.0,267776.0,48192.0
5.47130012512207,114.0,713984.0,1438976.0,1609728.0,1230848.0,656640.0,249664.0,50240.0
5.473050117492676,573.0,712960.0,1374208.0,1470720.0,1094656.0,588800.0,265024.0,55744.0
5.474783420562744,1210.0,664576.0,1312256.0,1333760.0,929792.0,524224.0,221888.0,36912.0
5.4765167236328125,86.0,638976.0,1227520.0,1215488.0,912896.0,497600.0,216256.0,34576.0
5.478250026702881,107.0,587008.0,1147648.0,1102336.0,837888.0,520832.0,201728.0,33440.0
5.479983329772949,174.0,475264.0,947968.0,983808.0,757760.0,388416.0,170496.0,31636.0
5.481716632843018,1551.0,464960.0,906496.0,961536.0,679936.0,345920.0,147328.0,31900.0
5.483449935913086,824.0,396288.0,777728.0,867840.0,572416.0,312960.0,122512.0,23296.0
5.485183238983154,97.0,349056.0,681984.0,724480.0,508608.0,303424.0,98464.0,24100.0
5.486916542053223,66.0,342272.0,586496.0,645376.0,476672.0,254592.0,85904.0,15852.0
5.488699913024902,83.0,287232.0,505664.0,529408.0,442176.0,207744.0,79072.0,17968.0
5.490433216094971,913.0,235264.0,426816.0,410944.0,354496.0,183040.0,59344.0,15544.0
5.492166519165039,1444.0,169984.0,354240.0,388800.0,287936.0,156416.0,61232.0,13944.0
5.493899822235107,921.0,143040.0,292672.0,296576.0,244864.0,136000.0,48560.0,12052.0
5.495633125305176,329.0,130736.0,254464.0,281344.0,213568.0,103376.0,32216.0,9988.0
5.497366428375244,15.0,118112.0,239680.0,241344.0,168640.0,103184.0,43120.0,6558.0
5.499100208282471,104.0,102880.0,179584.0,172928.0,141824.0,65264.0,34160.0,3509.0
5.500833511352539,37.0,76608.0,153280.0,184064.0,133056.0,77456.0,29996.0,8920.0
5.502566814422607,137.0,80688.0,123984.0,151488.0,109472.0,53840.0,26568.0,4940.0
5.504300117492676,69.0,62608.0,139712.0,123792.0,96656.0,45536.0,26736.0,5151.0
5.506100177764893,127.0,66448.0,114848.0,99856.0,91760.0,52096.0,18912.0,6538.0
5.507833480834961,126.0,55184.0,96624.0,99088.0,84512.0,43840.0,16592.0,1718.0
5.509566783905029,62.0,60688.0,96320.0,104240.0,79136.0,34304.0,13728.0,3693.0
5.511300086975098,28.0,53280.0,97424.0,109664.0,69728.0,42960.0,17556.0,1758.0
5.513033390045166,90.0,45264.0,69968.0,91552.0,74960.0,46656.0,16212.0,3805.0
5.514766693115234,77.0,44336.0,89632.0,82960.0,66480.0,31352.0,14788.0,2465.0
5.516499996185303,64.0,45824.0,77824.0,85040.0,75216.0,41824.0,17972.0,2753.0
5.518233299255371,27.0,34784.0,90240.0,95952.0,67168.0,36176.0,15680.0,3022.0
5.5199666023254395,41.0,29952.0,68832.0,74176.0,77312.0,21872.0,10016.0,3291.0
5.521699905395508,64.0,31728.0,66400.0,92064.0,53504.0,38624.0,10496.0,3019.0
5.523499965667725,46.0,26812.0,72960.0,70224.0,66752.0,30124.0,16028.0,1444.0
5.525233268737793,27.0,31816.0,58672.0,84048.0,55904.0,25292.0,11196.0,3104.0
5.526966571807861,43.0,31064.0,61616.0,78176.0,51424.0,24436.0,13988.0,1221.0
5.52869987487793,57.0,29076.0,64560.0,73152.0,45904.0,28052.0,12996.0,1563.0
5.530433177947998,51.0,34720.0,51616.0,64496.0,42784.0,29552.0,9152.0,2886.0
5.532166481018066,34.0,23020.0,51568.0,51280.0,42304.0,15972.0,8904.0,2502.0
5.533899784088135,50.0,26336.0,62832.0,45648.0,36032.0,23644.0,6863.0,1884.0
5.535633563995361,17.0,22028.0,42384.0,49024.0,36192.0,21212.0,10116.0,3160.0
5.53736686706543,23.0,23472.0,45904.0,47152.0,29392.0,18800.0,4217.0,2275.0
5.539150238037109,48.0,24920.0,39152.0,43056.0,20980.0,14048.0,8452.0,1469.0
5.540900230407715,33.0,25092.0,34368.0,42880.0,37936.0,15320.0,3978.0,1310.0
5.542633533477783,60.0,15496.0,33616.0,33584.0,33440.0,11272.0,7313.0,2387.0
5.544366836547852,13.0,21936.0,35872.0,33104.0,34032.0,5594.0,5814.0,919.0
5.54610013961792,42.0,20016.0,32620.0,29484.0,21428.0,13140.0,5410.0,29.0
5.547833442687988,27.0,16284.0,32112.0,23420.0,21732.0,15800.0,5012.0,1644.0
5.549566745758057,11.0,7006.0,31188.0,33424.0,15028.0,8043.0,5296.0,11.0
5.551300048828125,30.0,17000.0,23316.0,30188.0,20708.0,5625.0,4955.0,703.0
5.553033351898193,20.0,16292.0,25168.0,28472.0,18332.0,11592.0,4614.0,64.0
5.554766654968262,32.0,15564.0,17928.0,25124.0,20480.0,11192.0,3826.0,26.0
5.556550025939941,44.0,13424.0,23856.0,19184.0,14028.0,4287.0,948.0,154.0
5.55828332901001,25.0,5315.0,15444.0,22776.0,14564.0,4497.0,3362.0,77.0
5.560016632080078,5.0,13968.0,16336.0,22172.0,12672.0,9992.0,3080.0,0.0
5.5617499351501465,40.0,8520.0,15176.0,21564.0,14396.0,6610.0,2797.0,390.0
5.563483238220215,26.0,3990.0,16420.0,15672.0,16124.0,7457.0,1584.0,206.0
5.565216541290283,9.0,9508.0,15724.0,24776.0,7978.0,7933.0,1741.0,22.0
5.566949844360352,23.0,7223.0,13388.0,15880.0,14260.0,8680.0,1898.0,56.0
5.56868314743042,50.0,6025.0,14504.0,16408.0,7918.0,4873.0,4309.0,6.0
5.570416450500488,46.0,6473.0,15620.0,16260.0,13856.0,6862.0,4803.0,39.0
5.572150230407715,37.0,3999.0,10568.0,19736.0,9028.0,9408.0,1422.0,71.0
5.573949813842773,11.0,5305.0,9292.0,9052.0,4519.0,7743.0,2690.0,12.0
5.575683116912842,54.0,5233.0,7372.0,15128.0,5711.0,3326.0,1432.0,32.0
5.577416896820068,48.0,5660.0,10060.0,21968.0,5740.0,3112.0,1830.0,25.0
5.579150199890137,61.0,6086.0,9348.0,9904.0,13504.0,3123.0,836.0,61.0
5.580883502960205,14.0,1429.0,10772.0,13552.0,12592.0,3946.0,5.0,67.0
5.582616806030273,17.0,3219.0,11188.0,12704.0,11968.0,5706.0,3416.0,72.0
5.584350109100342,16.0,4596.0,9508.0,12364.0,11396.0,6069.0,3751.0,661.0
5.58608341217041,15.0,2517.0,11100.0,12884.0,10824.0,5651.0,2282.0,651.0
5.5878167152404785,5.0,6596.0,19260.0,26068.0,14832.0,17712.0,5679.0,243.0
5.589550018310547,14.0,8492.0,17556.0,33184.0,35936.0,21296.0,5970.0,2796.0
5.5913166999816895,22.0,15608.0,39296.0,58592.0,48208.0,27820.0,11852.0,3572.0
5.593050003051758,32.0,39136.0,63328.0,76400.0,64944.0,43552.0,17416.0,3937.0
5.594783306121826,42.0,33520.0,89904.0,126016.0,98784.0,71200.0,29748.0,8804.0
5.5965166091918945,45.0,61264.0,152192.0,229440.0,201728.0,87728.0,35824.0,7516.0
5.598249912261963,47.0,93664.0,216384.0,333120.0,259328.0,170240.0,57552.0,10396.0
5.599983215332031,29.0,124288.0,329536.0,450432.0,359360.0,220096.0,75280.0,16740.0
5.6017165184021,49.0,215168.0,401280.0,634368.0,539904.0,274112.0,98784.0,24116.0
5.603449821472168,5.0,222656.0,561664.0,785152.0,703488.0,403264.0,131712.0,25556.0
5.605183124542236,26.0,291904.0,748032.0,1066240.0,818176.0,483904.0,179648.0,26996.0
5.606983184814453,47.0,409408.0,835328.0,1225472.0,1105664.0,580608.0,199040.0,32124.0
5.6087164878845215,148.0,486464.0,1078528.0,1521920.0,1321216.0,691968.0,222592.0,42960.0
5.61044979095459,135.0,643840.0,1320960.0,1818880.0,1434368.0,797952.0,274240.0,41424.0
5.612183570861816,169.0,613120.0,1528832.0,2141184.0,1702912.0,975360.0,304192.0,49712.0
5.613916873931885,210.0,752640.0,1658624.0,2278400.0,1849856.0,1028096.0,326976.0,58016.0
5.615650177001953,81.0,847616.0,1849600.0,2620416.0,2188288.0,1185280.0,389888.0,70544.0
5.6173834800720215,194.0,990208.0,2104320.0,2969600.0,2344960.0,1310208.0,428416.0,76384.0
5.61911678314209,220.0,1049600.0,2204672.0,2995200.0,2307072.0,1204480.0,451904.0,95728.0
5.620850086212158,181.0,1052928.0,2334720.0,2992128.0,2583552.0,1375232.0,422336.0,92880.0
5.622583389282227,175.0,1104896.0,2272256.0,3085312.0,2491392.0,1440512.0,456832.0,91888.0
5.624383449554443,201.0,1122304.0,2592768.0,3129344.0,2653184.0,1470976.0,456384.0,94832.0
5.626116752624512,226.0,1139712.0,2501632.0,3174400.0,2562048.0,1423616.0,437248.0,91968.0
5.62785005569458,253.0,1155584.0,2595840.0,3187712.0,2613248.0,1486848.0,426816.0,82064.0
5.629583358764648,374.0,1171712.0,2435072.0,3200000.0,2491392.0,1449728.0,479232.0,96272.0
5.631316661834717,292.0,1192448.0,2473984.0,3171328.0,2477056.0,1395200.0,504320.0,84736.0
5.633049964904785,211.0,1171456.0,2370560.0,3147776.0,2462720.0,1310208.0,403584.0,93568.0
5.6347832679748535,222.0,1098240.0,2368512.0,3013632.0,2395136.0,1245440.0,406080.0,89616.0
5.636516571044922,275.0,1077504.0,2252800.0,2975744.0,2326528.0,1211648.0,379712.0,64416.0
5.63824987411499,270.0,1014784.0,2039296.0,2547712.0,1996288.0,1105920.0,337280.0,65312.0
5.639983177185059,240.0,927488.0,1754880.0,2394112.0,1922048.0,1059840.0,335936.0,69808.0
5.641783237457275,210.0,851968.0,1722368.0,2311168.0,1901312.0,985600.0,246080.0,51376.0
5.643516540527344,241.0,764928.0,1531392.0,2139136.0,1659136.0,817664.0,293952.0,60048.0
5.645249843597412,268.0,708864.0,1403904.0,1909504.0,1480192.0,759552.0,244160.0,47392.0
5.646999835968018,264.0,621824.0,1308160.0,1791232.0,1306112.0,762112.0,241024.0,36320.0
5.648716449737549,259.0,582144.0,1189888.0,1610752.0,1240576.0,614144.0,195456.0,42352.0
5.650450229644775,249.0,559872.0,1075968.0,1473024.0,1016576.0,557312.0,163968.0,28404.0
5.652183532714844,163.0,471616.0,962048.0,1208576.0,887808.0,498560.0,165760.0,40736.0
5.653916835784912,212.0,401728.0,790016.0,1097728.0,822528.0,444032.0,144960.0,31464.0
5.6556501388549805,89.0,373888.0,756480.0,928768.0,779008.0,355392.0,131136.0,24792.0
5.657400131225586,108.0,323008.0,635648.0,805888.0,628992.0,331328.0,97792.0,19256.0
5.659150123596191,127.0,248192.0,551936.0,759296.0,517760.0,266432.0,96240.0,18452.0
5.66088342666626,89.0,217856.0,489472.0,593408.0,467520.0,232896.0,63088.0,17560.0
5.662616729736328,91.0,185280.0,359232.0,451776.0,365248.0,212288.0,65600.0,12048.0
5.6643500328063965,118.0,155136.0,292352.0,422656.0,281600.0,150080.0,51440.0,9732.0
5.666083335876465,112.0,132416.0,236480.0,343808.0,251264.0,134976.0,43136.0,11024.0
5.667816638946533,105.0,113152.0,239232.0,289536.0,217600.0,105904.0,36176.0,4477.0
5.669549942016602,41.0,93680.0,194624.0,248384.0,201152.0,95440.0,31664.0,4085.0
5.67128324508667,73.0,77168.0,165632.0,188352.0,164480.0,90400.0,31280.0,5026.0
5.673016548156738,70.0,77728.0,126512.0,167744.0,150080.0,61984.0,29884.0,3060.0
5.674816608428955,67.0,73472.0,113664.0,162112.0,125696.0,75008.0,13688.0,3347.0
5.676549911499023,68.0,53008.0,108240.0,140736.0,119168.0,56208.0,28068.0,3634.0
5.678283214569092,121.0,53792.0,87264.0,126624.0,115392.0,38256.0,13736.0,3768.0
5.68001651763916,93.0,42720.0,84160.0,107728.0,106160.0,48304.0,16672.0,3903.0
5.6817498207092285,64.0,31820.0,81584.0,103920.0,89056.0,49584.0,8740.0,1381.0
5.683483123779297,39.0,47584.0,89760.0,102976.0,81248.0,45824.0,7683.0,340.0
5.685216903686523,89.0,33072.0,85760.0,79280.0,74832.0,45952.0,11368.0,1623.0
5.686950206756592,58.0,33536.0,80016.0,99280.0,78480.0,40288.0,12784.0,1462.0
5.68868350982666,33.0,30956.0,67392.0,91696.0,67296.0,35920.0,13268.0,1300.0
5.6904168128967285,121.0,32680.0,70128.0,101264.0,72016.0,36016.0,13756.0,953.0
5.692200183868408,81.0,32376.0,67344.0,65552.0,73504.0,34304.0,12592.0,606.0
5.693933486938477,42.0,32076.0,61984.0,75424.0,78880.0,32576.0,10048.0,3456.0
5.695666790008545,64.0,28400.0,56144.0,95584.0,58240.0,29480.0,8620.0,3623.0
5.697400093078613,64.0,30556.0,57840.0,73888.0,51152.0,31168.0,8964.0,2240.0
5.699133396148682,52.0,29604.0,56016.0,78160.0,59552.0,32864.0,9308.0,4102.0
5.70086669921875,38.0,24836.0,55312.0,58416.0,48608.0,22720.0,11160.0,1979.0
5.702600002288818,47.0,29924.0,50848.0,65680.0,49504.0,28940.0,3321.0,2030.0
5.704333305358887,58.0,20648.0,45792.0,53040.0,46464.0,21944.0,7751.0,917.0
5.706066608428955,48.0,15844.0,44192.0,49920.0,43440.0,22512.0,7160.0,1357.0
5.707799911499023,25.0,29064.0,42608.0,56272.0,42000.0,25164.0,3354.0,1463.0
5.70959997177124,850.0,18044.0,44480.0,45168.0,43360.0,24516.0,6147.0,2272.0
5.711333274841309,846.0,23732.0,40288.0,40400.0,42576.0,15160.0,6339.0,2054.0
5.713066577911377,22.0,14720.0,39920.0,51824.0,47360.0,21744.0,6457.0,822.0
5.714799880981445,31.0,18596.0,36960.0,43408.0,46128.0,17996.0,6762.0,363.0
5.716533184051514,55.0,12892.0,31420.0,47808.0,38864.0,15708.0,5243.0,813.0
5.718266487121582,52.0,12808.0,31688.0,38560.0,36432.0,16636.0,4227.0,428.0
5.71999979019165,41.0,14092.0,32144.0,38912.0,37856.0,19924.0,4618.0,2199.0
5.721733570098877,46.0,15388.0,26908.0,36176.0,30504.0,21376.0,5009.0,2513.0
5.723466873168945,51.0,5582.0,26228.0,30976.0,26552.0,10348.0,5570.0,967.0
5.725233554840088,19.0,14700.0,22508.0,33616.0,24800.0,21516.0,4541.0,363.0
5.726966857910156,31.0,10492.0,23488.0,33424.0,29680.0,14948.0,3511.0,583.0
5.728700160980225,39.0,12256.0,14908.0,31148.0,21712.0,11040.0,4065.0,771.0
5.730433464050293,25.0,11828.0,26396.0,29076.0,21984.0,5868.0,3002.0,87.0
5.732166767120361,45.0,8188.0,20408.0,31636.0,30972.0,16288.0,852.0,73.0
5.73390007019043,18.0,7522.0,16376.0,29180.0,19276.0,17772.0,1973.0,59.0
5.735633373260498,59.0,5870.0,22616.0,26648.0,17508.0,9256.0,2452.0,63.0
5.737366676330566,58.0,6465.0,23272.0,26336.0,18080.0,7336.0,1736.0,786.0
5.739099979400635,57.0,7060.0,19296.0,15396.0,20204.0,14072.0,4561.0,978.0
5.740833282470703,38.0,7773.0,13380.0,18304.0,15564.0,4368.0,4751.0,624.0
5.74263334274292,30.0,7716.0,17668.0,24908.0,17176.0,7923.0,2740.0,723.0
5.744366645812988,26.0,7344.0,18020.0,16236.0,23576.0,15136.0,2023.0,42.0
5.746099948883057,33.0,7493.0,10084.0,16956.0,9184.0,6218.0,1046.0,38.0
5.747833251953125,45.0,5202.0,9208.0,18424.0,14972.0,8844.0,1448.0,33.0
5.749566555023193,56.0,9136.0,12536.0,19048.0,16652.0,8408.0,1274.0,709.0
5.751299858093262,51.0,4888.0,12272.0,19316.0,12920.0,1641.0,1100.0,552.0
5.75303316116333,47.0,3370.0,14616.0,12732.0,14300.0,7449.0,2202.0,868.0
5.754766464233398,43.0,6598.0,8196.0,20636.0,8097.0,6310.0,1951.0,811.0
5.756499767303467,36.0,6019.0,12276.0,13544.0,15604.0,10028.0,1368.0,754.0
5.758233547210693,54.0,1016.0,6647.0,12536.0,18424.0,6201.0,1095.0,1073.0
5.760016441345215,24.0,4554.0,10644.0,18848.0,11972.0,5486.0,1103.0,1308.0
5.76176643371582,10.0,4651.0,14496.0,10564.0,13412.0,7444.0,1112.0,1542.0
5.76348352432251,33.0,2929.0,9932.0,10916.0,10476.0,5635.0,958.0,45.0
5.765216827392578,38.0,4060.0,13368.0,9620.0,11212.0,3574.0,804.0,23.0
5.7669501304626465,28.0,5190.0,8352.0,8768.0,11784.0,6646.0,1629.0,1286.0
5.768683433532715,16.0,2259.0,8480.0,9352.0,12352.0,5368.0,1865.0,17.0
5.770416736602783,28.0,5762.0,8320.0,9932.0,7338.0,4089.0,38.0,10.0
5.772150039672852,40.0,5504.0,7262.0,14492.0,13664.0,4477.0,531.0,16.0
5.77388334274292,7.0,2011.0,9120.0,11956.0,8468.0,3070.0,1645.0,16.0
5.775616645812988,260.0,4178.0,6630.0,9424.0,9604.0,4131.0,346.0,16.0
5.777416706085205,153.0,5646.0,7220.0,13968.0,9044.0,5192.0,513.0,20.0
5.779150009155273,45.0,4837.0,6051.0,9576.0,8240.0,5317.0,679.0,45.0
5.780883312225342,32.0,4028.0,4881.0,9380.0,7361.0,1745.0,905.0,49.0
5.78261661529541,11.0,6338.0,6123.0,11304.0,6481.0,2758.0,1132.0,52.0
5.7843499183654785,29.0,3068.0,7366.0,10436.0,5987.0,3771.0,943.0,173.0
5.786083221435547,24.0,6330.0,7736.0,9564.0,5492.0,1998.0,755.0,113.0
5.787816524505615,21.0,5357.0,8296.0,12144.0,6767.0,3918.0,1466.0,53.0
5.789549827575684,17.0,7793.0,8003.0,8836.0,8041.0,4646.0,1019.0,54.0
5.791283130645752,16.0,4615.0,7710.0,13540.0,8608.0,1270.0,572.0,47.0
5.7930498123168945,20.0,4589.0,7670.0,11128.0,7656.0,2866.0,3370.0,39.0
5.794783115386963,23.0,2630.0,7630.0,13976.0,6706.0,2711.0,1737.0,84.0
5.7965168952941895,22.0,5586.0,7433.0,8756.0,9712.0,2648.0,104.0,62.0
5.798250198364258,36.0,4388.0,7235.0,9944.0,9376.0,2584.0,2141.0,40.0
