,285.1600036621094,286.1600036621094,287.1600036621094,288.1600036621094,289.1600036621094,290.1600036621094,291.1600036621094
3.001516580581665,0.0,0.0,20.0,464.0,37.0,2549.0,3626.0
3.003033399581909,23.0,25.0,23.0,5.0,11.0,2214.0,4399.0
3.004549980163574,32.0,40.0,11.0,169.0,45.0,3621.0,6348.0
3.0060665607452393,23.0,11.0,44.0,38.0,19.0,994.0,6337.0
3.0075833797454834,14.0,21.0,42.0,17.0,38.0,3305.0,2800.0
3.0090999603271484,19.0,30.0,41.0,95.0,58.0,2706.0,3769.0
3.0106167793273926,24.0,0.0,40.0,122.0,444.0,2797.0,3047.0
3.0121333599090576,43.0,20.0,39.0,5.0,237.0,2235.0,4961.0
3.0136499404907227,25.0,16.0,31.0,35.0,30.0,3115.0,6300.0
3.015166759490967,7.0,12.0,5.0,57.0,6.0,1314.0,4826.0
3.016683340072632,70.0,7.0,50.0,43.0,42.0,3651.0,3352.0
3.0182666778564453,56.0,13.0,8.0,5.0,8.0,2276.0,5545.0
3.0197832584381104,34.0,15.0,11.0,17.0,16.0,850.0,2883.0
3.0213000774383545,11.0,20.0,13.0,29.0,29.0,1260.0,2099.0
3.0228166580200195,0.0,15.0,12.0,29.0,45.0,1670.0,7554.0
3.0243332386016846,7.0,10.0,11.0,28.0,35.0,2438.0,5095.0
3.0258500576019287,11.0,24.0,38.0,22.0,0.0,2226.0,2272.0
3.0273666381835938,12.0,22.0,44.0,20.0,11.0,3184.0,3288.0
3.028883218765259,12.0,20.0,41.0,32.0,24.0,3911.0,1919.0
3.030400037765503,7.0,27.0,24.0,29.0,22.0,4638.0,2219.0
3.031916618347168,17.0,29.0,20.0,25.0,41.0,3380.0,718.0
3.033433437347412,9.0,17.0,5.0,34.0,20.0,992.0,1870.0
3.0350167751312256,0.0,9.0,0.0,37.0,0.0,3499.0,710.0
3.0365333557128906,15.0,5.0,14.0,39.0,22.0,4057.0,1875.0
3.0380499362945557,24.0,10.0,28.0,48.0,16.0,1829.0,3040.0
3.0395667552948,27.0,19.0,22.0,23.0,21.0,1031.0,3678.0
3.041083335876465,30.0,16.0,15.0,29.0,18.0,608.0,735.0
3.04259991645813,16.0,13.0,15.0,12.0,20.0,2366.0,3088.0
3.044116735458374,18.0,22.0,5.0,27.0,22.0,1579.0,2641.0
3.045633316040039,19.0,18.0,12.0,10.0,0.0,791.0,3900.0
3.047149896621704,0.0,13.0,18.0,8.0,5.0,1363.0,4009.0
3.0486667156219482,12.0,9.0,193.0,0.0,10.0,2138.0,4118.0
3.0501832962036133,23.0,5.0,109.0,10.0,15.0,2914.0,3647.0
3.0517666339874268,7.0,16.0,24.0,16.0,11.0,2733.0,2645.0
3.053283214569092,18.0,10.0,34.0,29.0,7.0,2551.0,1812.0
3.054800033569336,27.0,14.0,53.0,35.0,874.0,3036.0,2093.0
3.056316614151001,18.0,13.0,29.0,26.0,856.0,1193.0,1557.0
3.057833433151245,8.0,11.0,32.0,44.0,12.0,2290.0,3021.0
3.05935001373291,15.0,17.0,19.0,71.0,471.0,1165.0,3049.0
3.060866594314575,5.0,21.0,69.0,56.0,69.0,1049.0,940.0
3.0623834133148193,16.0,23.0,65.0,42.0,41.0,2205.0,3174.0
3.0638999938964844,14.0,25.0,22.0,19.0,48.0,571.0,2404.0
3.0654165744781494,13.0,46.0,57.0,28.0,14.0,1213.0,3711.0
3.0669333934783936,7.0,41.0,31.0,18.0,20.0,609.0,3313.0
3.068516731262207,0.0,12.0,5.0,39.0,26.0,5.0,2915.0
3.070033311843872,3.0,6.0,0.0,34.0,35.0,1414.0,1622.0
3.071549892425537,5.0,6.0,29.0,16.0,43.0,1190.0,1151.0
3.0730667114257812,71.0,5.0,36.0,11.0,37.0,1508.0,792.0
3.0745832920074463,45.0,5.0,25.0,24.0,48.0,1505.0,684.0
3.0761001110076904,18.0,0.0,15.0,23.0,39.0,2550.0,576.0
3.0776166915893555,26.0,19.0,8.0,53.0,30.0,3354.0,2080.0
3.0791332721710205,40.0,27.0,0.0,61.0,24.0,2812.0,3584.0
3.0806500911712646,54.0,38.0,0.0,23.0,22.0,15.0,3798.0
3.0821666717529297,35.0,40.0,19.0,6.0,19.0,3410.0,2425.0
3.0836832523345947,16.0,17.0,21.0,22.0,18.0,5175.0,2631.0
3.085249900817871,11.0,43.0,23.0,14.0,16.0,2279.0,1457.0
3.0867667198181152,5.0,27.0,23.0,5.0,10.0,3692.0,2800.0
3.0882833003997803,5.0,5.0,22.0,10.0,21.0,2263.0,2592.0
3.0897998809814453,5.0,21.0,20.0,15.0,13.0,2734.0,1483.0
3.0913166999816895,0.0,18.0,32.0,8.0,5.0,2442.0,1984.0
3.0928332805633545,23.0,15.0,27.0,0.0,26.0,817.0,1497.0
3.0943500995635986,51.0,19.0,21.0,3.0,18.0,2935.0,348.0
3.0958666801452637,38.0,21.0,21.0,5.0,30.0,3227.0,462.0
3.0973832607269287,14.0,15.0,30.0,17.0,39.0,388.0,575.0
3.098900079727173,15.0,0.0,22.0,21.0,47.0,0.0,854.0
3.100416660308838,19.0,37.0,14.0,10.0,14.0,506.0,1133.0
3.101966619491577,10.0,25.0,22.0,12.0,5.0,1717.0,2271.0
3.1034834384918213,27.0,59.0,21.0,17.0,19.0,1795.0,2635.0
3.1050000190734863,27.0,58.0,20.0,23.0,33.0,658.0,2999.0
3.1065165996551514,23.0,0.0,13.0,24.0,26.0,977.0,100.0
3.1080334186553955,9.0,42.0,0.0,24.0,19.0,897.0,2278.0
3.1095499992370605,31.0,31.0,10.0,28.0,21.0,822.0,1533.0
3.1110665798187256,16.0,10.0,19.0,31.0,22.0,2584.0,2888.0
3.1125833988189697,18.0,5.0,10.0,34.0,23.0,2999.0,1668.0
3.1140999794006348,21.0,7.0,0.0,19.0,43.0,2508.0,1120.0
3.1156165599823,35.0,8.0,6.0,15.0,36.0,774.0,4008.0
3.117133378982544,44.0,9.0,12.0,10.0,30.0,26.0,3479.0
3.1187000274658203,53.0,32.0,5.0,10.0,34.0,1755.0,858.0
3.1202332973480225,7.0,19.0,12.0,10.0,45.0,1105.0,3575.0
3.1217501163482666,35.0,5.0,18.0,8.0,5.0,2809.0,1054.0
3.1232666969299316,16.0,29.0,29.0,5.0,13.0,2383.0,1148.0
3.1247832775115967,47.0,13.0,28.0,0.0,33.0,1247.0,1916.0
3.126300096511841,29.0,39.0,40.0,7.0,45.0,18.0,979.0
3.127816677093506,8.0,40.0,0.0,14.0,32.0,2555.0,41.0
3.129333257675171,53.0,41.0,26.0,12.0,19.0,1662.0,413.0
3.130850076675415,24.0,21.0,23.0,9.0,5.0,688.0,784.0
3.13236665725708,11.0,10.0,5.0,12.0,12.0,2791.0,2757.0
3.133883237838745,48.0,10.0,38.0,28.0,19.0,753.0,3433.0
3.1354000568389893,12.0,14.0,30.0,21.0,26.0,3221.0,1180.0
3.1369833946228027,30.0,17.0,22.0,14.0,13.0,12.0,196.0
3.1384999752044678,14.0,18.0,21.0,24.0,0.0,1198.0,1091.0
3.140016555786133,10.0,18.0,41.0,25.0,5.0,352.0,1239.0
3.141533374786377,6.0,20.0,40.0,18.0,23.0,1783.0,3136.0
3.143049955368042,12.0,21.0,10.0,11.0,37.0,1031.0,2344.0
3.144566774368286,18.0,16.0,0.0,7.0,26.0,345.0,824.0
3.146083354949951,24.0,10.0,17.0,10.0,16.0,943.0,17.0
3.147599935531616,23.0,21.0,10.0,12.0,17.0,15.0,5.0
3.1491167545318604,5.0,14.0,29.0,6.0,10.0,978.0,20.0
3.1506333351135254,30.0,7.0,21.0,0.0,0.0,10.0,20.0
3.1521499156951904,24.0,13.0,33.0,0.0,13.0,678.0,19.0
3.153733253479004,17.0,0.0,33.0,0.0,9.0,29.0,293.0
3.155250072479248,37.0,25.0,10.0,67.0,0.0,21.0,566.0
3.156766653060913,9.0,20.0,28.0,90.0,0.0,17.0,757.0
3.158283233642578,15.0,14.0,22.0,24.0,17.0,20.0,49.0
3.1598000526428223,19.0,5.0,18.0,16.0,16.0,29.0,77.0
3.1613166332244873,10.0,5.0,14.0,12.0,14.0,23.0,46.0
3.1628334522247314,0.0,17.0,13.0,0.0,26.0,17.0,49.0
3.1643500328063965,38.0,54.0,12.0,5.0,23.0,17.0,53.0
3.1658666133880615,27.0,43.0,19.0,10.0,34.0,19.0,45.0
3.1673834323883057,17.0,31.0,17.0,6.0,8.0,7.0,37.0
3.1689000129699707,16.0,42.0,15.0,5.0,21.0,17.0,27.0
3.170466661453247,6.0,22.0,0.0,9.0,35.0,22.0,17.0
3.171983242034912,18.0,19.0,8.0,12.0,14.0,27.0,46.0
3.1735000610351562,16.0,15.0,15.0,19.0,22.0,26.0,30.0
3.1750166416168213,12.0,0.0,29.0,25.0,13.0,25.0,0.0
3.1765332221984863,14.0,10.0,21.0,18.0,15.0,5.0,25.0
3.1780500411987305,16.0,20.0,12.0,10.0,27.0,15.0,13.0
3.1795666217803955,11.0,10.0,9.0,22.0,5.0,25.0,15.0
3.1810834407806396,5.0,5.0,0.0,6.0,15.0,30.0,18.0
3.1826000213623047,23.0,37.0,15.0,9.0,16.0,36.0,15.0
3.1841166019439697,29.0,33.0,52.0,11.0,0.0,35.0,11.0
3.185633420944214,0.0,7.0,39.0,23.0,31.0,33.0,10.0
3.1872167587280273,24.0,33.0,55.0,16.0,21.0,5.0,13.0
3.1887333393096924,41.0,46.0,15.0,10.0,14.0,0.0,21.0
3.1902499198913574,16.0,32.0,15.0,14.0,0.0,38.0,38.0
3.1917667388916016,11.0,25.0,20.0,73.0,5.0,15.0,46.0
3.1932833194732666,6.0,13.0,10.0,45.0,0.0,33.0,817.0
3.1947999000549316,5.0,0.0,0.0,16.0,6.0,43.0,974.0
3.196316719055176,31.0,5.0,15.0,12.0,12.0,54.0,35.0
3.197833299636841,33.0,10.0,0.0,16.0,26.0,5.0,30.0
3.199350118637085,31.0,13.0,9.0,17.0,31.0,12.0,553.0
3.20086669921875,14.0,51.0,27.0,17.0,15.0,24.0,5.0
3.202383279800415,23.0,28.0,26.0,47.0,0.0,19.0,30.0
3.2039499282836914,12.0,5.0,25.0,38.0,12.0,14.0,24.0
3.2054667472839355,10.0,23.0,27.0,28.0,24.0,26.0,17.0
3.2069833278656006,5.0,30.0,28.0,30.0,0.0,26.0,66.0
3.2084999084472656,17.0,62.0,0.0,36.0,10.0,25.0,56.0
3.2100167274475098,18.0,47.0,26.0,11.0,40.0,5.0,47.0
3.211533308029175,19.0,31.0,16.0,35.0,39.0,24.0,82.0
3.21304988861084,24.0,26.0,5.0,58.0,38.0,21.0,15.0
3.214566707611084,20.0,0.0,11.0,39.0,40.0,37.0,5.0
3.216083288192749,16.0,34.0,16.0,56.0,22.0,70.0,38.0
3.217600107192993,7.0,26.0,10.0,16.0,0.0,43.0,31.0
3.219116687774658,0.0,37.0,202.0,29.0,22.0,15.0,11.0
3.2207000255584717,18.0,48.0,115.0,244.0,18.0,14.0,0.0
3.2222166061401367,35.0,17.0,28.0,459.0,13.0,12.0,3.0
3.223733425140381,26.0,752.0,450.0,696.0,13.0,720.0,5.0
3.225250005722046,0.0,1000.0,872.0,954.0,13.0,698.0,8.0
3.226766586303711,10.0,1203.0,1124.0,1211.0,3568.0,821.0,11.0
3.228283405303955,8.0,1562.0,4919.0,4310.0,4967.0,3232.0,18.0
3.22979998588562,32.0,1921.0,5021.0,8792.0,9888.0,2930.0,24.0
3.231316566467285,28.0,4662.0,12720.0,14528.0,8504.0,5388.0,1504.0
3.2328333854675293,15.0,6570.0,17184.0,25000.0,10172.0,5240.0,1535.0
3.2343499660491943,14.0,8480.0,29716.0,32632.0,26596.0,10152.0,4819.0
3.2358667850494385,12.0,16008.0,33376.0,45440.0,37232.0,14316.0,4968.0
3.2374167442321777,14.0,26780.0,61360.0,63392.0,45520.0,22060.0,5118.0
3.23895001411438,15.0,39952.0,77072.0,74160.0,47840.0,29688.0,4329.0
3.240466594696045,25.0,56720.0,101152.0,129264.0,91360.0,34272.0,9176.0
3.241983413696289,34.0,81472.0,142144.0,168768.0,111760.0,59936.0,17744.0
3.243499994277954,33.0,79584.0,196992.0,191680.0,143872.0,76992.0,17748.0
3.245016574859619,28.0,99424.0,251840.0,286016.0,195584.0,79120.0,29180.0
3.2465333938598633,29.0,171456.0,288064.0,339648.0,276480.0,95184.0,26068.0
3.2480499744415283,29.0,190848.0,376576.0,442240.0,334720.0,114608.0,39648.0
3.2495665550231934,18.0,217728.0,486400.0,500032.0,334016.0,136384.0,33424.0
3.2510833740234375,29.0,305088.0,529664.0,552192.0,394496.0,177280.0,48016.0
3.2525999546051025,41.0,312832.0,600576.0,664832.0,430720.0,193024.0,56496.0
3.2541167736053467,57.0,325632.0,699648.0,728064.0,516416.0,209280.0,58656.0
3.25570011138916,43.0,400896.0,809472.0,836096.0,585728.0,204544.0,54112.0
3.257216691970825,45.0,450624.0,838144.0,876288.0,599040.0,234304.0,49568.0
3.2587332725524902,47.0,484608.0,951552.0,969728.0,708096.0,256320.0,64016.0
3.2602500915527344,94.0,507904.0,1035008.0,1053440.0,740608.0,280768.0,61088.0
3.2617666721343994,113.0,548608.0,1063168.0,1041408.0,766464.0,342720.0,70848.0
3.2632832527160645,132.0,622336.0,1176576.0,1135616.0,786688.0,316352.0,78112.0
3.2648000717163086,107.0,608256.0,1220096.0,1242368.0,819456.0,357376.0,82768.0
3.2663166522979736,147.0,645888.0,1184000.0,1296384.0,851968.0,378560.0,89904.0
3.2678332328796387,64.0,657920.0,1301248.0,1360896.0,883968.0,383616.0,88672.0
3.269350051879883,117.0,756992.0,1296896.0,1390848.0,941824.0,389312.0,97520.0
3.270866632461548,113.0,750336.0,1321216.0,1403904.0,948736.0,387840.0,94384.0
3.272433280944824,92.0,824576.0,1457664.0,1417984.0,955648.0,386368.0,87664.0
3.2739500999450684,142.0,836096.0,1451264.0,1447424.0,1017856.0,379712.0,89104.0
3.2754666805267334,146.0,761600.0,1432064.0,1498880.0,978944.0,388224.0,99280.0
3.2769832611083984,165.0,769792.0,1413120.0,1550080.0,940032.0,379584.0,98976.0
3.2785000801086426,166.0,815872.0,1443072.0,1520896.0,1047296.0,406976.0,110448.0
3.2800166606903076,168.0,772864.0,1402368.0,1464320.0,1033472.0,392960.0,109040.0
3.2815332412719727,372.0,827136.0,1369088.0,1388800.0,987648.0,378944.0,103456.0
3.283050060272217,577.0,745472.0,1298432.0,1351680.0,891136.0,358848.0,78864.0
3.284566640853882,2141.0,735488.0,1327104.0,1376512.0,922624.0,398912.0,87088.0
3.286083221435547,2724.0,632832.0,1137920.0,1239552.0,815360.0,344768.0,83824.0
3.287616729736328,1556.0,690432.0,1144576.0,1072384.0,794368.0,351680.0,78032.0
3.2891833782196045,1100.0,606464.0,1111552.0,1119488.0,734976.0,273408.0,71488.0
3.2906999588012695,133.0,569344.0,1038848.0,1017344.0,650496.0,245184.0,63648.0
3.2922167778015137,1533.0,553728.0,944640.0,925184.0,578560.0,253312.0,54432.0
3.2937333583831787,132.0,504448.0,833536.0,909312.0,566784.0,201920.0,59040.0
3.2952499389648438,696.0,445760.0,839168.0,843776.0,570112.0,204864.0,47280.0
3.296766757965088,1769.0,358144.0,692224.0,689664.0,411968.0,166720.0,41568.0
3.298283338546753,958.0,360704.0,646656.0,562432.0,385600.0,136640.0,41584.0
3.299799919128418,147.0,319040.0,548096.0,554752.0,336192.0,139840.0,30940.0
3.301316738128662,1327.0,273600.0,508160.0,503488.0,320768.0,133632.0,32236.0
3.302833318710327,689.0,214848.0,400640.0,415424.0,269312.0,90784.0,25928.0
3.304349899291992,51.0,211392.0,347136.0,357184.0,244544.0,75184.0,27328.0
3.3059165477752686,504.0,174400.0,287424.0,305216.0,194304.0,72736.0,23572.0
3.3074333667755127,684.0,160768.0,276416.0,273664.0,153856.0,67984.0,23384.0
3.3089499473571777,669.0,121328.0,220352.0,249920.0,149248.0,60448.0,11716.0
3.310466766357422,654.0,101456.0,196480.0,200064.0,123776.0,43168.0,17548.0
3.311983346939087,514.0,93904.0,154048.0,178048.0,95616.0,41680.0,11568.0
3.313499927520752,373.0,87440.0,129456.0,137792.0,101232.0,31196.0,7305.0
3.315016746520996,348.0,75280.0,130880.0,121200.0,63984.0,25060.0,7080.0
3.316533327102661,207.0,67456.0,94464.0,106528.0,60656.0,25036.0,6368.0
3.3180665969848633,66.0,42528.0,69600.0,67344.0,57792.0,20340.0,7364.0
3.3195667266845703,81.0,32976.0,68208.0,77136.0,52304.0,20544.0,5081.0
3.3210833072662354,97.0,36896.0,60368.0,60512.0,38432.0,22388.0,4807.0
3.322666645050049,304.0,32848.0,47232.0,55936.0,33984.0,14160.0,6637.0
3.324183225631714,511.0,26660.0,67248.0,56656.0,31468.0,15724.0,4550.0
3.325700044631958,277.0,21604.0,36176.0,42896.0,32536.0,12560.0,4449.0
3.327216625213623,44.0,27028.0,35568.0,39776.0,23240.0,9556.0,4152.0
3.328733444213867,60.0,20176.0,38304.0,37040.0,27208.0,6715.0,4158.0
3.3302500247955322,78.0,19660.0,40048.0,37072.0,26800.0,9720.0,976.0
3.3317666053771973,95.0,19148.0,38672.0,37376.0,27864.0,13700.0,2176.0
3.3332834243774414,91.0,13772.0,32548.0,37696.0,28928.0,14220.0,3008.0
3.3348000049591064,46.0,16356.0,40480.0,38608.0,20264.0,5426.0,2475.0
3.3363165855407715,43.0,17908.0,33152.0,24576.0,19884.0,9048.0,893.0
3.3378334045410156,41.0,19532.0,28056.0,23572.0,16352.0,8676.0,2757.0
3.339400053024292,5.0,17976.0,31484.0,30688.0,12336.0,8248.0,1109.0
3.340916633605957,7.0,13152.0,27036.0,28072.0,15080.0,8022.0,3168.0
3.342433214187622,8.0,19552.0,34928.0,25452.0,17824.0,7252.0,1751.0
3.343950033187866,18.0,12624.0,22792.0,24088.0,13092.0,8336.0,1713.0
3.3454666137695312,27.0,11004.0,23272.0,20908.0,11604.0,6183.0,876.0
3.3469834327697754,46.0,10136.0,25552.0,25160.0,13252.0,7781.0,1754.0
3.3485000133514404,46.0,12580.0,19824.0,18344.0,8940.0,4757.0,1312.0
3.3500165939331055,46.0,6565.0,15396.0,19224.0,11580.0,4002.0,3985.0
3.3515334129333496,196.0,13220.0,11972.0,21260.0,11220.0,4675.0,3278.0
3.3530499935150146,119.0,8708.0,13824.0,16668.0,7627.0,3296.0,2330.0
3.3545665740966797,41.0,2144.0,13152.0,14484.0,11752.0,2430.0,1106.0
3.356133222579956,85.0,9800.0,12772.0,14992.0,6549.0,2398.0,2997.0
3.3576667308807373,29.0,4343.0,11356.0,15828.0,6179.0,518.0,3527.0
3.3591833114624023,59.0,6939.0,10804.0,14416.0,5154.0,6410.0,830.0
3.3606998920440674,0.0,4695.0,8296.0,13172.0,6609.0,5150.0,1812.0
3.3622167110443115,46.0,4215.0,17056.0,7179.0,8632.0,4295.0,1464.0
3.3637332916259766,29.0,5589.0,16580.0,15596.0,10660.0,2494.0,1482.0
3.3652501106262207,20.0,5452.0,8852.0,11024.0,9604.0,3673.0,1375.0
3.3667666912078857,29.0,5315.0,13388.0,13748.0,7615.0,3268.0,1267.0
3.368283271789551,33.0,5407.0,6799.0,7482.0,8264.0,2863.0,428.0
3.369800090789795,37.0,4217.0,6195.0,9400.0,2511.0,3084.0,1407.0
3.37131667137146,21.0,3599.0,6073.0,10296.0,7015.0,1584.0,723.0
3.372833251953125,15.0,5258.0,5499.0,10244.0,5727.0,2380.0,40.0
3.3743999004364014,30.0,3510.0,4926.0,10160.0,7293.0,3177.0,1208.0
3.3759167194366455,28.0,3652.0,6220.0,10076.0,3638.0,3056.0,2377.0
3.3774333000183105,25.0,4410.0,7513.0,8175.0,5530.0,2934.0,3007.0
3.3789501190185547,13.0,4454.0,8928.0,9492.0,2414.0,3526.0,3298.0
3.3804666996002197,28.0,4499.0,2978.0,8348.0,6245.0,3394.0,3743.0
3.3819832801818848,28.0,4557.0,5404.0,6006.0,5344.0,3262.0,3947.0
3.383500099182129,67.0,3994.0,7199.0,3455.0,5540.0,667.0,3819.0
3.385016679763794,44.0,2878.0,9848.0,4191.0,4014.0,1786.0,2531.0
3.386533260345459,20.0,4668.0,8696.0,4711.0,5868.0,2190.0,1589.0
3.388050079345703,42.0,2954.0,5564.0,5231.0,4638.0,1845.0,2623.0
3.389566659927368,13.0,1977.0,5926.0,5347.0,5291.0,30.0,583.0
3.3911499977111816,7.0,5036.0,3410.0,6380.0,5283.0,2568.0,900.0
3.3926665782928467,0.0,3077.0,8968.0,3319.0,3979.0,1678.0,1028.0
3.394183397293091,37.0,4110.0,8728.0,5218.0,2222.0,2561.0,1157.0
3.395699977874756,43.0,5071.0,10164.0,8724.0,1962.0,3166.0,4214.0
3.397216558456421,29.0,1850.0,4490.0,7078.0,3583.0,2930.0,3680.0
3.398733377456665,29.0,4224.0,6215.0,6569.0,3264.0,2694.0,2141.0
3.40024995803833,0.0,4467.0,3496.0,4848.0,3837.0,4384.0,1234.0
3.401766777038574,5.0,3382.0,3547.0,5473.0,3648.0,41.0,3385.0
3.4032833576202393,6.0,1628.0,3597.0,7279.0,597.0,4165.0,1611.0
3.4047999382019043,8.0,1020.0,3304.0,4183.0,3667.0,2264.0,1296.0
3.4063167572021484,10.0,828.0,3010.0,1498.0,3090.0,15.0,1346.0
3.407883405685425,14.0,637.0,3208.0,5154.0,4054.0,250.0,1685.0
3.40939998626709,18.0,972.0,3406.0,6486.0,4866.0,1621.0,1434.0
3.410916566848755,16.0,1307.0,4797.0,3942.0,4789.0,1405.0,1182.0
3.412433385848999,14.0,1508.0,3738.0,5866.0,1293.0,1190.0,1841.0
3.413949966430664,10.0,1709.0,2679.0,4110.0,3987.0,32.0,1185.0
3.415466785430908,5.0,1307.0,2828.0,2433.0,2388.0,890.0,1487.0
3.4169833660125732,18.0,1472.0,4104.0,3108.0,2532.0,1745.0,919.0
3.4184999465942383,30.0,1764.0,915.0,3941.0,3031.0,1763.0,1294.0
3.4200167655944824,18.0,2057.0,2733.0,4775.0,1459.0,3698.0,1669.0
3.4215333461761475,5.0,1423.0,3147.0,3749.0,2740.0,3181.0,1848.0
3.4230499267578125,40.0,790.0,5257.0,4880.0,2188.0,426.0,2027.0
3.424633264541626,41.0,170.0,5761.0,4871.0,1637.0,818.0,1816.0
3.42615008354187,14.0,936.0,4399.0,4989.0,2541.0,1566.0,1573.0
3.427666664123535,19.0,1084.0,1945.0,3904.0,1729.0,1163.0,387.0
3.4291832447052,23.0,1232.0,4355.0,1870.0,2562.0,61.0,834.0
3.4307000637054443,31.0,908.0,1830.0,5047.0,2070.0,2652.0,2206.0
3.4322166442871094,29.0,584.0,781.0,1051.0,1579.0,1547.0,2051.0
3.4337332248687744,27.0,801.0,4528.0,1857.0,1588.0,442.0,1692.0
3.4352500438690186,35.0,1018.0,1452.0,1069.0,1842.0,3008.0,759.0
3.4367666244506836,38.0,1439.0,4674.0,3746.0,2096.0,2443.0,786.0
3.4382834434509277,40.0,1860.0,6457.0,3775.0,2644.0,2004.0,1440.0
3.4398000240325928,5.0,1561.0,2048.0,5600.0,3040.0,674.0,1323.0
3.441366672515869,42.0,1263.0,4118.0,3196.0,3437.0,53.0,1206.0
3.442883253097534,0.0,2461.0,3141.0,3007.0,0.0,682.0,1318.0
3.4444000720977783,5.0,2503.0,3233.0,3130.0,631.0,1268.0,1429.0
3.4459166526794434,10.0,3214.0,355.0,2936.0,575.0,1854.0,1452.0
3.4474332332611084,21.0,524.0,3515.0,40.0,520.0,937.0,615.0
3.4489500522613525,44.0,945.0,5583.0,21.0,405.0,19.0,1535.0
3.4504666328430176,30.0,36.0,3880.0,2305.0,3207.0,284.0,883.0
3.4519834518432617,16.0,34.0,5682.0,2451.0,4113.0,1184.0,18.0
3.4535000324249268,53.0,31.0,3625.0,3717.0,2479.0,966.0,737.0
3.455016613006592,26.0,34.0,2610.0,2751.0,342.0,498.0,1021.0
3.456533432006836,12.0,37.0,2921.0,2770.0,1655.0,30.0,995.0
3.4581167697906494,30.0,1088.0,2163.0,2313.0,1278.0,1099.0,192.0
3.4596333503723145,42.0,1006.0,2890.0,2279.0,2065.0,1118.0,986.0
3.4611499309539795,5.0,924.0,791.0,1533.0,1540.0,823.0,127.0
3.4626667499542236,21.0,914.0,1694.0,851.0,2753.0,528.0,732.0
3.4641833305358887,40.0,904.0,2733.0,1156.0,2665.0,154.0,396.0
3.4656999111175537,32.0,1378.0,2534.0,2357.0,2576.0,86.0,60.0
3.467216730117798,10.0,1853.0,2334.0,2286.0,2162.0,17.0,16.0
3.468733310699463,15.0,2284.0,2531.0,2165.0,2155.0,306.0,0.0
3.470249891281128,19.0,2103.0,2477.0,2044.0,2221.0,595.0,19.0
3.471766710281372,46.0,2550.0,2423.0,2215.0,2001.0,1053.0,433.0
3.473283290863037,33.0,1060.0,2112.0,1872.0,1574.0,1036.0,847.0
3.4748001098632812,20.0,169.0,1802.0,1530.0,1148.0,1019.0,1015.0
3.4763333797454834,5.0,40.0,1127.0,1884.0,1880.0,926.0,721.0
3.4778499603271484,10.0,1093.0,689.0,2239.0,984.0,833.0,22.0
3.4793667793273926,20.0,1026.0,929.0,1308.0,950.0,569.0,1464.0
3.4808833599090576,47.0,2314.0,404.0,376.0,2273.0,657.0,1698.0
3.4823999404907227,44.0,2932.0,213.0,681.0,1551.0,1198.0,17.0
3.483916759490967,28.0,10.0,22.0,16.0,888.0,1418.0,617.0
3.485433340072632,12.0,32.0,386.0,365.0,275.0,508.0,46.0
3.486949920654297,24.0,812.0,509.0,714.0,720.0,698.0,643.0
3.488466739654541,29.0,449.0,7.0,235.0,373.0,37.0,16.0
3.489983320236206,0.0,525.0,268.0,726.0,26.0,1098.0,11.0
3.491499900817871,22.0,601.0,528.0,1218.0,17.0,1311.0,6.0
3.4930832386016846,25.0,8.0,7.0,1436.0,20.0,80.0,25.0
3.4946000576019287,28.0,12.0,22.0,1735.0,22.0,24.0,23.0
3.4961166381835938,30.0,16.0,69.0,0.0,427.0,37.0,38.0
3.497633218765259,26.0,14.0,233.0,572.0,343.0,37.0,34.0
3.499150037765503,22.0,11.0,134.0,0.0,15.0,5.0,31.0
3.500666618347168,12.0,5.0,35.0,10.0,18.0,17.0,0.0
3.502183437347412,16.0,786.0,46.0,598.0,40.0,20.0,12.0
3.503700017929077,20.0,396.0,55.0,51.0,61.0,22.0,15.0
3.505216598510742,0.0,5.0,389.0,26.0,45.0,40.0,35.0
3.5067334175109863,3.0,19.0,197.0,50.0,45.0,41.0,65.0
3.5082499980926514,5.0,325.0,5.0,33.0,28.0,43.0,55.0
3.5098166465759277,16.0,17.0,5.0,31.0,46.0,20.0,45.0
3.5113332271575928,19.0,45.0,19.0,28.0,0.0,29.0,80.0
3.512850046157837,0.0,14.0,9.0,150.0,23.0,38.0,16.0
3.514366626739502,71.0,20.0,0.0,271.0,16.0,21.0,21.0
3.515883445739746,53.0,25.0,11.0,143.0,22.0,14.0,26.0
3.517400026321411,35.0,29.0,22.0,14.0,20.0,6.0,13.0
3.518916606903076,14.0,34.0,26.0,66.0,18.0,10.0,0.0
3.5204334259033203,46.0,39.0,20.0,35.0,0.0,38.0,3.0
3.5219500064849854,41.0,5.0,0.0,5.0,3.0,29.0,5.0
3.5234665870666504,0.0,7.0,39.0,13.0,5.0,20.0,22.0
3.5249834060668945,51.0,25.0,35.0,42.0,13.0,34.0,40.0
3.526566743850708,38.0,44.0,27.0,11.0,40.0,17.0,31.0
3.528083324432373,5.0,47.0,38.0,14.0,23.0,14.0,49.0
3.529599905014038,25.0,30.0,38.0,16.0,6.0,14.0,12.0
3.5311167240142822,9.0,18.0,37.0,23.0,37.0,17.0,0.0
3.5326333045959473,33.0,5.0,22.0,25.0,60.0,20.0,3.0
3.5341498851776123,19.0,28.0,38.0,26.0,83.0,44.0,5.0
3.5356667041778564,5.0,21.0,7.0,47.0,48.0,35.0,6.0
3.5371832847595215,24.0,13.0,20.0,38.0,41.0,27.0,8.0
3.5387001037597656,15.0,15.0,32.0,28.0,23.0,0.0,10.0
3.5402166843414307,13.0,29.0,24.0,27.0,37.0,15.0,10.0
3.5417332649230957,10.0,176.0,20.0,41.0,55.0,29.0,10.0
3.543299913406372,33.0,110.0,30.0,5.0,59.0,11.0,10.0
3.544816732406616,35.0,44.0,19.0,81.0,50.0,28.0,10.0
3.5463333129882812,16.0,62.0,7.0,56.0,36.0,19.0,13.0
3.5478498935699463,49.0,51.0,52.0,30.0,11.0,27.0,15.0
3.5493667125701904,5.0,26.0,64.0,31.0,26.0,26.0,5.0
3.5508832931518555,22.0,56.0,76.0,32.0,42.0,0.0,10.0
3.5524001121520996,29.0,56.0,47.0,9.0,44.0,18.0,11.0
3.5539166927337646,11.0,56.0,19.0,34.0,22.0,8.0,11.0
3.5554332733154297,29.0,7.0,15.0,34.0,20.0,10.0,6.0
3.556950092315674,15.0,5.0,13.0,40.0,17.0,21.0,29.0
3.558466672897339,0.0,5.0,16.0,30.0,20.0,27.0,23.0
3.5600500106811523,4.0,39.0,18.0,20.0,23.0,33.0,17.0
3.5615665912628174,7.0,24.0,50.0,30.0,22.0,19.0,32.0
3.5630834102630615,10.0,10.0,35.0,18.0,25.0,35.0,20.0
3.5645999908447266,12.0,43.0,20.0,5.0,23.0,27.0,8.0
3.5661165714263916,28.0,7.0,27.0,10.0,21.0,16.0,13.0
3.5676333904266357,49.0,40.0,103.0,14.0,6.0,5.0,18.0
3.569149971008301,62.0,56.0,59.0,17.0,21.0,23.0,16.0
3.570666551589966,12.0,40.0,16.0,17.0,16.0,16.0,13.0
3.57218337059021,22.0,30.0,12.0,14.0,11.0,18.0,0.0
3.573699951171875,30.0,22.0,48.0,10.0,12.0,19.0,12.0
3.575216770172119,19.0,24.0,42.0,24.0,13.0,5.0,23.0
3.5767834186553955,8.0,23.0,35.0,37.0,17.0,0.0,15.0
3.5782999992370605,19.0,22.0,10.0,36.0,20.0,3.0,6.0
3.5798165798187256,22.0,35.0,15.0,14.0,32.0,5.0,17.0
3.5813333988189697,24.0,29.0,19.0,8.0,33.0,11.0,16.0
3.5828499794006348,16.0,23.0,16.0,42.0,34.0,6.0,15.0
3.5843665599823,0.0,10.0,12.0,15.0,16.0,0.0,17.0
3.585883378982544,11.0,26.0,13.0,24.0,5.0,11.0,16.0
3.587399959564209,22.0,17.0,7.0,13.0,21.0,18.0,20.0
3.588916778564453,19.0,33.0,0.0,5.0,24.0,25.0,10.0
3.590433359146118,10.0,22.0,11.0,31.0,31.0,24.0,0.0
3.5919666290283203,18.0,11.0,22.0,33.0,24.0,0.0,11.0
3.5935165882110596,10.0,34.0,19.0,34.0,17.0,38.0,22.0
3.595050096511841,34.0,11.0,15.0,47.0,32.0,35.0,25.0
3.596566677093506,27.0,21.0,8.0,15.0,43.0,12.0,27.0
3.598083257675171,22.0,51.0,0.0,29.0,39.0,25.0,27.0
