,316.2099914550781,317.2099914550781,318.2099914550781,319.2099914550781,320.2099914550781,321.2099914550781,322.2099914550781
2.051500082015991,9.0,22.0,69.0,29.0,0.0,704.0,13.0
2.0530166625976562,12.0,30.0,0.0,16.0,13.0,19.0,37.0
2.0545332431793213,233.0,32.0,36.0,10.0,30.0,28.0,17.0
2.0560500621795654,24.0,14.0,27.0,17.0,5.0,22.0,11.0
2.0575666427612305,39.0,35.0,21.0,0.0,19.0,10.0,5.0
2.0590832233428955,55.0,6.0,33.0,14.0,33.0,8.0,14.0
2.0606000423431396,7.0,5.0,26.0,5.0,26.0,8.0,23.0
2.0621166229248047,0.0,54.0,20.0,3.0,14.0,7.0,14.0
2.063633441925049,32.0,41.0,29.0,0.0,13.0,12.0,5.0
2.065150022506714,28.0,29.0,1000.0,22.0,22.0,11.0,23.0
2.066666603088379,19.0,33.0,972.0,13.0,18.0,10.0,17.0
2.0682499408721924,40.0,35.0,11.0,5.0,14.0,20.0,10.0
2.0697667598724365,40.0,37.0,28.0,13.0,30.0,22.0,23.0
2.0712833404541016,27.0,35.0,20.0,22.0,45.0,28.0,20.0
2.0727999210357666,7.0,36.0,25.0,35.0,298.0,7.0,62.0
2.0743167400360107,11.0,37.0,422.0,56.0,158.0,27.0,37.0
2.075833320617676,28.0,38.0,220.0,48.0,19.0,48.0,11.0
2.077349901199341,18.0,0.0,17.0,40.0,19.0,52.0,42.0
2.078866720199585,12.0,23.0,8.0,30.0,39.0,45.0,7.0
2.08038330078125,6.0,23.0,0.0,30.0,6.0,10.0,17.0
2.081899881362915,14.0,6.0,38.0,30.0,51.0,5.0,16.0
2.083416700363159,11.0,14.0,36.0,26.0,56.0,15.0,20.0
2.0849833488464355,7.0,16.0,34.0,22.0,10.0,7.0,21.0
2.0864999294281006,5.0,14.0,37.0,32.0,26.0,0.0,23.0
2.0880167484283447,14.0,12.0,19.0,43.0,23.0,7.0,12.0
2.0895333290100098,10.0,9.0,0.0,22.0,0.0,23.0,32.0
2.091049909591675,6.0,6.0,25.0,0.0,5.0,25.0,5.0
2.092566728591919,8.0,0.0,12.0,22.0,10.0,28.0,16.0
2.094083309173584,10.0,21.0,22.0,54.0,69.0,0.0,26.0
2.095599889755249,12.0,31.0,11.0,57.0,58.0,41.0,12.0
2.097116708755493,15.0,25.0,0.0,0.0,18.0,5.0,11.0
2.098633289337158,18.0,0.0,0.0,5.0,37.0,6.0,36.0
2.1001501083374023,0.0,5.0,14.0,36.0,43.0,0.0,36.0
2.101733446121216,8.0,0.0,29.0,28.0,49.0,18.0,21.0
2.103250026702881,8.0,19.0,23.0,21.0,14.0,16.0,25.0
2.104766607284546,4.0,16.0,18.0,23.0,23.0,13.0,24.0
2.10628342628479,0.0,29.0,33.0,12.0,31.0,7.0,10.0
2.107800006866455,23.0,0.0,13.0,18.0,869.0,9.0,16.0
2.10931658744812,15.0,27.0,48.0,26.0,751.0,11.0,22.0
2.1108334064483643,7.0,28.0,82.0,12.0,1091.0,30.0,11.0
2.1123499870300293,32.0,32.0,60.0,13.0,12.0,30.0,19.0
2.1138665676116943,49.0,6.0,38.0,13.0,559.0,29.0,11.0
2.1153833866119385,66.0,32.0,19.0,18.0,33.0,11.0,14.0
2.1168999671936035,35.0,19.0,0.0,23.0,12.0,27.0,17.0
2.11846661567688,24.0,37.0,98.0,530.0,398.0,25.0,12.0
2.119983434677124,13.0,36.0,73.0,471.0,0.0,23.0,20.0
2.121516704559326,11.0,6.0,49.0,60.0,47.0,16.0,17.0
2.123016595840454,6.0,14.0,35.0,21.0,17.0,7.0,14.0
2.1245334148406982,0.0,38.0,22.0,13.0,0.0,5.0,172.0
2.1260499954223633,6.0,29.0,39.0,5.0,1060.0,14.0,104.0
2.1275665760040283,11.0,26.0,57.0,33.0,880.0,23.0,37.0
2.1290833950042725,21.0,24.0,46.0,57.0,700.0,18.0,152.0
2.1305999755859375,13.0,23.0,35.0,41.0,31.0,12.0,43.0
2.1321165561676025,5.0,20.0,33.0,26.0,54.0,78.0,53.0
2.1336333751678467,16.0,11.0,30.0,28.0,946.0,52.0,20.0
2.13521671295166,20.0,241.0,382.0,22.0,1838.0,27.0,12.0
2.136733293533325,16.0,149.0,200.0,20.0,1276.0,25.0,5.0
2.1382501125335693,12.0,56.0,18.0,18.0,875.0,1599.0,336.0
2.1397666931152344,37.0,24.0,518.0,17.0,2239.0,2087.0,851.0
2.1412832736968994,34.0,12.0,0.0,16.0,2622.0,2566.0,1015.0
2.1428000926971436,12.0,5.0,870.0,338.0,784.0,466.0,576.0
2.1443166732788086,30.0,30.0,962.0,661.0,2771.0,493.0,583.0
2.1458332538604736,25.0,24.0,556.0,542.0,4757.0,68.0,821.0
2.1473500728607178,21.0,18.0,12.0,422.0,3288.0,794.0,17.0
2.148866653442383,16.0,16.0,27.0,242.0,3214.0,408.0,11.0
2.150383234024048,16.0,9.0,19.0,13.0,2090.0,23.0,204.0
2.151933431625366,16.0,53.0,11.0,601.0,4336.0,651.0,8.0
2.1534667015075684,20.0,59.0,21.0,315.0,4236.0,1278.0,248.0
2.1549832820892334,10.0,23.0,31.0,29.0,3589.0,1600.0,134.0
2.1565001010894775,16.0,31.0,1161.0,28.0,3740.0,1908.0,21.0
2.1580166816711426,34.0,29.0,1102.0,24.0,2398.0,967.0,26.0
2.1595332622528076,32.0,11.0,29.0,25.0,1891.0,1525.0,32.0
2.1610500812530518,6.0,11.0,49.0,27.0,3748.0,1387.0,35.0
2.162566661834717,23.0,10.0,5.0,30.0,1528.0,29.0,38.0
2.164083242416382,40.0,38.0,26.0,33.0,2782.0,77.0,19.0
2.165600061416626,22.0,32.0,33.0,97.0,766.0,63.0,25.0
2.167116641998291,26.0,25.0,39.0,76.0,3226.0,883.0,40.0
2.168633222579956,19.0,16.0,18.0,55.0,3949.0,455.0,72.0
2.1702165603637695,34.0,20.0,41.0,77.0,2792.0,28.0,56.0
2.1717333793640137,35.0,25.0,26.0,46.0,948.0,27.0,39.0
2.1732499599456787,35.0,32.0,11.0,16.0,1446.0,472.0,183.0
2.174766778945923,29.0,44.0,5.0,28.0,1563.0,0.0,117.0
2.176283359527588,11.0,56.0,16.0,37.0,1679.0,131.0,51.0
2.177799940109253,27.0,0.0,26.0,47.0,902.0,263.0,501.0
2.179316759109497,0.0,16.0,23.0,17.0,1718.0,2152.0,260.0
2.180833339691162,23.0,28.0,20.0,17.0,1446.0,3157.0,20.0
2.182349920272827,6.0,9.0,0.0,1007.0,2967.0,4604.0,21.0
2.1838667392730713,7.0,13.0,0.0,714.0,2552.0,26.0,27.0
2.1853833198547363,8.0,18.0,45.0,421.0,1722.0,2517.0,25.0
2.1869499683380127,10.0,0.0,46.0,1175.0,3734.0,1144.0,23.0
2.1884665489196777,12.0,18.0,0.0,1314.0,2418.0,1200.0,7.0
2.189983367919922,21.0,19.0,24.0,600.0,1101.0,846.0,4.0
2.191499948501587,13.0,16.0,0.0,735.0,2769.0,685.0,0.0
2.193016767501831,5.0,13.0,908.0,147.0,5226.0,11.0,154.0
2.194533348083496,11.0,10.0,808.0,557.0,3817.0,1185.0,83.0
2.196049928665161,11.0,7.0,61.0,968.0,2408.0,849.0,11.0
2.1975667476654053,10.0,26.0,22.0,864.0,2726.0,513.0,41.0
2.1990833282470703,10.0,32.0,0.0,724.0,1130.0,535.0,70.0
2.2005999088287354,13.0,26.0,50.0,21.0,2436.0,762.0,574.0
2.2021167278289795,17.0,26.0,10.0,884.0,579.0,988.0,305.0
2.203700065612793,31.0,27.0,0.0,442.0,2295.0,1002.0,36.0
2.205216646194458,25.0,23.0,25.0,0.0,2582.0,834.0,38.0
2.206733226776123,19.0,20.0,14.0,364.0,1499.0,666.0,39.0
2.208250045776367,7.0,18.0,18.0,42.0,1339.0,1363.0,26.0
2.2097666263580322,13.0,12.0,21.0,785.0,1178.0,64.0,41.0
2.2112834453582764,19.0,6.0,7.0,401.0,807.0,1052.0,24.0
2.2128000259399414,22.0,11.0,27.0,18.0,2355.0,1111.0,0.0
2.2143166065216064,16.0,0.0,6.0,92.0,2555.0,1939.0,35.0
2.2158334255218506,14.0,31.0,12.0,28.0,3132.0,1611.0,0.0
2.2173500061035156,12.0,54.0,6.0,38.0,60.0,1329.0,33.0
2.2188665866851807,65.0,39.0,0.0,572.0,449.0,1284.0,49.0
2.220433235168457,41.0,47.0,8.0,505.0,2242.0,1651.0,28.0
2.221950054168701,17.0,366.0,16.0,57.0,5.0,386.0,248.0
2.223466634750366,24.0,268.0,161.0,338.0,1154.0,11.0,129.0
2.2249832153320312,12.0,171.0,91.0,10.0,1532.0,1257.0,10.0
2.2265000343322754,19.0,64.0,22.0,35.0,841.0,14.0,37.0
2.2280166149139404,10.0,13.0,8.0,6.0,1641.0,1228.0,63.0
2.2295334339141846,16.0,22.0,13.0,861.0,26.0,5.0,38.0
2.2310500144958496,21.0,8.0,19.0,758.0,1348.0,701.0,633.0
2.2325665950775146,12.0,23.0,19.0,44.0,205.0,1209.0,1143.0
2.234083414077759,10.0,22.0,19.0,18.0,363.0,13.0,1380.0
2.235599994659424,10.0,5.0,23.0,0.0,521.0,23.0,59.0
2.2371833324432373,9.0,5.0,26.0,45.0,2548.0,562.0,512.0
2.2386999130249023,26.0,18.0,29.0,28.0,2345.0,503.0,48.0
2.2402167320251465,35.0,16.0,27.0,12.0,16.0,489.0,49.0
2.2417333126068115,36.0,24.0,25.0,27.0,651.0,19.0,18.0
2.2432498931884766,32.0,12.0,12.0,21.0,604.0,601.0,0.0
2.2447667121887207,17.0,0.0,16.0,0.0,127.0,567.0,26.0
2.2462832927703857,27.0,11.0,20.0,8.0,18.0,58.0,10.0
2.24780011177063,20.0,23.0,14.0,16.0,22.0,20.0,5.0
2.249316692352295,20.0,489.0,8.0,11.0,40.0,23.0,8.0
2.25083327293396,21.0,607.0,10.0,55.0,17.0,33.0,11.0
2.252350091934204,28.0,724.0,11.0,30.0,17.0,28.0,27.0
2.2539167404174805,23.0,1575.0,18.0,5.0,18.0,27.0,30.0
2.2554333209991455,18.0,1348.0,19.0,52.0,7.0,26.0,26.0
2.2569665908813477,32.0,1197.0,5.0,18.0,37.0,25.0,0.0
2.2584667205810547,34.0,1289.0,8.0,20.0,34.0,10.0,11.0
2.2599833011627197,36.0,1382.0,28.0,10.0,31.0,32.0,0.0
2.2614998817443848,11.0,1335.0,20.0,0.0,10.0,16.0,12.0
2.263016700744629,16.0,7.0,11.0,14.0,20.0,0.0,7.0
2.264533281326294,10.0,7.0,23.0,33.0,12.0,0.0,14.0
2.266050100326538,25.0,4796.0,27.0,21.0,38.0,12.0,13.0
2.267566680908203,21.0,4694.0,31.0,10.0,64.0,12.0,12.0
2.269083261489868,18.0,2264.0,29.0,11.0,37.0,11.0,11.0
2.2706499099731445,9.0,1582.0,41.0,11.0,9.0,14.0,8.0
2.272183418273926,0.0,400.0,41.0,10.0,40.0,18.0,5.0
2.273699998855591,3.0,283.0,19.0,309.0,30.0,623.0,8.0
2.275216579437256,6.0,1759.0,29.0,357.0,19.0,341.0,10.0
2.2767333984375,10.0,1495.0,19.0,16.0,43.0,59.0,16.0
2.278249979019165,13.0,1231.0,8.0,23.0,22.0,49.0,10.0
2.27976655960083,22.0,3806.0,17.0,17.0,16.0,20.0,5.0
2.281283378601074,30.0,2993.0,23.0,14.0,21.0,5.0,7.0
2.2827999591827393,40.0,2179.0,40.0,14.0,27.0,55.0,8.0
2.2843167781829834,39.0,3732.0,58.0,24.0,5.0,33.0,5.0
2.2858333587646484,38.0,2573.0,33.0,0.0,8.0,10.0,0.0
2.2873499393463135,27.0,1584.0,8.0,16.0,11.0,20.0,21.0
2.28891658782959,21.0,1453.0,7.0,31.0,11.0,38.0,45.0
2.290433406829834,16.0,2026.0,5.0,5.0,11.0,39.0,34.0
2.291949987411499,32.0,1399.0,11.0,20.0,27.0,60.0,21.0
2.293466567993164,5.0,1868.0,50.0,10.0,21.0,47.0,0.0
2.294983386993408,19.0,442.0,35.0,12.0,16.0,62.0,8.0
2.2964999675750732,33.0,2049.0,21.0,16.0,13.0,63.0,0.0
2.2980165481567383,37.0,1737.0,8.0,15.0,10.0,63.0,33.0
2.2995333671569824,29.0,2723.0,0.0,14.0,5.0,40.0,34.0
2.302799940109253,9.0,2872.0,6.0,28.0,11.0,17.0,26.0
2.3060667514801025,49.0,3021.0,12.0,59.0,18.0,66.0,22.0
2.309333324432373,38.0,1173.0,56.0,46.0,34.0,8.0,19.0
2.3125834465026855,38.0,1549.0,312.0,46.0,35.0,21.0,29.0
2.315833330154419,38.0,936.0,161.0,37.0,47.0,33.0,28.0
2.3190834522247314,27.0,1408.0,9.0,29.0,0.0,5.0,27.0
2.322383403778076,16.0,1881.0,71.0,29.0,29.0,13.0,14.0
2.3256332874298096,11.0,957.0,51.0,28.0,24.0,16.0,20.0
2.328883409500122,30.0,33.0,0.0,26.0,55.0,33.0,43.0
2.3321499824523926,14.0,5.0,12.0,21.0,39.0,19.0,37.0
2.335400104522705,24.0,208.0,49.0,0.0,23.0,5.0,31.0
2.3386666774749756,32.0,431.0,25.0,0.0,26.0,42.0,23.0
2.341916561126709,23.0,653.0,37.0,0.0,33.0,477.0,26.0
2.3451666831970215,22.0,505.0,7.0,7.0,29.0,268.0,30.0
2.348416566848755,21.0,357.0,47.0,13.0,25.0,60.0,10.0
2.3516666889190674,29.0,750.0,285.0,13.0,26.0,5.0,24.0
2.354966640472412,17.0,29.0,159.0,13.0,21.0,42.0,16.0
2.3582499027252197,5.0,31.0,32.0,18.0,23.0,13.0,8.0
2.3615000247955322,5.0,600.0,33.0,5.0,25.0,59.0,5.0
2.3647499084472656,5.0,306.0,33.0,24.0,20.0,47.0,5.0
2.368000030517578,5.0,11.0,9.0,20.0,38.0,30.0,40.0
2.3712499141693115,59.0,20.0,20.0,16.0,38.0,13.0,43.0
2.3745501041412354,49.0,16.0,10.0,19.0,37.0,39.0,45.0
2.3777999877929688,39.0,17.0,10.0,22.0,9.0,21.0,44.0
2.3810501098632812,35.0,31.0,10.0,22.0,7.0,5.0,29.0
2.3842999935150146,32.0,46.0,14.0,27.0,14.0,19.0,25.0
2.387550115585327,34.0,27.0,18.0,22.0,13.0,21.0,38.0
2.390850067138672,17.0,9.0,0.0,18.0,12.0,13.0,35.0
2.3941166400909424,29.0,32.0,24.0,17.0,27.0,7.0,20.0
2.397366762161255,26.0,16.0,13.0,17.0,36.0,0.0,25.0
2.4006166458129883,24.0,0.0,45.0,17.0,26.0,15.0,31.0
2.403866767883301,23.0,0.0,22.0,17.0,18.0,31.0,34.0
2.4071333408355713,22.0,0.0,0.0,48.0,38.0,31.0,7.0
2.4103832244873047,36.0,24.0,23.0,26.0,21.0,11.0,35.0
2.4136500358581543,5.0,24.0,7.0,5.0,39.0,5.0,28.0
2.4168999195098877,22.0,0.0,0.0,53.0,33.0,14.0,18.0
2.4201500415802,39.0,27.0,30.0,31.0,26.0,23.0,12.0
2.4234166145324707,42.0,13.0,18.0,18.0,40.0,49.0,5.0
2.426666736602783,45.0,5.0,5.0,34.0,27.0,45.0,32.0
2.4299166202545166,26.0,10.0,26.0,27.0,13.0,5.0,35.0
2.433166742324829,28.0,26.0,5.0,33.0,0.0,5.0,37.0
2.4364166259765625,29.0,30.0,29.0,38.0,35.0,0.0,30.0
2.4397332668304443,32.0,19.0,54.0,34.0,35.0,4.0,23.0
2.442983388900757,34.0,9.0,40.0,39.0,35.0,7.0,6.0
2.4462332725524902,20.0,25.0,25.0,37.0,30.0,10.0,25.0
2.4494833946228027,31.0,18.0,22.0,35.0,0.0,23.0,54.0
2.452733278274536,24.0,10.0,19.0,7.0,18.0,26.0,39.0
2.4559834003448486,17.0,11.0,14.0,10.0,24.0,30.0,25.0
2.4592833518981934,22.0,31.0,23.0,20.0,23.0,14.0,31.0
2.4625332355499268,22.0,29.0,31.0,23.0,18.0,41.0,37.0
2.4657833576202393,22.0,19.0,0.0,12.0,12.0,353.0,33.0
2.4690499305725098,23.0,16.0,8.0,13.0,25.0,180.0,30.0
2.4723000526428223,24.0,42.0,17.0,6.0,9.0,7.0,18.0
2.475600004196167,21.0,26.0,27.0,0.0,30.0,34.0,20.0
2.4788498878479004,19.0,10.0,37.0,16.0,32.0,49.0,23.0
2.482100009918213,23.0,29.0,0.0,6.0,0.0,40.0,11.0
2.4853498935699463,17.0,14.0,37.0,12.0,47.0,5.0,0.0
2.488600015640259,13.0,0.0,44.0,9.0,20.0,5.0,3.0
2.4919166564941406,5.0,19.0,84.0,5.0,34.0,27.0,5.0
2.495166778564453,10.0,26.0,65.0,27.0,49.0,30.0,41.0
2.4984166622161865,16.0,30.0,46.0,50.0,7.0,33.0,36.0
2.501666784286499,0.0,35.0,25.0,36.0,52.0,11.0,5.0
2.5049166679382324,35.0,21.0,28.0,39.0,47.0,15.0,27.0
2.508216619491577,25.0,17.0,37.0,33.0,25.0,19.0,33.0
2.5114667415618896,16.0,11.0,20.0,16.0,19.0,23.0,48.0
2.514716625213623,14.0,5.0,50.0,21.0,30.0,28.0,10.0
2.5179834365844727,13.0,42.0,0.0,16.0,29.0,5.0,25.0
2.521233320236206,9.0,38.0,29.0,22.0,17.0,12.0,8.0
2.524533271789551,5.0,14.0,29.0,21.0,0.0,20.0,19.0
2.5277833938598633,25.0,14.0,14.0,20.0,5.0,18.0,30.0
2.5310332775115967,24.0,13.0,20.0,27.0,14.0,17.0,10.0
2.534283399581909,24.0,24.0,35.0,25.0,7.0,11.0,15.0
2.5375332832336426,34.0,23.0,29.0,24.0,0.0,5.0,20.0
2.540783405303955,6.0,22.0,30.0,5.0,29.0,32.0,0.0
2.5440833568573,36.0,31.0,45.0,35.0,34.0,29.0,13.0
2.5473499298095703,39.0,41.0,40.0,29.0,22.0,26.0,18.0
2.550600051879883,33.0,52.0,36.0,23.0,36.0,19.0,5.0
2.553849935531616,32.0,59.0,22.0,23.0,22.0,11.0,8.0
2.5571000576019287,25.0,66.0,23.0,32.0,12.0,14.0,17.0
2.5604000091552734,9.0,28.0,24.0,9.0,12.0,16.0,20.0
2.563649892807007,10.0,78.0,22.0,22.0,12.0,0.0,23.0
2.5669000148773193,28.0,24.0,20.0,19.0,10.0,8.0,21.0
2.5701498985290527,23.0,10.0,28.0,27.0,27.0,17.0,13.0
2.5734000205993652,16.0,19.0,7.0,35.0,45.0,14.0,6.0
2.576716661453247,0.0,54.0,7.0,33.0,36.0,16.0,6.0
2.5799667835235596,0.0,38.0,6.0,32.0,27.0,17.0,5.0
2.583216667175293,10.0,23.0,31.0,33.0,51.0,21.0,8.0
2.5864665508270264,8.0,34.0,82.0,34.0,13.0,26.0,11.0
2.589716672897339,5.0,10.0,57.0,0.0,21.0,28.0,14.0
2.5930166244506836,18.0,17.0,33.0,19.0,25.0,33.0,12.0
2.596266746520996,12.0,6.0,16.0,28.0,25.0,37.0,9.0
2.5995166301727295,7.0,3.0,76.0,38.0,28.0,37.0,13.0
2.602766752243042,22.0,0.0,10.0,22.0,30.0,28.0,17.0
2.6060166358947754,72.0,19.0,5.0,28.0,14.0,33.0,11.0
2.6093332767486572,55.0,38.0,26.0,25.0,57.0,33.0,6.0
2.6125833988189697,38.0,27.0,27.0,23.0,54.0,32.0,18.0
2.615833282470703,19.0,0.0,28.0,40.0,49.0,34.0,30.0
2.6190834045410156,22.0,19.0,30.0,5.0,8.0,35.0,19.0
2.622333288192749,26.0,5.0,33.0,21.0,12.0,11.0,7.0
2.6255834102630615,43.0,0.0,11.0,0.0,19.0,37.0,7.0
2.6288833618164062,61.0,18.0,16.0,8.0,28.0,12.0,7.0
2.6321332454681396,0.0,35.0,36.0,5.0,23.0,46.0,31.0
2.635383367538452,13.0,31.0,0.0,0.0,14.0,18.0,40.0
2.6386332511901855,27.0,27.0,6.0,28.0,5.0,13.0,32.0
2.641883373260498,22.0,19.0,12.0,47.0,9.0,5.0,7.0
2.64520001411438,18.0,10.0,64.0,30.0,13.0,10.0,44.0
2.6484498977661133,13.0,10.0,50.0,0.0,12.0,14.0,6.0
2.651700019836426,8.0,10.0,0.0,25.0,20.0,16.0,20.0
2.654949903488159,18.0,36.0,16.0,42.0,18.0,17.0,5.0
2.6582000255584717,12.0,34.0,20.0,23.0,17.0,17.0,50.0
2.6614999771118164,35.0,22.0,22.0,38.0,16.0,13.0,48.0
2.664750099182129,21.0,6.0,118.0,16.0,5.0,16.0,26.0
2.6679999828338623,7.0,0.0,81.0,5.0,7.0,16.0,11.0
2.671250104904175,12.0,3.0,45.0,31.0,4.0,17.0,52.0
2.6745166778564453,16.0,5.0,30.0,7.0,0.0,0.0,35.0
2.67781662940979,19.0,8.0,0.0,10.0,0.0,22.0,11.0
2.6810667514801025,18.0,10.0,25.0,40.0,0.0,23.0,30.0
2.684316635131836,18.0,10.0,21.0,23.0,36.0,23.0,10.0
2.6875667572021484,20.0,9.0,19.0,5.0,31.0,21.0,14.0
2.690816640853882,25.0,55.0,6.0,9.0,19.0,20.0,19.0
2.6941165924072266,15.0,40.0,3.0,8.0,68.0,13.0,16.0
2.697366714477539,5.0,25.0,0.0,7.0,48.0,7.0,12.0
2.7006332874298096,21.0,0.0,0.0,5.0,28.0,11.0,31.0
2.703883409500122,16.0,57.0,0.0,7.0,17.0,5.0,23.0
2.7071332931518555,0.0,0.0,4.0,10.0,22.0,18.0,16.0
2.710383415222168,25.0,5.0,7.0,12.0,25.0,25.0,15.0
2.7136499881744385,5.0,61.0,19.0,11.0,11.0,35.0,13.0
2.716900110244751,16.0,35.0,9.0,5.0,6.0,46.0,5.0
2.7201499938964844,33.0,44.0,0.0,14.0,0.0,38.0,3.0
2.723400115966797,349.0,54.0,48.0,23.0,45.0,42.0,0.0
2.7266499996185303,187.0,14.0,27.0,22.0,40.0,34.0,14.0
2.729966640472412,25.0,36.0,6.0,21.0,35.0,0.0,18.0
2.7332167625427246,27.0,58.0,22.0,22.0,28.0,11.0,18.0
2.736466646194458,29.0,19.0,10.0,11.0,36.0,30.0,0.0
2.7397167682647705,20.0,45.0,39.0,0.0,5.0,47.0,12.0
2.742966651916504,10.0,0.0,41.0,12.0,14.0,64.0,13.0
2.7462666034698486,24.0,53.0,63.0,51.0,21.0,5.0,13.0
2.749516725540161,6.0,6.0,34.0,34.0,28.0,10.0,12.0
2.7527666091918945,16.0,20.0,5.0,17.0,20.0,5.0,10.0
2.756033420562744,26.0,0.0,53.0,31.0,8.0,14.0,0.0
2.7592833042144775,50.0,6.0,18.0,0.0,7.0,13.0,8.0
2.762550115585327,627.0,11.0,5.0,20.0,10.0,11.0,16.0
2.7657999992370605,575.0,27.0,26.0,26.0,6.0,0.0,12.0
2.769049882888794,52.0,378.0,26.0,13.0,9.0,16.0,9.0
2.7723000049591064,232.0,730.0,26.0,0.0,11.0,26.0,25.0
2.77554988861084,413.0,618.0,44.0,29.0,30.0,19.0,37.0
2.778866767883301,20.0,5.0,49.0,20.0,31.0,11.0,39.0
2.782116651535034,19.0,180.0,25.0,19.0,27.0,25.0,40.0
2.7853667736053467,38.0,57.0,53.0,19.0,13.0,25.0,33.0
2.78861665725708,246.0,34.0,5.0,23.0,27.0,31.0,21.0
2.7918667793273926,137.0,14.0,46.0,11.0,31.0,24.0,16.0
2.7951667308807373,27.0,22.0,23.0,25.0,34.0,14.0,22.0
2.7984166145324707,35.0,25.0,22.0,22.0,13.0,5.0,29.0
2.801666736602783,32.0,20.0,467.0,21.0,7.0,6.0,26.0
2.8049166202545166,31.0,16.0,261.0,20.0,23.0,18.0,24.0
2.808183431625366,1197.0,18.0,56.0,7.0,38.0,30.0,17.0
2.8114333152770996,1781.0,21.0,46.0,11.0,36.0,21.0,20.0
2.8147332668304443,1295.0,23.0,35.0,14.0,18.0,28.0,13.0
2.817983388900757,170.0,26.0,945.0,10.0,30.0,39.0,7.0
2.8212332725524902,420.0,21.0,1071.0,18.0,34.0,6.0,24.0
2.8244833946228027,18.0,17.0,0.0,25.0,42.0,5.0,16.0
2.827733278274536,5.0,342.0,1422.0,26.0,12.0,13.0,8.0
2.831033229827881,491.0,179.0,62.0,176.0,14.0,20.0,11.0
2.8342833518981934,16.0,16.0,881.0,100.0,18.0,15.0,13.0
2.837549924850464,40.0,22.0,35.0,24.0,22.0,10.0,43.0
2.8408000469207764,18.0,38.0,55.0,55.0,14.0,15.0,45.0
2.8440499305725098,0.0,27.0,52.0,10.0,6.0,12.0,0.0
2.8473665714263916,28.0,0.0,41.0,28.0,15.0,10.0,10.0
2.850616693496704,47.0,18.0,28.0,8.0,24.0,12.0,32.0
2.8538665771484375,42.0,35.0,28.0,33.0,18.0,14.0,38.0
2.85711669921875,27.0,0.0,30.0,0.0,5.0,5.0,24.0
2.8603665828704834,11.0,31.0,10.0,0.0,22.0,5.0,44.0
2.8636667728424072,33.0,0.0,22.0,28.0,0.0,5.0,18.0
2.8669166564941406,19.0,37.0,5.0,31.0,0.0,8.0,24.0
2.870166778564453,5.0,0.0,17.0,19.0,0.0,10.0,0.0
2.8734166622161865,10.0,40.0,28.0,37.0,5.0,16.0,90.0
2.876666784286499,9.0,26.0,13.0,38.0,18.0,21.0,71.0
2.879983425140381,8.0,27.0,17.0,0.0,21.0,26.0,56.0
2.8832333087921143,25.0,38.0,21.0,41.0,8.0,5.0,0.0
2.8864834308624268,41.0,26.0,25.0,37.0,6.0,20.0,28.0
2.88973331451416,37.0,10.0,29.0,24.0,10.0,10.0,0.0
2.8929834365844727,61.0,14.0,11.0,27.0,44.0,0.0,5.0
2.896233320236206,5.0,18.0,32.0,30.0,43.0,5.0,23.0
2.899533271789551,16.0,12.0,28.0,18.0,7.0,18.0,11.0
2.9027833938598633,26.0,74.0,5.0,23.0,22.0,9.0,0.0
2.906049966812134,18.0,64.0,44.0,23.0,25.0,0.0,0.0
2.9093000888824463,10.0,18.0,57.0,17.0,21.0,10.0,0.0
2.9125499725341797,26.0,18.0,12.0,10.0,18.0,21.0,0.0
2.9158499240875244,16.0,8.0,25.0,26.0,0.0,18.0,8.0
2.919100046157837,5.0,39.0,37.0,14.0,13.0,23.0,10.0
2.9223499298095703,46.0,33.0,27.0,24.0,5.0,22.0,20.0
2.925600051879883,35.0,39.0,32.0,34.0,5.0,21.0,19.0
2.928849935531616,24.0,20.0,36.0,9.0,34.0,26.0,19.0
2.932166576385498,10.0,22.0,12.0,11.0,49.0,41.0,6.0
2.9354166984558105,573.0,31.0,27.0,20.0,30.0,57.0,39.0
2.938666582107544,305.0,16.0,0.0,28.0,10.0,45.0,41.0
2.9419167041778564,36.0,13.0,7.0,41.0,20.0,32.0,31.0
2.94516658782959,30.0,7.0,14.0,69.0,29.0,24.0,0.0
2.9484333992004395,21.0,16.0,59.0,55.0,25.0,7.0,20.0
2.951683282852173,0.0,24.0,51.0,25.0,21.0,25.0,23.0
2.9549334049224854,22.0,25.0,42.0,50.0,65.0,19.0,17.0
2.9581832885742188,0.0,25.0,21.0,63.0,215.0,12.0,11.0
2.9614334106445312,8.0,26.0,0.0,12.0,113.0,5.0,36.0
2.964750051498413,17.0,5.0,0.0,11.0,10.0,44.0,32.0
2.9679999351501465,26.0,21.0,24.0,8.0,20.0,33.0,13.0
2.971250057220459,27.0,37.0,15.0,5.0,5.0,22.0,32.0
2.9744999408721924,25.0,22.0,6.0,17.0,22.0,24.0,51.0
2.977750062942505,27.0,6.0,48.0,28.0,30.0,20.0,69.0
2.9809999465942383,103.0,48.0,60.0,27.0,37.0,17.0,52.0
2.98431658744812,109.0,22.0,11.0,26.0,26.0,0.0,35.0
2.9875667095184326,16.0,49.0,36.0,7.0,23.0,17.0,36.0
2.990816593170166,23.0,5.0,43.0,8.0,20.0,20.0,36.0
2.9940667152404785,66.0,27.0,35.0,8.0,22.0,23.0,35.0
