,351.2099914550781,352.2099914550781,353.2099914550781,354.2099914550781,355.2099914550781,356.2099914550781,357.2099914550781,358.2099914550781,359.2099914550781,360.2099914550781,361.2099914550781
3.902383327484131,22.0,0.0,23.0,0.0,0.0,5.0,19.0,26.0,5.0,73.0,25.0
3.90476655960083,24.0,46.0,18.0,12.0,9.0,6.0,14.0,0.0,20.0,31.0,16.0
3.9071500301361084,5.0,48.0,14.0,43.0,19.0,23.0,36.0,34.0,12.0,22.0,6.0
3.9095332622528076,21.0,7.0,17.0,16.0,9.0,5.0,43.0,28.0,18.0,29.0,10.0
3.911916732788086,25.0,25.0,19.0,20.0,31.0,29.0,51.0,23.0,22.0,37.0,13.0
3.914299964904785,48.0,29.0,15.0,24.0,24.0,5.0,28.0,0.0,26.0,22.0,14.0
3.9166834354400635,39.0,10.0,10.0,31.0,17.0,31.0,18.0,13.0,30.0,6.0,15.0
3.919116735458374,22.0,36.0,16.0,7.0,28.0,19.0,7.0,25.0,26.0,13.0,10.0
3.9214999675750732,5.0,38.0,14.0,20.0,39.0,20.0,7.0,7.0,10.0,18.0,5.0
3.9238834381103516,5.0,12.0,12.0,42.0,32.0,26.0,13.0,10.0,29.0,22.0,10.0
3.926266670227051,3.0,18.0,12.0,34.0,0.0,0.0,5.0,14.0,49.0,11.0,5.0
3.92864990234375,0.0,6.0,5.0,5.0,5.0,0.0,10.0,17.0,31.0,0.0,0.0
3.9310333728790283,0.0,16.0,16.0,39.0,5.0,15.0,6.0,20.0,13.0,15.0,26.0
3.9334166049957275,0.0,24.0,26.0,25.0,10.0,10.0,5.0,20.0,16.0,21.0,13.0
3.935866594314575,0.0,15.0,20.0,12.0,8.0,5.0,13.0,20.0,0.0,26.0,0.0
3.9382500648498535,0.0,5.0,23.0,0.0,5.0,6.0,7.0,19.0,5.0,16.0,774.0
3.9406332969665527,16.0,19.0,26.0,14.0,12.0,17.0,0.0,0.0,15.0,5.0,739.0
3.943016767501831,15.0,20.0,0.0,9.0,27.0,16.0,106.0,38.0,25.0,19.0,613.0
3.9453999996185303,15.0,20.0,5.0,5.0,22.0,15.0,380.0,38.0,26.0,21.0,39.0
3.9477832317352295,5.0,8.0,31.0,9.0,16.0,20.0,390.0,26.0,27.0,17.0,25.0
3.950166702270508,17.0,20.0,5.0,13.0,17.0,14.0,0.0,31.0,11.0,17.0,44.0
3.9526000022888184,16.0,15.0,7.0,17.0,5.0,7.0,306.0,26.0,25.0,18.0,19.0
3.9549832344055176,19.0,9.0,15.0,20.0,5.0,7.0,10.0,21.0,97.0,19.0,284.0
3.957366704940796,13.0,15.0,13.0,23.0,5.0,0.0,25.0,21.0,132.0,0.0,549.0
3.959749937057495,21.0,12.0,10.0,5.0,29.0,18.0,29.0,17.0,61.0,10.0,707.0
3.9621334075927734,28.0,9.0,5.0,14.0,37.0,9.0,21.0,19.0,0.0,30.0,866.0
3.9645166397094727,28.0,25.0,0.0,23.0,5.0,0.0,12.0,21.0,0.0,19.0,14.0
3.966916561126709,26.0,22.0,15.0,15.0,0.0,14.0,55.0,22.0,17.0,6.0,18.0
3.9693500995635986,24.0,26.0,29.0,7.0,14.0,10.0,40.0,24.0,22.0,28.0,9.0
3.971733331680298,28.0,21.0,22.0,26.0,0.0,6.0,24.0,26.0,34.0,16.0,0.0
3.974116563796997,25.0,15.0,5.0,24.0,5.0,9.0,5.0,18.0,23.0,5.0,33.0
3.9765000343322754,5.0,10.0,36.0,22.0,43.0,11.0,43.0,13.0,16.0,27.0,36.0
3.9788832664489746,18.0,22.0,23.0,27.0,41.0,15.0,18.0,17.0,0.0,15.0,22.0
3.981266736984253,34.0,15.0,11.0,30.0,39.0,18.0,16.0,17.0,17.0,20.0,7.0
3.983649969100952,7.0,17.0,5.0,0.0,0.0,0.0,0.0,10.0,9.0,25.0,22.0
3.9860832691192627,0.0,18.0,33.0,14.0,12.0,14.0,25.0,11.0,0.0,30.0,20.0
3.988466739654541,5.0,0.0,35.0,10.0,14.0,11.0,16.0,12.0,0.0,35.0,18.0
3.9908499717712402,8.0,53.0,42.0,0.0,0.0,5.0,0.0,15.0,17.0,6.0,5.0
3.9932334423065186,11.0,32.0,18.0,6.0,0.0,8.0,44.0,18.0,17.0,22.0,5.0
3.9956166744232178,26.0,11.0,9.0,11.0,20.0,10.0,24.0,88.0,11.0,28.0,5.0
3.997999906539917,25.0,15.0,0.0,12.0,23.0,20.0,5.0,49.0,5.0,5.0,5.0
4.000383377075195,20.0,21.0,4.0,13.0,25.0,19.0,0.0,10.0,6.0,27.0,10.0
4.002833366394043,15.0,27.0,8.0,14.0,0.0,17.0,5.0,25.0,6.0,7.0,15.0
4.005216598510742,17.0,21.0,5.0,14.0,6.0,13.0,21.0,31.0,15.0,12.0,49.0
4.007599830627441,18.0,0.0,8.0,34.0,6.0,12.0,23.0,38.0,13.0,9.0,49.0
4.009983539581299,16.0,18.0,7.0,30.0,5.0,11.0,25.0,19.0,10.0,10.0,31.0
4.012366771697998,17.0,32.0,6.0,5.0,14.0,15.0,11.0,5.0,25.0,17.0,25.0
4.014750003814697,18.0,15.0,14.0,9.0,22.0,0.0,27.0,10.0,13.0,16.0,19.0
4.0171332359313965,19.0,5.0,9.0,27.0,23.0,11.0,32.0,14.0,0.0,67.0,10.0
4.019583225250244,21.0,19.0,5.0,0.0,18.0,19.0,5.0,23.0,0.0,54.0,0.0
4.021966457366943,23.0,10.0,10.0,23.0,20.0,26.0,29.0,51.0,3.0,10.0,6.0
4.024350166320801,12.0,0.0,10.0,25.0,8.0,33.0,55.0,54.0,5.0,37.0,11.0
4.0267333984375,0.0,7.0,10.0,6.0,10.0,0.0,43.0,13.0,16.0,13.0,31.0
4.029116630554199,10.0,14.0,40.0,16.0,13.0,5.0,36.0,12.0,17.0,31.0,30.0
4.031499862670898,20.0,20.0,45.0,0.0,5.0,12.0,6.0,5.0,18.0,26.0,29.0
4.033883571624756,21.0,15.0,10.0,20.0,28.0,9.0,33.0,14.0,18.0,25.0,8.0
4.036316871643066,19.0,11.0,37.0,21.0,67.0,5.0,16.0,22.0,18.0,31.0,7.0
4.038700103759766,16.0,15.0,12.0,22.0,46.0,11.0,32.0,34.0,11.0,15.0,5.0
4.041083335876465,0.0,13.0,33.0,27.0,24.0,8.0,37.0,26.0,22.0,0.0,16.0
4.043466567993164,16.0,10.0,13.0,27.0,32.0,5.0,24.0,8.0,16.0,18.0,26.0
4.045849800109863,6.0,37.0,23.0,26.0,13.0,22.0,10.0,19.0,11.0,20.0,21.0
4.048233509063721,3.0,32.0,0.0,19.0,26.0,30.0,22.0,15.0,5.0,10.0,17.0
4.05061674118042,0.0,27.0,5.0,13.0,12.0,22.0,19.0,5.0,5.0,7.0,10.0
4.053066730499268,3.0,20.0,10.0,18.0,19.0,32.0,15.0,7.0,5.0,24.0,48.0
4.055449962615967,5.0,24.0,22.0,23.0,12.0,0.0,21.0,32.0,27.0,33.0,225.0
4.057833194732666,56.0,11.0,11.0,19.0,23.0,9.0,26.0,36.0,34.0,42.0,113.0
4.060216903686523,64.0,21.0,0.0,12.0,27.0,0.0,0.0,40.0,28.0,29.0,0.0
4.062600135803223,0.0,22.0,14.0,23.0,24.0,6.0,0.0,8.0,18.0,16.0,10.0
4.064983367919922,22.0,5.0,12.0,6.0,5.0,12.0,0.0,5.0,46.0,5.0,0.0
4.067366600036621,13.0,17.0,10.0,27.0,23.0,37.0,0.0,18.0,5.0,7.0,5.0
4.0697832107543945,33.0,9.0,13.0,16.0,32.0,28.0,0.0,14.0,42.0,15.0,10.0
4.072183132171631,51.0,0.0,17.0,5.0,52.0,18.0,0.0,10.0,44.0,22.0,10.0
4.074566841125488,43.0,32.0,19.0,12.0,42.0,6.0,0.0,13.0,55.0,19.0,10.0
4.0769500732421875,34.0,34.0,16.0,18.0,31.0,44.0,3.0,33.0,22.0,19.0,16.0
4.079333305358887,52.0,29.0,13.0,19.0,31.0,34.0,5.0,32.0,39.0,25.0,14.0
4.081716537475586,10.0,33.0,6.0,20.0,24.0,12.0,7.0,22.0,21.0,28.0,12.0
4.084099769592285,15.0,37.0,160.0,1512.0,12.0,15.0,11.0,40.0,13.0,25.0,10.0
4.086483478546143,22.0,39.0,88.0,1698.0,5.0,18.0,14.0,395.0,0.0,21.0,44.0
4.08893346786499,17.0,33.0,16.0,1889.0,1135.0,1823.0,1333.0,679.0,42.0,6.0,119.0
4.0913166999816895,13.0,2324.0,1610.0,3862.0,2224.0,4831.0,1299.0,836.0,190.0,22.0,71.0
4.093699932098389,13.0,3272.0,3203.0,6319.0,8312.0,6661.0,5039.0,1161.0,338.0,319.0,23.0
4.096083164215088,13.0,4220.0,12128.0,17728.0,14040.0,11472.0,6160.0,5133.0,1997.0,616.0,290.0
4.098466873168945,12.0,13624.0,22088.0,21688.0,25552.0,30588.0,16556.0,8500.0,6700.0,2731.0,556.0
4.1008501052856445,27.0,21676.0,59808.0,64336.0,41088.0,48800.0,28524.0,13960.0,8312.0,7101.0,1132.0
4.103233337402344,28.0,49904.0,89984.0,85904.0,77280.0,84432.0,53344.0,25248.0,17552.0,9196.0,1189.0
4.105666637420654,32.0,91280.0,138816.0,114048.0,129104.0,89248.0,84912.0,44944.0,23660.0,9568.0,1246.0
4.1080498695373535,37.0,133376.0,234816.0,227520.0,178368.0,149376.0,132032.0,60624.0,43456.0,9940.0,7200.0
4.110433101654053,36.0,156544.0,320256.0,300672.0,260096.0,197184.0,137216.0,90112.0,47920.0,14520.0,10472.0
4.11281681060791,58.0,228736.0,421696.0,371584.0,373248.0,293632.0,236032.0,95376.0,50128.0,26020.0,7196.0
4.115200042724609,73.0,275520.0,515456.0,516800.0,420416.0,347968.0,237440.0,129072.0,69056.0,26716.0,8880.0
4.117583274841309,99.0,343872.0,635904.0,580096.0,483008.0,375808.0,276480.0,144960.0,90064.0,27416.0,14104.0
4.119966506958008,482.0,390912.0,678400.0,627712.0,541696.0,434880.0,328640.0,155712.0,96192.0,30392.0,18076.0
4.1224164962768555,261.0,401600.0,770304.0,747264.0,645120.0,457472.0,326912.0,172416.0,98528.0,47680.0,18956.0
4.124800205230713,41.0,453248.0,925696.0,791040.0,669952.0,511552.0,366144.0,179328.0,98896.0,51104.0,15008.0
4.127183437347412,81.0,478976.0,923392.0,817920.0,732160.0,537600.0,373120.0,188864.0,95520.0,35120.0,23132.0
4.129566669464111,80.0,499072.0,966144.0,898816.0,760320.0,579072.0,380160.0,209856.0,92160.0,43376.0,8492.0
4.1319499015808105,78.0,504448.0,891136.0,862208.0,730880.0,560640.0,371712.0,210496.0,98512.0,37312.0,19140.0
4.13433313369751,61.0,497216.0,888576.0,807168.0,698624.0,532736.0,382912.0,188672.0,104864.0,41968.0,11980.0
4.136716842651367,62.0,525056.0,896000.0,784128.0,688384.0,497088.0,326336.0,172864.0,113040.0,39008.0,20988.0
4.139150142669678,64.0,470848.0,824832.0,724736.0,647936.0,462592.0,351744.0,210880.0,78240.0,45056.0,18508.0
4.141533374786377,65.0,444928.0,764672.0,717568.0,568576.0,453760.0,334272.0,157056.0,74832.0,30516.0,15492.0
4.143916606903076,88.0,421632.0,690944.0,681728.0,514816.0,385216.0,280256.0,144000.0,81152.0,22928.0,19424.0
4.146299839019775,76.0,364672.0,652800.0,601088.0,488000.0,366144.0,254080.0,117888.0,57440.0,20936.0,15560.0
4.148683547973633,63.0,287872.0,560384.0,491584.0,422208.0,322880.0,224064.0,107056.0,52032.0,25504.0,13396.0
4.151066780090332,61.0,302912.0,452608.0,415232.0,361344.0,251264.0,190528.0,76464.0,42736.0,23808.0,5870.0
4.153450012207031,59.0,231616.0,415744.0,344704.0,289664.0,223488.0,167616.0,80800.0,40512.0,14020.0,7170.0
4.155900001525879,17.0,177472.0,314176.0,290176.0,238528.0,198720.0,117712.0,63408.0,40512.0,15448.0,4419.0
4.158283233642578,578.0,143360.0,258432.0,254336.0,186944.0,144064.0,102336.0,50576.0,22108.0,11720.0,3753.0
4.160666465759277,544.0,111728.0,228032.0,203840.0,144448.0,100224.0,68336.0,42528.0,23052.0,8852.0,4277.0
4.163050174713135,597.0,103296.0,170880.0,130816.0,117728.0,85120.0,71968.0,32520.0,17192.0,4294.0,1311.0
4.165433406829834,265.0,70992.0,123488.0,114800.0,88688.0,58816.0,50528.0,23076.0,13572.0,9088.0,846.0
4.167816638946533,42.0,53328.0,80112.0,79424.0,65568.0,56992.0,39168.0,15364.0,14472.0,8428.0,2321.0
4.170199871063232,31.0,44608.0,53968.0,70080.0,62528.0,28996.0,31960.0,17168.0,3334.0,1491.0,690.0
4.17264986038208,51.0,28232.0,52752.0,59056.0,42160.0,37584.0,22120.0,7951.0,1683.0,2463.0,594.0
4.1750335693359375,41.0,22904.0,44896.0,39872.0,29568.0,20424.0,17820.0,8900.0,5055.0,1455.0,493.0
4.177416801452637,44.0,18364.0,35520.0,24600.0,22276.0,22968.0,17712.0,3168.0,2231.0,2449.0,20.0
4.179800033569336,65.0,17096.0,33856.0,30608.0,14816.0,11656.0,10308.0,3976.0,1422.0,29.0,917.0
4.182183265686035,55.0,14864.0,33456.0,20004.0,21076.0,9580.0,13956.0,9024.0,1389.0,995.0,471.0
4.184566497802734,45.0,10264.0,21900.0,18900.0,13556.0,16684.0,10876.0,3288.0,1095.0,239.0,25.0
4.186950206756592,5.0,14200.0,22460.0,22004.0,13524.0,10644.0,10824.0,4752.0,3626.0,1981.0,59.0
4.189383506774902,31.0,8668.0,15740.0,16084.0,9488.0,14992.0,5833.0,5400.0,3027.0,2163.0,46.0
4.191766738891602,5.0,10708.0,17224.0,15492.0,8428.0,8556.0,6210.0,3759.0,2258.0,933.0,33.0
4.194149971008301,31.0,8984.0,12716.0,7608.0,13252.0,12752.0,4496.0,4484.0,1049.0,55.0,23.0
4.196533203125,25.0,9260.0,17080.0,12828.0,12260.0,8804.0,6808.0,2236.0,1033.0,1433.0,13.0
4.198916435241699,19.0,10168.0,13584.0,10996.0,13160.0,13940.0,7491.0,4215.0,1860.0,875.0,20.0
4.201300144195557,19.0,7949.0,12696.0,15420.0,11000.0,8424.0,7064.0,2959.0,1565.0,1152.0,26.0
4.203683376312256,18.0,5729.0,15672.0,13692.0,12436.0,11924.0,7837.0,1408.0,872.0,19.0,25.0
4.2061333656311035,28.0,4557.0,11844.0,11964.0,7858.0,3166.0,7523.0,4066.0,604.0,23.0,15.0
4.208516597747803,31.0,6487.0,12236.0,8252.0,8816.0,8035.0,7210.0,819.0,1114.0,51.0,5.0
4.210899829864502,5.0,1515.0,6716.0,9152.0,7395.0,7532.0,2569.0,2655.0,568.0,78.0,20.0
4.213283538818359,50.0,4915.0,9492.0,8125.0,6545.0,5310.0,6573.0,2880.0,22.0,54.0,13.0
4.215666770935059,51.0,5329.0,9396.0,7094.0,6294.0,4499.0,7744.0,1183.0,878.0,30.0,5.0
4.218050003051758,25.0,5743.0,7634.0,6063.0,6414.0,3423.0,485.0,2936.0,743.0,40.0,29.0
4.220433235168457,44.0,3647.0,6597.0,8804.0,6534.0,5043.0,6199.0,534.0,609.0,13.0,22.0
4.222866535186768,50.0,4978.0,6621.0,10076.0,7394.0,3089.0,5131.0,5.0,767.0,0.0,24.0
4.225249767303467,30.0,3648.0,2847.0,3750.0,5768.0,5359.0,1462.0,63.0,518.0,746.0,5.0
4.227633476257324,10.0,4077.0,2651.0,7380.0,4142.0,2507.0,1213.0,585.0,269.0,885.0,28.0
4.230016708374023,17.0,2135.0,6928.0,5645.0,4303.0,1800.0,3603.0,25.0,1047.0,81.0,7.0
4.232399940490723,19.0,3114.0,5255.0,5311.0,2361.0,2766.0,2169.0,24.0,710.0,36.0,36.0
4.234783172607422,25.0,4094.0,7914.0,2228.0,1694.0,3732.0,2541.0,61.0,374.0,35.0,29.0
4.237166881561279,31.0,998.0,2863.0,4298.0,893.0,3379.0,3493.0,185.0,39.0,37.0,26.0
4.239616870880127,33.0,3461.0,5126.0,3201.0,3121.0,3026.0,1002.0,140.0,26.0,25.0,47.0
4.242000102996826,34.0,2683.0,2521.0,6019.0,2614.0,2278.0,1122.0,96.0,13.0,14.0,12.0
4.244383335113525,21.0,3198.0,2041.0,6766.0,2107.0,1530.0,847.0,1086.0,12.0,28.0,30.0
4.246766567230225,13.0,1026.0,1561.0,2593.0,3626.0,71.0,621.0,887.0,10.0,672.0,11.0
4.249149799346924,24.0,740.0,2205.0,2639.0,3402.0,848.0,5.0,952.0,19.0,346.0,8.0
4.251533508300781,12.0,2626.0,884.0,2890.0,3177.0,1319.0,1872.0,46.0,18.0,20.0,5.0
4.2539167404174805,0.0,20.0,1451.0,731.0,1898.0,16.0,1373.0,41.0,17.0,905.0,40.0
4.256333351135254,46.0,2270.0,2018.0,1325.0,1177.0,1200.0,874.0,36.0,30.0,39.0,49.0
4.25873327255249,59.0,1883.0,1439.0,2332.0,1556.0,1985.0,1967.0,311.0,44.0,12.0,17.0
4.2611165046691895,66.0,1938.0,861.0,2528.0,1278.0,433.0,2204.0,164.0,48.0,60.0,17.0
4.263500213623047,28.0,813.0,1162.0,2779.0,641.0,873.0,1539.0,17.0,53.0,8.0,15.0
4.265883445739746,39.0,2243.0,1463.0,1163.0,5.0,1803.0,0.0,12.0,0.0,23.0,12.0
4.268266677856445,15.0,606.0,1332.0,345.0,2038.0,2263.0,305.0,6.0,26.0,31.0,26.0
4.2706499099731445,51.0,2733.0,1478.0,1957.0,1322.0,1702.0,1000.0,10.0,31.0,40.0,18.0
4.273033142089844,34.0,860.0,813.0,1357.0,607.0,1140.0,19.0,2292.0,36.0,58.0,10.0
4.275483131408691,17.0,15.0,40.0,1705.0,32.0,41.0,1009.0,1905.0,717.0,32.0,25.0
4.277866840362549,31.0,478.0,3164.0,2052.0,1422.0,1979.0,1350.0,14.0,735.0,5.0,20.0
4.280250072479248,5.0,511.0,2339.0,1936.0,580.0,628.0,43.0,51.0,736.0,57.0,15.0
4.282633304595947,24.0,19.0,1069.0,1820.0,2484.0,854.0,622.0,1571.0,17.0,57.0,8.0
4.2850165367126465,12.0,590.0,2329.0,1612.0,1780.0,709.0,522.0,799.0,932.0,51.0,0.0
4.287399768829346,15.0,18.0,2149.0,1404.0,1721.0,1249.0,0.0,28.0,1357.0,22.0,32.0
4.289783477783203,17.0,191.0,1969.0,443.0,1683.0,1180.0,193.0,34.0,36.0,34.0,50.0
4.292216777801514,14.0,363.0,2203.0,1348.0,1645.0,1112.0,144.0,36.0,826.0,46.0,69.0
4.294600009918213,7.0,228.0,1541.0,6.0,860.0,1248.0,96.0,133.0,21.0,40.0,29.0
4.296983242034912,0.0,1507.0,7.0,1186.0,1029.0,1561.0,14.0,78.0,1090.0,34.0,22.0
