,301.2099914550781,302.2099914550781,303.2099914550781,304.2099914550781,305.2099914550781,306.2099914550781,307.2099914550781,308.2099914550781
5.202199935913086,49.0,591.0,43.0,10.0,30.0,6.0,15.0,12.0
5.204366683959961,15.0,24.0,1259.0,50.0,7.0,71.0,27.0,17.0
5.207833290100098,0.0,0.0,24.0,7.0,6.0,6.0,47.0,22.0
5.211299896240234,40.0,37.0,1794.0,15.0,30.0,0.0,5.0,39.0
5.214766502380371,29.0,0.0,1022.0,12.0,17.0,17.0,43.0,35.0
5.218233108520508,27.0,11.0,1666.0,31.0,0.0,18.0,20.0,5.0
5.221766471862793,5.0,5.0,2499.0,34.0,3.0,0.0,0.0,18.0
5.225233554840088,12.0,11.0,2457.0,5.0,5.0,14.0,30.0,33.0
5.228700160980225,5.0,12.0,2414.0,0.0,3.0,14.0,47.0,38.0
5.232166767120361,19.0,12.0,972.0,491.0,0.0,31.0,25.0,24.0
5.235633373260498,18.0,33.0,237.0,252.0,7.0,28.0,5.0,24.0
5.239150047302246,19.0,19.0,446.0,14.0,13.0,24.0,20.0,5.0
5.242616653442383,19.0,5.0,853.0,18.0,15.0,25.0,12.0,16.0
5.2460832595825195,23.0,105.0,634.0,20.0,17.0,17.0,15.0,27.0
5.249566555023193,22.0,56.0,415.0,22.0,24.0,5.0,0.0,0.0
5.253083229064941,21.0,6.0,617.0,29.0,24.0,9.0,0.0,20.0
5.256549835205078,19.0,3.0,13.0,0.0,23.0,12.0,0.0,8.0
5.260016441345215,17.0,0.0,15.0,0.0,8.0,15.0,11.0,8.0
5.26348352432251,9.0,16.0,32.0,12.0,21.0,17.0,21.0,56.0
5.2669501304626465,0.0,13.0,8.0,10.0,6.0,16.0,22.0,28.0
5.270483493804932,396.0,7.0,37.0,8.0,6.0,11.0,37.0,0.0
5.273950099945068,360.0,0.0,36.0,13.0,6.0,12.0,43.0,19.0
5.277416706085205,5.0,45.0,36.0,12.0,3.0,31.0,16.0,5.0
5.280883312225342,5.0,39.0,5.0,11.0,0.0,15.0,18.0,26.0
5.2843499183654785,6.0,45.0,6.0,20.0,17.0,0.0,19.0,5.0
5.287866592407227,7.0,33.0,0.0,13.0,29.0,37.0,10.0,6.0
5.291333198547363,4.0,6.0,29.0,5.0,35.0,5.0,0.0,6.0
5.2947998046875,0.0,0.0,19.0,20.0,11.0,40.0,8.0,34.0
5.298266887664795,0.0,3.0,10.0,15.0,14.0,11.0,13.0,35.0
5.301733493804932,5.0,6.0,35.0,34.0,30.0,0.0,69.0,739.0
5.305266857147217,5.0,14.0,36.0,30.0,34.0,5.0,35.0,379.0
5.3087334632873535,5.0,22.0,38.0,5.0,23.0,19.0,0.0,19.0
5.31220006942749,6.0,14.0,25.0,5.0,19.0,21.0,8.0,131.0
5.315666675567627,6.0,5.0,14.0,3.0,386.0,192.0,15.0,71.0
5.319133281707764,5.0,19.0,8.0,0.0,199.0,109.0,915.0,10.0
5.322649955749512,15.0,11.0,22.0,5.0,12.0,26.0,1115.0,37.0
5.326116561889648,24.0,11.0,43.0,10.0,0.0,26.0,934.0,25.0
5.329583168029785,223.0,10.0,21.0,15.0,0.0,27.0,640.0,5.0
5.333066463470459,422.0,5.0,0.0,16.0,22.0,22.0,346.0,799.0
5.336533546447754,238.0,14.0,23.0,16.0,30.0,17.0,1012.0,408.0
5.340050220489502,54.0,22.0,24.0,5.0,22.0,25.0,32.0,16.0
5.343516826629639,21.0,20.0,34.0,43.0,5.0,13.0,18.0,26.0
5.346983432769775,44.0,7.0,23.0,45.0,5.0,14.0,0.0,18.0
5.350450038909912,5.0,9.0,11.0,5.0,20.0,15.0,12.0,16.0
5.353916645050049,68.0,10.0,25.0,24.0,19.0,6.0,24.0,13.0
5.357433319091797,187.0,0.0,5.0,11.0,8.0,0.0,21.0,28.0
5.360916614532471,96.0,34.0,6.0,20.0,28.0,16.0,17.0,0.0
5.364383220672607,6.0,28.0,16.0,24.0,15.0,15.0,21.0,32.0
5.367849826812744,32.0,22.0,12.0,0.0,37.0,13.0,13.0,10.0
5.371316432952881,0.0,52.0,6.0,0.0,36.0,19.0,7.0,0.0
5.37481689453125,27.0,50.0,0.0,8.0,14.0,24.0,0.0,27.0
5.378283500671387,28.0,47.0,9.0,21.0,0.0,24.0,0.0,8.0
5.381750106811523,29.0,45.0,11.0,18.0,13.0,23.0,7.0,30.0
5.38521671295166,21.0,0.0,11.0,17.0,10.0,10.0,14.0,9.0
5.388733386993408,13.0,24.0,10.0,29.0,5.0,25.0,23.0,31.0
5.392199993133545,24.0,49.0,29.0,5.0,0.0,18.0,18.0,6.0
5.395666599273682,10.0,5.0,24.0,13.0,3.0,11.0,13.0,0.0
5.399133205413818,5.0,17.0,21.0,34.0,5.0,8.0,5.0,22.0
5.402599811553955,0.0,25.0,27.0,41.0,3.0,7.0,17.0,26.0
5.406116485595703,52.0,33.0,6.0,49.0,0.0,5.0,17.0,16.0
5.409583568572998,103.0,17.0,8.0,6.0,27.0,5.0,16.0,34.0
5.413066864013672,55.0,10.0,26.0,5.0,40.0,31.0,0.0,39.0
5.416533470153809,7.0,18.0,30.0,42.0,43.0,32.0,6.0,32.0
5.420000076293945,12.0,5.0,0.0,15.0,0.0,31.0,18.0,24.0
5.4235334396362305,50.0,583.0,182.0,980.0,20.0,52.0,20.0,5.0
5.427000045776367,192.0,1740.0,374.0,4639.0,2076.0,1390.0,1407.0,320.0
5.430466651916504,106.0,1270.0,3947.0,5607.0,5135.0,4797.0,1049.0,261.0
5.433933258056641,19.0,9596.0,15516.0,21284.0,19088.0,12028.0,2359.0,201.0
5.437399864196777,289.0,20168.0,36224.0,38048.0,42784.0,23744.0,4025.0,1742.0
5.440899848937988,144.0,41200.0,79872.0,95440.0,70464.0,39424.0,18664.0,1750.0
5.444366455078125,0.0,70128.0,135808.0,149184.0,122352.0,73472.0,34432.0,2102.0
5.44783353805542,5.0,95760.0,201856.0,214208.0,185216.0,102688.0,51552.0,2453.0
5.451300144195557,67.0,141888.0,297664.0,309888.0,246656.0,158272.0,55152.0,13816.0
5.454766750335693,129.0,180160.0,350656.0,397056.0,308416.0,165760.0,74880.0,20528.0
5.458266735076904,91.0,220096.0,410752.0,438016.0,352064.0,206208.0,90208.0,16736.0
5.461733341217041,54.0,220032.0,378944.0,424256.0,361664.0,187520.0,76640.0,14840.0
5.465199947357178,36.0,233984.0,389120.0,412480.0,308864.0,176000.0,65376.0,18836.0
5.4686665534973145,28.0,180864.0,298048.0,352448.0,290560.0,144576.0,58384.0,13736.0
5.472133159637451,20.0,155392.0,266304.0,262272.0,219200.0,91904.0,45040.0,7577.0
5.475649833679199,15.0,106848.0,215104.0,224640.0,171392.0,93184.0,27604.0,6449.0
5.479116439819336,9.0,87584.0,175552.0,151808.0,128512.0,84704.0,24868.0,3280.0
5.482583522796631,23.0,52976.0,110384.0,108816.0,100608.0,30868.0,22688.0,4288.0
5.486050128936768,17.0,57904.0,86560.0,69696.0,72256.0,35056.0,13896.0,1670.0
5.489566802978516,11.0,28800.0,55376.0,57296.0,39584.0,25672.0,11060.0,1169.0
5.4930500984191895,30.0,16932.0,31648.0,35552.0,29856.0,16128.0,9420.0,3113.0
5.496516704559326,27.0,15384.0,27864.0,22428.0,21972.0,13632.0,3344.0,34.0
5.499983310699463,24.0,20784.0,24628.0,18776.0,12808.0,9072.0,2755.0,447.0
5.5034499168396,53.0,9896.0,23780.0,18896.0,11084.0,5072.0,1389.0,234.0
5.506983280181885,46.0,4542.0,14524.0,12456.0,14312.0,7949.0,2284.0,121.0
5.5104498863220215,39.0,6287.0,17296.0,18400.0,12132.0,6313.0,2497.0,7.0
5.513916492462158,39.0,8472.0,7540.0,7568.0,8170.0,7708.0,2710.0,21.0
5.517383098602295,13.0,5848.0,11556.0,16764.0,7077.0,6917.0,861.0,35.0
5.52085018157959,7.0,3812.0,8404.0,7311.0,9136.0,2909.0,13.0,204.0
5.524366855621338,0.0,6753.0,12764.0,5071.0,7542.0,3527.0,2136.0,374.0
5.527833461761475,21.0,2197.0,4635.0,9312.0,6609.0,3256.0,631.0,732.0
5.531300067901611,17.0,4195.0,6622.0,8176.0,6933.0,3175.0,519.0,377.0
5.534783363342285,12.0,3417.0,6715.0,7816.0,6247.0,3094.0,1078.0,21.0
5.538249969482422,24.0,1751.0,2571.0,6280.0,5974.0,11.0,36.0,541.0
5.54176664352417,24.0,1972.0,4652.0,3226.0,3551.0,1143.0,11.0,73.0
5.545233249664307,5.0,2124.0,4363.0,4212.0,2456.0,4082.0,52.0,12.0
5.548699855804443,0.0,1755.0,2297.0,5189.0,2884.0,2619.0,308.0,6.0
5.55216646194458,21.0,1673.0,2108.0,6227.0,2191.0,31.0,265.0,5.0
5.555633544921875,17.0,1207.0,2267.0,2552.0,1199.0,277.0,222.0,15.0
5.559133529663086,5.0,121.0,1531.0,5332.0,208.0,493.0,15.0,15.0
5.562600135803223,7.0,1241.0,1253.0,3608.0,2891.0,1222.0,0.0,24.0
5.566066741943359,23.0,17.0,2235.0,3552.0,2009.0,894.0,8.0,21.0
5.569533348083496,26.0,1377.0,1331.0,3496.0,1784.0,566.0,16.0,17.0
5.572999954223633,29.0,5.0,1266.0,3542.0,1235.0,16.0,28.0,0.0
5.576483249664307,31.0,861.0,1524.0,3588.0,717.0,28.0,39.0,30.0
5.579949855804443,30.0,829.0,2686.0,3462.0,2296.0,801.0,27.0,5.0
5.58341646194458,29.0,1009.0,2786.0,3337.0,2081.0,3189.0,15.0,14.0
5.586883544921875,7.0,1354.0,10016.0,6172.0,9460.0,3437.0,639.0,22.0
5.590350151062012,5.0,3693.0,9836.0,13660.0,15144.0,10860.0,1910.0,86.0
5.593883514404297,7.0,17232.0,30108.0,47248.0,23132.0,25836.0,4939.0,765.0
