,302.1300048828125,303.1300048828125,304.1300048828125,305.1300048828125,306.1300048828125,307.1300048828125
1.9012999534606934,32.0,28.0,27.0,268.0,43.0,19.0
1.9026000499725342,5.0,39.0,78.0,3529.0,0.0,5.0
1.9039000272750854,0.0,15.0,1569.0,38.0,0.0,692.0
1.9052000045776367,22.0,18.0,20.0,10.0,206.0,544.0
1.906499981880188,6.0,21.0,5.0,721.0,411.0,31.0
1.9077999591827393,12.0,34.0,72.0,590.0,476.0,28.0
1.90910005569458,0.0,29.0,25.0,459.0,10.0,25.0
1.9104000329971313,9.0,23.0,378.0,365.0,559.0,23.0
1.9117000102996826,17.0,39.0,531.0,402.0,1108.0,16.0
1.9129999876022339,14.0,39.0,684.0,596.0,886.0,8.0
1.9142999649047852,10.0,5.0,710.0,38.0,26.0,7.0
1.9155999422073364,39.0,14.0,736.0,21.0,576.0,6.0
1.9169000387191772,31.0,17.0,32.0,13.0,42.0,12.0
1.9182666540145874,22.0,30.0,616.0,5.0,16.0,27.0
1.9195666313171387,23.0,23.0,24.0,264.0,28.0,68.0
1.92086660861969,24.0,15.0,821.0,238.0,39.0,58.0
1.9221667051315308,25.0,22.0,21.0,213.0,10.0,48.0
1.923466682434082,32.0,28.0,26.0,1184.0,325.0,47.0
1.9247666597366333,32.0,24.0,22.0,613.0,189.0,46.0
1.9260666370391846,19.0,19.0,21.0,43.0,53.0,0.0
1.9273666143417358,45.0,41.0,20.0,593.0,261.0,152.0
1.9286667108535767,10.0,5.0,12.0,314.0,313.0,86.0
1.929966688156128,35.0,18.0,0.0,34.0,25.0,20.0
1.9312666654586792,31.0,5.0,624.0,820.0,402.0,15.0
1.9325666427612305,10.0,25.0,312.0,5.0,211.0,24.0
1.9338666200637817,21.0,31.0,0.0,215.0,20.0,33.0
1.9352166652679443,20.0,31.0,528.0,425.0,69.0,38.0
1.9365166425704956,5.0,31.0,33.0,222.0,506.0,41.0
1.9378166198730469,14.0,24.0,998.0,20.0,943.0,43.0
1.9391167163848877,23.0,22.0,508.0,33.0,1300.0,22.0
1.940416693687439,16.0,22.0,17.0,31.0,34.0,21.0
1.9417166709899902,22.0,21.0,1324.0,19.0,19.0,18.0
1.9430166482925415,21.0,15.0,1076.0,6.0,24.0,16.0
1.9443166255950928,11.0,12.0,1007.0,15.0,28.0,14.0
1.9456167221069336,13.0,11.0,172.0,14.0,32.0,836.0
1.9469166994094849,0.0,17.0,27.0,12.0,33.0,973.0
1.9482166767120361,5.0,16.0,38.0,11.0,24.0,6.0
1.9495166540145874,22.0,15.0,49.0,10.0,15.0,0.0
1.9508166313171387,26.0,13.0,39.0,593.0,1122.0,30.0
1.9521833658218384,6.0,0.0,28.0,445.0,866.0,30.0
1.9534833431243896,7.0,7.0,580.0,297.0,1519.0,33.0
1.954783320426941,7.0,16.0,745.0,1807.0,33.0,36.0
1.9560832977294922,10.0,13.0,302.0,2061.0,16.0,19.0
1.9573832750320435,8.0,26.0,0.0,19.0,538.0,22.0
1.9586833715438843,5.0,25.0,577.0,961.0,686.0,11.0
1.9599833488464355,34.0,23.0,771.0,718.0,43.0,0.0
1.9612833261489868,20.0,0.0,405.0,1323.0,15.0,52.0
1.962583303451538,5.0,16.0,39.0,1077.0,415.0,47.0
1.9638832807540894,16.0,30.0,18.0,832.0,28.0,132.0
1.9651833772659302,26.0,13.0,24.0,48.0,601.0,79.0
1.9664833545684814,10.0,19.0,1435.0,18.0,307.0,26.0
1.9677833318710327,14.0,24.0,1285.0,2417.0,13.0,31.0
1.9691333770751953,17.0,8.0,29.0,2977.0,6.0,26.0
1.9704333543777466,5.0,16.0,90.0,22.0,231.0,21.0
1.9717333316802979,13.0,17.0,14.0,1002.0,118.0,561.0
1.9730333089828491,23.0,15.0,66.0,31.0,5.0,288.0
1.9743332862854004,33.0,13.0,51.0,18.0,26.0,15.0
1.9756333827972412,21.0,11.0,34.0,5.0,25.0,35.0
1.9769333600997925,17.0,33.0,17.0,18.0,36.0,58.0
1.9782333374023438,11.0,42.0,5.0,31.0,46.0,42.0
1.979533314704895,5.0,29.0,38.0,24.0,10.0,15.0
1.9808332920074463,29.0,17.0,36.0,16.0,326.0,131.0
1.982133388519287,23.0,23.0,33.0,728.0,163.0,89.0
1.9834333658218384,8.0,27.0,30.0,802.0,0.0,47.0
1.9847333431243896,30.0,10.0,42.0,1060.0,198.0,62.0
1.9860999584197998,5.0,23.0,681.0,518.0,105.0,5.0
1.9874000549316406,13.0,5.0,571.0,239.0,11.0,45.0
1.988700032234192,17.0,8.0,1046.0,494.0,23.0,27.0
1.9900000095367432,20.0,11.0,530.0,749.0,17.0,10.0
1.9912999868392944,24.0,14.0,485.0,959.0,10.0,22.0
1.9925999641418457,30.0,52.0,440.0,899.0,15.0,34.0
1.993899941444397,36.0,61.0,223.0,840.0,19.0,35.0
1.9952000379562378,12.0,40.0,5.0,451.0,23.0,21.0
1.996500015258789,33.0,21.0,10.0,28.0,26.0,32.0
1.9977999925613403,28.0,22.0,402.0,332.0,12.0,29.0
1.9990999698638916,10.0,36.0,546.0,46.0,0.0,26.0
2.0004000663757324,24.0,25.0,164.0,605.0,10.0,38.0
2.001699924468994,21.0,13.0,5.0,318.0,23.0,32.0
2.0030500888824463,18.0,45.0,319.0,30.0,667.0,25.0
2.004349946975708,12.0,30.0,11.0,327.0,350.0,563.0
2.005650043487549,11.0,10.0,22.0,175.0,33.0,293.0
2.0069499015808105,10.0,39.0,33.0,23.0,452.0,22.0
2.0082499980926514,28.0,6.0,0.0,1271.0,243.0,53.0
2.009550094604492,36.0,11.0,234.0,1100.0,34.0,20.0
2.010849952697754,36.0,39.0,457.0,1075.0,805.0,49.0
2.0121500492095947,5.0,10.0,680.0,14.0,748.0,78.0
2.0134499073028564,8.0,40.0,346.0,36.0,517.0,5.0
2.0147500038146973,17.0,371.0,12.0,26.0,29.0,16.0
2.016050100326538,9.0,1029.0,288.0,41.0,0.0,26.0
2.0173499584198,0.0,925.0,50.0,141.0,28.0,417.0
2.0186500549316406,19.0,31.0,30.0,718.0,32.0,244.0
2.020016670227051,15.0,97.0,10.0,768.0,290.0,71.0
2.0213167667388916,8.0,271.0,0.0,78.0,235.0,13.0
2.0226166248321533,0.0,321.0,10.0,81.0,180.0,17.0
2.023916721343994,10.0,692.0,27.0,21.0,134.0,14.0
2.025216579437256,16.0,2036.0,17.0,649.0,88.0,10.0
2.0265166759490967,18.0,2350.0,7.0,1277.0,44.0,253.0
2.0278167724609375,14.0,2545.0,17.0,1165.0,0.0,208.0
2.029116630554199,7.0,604.0,101.0,5.0,65.0,163.0
2.03041672706604,0.0,2702.0,81.0,839.0,1402.0,28.0
2.0317165851593018,6.0,1320.0,62.0,589.0,1169.0,36.0
2.0330166816711426,8.0,935.0,14.0,302.0,21.0,28.0
2.0343167781829834,10.0,2947.0,31.0,16.0,581.0,338.0
2.035616636276245,44.0,1021.0,1130.0,295.0,38.0,1152.0
2.0369832515716553,35.0,2970.0,1222.0,573.0,24.0,1410.0
2.038283348083496,20.0,3295.0,10.0,300.0,10.0,22.0
2.039583444595337,5.0,2527.0,836.0,26.0,14.0,1472.0
2.0408833026885986,47.0,1496.0,12.0,1441.0,10.0,654.0
2.0421833992004395,33.0,2009.0,6.0,1104.0,73.0,38.0
2.043483257293701,34.0,1147.0,0.0,33.0,48.0,63.0
2.044783353805542,10.0,285.0,0.0,21.0,22.0,17.0
2.046083450317383,34.0,1742.0,305.0,384.0,18.0,43.0
2.0473833084106445,19.0,2133.0,174.0,22.0,338.0,5.0
2.0486834049224854,31.0,2268.0,42.0,737.0,383.0,26.0
2.049983263015747,19.0,2231.0,10.0,377.0,213.0,48.0
2.051283359527588,21.0,1447.0,25.0,16.0,42.0,1070.0
2.0525832176208496,22.0,664.0,41.0,761.0,7.0,949.0
2.0539333820343018,34.0,5218.0,36.0,16.0,45.0,21.0
2.0552332401275635,31.0,4758.0,32.0,115.0,16.0,30.0
2.0565333366394043,81.0,1771.0,24.0,978.0,40.0,608.0
2.057833433151245,91.0,5310.0,15.0,272.0,23.0,82.0
2.059133291244507,30.0,5280.0,884.0,1098.0,22.0,49.0
2.0604333877563477,37.0,5251.0,690.0,396.0,20.0,658.0
2.0617332458496094,45.0,769.0,10.0,19.0,38.0,356.0
2.06303334236145,20.0,3070.0,299.0,29.0,99.0,55.0
2.064333438873291,58.0,606.0,687.0,52.0,496.0,5.0
2.0656332969665527,17.0,704.0,362.0,617.0,257.0,20.0
2.0669333934783936,47.0,3789.0,36.0,314.0,17.0,31.0
2.0682332515716553,40.0,1580.0,6.0,11.0,0.0,35.0
2.069533348083496,11.0,4248.0,31.0,7.0,10.0,38.0
2.0708999633789062,38.0,578.0,5.0,27.0,20.0,7.0
2.072200059890747,32.0,1802.0,1234.0,48.0,6.0,6.0
2.073499917984009,42.0,2777.0,1426.0,502.0,20.0,5.0
2.0748000144958496,22.0,3026.0,691.0,956.0,30.0,8.0
2.0761001110076904,23.0,2454.0,974.0,982.0,39.0,11.0
2.077399969100952,22.0,1882.0,456.0,605.0,28.0,14.0
2.078700065612793,48.0,1998.0,31.0,178.0,16.0,73.0
2.0799999237060547,33.0,16.0,832.0,5.0,11.0,57.0
2.0813000202178955,18.0,3069.0,779.0,5.0,25.0,42.0
2.0826001167297363,21.0,1034.0,726.0,31.0,39.0,24.0
2.083899974822998,10.0,1621.0,15.0,58.0,745.0,6.0
2.085200071334839,22.0,2207.0,22.0,88.0,440.0,27.0
2.0864999294281006,15.0,1987.0,5.0,367.0,135.0,51.0
2.0878500938415527,5.0,1766.0,5.0,192.0,20.0,540.0
2.0891499519348145,17.0,1769.0,5.0,17.0,69.0,309.0
2.0904500484466553,28.0,1772.0,15.0,17.0,64.0,79.0
2.091749906539917,29.0,1983.0,24.0,453.0,60.0,49.0
2.093050003051758,29.0,1124.0,542.0,238.0,35.0,18.0
2.0943500995635986,21.0,1685.0,285.0,22.0,10.0,16.0
2.0956499576568604,12.0,1411.0,27.0,8.0,14.0,17.0
2.096950054168701,20.0,1138.0,29.0,25.0,41.0,49.0
2.098249912261963,5.0,1859.0,2037.0,466.0,18.0,41.0
2.0995500087738037,7.0,2356.0,2546.0,1149.0,14.0,10.0
2.1008501052856445,9.0,2452.0,0.0,871.0,10.0,29.0
2.1021666526794434,7.0,2549.0,670.0,594.0,0.0,32.0
2.103450059890747,10.0,2591.0,12.0,1591.0,230.0,49.0
2.1048166751861572,31.0,2520.0,0.0,27.0,459.0,65.0
2.106116771697998,40.0,3782.0,17.0,740.0,500.0,625.0
2.1074166297912598,50.0,3949.0,6.0,40.0,46.0,318.0
2.1087167263031006,5.0,3823.0,1723.0,388.0,25.0,10.0
2.1100165843963623,886.0,1861.0,2241.0,735.0,131.0,46.0
2.111316680908203,454.0,1727.0,35.0,389.0,68.0,348.0
2.112616777420044,22.0,2819.0,1068.0,43.0,5.0,179.0
2.1139166355133057,376.0,2840.0,2340.0,65.0,17.0,10.0
2.1152167320251465,730.0,2861.0,40.0,36.0,29.0,10.0
2.116516590118408,1378.0,2693.0,30.0,7.0,22.0,25.0
2.117816686630249,1530.0,926.0,370.0,385.0,15.0,5.0
2.11911678314209,1015.0,4307.0,15.0,764.0,39.0,14.0
2.1204166412353516,20.0,2779.0,73.0,762.0,36.0,23.0
2.1217665672302246,1931.0,3605.0,131.0,31.0,30.0,19.0
2.1230666637420654,1899.0,4186.0,81.0,974.0,43.0,14.0
2.1243667602539062,1815.0,3595.0,31.0,97.0,55.0,13.0
2.125666618347168,3094.0,3875.0,12.0,29.0,452.0,12.0
2.126966714859009,3382.0,2664.0,35.0,20.0,373.0,12.0
2.1282665729522705,1104.0,1566.0,33.0,11.0,23.0,18.0
2.1295666694641113,0.0,4436.0,31.0,68.0,795.0,18.0
2.130866765975952,1852.0,2961.0,923.0,520.0,415.0,18.0
2.132166624069214,11.0,1968.0,1001.0,548.0,36.0,15.0
2.1334667205810547,1533.0,4460.0,562.0,575.0,0.0,29.0
2.1347665786743164,1564.0,4289.0,30.0,296.0,34.0,22.0
2.1360666751861572,2721.0,5845.0,1275.0,16.0,290.0,14.0
2.137366771697998,2130.0,2550.0,47.0,30.0,174.0,28.0
2.138733386993408,5.0,3689.0,5.0,45.0,57.0,15.0
2.14003324508667,1467.0,4142.0,27.0,26.0,300.0,31.0
2.1413333415985107,2614.0,2228.0,24.0,714.0,10.0,23.0
2.1426334381103516,2037.0,1182.0,8.0,933.0,27.0,14.0
2.1439332962036133,661.0,779.0,28.0,35.0,34.0,1001.0
2.145233392715454,1696.0,1155.0,49.0,376.0,20.0,832.0
2.146533250808716,100.0,1530.0,821.0,15.0,26.0,10.0
2.1478333473205566,1246.0,1733.0,700.0,90.0,18.0,22.0
2.1491334438323975,832.0,1533.0,1084.0,1187.0,10.0,43.0
2.150433301925659,987.0,1332.0,26.0,1248.0,5.0,17.0
2.1517333984375,1143.0,3981.0,1156.0,915.0,10.0,16.0
2.1530332565307617,648.0,3896.0,19.0,13.0,14.0,10.0
2.1543333530426025,0.0,2781.0,669.0,0.0,0.0,44.0
2.1556832790374756,762.0,5.0,455.0,15.0,5.0,35.0
2.1569833755493164,1523.0,1268.0,403.0,18.0,10.0,9.0
2.158283233642578,1512.0,721.0,204.0,73.0,15.0,15.0
2.159583330154419,5.0,634.0,5.0,58.0,8.0,46.0
2.1608834266662598,0.0,1574.0,55.0,44.0,0.0,39.0
2.1621832847595215,445.0,137.0,38.0,12.0,23.0,32.0
2.1634833812713623,891.0,1014.0,41.0,271.0,19.0,13.0
2.164783239364624,1675.0,0.0,30.0,529.0,15.0,29.0
2.166083335876465,1450.0,807.0,19.0,542.0,5.0,45.0
2.1673834323883057,1226.0,857.0,678.0,296.0,44.0,45.0
2.1686832904815674,0.0,69.0,711.0,50.0,25.0,45.0
2.169983386993408,975.0,192.0,40.0,80.0,6.0,10.0
2.17128324508667,2301.0,315.0,53.0,109.0,37.0,89.0
2.172650098800659,1757.0,185.0,36.0,60.0,0.0,47.0
2.173949956893921,29.0,56.0,43.0,10.0,9.0,5.0
2.1752500534057617,378.0,117.0,47.0,11.0,17.0,17.0
2.1765499114990234,36.0,179.0,9.0,952.0,14.0,22.0
2.1778500080108643,5.0,705.0,866.0,899.0,11.0,26.0
2.179150104522705,495.0,1057.0,443.0,603.0,14.0,1114.0
2.180449962615967,509.0,955.0,20.0,63.0,16.0,988.0
2.1817500591278076,523.0,556.0,23.0,24.0,16.0,883.0
2.1830499172210693,283.0,281.0,354.0,26.0,15.0,985.0
2.18435001373291,44.0,7.0,35.0,720.0,18.0,30.0
2.185650110244751,441.0,17.0,33.0,374.0,21.0,24.0
2.1869499683380127,839.0,26.0,36.0,28.0,32.0,40.0
2.1882500648498535,1544.0,29.0,38.0,56.0,28.0,48.0
2.1895999908447266,1694.0,32.0,17.0,21.0,21.0,37.0
2.1909000873565674,1786.0,46.0,6.0,38.0,5.0,11.0
2.192199945449829,3212.0,1091.0,31.0,36.0,30.0,21.0
2.19350004196167,3073.0,557.0,691.0,22.0,26.0,33.0
2.1947999000549316,684.0,22.0,752.0,28.0,21.0,24.0
2.1960999965667725,933.0,53.0,292.0,36.0,5.0,15.0
2.1974000930786133,1851.0,470.0,159.0,28.0,12.0,35.0
2.198699951171875,24.0,940.0,25.0,19.0,21.0,45.0
2.200000047683716,2514.0,1154.0,11.0,10.0,15.0,39.0
2.2012999057769775,1270.0,1368.0,27.0,0.0,10.0,24.0
2.2026000022888184,26.0,1115.0,19.0,41.0,15.0,18.0
2.203916549682617,753.0,2000.0,10.0,44.0,20.0,10.0
2.205199956893921,834.0,7.0,25.0,47.0,15.0,24.0
2.206566572189331,915.0,1161.0,15.0,434.0,10.0,10.0
2.207866668701172,1338.0,2210.0,5.0,301.0,15.0,14.0
2.2091667652130127,864.0,31.0,50.0,168.0,17.0,0.0
2.2104666233062744,389.0,1503.0,127.0,26.0,18.0,7.0
2.2117667198181152,1480.0,33.0,93.0,18.0,16.0,10.0
2.213066577911377,831.0,1440.0,59.0,10.0,13.0,0.0
2.2143666744232178,1238.0,547.0,47.0,11.0,10.0,0.0
2.2156667709350586,1043.0,25.0,34.0,854.0,5.0,0.0
2.2169666290283203,644.0,49.0,31.0,436.0,6.0,17.0
2.218266725540161,654.0,378.0,28.0,18.0,6.0,9.0
2.219566583633423,645.0,709.0,24.0,5.0,10.0,0.0
2.2208666801452637,69.0,443.0,28.0,0.0,13.0,7.0
2.2221667766571045,716.0,178.0,31.0,5.0,17.0,13.0
2.2235167026519775,22.0,5.0,38.0,686.0,21.0,24.0
2.2248165607452393,2396.0,712.0,0.0,798.0,11.0,34.0
2.22611665725708,1202.0,939.0,30.0,36.0,0.0,27.0
2.227416753768921,8.0,488.0,900.0,23.0,9.0,19.0
2.2287166118621826,303.0,37.0,460.0,39.0,31.0,10.0
2.2300167083740234,15.0,58.0,19.0,23.0,23.0,10.0
2.231316566467285,23.0,12.0,0.0,10.0,15.0,19.0
2.232616662979126,74.0,0.0,7.0,1433.0,21.0,28.0
2.233916759490967,200.0,65.0,56.0,1271.0,15.0,21.0
2.2352166175842285,119.0,19.0,32.0,22.0,19.0,13.0
2.2365167140960693,37.0,0.0,8.0,1228.0,21.0,11.0
2.237816572189331,366.0,338.0,5.0,23.0,23.0,6.0
2.239116668701172,694.0,676.0,22.0,15.0,22.0,0.0
2.240483283996582,514.0,769.0,11.0,640.0,20.0,9.0
2.241783380508423,597.0,685.0,0.0,19.0,15.0,17.0
2.2430832386016846,687.0,14.0,11.0,29.0,20.0,36.0
2.2443833351135254,38.0,9.0,21.0,17.0,22.0,25.0
2.245683431625366,26.0,25.0,32.0,5.0,23.0,14.0
2.246983289718628,24.0,24.0,44.0,543.0,12.0,847.0
2.2482833862304688,31.0,23.0,29.0,355.0,18.0,1005.0
2.2495832443237305,0.0,10.0,794.0,168.0,23.0,7.0
2.2508833408355713,5.0,10.0,719.0,0.0,6.0,5.0
2.252183437347412,10.0,10.0,1291.0,10.0,3.0,13.0
2.253483295440674,11.0,16.0,907.0,20.0,0.0,17.0
2.2547833919525146,12.0,8.0,11.0,39.0,12.0,34.0
2.2560832500457764,9.0,0.0,353.0,31.0,12.0,64.0
2.2574334144592285,5.0,5.0,483.0,23.0,11.0,94.0
2.2587332725524902,3.0,10.0,254.0,20.0,42.0,66.0
2.260033369064331,0.0,44.0,24.0,86.0,40.0,0.0
2.2613332271575928,22.0,31.0,24.0,57.0,17.0,57.0
2.2626333236694336,14.0,19.0,23.0,28.0,43.0,11.0
2.2639334201812744,5.0,15.0,17.0,806.0,42.0,6.0
2.265233278274536,6.0,17.0,10.0,827.0,47.0,0.0
2.266533374786377,8.0,19.0,23.0,8.0,10.0,15.0
2.2678332328796387,16.0,0.0,0.0,934.0,41.0,29.0
2.2691333293914795,24.0,0.0,23.0,71.0,27.0,26.0
2.2704334259033203,21.0,0.0,23.0,12.0,14.0,10.0
2.271733283996582,0.0,10.0,22.0,254.0,68.0,5.0
2.273033380508423,8.0,19.0,186.0,21.0,39.0,0.0
2.274399995803833,0.0,30.0,351.0,51.0,10.0,4.0
2.275700092315674,15.0,29.0,375.0,42.0,10.0,7.0
2.2769999504089355,13.0,28.0,187.0,7.0,25.0,20.0
2.2783000469207764,10.0,27.0,0.0,583.0,18.0,27.0
2.279599905014038,0.0,15.0,12.0,444.0,12.0,33.0
2.280900001525879,5.0,0.0,247.0,32.0,9.0,36.0
2.2822000980377197,15.0,7.0,137.0,16.0,26.0,42.0
2.2834999561309814,15.0,13.0,27.0,6.0,542.0,16.0
2.2848000526428223,7.0,17.0,506.0,18.0,794.0,11.0
2.286099910736084,0.0,16.0,984.0,9.0,862.0,8.0
2.287400007247925,0.0,11.0,719.0,0.0,5.0,5.0
2.2887001037597656,0.0,5.0,349.0,60.0,115.0,6.0
2.2899999618530273,3.0,5.0,38.0,43.0,5.0,7.0
2.2913498878479004,5.0,10.0,282.0,26.0,15.0,14.0
2.292649984359741,34.0,8.0,527.0,22.0,24.0,20.0
2.293950080871582,41.0,5.0,854.0,277.0,12.0,30.0
2.2952499389648438,10.0,14.0,777.0,142.0,0.0,33.0
2.2965500354766846,12.0,12.0,26.0,6.0,36.0,25.0
2.2978498935699463,19.0,10.0,952.0,25.0,73.0,16.0
