,319.2099914550781,320.2099914550781,321.2099914550781,322.2099914550781,323.2099914550781,324.2099914550781,325.2099914550781
4.501916885375977,144.0,92.0,18.0,76.0,16.0,26.0,69.0
4.504300117492676,11.0,16.0,28.0,14.0,20.0,40.0,59.0
4.507400035858154,30.0,51.0,91.0,54.0,5.0,14.0,30.0
4.510433197021484,39.0,43.0,68.0,33.0,67.0,68.0,18.0
4.513466835021973,40.0,67.0,17.0,53.0,59.0,63.0,19.0
4.516499996185303,44.0,49.0,34.0,59.0,57.0,31.0,18.0
4.519533157348633,42.0,17.0,5.0,70.0,48.0,51.0,17.0
4.522616863250732,40.0,51.0,20.0,29.0,47.0,36.0,12.0
4.5256500244140625,38.0,52.0,21.0,47.0,11.0,41.0,5.0
4.528683185577393,36.0,10.0,22.0,24.0,65.0,16.0,6.0
4.531716823577881,36.0,49.0,5.0,55.0,32.0,27.0,7.0
4.534749984741211,36.0,48.0,53.0,10.0,51.0,43.0,7.0
4.537783145904541,56.0,41.0,33.0,0.0,69.0,5.0,7.0
4.540866851806641,584.0,34.0,13.0,71.0,50.0,13.0,12.0
4.543900012969971,763.0,33.0,17.0,16.0,42.0,0.0,9.0
4.546949863433838,731.0,33.0,0.0,37.0,6.0,5.0,5.0
4.549983501434326,25.0,15.0,10.0,5.0,61.0,9.0,6.0
4.553016662597656,41.0,27.0,5.0,18.0,34.0,7.0,29.0
4.556099891662598,36.0,15.0,18.0,23.0,10.0,5.0,17.0
4.559133529663086,5.0,17.0,31.0,36.0,27.0,10.0,6.0
4.562166690826416,0.0,18.0,29.0,35.0,26.0,27.0,3.0
4.565199851989746,23.0,17.0,8.0,21.0,26.0,20.0,0.0
4.568233489990234,46.0,15.0,42.0,0.0,15.0,14.0,26.0
4.5712666511535645,32.0,22.0,24.0,5.0,11.0,24.0,38.0
4.57438325881958,17.0,48.0,6.0,39.0,7.0,15.0,48.0
4.577416896820068,9.0,41.0,31.0,37.0,12.0,15.0,13.0
4.580450057983398,0.0,14.0,20.0,34.0,16.0,24.0,47.0
4.5834832191467285,6.0,718.0,0.0,32.0,13.0,29.0,47.0
4.586516857147217,6.0,386.0,0.0,28.0,10.0,35.0,0.0
4.589550018310547,5.0,53.0,16.0,10.0,38.0,35.0,18.0
4.592616558074951,12.0,38.0,8.0,38.0,21.0,14.0,13.0
4.5956501960754395,11.0,44.0,8.0,20.0,5.0,28.0,23.0
4.5986833572387695,6.0,16.0,10.0,10.0,71.0,19.0,15.0
4.6017165184021,22.0,12.0,11.0,34.0,53.0,22.0,6.0
4.604750156402588,11.0,5.0,6.0,58.0,16.0,24.0,40.0
4.607800006866455,0.0,21.0,0.0,45.0,16.0,0.0,32.0
4.610849857330322,6.0,18.0,4.0,21.0,5.0,49.0,23.0
4.6138834953308105,17.0,14.0,7.0,39.0,12.0,35.0,5.0
4.616916656494141,26.0,17.0,8.0,16.0,19.0,20.0,31.0
4.619949817657471,23.0,20.0,9.0,23.0,19.0,17.0,18.0
4.622983455657959,6.0,28.0,10.0,12.0,20.0,7.0,0.0
4.626033306121826,16.0,6.0,13.0,0.0,23.0,8.0,31.0
4.629066467285156,12.0,29.0,11.0,9.0,30.0,8.0,26.0
4.6321001052856445,6.0,18.0,8.0,7.0,39.0,5.0,20.0
4.635133266448975,0.0,8.0,18.0,5.0,48.0,12.0,11.0
4.638183116912842,5.0,29.0,29.0,6.0,13.0,0.0,41.0
4.641250133514404,6.0,36.0,43.0,6.0,40.0,12.0,38.0
4.644283294677734,20.0,10.0,52.0,9.0,0.0,42.0,43.0
4.6473164558410645,15.0,31.0,54.0,11.0,0.0,39.0,28.0
4.650350093841553,10.0,10.0,5.0,14.0,21.0,13.0,5.0
4.653383255004883,11.0,13.0,15.0,33.0,0.0,9.0,36.0
4.656416893005371,11.0,44.0,16.0,32.0,5.0,5.0,44.0
4.659466743469238,0.0,30.0,18.0,11.0,6.0,0.0,45.0
4.6625165939331055,3.0,17.0,8.0,0.0,6.0,29.0,47.0
4.665550231933594,5.0,5.0,22.0,5.0,17.0,22.0,25.0
4.668583393096924,17.0,29.0,5.0,10.0,20.0,11.0,36.0
4.671616554260254,21.0,21.0,17.0,5.0,17.0,29.0,0.0
4.674683570861816,11.0,13.0,22.0,0.0,9.0,28.0,34.0
4.6777167320251465,26.0,21.0,21.0,0.0,0.0,27.0,26.0
4.680749893188477,10.0,16.0,12.0,5.0,33.0,22.0,21.0
4.683783531188965,29.0,17.0,21.0,8.0,38.0,17.0,8.0
4.686816692352295,24.0,17.0,29.0,10.0,6.0,12.0,12.0
4.689849853515625,23.0,7.0,37.0,11.0,37.0,6.0,17.0
4.69290018081665,8.0,5.0,46.0,12.0,442.0,0.0,0.0
4.6959333419799805,14.0,9.0,14.0,17.0,1808.0,0.0,0.0
4.698983192443848,20.0,906.0,818.0,22.0,2014.0,9.0,29.0
4.702016830444336,5.0,769.0,1623.0,3471.0,774.0,281.0,30.0
4.705049991607666,20.0,632.0,3230.0,3566.0,650.0,2681.0,31.0
4.708099842071533,20.0,3245.0,4510.0,6965.0,7084.0,7963.0,1156.0
4.7111334800720215,12.0,11456.0,17548.0,18644.0,11124.0,7164.0,1926.0
4.714166641235352,67.0,15120.0,32784.0,31360.0,23296.0,17504.0,2695.0
4.717199802398682,53.0,29588.0,54192.0,53952.0,39920.0,23888.0,4194.0
4.720250129699707,38.0,40448.0,97280.0,105888.0,61008.0,31100.0,11892.0
4.723283290863037,25.0,44128.0,115472.0,117600.0,89088.0,47744.0,9852.0
4.726333141326904,12.0,60096.0,165120.0,151296.0,118544.0,67232.0,21780.0
4.72938346862793,17.0,85872.0,191232.0,155008.0,134592.0,69472.0,25660.0
4.73241662979126,21.0,85472.0,218368.0,199232.0,141120.0,55680.0,18852.0
4.73544979095459,11.0,107744.0,252160.0,236928.0,144704.0,79328.0,18612.0
4.738483428955078,12.0,101328.0,236032.0,203520.0,133504.0,78992.0,27608.0
4.741533279418945,7.0,97520.0,214144.0,185728.0,122336.0,78128.0,17960.0
4.744566440582275,11.0,93168.0,194688.0,177344.0,115136.0,66320.0,14232.0
4.747600078582764,12.0,74032.0,180480.0,155520.0,102496.0,49664.0,18544.0
4.750649929046631,20.0,59584.0,113280.0,119344.0,85552.0,40288.0,10080.0
4.753683567047119,13.0,57088.0,109184.0,87584.0,57776.0,42848.0,7121.0
4.756716728210449,5.0,33296.0,67200.0,75072.0,42544.0,29104.0,10060.0
4.759766578674316,46.0,26344.0,62720.0,50576.0,40992.0,19272.0,3265.0
4.762800216674805,35.0,25348.0,51232.0,38928.0,18212.0,15132.0,6560.0
4.765850067138672,25.0,16268.0,31760.0,26188.0,15012.0,6967.0,2365.0
4.768883228302002,28.0,6724.0,16624.0,24164.0,12344.0,7782.0,2571.0
4.77191686630249,20.0,6903.0,11628.0,9524.0,8540.0,5551.0,2476.0
4.774966716766357,24.0,5191.0,9892.0,13428.0,3660.0,702.0,2011.0
4.7779998779296875,28.0,2883.0,8010.0,8280.0,3514.0,3661.0,476.0
4.781033515930176,16.0,1941.0,3875.0,4372.0,1980.0,1252.0,76.0
4.784066677093506,5.0,1317.0,4042.0,3298.0,1435.0,1582.0,1456.0
4.787116527557373,21.0,1892.0,4827.0,3334.0,1037.0,858.0,22.0
4.790150165557861,29.0,1130.0,4735.0,2303.0,1384.0,1767.0,20.0
4.7932000160217285,52.0,369.0,1473.0,3081.0,1089.0,576.0,60.0
4.796233177185059,29.0,2614.0,1082.0,3492.0,794.0,8.0,33.0
4.799266815185547,6.0,7.0,1889.0,2781.0,551.0,1880.0,5.0
4.801650047302246,42.0,5.0,846.0,1174.0,1079.0,44.0,23.0
4.80316686630249,0.0,0.0,1757.0,2958.0,613.0,79.0,12.0
4.804683208465576,28.0,356.0,2442.0,759.0,508.0,65.0,0.0
4.80620002746582,22.0,187.0,3127.0,23.0,403.0,5.0,17.0
4.807783126831055,48.0,18.0,666.0,2937.0,1066.0,3.0,0.0
4.809299945831299,37.0,680.0,1381.0,4403.0,1729.0,0.0,16.0
4.810816764831543,27.0,359.0,1936.0,2623.0,2049.0,875.0,8.0
4.812333106994629,48.0,39.0,1971.0,649.0,690.0,1020.0,0.0
4.813849925994873,16.0,545.0,1088.0,1128.0,0.0,289.0,35.0
4.815366744995117,44.0,275.0,1205.0,629.0,19.0,6.0,45.0
4.816883563995361,18.0,5.0,787.0,404.0,12.0,1268.0,30.0
4.818399906158447,28.0,14.0,2213.0,180.0,5.0,13.0,15.0
4.819916725158691,34.0,19.0,2073.0,274.0,0.0,210.0,26.0
4.8214335441589355,26.0,25.0,1843.0,20.0,0.0,1167.0,32.0
4.8229498863220215,18.0,260.0,2317.0,24.0,14.0,177.0,39.0
4.824516773223877,10.0,496.0,1870.0,29.0,29.0,829.0,17.0
4.826033115386963,25.0,590.0,2026.0,2302.0,467.0,13.0,13.0
4.827549934387207,21.0,685.0,2183.0,4080.0,248.0,738.0,30.0
4.829066753387451,5.0,1023.0,352.0,4074.0,29.0,369.0,0.0
4.830583095550537,26.0,37.0,647.0,3080.0,381.0,0.0,9.0
4.832099914550781,5.0,1083.0,693.0,1879.0,733.0,1046.0,31.0
4.833616733551025,21.0,562.0,347.0,18.0,369.0,0.0,15.0
4.8351335525512695,19.0,256.0,0.0,2326.0,5.0,357.0,0.0
4.8366498947143555,17.0,766.0,1916.0,424.0,28.0,1136.0,5.0
4.8381667137146,70.0,37.0,1755.0,1952.0,50.0,583.0,31.0
4.839683532714844,43.0,34.0,26.0,665.0,28.0,31.0,25.0
4.841266632080078,15.0,32.0,22.0,898.0,5.0,949.0,19.0
4.842783451080322,23.0,32.0,631.0,1076.0,34.0,20.0,28.0
4.844299793243408,53.0,33.0,512.0,692.0,680.0,89.0,29.0
4.845816612243652,11.0,5.0,53.0,307.0,364.0,1158.0,5.0
4.8473334312438965,13.0,10.0,1234.0,53.0,48.0,38.0,6.0
4.848849773406982,19.0,15.0,1284.0,1797.0,39.0,698.0,8.0
4.850366592407227,5.0,40.0,1335.0,2064.0,0.0,649.0,9.0
4.851883411407471,27.0,40.0,415.0,841.0,0.0,18.0,20.0
4.853400230407715,17.0,40.0,37.0,16.0,16.0,10.0,31.0
4.854916572570801,15.0,515.0,5.0,1537.0,20.0,38.0,213.0
4.856433391571045,12.0,316.0,732.0,374.0,25.0,50.0,396.0
4.857983112335205,27.0,118.0,418.0,372.0,47.0,56.0,219.0
4.859516620635986,23.0,44.0,104.0,1519.0,27.0,28.0,42.0
4.8610334396362305,18.0,47.0,596.0,689.0,6.0,0.0,36.0
4.862549781799316,9.0,27.0,1089.0,16.0,42.0,14.0,21.0
4.8640666007995605,0.0,6.0,644.0,527.0,29.0,12.0,7.0
4.865583419799805,22.0,6.0,200.0,0.0,21.0,32.0,15.0
4.867099761962891,0.0,5.0,249.0,459.0,14.0,36.0,58.0
4.868616580963135,30.0,11.0,298.0,12.0,5.0,40.0,29.0
4.870133399963379,33.0,16.0,172.0,102.0,5.0,29.0,0.0
4.871650218963623,7.0,15.0,47.0,632.0,10.0,17.0,6.0
4.873166561126709,28.0,14.0,28.0,629.0,5.0,21.0,18.0
4.874683380126953,46.0,20.0,8.0,626.0,0.0,38.0,21.0
4.8762664794921875,20.0,26.0,6.0,858.0,6.0,6.0,21.0
4.877783298492432,22.0,26.0,36.0,830.0,17.0,46.0,5.0
4.879300117492676,38.0,27.0,1305.0,751.0,28.0,32.0,26.0
4.880816459655762,37.0,0.0,1690.0,7.0,19.0,17.0,0.0
4.882333278656006,36.0,34.0,1592.0,15.0,10.0,21.0,24.0
4.88385009765625,5.0,5.0,0.0,26.0,15.0,10.0,14.0
4.885366439819336,20.0,19.0,0.0,10.0,36.0,27.0,12.0
4.88688325881958,28.0,29.0,0.0,14.0,215.0,17.0,10.0
4.888400077819824,32.0,34.0,548.0,15.0,107.0,7.0,11.0
4.889916896820068,21.0,42.0,1101.0,17.0,0.0,0.0,11.0
4.891433238983154,27.0,51.0,983.0,19.0,37.0,13.0,12.0
4.89300012588501,12.0,28.0,0.0,10.0,25.0,7.0,9.0
4.894516468048096,9.0,5.0,377.0,0.0,11.0,0.0,5.0
4.89603328704834,6.0,7.0,50.0,18.0,25.0,5.0,11.0
4.897550106048584,33.0,8.0,70.0,14.0,12.0,9.0,13.0
4.89906644821167,38.0,29.0,27.0,10.0,30.0,12.0,16.0
4.900599956512451,13.0,27.0,5.0,106.0,27.0,16.0,13.0
4.902100086212158,12.0,29.0,28.0,56.0,24.0,16.0,10.0
4.903616428375244,32.0,31.0,51.0,5.0,11.0,5.0,11.0
4.905133247375488,13.0,7.0,52.0,190.0,18.0,17.0,11.0
4.906650066375732,51.0,20.0,53.0,116.0,26.0,5.0,24.0
4.9081830978393555,54.0,31.0,34.0,43.0,23.0,32.0,21.0
4.909749984741211,13.0,41.0,0.0,1407.0,20.0,38.0,17.0
4.911266803741455,0.0,21.0,7.0,1117.0,0.0,24.0,5.0
4.912783145904541,0.0,19.0,14.0,44.0,26.0,893.0,23.0
4.914299964904785,21.0,17.0,1255.0,10.0,22.0,452.0,0.0
4.915816783905029,17.0,10.0,630.0,1127.0,1256.0,11.0,24.0
4.917333126068115,16.0,8.0,5.0,1037.0,1293.0,40.0,39.0
4.918849945068359,18.0,5.0,1292.0,8.0,1331.0,0.0,68.0
4.9203667640686035,8.0,13.0,1114.0,1014.0,1132.0,58.0,47.0
4.9218831062316895,14.0,12.0,5.0,1623.0,0.0,43.0,13.0
4.923399925231934,19.0,11.0,1417.0,664.0,14.0,29.0,34.0
4.924916744232178,16.0,21.0,0.0,609.0,694.0,1494.0,5.0
4.926483154296875,12.0,32.0,1403.0,815.0,1099.0,1393.0,15.0
4.927999973297119,52.0,16.0,1650.0,12.0,1255.0,823.0,24.0
4.929516792297363,36.0,0.0,1164.0,26.0,42.0,5.0,140.0
4.931033134460449,19.0,18.0,1335.0,17.0,1928.0,5.0,83.0
4.932549953460693,11.0,36.0,831.0,34.0,10.0,0.0,26.0
4.9340667724609375,12.0,42.0,327.0,50.0,848.0,17.0,0.0
4.935583114624023,14.0,14.0,45.0,1552.0,784.0,28.0,32.0
4.937099933624268,15.0,485.0,43.0,1261.0,14.0,690.0,16.0
4.938616752624512,18.0,243.0,37.0,35.0,39.0,558.0,0.0
4.940133571624756,21.0,0.0,6.0,54.0,5.0,425.0,13.0
4.941649913787842,18.0,15.0,5.0,0.0,10.0,61.0,10.0
4.943233489990234,14.0,13.0,11.0,221.0,19.0,10.0,14.0
4.94474983215332,0.0,17.0,17.0,126.0,16.0,37.0,0.0
4.9462666511535645,9.0,21.0,313.0,31.0,13.0,56.0,18.0
4.947783470153809,10.0,6.0,173.0,41.0,7.0,473.0,0.0
4.9492998123168945,11.0,15.0,33.0,31.0,0.0,237.0,18.0
4.950816631317139,10.0,15.0,593.0,10.0,23.0,0.0,15.0
4.952333450317383,14.0,46.0,664.0,38.0,39.0,8.0,11.0
4.953849792480469,17.0,37.0,550.0,16.0,32.0,15.0,5.0
4.955366611480713,5.0,28.0,29.0,18.0,26.0,12.0,10.0
4.956883430480957,33.0,41.0,9.0,20.0,28.0,17.0,14.0
4.958399772644043,25.0,30.0,189.0,13.0,31.0,29.0,29.0
4.959966659545898,16.0,18.0,95.0,5.0,15.0,28.0,44.0
4.961483478546143,28.0,19.0,0.0,5.0,0.0,0.0,45.0
4.9629998207092285,11.0,21.0,466.0,5.0,7.0,12.0,0.0
4.964516639709473,40.0,21.0,251.0,0.0,9.0,9.0,9.0
4.966033458709717,42.0,23.0,36.0,7.0,10.0,5.0,18.0
4.967549800872803,5.0,26.0,110.0,11.0,8.0,17.0,18.0
4.969066619873047,26.0,16.0,26.0,15.0,5.0,30.0,11.0
4.970583438873291,6.0,21.0,31.0,11.0,32.0,66.0,15.0
4.972099781036377,8.0,45.0,36.0,5.0,27.0,261.0,19.0
4.973616600036621,43.0,39.0,30.0,10.0,22.0,144.0,32.0
4.975133419036865,31.0,34.0,24.0,8.0,20.0,27.0,54.0
4.9766998291015625,25.0,0.0,28.0,7.0,5.0,41.0,53.0
4.978233337402344,19.0,7.0,14.0,19.0,15.0,36.0,20.0
4.979750156402588,9.0,0.0,0.0,9.0,26.0,17.0,21.0
4.981266498565674,8.0,11.0,46.0,0.0,31.0,18.0,58.0
4.982783317565918,6.0,9.0,36.0,53.0,15.0,6.0,0.0
4.984300136566162,21.0,6.0,26.0,30.0,0.0,12.0,28.0
4.985816478729248,35.0,47.0,705.0,6.0,0.0,17.0,30.0
4.987333297729492,30.0,47.0,589.0,69.0,5.0,22.0,17.0
4.988850116729736,25.0,12.0,5.0,20.0,30.0,54.0,37.0
4.990366458892822,5.0,7.0,957.0,5.0,23.0,34.0,43.0
4.991883277893066,38.0,0.0,12.0,3.0,17.0,14.0,16.0
4.9934000968933105,127.0,15.0,32.0,0.0,5.0,5.0,26.0
4.994966506958008,205.0,16.0,33.0,0.0,0.0,6.0,12.0
4.996483325958252,102.0,0.0,17.0,0.0,6.0,7.0,23.0
4.998000144958496,0.0,32.0,11.0,27.0,11.0,6.0,139.0
