,301.2099914550781,302.2099914550781,303.2099914550781,304.2099914550781,305.2099914550781,306.2099914550781,307.2099914550781,308.2099914550781
5.201733112335205,10.0,1115.0,914.0,194.0,0.0,22.0,68.0,33.0
5.203466892242432,15.0,39.0,1215.0,12.0,0.0,28.0,46.0,38.0
5.2052001953125,11.0,31.0,978.0,8.0,26.0,29.0,5.0,40.0
5.206933498382568,17.0,16.0,33.0,15.0,0.0,19.0,22.0,0.0
5.208666801452637,15.0,26.0,555.0,14.0,17.0,5.0,28.0,16.0
5.210400104522705,10.0,26.0,1149.0,13.0,12.0,26.0,15.0,0.0
5.212133407592773,6.0,26.0,876.0,33.0,10.0,5.0,24.0,4.0
5.213866710662842,10.0,5.0,603.0,19.0,21.0,19.0,19.0,7.0
5.21560001373291,11.0,21.0,916.0,5.0,46.0,11.0,16.0,5.0
5.21738338470459,12.0,43.0,1596.0,26.0,32.0,32.0,20.0,10.0
5.219116687774658,16.0,21.0,3013.0,42.0,19.0,36.0,25.0,10.0
5.220849990844727,20.0,0.0,2304.0,37.0,35.0,18.0,27.0,10.0
5.222583293914795,20.0,8.0,1466.0,68.0,10.0,0.0,29.0,12.0
5.224316596984863,20.0,16.0,3458.0,99.0,12.0,44.0,15.0,0.0
5.226049900054932,10.0,0.0,2371.0,63.0,5.0,29.0,0.0,22.0
5.227783203125,51.0,40.0,32.0,26.0,18.0,7.0,12.0,26.0
5.229516506195068,38.0,32.0,2287.0,21.0,13.0,13.0,9.0,5.0
5.231266498565674,25.0,25.0,2682.0,7.0,8.0,11.0,5.0,13.0
5.232983112335205,21.0,18.0,3787.0,624.0,5.0,0.0,12.0,49.0
5.234783172607422,0.0,33.0,969.0,831.0,19.0,18.0,19.0,54.0
5.23651647567749,36.0,24.0,61.0,32.0,32.0,26.0,39.0,60.0
5.238249778747559,29.0,15.0,0.0,50.0,35.0,25.0,31.0,18.0
5.239983558654785,21.0,18.0,5.0,5.0,25.0,11.0,23.0,27.0
5.2417168617248535,24.0,19.0,13.0,15.0,7.0,18.0,17.0,29.0
5.243450164794922,17.0,21.0,21.0,48.0,43.0,21.0,11.0,18.0
5.24518346786499,32.0,21.0,20.0,34.0,11.0,24.0,13.0,52.0
5.246916770935059,33.0,13.0,568.0,39.0,35.0,55.0,24.0,39.0
5.248650074005127,13.0,18.0,284.0,43.0,19.0,47.0,30.0,26.0
5.250383377075195,38.0,37.0,0.0,29.0,23.0,43.0,35.0,32.0
5.252166748046875,30.0,37.0,9.0,11.0,31.0,6.0,18.0,6.0
5.253900051116943,22.0,37.0,18.0,54.0,22.0,41.0,17.0,11.0
5.255633354187012,26.0,28.0,11.0,22.0,5.0,45.0,24.0,21.0
5.25736665725708,30.0,24.0,5.0,44.0,35.0,0.0,11.0,17.0
5.259099960327148,47.0,26.0,8.0,16.0,6.0,13.0,9.0,12.0
5.260833263397217,63.0,28.0,10.0,7.0,39.0,20.0,6.0,7.0
5.262566566467285,67.0,30.0,16.0,16.0,0.0,18.0,66.0,21.0
5.2642998695373535,44.0,29.0,22.0,20.0,73.0,23.0,60.0,19.0
5.266033172607422,13.0,32.0,11.0,8.0,75.0,26.0,0.0,15.0
5.26776647567749,74.0,34.0,0.0,13.0,12.0,17.0,23.0,12.0
5.269566535949707,25.0,45.0,22.0,18.0,29.0,8.0,41.0,12.0
5.271299839019775,17.0,11.0,11.0,16.0,12.0,16.0,9.0,16.0
5.273033142089844,8.0,36.0,0.0,18.0,16.0,24.0,0.0,19.0
5.274766445159912,0.0,50.0,25.0,18.0,12.0,5.0,38.0,30.0
5.276500225067139,5.0,10.0,34.0,19.0,5.0,15.0,24.0,45.0
5.278233528137207,50.0,35.0,44.0,18.0,21.0,24.0,26.0,39.0
5.279966831207275,34.0,0.0,0.0,0.0,0.0,17.0,0.0,46.0
5.281700134277344,19.0,16.0,11.0,46.0,18.0,22.0,34.0,11.0
5.283433437347412,27.0,17.0,6.0,65.0,24.0,16.0,44.0,32.0
5.285216808319092,26.0,19.0,28.0,56.0,5.0,10.0,49.0,47.0
5.28695011138916,5.0,21.0,14.0,21.0,27.0,11.0,21.0,0.0
5.2886834144592285,32.0,17.0,0.0,35.0,23.0,18.0,24.0,7.0
5.290416717529297,13.0,12.0,10.0,27.0,31.0,16.0,49.0,15.0
5.292150020599365,35.0,15.0,21.0,19.0,20.0,13.0,32.0,17.0
5.293883323669434,5.0,20.0,11.0,11.0,8.0,31.0,15.0,0.0
5.295616626739502,39.0,25.0,27.0,20.0,16.0,24.0,20.0,0.0
5.29734992980957,7.0,31.0,26.0,18.0,26.0,18.0,35.0,17.0
5.299083232879639,55.0,25.0,28.0,16.0,27.0,9.0,24.0,19.0
5.300816535949707,33.0,51.0,30.0,5.0,0.0,0.0,20.0,22.0
5.302616596221924,33.0,47.0,6.0,27.0,9.0,9.0,16.0,16.0
5.304349899291992,11.0,43.0,23.0,20.0,5.0,10.0,23.0,10.0
5.3060832023620605,44.0,23.0,17.0,10.0,0.0,11.0,0.0,13.0
5.307816505432129,5.0,10.0,10.0,39.0,126.0,22.0,20.0,16.0
5.309549808502197,17.0,13.0,11.0,39.0,63.0,11.0,39.0,15.0
5.311283111572266,11.0,0.0,8.0,38.0,0.0,0.0,43.0,15.0
5.313016891479492,31.0,21.0,5.0,11.0,9.0,40.0,28.0,7.0
5.3147501945495605,26.0,41.0,11.0,11.0,5.0,37.0,25.0,8.0
5.316483497619629,5.0,48.0,18.0,41.0,6.0,29.0,22.0,8.0
5.318216800689697,23.0,16.0,9.0,7.0,49.0,20.0,25.0,7.0
5.320000171661377,41.0,85.0,0.0,9.0,237.0,10.0,614.0,21.0
5.321733474731445,46.0,52.0,24.0,11.0,728.0,281.0,370.0,23.0
5.323466777801514,55.0,20.0,5.0,19.0,371.0,148.0,125.0,15.0
5.325200080871582,25.0,18.0,0.0,19.0,15.0,15.0,125.0,26.0
5.32693338394165,13.0,13.0,44.0,19.0,11.0,7.0,37.0,12.0
5.328666687011719,17.0,11.0,53.0,25.0,7.0,0.0,22.0,15.0
5.330399990081787,644.0,11.0,27.0,22.0,11.0,775.0,6.0,17.0
5.3321332931518555,650.0,11.0,22.0,18.0,16.0,723.0,54.0,8.0
5.333866596221924,655.0,17.0,23.0,13.0,12.0,1190.0,260.0,22.0
5.335599899291992,661.0,17.0,22.0,15.0,8.0,51.0,139.0,15.0
5.337399959564209,1079.0,17.0,22.0,32.0,11.0,33.0,17.0,7.0
5.339133262634277,0.0,21.0,23.0,49.0,15.0,5.0,954.0,14.0
5.340866565704346,5.0,24.0,10.0,58.0,22.0,372.0,1066.0,21.0
5.342599868774414,6.0,27.0,11.0,39.0,34.0,194.0,24.0,16.0
5.344333171844482,71.0,30.0,20.0,34.0,39.0,16.0,651.0,18.0
5.346066474914551,51.0,41.0,18.0,13.0,16.0,56.0,25.0,16.0
5.347799777984619,30.0,72.0,17.0,25.0,5.0,46.0,36.0,10.0
5.349533557891846,0.0,64.0,19.0,36.0,22.0,27.0,23.0,5.0
5.351266860961914,38.0,56.0,17.0,31.0,25.0,8.0,10.0,47.0
5.353050231933594,19.0,36.0,15.0,31.0,11.0,44.0,8.0,52.0
5.354783535003662,0.0,21.0,18.0,31.0,21.0,16.0,5.0,7.0
5.3565168380737305,24.0,27.0,19.0,5.0,10.0,19.0,0.0,16.0
5.358250141143799,49.0,32.0,9.0,0.0,0.0,8.0,15.0,11.0
5.360000133514404,44.0,11.0,15.0,8.0,12.0,15.0,16.0,13.0
5.3617167472839355,21.0,33.0,21.0,44.0,11.0,21.0,12.0,15.0
5.363450050354004,17.0,22.0,5.0,54.0,10.0,21.0,20.0,10.0
5.365183353424072,10.0,18.0,9.0,36.0,10.0,22.0,21.0,16.0
5.366916656494141,22.0,22.0,7.0,7.0,10.0,0.0,23.0,22.0
5.368666648864746,33.0,5.0,5.0,50.0,10.0,34.0,24.0,37.0
5.370450019836426,35.0,22.0,10.0,38.0,11.0,25.0,22.0,22.0
5.372183322906494,52.0,10.0,0.0,21.0,13.0,47.0,20.0,7.0
5.3739166259765625,0.0,17.0,9.0,38.0,16.0,33.0,0.0,38.0
5.375649929046631,57.0,68.0,12.0,13.0,16.0,21.0,6.0,48.0
5.377383232116699,23.0,53.0,22.0,9.0,25.0,50.0,11.0,13.0
5.379116535186768,65.0,37.0,16.0,11.0,36.0,26.0,0.0,15.0
5.380849838256836,18.0,33.0,10.0,12.0,40.0,19.0,7.0,37.0
5.382583141326904,25.0,7.0,5.0,17.0,32.0,7.0,9.0,23.0
5.384316444396973,24.0,27.0,26.0,21.0,9.0,19.0,11.0,40.0
5.386050224304199,11.0,6.0,29.0,37.0,29.0,0.0,44.0,33.0
5.387833118438721,31.0,19.0,37.0,38.0,5.0,4.0,22.0,11.0
5.389566898345947,23.0,31.0,20.0,16.0,23.0,7.0,0.0,18.0
5.391300201416016,17.0,39.0,20.0,22.0,21.0,0.0,32.0,24.0
5.393033504486084,10.0,38.0,19.0,48.0,30.0,9.0,26.0,25.0
5.394766807556152,40.0,0.0,20.0,32.0,18.0,19.0,10.0,63.0
5.396500110626221,33.0,5.0,17.0,28.0,22.0,13.0,16.0,68.0
5.398233413696289,18.0,54.0,13.0,32.0,19.0,0.0,25.0,0.0
5.399966716766357,0.0,49.0,0.0,25.0,7.0,10.0,0.0,39.0
5.401700019836426,5.0,0.0,32.0,19.0,12.0,20.0,12.0,52.0
5.403433322906494,10.0,17.0,29.0,0.0,23.0,17.0,24.0,21.0
5.405233383178711,10.0,6.0,13.0,54.0,14.0,15.0,23.0,7.0
5.406966686248779,10.0,25.0,21.0,32.0,5.0,6.0,11.0,41.0
5.408699989318848,16.0,23.0,29.0,10.0,16.0,6.0,29.0,17.0
5.410433292388916,21.0,22.0,33.0,5.0,51.0,6.0,0.0,21.0
5.412166595458984,24.0,19.0,34.0,0.0,47.0,34.0,8.0,6.0
5.413899898529053,18.0,16.0,35.0,10.0,7.0,35.0,17.0,23.0
5.415633201599121,10.0,28.0,11.0,15.0,0.0,22.0,28.0,25.0
5.4173665046691895,20.0,24.0,7.0,20.0,22.0,22.0,20.0,28.0
5.419099807739258,5.0,21.0,26.0,26.0,14.0,0.0,11.0,18.0
5.4208831787109375,5.0,11.0,25.0,25.0,6.0,39.0,25.0,24.0
5.422616481781006,21.0,31.0,25.0,5.0,19.0,26.0,20.0,38.0
5.424349784851074,15.0,20.0,34.0,28.0,7.0,18.0,11.0,38.0
5.426083564758301,0.0,8.0,20.0,10.0,0.0,22.0,24.0,32.0
5.427816867828369,23.0,5.0,5.0,36.0,39.0,6.0,21.0,0.0
5.4295501708984375,8.0,18.0,5.0,41.0,22.0,0.0,19.0,30.0
5.431283473968506,6.0,13.0,5.0,46.0,5.0,15.0,21.0,73.0
5.433016777038574,23.0,6.0,0.0,28.0,0.0,12.0,33.0,51.0
5.434750080108643,20.0,12.0,16.0,82.0,1374.0,21.0,40.0,37.0
5.436483383178711,17.0,387.0,31.0,1343.0,1485.0,38.0,20.0,54.0
5.438283443450928,23.0,969.0,983.0,1444.0,363.0,214.0,0.0,47.0
5.440016746520996,30.0,785.0,1044.0,77.0,147.0,389.0,22.0,26.0
5.4417500495910645,61.0,1586.0,4165.0,2436.0,1528.0,486.0,0.0,55.0
5.443483352661133,40.0,1627.0,9172.0,4796.0,2909.0,1179.0,3832.0,46.0
5.445216655731201,19.0,1669.0,7986.0,8828.0,4651.0,5722.0,3890.0,37.0
5.4469499588012695,16.0,7013.0,6801.0,17836.0,18912.0,8616.0,2484.0,5.0
5.448683261871338,45.0,5697.0,25716.0,24100.0,21812.0,11492.0,7331.0,546.0
5.450416564941406,104.0,18692.0,36656.0,35184.0,38272.0,16724.0,7276.0,1086.0
5.452149868011475,63.0,21800.0,60000.0,49680.0,49232.0,28424.0,9688.0,1271.0
5.453883171081543,22.0,35360.0,59744.0,75952.0,52464.0,31984.0,19292.0,1456.0
5.45568323135376,18.0,51824.0,81040.0,97456.0,89904.0,49600.0,23724.0,2738.0
5.457416534423828,13.0,49712.0,108800.0,113328.0,93408.0,52176.0,21016.0,2544.0
5.4591498374938965,43.0,70000.0,138304.0,156928.0,115232.0,64544.0,18800.0,5227.0
5.460883140563965,45.0,70880.0,182720.0,183296.0,128992.0,82816.0,34976.0,5774.0
5.462616443634033,29.0,113520.0,167424.0,199616.0,155200.0,86000.0,38720.0,6415.0
5.46435022354126,24.0,123984.0,212480.0,243904.0,182272.0,118688.0,46400.0,9768.0
5.466083526611328,37.0,142080.0,217792.0,244416.0,200384.0,107104.0,39536.0,8896.0
5.4678168296813965,50.0,141568.0,278016.0,308992.0,252928.0,104832.0,45712.0,12064.0
5.469550132751465,43.0,151424.0,313408.0,286976.0,263104.0,138624.0,57040.0,11812.0
5.471283435821533,50.0,168576.0,305984.0,289920.0,231040.0,133696.0,52144.0,11468.0
5.47308349609375,46.0,162624.0,308032.0,337472.0,246336.0,128816.0,55776.0,11124.0
5.474816799163818,43.0,162944.0,312896.0,326656.0,230720.0,106608.0,56880.0,9456.0
5.476550102233887,40.0,163264.0,303104.0,323712.0,256512.0,148608.0,48976.0,7823.0
5.478283405303955,37.0,152128.0,289216.0,330688.0,251968.0,124688.0,46288.0,5210.0
5.480016708374023,38.0,164096.0,297088.0,331008.0,229440.0,130112.0,43600.0,12228.0
5.481750011444092,44.0,157120.0,251904.0,285376.0,243008.0,123600.0,52416.0,10100.0
5.48348331451416,49.0,150144.0,263488.0,319296.0,211776.0,117888.0,49840.0,9360.0
5.4852166175842285,54.0,148800.0,244800.0,297664.0,223936.0,114864.0,39136.0,11124.0
5.486949920654297,87.0,134976.0,241600.0,275968.0,212672.0,102176.0,40880.0,8520.0
5.488733291625977,60.0,132160.0,192960.0,247360.0,191616.0,81824.0,39264.0,5347.0
5.490466594696045,32.0,106256.0,211008.0,229824.0,166016.0,92224.0,36032.0,9356.0
5.492199897766113,17.0,120496.0,202496.0,215424.0,132416.0,65760.0,35840.0,2948.0
5.493933200836182,55.0,88752.0,188544.0,175168.0,134336.0,60672.0,21248.0,8488.0
5.49566650390625,36.0,78128.0,143552.0,148544.0,132480.0,59024.0,28240.0,5391.0
5.497399806976318,95.0,77840.0,129472.0,154816.0,99648.0,58224.0,18112.0,3741.0
5.499133110046387,615.0,58800.0,122912.0,112880.0,87744.0,49504.0,20756.0,5544.0
5.500866889953613,1135.0,61536.0,110656.0,119584.0,80352.0,33968.0,15964.0,5931.0
5.502600193023682,1374.0,40560.0,74416.0,84464.0,60432.0,37328.0,9060.0,2235.0
5.50433349609375,67.0,44432.0,85312.0,85792.0,50880.0,31688.0,11216.0,3312.0
5.506133556365967,72.0,36224.0,47424.0,75696.0,47872.0,31108.0,10936.0,1057.0
5.507866859436035,1910.0,33024.0,64416.0,54432.0,46160.0,19008.0,10660.0,1328.0
5.5096001625061035,1407.0,22868.0,36560.0,42240.0,40592.0,24460.0,9500.0,694.0
5.511333465576172,354.0,34064.0,44656.0,52784.0,39120.0,19908.0,8340.0,2099.0
5.51306676864624,18.0,25072.0,37328.0,33888.0,19808.0,15876.0,7128.0,2357.0
5.514800071716309,13.0,24244.0,44880.0,33632.0,24352.0,13588.0,7501.0,1208.0
5.516533374786377,232.0,16928.0,26612.0,26760.0,26424.0,10764.0,8552.0,0.0
5.518266677856445,34.0,11792.0,22864.0,25332.0,10632.0,9368.0,5195.0,312.0
5.519999980926514,36.0,10004.0,20084.0,19984.0,19984.0,8512.0,3980.0,624.0
5.521733283996582,38.0,17432.0,17736.0,17184.0,17984.0,8524.0,4144.0,48.0
5.523516654968262,36.0,8165.0,17664.0,19724.0,16464.0,7241.0,1817.0,396.0
5.52524995803833,23.0,5462.0,19544.0,19104.0,19332.0,7065.0,2344.0,205.0
5.526983261108398,10.0,11268.0,13864.0,14708.0,20696.0,10044.0,3095.0,13.0
5.528716564178467,16.0,5489.0,20228.0,17232.0,12192.0,4412.0,3699.0,31.0
5.530449867248535,29.0,7921.0,8820.0,11764.0,9952.0,7737.0,1520.0,20.0
5.5321831703186035,39.0,6989.0,13636.0,15824.0,8340.0,8508.0,2043.0,19.0
5.533916473388672,50.0,9176.0,8208.0,15448.0,7225.0,4971.0,30.0,0.0
5.53564977645874,51.0,3284.0,11748.0,9172.0,9760.0,5843.0,2557.0,12.0
5.537383556365967,0.0,6962.0,10248.0,9600.0,8936.0,795.0,3141.0,58.0
5.539116859436035,16.0,4534.0,6179.0,8912.0,8109.0,2889.0,2050.0,41.0
5.540916442871094,17.0,4802.0,7219.0,7347.0,2779.0,3216.0,1237.0,24.0
5.54265022277832,23.0,2002.0,8260.0,5772.0,4791.0,3182.0,1835.0,21.0
5.544383525848389,77.0,3301.0,6629.0,8308.0,3144.0,3640.0,2146.0,31.0
5.546116828918457,66.0,2641.0,4998.0,7557.0,3050.0,3275.0,529.0,16.0
5.547850131988525,32.0,4067.0,6954.0,7295.0,4566.0,2909.0,15.0,0.0
5.549583435058594,26.0,3769.0,1204.0,6311.0,3007.0,4550.0,652.0,5.0
5.551316738128662,18.0,1718.0,8652.0,3262.0,1817.0,4375.0,560.0,20.0
5.5530500411987305,25.0,1070.0,5042.0,6065.0,4752.0,3305.0,469.0,20.0
5.554783344268799,32.0,464.0,4485.0,5966.0,1523.0,1250.0,291.0,21.0
5.5565667152404785,29.0,1397.0,4528.0,6609.0,3494.0,857.0,112.0,798.0
5.558300018310547,27.0,1524.0,3376.0,5425.0,1029.0,1145.0,183.0,425.0
5.560033321380615,27.0,1650.0,3286.0,3487.0,2626.0,1434.0,11.0,53.0
5.561766624450684,27.0,2186.0,2919.0,2143.0,4223.0,1077.0,50.0,26.0
5.563499927520752,26.0,1414.0,2552.0,2285.0,2526.0,1221.0,88.0,83.0
5.56523323059082,26.0,642.0,665.0,3873.0,828.0,1634.0,54.0,61.0
5.566966533660889,31.0,333.0,4712.0,3887.0,441.0,1710.0,52.0,39.0
5.568699836730957,35.0,23.0,6323.0,4882.0,1298.0,1786.0,51.0,22.0
5.570433139801025,10.0,11.0,4374.0,4339.0,1360.0,961.0,31.0,23.0
5.572166442871094,10.0,0.0,1210.0,3796.0,1421.0,12.0,11.0,23.0
5.5739665031433105,21.0,2113.0,486.0,3857.0,1058.0,557.0,46.0,6.0
5.575699806213379,23.0,1708.0,1040.0,4516.0,746.0,72.0,10.0,33.0
5.577433109283447,24.0,517.0,10.0,5174.0,680.0,59.0,30.0,37.0
5.579166889190674,24.0,1532.0,429.0,4847.0,613.0,892.0,24.0,28.0
5.580900192260742,25.0,1593.0,2004.0,2522.0,693.0,1235.0,18.0,29.0
5.5826334953308105,20.0,1134.0,1629.0,3957.0,772.0,2008.0,54.0,30.0
5.584366798400879,16.0,0.0,1254.0,3646.0,398.0,1201.0,122.0,5.0
5.586100101470947,32.0,2127.0,1701.0,986.0,1035.0,246.0,79.0,11.0
5.587833404541016,6.0,5.0,1399.0,1706.0,1887.0,998.0,36.0,27.0
5.589566707611084,17.0,25.0,898.0,786.0,1811.0,1736.0,29.0,16.0
5.591350078582764,17.0,652.0,444.0,1603.0,876.0,37.0,12.0,5.0
5.593083381652832,17.0,702.0,883.0,2421.0,1482.0,148.0,20.0,22.0
5.5948166847229,29.0,648.0,2189.0,4187.0,1933.0,920.0,28.0,14.0
5.596549987792969,24.0,595.0,2358.0,3547.0,0.0,1024.0,29.0,6.0
5.598283290863037,19.0,612.0,2527.0,4074.0,2461.0,738.0,11.0,0.0
5.6000165939331055,36.0,1725.0,2976.0,6141.0,3741.0,452.0,23.0,6.0
5.601749897003174,12.0,4233.0,9948.0,6649.0,8444.0,2075.0,34.0,261.0
5.603483200073242,24.0,4035.0,10696.0,13332.0,10684.0,3698.0,2318.0,471.0
5.605233192443848,5.0,9164.0,11240.0,20572.0,19280.0,5460.0,3079.0,1175.0
5.606949806213379,5.0,14976.0,26116.0,21180.0,27308.0,7221.0,2235.0,1607.0
5.608749866485596,5.0,14292.0,30836.0,44080.0,32332.0,22636.0,3038.0,1411.0
5.610483169555664,48.0,21360.0,28792.0,63888.0,56784.0,34496.0,12584.0,1215.0
5.612216472625732,88.0,23996.0,74352.0,98224.0,76048.0,49408.0,15856.0,489.0
5.613949775695801,68.0,45696.0,88784.0,116832.0,114704.0,49136.0,31328.0,1630.0
5.615683555603027,6.0,48016.0,119872.0,182592.0,139392.0,82784.0,29816.0,6475.0
5.617416858673096,62.0,70784.0,181696.0,222720.0,176448.0,106272.0,30780.0,5779.0
5.619150161743164,19.0,109056.0,220736.0,273216.0,231616.0,137216.0,41952.0,9552.0
5.620883464813232,10.0,111104.0,237056.0,295680.0,297728.0,156928.0,53360.0,13168.0
5.622616767883301,18.0,150592.0,277056.0,439808.0,304320.0,179584.0,63232.0,10600.0
5.6244001388549805,19.0,177600.0,382080.0,476544.0,396736.0,227712.0,67360.0,11368.0
5.626133441925049,13.0,192064.0,360128.0,533248.0,426624.0,251520.0,84256.0,12136.0
5.627866744995117,48.0,236736.0,474048.0,572416.0,465216.0,241984.0,108496.0,15456.0
5.6296000480651855,65.0,261888.0,472192.0,648448.0,578816.0,317120.0,101856.0,22060.0
5.631333351135254,82.0,253568.0,543744.0,720384.0,571648.0,298560.0,104944.0,20240.0
5.633066654205322,72.0,289920.0,555008.0,730624.0,624128.0,306304.0,106160.0,21092.0
5.634799957275391,84.0,282176.0,559616.0,769280.0,597504.0,314112.0,98976.0,20536.0
5.636533260345459,75.0,290432.0,568576.0,736256.0,617728.0,321920.0,106448.0,21760.0
5.638266563415527,33.0,273280.0,577792.0,764160.0,627200.0,315264.0,113920.0,22008.0
5.639999866485596,115.0,316800.0,573440.0,792320.0,594176.0,323136.0,110592.0,20916.0
5.6417999267578125,89.0,310080.0,552448.0,792576.0,570624.0,294272.0,107264.0,17040.0
5.643533229827881,62.0,283328.0,531456.0,727296.0,576512.0,277824.0,98048.0,16496.0
5.645266532897949,62.0,269696.0,537088.0,642304.0,519296.0,256640.0,83872.0,17148.0
5.646999835968018,62.0,266048.0,545792.0,739840.0,557056.0,268800.0,101584.0,13636.0
5.648733139038086,52.0,255104.0,492032.0,637952.0,453184.0,251776.0,76112.0,14980.0
5.650466442108154,66.0,245440.0,423296.0,576256.0,444160.0,225728.0,71184.0,11704.0
5.652200222015381,29.0,226112.0,422976.0,522432.0,417856.0,201024.0,53216.0,14540.0
5.653933525085449,656.0,215232.0,381760.0,466112.0,366464.0,201856.0,66048.0,9052.0
5.655666828155518,452.0,190592.0,313536.0,404736.0,330560.0,160192.0,68608.0,13008.0
5.657400131225586,249.0,138176.0,280640.0,398144.0,292160.0,163200.0,61840.0,6957.0
5.659183502197266,331.0,140928.0,265024.0,333696.0,249600.0,138496.0,39952.0,9484.0
5.660916805267334,44.0,114064.0,215104.0,265984.0,220608.0,122400.0,27940.0,6990.0
5.662650108337402,49.0,95872.0,173056.0,230592.0,172288.0,103904.0,34768.0,9808.0
5.664383411407471,32.0,92640.0,156480.0,231552.0,148992.0,69872.0,32468.0,5547.0
5.666116714477539,70.0,83984.0,138880.0,153472.0,125616.0,70384.0,16516.0,3317.0
5.667850017547607,65.0,72624.0,89872.0,128080.0,107472.0,59856.0,12552.0,790.0
5.669583320617676,63.0,47968.0,72032.0,122624.0,97872.0,43536.0,17304.0,2674.0
5.671316623687744,52.0,49296.0,82880.0,107360.0,80224.0,49776.0,12368.0,1250.0
5.6730499267578125,40.0,32596.0,64144.0,74848.0,61616.0,34560.0,10076.0,1370.0
5.674783229827881,520.0,25016.0,72896.0,55472.0,56960.0,23576.0,9816.0,1489.0
5.676583290100098,293.0,17944.0,48928.0,44288.0,48800.0,20056.0,4905.0,1172.0
5.678316593170166,67.0,17016.0,38528.0,38544.0,35840.0,17780.0,2119.0,855.0
5.680049896240234,21.0,12608.0,27492.0,35408.0,33440.0,9836.0,6168.0,972.0
5.681783199310303,24.0,13480.0,20812.0,24636.0,20036.0,8272.0,5175.0,663.0
5.683516502380371,25.0,8980.0,25864.0,30968.0,9472.0,6288.0,5603.0,355.0
5.6852498054504395,23.0,7401.0,17432.0,26544.0,22424.0,5631.0,4567.0,180.0
5.686983108520508,20.0,9272.0,14876.0,22140.0,12048.0,7104.0,2690.0,5.0
5.688716888427734,18.0,7798.0,14220.0,15728.0,18704.0,7394.0,39.0,15.0
5.690450191497803,19.0,3461.0,16588.0,8628.0,15688.0,7684.0,2868.0,15.0
5.692233562469482,20.0,8124.0,7693.0,11692.0,9336.0,8091.0,1899.0,11.0
5.693966865539551,0.0,7278.0,8852.0,16152.0,6031.0,8204.0,1557.0,26.0
5.695700168609619,43.0,5580.0,9944.0,10056.0,7233.0,3382.0,1545.0,41.0
5.6974334716796875,37.0,5652.0,10080.0,16076.0,6519.0,3467.0,2787.0,32.0
5.699166774749756,46.0,3396.0,8816.0,12296.0,7105.0,5237.0,3231.0,29.0
5.700900077819824,0.0,5006.0,9412.0,10532.0,7692.0,6040.0,2658.0,27.0
5.702633380889893,20.0,4647.0,10008.0,7707.0,10020.0,6843.0,866.0,44.0
5.704366683959961,18.0,4289.0,9752.0,9168.0,9668.0,739.0,2702.0,30.0
5.706099987030029,36.0,4957.0,9496.0,7220.0,10504.0,2611.0,901.0,16.0
5.707833290100098,24.0,4375.0,7160.0,8444.0,9336.0,2495.0,16.0,18.0
5.7096333503723145,17.0,3793.0,3522.0,9336.0,4490.0,3707.0,1272.0,33.0
5.711366653442383,10.0,2230.0,5677.0,9920.0,5312.0,2853.0,1098.0,30.0
5.713099956512451,29.0,3996.0,8248.0,10052.0,5409.0,3512.0,924.0,26.0
5.7148332595825195,12.0,5531.0,6339.0,8928.0,5536.0,2620.0,482.0,22.0
5.716566562652588,10.0,4894.0,9960.0,3468.0,5664.0,2583.0,39.0,19.0
5.718299865722656,19.0,2337.0,2603.0,7464.0,4420.0,3083.0,403.0,30.0
5.720033168792725,28.0,1403.0,8508.0,4527.0,6634.0,654.0,498.0,40.0
5.721766471862793,26.0,3293.0,6148.0,2453.0,5777.0,1970.0,593.0,0.0
5.723499774932861,0.0,1226.0,3009.0,5584.0,2465.0,1838.0,315.0,11.0
5.725233554840088,12.0,1347.0,4212.0,3583.0,3240.0,2028.0,571.0,23.0
5.727016448974609,28.0,1065.0,6504.0,5892.0,5082.0,1572.0,25.0,40.0
5.728750228881836,0.0,638.0,6835.0,5848.0,5030.0,3397.0,27.0,24.0
5.730483531951904,17.0,770.0,6712.0,6148.0,7038.0,3546.0,29.0,7.0
5.732216835021973,31.0,2109.0,6583.0,6816.0,1804.0,419.0,851.0,12.0
5.733950138092041,5.0,2199.0,6800.0,4508.0,2456.0,1503.0,1360.0,18.0
5.735683441162109,35.0,11.0,7547.0,837.0,3072.0,2407.0,1048.0,44.0
5.737416744232178,18.0,3747.0,2497.0,1801.0,3436.0,1384.0,538.0,37.0
5.739150047302246,19.0,3209.0,1707.0,5264.0,3800.0,1520.0,28.0,847.0
5.7408833503723145,17.0,1850.0,3846.0,2405.0,3453.0,666.0,32.0,438.0
5.742616653442383,11.0,23.0,3139.0,6169.0,2732.0,767.0,35.0,28.0
5.7444167137146,57.0,406.0,5173.0,1269.0,2189.0,795.0,18.0,11.0
5.746150016784668,67.0,11.0,5479.0,4671.0,2682.0,822.0,0.0,5.0
5.747883319854736,65.0,211.0,5951.0,2344.0,410.0,637.0,6.0,9.0
5.749616622924805,35.0,410.0,6341.0,1309.0,3599.0,452.0,11.0,13.0
5.751349925994873,34.0,27.0,3325.0,4407.0,1465.0,499.0,1003.0,9.0
5.753083229064941,36.0,662.0,2738.0,1932.0,1219.0,547.0,515.0,5.0
5.75481653213501,28.0,2078.0,1531.0,1860.0,4089.0,474.0,28.0,25.0
5.756549835205078,32.0,2376.0,1536.0,1246.0,2717.0,401.0,303.0,449.0
5.7582831382751465,35.0,1140.0,1541.0,1408.0,23.0,32.0,472.0,235.0
5.760066509246826,21.0,844.0,5163.0,1571.0,547.0,1104.0,642.0,21.0
5.7617998123168945,0.0,1339.0,5302.0,649.0,1481.0,984.0,72.0,0.0
5.763533115386963,33.0,1078.0,1586.0,1200.0,1248.0,714.0,44.0,56.0
5.7652668952941895,23.0,817.0,2546.0,1063.0,1254.0,668.0,325.0,18.0
5.767000198364258,21.0,793.0,2106.0,925.0,1441.0,439.0,15.0,5.0
5.768733501434326,19.0,769.0,1683.0,643.0,1628.0,299.0,52.0,5.0
5.7704668045043945,28.0,780.0,1787.0,1876.0,391.0,330.0,54.0,8.0
5.772200107574463,7.0,5.0,983.0,2108.0,919.0,68.0,0.0,38.0
5.773933410644531,4.0,197.0,718.0,1177.0,841.0,543.0,29.0,31.0
5.7756667137146,0.0,389.0,1359.0,1709.0,654.0,794.0,24.0,23.0
5.777466773986816,0.0,53.0,1420.0,1433.0,975.0,1045.0,20.0,13.0
5.779200077056885,12.0,30.0,965.0,1406.0,675.0,1247.0,5.0,12.0
5.780933380126953,50.0,61.0,510.0,1635.0,374.0,1130.0,37.0,0.0
5.7826666831970215,36.0,841.0,547.0,2795.0,510.0,1012.0,26.0,0.0
5.78439998626709,22.0,2231.0,584.0,3289.0,1576.0,9.0,15.0,40.0
5.786133289337158,15.0,1490.0,1435.0,1255.0,1364.0,570.0,38.0,25.0
5.787866592407227,8.0,749.0,1314.0,4010.0,31.0,19.0,24.0,9.0
5.789599895477295,343.0,298.0,1192.0,2151.0,1240.0,24.0,9.0,13.0
5.791333198547363,189.0,575.0,952.0,1722.0,1100.0,30.0,47.0,20.0
5.793066501617432,36.0,301.0,712.0,3863.0,2344.0,544.0,30.0,39.0
5.794849872589111,280.0,26.0,1837.0,1639.0,1382.0,1024.0,20.0,43.0
5.79658317565918,151.0,25.0,2272.0,358.0,419.0,715.0,23.0,13.0
5.798316478729248,22.0,17.0,36.0,2158.0,33.0,30.0,29.0,12.0
