,275.1099853515625,276.1099853515625,277.1099853515625,278.1099853515625,279.1099853515625
1.9010833501815796,0.0,6.0,18.0,8.0,21.0
1.902166724205017,16.0,12.0,40.0,29.0,7.0
1.903249979019165,11.0,44.0,16.0,19.0,0.0
1.9043333530426025,9.0,10.0,0.0,17.0,0.0
1.9054166078567505,6.0,8.0,7.0,12.0,4.0
1.906499981880188,7.0,5.0,0.0,26.0,8.0
1.9075833559036255,7.0,0.0,22.0,16.0,10.0
1.9086666107177734,6.0,3.0,33.0,7.0,11.0
1.909749984741211,13.0,5.0,41.0,17.0,0.0
1.9108333587646484,9.0,291.0,21.0,7.0,9.0
1.9119166135787964,5.0,156.0,40.0,18.0,8.0
1.9129999876022339,17.0,21.0,20.0,29.0,7.0
1.9140833616256714,15.0,11.0,5.0,24.0,31.0
1.9151666164398193,0.0,14.0,7.0,0.0,49.0
1.9162499904632568,5.0,11.0,10.0,7.0,37.0
1.9174000024795532,6.0,13.0,12.0,8.0,46.0
1.9184833765029907,6.0,9.0,10.0,12.0,27.0
1.9195666313171387,12.0,5.0,8.0,15.0,32.0
1.9206500053405762,6.0,64.0,28.0,0.0,22.0
1.9217333793640137,0.0,62.0,24.0,9.0,21.0
1.9228166341781616,11.0,14.0,25.0,10.0,34.0
1.9239000082015991,10.0,50.0,10.0,16.0,0.0
1.9249833822250366,20.0,45.0,11.0,11.0,5.0
1.9260666370391846,32.0,5.0,20.0,8.0,13.0
1.927150011062622,29.0,26.0,53.0,5.0,12.0
1.9282333850860596,15.0,13.0,48.0,9.0,10.0
1.9293166399002075,31.0,10.0,44.0,13.0,14.0
1.930400013923645,0.0,5.0,28.0,16.0,17.0
1.9314833879470825,16.0,6.0,26.0,19.0,29.0
1.9325666427612305,37.0,8.0,0.0,0.0,41.0
1.933650016784668,13.0,5.0,31.0,10.0,42.0
1.9347833395004272,29.0,5.0,41.0,0.0,15.0
1.9358667135238647,0.0,51.0,0.0,16.0,5.0
1.9369499683380127,13.0,48.0,7.0,21.0,6.0
1.9380333423614502,6.0,48.0,13.0,97.0,3.0
1.9391167163848877,3.0,5.0,10.0,111.0,0.0
1.9401999711990356,0.0,5.0,11.0,16.0,7.0
1.9412833452224731,7.0,16.0,12.0,18.0,27.0
1.9423667192459106,6.0,11.0,10.0,46.0,56.0
1.9434499740600586,5.0,14.0,19.0,9.0,51.0
1.944533348083496,5.0,16.0,16.0,21.0,11.0
1.9456167221069336,5.0,23.0,12.0,40.0,0.0
1.9466999769210815,0.0,30.0,15.0,29.0,10.0
1.947783350944519,0.0,31.0,17.0,28.0,19.0
1.9488667249679565,0.0,7.0,26.0,28.0,23.0
1.9499499797821045,0.0,16.0,32.0,26.0,14.0
1.9510833024978638,0.0,19.0,35.0,26.0,5.0
1.9521833658218384,5.0,19.0,13.0,6.0,21.0
1.9532666206359863,5.0,40.0,5.0,26.0,20.0
1.9543499946594238,17.0,23.0,0.0,0.0,19.0
1.9554333686828613,8.0,7.0,23.0,0.0,18.0
1.9565166234970093,0.0,12.0,19.0,0.0,18.0
1.9575999975204468,20.0,33.0,15.0,3.0,31.0
1.9586833715438843,38.0,19.0,6.0,6.0,23.0
1.9597666263580322,28.0,5.0,13.0,8.0,15.0
1.9608500003814697,32.0,15.0,19.0,10.0,24.0
1.9619333744049072,14.0,13.0,10.0,0.0,30.0
1.9630166292190552,44.0,10.0,0.0,8.0,0.0
1.9641000032424927,9.0,20.0,9.0,16.0,0.0
1.9651833772659302,37.0,31.0,5.0,15.0,0.0
1.9662666320800781,5.0,18.0,0.0,13.0,6.0
1.9673500061035156,8.0,6.0,8.0,11.0,11.0
1.9684499502182007,10.0,23.0,4.0,5.0,34.0
1.9695333242416382,13.0,15.0,0.0,5.0,49.0
1.9706166982650757,16.0,10.0,9.0,5.0,35.0
1.9716999530792236,29.0,5.0,18.0,21.0,21.0
1.9727833271026611,17.0,38.0,18.0,25.0,31.0
1.9738667011260986,5.0,44.0,10.0,7.0,44.0
1.9749499559402466,6.0,0.0,48.0,5.0,10.0
1.976033329963684,0.0,36.0,45.0,10.0,10.0
1.9771167039871216,9.0,36.0,10.0,13.0,0.0
1.9781999588012695,7.0,19.0,15.0,15.0,33.0
1.979283332824707,5.0,16.0,32.0,35.0,37.0
1.9803667068481445,0.0,10.0,8.0,25.0,17.0
1.9814499616622925,19.0,18.0,0.0,15.0,23.0
1.98253333568573,26.0,16.0,49.0,36.0,13.0
1.9836167097091675,5.0,13.0,40.0,19.0,10.0
1.9846999645233154,41.0,10.0,17.0,0.0,7.0
1.9858499765396118,34.0,17.0,12.0,0.0,6.0
1.9869333505630493,5.0,17.0,0.0,28.0,5.0
1.9880167245864868,0.0,16.0,10.0,20.0,0.0
1.9890999794006348,7.0,20.0,24.0,10.0,19.0
1.9901833534240723,0.0,23.0,18.0,0.0,38.0
1.9912666082382202,11.0,5.0,12.0,12.0,40.0
1.9923499822616577,6.0,3.0,9.0,0.0,31.0
1.9934333562850952,0.0,0.0,5.0,10.0,22.0
1.9945166110992432,7.0,7.0,18.0,0.0,14.0
1.9955999851226807,0.0,13.0,48.0,6.0,21.0
1.9966833591461182,11.0,15.0,211.0,22.0,10.0
1.9977666139602661,12.0,16.0,129.0,22.0,32.0
1.9988499879837036,9.0,36.0,47.0,21.0,28.0
1.9999333620071411,5.0,18.0,30.0,28.0,5.0
2.001016616821289,47.0,0.0,0.0,7.0,26.0
2.002166748046875,41.0,10.0,14.0,0.0,5.0
2.0032498836517334,22.0,5.0,31.0,22.0,0.0
2.004333257675171,17.0,8.0,29.0,0.0,0.0
2.0054166316986084,49.0,0.0,0.0,8.0,0.0
2.006500005722046,31.0,20.0,6.0,16.0,20.0
2.0075833797454834,5.0,54.0,5.0,34.0,19.0
2.008666753768921,27.0,46.0,3.0,23.0,18.0
2.0097498893737793,14.0,39.0,0.0,13.0,5.0
2.010833263397217,13.0,6.0,0.0,15.0,11.0
2.0119166374206543,28.0,0.0,0.0,10.0,10.0
2.013000011444092,0.0,17.0,8.0,13.0,17.0
2.0140833854675293,19.0,0.0,15.0,17.0,22.0
2.015166759490967,39.0,12.0,12.0,20.0,30.0
2.016249895095825,0.0,0.0,13.0,26.0,38.0
2.0173332691192627,0.0,11.0,12.0,23.0,0.0
2.0184166431427,14.0,6.0,10.0,5.0,23.0
2.019550085067749,18.0,0.0,21.0,15.0,16.0
2.0206332206726074,22.0,50.0,22.0,5.0,9.0
2.021716594696045,18.0,25.0,5.0,5.0,24.0
2.0227999687194824,22.0,0.0,7.0,0.0,27.0
2.02388334274292,19.0,18.0,10.0,40.0,6.0
2.0249667167663574,27.0,18.0,11.0,51.0,8.0
2.026050090789795,7.0,17.0,0.0,14.0,47.0
2.0271332263946533,12.0,18.0,0.0,51.0,36.0
2.028216600418091,5.0,5.0,0.0,52.0,27.0
2.0292999744415283,27.0,17.0,5.0,16.0,11.0
2.030383348464966,21.0,24.0,10.0,0.0,31.0
2.0314667224884033,7.0,9.0,12.0,6.0,18.0
2.032550096511841,9.0,16.0,14.0,13.0,20.0
2.033633232116699,10.0,23.0,11.0,5.0,21.0
2.0347166061401367,15.0,23.0,22.0,11.0,22.0
2.0358333587646484,13.0,32.0,23.0,16.0,8.0
2.03695011138916,11.0,29.0,20.0,21.0,14.0
2.0380332469940186,18.0,26.0,22.0,26.0,0.0
2.039116621017456,0.0,12.0,17.0,21.0,14.0
2.0401999950408936,8.0,39.0,22.0,22.0,13.0
2.041283369064331,15.0,11.0,28.0,23.0,10.0
2.0423667430877686,19.0,6.0,26.0,10.0,7.0
2.043450117111206,22.0,36.0,12.0,8.0,4.0
2.0445332527160645,14.0,34.0,25.0,7.0,0.0
2.045616626739502,5.0,19.0,19.0,5.0,11.0
2.0467000007629395,18.0,21.0,33.0,17.0,13.0
2.047783374786377,13.0,22.0,19.0,28.0,19.0
2.0488667488098145,16.0,16.0,5.0,29.0,26.0
2.049949884414673,18.0,13.0,32.0,0.0,0.0
2.0510332584381104,13.0,24.0,37.0,11.0,19.0
2.052116632461548,17.0,11.0,42.0,0.0,22.0
2.0532500743865967,12.0,9.0,38.0,0.0,13.0
2.054333448410034,16.0,7.0,47.0,0.0,5.0
2.0554165840148926,20.0,0.0,22.0,5.0,15.0
2.05649995803833,8.0,5.0,21.0,17.0,7.0
2.0575833320617676,6.0,22.0,26.0,13.0,6.0
2.058666706085205,0.0,21.0,0.0,9.0,5.0
2.0597500801086426,20.0,19.0,0.0,10.0,28.0
2.060833215713501,26.0,0.0,25.0,10.0,27.0
2.0619165897369385,7.0,10.0,29.0,16.0,35.0
2.062999963760376,14.0,10.0,21.0,21.0,7.0
2.0640833377838135,21.0,548.0,26.0,26.0,5.0
2.065166711807251,0.0,585.0,19.0,19.0,51.0
2.0662500858306885,5.0,17.0,17.0,25.0,34.0
2.067333221435547,5.0,19.0,15.0,29.0,32.0
2.0684165954589844,5.0,31.0,11.0,12.0,43.0
2.069499969482422,12.0,6.0,17.0,20.0,44.0
2.070650100708008,6.0,9.0,0.0,18.0,52.0
2.071733236312866,0.0,15.0,9.0,31.0,51.0
2.0728166103363037,0.0,10.0,19.0,29.0,50.0
2.073899984359741,0.0,21.0,15.0,13.0,0.0
2.0749833583831787,0.0,20.0,10.0,10.0,7.0
2.076066732406616,0.0,19.0,25.0,14.0,12.0
2.0771501064300537,13.0,14.0,26.0,12.0,25.0
2.078233242034912,30.0,7.0,26.0,10.0,30.0
2.0793166160583496,21.0,6.0,21.0,18.0,20.0
2.080399990081787,8.0,15.0,16.0,26.0,21.0
2.0814833641052246,5.0,23.0,18.0,45.0,21.0
2.082566738128662,8.0,12.0,21.0,50.0,15.0
2.0836501121520996,8.0,0.0,14.0,12.0,9.0
2.084733247756958,7.0,5.0,12.0,41.0,24.0
2.0858166217803955,19.0,16.0,9.0,0.0,22.0
2.0869500637054443,31.0,17.0,0.0,23.0,19.0
2.088033437728882,22.0,12.0,5.0,9.0,13.0
2.0891165733337402,14.0,7.0,10.0,0.0,27.0
2.0901999473571777,27.0,6.0,7.0,5.0,13.0
2.0912833213806152,21.0,5.0,43.0,3.0,0.0
2.0923666954040527,11.0,564.0,31.0,0.0,31.0
2.0934500694274902,0.0,292.0,19.0,13.0,33.0
2.0945334434509277,20.0,19.0,28.0,7.0,16.0
2.095616579055786,12.0,13.0,17.0,0.0,41.0
2.0966999530792236,22.0,11.0,21.0,5.0,20.0
2.097783327102661,27.0,21.0,31.0,6.0,10.0
2.0988667011260986,5.0,20.0,34.0,0.0,0.0
2.099950075149536,11.0,19.0,38.0,6.0,16.0
2.1010334491729736,17.0,5.0,5.0,11.0,25.0
2.102116584777832,0.0,5.0,12.0,33.0,822.0
2.1031999588012695,15.0,26.0,21.0,27.0,769.0
2.1043500900268555,20.0,22.0,17.0,0.0,46.0
2.105433225631714,35.0,26.0,12.0,14.0,40.0
2.1065165996551514,27.0,30.0,383.0,16.0,5.0
2.107599973678589,19.0,38.0,754.0,8.0,5.0
2.1086833477020264,7.0,46.0,1825.0,0.0,5.0
2.109766721725464,9.0,749.0,2787.0,12.0,968.0
2.1108500957489014,10.0,1451.0,1592.0,5.0,1271.0
2.1119332313537598,5.0,2197.0,397.0,12.0,2170.0
2.1130166053771973,42.0,3675.0,840.0,19.0,1352.0
2.1140999794006348,32.0,5153.0,2686.0,16.0,1919.0
2.1151833534240723,22.0,6013.0,2212.0,13.0,1759.0
2.1162667274475098,5.0,8169.0,4938.0,462.0,1598.0
2.1173501014709473,0.0,10856.0,7663.0,911.0,2877.0
2.1184332370758057,30.0,15496.0,9452.0,2819.0,2203.0
2.119516611099243,21.0,20448.0,10012.0,5709.0,1528.0
2.120633363723755,12.0,26364.0,20276.0,4281.0,6031.0
2.1217334270477295,15.0,34320.0,21024.0,4531.0,8984.0
2.122816562652588,16.0,35120.0,23188.0,5635.0,11296.0
2.1238999366760254,16.0,35872.0,28744.0,2699.0,9924.0
2.124983310699463,18.0,45248.0,40752.0,7977.0,12576.0
2.1260666847229004,20.0,55872.0,43600.0,6894.0,13772.0
2.127150058746338,27.0,80144.0,47232.0,10332.0,17816.0
2.1282334327697754,34.0,78256.0,59600.0,10884.0,19864.0
2.129316568374634,44.0,90864.0,64656.0,7898.0,23868.0
2.1303999423980713,9.0,99920.0,72032.0,13468.0,28748.0
2.131483316421509,36.0,127120.0,84208.0,12796.0,32124.0
2.1325666904449463,16.0,144064.0,85952.0,14240.0,35504.0
2.133650064468384,19.0,145216.0,97328.0,15168.0,39712.0
2.1347498893737793,26.0,175744.0,121168.0,16096.0,43936.0
2.1358165740966797,20.0,180416.0,129440.0,17388.0,44672.0
2.136899948120117,10.0,226752.0,140672.0,27728.0,53120.0
2.138050079345703,10.0,228992.0,153600.0,31676.0,57648.0
2.1391332149505615,11.0,231104.0,173888.0,23924.0,51952.0
2.140216588973999,12.0,246656.0,168192.0,26060.0,73440.0
2.1412999629974365,27.0,260480.0,170304.0,28192.0,73776.0
2.142383337020874,24.0,294784.0,181184.0,29104.0,83520.0
2.1434667110443115,42.0,305024.0,182016.0,30012.0,66192.0
2.144550085067749,57.0,307328.0,182784.0,32076.0,88064.0
2.1456332206726074,71.0,277120.0,198656.0,34144.0,82800.0
2.146716594696045,57.0,316224.0,207232.0,36256.0,77856.0
2.1477999687194824,97.0,343552.0,216640.0,38384.0,85216.0
2.14888334274292,11.0,338880.0,201408.0,39200.0,85888.0
2.1499667167663574,72.0,316352.0,211776.0,34272.0,86560.0
2.151050090789795,44.0,346176.0,212352.0,34608.0,85136.0
2.1521332263946533,199.0,349888.0,211200.0,44304.0,85760.0
2.153216600418091,354.0,353664.0,212288.0,44880.0,86368.0
2.1542999744415283,183.0,323840.0,213376.0,42160.0,69984.0
2.155433416366577,12.0,312704.0,212096.0,31960.0,74096.0
2.1565165519714355,32.0,288000.0,210816.0,41376.0,80608.0
2.157599925994873,92.0,296576.0,201472.0,33952.0,72640.0
2.1586833000183105,17.0,312832.0,195904.0,27852.0,67760.0
2.159766674041748,59.0,275520.0,202688.0,35456.0,92576.0
2.1608500480651855,30.0,293056.0,203648.0,31696.0,86496.0
2.161933422088623,33.0,286400.0,190016.0,37488.0,81136.0
2.1630165576934814,37.0,277632.0,184192.0,37248.0,64992.0
2.164099931716919,27.0,274048.0,167232.0,27784.0,78352.0
2.1651833057403564,16.0,277056.0,181312.0,29116.0,77280.0
2.166266679763794,29.0,232576.0,195456.0,28104.0,71040.0
2.1673500537872314,42.0,259392.0,164480.0,31552.0,76288.0
2.168433427810669,51.0,239488.0,136128.0,37296.0,59440.0
2.1695165634155273,26.0,251200.0,157056.0,20700.0,53376.0
2.170599937438965,73.0,251968.0,158208.0,29452.0,70352.0
2.171750068664551,73.0,232896.0,159360.0,30784.0,61200.0
2.1728334426879883,8.0,213760.0,149504.0,27164.0,67568.0
2.1739165782928467,63.0,228736.0,151552.0,24612.0,52752.0
2.174999952316284,64.0,234304.0,161792.0,21600.0,61568.0
2.1760833263397217,83.0,219200.0,127424.0,29124.0,65536.0
2.177166700363159,39.0,224064.0,146944.0,21560.0,48272.0
2.1782500743865967,46.0,210496.0,140288.0,30828.0,60336.0
2.179333448410034,83.0,216832.0,145216.0,23328.0,66240.0
2.1804165840148926,13.0,223168.0,132224.0,16768.0,58736.0
2.18149995803833,68.0,217024.0,133568.0,27352.0,60224.0
2.1825833320617676,51.0,224448.0,134912.0,27096.0,57232.0
2.183666706085205,33.0,231872.0,144256.0,24976.0,57504.0
2.1847500801086426,33.0,239616.0,153600.0,27156.0,59952.0
2.185833215713501,44.0,230208.0,180416.0,25544.0,58592.0
2.1869165897369385,18.0,225792.0,176896.0,29728.0,57216.0
2.187999963760376,43.0,234176.0,159872.0,28436.0,58544.0
2.189133405685425,52.0,248384.0,186240.0,30208.0,63424.0
2.1902167797088623,58.0,268096.0,147456.0,26320.0,67744.0
2.1912999153137207,64.0,275968.0,184256.0,27696.0,72432.0
2.192383289337158,8.0,262912.0,188160.0,29072.0,66368.0
2.1934666633605957,28.0,268160.0,177216.0,28360.0,71584.0
2.194550037384033,45.0,266688.0,186560.0,27648.0,67264.0
2.1956334114074707,29.0,265216.0,183680.0,32008.0,62944.0
2.196716785430908,13.0,268352.0,180736.0,37136.0,77216.0
2.1977999210357666,16.0,271488.0,187840.0,36352.0,57776.0
2.198883295059204,37.0,327232.0,195008.0,35568.0,75072.0
2.1999666690826416,28.0,325888.0,205376.0,27440.0,77632.0
2.201050043106079,22.0,307968.0,205952.0,31352.0,80048.0
2.2021334171295166,16.0,285312.0,197248.0,30516.0,70352.0
2.203216552734375,28.0,328384.0,210688.0,25412.0,84176.0
2.2042999267578125,39.0,302976.0,186624.0,26048.0,81504.0
2.2054333686828613,46.0,316736.0,188736.0,34784.0,68720.0
2.206533432006836,53.0,330816.0,189120.0,41312.0,84752.0
2.2076165676116943,54.0,284032.0,185472.0,39328.0,76800.0
2.208699941635132,55.0,289280.0,196544.0,30260.0,67376.0
2.2097833156585693,55.0,303488.0,193472.0,26980.0,67344.0
2.210866689682007,49.0,306880.0,190464.0,37024.0,71184.0
2.2119500637054443,53.0,277952.0,162112.0,39968.0,75024.0
2.213033437728882,56.0,274176.0,184064.0,43744.0,59888.0
2.2141165733337402,65.0,262976.0,164928.0,33280.0,72352.0
2.2151999473571777,9.0,225024.0,188288.0,19876.0,66432.0
2.2162833213806152,63.0,224128.0,164288.0,26288.0,55392.0
2.2173666954040527,32.0,239232.0,150720.0,22852.0,65280.0
2.2184500694274902,52.0,197440.0,154176.0,19500.0,50384.0
2.2195334434509277,33.0,210304.0,148992.0,26520.0,60720.0
2.220616579055786,13.0,210560.0,137792.0,17684.0,48784.0
2.2216999530792236,32.0,197632.0,119696.0,15904.0,51552.0
2.2228333950042725,19.0,185152.0,106464.0,16268.0,37872.0
2.22391676902771,6.0,174208.0,110000.0,19028.0,33088.0
2.2249999046325684,10.0,152448.0,84208.0,13040.0,42080.0
2.226083278656006,14.0,143872.0,102800.0,16040.0,40000.0
2.2271666526794434,6.0,112736.0,77024.0,9260.0,30296.0
2.228250026702881,10.0,117616.0,71600.0,11512.0,34736.0
2.2293334007263184,14.0,126400.0,73696.0,13764.0,37744.0
2.230416774749756,31.0,102032.0,57504.0,13732.0,24892.0
2.2314999103546143,22.0,101552.0,58432.0,8220.0,20040.0
2.2325832843780518,14.0,91744.0,50448.0,8724.0,20468.0
2.2336666584014893,26.0,79728.0,52384.0,11196.0,25848.0
2.2347500324249268,5.0,66240.0,41072.0,8684.0,16764.0
2.2358500957489014,11.0,82160.0,40624.0,4661.0,17860.0
2.2369332313537598,32.0,66128.0,28744.0,5589.0,14520.0
2.2380166053771973,11.0,53552.0,39520.0,8456.0,10308.0
2.2390999794006348,17.0,52560.0,34080.0,5544.0,16592.0
2.2402000427246094,36.0,36976.0,29416.0,3072.0,13460.0
2.241283416748047,26.0,40912.0,28228.0,3077.0,12192.0
2.2423665523529053,16.0,41920.0,22564.0,1688.0,6843.0
2.2434499263763428,11.0,38192.0,16172.0,3620.0,5150.0
2.2445499897003174,15.0,36928.0,23628.0,2260.0,14312.0
2.245633363723755,19.0,29196.0,13220.0,2911.0,5316.0
2.2467167377471924,34.0,20820.0,22228.0,3563.0,5713.0
2.2477834224700928,22.0,19376.0,14136.0,683.0,6082.0
2.248866558074951,11.0,22044.0,14544.0,2988.0,7064.0
2.249966621398926,37.0,16500.0,14328.0,1885.0,2642.0
2.2510499954223633,22.0,15840.0,12036.0,1173.0,4464.0
2.252133369445801,32.0,17068.0,6642.0,2407.0,4352.0
2.2532167434692383,0.0,19968.0,5789.0,2723.0,3281.0
2.254300117492676,42.0,6977.0,10764.0,1488.0,3897.0
2.255366563796997,44.0,14600.0,4686.0,1311.0,2748.0
2.256483316421509,21.0,14192.0,7220.0,1265.0,2603.0
2.2575833797454834,16.0,10704.0,4015.0,1220.0,2639.0
2.258666753768921,26.0,14756.0,6567.0,34.0,2995.0
2.2597498893737793,23.0,11796.0,6182.0,336.0,1714.0
2.260833263397217,13.0,11364.0,5798.0,834.0,692.0
2.2619166374206543,21.0,6617.0,3811.0,52.0,2303.0
2.2629833221435547,20.0,12816.0,5189.0,591.0,3918.0
2.2640833854675293,82.0,7012.0,4973.0,540.0,3836.0
2.265166759490967,53.0,6451.0,4758.0,158.0,1448.0
2.266249895095825,23.0,6386.0,3521.0,989.0,1514.0
2.2673332691192627,30.0,4874.0,7165.0,505.0,1579.0
2.268399953842163,0.0,2229.0,10468.0,21.0,1175.0
2.2694833278656006,20.0,6104.0,9920.0,1246.0,1543.0
2.270566701889038,499.0,4591.0,3729.0,1521.0,1911.0
2.2716500759124756,255.0,5059.0,6426.0,2152.0,2275.0
2.2727832794189453,11.0,5526.0,3851.0,464.0,2533.0
2.27388334274292,9.0,4591.0,3895.0,861.0,477.0
2.2749667167663574,15.0,3657.0,1105.0,431.0,470.0
2.276050090789795,17.0,5454.0,3974.0,11.0,977.0
2.2771332263946533,19.0,7250.0,3899.0,25.0,773.0
2.278216600418091,16.0,1667.0,3972.0,35.0,569.0
2.2792999744415283,12.0,1855.0,3661.0,26.0,288.0
2.280383348464966,6.0,7803.0,3409.0,17.0,6.0
2.2814667224884033,0.0,2656.0,2184.0,622.0,1117.0
2.282550096511841,18.0,4001.0,2171.0,512.0,577.0
2.283633232116699,228.0,7589.0,2662.0,618.0,36.0
2.2847166061401367,128.0,1875.0,3152.0,6.0,375.0
2.285799980163574,28.0,3395.0,2996.0,6.0,7.0
2.2868833541870117,27.0,3842.0,2771.0,180.0,10.0
2.287966728210449,610.0,3531.0,2545.0,109.0,26.0
2.2890501022338867,308.0,1535.0,2318.0,38.0,18.0
2.2901999950408936,6.0,2414.0,2092.0,48.0,10.0
2.291283369064331,307.0,2447.0,2793.0,10.0,341.0
2.2923667430877686,63.0,2479.0,2779.0,14.0,391.0
2.293450117111206,161.0,2898.0,2765.0,18.0,441.0
2.2945332527160645,19.0,3318.0,1900.0,38.0,1049.0
2.295616626739502,24.0,2924.0,2584.0,57.0,935.0
2.2967000007629395,26.0,2531.0,2367.0,794.0,821.0
2.297783374786377,28.0,3635.0,2149.0,1079.0,930.0
2.2988667488098145,10.0,3492.0,1177.0,1007.0,1039.0
2.299949884414673,14.0,3518.0,44.0,32.0,0.0
2.3010332584381104,10.0,2824.0,2080.0,23.0,755.0
2.302116632461548,6.0,2129.0,1468.0,48.0,33.0
2.3032000064849854,20.0,1757.0,2631.0,34.0,608.0
2.304283380508423,21.0,2020.0,1814.0,20.0,32.0
2.3053667545318604,27.0,1063.0,2216.0,35.0,29.0
2.3064498901367188,32.0,3906.0,1734.0,661.0,21.0
2.3075833320617676,39.0,3019.0,1252.0,844.0,20.0
2.308666706085205,26.0,2132.0,858.0,18.0,24.0
2.3097500801086426,12.0,4165.0,779.0,14.0,28.0
2.310833215713501,20.0,2694.0,1413.0,5.0,472.0
2.3119165897369385,28.0,3471.0,1184.0,18.0,462.0
2.312999963760376,57.0,5347.0,955.0,18.0,452.0
2.3140833377838135,86.0,1486.0,235.0,18.0,245.0
2.315166711807251,64.0,4915.0,624.0,19.0,39.0
2.3162500858306885,507.0,2623.0,1013.0,347.0,23.0
2.317333221435547,494.0,1316.0,1190.0,189.0,1096.0
2.3184165954589844,19.0,754.0,1056.0,32.0,558.0
2.319499969482422,241.0,2445.0,923.0,0.0,20.0
2.3205833435058594,1111.0,894.0,628.0,10.0,21.0
2.321666717529297,1156.0,1194.0,1318.0,39.0,20.0
2.3227500915527344,17.0,1493.0,1744.0,0.0,15.0
2.323899984359741,719.0,1159.0,1013.0,49.0,30.0
2.3249833583831787,13.0,708.0,282.0,34.0,45.0
2.326066732406616,37.0,4370.0,1398.0,18.0,25.0
2.3271501064300537,860.0,4751.0,749.0,26.0,5.0
2.328233242034912,30.0,746.0,14.0,901.0,3.0
2.3293166160583496,24.0,2409.0,1027.0,795.0,0.0
2.330399990081787,15.0,27.0,901.0,136.0,248.0
2.3314833641052246,932.0,12.0,913.0,0.0,134.0
2.332566738128662,648.0,1269.0,925.0,0.0,20.0
2.3336501121520996,364.0,956.0,698.0,16.0,10.0
2.334733247756958,28.0,11.0,471.0,0.0,7.0
2.3358166217803955,389.0,605.0,82.0,15.0,31.0
2.336899995803833,6.0,712.0,766.0,31.0,28.0
2.3379833698272705,17.0,883.0,13.0,40.0,25.0
2.339066743850708,43.0,62.0,1680.0,49.0,0.0
2.3401501178741455,69.0,688.0,1180.0,32.0,77.0
2.3412833213806152,46.0,1052.0,731.0,34.0,59.0
2.3423666954040527,22.0,1417.0,1574.0,75.0,256.0
2.3434500694274902,62.0,157.0,1366.0,195.0,289.0
2.3445334434509277,1762.0,50.0,1157.0,124.0,323.0
2.345616579055786,1568.0,1670.0,33.0,53.0,42.0
2.3466999530792236,38.0,520.0,41.0,87.0,21.0
2.347783327102661,5.0,904.0,1323.0,38.0,0.0
2.3488667011260986,24.0,1127.0,664.0,5.0,6.0
2.349950075149536,36.0,1327.0,5.0,30.0,12.0
2.3510334491729736,48.0,46.0,422.0,21.0,5.0
2.352116584777832,19.0,522.0,0.0,23.0,5.0
2.3531999588012695,56.0,814.0,18.0,11.0,5.0
2.354283332824707,62.0,1044.0,228.0,31.0,6.0
2.3553667068481445,46.0,61.0,117.0,23.0,27.0
2.356450080871582,31.0,22.0,5.0,15.0,139.0
2.3575832843780518,0.0,3011.0,853.0,8.0,99.0
2.3586833477020264,23.0,2997.0,1412.0,31.0,59.0
2.359766721725464,7.0,1374.0,706.0,33.0,19.0
2.3608500957489014,6.0,975.0,0.0,35.0,14.0
2.3619332313537598,5.0,335.0,441.0,21.0,36.0
2.3630166053771973,3.0,1414.0,225.0,16.0,5.0
2.3640999794006348,0.0,1204.0,9.0,11.0,18.0
2.3651833534240723,7.0,694.0,5.0,0.0,31.0
2.3662667274475098,35.0,1162.0,0.0,542.0,21.0
2.3673501014709473,42.0,20.0,24.0,288.0,41.0
2.3684332370758057,30.0,25.0,12.0,35.0,60.0
2.369516611099243,17.0,5.0,0.0,49.0,54.0
2.3705999851226807,26.0,13.0,11.0,99.0,47.0
2.371683359146118,35.0,21.0,22.0,51.0,312.0
2.3727667331695557,12.0,48.0,24.0,32.0,165.0
2.373850107192993,44.0,550.0,27.0,28.0,17.0
2.374983310699463,29.0,289.0,30.0,42.0,21.0
2.3760666847229004,14.0,29.0,33.0,0.0,0.0
2.377150058746338,6.0,618.0,283.0,5.0,20.0
2.3782334327697754,5.0,19.0,156.0,5.0,10.0
2.379316568374634,5.0,162.0,30.0,16.0,0.0
2.3803999423980713,18.0,220.0,371.0,10.0,34.0
2.381483316421509,12.0,324.0,849.0,5.0,20.0
2.3825666904449463,5.0,166.0,1104.0,16.0,7.0
2.383650064468384,44.0,9.0,60.0,13.0,43.0
2.3847334384918213,43.0,33.0,1139.0,10.0,44.0
2.3858165740966797,5.0,715.0,33.0,29.0,22.0
2.386899948120117,27.0,813.0,62.0,38.0,10.0
2.3879833221435547,23.0,25.0,443.0,26.0,48.0
2.389066696166992,7.0,689.0,22.0,34.0,203.0
2.3901500701904297,18.0,811.0,317.0,13.0,125.0
2.391233444213867,11.0,932.0,5.0,5.0,47.0
2.392383337020874,11.0,867.0,12.0,26.0,38.0
2.3934667110443115,11.0,802.0,18.0,16.0,29.0
2.394550085067749,14.0,513.0,26.0,29.0,5.0
2.3956332206726074,33.0,937.0,34.0,12.0,17.0
2.396716594696045,52.0,185.0,28.0,15.0,19.0
2.3977999687194824,52.0,25.0,10.0,23.0,0.0
2.39888334274292,22.0,20.0,30.0,22.0,9.0
2.3999667167663574,30.0,5.0,13.0,21.0,99.0
2.401050090789795,15.0,540.0,18.0,23.0,62.0
2.4021332263946533,24.0,1074.0,23.0,26.0,25.0
2.403216600418091,11.0,1608.0,14.0,57.0,10.0
2.4042999744415283,5.0,1098.0,5.0,37.0,76.0
2.405383348464966,0.0,589.0,10.0,17.0,42.0
2.4064667224884033,30.0,1455.0,212.0,30.0,8.0
2.407550096511841,22.0,1283.0,110.0,42.0,46.0
2.4086999893188477,13.0,1111.0,7.0,34.0,14.0
2.409783363342285,41.0,572.0,18.0,14.0,19.0
2.4108667373657227,0.0,33.0,545.0,38.0,13.0
2.41195011138916,39.0,1168.0,1445.0,40.0,22.0
2.4130332469940186,49.0,1665.0,1348.0,25.0,40.0
2.414116621017456,14.0,1732.0,61.0,48.0,27.0
2.4151999950408936,34.0,29.0,43.0,755.0,14.0
2.416283369064331,24.0,9.0,45.0,392.0,38.0
2.4173667430877686,5.0,22.0,203.0,29.0,37.0
2.418450117111206,40.0,35.0,148.0,43.0,16.0
2.4195332527160645,23.0,20.0,93.0,5.0,23.0
2.420616626739502,6.0,5.0,16.0,48.0,30.0
2.4217000007629395,19.0,61.0,5.0,510.0,37.0
2.422783374786377,61.0,337.0,605.0,259.0,28.0
2.4238667488098145,34.0,613.0,316.0,7.0,32.0
2.424949884414673,6.0,1226.0,27.0,23.0,36.0
2.4260833263397217,10.0,1779.0,37.0,34.0,30.0
2.427166700363159,5.0,2478.0,29.0,15.0,12.0
2.4282500743865967,27.0,10.0,658.0,27.0,17.0
2.429333448410034,24.0,776.0,732.0,18.0,28.0
2.4304165840148926,11.0,1296.0,0.0,15.0,34.0
2.43149995803833,23.0,40.0,20.0,19.0,23.0
2.4325833320617676,30.0,243.0,6.0,15.0,5.0
2.433666706085205,10.0,501.0,521.0,11.0,5.0
2.4347500801086426,22.0,260.0,482.0,20.0,5.0
2.435833215713501,34.0,19.0,16.0,17.0,8.0
2.4369165897369385,13.0,377.0,28.0,18.0,10.0
2.437999963760376,34.0,26.0,39.0,18.0,5.0
2.4390833377838135,23.0,0.0,27.0,23.0,0.0
2.440166711807251,13.0,0.0,14.0,24.0,27.0
2.4412500858306885,28.0,0.0,45.0,26.0,22.0
2.442383289337158,28.0,303.0,274.0,0.0,17.0
2.443483352661133,28.0,605.0,137.0,5.0,0.0
2.4445667266845703,20.0,303.0,0.0,11.0,6.0
2.445650100708008,12.0,0.0,5.0,16.0,12.0
2.446733236312866,28.0,18.0,20.0,11.0,20.0
2.4478166103363037,5.0,386.0,634.0,5.0,10.0
2.448899984359741,21.0,754.0,328.0,5.0,0.0
2.4499833583831787,5.0,966.0,22.0,45.0,10.0
2.451066732406616,10.0,6.0,5.0,22.0,16.0
2.4521501064300537,8.0,3.0,10.0,0.0,13.0
2.453233242034912,5.0,0.0,11.0,49.0,10.0
2.4543166160583496,0.0,5.0,495.0,29.0,9.0
2.455399990081787,9.0,5.0,487.0,14.0,7.0
2.4564833641052246,17.0,5.0,480.0,10.0,6.0
2.457566738128662,18.0,506.0,44.0,6.0,5.0
2.4586501121520996,10.0,268.0,140.0,27.0,24.0
2.4597833156585693,0.0,30.0,235.0,21.0,12.0
2.460866689682007,3.0,125.0,6.0,15.0,0.0
2.4619500637054443,6.0,358.0,17.0,0.0,14.0
2.463033437728882,0.0,591.0,1128.0,27.0,29.0
2.4641165733337402,9.0,381.0,1543.0,20.0,199.0
2.4651999473571777,8.0,19.0,976.0,16.0,102.0
2.4662833213806152,7.0,59.0,15.0,12.0,5.0
2.4673666954040527,42.0,146.0,862.0,0.0,11.0
2.4684500694274902,51.0,88.0,729.0,14.0,17.0
2.4695334434509277,31.0,31.0,24.0,10.0,24.0
2.470616579055786,53.0,389.0,29.0,6.0,18.0
2.4716999530792236,36.0,652.0,34.0,21.0,11.0
2.472783327102661,0.0,889.0,43.0,22.0,0.0
2.4738667011260986,17.0,26.0,52.0,11.0,23.0
2.474950075149536,38.0,26.0,17.0,0.0,31.0
2.4760334491729736,14.0,20.0,11.0,10.0,27.0
2.4771833419799805,52.0,14.0,11.0,0.0,23.0
2.478266716003418,50.0,8.0,11.0,5.0,220.0
2.4793500900268555,16.0,20.0,52.0,5.0,416.0
2.480433225631714,13.0,17.0,67.0,5.0,208.0
2.4815165996551514,58.0,821.0,38.0,31.0,0.0
2.482599973678589,11.0,1038.0,8.0,26.0,15.0
2.4836833477020264,21.0,41.0,22.0,0.0,65.0
2.484766721725464,31.0,1026.0,17.0,0.0,48.0
2.4858500957489014,24.0,8.0,11.0,5.0,31.0
2.4869332313537598,17.0,140.0,0.0,20.0,0.0
2.4880166053771973,17.0,5.0,0.0,15.0,34.0
2.4890999794006348,14.0,0.0,23.0,10.0,22.0
2.4901833534240723,22.0,14.0,354.0,19.0,19.0
2.4912667274475098,24.0,80.0,177.0,20.0,12.0
2.4923501014709473,11.0,57.0,0.0,12.0,5.0
2.493483304977417,17.0,34.0,5.0,16.0,548.0
2.4945666790008545,23.0,330.0,439.0,19.0,287.0
2.495650053024292,27.0,391.0,243.0,18.0,27.0
2.4967334270477295,15.0,453.0,47.0,18.0,10.0
2.497816562652588,12.0,14.0,20.0,18.0,5.0
2.4988999366760254,0.0,0.0,34.0,6.0,0.0
