,316.2099914550781,317.2099914550781,318.2099914550781,319.2099914550781,320.2099914550781,321.2099914550781,322.2099914550781
2.051500082015991,0.0,40.0,2111.0,1786.0,14.0,1249.0,632.0
2.0530166625976562,17.0,49.0,863.0,2115.0,834.0,16.0,14.0
2.0545332431793213,15.0,18.0,50.0,821.0,177.0,0.0,23.0
2.0560500621795654,25.0,0.0,510.0,605.0,91.0,32.0,707.0
2.0575666427612305,15.0,19.0,29.0,960.0,5.0,950.0,434.0
2.0590832233428955,5.0,11.0,78.0,1142.0,378.0,1035.0,31.0
2.0606000423431396,12.0,16.0,5.0,41.0,751.0,29.0,19.0
2.0621166229248047,10.0,21.0,24.0,27.0,903.0,789.0,6.0
2.063633441925049,7.0,18.0,44.0,1285.0,1055.0,7.0,24.0
2.065150022506714,25.0,14.0,25.0,8.0,1053.0,378.0,18.0
2.066666603088379,43.0,10.0,65.0,1068.0,1052.0,27.0,11.0
2.0682332515716553,32.0,22.0,70.0,413.0,1512.0,39.0,29.0
2.0697500705718994,34.0,24.0,5.0,219.0,11.0,39.0,47.0
2.0712666511535645,22.0,26.0,95.0,24.0,1203.0,26.0,28.0
2.0727832317352295,10.0,10.0,186.0,25.0,190.0,14.0,10.0
2.0743000507354736,31.0,5.0,95.0,26.0,1419.0,861.0,20.0
2.0758166313171387,34.0,16.0,5.0,363.0,1688.0,731.0,19.0
2.077333450317383,14.0,17.0,45.0,190.0,2735.0,33.0,20.0
2.078850030899048,5.0,17.0,31.0,17.0,2528.0,30.0,21.0
2.080366611480713,17.0,21.0,60.0,292.0,2189.0,26.0,36.0
2.081883430480957,21.0,19.0,649.0,567.0,815.0,0.0,52.0
2.083400011062622,25.0,16.0,345.0,663.0,1393.0,5.0,0.0
2.0849833488464355,7.0,8.0,42.0,28.0,2823.0,585.0,22.0
2.0864999294281006,5.0,0.0,10.0,880.0,10.0,865.0,45.0
2.0880167484283447,85.0,34.0,850.0,1317.0,1513.0,441.0,17.0
2.0895333290100098,56.0,25.0,943.0,45.0,1733.0,17.0,5.0
2.091049909591675,27.0,31.0,362.0,6.0,1706.0,298.0,3.0
2.092566728591919,39.0,24.0,26.0,1534.0,777.0,31.0,0.0
2.094083309173584,25.0,17.0,1407.0,1146.0,0.0,633.0,31.0
2.095599889755249,15.0,31.0,908.0,5.0,1589.0,588.0,23.0
2.097116708755493,39.0,5.0,140.0,1142.0,469.0,543.0,15.0
2.098633289337158,21.0,10.0,292.0,1579.0,1413.0,603.0,26.0
2.1001501083374023,19.0,16.0,775.0,822.0,1513.0,663.0,38.0
2.101733446121216,31.0,21.0,1029.0,1481.0,1613.0,508.0,30.0
2.103250026702881,27.0,0.0,667.0,0.0,604.0,353.0,23.0
2.104766607284546,24.0,0.0,18.0,529.0,3231.0,982.0,157.0
2.10628342628479,7.0,8.0,23.0,1141.0,3645.0,1612.0,290.0
2.107800006866455,5.0,16.0,878.0,891.0,1693.0,2935.0,1458.0
2.10931658744812,18.0,10.0,1112.0,855.0,4602.0,4602.0,2627.0
2.1108334064483643,31.0,28.0,1005.0,432.0,5762.0,4073.0,2351.0
2.1123499870300293,23.0,31.0,20.0,9.0,4478.0,5816.0,2137.0
2.1138665676116943,17.0,33.0,806.0,706.0,3771.0,5230.0,3282.0
2.1153833866119385,11.0,405.0,914.0,888.0,5434.0,6865.0,3093.0
2.1168999671936035,0.0,233.0,361.0,1069.0,6175.0,5510.0,852.0
2.118483304977417,16.0,61.0,15.0,244.0,6915.0,4154.0,3464.0
2.119999885559082,16.0,58.0,17.0,599.0,8968.0,6593.0,2816.0
2.121516704559326,16.0,37.0,477.0,954.0,9204.0,6768.0,1272.0
2.123033285140991,11.0,16.0,244.0,2737.0,9660.0,6944.0,533.0
2.1245501041412354,5.0,24.0,10.0,3146.0,9668.0,7133.0,1466.0
2.1260666847229004,10.0,31.0,19.0,2082.0,10748.0,7322.0,12.0
2.1275832653045654,14.0,22.0,26.0,1927.0,11832.0,9768.0,1944.0
2.1291000843048096,18.0,13.0,15.0,1772.0,12812.0,10516.0,345.0
2.1306166648864746,16.0,389.0,1276.0,1235.0,11332.0,5775.0,1678.0
2.1321332454681396,17.0,210.0,1468.0,4414.0,5025.0,13164.0,1452.0
2.133650064468384,17.0,30.0,1875.0,5317.0,14920.0,5186.0,4227.0
2.1352334022521973,7.0,29.0,7.0,2674.0,14940.0,6327.0,4224.0
2.136733293533325,4.0,28.0,29.0,3836.0,9556.0,7144.0,1622.0
2.1382665634155273,0.0,352.0,32.0,3691.0,12760.0,7139.0,5229.0
2.1397666931152344,5.0,199.0,5.0,2880.0,8256.0,7753.0,980.0
2.1412832736968994,24.0,46.0,31.0,5271.0,11716.0,8368.0,1560.0
2.1428000926971436,43.0,46.0,12.0,1517.0,13340.0,4970.0,1422.0
2.1443166732788086,29.0,46.0,482.0,5528.0,10148.0,6919.0,1268.0
2.1458332538604736,15.0,656.0,441.0,1214.0,11920.0,6526.0,581.0
2.1473500728607178,31.0,332.0,400.0,2267.0,8932.0,7918.0,895.0
2.148866653442383,19.0,9.0,0.0,2665.0,9692.0,7899.0,1350.0
2.150383234024048,7.0,27.0,13.0,1198.0,10540.0,7879.0,3043.0
2.151949882507324,15.0,5.0,25.0,2095.0,10460.0,5621.0,3449.0
2.1534833908081055,32.0,110.0,31.0,1043.0,10000.0,7337.0,3643.0
2.1549999713897705,20.0,385.0,18.0,3471.0,9536.0,4286.0,2826.0
2.1565165519714355,7.0,660.0,5.0,3278.0,6748.0,7656.0,1143.0
2.1580333709716797,5.0,545.0,209.0,2095.0,10344.0,6364.0,1146.0
2.1595499515533447,15.0,337.0,108.0,10.0,8412.0,5581.0,2480.0
2.161066770553589,25.0,13.0,6.0,2024.0,8440.0,4797.0,39.0
2.162583351135254,21.0,19.0,3.0,1876.0,8280.0,5614.0,1891.0
2.164099931716919,15.0,25.0,0.0,1839.0,5229.0,5150.0,216.0
2.165616750717163,19.0,17.0,0.0,769.0,6215.0,4783.0,56.0
2.167133331298828,23.0,8.0,0.0,915.0,7200.0,3683.0,1160.0
2.1686666011810303,36.0,11.0,5.0,849.0,7899.0,2583.0,1092.0
2.1702001094818115,27.0,14.0,9.0,906.0,7298.0,3586.0,1024.0
2.1717166900634766,19.0,28.0,12.0,3177.0,6696.0,3248.0,2177.0
2.1732332706451416,12.0,20.0,21.0,3001.0,9048.0,2910.0,2644.0
2.1747500896453857,21.0,11.0,29.0,4558.0,7799.0,3954.0,2492.0
2.176266670227051,18.0,1077.0,363.0,1771.0,6551.0,4998.0,1248.0
2.177783250808716,15.0,1097.0,697.0,1098.0,6260.0,7343.0,3221.0
2.17930006980896,8.0,897.0,592.0,1005.0,5969.0,7033.0,3106.0
2.180816650390625,0.0,697.0,487.0,1727.0,9976.0,6722.0,713.0
2.18233323097229,15.0,523.0,45.0,2448.0,9732.0,4430.0,4060.0
2.183850049972534,18.0,451.0,447.0,2246.0,9488.0,7879.0,4474.0
2.185366630554199,21.0,107.0,850.0,2045.0,9672.0,5955.0,17.0
2.1869499683380127,19.0,0.0,733.0,1967.0,9856.0,5009.0,2368.0
2.1884665489196777,16.0,57.0,1162.0,2027.0,8772.0,4882.0,2288.0
2.189983367919922,30.0,15.0,1079.0,881.0,7684.0,6540.0,1501.0
2.191499948501587,234.0,26.0,0.0,778.0,6807.0,8196.0,2205.0
2.193016767501831,129.0,38.0,43.0,675.0,10472.0,7134.0,1477.0
2.194533348083496,23.0,0.0,314.0,687.0,14136.0,6449.0,748.0
2.196049928665161,31.0,7.0,584.0,699.0,12796.0,8324.0,1817.0
2.1975667476654053,31.0,392.0,581.0,1039.0,11456.0,8480.0,747.0
2.1990833282470703,30.0,738.0,15.0,1378.0,7915.0,8976.0,1047.0
2.2005999088287354,22.0,726.0,15.0,1297.0,6574.0,8200.0,1347.0
2.2021167278289795,47.0,658.0,14.0,1216.0,5233.0,4432.0,2994.0
2.203700065612793,50.0,1315.0,5.0,962.0,14784.0,4153.0,3599.0
2.205216646194458,50.0,678.0,10.0,1422.0,14556.0,3874.0,4204.0
2.206733226776123,29.0,42.0,31.0,4889.0,8428.0,6152.0,2031.0
2.208250045776367,5.0,6.0,619.0,4100.0,7608.0,5534.0,71.0
2.2097666263580322,34.0,284.0,678.0,1754.0,10000.0,4916.0,819.0
2.2112834453582764,5.0,16.0,898.0,3247.0,14564.0,6516.0,1196.0
2.2128000259399414,6.0,7.0,12.0,1286.0,13244.0,2662.0,1087.0
2.2143166065216064,15.0,25.0,550.0,643.0,9212.0,7047.0,977.0
2.2158334255218506,5.0,0.0,903.0,2793.0,9656.0,3914.0,157.0
2.2173500061035156,11.0,9.0,688.0,2611.0,4684.0,5408.0,2527.0
2.2188665866851807,5.0,18.0,15.0,2246.0,10048.0,4500.0,2470.0
2.220449924468994,46.0,43.0,10.0,1880.0,2127.0,5436.0,2560.0
2.2219667434692383,36.0,29.0,0.0,581.0,6422.0,4270.0,1296.0
2.2234833240509033,25.0,16.0,54.0,1761.0,4066.0,3103.0,894.0
2.2249999046325684,18.0,485.0,37.0,1792.0,1926.0,5106.0,967.0
2.2265167236328125,20.0,530.0,19.0,1805.0,6699.0,4353.0,1501.0
2.2280333042144775,18.0,574.0,214.0,1818.0,2791.0,3600.0,2034.0
2.2295498847961426,25.0,10.0,133.0,1600.0,3571.0,1610.0,2038.0
2.2310667037963867,31.0,13.0,52.0,1503.0,4351.0,3301.0,317.0
2.2325832843780518,47.0,15.0,5.0,2048.0,3321.0,3638.0,1782.0
2.234100103378296,53.0,267.0,0.0,388.0,2290.0,3911.0,11.0
2.235616683959961,5.0,519.0,92.0,1266.0,2506.0,1597.0,924.0
2.2372000217437744,8.0,579.0,486.0,500.0,1131.0,2352.0,19.0
2.2387166023254395,16.0,622.0,623.0,596.0,3225.0,2816.0,584.0
2.2402334213256836,24.0,897.0,760.0,316.0,2905.0,806.0,30.0
2.2417500019073486,27.0,1172.0,75.0,36.0,2169.0,567.0,28.0
2.2432665824890137,20.0,38.0,119.0,27.0,4104.0,15.0,463.0
2.244783401489258,43.0,1409.0,1013.0,173.0,1181.0,2479.0,253.0
2.246299982070923,35.0,1337.0,1046.0,346.0,17.0,2293.0,44.0
2.247816562652588,27.0,1264.0,80.0,519.0,839.0,1086.0,16.0
2.249333381652832,24.0,1207.0,592.0,262.0,1640.0,542.0,145.0
2.250849962234497,27.0,1149.0,21.0,5.0,440.0,841.0,273.0
2.252366781234741,11.0,653.0,24.0,301.0,590.0,426.0,155.0
2.2539501190185547,19.0,226.0,28.0,1061.0,322.0,11.0,36.0
2.2554666996002197,17.0,2069.0,31.0,1123.0,55.0,296.0,63.0
2.2569832801818848,15.0,1860.0,36.0,1019.0,65.0,581.0,35.0
2.258500099182129,0.0,1207.0,35.0,519.0,75.0,616.0,55.0
2.260016679763794,3.0,1951.0,33.0,18.0,517.0,78.0,600.0
2.261533260345459,6.0,824.0,23.0,349.0,958.0,763.0,691.0
2.263050079345703,14.0,13.0,13.0,536.0,820.0,1392.0,23.0
2.264566659927368,25.0,2466.0,7.0,723.0,682.0,701.0,439.0
2.266083240509033,34.0,994.0,10.0,539.0,280.0,11.0,855.0
2.2676000595092773,17.0,2492.0,18.0,355.0,269.0,839.0,32.0
2.2691166400909424,0.0,1984.0,26.0,24.0,775.0,2181.0,7.0
2.270699977874756,11.0,1475.0,21.0,20.0,714.0,2052.0,5.0
2.272200107574463,6.0,2698.0,16.0,16.0,653.0,2059.0,0.0
2.273733377456665,15.0,3366.0,566.0,48.0,337.0,123.0,22.0
2.275233268737793,24.0,2597.0,706.0,238.0,21.0,34.0,78.0
2.276750087738037,40.0,403.0,22.0,119.0,0.0,888.0,51.0
2.278266668319702,34.0,356.0,942.0,0.0,822.0,55.0,24.0
2.2797999382019043,0.0,1042.0,21.0,1298.0,425.0,527.0,17.0
2.2813000679016113,20.0,675.0,1070.0,1120.0,27.0,31.0,45.0
2.2828166484832764,0.0,54.0,28.0,21.0,488.0,25.0,6.0
2.2843332290649414,0.0,1015.0,59.0,827.0,258.0,18.0,32.0
2.2858500480651855,29.0,1146.0,19.0,29.0,27.0,17.0,31.0
2.287416696548462,34.0,1278.0,52.0,48.0,471.0,28.0,39.0
2.288949966430664,40.0,1131.0,592.0,37.0,716.0,27.0,41.0
2.290466785430908,21.0,575.0,1094.0,20.0,708.0,26.0,22.0
2.2919833660125732,44.0,1112.0,559.0,18.0,762.0,7.0,31.0
2.2934999465942383,27.0,769.0,24.0,61.0,539.0,34.0,41.0
2.2950167655944824,111.0,709.0,1147.0,47.0,317.0,24.0,34.0
2.2965333461761475,75.0,534.0,1180.0,34.0,5.0,41.0,27.0
2.2980499267578125,39.0,469.0,532.0,483.0,5.0,39.0,5.0
2.2995667457580566,37.0,403.0,1106.0,473.0,392.0,38.0,34.0
2.30281662940979,35.0,1171.0,1451.0,23.0,779.0,936.0,29.0
2.306133270263672,11.0,1247.0,22.0,211.0,965.0,717.0,37.0
2.3093833923339844,46.0,1323.0,1259.0,469.0,13.0,1130.0,31.0
2.3126332759857178,20.0,23.0,17.0,174.0,735.0,359.0,26.0
2.3158833980560303,26.0,1215.0,9.0,37.0,11.0,631.0,6.0
2.3191332817077637,20.0,163.0,509.0,12.0,572.0,12.0,0.0
2.3224332332611084,5.0,1366.0,11.0,16.0,11.0,51.0,15.0
2.325683355331421,14.0,22.0,260.0,19.0,37.0,38.0,10.0
2.3289499282836914,17.0,29.0,509.0,25.0,7.0,12.0,5.0
2.332200050354004,19.0,1270.0,11.0,28.0,37.0,66.0,12.0
2.3354499340057373,1412.0,1303.0,17.0,26.0,36.0,9.0,8.0
2.338716745376587,1668.0,5.0,25.0,25.0,43.0,16.0,5.0
2.3419666290283203,10.0,1014.0,22.0,23.0,44.0,68.0,36.0
2.345216751098633,26.0,0.0,0.0,25.0,8.0,5.0,432.0
2.348466634750366,27.0,0.0,24.0,15.0,10.0,68.0,224.0
2.3517167568206787,14.0,14.0,34.0,5.0,18.0,39.0,15.0
2.3550167083740234,15.0,20.0,29.0,29.0,25.0,31.0,36.0
2.358283281326294,16.0,28.0,23.0,30.0,17.0,24.0,34.0
2.3615500926971436,5.0,30.0,21.0,31.0,8.0,51.0,68.0
2.364799976348877,62.0,30.0,8.0,0.0,116.0,33.0,337.0
2.3680500984191895,70.0,43.0,7.0,22.0,68.0,14.0,533.0
2.371299982070923,25.0,39.0,20.0,21.0,19.0,18.0,730.0
2.3745999336242676,17.0,35.0,48.0,5.0,17.0,18.0,22.0
2.37785005569458,49.0,45.0,49.0,0.0,15.0,18.0,30.0
2.3810999393463135,50.0,5.0,50.0,44.0,65.0,12.0,5.0
2.384350061416626,47.0,21.0,24.0,32.0,41.0,27.0,5.0
2.3875999450683594,11.0,18.0,19.0,20.0,17.0,27.0,31.0
2.390916585922241,8.0,0.0,35.0,26.0,27.0,7.0,22.0
2.3941667079925537,96.0,5.0,27.0,5.0,38.0,24.0,11.0
2.397416591644287,56.0,3.0,18.0,15.0,30.0,9.0,6.0
2.4006667137145996,15.0,0.0,27.0,132.0,23.0,11.0,48.0
2.403916597366333,8.0,39.0,24.0,133.0,47.0,11.0,49.0
2.4072165489196777,68.0,22.0,30.0,134.0,14.0,11.0,10.0
2.4104666709899902,5.0,5.0,37.0,10.0,12.0,32.0,14.0
2.4137165546417236,32.0,42.0,38.0,28.0,12.0,38.0,32.0
2.416966676712036,47.0,28.0,40.0,57.0,11.0,24.0,7.0
2.4202332496643066,62.0,14.0,39.0,34.0,11.0,286.0,24.0
2.4235334396362305,27.0,31.0,16.0,41.0,10.0,192.0,15.0
2.426783323287964,25.0,26.0,17.0,48.0,20.0,98.0,18.0
2.4300334453582764,44.0,21.0,43.0,26.0,28.0,19.0,20.0
2.4332833290100098,38.0,16.0,7.0,5.0,31.0,18.0,41.0
2.4365334510803223,29.0,10.0,16.0,5.0,6.0,17.0,35.0
2.43981671333313,19.0,10.0,24.0,23.0,271.0,44.0,29.0
2.4430999755859375,38.0,16.0,454.0,22.0,151.0,106.0,39.0
2.44635009765625,0.0,40.0,250.0,21.0,30.0,53.0,49.0
2.4495999813079834,6.0,47.0,46.0,14.0,44.0,0.0,41.0
2.452850103378296,48.0,55.0,20.0,27.0,15.0,24.0,32.0
2.4560999870300293,46.0,63.0,5.0,25.0,27.0,0.0,21.0
2.4593665599823,45.0,43.0,19.0,22.0,20.0,20.0,33.0
2.4626166820526123,14.0,23.0,10.0,10.0,13.0,19.0,0.0
2.4658665657043457,23.0,12.0,61.0,41.0,5.0,21.0,116.0
2.469116687774658,11.0,10.0,62.0,43.0,16.0,22.0,66.0
2.4723665714263916,12.0,27.0,34.0,0.0,57.0,25.0,16.0
2.4756834506988525,13.0,44.0,12.0,37.0,38.0,1039.0,23.0
2.478933334350586,14.0,37.0,55.0,537.0,19.0,781.0,52.0
2.4821832180023193,14.0,30.0,235.0,455.0,19.0,23.0,0.0
2.485433340072632,23.0,12.0,415.0,44.0,288.0,5.0,14.0
2.4886832237243652,44.0,20.0,225.0,846.0,154.0,104.0,0.0
2.492000102996826,52.0,12.0,36.0,17.0,21.0,20.0,0.0
2.4952499866485596,7.0,14.0,0.0,20.0,19.0,0.0,66.0
2.498500108718872,19.0,16.0,230.0,16.0,37.0,36.0,58.0
2.5017499923706055,25.0,25.0,5.0,16.0,34.0,72.0,50.0
2.505000114440918,30.0,36.0,731.0,16.0,47.0,542.0,0.0
2.5082666873931885,29.0,24.0,376.0,11.0,60.0,277.0,0.0
2.511516571044922,33.0,13.0,20.0,5.0,44.0,11.0,0.0
2.5147666931152344,23.0,36.0,871.0,8.0,27.0,17.0,8.0
2.5180165767669678,18.0,13.0,5.0,10.0,47.0,31.0,15.0
2.5212666988372803,13.0,10.0,397.0,19.0,26.0,19.0,17.0
2.524583339691162,10.0,6.0,241.0,19.0,5.0,30.0,18.0
2.5278332233428955,6.0,11.0,0.0,18.0,3.0,25.0,22.0
2.531083345413208,3.0,12.0,10.0,182.0,0.0,23.0,19.0
2.5343332290649414,0.0,6.0,20.0,346.0,4.0,20.0,15.0
2.537583351135254,0.0,0.0,13.0,403.0,7.0,5.0,17.0
2.5408332347869873,3.0,5.0,0.0,22.0,22.0,18.0,19.0
2.544133424758911,5.0,15.0,16.0,16.0,16.0,44.0,7.0
2.5473833084106445,9.0,18.0,32.0,669.0,10.0,690.0,31.0
2.550633430480957,12.0,20.0,24.0,605.0,0.0,617.0,72.0
2.5538833141326904,25.0,17.0,29.0,6.0,150.0,33.0,114.0
2.557149887084961,19.0,20.0,34.0,15.0,1242.0,18.0,60.0
2.5604166984558105,12.0,23.0,289.0,30.0,1034.0,698.0,6.0
2.563666582107544,61.0,30.0,295.0,33.0,1001.0,12.0,6.0
2.5669167041778564,54.0,21.0,8.0,20.0,12.0,25.0,5.0
2.57016658782959,20.0,12.0,20.0,602.0,46.0,0.0,23.0
2.5734167098999023,5.0,18.0,36.0,711.0,440.0,59.0,24.0
2.576733350753784,13.0,17.0,1031.0,59.0,57.0,161.0,25.0
2.5799832344055176,21.0,15.0,890.0,39.0,1407.0,263.0,782.0
2.58323335647583,718.0,13.0,190.0,25.0,1052.0,137.0,592.0
2.5864832401275635,364.0,12.0,27.0,20.0,5.0,12.0,5.0
2.589733362197876,10.0,10.0,0.0,9.0,52.0,29.0,48.0
2.593050003051758,22.0,21.0,38.0,19.0,340.0,495.0,91.0
2.596299886703491,410.0,14.0,0.0,13.0,12.0,252.0,19.0
2.5995500087738037,13.0,7.0,17.0,6.0,32.0,8.0,52.0
2.602799892425537,49.0,34.0,34.0,359.0,33.0,33.0,23.0
2.6060500144958496,40.0,25.0,13.0,208.0,109.0,131.0,6.0
2.6093666553497314,6.0,15.0,21.0,57.0,185.0,491.0,52.0
2.612616777420044,40.0,21.0,10.0,21.0,1196.0,275.0,5.0
2.6158666610717773,28.0,19.0,15.0,31.0,601.0,60.0,16.0
2.61911678314209,19.0,17.0,20.0,47.0,5.0,41.0,36.0
2.6223666667938232,10.0,12.0,17.0,22.0,19.0,31.0,23.0
2.6256332397460938,21.0,6.0,31.0,0.0,0.0,17.0,9.0
2.6288833618164062,31.0,0.0,94.0,25.0,655.0,1270.0,24.0
2.6321332454681396,44.0,39.0,55.0,17.0,954.0,1609.0,16.0
2.635383367538452,36.0,34.0,15.0,319.0,696.0,26.0,29.0
2.6386332511901855,28.0,15.0,8.0,160.0,687.0,38.0,0.0
2.641883373260498,34.0,27.0,0.0,0.0,16.0,683.0,5.0
2.64520001411438,16.0,5.0,21.0,0.0,40.0,41.0,5.0
2.6484498977661133,37.0,10.0,23.0,17.0,58.0,12.0,8.0
2.651700019836426,40.0,22.0,24.0,20.0,0.0,22.0,11.0
2.654949903488159,44.0,21.0,5.0,23.0,7.0,5.0,6.0
2.6582000255584717,17.0,19.0,6.0,25.0,39.0,5.0,0.0
2.6615166664123535,23.0,37.0,7.0,30.0,22.0,6.0,4.0
2.664766550064087,23.0,0.0,21.0,10.0,337.0,0.0,7.0
2.6680166721343994,22.0,11.0,16.0,11.0,183.0,15.0,6.0
2.671266555786133,21.0,5.0,11.0,11.0,29.0,7.0,5.0
2.6745166778564453,23.0,7.0,6.0,36.0,10.0,0.0,33.0
2.6778500080108643,21.0,19.0,39.0,37.0,69.0,213.0,34.0
2.6810998916625977,19.0,30.0,27.0,16.0,41.0,115.0,11.0
2.68435001373291,20.0,15.0,15.0,30.0,13.0,17.0,6.0
2.6875998973846436,21.0,0.0,18.0,27.0,51.0,29.0,38.0
2.690850019454956,22.0,12.0,20.0,44.0,16.0,19.0,5.0
2.6941165924072266,23.0,19.0,1002.0,49.0,28.0,10.0,26.0
2.697366714477539,28.0,25.0,505.0,31.0,0.0,9.0,15.0
2.7006165981292725,7.0,18.0,7.0,13.0,20.0,8.0,5.0
2.703866720199585,6.0,36.0,16.0,28.0,13.0,5.0,17.0
2.7071166038513184,5.0,43.0,7.0,44.0,5.0,0.0,19.0
2.7104332447052,17.0,32.0,10.0,22.0,20.0,23.0,20.0
2.7136833667755127,14.0,11.0,12.0,0.0,10.0,46.0,5.0
2.716933250427246,12.0,10.0,24.0,17.0,0.0,260.0,32.0
2.7201833724975586,13.0,17.0,15.0,7.0,17.0,130.0,32.0
2.723433256149292,14.0,18.0,5.0,21.0,9.0,0.0,32.0
2.7266833782196045,42.0,19.0,23.0,287.0,0.0,0.0,27.0
2.7300000190734863,51.0,36.0,8.0,176.0,18.0,14.0,22.0
2.7332499027252197,10.0,18.0,15.0,65.0,25.0,11.0,19.0
2.7365000247955322,12.0,0.0,18.0,16.0,0.0,8.0,39.0
2.7397499084472656,14.0,22.0,21.0,25.0,0.0,14.0,35.0
2.743000030517578,10.0,11.0,29.0,43.0,0.0,20.0,31.0
2.74631667137146,5.0,0.0,29.0,31.0,0.0,15.0,0.0
2.7495665550231934,5.0,5.0,10.0,20.0,6.0,10.0,43.0
2.752816677093506,5.0,32.0,0.0,0.0,12.0,0.0,30.0
2.7560665607452393,5.0,27.0,23.0,695.0,21.0,9.0,17.0
2.7593166828155518,7.0,21.0,30.0,520.0,17.0,17.0,5.0
2.7626166343688965,9.0,0.0,11.0,16.0,13.0,64.0,12.0
2.765866756439209,17.0,10.0,695.0,402.0,5.0,55.0,19.0
2.7691166400909424,25.0,12.0,611.0,5.0,11.0,0.0,19.0
2.772366762161255,21.0,0.0,0.0,7.0,16.0,23.0,31.0
2.7756166458129883,9.0,22.0,6.0,5.0,10.0,10.0,16.0
2.778916597366333,17.0,24.0,23.0,26.0,18.0,232.0,0.0
2.7821667194366455,14.0,26.0,351.0,16.0,0.0,454.0,22.0
2.785416603088379,33.0,24.0,187.0,6.0,10.0,1287.0,27.0
2.7886667251586914,52.0,21.0,23.0,10.0,20.0,962.0,32.0
2.791916608810425,732.0,778.0,14.0,13.0,176.0,0.0,5.0
2.7951834201812744,783.0,1108.0,45.0,36.0,126.0,13.0,9.0
2.798449993133545,834.0,1438.0,15.0,25.0,76.0,33.0,5.0
2.8017001152038574,665.0,52.0,56.0,14.0,41.0,0.0,5.0
2.804949998855591,495.0,1852.0,27.0,40.0,5.0,14.0,5.0
2.808199882507324,535.0,1272.0,25.0,23.0,11.0,27.0,11.0
2.811483383178711,1002.0,1905.0,23.0,7.0,16.0,0.0,18.0
2.8147332668304443,916.0,28.0,21.0,51.0,169.0,12.0,14.0
2.817983388900757,830.0,507.0,499.0,26.0,87.0,15.0,11.0
2.8212332725524902,30.0,77.0,978.0,0.0,5.0,6.0,16.0
2.8244833946228027,5.0,563.0,770.0,62.0,36.0,16.0,14.0
2.827733278274536,517.0,604.0,978.0,205.0,40.0,17.0,17.0
2.831049919128418,178.0,391.0,905.0,348.0,5.0,18.0,20.0
2.8343000411987305,45.0,847.0,48.0,194.0,6.0,19.0,7.0
2.837549924850464,103.0,10.0,611.0,41.0,6.0,18.0,46.0
2.8408000469207764,25.0,32.0,15.0,31.0,6.0,16.0,59.0
2.8440499305725098,10.0,868.0,20.0,27.0,5.0,8.0,35.0
2.8473665714263916,9.0,761.0,29.0,23.0,23.0,0.0,12.0
2.850616693496704,23.0,654.0,25.0,19.0,25.0,22.0,39.0
2.8538665771484375,19.0,594.0,21.0,15.0,27.0,0.0,25.0
2.85711669921875,14.0,478.0,11.0,0.0,27.0,13.0,40.0
2.8603665828704834,25.0,7.0,0.0,12.0,5.0,25.0,35.0
2.8636832237243652,20.0,15.0,9.0,21.0,32.0,10.0,31.0
2.8669333457946777,14.0,10.0,17.0,18.0,60.0,18.0,27.0
2.870183229446411,7.0,5.0,26.0,14.0,74.0,17.0,16.0
2.8734333515167236,16.0,23.0,26.0,22.0,29.0,22.0,6.0
2.876683235168457,24.0,42.0,19.0,39.0,433.0,0.0,22.0
2.880000114440918,20.0,35.0,11.0,33.0,219.0,24.0,18.0
2.8832499980926514,15.0,16.0,47.0,24.0,6.0,47.0,13.0
2.8864998817443848,22.0,16.0,39.0,14.0,49.0,69.0,24.0
2.8897500038146973,15.0,0.0,29.0,31.0,10.0,37.0,36.0
2.8929998874664307,219.0,19.0,176.0,9.0,8.0,6.0,52.0
2.8963167667388916,113.0,15.0,99.0,12.0,5.0,20.0,48.0
2.899566650390625,7.0,10.0,21.0,25.0,39.0,10.0,44.0
2.9028167724609375,37.0,0.0,53.0,13.0,35.0,0.0,0.0
2.906066656112671,0.0,12.0,5.0,0.0,31.0,21.0,46.0
2.9093167781829834,13.0,21.0,19.0,11.0,0.0,17.0,32.0
2.912566661834717,17.0,29.0,25.0,16.0,14.0,33.0,18.0
2.9158499240875244,11.0,0.0,13.0,21.0,20.0,23.0,14.0
2.919100046157837,27.0,22.0,0.0,28.0,20.0,12.0,12.0
2.9223499298095703,24.0,40.0,9.0,23.0,22.0,10.0,19.0
2.925600051879883,17.0,18.0,18.0,17.0,101.0,7.0,27.0
2.928849935531616,12.0,26.0,0.0,22.0,65.0,53.0,30.0
2.932166576385498,6.0,15.0,5.0,24.0,28.0,32.0,33.0
2.9354166984558105,26.0,11.0,14.0,25.0,29.0,11.0,20.0
2.938666582107544,29.0,6.0,62.0,5.0,10.0,28.0,20.0
2.9419167041778564,32.0,18.0,60.0,34.0,20.0,28.0,28.0
2.94516658782959,24.0,48.0,0.0,14.0,27.0,19.0,20.0
2.9484333992004395,0.0,38.0,82.0,40.0,16.0,20.0,20.0
2.951683282852173,10.0,16.0,12.0,26.0,5.0,52.0,15.0
2.9549334049224854,0.0,34.0,6.0,37.0,14.0,47.0,10.0
2.9581832885742188,8.0,0.0,30.0,38.0,22.0,16.0,15.0
2.9614334106445312,16.0,41.0,29.0,16.0,18.0,5.0,19.0
2.96476674079895,12.0,6.0,27.0,5.0,21.0,40.0,37.0
2.9680166244506836,17.0,16.0,28.0,36.0,5.0,15.0,43.0
2.971266746520996,0.0,7.0,34.0,8.0,0.0,41.0,62.0
2.9745166301727295,18.0,15.0,34.0,21.0,5.0,5.0,37.0
2.977766752243042,19.0,31.0,34.0,17.0,9.0,5.0,12.0
2.9810667037963867,20.0,48.0,19.0,13.0,39.0,30.0,23.0
2.98431658744812,15.0,32.0,29.0,24.0,29.0,25.0,28.0
2.9875667095184326,12.0,13.0,40.0,18.0,19.0,20.0,33.0
2.990816593170166,18.0,0.0,31.0,12.0,18.0,11.0,29.0
2.9940667152404785,12.0,50.0,38.0,14.0,45.0,24.0,25.0
