,316.2099914550781,317.2099914550781,318.2099914550781,319.2099914550781,320.2099914550781,321.2099914550781,322.2099914550781
2.051500082015991,41.0,28.0,0.0,1196.0,203.0,26.0,0.0
2.0530166625976562,5.0,5.0,63.0,33.0,15.0,17.0,59.0
2.0545332431793213,24.0,29.0,62.0,24.0,26.0,5.0,11.0
2.0560500621795654,19.0,43.0,46.0,24.0,48.0,16.0,16.0
2.0575666427612305,7.0,31.0,31.0,22.0,29.0,26.0,17.0
2.0590832233428955,16.0,12.0,17.0,20.0,16.0,19.0,31.0
2.0606000423431396,26.0,34.0,26.0,15.0,30.0,11.0,23.0
2.0621166229248047,18.0,0.0,42.0,10.0,44.0,11.0,15.0
2.063633441925049,45.0,26.0,7.0,0.0,26.0,28.0,36.0
2.065150022506714,52.0,16.0,14.0,3.0,8.0,28.0,23.0
2.066666603088379,62.0,6.0,286.0,6.0,48.0,28.0,11.0
2.0682499408721924,22.0,11.0,146.0,0.0,22.0,14.0,11.0
2.0697667598724365,74.0,14.0,5.0,23.0,5.0,35.0,5.0
2.0712833404541016,10.0,17.0,11.0,17.0,17.0,24.0,21.0
2.0727999210357666,34.0,11.0,16.0,10.0,30.0,14.0,22.0
2.0743167400360107,58.0,5.0,16.0,21.0,20.0,12.0,23.0
2.075833320617676,13.0,5.0,16.0,33.0,29.0,12.0,19.0
2.077349901199341,15.0,0.0,5.0,29.0,29.0,7.0,15.0
2.078866720199585,16.0,0.0,21.0,26.0,30.0,10.0,5.0
2.08038330078125,22.0,0.0,37.0,5.0,24.0,13.0,8.0
2.081899881362915,22.0,3.0,21.0,8.0,23.0,26.0,5.0
2.083416700363159,35.0,5.0,5.0,28.0,22.0,28.0,9.0
2.0849833488464355,30.0,22.0,16.0,178.0,22.0,30.0,5.0
2.0864999294281006,24.0,39.0,23.0,102.0,32.0,28.0,0.0
2.0880167484283447,0.0,39.0,31.0,27.0,16.0,44.0,17.0
2.0895333290100098,13.0,12.0,6.0,33.0,0.0,363.0,16.0
2.091049909591675,18.0,47.0,505.0,44.0,30.0,187.0,8.0
2.092566728591919,12.0,19.0,263.0,19.0,39.0,11.0,0.0
2.094083309173584,5.0,34.0,21.0,40.0,48.0,25.0,10.0
2.095599889755249,0.0,26.0,505.0,11.0,42.0,16.0,15.0
2.097116708755493,0.0,5.0,606.0,21.0,21.0,0.0,18.0
2.098633289337158,0.0,31.0,708.0,36.0,11.0,18.0,12.0
2.1001501083374023,0.0,27.0,651.0,0.0,0.0,39.0,6.0
2.101733446121216,0.0,28.0,351.0,28.0,35.0,49.0,23.0
2.103250026702881,4.0,0.0,50.0,55.0,23.0,37.0,16.0
2.104766607284546,7.0,0.0,42.0,50.0,11.0,660.0,10.0
2.10628342628479,32.0,0.0,42.0,18.0,1190.0,333.0,22.0
2.107800006866455,26.0,48.0,43.0,5.0,1416.0,5.0,27.0
2.10931658744812,23.0,34.0,44.0,332.0,846.0,11.0,8.0
2.1108334064483643,19.0,19.0,18.0,169.0,775.0,8.0,26.0
2.1123499870300293,22.0,38.0,7.0,5.0,704.0,5.0,34.0
2.1138665676116943,0.0,38.0,11.0,1200.0,30.0,0.0,8.0
2.1153833866119385,26.0,24.0,829.0,1038.0,176.0,12.0,5.0
2.1168999671936035,0.0,19.0,417.0,62.0,321.0,16.0,0.0
2.11846661567688,35.0,26.0,5.0,0.0,372.0,272.0,6.0
2.119983434677124,0.0,28.0,916.0,12.0,558.0,528.0,3.0
2.121500015258789,45.0,31.0,35.0,19.0,525.0,870.0,0.0
2.123016595840454,24.0,5.0,9.0,0.0,816.0,1212.0,13.0
2.1245334148406982,17.0,17.0,5.0,34.0,1296.0,17.0,13.0
2.1260499954223633,44.0,29.0,0.0,136.0,1776.0,545.0,13.0
2.1275665760040283,29.0,12.0,13.0,907.0,3203.0,1073.0,20.0
2.1290833950042725,0.0,6.0,20.0,470.0,2728.0,0.0,28.0
2.1305999755859375,17.0,10.0,865.0,34.0,1595.0,1283.0,36.0
2.1321165561676025,29.0,5.0,651.0,527.0,2646.0,1061.0,5.0
2.133650064468384,27.0,0.0,437.0,1020.0,3696.0,1244.0,4116.0
2.13521671295166,24.0,15.0,649.0,1293.0,3830.0,1227.0,3389.0
2.136733293533325,21.0,31.0,698.0,1567.0,3991.0,1210.0,46.0
2.1382501125335693,6.0,28.0,15.0,0.0,4153.0,1649.0,1004.0
2.1397666931152344,14.0,278.0,1477.0,9.0,4035.0,1468.0,809.0
2.1412832736968994,15.0,139.0,1772.0,0.0,3764.0,1286.0,46.0
2.1428000926971436,16.0,0.0,9.0,1203.0,3492.0,2150.0,1529.0
2.1443166732788086,13.0,61.0,654.0,1280.0,1482.0,2211.0,975.0
2.1458332538604736,19.0,14.0,82.0,1356.0,7026.0,2271.0,26.0
2.1473500728607178,26.0,26.0,40.0,0.0,6705.0,522.0,1673.0
2.148866653442383,0.0,23.0,40.0,24.0,2282.0,2603.0,1094.0
2.150383234024048,18.0,25.0,47.0,1357.0,2760.0,1307.0,659.0
2.151933431625366,18.0,27.0,0.0,1115.0,570.0,12.0,41.0
2.1534667015075684,17.0,23.0,11.0,10.0,3251.0,2846.0,1084.0
2.1549832820892334,14.0,26.0,21.0,524.0,2289.0,2712.0,522.0
2.1565001010894775,14.0,26.0,12.0,8.0,2777.0,1918.0,13.0
2.1580166816711426,13.0,15.0,11.0,13.0,2327.0,945.0,55.0
2.1595332622528076,20.0,12.0,9.0,18.0,2571.0,26.0,363.0
2.1610500812530518,27.0,0.0,58.0,15.0,2077.0,1193.0,17.0
2.162566661834717,31.0,12.0,34.0,12.0,1885.0,2149.0,18.0
2.164083242416382,16.0,844.0,10.0,20.0,2881.0,2850.0,15.0
2.165600061416626,0.0,699.0,21.0,29.0,1094.0,1738.0,11.0
2.167116641998291,28.0,33.0,46.0,1668.0,2519.0,2003.0,10.0
2.168633222579956,31.0,24.0,34.0,1907.0,2259.0,1533.0,8.0
2.1702165603637695,33.0,27.0,21.0,1049.0,3572.0,1002.0,0.0
2.1717333793640137,16.0,32.0,54.0,943.0,3978.0,471.0,36.0
2.1732499599456787,10.0,37.0,622.0,36.0,4625.0,182.0,34.0
2.174766778945923,10.0,39.0,316.0,73.0,2722.0,692.0,15.0
2.176283359527588,21.0,5.0,11.0,49.0,3960.0,450.0,5.0
2.177799940109253,32.0,33.0,17.0,1510.0,5171.0,209.0,8.0
2.179316759109497,42.0,27.0,23.0,1661.0,3079.0,1820.0,11.0
2.180833339691162,36.0,33.0,22.0,2157.0,3455.0,2362.0,0.0
2.182349920272827,15.0,39.0,17.0,660.0,3172.0,2031.0,0.0
2.1838667392730713,30.0,42.0,12.0,1225.0,1203.0,1864.0,0.0
2.1853833198547363,5.0,46.0,7.0,271.0,4566.0,2705.0,3.0
2.1869499683380127,5.0,24.0,4.0,29.0,1808.0,1996.0,2.0
2.1884665489196777,48.0,0.0,0.0,17.0,2190.0,1287.0,0.0
2.189983367919922,39.0,13.0,21.0,191.0,3855.0,909.0,10.0
2.191499948501587,15.0,26.0,17.0,365.0,4458.0,989.0,19.0
2.193016767501831,26.0,29.0,12.0,294.0,3930.0,719.0,238.0
2.194533348083496,0.0,31.0,9.0,223.0,1139.0,528.0,458.0
2.196049928665161,28.0,34.0,20.0,1799.0,5974.0,2082.0,399.0
2.1975667476654053,6.0,16.0,0.0,1933.0,667.0,1978.0,340.0
2.1990833282470703,6.0,55.0,14.0,21.0,1509.0,1873.0,5.0
2.2005999088287354,0.0,35.0,29.0,323.0,1806.0,1661.0,24.0
2.2021167278289795,7.0,14.0,26.0,252.0,2752.0,729.0,188.0
2.203700065612793,10.0,10.0,23.0,254.0,3699.0,1828.0,67.0
2.205216646194458,29.0,15.0,7.0,46.0,3315.0,508.0,948.0
2.206733226776123,31.0,10.0,7.0,36.0,2931.0,828.0,760.0
2.208250045776367,10.0,5.0,19.0,26.0,2076.0,538.0,11.0
2.2097666263580322,6.0,11.0,10.0,20.0,1424.0,851.0,23.0
2.2112834453582764,18.0,5.0,16.0,23.0,40.0,585.0,674.0
2.2128000259399414,9.0,12.0,15.0,25.0,2729.0,851.0,665.0
2.2143166065216064,0.0,23.0,8.0,303.0,1411.0,936.0,8.0
2.2158334255218506,16.0,12.0,0.0,581.0,2149.0,1020.0,22.0
2.2173500061035156,23.0,0.0,24.0,301.0,1189.0,977.0,321.0
2.2188665866851807,30.0,16.0,18.0,21.0,811.0,884.0,59.0
2.220433235168457,10.0,39.0,0.0,6.0,524.0,791.0,962.0
2.221950054168701,35.0,32.0,930.0,22.0,1548.0,655.0,805.0
2.223466634750366,20.0,24.0,470.0,15.0,1935.0,520.0,14.0
2.2249832153320312,31.0,40.0,10.0,14.0,2268.0,270.0,30.0
2.2265000343322754,45.0,22.0,29.0,12.0,1198.0,19.0,408.0
2.2280166149139404,11.0,26.0,99.0,10.0,73.0,786.0,5.0
2.2295334339141846,6.0,5.0,20.0,7.0,122.0,911.0,49.0
2.2310500144958496,14.0,14.0,21.0,19.0,20.0,1035.0,5.0
2.2325665950775146,16.0,12.0,63.0,10.0,16.0,40.0,16.0
2.234083414077759,17.0,10.0,24.0,0.0,12.0,13.0,5.0
2.235599994659424,25.0,39.0,29.0,18.0,38.0,6.0,32.0
2.2371833324432373,25.0,367.0,7.0,7.0,46.0,8.0,25.0
2.2386999130249023,19.0,222.0,6.0,9.0,44.0,6.0,19.0
2.2402167320251465,12.0,78.0,5.0,10.0,42.0,13.0,27.0
2.2417333126068115,15.0,2291.0,5.0,28.0,27.0,20.0,25.0
2.2432498931884766,17.0,3127.0,6.0,26.0,26.0,25.0,22.0
2.2447667121887207,5.0,1479.0,6.0,0.0,24.0,32.0,15.0
2.2462832927703857,9.0,1394.0,18.0,23.0,304.0,23.0,7.0
2.24780011177063,12.0,1707.0,31.0,28.0,171.0,14.0,6.0
2.249316692352295,15.0,127.0,15.0,28.0,39.0,39.0,10.0
2.25083327293396,53.0,780.0,0.0,37.0,17.0,24.0,5.0
2.252350091934204,46.0,1434.0,22.0,47.0,0.0,0.0,0.0
2.2539334297180176,14.0,2827.0,34.0,42.0,5.0,738.0,14.0
2.2554500102996826,5.0,4220.0,15.0,18.0,9.0,376.0,29.0
2.2569665908813477,18.0,3746.0,18.0,0.0,5.0,13.0,25.0
2.258483409881592,10.0,4020.0,23.0,23.0,18.0,59.0,22.0
2.259999990463257,11.0,3222.0,29.0,14.0,30.0,12.0,34.0
2.261516571044922,17.0,4397.0,6.0,5.0,41.0,11.0,12.0
2.263033390045166,5.0,3140.0,36.0,9.0,29.0,5.0,5.0
2.264549970626831,7.0,2229.0,38.0,16.0,24.0,23.0,5.0
2.266066551208496,11.0,4493.0,41.0,13.0,20.0,29.0,15.0
2.2675833702087402,9.0,5837.0,348.0,14.0,10.0,39.0,21.0
2.2690999507904053,6.0,4787.0,185.0,21.0,26.0,0.0,26.0
2.2706499099731445,6.0,6052.0,21.0,15.0,28.0,3.0,29.0
2.272183418273926,6.0,157.0,5.0,8.0,20.0,5.0,18.0
2.273699998855591,15.0,2246.0,179.0,20.0,12.0,12.0,18.0
2.275216579437256,10.0,4785.0,99.0,35.0,9.0,19.0,18.0
2.2767333984375,5.0,2102.0,19.0,430.0,5.0,16.0,0.0
2.278249979019165,3.0,2227.0,33.0,227.0,5.0,12.0,11.0
2.27976655960083,0.0,5757.0,19.0,25.0,37.0,0.0,5.0
2.281283378601074,3.0,527.0,6.0,29.0,328.0,9.0,322.0
2.2827999591827393,5.0,3602.0,0.0,18.0,184.0,17.0,166.0
2.2843167781829834,20.0,3915.0,16.0,5.0,41.0,11.0,10.0
2.2858333587646484,25.0,2920.0,317.0,8.0,5.0,21.0,49.0
2.2873499393463135,22.0,6067.0,168.0,7.0,699.0,18.0,14.0
2.288933277130127,18.0,5557.0,18.0,5.0,707.0,15.0,15.0
2.290450096130371,31.0,1332.0,16.0,229.0,37.0,5.0,11.0
2.291966676712036,44.0,3100.0,17.0,453.0,6.0,0.0,0.0
2.293483257293701,33.0,3558.0,18.0,558.0,22.0,0.0,10.0
2.2950000762939453,21.0,3301.0,29.0,35.0,22.0,0.0,16.0
2.2965166568756104,38.0,2477.0,31.0,42.0,0.0,13.0,5.0
2.2980332374572754,16.0,3807.0,34.0,37.0,13.0,9.0,12.0
2.2995500564575195,5.0,4110.0,42.0,7.0,10.0,5.0,17.0
2.302799940109253,21.0,3321.0,44.0,28.0,12.0,33.0,21.0
2.3061165809631348,10.0,3137.0,35.0,0.0,17.0,34.0,22.0
2.3093667030334473,28.0,3119.0,25.0,14.0,14.0,16.0,0.0
2.3126165866851807,14.0,3100.0,14.0,29.0,10.0,19.0,0.0
2.315866708755493,0.0,3962.0,5.0,11.0,6.0,21.0,23.0
2.3191165924072266,0.0,1484.0,357.0,213.0,332.0,10.0,19.0
2.322383403778076,28.0,4719.0,400.0,416.0,169.0,26.0,33.0
2.3256332874298096,16.0,392.0,442.0,480.0,5.0,13.0,24.0
2.328883409500122,5.0,1504.0,13.0,330.0,0.0,0.0,17.0
2.3321332931518555,0.0,1404.0,5.0,179.0,21.0,5.0,12.0
2.335383415222168,16.0,1386.0,20.0,0.0,43.0,10.0,5.0
2.33870005607605,19.0,524.0,11.0,16.0,31.0,23.0,22.0
2.341949939727783,22.0,348.0,220.0,32.0,18.0,20.0,12.0
2.3452000617980957,11.0,671.0,127.0,15.0,17.0,17.0,14.0
2.348449945449829,0.0,576.0,34.0,16.0,19.0,12.0,18.0
2.3517000675201416,13.0,299.0,489.0,16.0,21.0,21.0,5.0
2.354949951171875,0.0,22.0,252.0,19.0,53.0,26.0,15.0
2.3582499027252197,10.0,776.0,14.0,21.0,48.0,31.0,11.0
2.3615000247955322,15.0,16.0,1041.0,40.0,44.0,35.0,6.0
2.3647499084472656,10.0,22.0,791.0,58.0,47.0,40.0,6.0
2.3680167198181152,5.0,5.0,112.0,35.0,18.0,10.0,6.0
2.3712666034698486,15.0,30.0,5.0,11.0,26.0,73.0,9.0
2.3745665550231934,7.0,10.0,5.0,16.0,29.0,974.0,12.0
2.377816677093506,0.0,192.0,14.0,8.0,21.0,970.0,16.0
2.3810665607452393,18.0,99.0,32.0,5.0,16.0,16.0,15.0
2.3843166828155518,9.0,5.0,36.0,10.0,10.0,14.0,0.0
2.387566566467285,0.0,25.0,5.0,15.0,31.0,981.0,0.0
2.390883445739746,10.0,73.0,0.0,16.0,15.0,0.0,0.0
2.3941333293914795,5.0,37.0,0.0,16.0,0.0,12.0,13.0
2.397383451461792,14.0,0.0,33.0,0.0,8.0,34.0,25.0
2.4006333351135254,23.0,30.0,39.0,5.0,16.0,39.0,19.0
2.403883218765259,24.0,15.0,45.0,14.0,6.0,24.0,22.0
2.4072000980377197,0.0,14.0,51.0,26.0,0.0,47.0,24.0
2.410449981689453,47.0,19.0,58.0,24.0,13.0,0.0,0.0
2.4137001037597656,41.0,26.0,0.0,22.0,26.0,24.0,7.0
2.416949987411499,40.0,26.0,33.0,14.0,31.0,0.0,5.0
2.4202001094818115,40.0,26.0,0.0,0.0,35.0,8.0,8.0
2.4235167503356934,26.0,8.0,17.0,29.0,10.0,7.0,6.0
2.426783323287964,6.0,20.0,11.0,5.0,18.0,5.0,5.0
2.4300334453582764,14.0,25.0,14.0,39.0,5.0,10.0,24.0
2.4332833290100098,39.0,20.0,0.0,22.0,6.0,8.0,15.0
2.4365334510803223,46.0,14.0,31.0,5.0,5.0,5.0,6.0
2.4397833347320557,34.0,36.0,23.0,5.0,10.0,39.0,21.0
2.4430665969848633,22.0,29.0,5.0,30.0,5.0,44.0,13.0
2.446316719055176,10.0,21.0,18.0,23.0,0.0,11.0,15.0
2.449566602706909,37.0,21.0,32.0,16.0,22.0,32.0,19.0
2.4528167247772217,12.0,17.0,19.0,21.0,15.0,13.0,12.0
2.456066608428955,8.0,13.0,5.0,33.0,7.0,26.0,5.0
2.4593665599823,10.0,23.0,26.0,22.0,7.0,19.0,3.0
2.4626166820526123,0.0,0.0,30.0,12.0,0.0,32.0,0.0
2.4658665657043457,30.0,7.0,19.0,17.0,0.0,0.0,5.0
2.469116687774658,25.0,21.0,112.0,5.0,8.0,43.0,5.0
2.4723665714263916,0.0,20.0,73.0,7.0,14.0,10.0,5.0
2.4756834506988525,15.0,12.0,34.0,26.0,19.0,7.0,10.0
2.478933334350586,28.0,0.0,0.0,35.0,17.0,7.0,15.0
2.4821832180023193,11.0,24.0,13.0,20.0,15.0,13.0,16.0
2.485433340072632,23.0,43.0,42.0,12.0,13.0,18.0,37.0
2.4886832237243652,21.0,62.0,38.0,11.0,0.0,24.0,36.0
2.492000102996826,6.0,0.0,34.0,10.0,21.0,30.0,33.0
2.4952499866485596,11.0,0.0,38.0,15.0,19.0,23.0,19.0
2.498500108718872,16.0,47.0,17.0,20.0,16.0,28.0,7.0
2.5017499923706055,15.0,15.0,32.0,20.0,0.0,40.0,41.0
2.505000114440918,18.0,0.0,47.0,10.0,29.0,5.0,16.0
2.5083167552948,15.0,17.0,25.0,0.0,31.0,0.0,33.0
2.511566638946533,12.0,17.0,7.0,4.0,25.0,11.0,21.0
2.5148167610168457,29.0,7.0,11.0,7.0,19.0,31.0,11.0
2.518066644668579,18.0,6.0,15.0,11.0,5.0,41.0,0.0
2.5213167667388916,8.0,24.0,18.0,15.0,0.0,22.0,11.0
2.524600028991699,12.0,29.0,15.0,13.0,5.0,13.0,9.0
2.527883291244507,16.0,19.0,11.0,10.0,3.0,32.0,6.0
2.5311334133148193,10.0,22.0,15.0,5.0,0.0,35.0,6.0
2.5343832969665527,12.0,0.0,11.0,0.0,14.0,39.0,7.0
2.5376334190368652,0.0,17.0,7.0,14.0,28.0,44.0,7.0
2.5408833026885986,9.0,11.0,30.0,28.0,30.0,22.0,0.0
2.5441501140594482,11.0,5.0,17.0,21.0,17.0,21.0,6.0
2.5474166870117188,15.0,5.0,5.0,39.0,5.0,19.0,12.0
2.550666570663452,18.0,6.0,6.0,35.0,23.0,20.0,7.0
2.5539166927337646,0.0,6.0,16.0,31.0,0.0,10.0,5.0
2.557166576385498,28.0,18.0,35.0,28.0,9.0,6.0,6.0
2.560466766357422,11.0,15.0,23.0,25.0,0.0,6.0,15.0
2.5637166500091553,6.0,16.0,12.0,13.0,0.0,5.0,8.0
2.5669667720794678,20.0,17.0,0.0,0.0,0.0,13.0,0.0
2.570216655731201,20.0,33.0,6.0,0.0,11.0,15.0,12.0
2.5734667778015137,13.0,34.0,0.0,12.0,21.0,5.0,12.0
2.5767834186553955,5.0,7.0,0.0,23.0,16.0,10.0,11.0
2.580049991607666,25.0,18.0,3.0,47.0,94.0,17.0,5.0
2.5833001136779785,5.0,8.0,6.0,31.0,61.0,23.0,30.0
2.586549997329712,5.0,15.0,13.0,15.0,29.0,21.0,29.0
2.5897998809814453,33.0,22.0,10.0,33.0,19.0,24.0,29.0
2.5931167602539062,40.0,14.0,7.0,30.0,10.0,28.0,15.0
2.5963666439056396,48.0,23.0,37.0,27.0,5.0,29.0,39.0
2.599616765975952,14.0,10.0,27.0,0.0,19.0,41.0,13.0
2.6028666496276855,16.0,24.0,16.0,0.0,15.0,10.0,31.0
2.606116771697998,17.0,18.0,0.0,21.0,0.0,17.0,20.0
2.6093833446502686,40.0,12.0,16.0,0.0,12.0,7.0,0.0
2.612633228302002,34.0,5.0,13.0,12.0,7.0,14.0,0.0
2.6158833503723145,22.0,29.0,9.0,23.0,9.0,21.0,8.0
2.619133234024048,13.0,21.0,16.0,17.0,22.0,24.0,15.0
2.6223833560943604,12.0,13.0,11.0,14.0,35.0,10.0,16.0
2.6256332397460938,21.0,30.0,14.0,10.0,20.0,22.0,17.0
2.6289501190185547,14.0,34.0,17.0,7.0,6.0,16.0,18.0
2.632200002670288,7.0,18.0,18.0,5.0,148.0,9.0,21.0
2.6354498863220215,4.0,22.0,18.0,5.0,134.0,0.0,55.0
2.638700008392334,0.0,14.0,9.0,5.0,157.0,6.0,36.0
2.6419498920440674,0.0,15.0,19.0,8.0,179.0,11.0,17.0
2.6452667713165283,0.0,19.0,0.0,20.0,118.0,14.0,5.0
2.6485166549682617,0.0,15.0,20.0,32.0,57.0,16.0,44.0
2.651766777038574,0.0,11.0,14.0,34.0,8.0,14.0,16.0
2.6550166606903076,0.0,19.0,23.0,27.0,10.0,14.0,18.0
2.65826678276062,0.0,11.0,16.0,16.0,12.0,14.0,10.0
2.661583423614502,47.0,26.0,22.0,6.0,12.0,10.0,5.0
2.6648333072662354,978.0,0.0,11.0,263.0,12.0,13.0,15.0
2.668083429336548,1033.0,27.0,11.0,136.0,14.0,16.0,25.0
2.6713333129882812,10.0,21.0,11.0,8.0,15.0,14.0,41.0
2.6745834350585938,16.0,14.0,5.0,7.0,28.0,12.0,32.0
2.6779000759124756,40.0,12.0,0.0,5.0,20.0,9.0,30.0
2.681149959564209,33.0,10.0,0.0,28.0,13.0,5.0,49.0
2.6844000816345215,14.0,10.0,0.0,40.0,32.0,5.0,5.0
2.687649965286255,12.0,5.0,0.0,28.0,28.0,5.0,35.0
2.6909000873565674,31.0,0.0,3.0,5.0,23.0,0.0,64.0
2.694216728210449,16.0,5.0,5.0,27.0,38.0,16.0,16.0
2.6974666118621826,38.0,18.0,8.0,26.0,41.0,18.0,53.0
2.700716733932495,33.0,34.0,10.0,12.0,45.0,20.0,0.0
2.7039666175842285,11.0,34.0,5.0,14.0,16.0,12.0,10.0
2.707216739654541,9.0,27.0,0.0,33.0,6.0,17.0,24.0
2.7104666233062744,6.0,36.0,35.0,51.0,5.0,6.0,11.0
2.7137832641601562,5.0,18.0,36.0,49.0,16.0,13.0,5.0
2.7170333862304688,6.0,329.0,31.0,21.0,37.0,13.0,5.0
2.720283269882202,7.0,640.0,11.0,6.0,58.0,12.0,5.0
2.7235333919525146,11.0,781.0,6.0,32.0,40.0,0.0,5.0
2.726783275604248,15.0,29.0,20.0,5.0,22.0,5.0,0.0
2.73009991645813,18.0,0.0,25.0,24.0,16.0,48.0,10.0
2.7333500385284424,17.0,13.0,33.0,5.0,6.0,46.0,19.0
2.736599922180176,16.0,10.0,0.0,27.0,21.0,23.0,20.0
2.7398500442504883,0.0,7.0,11.0,36.0,0.0,19.0,14.0
2.7430999279022217,24.0,45.0,10.0,13.0,57.0,19.0,18.0
2.7464165687561035,24.0,58.0,5.0,8.0,55.0,18.0,60.0
2.749666690826416,23.0,1122.0,14.0,26.0,53.0,22.0,69.0
2.7529165744781494,15.0,870.0,14.0,21.0,73.0,10.0,16.0
2.756166696548462,6.0,11.0,14.0,16.0,5.0,5.0,10.0
2.7594165802001953,11.0,70.0,11.0,11.0,0.0,0.0,11.0
2.762683391571045,25.0,424.0,6.0,5.0,12.0,0.0,11.0
2.7659332752227783,32.0,702.0,0.0,0.0,23.0,0.0,10.0
2.769183397293091,227.0,779.0,17.0,14.0,16.0,5.0,8.0
2.772433280944824,423.0,855.0,29.0,9.0,8.0,17.0,5.0
2.7756834030151367,211.0,21.0,30.0,5.0,7.0,30.0,11.0
2.7790000438690186,0.0,751.0,26.0,53.0,5.0,26.0,17.0
2.782249927520752,380.0,946.0,22.0,27.0,30.0,22.0,11.0
2.7855000495910645,43.0,46.0,1429.0,0.0,31.0,14.0,5.0
2.788749933242798,45.0,5.0,1314.0,7.0,27.0,6.0,13.0
2.7920000553131104,47.0,93.0,60.0,12.0,0.0,6.0,8.0
2.795300006866455,12.0,60.0,757.0,17.0,31.0,23.0,17.0
2.7985832691192627,26.0,0.0,10.0,32.0,5.0,19.0,25.0
2.801833391189575,30.0,15.0,30.0,25.0,17.0,15.0,28.0
2.8050832748413086,13.0,13.0,26.0,51.0,5.0,10.0,31.0
2.808333396911621,754.0,10.0,65.0,49.0,6.0,14.0,42.0
2.8115832805633545,748.0,16.0,37.0,48.0,6.0,18.0,31.0
2.814850091934204,40.0,23.0,8.0,29.0,8.0,5.0,19.0
2.8180999755859375,18.0,30.0,27.0,10.0,12.0,50.0,5.0
2.82135009765625,541.0,20.0,45.0,31.0,27.0,60.0,12.0
2.8245999813079834,273.0,10.0,0.0,16.0,16.0,70.0,19.0
2.827850103378296,6.0,5.0,22.0,39.0,5.0,11.0,5.0
2.8311667442321777,11.0,438.0,0.0,22.0,5.0,31.0,21.0
2.834416627883911,16.0,228.0,5.0,5.0,22.0,14.0,5.0
2.8376667499542236,765.0,17.0,8.0,27.0,14.0,23.0,46.0
2.840916633605957,397.0,17.0,10.0,13.0,5.0,59.0,26.0
2.8441667556762695,29.0,17.0,15.0,10.0,30.0,32.0,7.0
2.8474833965301514,777.0,18.0,20.0,65.0,17.0,5.0,7.0
2.850749969482422,5.0,0.0,17.0,43.0,17.0,5.0,7.0
2.8540000915527344,39.0,19.0,13.0,20.0,28.0,11.0,20.0
2.8572499752044678,798.0,15.0,0.0,34.0,22.0,6.0,10.0
2.8605000972747803,15.0,11.0,0.0,23.0,10.0,0.0,0.0
2.863800048828125,45.0,19.0,3.0,21.0,0.0,13.0,9.0
2.8670499324798584,23.0,12.0,5.0,19.0,22.0,9.0,9.0
2.870300054550171,19.0,5.0,10.0,19.0,41.0,5.0,0.0
2.8735499382019043,37.0,18.0,14.0,16.0,86.0,31.0,11.0
2.876800060272217,41.0,15.0,13.0,21.0,53.0,26.0,17.0
2.8801167011260986,46.0,12.0,12.0,29.0,19.0,21.0,12.0
2.883366584777832,34.0,0.0,5.0,0.0,15.0,17.0,6.0
2.8866167068481445,19.0,17.0,5.0,21.0,10.0,16.0,14.0
2.889866590499878,5.0,37.0,12.0,23.0,0.0,17.0,14.0
2.8931167125701904,10.0,29.0,19.0,21.0,44.0,24.0,0.0
2.896366596221924,0.0,61.0,36.0,7.0,39.0,7.0,5.0
2.8996665477752686,7.0,59.0,18.0,21.0,51.0,5.0,10.0
2.902916669845581,12.0,22.0,0.0,5.0,27.0,15.0,11.0
2.9061665534973145,15.0,8.0,5.0,11.0,51.0,0.0,5.0
2.909433364868164,18.0,54.0,13.0,37.0,19.0,44.0,0.0
2.9126832485198975,19.0,10.0,22.0,40.0,48.0,39.0,26.0
2.9159834384918213,20.0,5.0,31.0,13.0,0.0,28.0,27.0
2.9192333221435547,29.0,6.0,20.0,21.0,16.0,0.0,22.0
2.922483444213867,38.0,6.0,6.0,22.0,16.0,42.0,12.0
2.9257333278656006,968.0,6.0,10.0,15.0,16.0,35.0,19.0
2.928983449935913,835.0,0.0,14.0,0.0,12.0,13.0,15.0
2.932300090789795,703.0,8.0,12.0,3.0,6.0,31.0,11.0
2.9355499744415283,32.0,7.0,28.0,5.0,0.0,32.0,24.0
2.938800096511841,5.0,7.0,25.0,9.0,7.0,11.0,12.0
2.942049980163574,29.0,10.0,22.0,8.0,14.0,18.0,0.0
2.9453001022338867,13.0,12.0,11.0,7.0,16.0,17.0,5.0
2.9485666751861572,252.0,15.0,0.0,4.0,17.0,16.0,5.0
2.9518165588378906,490.0,17.0,0.0,0.0,5.0,43.0,5.0
2.955066680908203,249.0,18.0,3.0,22.0,22.0,42.0,19.0
2.9583165645599365,7.0,19.0,5.0,20.0,24.0,17.0,14.0
2.961566686630249,6.0,20.0,5.0,31.0,12.0,52.0,8.0
2.964883327484131,0.0,24.0,5.0,11.0,13.0,0.0,14.0
2.9681334495544434,3.0,8.0,13.0,13.0,13.0,33.0,10.0
2.9713833332061768,5.0,17.0,9.0,16.0,7.0,15.0,5.0
2.97463321685791,12.0,17.0,5.0,7.0,0.0,15.0,34.0
2.9778833389282227,12.0,17.0,39.0,8.0,6.0,5.0,22.0
2.981133222579956,12.0,14.0,31.0,30.0,11.0,24.0,11.0
2.98443341255188,309.0,12.0,23.0,36.0,16.0,32.0,11.0
2.9876832962036133,160.0,10.0,12.0,42.0,8.0,40.0,20.0
2.990933418273926,12.0,0.0,0.0,49.0,0.0,22.0,0.0
2.9941999912261963,35.0,0.0,20.0,5.0,11.0,10.0,0.0
