,303.1099853515625,304.1099853515625,305.1099853515625,306.1099853515625,307.1099853515625,308.1099853515625
0.5012999773025513,54.0,23.0,6.0,46.0,18.0,25.0
0.5026000142097473,29.0,12.0,12.0,0.0,12.0,33.0
0.5038999915122986,65.0,42.0,25.0,48.0,337.0,5.0
0.5052000284194946,27.0,42.0,25.0,31.0,17.0,48.0
0.5065000057220459,30.0,41.0,26.0,6.0,17.0,0.0
0.5077999830245972,27.0,10.0,23.0,26.0,22.0,5.0
0.5091000199317932,19.0,22.0,20.0,29.0,18.0,8.0
0.5103999972343445,0.0,17.0,17.0,33.0,14.0,4.0
0.5116999745368958,32.0,30.0,10.0,11.0,8.0,0.0
0.5130000114440918,46.0,29.0,26.0,20.0,18.0,21.0
0.5142999887466431,23.0,28.0,26.0,51.0,21.0,26.0
0.5156000256538391,35.0,28.0,11.0,40.0,14.0,8.0
0.5169000029563904,34.0,29.0,12.0,30.0,8.0,31.0
0.5182666778564453,33.0,33.0,13.0,29.0,16.0,14.0
0.5195666551589966,30.0,21.0,13.0,29.0,13.0,23.0
0.5208666920661926,30.0,22.0,12.0,7.0,26.0,32.0
0.5221666693687439,47.0,0.0,0.0,13.0,23.0,25.0
0.5234666466712952,0.0,31.0,37.0,13.0,21.0,0.0
0.5247666835784912,32.0,17.0,86.0,6.0,27.0,44.0
0.5260666608810425,7.0,6.0,58.0,24.0,32.0,30.0
0.5273666381835938,8.0,0.0,31.0,29.0,28.0,20.0
0.5286666750907898,9.0,7.0,13.0,33.0,24.0,31.0
0.5299666523933411,13.0,13.0,22.0,35.0,11.0,14.0
0.5312666893005371,7.0,22.0,20.0,30.0,23.0,17.0
0.5325666666030884,0.0,31.0,11.0,10.0,19.0,20.0
0.5338666439056396,43.0,22.0,12.0,32.0,16.0,28.0
0.5352166891098022,34.0,12.0,23.0,5.0,14.0,26.0
0.5365166664123535,23.0,53.0,18.0,3.0,12.0,24.0
0.5378166437149048,21.0,33.0,12.0,0.0,20.0,5.0
0.5391166806221008,12.0,13.0,21.0,0.0,27.0,34.0
0.5404166579246521,12.0,0.0,0.0,0.0,30.0,47.0
0.5417166948318481,11.0,25.0,6.0,10.0,32.0,59.0
0.5430166721343994,25.0,55.0,27.0,21.0,101.0,18.0
0.5443333387374878,23.0,38.0,27.0,25.0,82.0,32.0
0.5456166863441467,21.0,30.0,0.0,29.0,41.0,50.0
0.546916663646698,20.0,22.0,11.0,0.0,72.0,249.0
0.5482166409492493,19.0,10.0,28.0,6.0,12.0,448.0
0.5495166778564453,26.0,16.0,17.0,11.0,15.0,246.0
0.5508166551589966,32.0,93.0,6.0,20.0,17.0,43.0
0.5521833300590515,32.0,74.0,26.0,39.0,16.0,339.0
0.5534833073616028,10.0,57.0,0.0,49.0,14.0,13.0
0.5547833442687988,8.0,40.0,7.0,11.0,12.0,48.0
0.5560833215713501,5.0,74.0,8.0,22.0,26.0,31.0
0.5573833584785461,8.0,25.0,8.0,17.0,24.0,19.0
0.5586833357810974,10.0,38.0,9.0,20.0,0.0,8.0
0.5599833130836487,5.0,58.0,10.0,24.0,0.0,21.0
0.5612833499908447,0.0,40.0,19.0,29.0,7.0,6.0
0.562583327293396,16.0,22.0,13.0,11.0,19.0,18.0
0.5638833045959473,21.0,6.0,8.0,34.0,22.0,30.0
0.5651833415031433,26.0,19.0,14.0,20.0,21.0,0.0
0.5664833188056946,20.0,26.0,18.0,33.0,21.0,21.0
0.5677833557128906,0.0,34.0,22.0,33.0,16.0,42.0
0.5691333413124084,22.0,14.0,26.0,20.0,11.0,5.0
0.5704333186149597,32.0,19.0,16.0,10.0,7.0,39.0
0.5717333555221558,39.0,24.0,6.0,0.0,16.0,16.0
0.573033332824707,31.0,22.0,0.0,3.0,21.0,28.0
0.5743333101272583,11.0,28.0,5.0,5.0,26.0,26.0
0.5756333470344543,7.0,11.0,9.0,0.0,22.0,31.0
0.5769333243370056,0.0,31.0,16.0,47.0,34.0,14.0
0.5782333612442017,7.0,33.0,30.0,39.0,17.0,16.0
0.5795333385467529,14.0,32.0,41.0,24.0,0.0,18.0
0.5808333158493042,10.0,31.0,0.0,18.0,0.0,21.0
0.5821333527565002,5.0,22.0,6.0,24.0,5.0,0.0
0.5834333300590515,25.0,12.0,17.0,25.0,9.0,12.0
0.5847333073616028,24.0,28.0,19.0,26.0,31.0,26.0
0.5860999822616577,23.0,23.0,22.0,26.0,39.0,10.0
0.5874000191688538,33.0,18.0,5.0,29.0,21.0,6.0
0.588699996471405,43.0,18.0,5.0,33.0,9.0,9.0
0.5899999737739563,25.0,9.0,13.0,34.0,38.0,11.0
0.5913000106811523,6.0,5.0,14.0,24.0,25.0,10.0
0.5925999879837036,36.0,8.0,17.0,13.0,0.0,5.0
0.5939000248908997,39.0,10.0,0.0,11.0,17.0,5.0
0.5952000021934509,0.0,15.0,6.0,17.0,19.0,5.0
0.5964999794960022,10.0,10.0,12.0,22.0,5.0,10.0
0.5978000164031982,21.0,5.0,19.0,5.0,11.0,16.0
0.5990999937057495,45.0,10.0,16.0,5.0,13.0,22.0
0.6003999710083008,36.0,12.0,13.0,24.0,17.0,23.0
0.6017000079154968,27.0,5.0,45.0,19.0,21.0,24.0
0.6030499935150146,36.0,10.0,33.0,11.0,0.0,10.0
0.604366660118103,21.0,16.0,22.0,8.0,3.0,7.0
0.605650007724762,19.0,17.0,17.0,16.0,5.0,12.0
0.6069499850273132,53.0,18.0,0.0,28.0,10.0,0.0
0.6082500219345093,32.0,31.0,16.0,31.0,11.0,32.0
0.6095499992370605,10.0,35.0,67.0,23.0,11.0,30.0
0.6108499765396118,20.0,38.0,51.0,20.0,5.0,28.0
0.6121500134468079,31.0,5.0,34.0,18.0,5.0,25.0
0.6134499907493591,18.0,8.0,17.0,21.0,5.0,9.0
0.6147500276565552,5.0,46.0,57.0,20.0,34.0,5.0
0.6160500049591064,17.0,0.0,5.0,20.0,35.0,13.0
0.6173499822616577,14.0,0.0,6.0,23.0,19.0,9.0
0.6186500191688538,11.0,6.0,7.0,15.0,20.0,5.0
0.6200166940689087,12.0,23.0,31.0,6.0,13.0,19.0
0.62131667137146,16.0,29.0,28.0,21.0,22.0,10.0
0.6226166486740112,5.0,13.0,25.0,20.0,12.0,0.0
0.6239166855812073,3.0,12.0,34.0,12.0,10.0,37.0
0.6252166628837585,0.0,19.0,37.0,21.0,7.0,27.0
0.6265166401863098,14.0,10.0,39.0,29.0,17.0,39.0
0.6278166770935059,24.0,5.0,32.0,40.0,29.0,32.0
0.6291166543960571,33.0,22.0,5.0,53.0,34.0,19.0
0.6304166913032532,31.0,15.0,28.0,65.0,18.0,36.0
0.6317166686058044,29.0,8.0,13.0,18.0,5.0,34.0
0.6330166459083557,0.0,23.0,72.0,22.0,5.0,19.0
0.6343166828155518,4.0,11.0,56.0,39.0,33.0,28.0
0.635616660118103,7.0,26.0,0.0,30.0,31.0,27.0
0.6369666457176208,11.0,21.0,13.0,16.0,10.0,25.0
0.6382666826248169,11.0,17.0,52.0,19.0,39.0,26.0
0.6395666599273682,6.0,22.0,10.0,38.0,14.0,8.0
0.6408666372299194,0.0,20.0,13.0,45.0,25.0,5.0
0.6421666741371155,17.0,19.0,12.0,53.0,32.0,24.0
0.6434666514396667,28.0,31.0,6.0,5.0,6.0,5.0
0.6447666883468628,37.0,32.0,22.0,0.0,22.0,12.0
0.6460666656494141,45.0,32.0,14.0,20.0,21.0,20.0
0.6473666429519653,34.0,23.0,5.0,17.0,28.0,6.0
0.6486666798591614,20.0,35.0,32.0,14.0,26.0,9.0
0.6499666571617126,17.0,36.0,25.0,11.0,24.0,11.0
0.6512666940689087,0.0,36.0,63.0,22.0,36.0,23.0
0.65256667137146,10.0,22.0,54.0,25.0,34.0,36.0
0.6539333462715149,21.0,9.0,27.0,30.0,35.0,29.0
0.6552333235740662,17.0,20.0,48.0,26.0,31.0,25.0
0.6565333604812622,12.0,57.0,46.0,22.0,0.0,21.0
0.6578333377838135,21.0,49.0,21.0,18.0,26.0,26.0
0.6591333150863647,29.0,8.0,57.0,13.0,22.0,31.0
0.6604333519935608,0.0,5.0,29.0,0.0,19.0,14.0
0.6617333292961121,27.0,7.0,30.0,22.0,24.0,10.0
0.6630333065986633,22.0,51.0,21.0,19.0,9.0,39.0
0.6643333435058594,18.0,41.0,32.0,16.0,20.0,24.0
0.6656333208084106,13.0,22.0,24.0,5.0,20.0,49.0
0.6669333577156067,6.0,0.0,5.0,11.0,12.0,29.0
0.668233335018158,21.0,34.0,0.0,31.0,23.0,5.0
0.6695333123207092,34.0,26.0,0.0,53.0,200.0,29.0
0.6708999872207642,30.0,18.0,3.0,42.0,105.0,52.0
0.6722000241279602,27.0,46.0,5.0,10.0,10.0,43.0
0.6735000014305115,5.0,5.0,28.0,5.0,13.0,40.0
0.6747999787330627,27.0,12.0,103.0,13.0,9.0,54.0
0.6761000156402588,35.0,20.0,51.0,5.0,5.0,24.0
0.6773999929428101,5.0,24.0,0.0,11.0,23.0,37.0
0.6786999702453613,10.0,10.0,26.0,10.0,35.0,10.0
0.6800000071525574,18.0,10.0,28.0,17.0,48.0,41.0
0.6812999844551086,16.0,11.0,21.0,23.0,0.0,32.0
0.6826000213623047,18.0,12.0,14.0,25.0,0.0,22.0
0.683899998664856,40.0,6.0,25.0,19.0,39.0,32.0
0.6851999759674072,38.0,0.0,17.0,23.0,16.0,19.0
0.6865000128746033,35.0,12.0,8.0,18.0,16.0,5.0
0.6878499984741211,5.0,25.0,43.0,16.0,17.0,12.0
0.6891499757766724,6.0,77.0,35.0,13.0,32.0,19.0
0.6904500126838684,5.0,60.0,8.0,9.0,32.0,14.0
0.6917499899864197,6.0,0.0,24.0,5.0,46.0,23.0
0.6930500268936157,0.0,25.0,0.0,10.0,0.0,38.0
0.694350004196167,21.0,17.0,43.0,16.0,37.0,35.0
0.6956499814987183,23.0,18.0,34.0,22.0,50.0,11.0
0.6969500184059143,60.0,24.0,0.0,30.0,27.0,19.0
0.6982499957084656,46.0,22.0,27.0,23.0,5.0,16.0
0.6995499730110168,16.0,20.0,27.0,14.0,19.0,5.0
0.7008500099182129,72.0,13.0,0.0,17.0,5.0,13.0
0.7021499872207642,40.0,0.0,31.0,26.0,18.0,32.0
0.7034500241279602,32.0,5.0,18.0,36.0,30.0,29.0
0.7048166394233704,12.0,8.0,43.0,38.0,32.0,16.0
0.7061166763305664,0.0,52.0,31.0,39.0,13.0,6.0
0.7074166536331177,29.0,38.0,30.0,28.0,33.0,33.0
0.7087166905403137,43.0,25.0,29.0,18.0,59.0,37.0
0.710016667842865,33.0,0.0,20.0,11.0,66.0,38.0
0.7113166451454163,14.0,5.0,24.0,25.0,36.0,32.0
0.7126166820526123,51.0,5.0,17.0,12.0,10.0,26.0
0.7139166593551636,40.0,7.0,8.0,0.0,17.0,51.0
0.7152166962623596,30.0,7.0,0.0,34.0,0.0,59.0
0.7165166735649109,31.0,27.0,41.0,18.0,13.0,5.0
0.7178166508674622,34.0,28.0,45.0,16.0,18.0,18.0
0.7191166877746582,22.0,25.0,49.0,26.0,23.0,25.0
0.7204166650772095,5.0,5.0,5.0,16.0,46.0,19.0
0.7217666506767273,58.0,17.0,26.0,6.0,37.0,15.0
0.7230666875839233,46.0,28.0,34.0,28.0,28.0,11.0
0.7243666648864746,13.0,0.0,42.0,14.0,0.0,8.0
0.7256666421890259,51.0,10.0,5.0,34.0,50.0,22.0
0.7269666790962219,39.0,17.0,33.0,37.0,117.0,17.0
0.7282666563987732,19.0,23.0,42.0,38.0,97.0,11.0
0.7295666933059692,23.0,16.0,22.0,24.0,78.0,32.0
0.7308666706085205,0.0,9.0,21.0,40.0,48.0,22.0
0.7321666479110718,13.0,24.0,11.0,57.0,41.0,11.0
0.7334666848182678,27.0,0.0,30.0,5.0,45.0,8.0
0.7347666621208191,0.0,34.0,33.0,38.0,58.0,5.0
0.7360666394233704,8.0,26.0,20.0,5.0,21.0,0.0
0.7373666763305664,16.0,18.0,8.0,17.0,12.0,12.0
0.7387333512306213,6.0,14.0,14.0,7.0,22.0,24.0
0.7400333285331726,0.0,10.0,16.0,5.0,32.0,30.0
0.7413333058357239,36.0,21.0,17.0,18.0,29.0,13.0
0.7426333427429199,56.0,18.0,31.0,25.0,59.0,32.0
0.7439333200454712,77.0,16.0,32.0,29.0,32.0,27.0
0.7452333569526672,6.0,10.0,39.0,34.0,5.0,23.0
0.7465333342552185,41.0,5.0,18.0,30.0,5.0,5.0
0.7478333115577698,71.0,50.0,24.0,25.0,21.0,44.0
0.7491333484649658,22.0,39.0,7.0,23.0,21.0,45.0
0.7504333257675171,35.0,52.0,11.0,22.0,22.0,20.0
0.7517333626747131,49.0,55.0,16.0,11.0,0.0,13.0
0.7530333399772644,45.0,38.0,5.0,6.0,12.0,7.0
0.7543333172798157,0.0,23.0,32.0,5.0,11.0,12.0
0.7556833624839783,5.0,7.0,38.0,19.0,10.0,18.0
0.7569833397865295,20.0,31.0,37.0,9.0,24.0,29.0
0.7582833170890808,16.0,18.0,35.0,0.0,18.0,18.0
0.7595833539962769,12.0,23.0,32.0,32.0,12.0,6.0
0.7608833312988281,0.0,34.0,28.0,64.0,39.0,17.0
0.7621833086013794,12.0,33.0,34.0,48.0,30.0,23.0
0.7634833455085754,19.0,5.0,28.0,10.0,22.0,24.0
0.7647833228111267,16.0,44.0,23.0,35.0,20.0,25.0
0.7660833597183228,12.0,27.0,17.0,18.0,19.0,16.0
0.7674000263214111,9.0,30.0,18.0,6.0,18.0,6.0
0.7686833143234253,17.0,44.0,19.0,31.0,27.0,20.0
0.7699833512306213,21.0,40.0,25.0,19.0,20.0,14.0
0.7712833285331726,17.0,20.0,0.0,40.0,13.0,8.0
0.7726500034332275,12.0,16.0,6.0,34.0,26.0,18.0
0.7739499807357788,38.0,21.0,5.0,28.0,13.0,15.0
0.7752500176429749,22.0,5.0,7.0,33.0,5.0,12.0
0.7765499949455261,5.0,5.0,7.0,37.0,39.0,19.0
0.7778499722480774,32.0,5.0,7.0,29.0,39.0,32.0
0.7791500091552734,32.0,31.0,20.0,13.0,18.0,24.0
0.7804499864578247,7.0,30.0,21.0,19.0,5.0,17.0
0.7817500233650208,12.0,5.0,5.0,21.0,21.0,27.0
0.783050000667572,5.0,27.0,11.0,12.0,0.0,30.0
0.7843499779701233,21.0,27.0,16.0,23.0,24.0,27.0
0.7856500148773193,17.0,34.0,23.0,21.0,20.0,31.0
0.7869499921798706,21.0,22.0,0.0,19.0,17.0,10.0
0.7882500290870667,21.0,9.0,39.0,13.0,28.0,17.0
0.7896000146865845,21.0,28.0,2036.0,8.0,1843.0,53.0
0.7908999919891357,5.0,5967.0,3190.0,1019.0,1948.0,618.0
0.7922000288963318,16.0,14284.0,11808.0,8420.0,4799.0,2521.0
0.7935000061988831,10.0,46976.0,23824.0,18748.0,10296.0,6349.0
0.7947999835014343,5.0,73504.0,68144.0,36064.0,35648.0,4766.0
0.7961000204086304,19.0,97424.0,95408.0,45568.0,47840.0,17924.0
0.7973999977111816,12.0,107360.0,133312.0,88448.0,65104.0,23324.0
0.7986999750137329,5.0,215168.0,193920.0,110000.0,76960.0,22216.0
0.800000011920929,89.0,224768.0,229952.0,141056.0,87296.0,25896.0
0.8012999892234802,64.0,274432.0,284160.0,133568.0,100080.0,26256.0
0.8026000261306763,38.0,267456.0,250112.0,153088.0,112848.0,26616.0
0.8039000034332275,24.0,263424.0,309440.0,152704.0,118016.0,43840.0
0.8051999807357788,475.0,288064.0,273920.0,160576.0,117376.0,40528.0
0.8065666556358337,516.0,308032.0,286144.0,151360.0,122480.0,30888.0
0.8078666925430298,68.0,293952.0,281408.0,168832.0,122752.0,31824.0
0.809166669845581,90.0,288064.0,280128.0,168768.0,123024.0,34064.0
0.8104666471481323,75.0,300544.0,278848.0,163840.0,137408.0,36304.0
0.8117666840553284,59.0,294208.0,282624.0,161408.0,134976.0,33248.0
0.8130666613578796,32.0,264064.0,286336.0,154368.0,105376.0,30184.0
0.8143666386604309,5.0,256064.0,297984.0,165440.0,118256.0,30408.0
0.815666675567627,24.0,279680.0,297152.0,165376.0,135616.0,30628.0
0.8169666528701782,44.0,249344.0,291008.0,165248.0,127328.0,35408.0
0.8182666897773743,21.0,266432.0,284288.0,148544.0,114944.0,31604.0
0.8195666670799255,13.0,222016.0,270720.0,161216.0,97984.0,27800.0
0.8208666443824768,5.0,266752.0,250880.0,153216.0,114848.0,33392.0
0.8221666812896729,24.0,224576.0,240064.0,151744.0,96656.0,26844.0
0.8235333561897278,20.0,193216.0,228608.0,136000.0,78448.0,25552.0
0.824833333492279,17.0,191488.0,220608.0,125648.0,68128.0,25452.0
0.8261333107948303,40.0,177216.0,185664.0,116672.0,74640.0,26620.0
0.8274333477020264,26.0,166400.0,175872.0,80960.0,57712.0,27092.0
0.8287333250045776,12.0,138304.0,165952.0,93200.0,42864.0,27564.0
0.8300333619117737,49.0,121392.0,147072.0,71296.0,47456.0,16948.0
0.831333339214325,19.0,106464.0,112256.0,53968.0,43072.0,15400.0
0.8326333165168762,15.0,82000.0,83968.0,60512.0,45248.0,11200.0
0.8339333534240723,10.0,84512.0,84704.0,44928.0,29484.0,11744.0
0.8352333307266235,24.0,51216.0,52336.0,33184.0,24212.0,10960.0
0.8365333080291748,0.0,50208.0,44576.0,24664.0,20032.0,5576.0
0.8378333449363708,49.0,35840.0,40640.0,24984.0,13780.0,4120.0
0.8391333222389221,54.0,29064.0,37904.0,21536.0,14192.0,3144.0
0.8404833078384399,41.0,31664.0,34576.0,15736.0,10020.0,3540.0
0.841783344745636,13.0,22444.0,34928.0,9288.0,7137.0,4286.0
0.8430833220481873,12.0,18620.0,16824.0,9880.0,11596.0,3399.0
0.8443833589553833,19.0,18132.0,12604.0,4446.0,9580.0,1510.0
0.8456833362579346,14.0,10276.0,15552.0,8492.0,4306.0,1428.0
0.8469833135604858,9.0,14620.0,8748.0,6692.0,1689.0,2487.0
0.8482833504676819,11.0,13952.0,11512.0,6198.0,4011.0,2629.0
0.8495833277702332,12.0,11700.0,9228.0,4297.0,4118.0,18.0
0.8508833050727844,52.0,9604.0,11672.0,8788.0,1546.0,2791.0
0.8521833419799805,56.0,7257.0,12636.0,7110.0,1982.0,2930.0
0.8534833192825317,0.0,9192.0,5644.0,2283.0,2225.0,22.0
0.8547833561897278,35.0,8960.0,7603.0,2255.0,1742.0,19.0
0.856083333492279,43.0,9284.0,3459.0,2141.0,4025.0,924.0
0.857450008392334,53.0,7676.0,6214.0,2274.0,4388.0,189.0
0.8587499856948853,42.0,3691.0,5419.0,2407.0,1035.0,810.0
0.8600500226020813,22.0,6511.0,4401.0,2377.0,1353.0,1431.0
0.8613499999046326,31.0,6021.0,6277.0,2346.0,1772.0,2001.0
0.8626499772071838,40.0,4888.0,863.0,3963.0,1937.0,1280.0
0.8639500141143799,24.0,3754.0,2906.0,3979.0,2102.0,153.0
0.8652499914169312,28.0,6272.0,1242.0,2807.0,1845.0,54.0
0.8665500283241272,42.0,5209.0,2360.0,353.0,1588.0,237.0
0.8678500056266785,39.0,4145.0,3479.0,5745.0,2779.0,674.0
0.8691499829292297,8.0,6203.0,4187.0,648.0,22.0,635.0
0.8704500198364258,47.0,5841.0,7018.0,581.0,1298.0,35.0
0.871749997138977,0.0,8560.0,5941.0,1268.0,1629.0,30.0
0.8730499744415283,29.0,7504.0,2661.0,1391.0,1706.0,25.0
0.8744000196456909,39.0,4332.0,2471.0,1985.0,1898.0,10.0
0.8756999969482422,20.0,8660.0,5901.0,2642.0,587.0,37.0
0.8769999742507935,17.0,4492.0,4287.0,3299.0,301.0,30.0
0.8783000111579895,18.0,5373.0,4543.0,604.0,16.0,23.0
0.8795999884605408,24.0,2932.0,4230.0,68.0,488.0,1083.0
0.8809000253677368,23.0,3105.0,5743.0,2847.0,1049.0,565.0
0.8822000026702881,22.0,6291.0,2566.0,1599.0,821.0,48.0
0.8834999799728394,28.0,4627.0,3390.0,1524.0,592.0,11.0
0.8848000168800354,9.0,4506.0,1291.0,1674.0,1171.0,569.0
0.8860999941825867,8.0,5763.0,2705.0,1927.0,52.0,17.0
0.8873999714851379,17.0,1227.0,1462.0,2397.0,47.0,54.0
0.888700008392334,8.0,4863.0,2569.0,2867.0,755.0,17.0
0.8899999856948853,0.0,4815.0,821.0,200.0,410.0,23.0
0.8913666605949402,16.0,5727.0,1217.0,2300.0,65.0,28.0
0.8926666378974915,19.0,4557.0,1614.0,663.0,1122.0,14.0
0.8939666748046875,7.0,4815.0,2055.0,1848.0,1891.0,10.0
0.8952666521072388,4.0,3402.0,1743.0,1772.0,2368.0,5.0
0.8965666890144348,0.0,2383.0,1430.0,3036.0,1092.0,8.0
0.8978666663169861,9.0,4934.0,1349.0,2630.0,338.0,28.0
0.8991666436195374,18.0,5252.0,1267.0,1071.0,443.0,29.0
0.9004666805267334,23.0,5351.0,1579.0,1112.0,54.0,13.0
0.9017666578292847,26.0,2546.0,2787.0,1447.0,1381.0,19.0
0.9030666947364807,10.0,3830.0,3041.0,754.0,1667.0,24.0
0.904366672039032,51.0,5418.0,3289.0,62.0,517.0,11.0
0.9056666493415833,39.0,4832.0,3600.0,1830.0,1778.0,11.0
0.9069666862487793,23.0,4245.0,4657.0,1817.0,20.0,10.0
0.9083166718482971,6.0,4049.0,1520.0,846.0,681.0,24.0
0.9096166491508484,3.0,4941.0,2679.0,1726.0,63.0,38.0
0.9109166860580444,0.0,5832.0,3703.0,1415.0,728.0,30.0
0.9122166633605957,3.0,2516.0,11.0,1104.0,1069.0,22.0
0.913516640663147,5.0,7702.0,903.0,1530.0,1410.0,11.0
0.914816677570343,52.0,7861.0,2391.0,194.0,1686.0,56.0
0.9161166548728943,47.0,5606.0,2508.0,30.0,13.0,232.0
0.9174166917800903,41.0,6469.0,3113.0,1819.0,38.0,124.0
0.9187166690826416,35.0,5230.0,2811.0,820.0,39.0,16.0
0.9200166463851929,28.0,1871.0,2508.0,950.0,23.0,21.0
0.9213166832923889,37.0,7418.0,2106.0,1080.0,6.0,27.0
0.9226166605949402,29.0,7341.0,1564.0,23.0,1399.0,33.0
0.9239166378974915,30.0,9832.0,1783.0,889.0,1238.0,20.0
0.9252833127975464,36.0,8232.0,261.0,1009.0,613.0,7.0
0.9265833497047424,64.0,8268.0,723.0,1129.0,623.0,24.0
0.9278833270072937,127.0,7094.0,1185.0,1452.0,738.0,233.0
0.929183304309845,82.0,7634.0,3049.0,5.0,816.0,784.0
0.930483341217041,37.0,3118.0,3285.0,1424.0,285.0,846.0
0.9317833185195923,29.0,7058.0,2883.0,1640.0,583.0,17.0
0.9330833554267883,11.0,6719.0,2595.0,467.0,29.0,201.0
0.9343833327293396,9.0,4945.0,2306.0,547.0,5.0,25.0
0.9356833100318909,28.0,7386.0,926.0,28.0,48.0,14.0
0.9369833469390869,33.0,4909.0,1067.0,1139.0,1562.0,22.0
0.9382833242416382,10.0,5190.0,1506.0,1003.0,1305.0,29.0
0.9395833611488342,36.0,4686.0,1167.0,866.0,34.0,43.0
0.9408833384513855,26.0,4007.0,2057.0,5.0,1219.0,37.0
0.9422333240509033,28.0,4431.0,2411.0,1493.0,5.0,427.0
0.9435333609580994,5.0,4856.0,2764.0,1104.0,549.0,237.0
0.9448333382606506,14.0,5105.0,3248.0,644.0,24.0,48.0
0.9461333155632019,23.0,4488.0,3924.0,1082.0,667.0,20.0
0.947433352470398,25.0,3871.0,3483.0,7.0,340.0,5.0
0.9487333297729492,45.0,4676.0,2054.0,1228.0,12.0,18.0
0.9500333070755005,25.0,6640.0,1670.0,630.0,515.0,20.0
0.9513333439826965,5.0,4715.0,0.0,1476.0,669.0,22.0
0.9526333212852478,7.0,2789.0,3025.0,1385.0,823.0,336.0
0.9539333581924438,14.0,3560.0,1018.0,1048.0,5.0,649.0
0.9552333354949951,5.0,4331.0,859.0,405.0,153.0,325.0
0.9565333127975464,26.0,4687.0,1438.0,1784.0,302.0,0.0
0.9578333497047424,32.0,4504.0,1693.0,28.0,614.0,11.0
0.9592000246047974,17.0,4321.0,1624.0,1633.0,665.0,35.0
0.9605000019073486,12.0,3682.0,1555.0,1167.0,716.0,26.0
0.9617999792098999,23.0,3043.0,1031.0,526.0,605.0,17.0
0.963100016117096,37.0,2794.0,508.0,803.0,1443.0,19.0
0.9643999934196472,47.0,3302.0,1526.0,1081.0,1751.0,22.0
0.9656999707221985,31.0,4620.0,720.0,139.0,2045.0,10.0
0.9670000076293945,45.0,4107.0,868.0,2587.0,717.0,8.0
0.9682999849319458,12.0,3594.0,0.0,3111.0,734.0,5.0
0.9696000218391418,42.0,4234.0,348.0,2930.0,949.0,27.0
0.9708999991416931,31.0,4924.0,798.0,384.0,818.0,21.0
0.9721999764442444,13.0,1439.0,151.0,2786.0,687.0,14.0
0.9735000133514404,30.0,2140.0,2422.0,2586.0,61.0,0.0
0.9747999906539917,14.0,5628.0,2000.0,857.0,49.0,11.0
0.9761499762535095,29.0,2229.0,1393.0,1086.0,37.0,10.0
0.9774500131607056,55.0,6906.0,1118.0,685.0,28.0,23.0
0.9787499904632568,54.0,5658.0,3110.0,1135.0,20.0,49.0
0.9800500273704529,30.0,1380.0,2874.0,1586.0,361.0,43.0
0.9813500046730042,21.0,4508.0,2005.0,1492.0,925.0,18.0
0.9826499819755554,21.0,7466.0,1045.0,1000.0,1290.0,49.0
0.9839500188827515,13.0,3088.0,694.0,509.0,1184.0,19.0
0.9852499961853027,18.0,4211.0,1693.0,28.0,45.0,30.0
0.986549973487854,12.0,3791.0,1044.0,768.0,1766.0,63.0
0.98785001039505,7.0,3807.0,2734.0,458.0,413.0,62.0
0.9891499876976013,24.0,1271.0,2119.0,1496.0,1161.0,28.0
0.9904500246047974,66.0,2911.0,893.0,1094.0,9.0,40.0
0.9917500019073486,54.0,3623.0,1733.0,1338.0,12.0,53.0
0.9931166768074036,65.0,4379.0,68.0,300.0,6.0,49.0
0.9944166541099548,18.0,2416.0,363.0,12.0,7.0,31.0
0.9957166910171509,14.0,2838.0,783.0,1015.0,8.0,17.0
0.9970166683197021,16.0,1356.0,1204.0,5.0,5.0,6.0
0.9983166456222534,12.0,4208.0,714.0,1412.0,520.0,10.0
0.9996166825294495,13.0,4526.0,58.0,624.0,591.0,33.0
1.0009167194366455,0.0,2719.0,1213.0,1926.0,761.0,55.0
1.0022166967391968,5.0,1657.0,861.0,1999.0,380.0,39.0
1.003516674041748,19.0,17.0,1022.0,18.0,0.0,22.0
1.0048166513442993,7.0,1161.0,511.0,31.0,1068.0,5.0
1.0061166286468506,22.0,2306.0,0.0,1154.0,895.0,88.0
1.0074167251586914,25.0,1115.0,322.0,5.0,723.0,47.0
1.0087167024612427,38.0,2637.0,644.0,31.0,1169.0,5.0
1.0100666284561157,0.0,4158.0,841.0,58.0,621.0,13.0
1.0113667249679565,16.0,5283.0,1037.0,550.0,341.0,5.0
1.0126667022705078,13.0,5481.0,1540.0,942.0,1334.0,3.0
1.013966679573059,22.0,4009.0,2042.0,937.0,1043.0,0.0
1.0152666568756104,13.0,3463.0,2659.0,1252.0,446.0,8.0
1.0165666341781616,22.0,368.0,2831.0,1497.0,1730.0,17.0
1.017866611480713,16.0,4206.0,2679.0,1364.0,1053.0,20.0
1.0191667079925537,10.0,5363.0,2528.0,1231.0,761.0,24.0
1.020466685295105,24.0,42.0,2378.0,38.0,560.0,696.0
1.0217666625976562,20.0,453.0,3236.0,2356.0,22.0,629.0
1.0230666399002075,16.0,2772.0,3067.0,2156.0,145.0,0.0
1.0243666172027588,20.0,3583.0,2897.0,938.0,268.0,95.0
1.0256667137145996,23.0,39.0,1653.0,991.0,51.0,16.0
1.0270333290100098,26.0,1219.0,1609.0,1330.0,28.0,14.0
1.028333306312561,27.0,3479.0,1564.0,1669.0,5.0,6.0
1.0296332836151123,33.0,2179.0,2737.0,1369.0,190.0,5.0
1.0309333801269531,17.0,4864.0,2015.0,1069.0,1492.0,28.0
1.0322333574295044,25.0,4009.0,1294.0,2657.0,2021.0,20.0
1.0335333347320557,16.0,2587.0,1419.0,2724.0,789.0,12.0
1.034833312034607,9.0,2108.0,1576.0,2791.0,859.0,872.0
1.0361332893371582,0.0,2248.0,1443.0,1705.0,1118.0,687.0
1.037433385848999,26.0,311.0,1310.0,1062.0,707.0,5.0
1.0387333631515503,34.0,1410.0,2512.0,112.0,839.0,1259.0
1.0400333404541016,41.0,880.0,1786.0,214.0,451.0,785.0
1.0413333177566528,31.0,351.0,1059.0,315.0,812.0,279.0
1.042633295059204,21.0,389.0,1652.0,353.0,5.0,16.0
1.0439833402633667,24.0,428.0,2934.0,392.0,869.0,29.0
1.045283317565918,28.0,2968.0,2635.0,359.0,1089.0,21.0
1.0465832948684692,29.0,3060.0,2336.0,326.0,580.0,13.0
1.04788339138031,24.0,4245.0,5043.0,1978.0,260.0,9.0
1.0491833686828613,14.0,1817.0,4661.0,3447.0,247.0,5.0
1.0504833459854126,10.0,2028.0,653.0,2627.0,234.0,26.0
1.0517833232879639,21.0,1511.0,3186.0,2916.0,1228.0,48.0
1.0530833005905151,10.0,1146.0,1694.0,693.0,1303.0,691.0
1.0543832778930664,0.0,781.0,2599.0,3803.0,1454.0,1111.0
1.0556833744049072,33.0,750.0,2883.0,1334.0,1604.0,1616.0
1.0569833517074585,33.0,2382.0,719.0,4145.0,20.0,1144.0
1.0582833290100098,27.0,3890.0,3620.0,730.0,940.0,1192.0
1.059583306312561,21.0,2743.0,5583.0,2158.0,1860.0,1239.0
1.0609500408172607,0.0,3721.0,4019.0,1747.0,1176.0,33.0
1.062250018119812,6.0,3157.0,1159.0,2655.0,1514.0,25.0
1.0635499954223633,6.0,1369.0,2461.0,2744.0,10.0,25.0
1.0648499727249146,5.0,1611.0,3302.0,2222.0,1458.0,25.0
1.0661499500274658,18.0,2109.0,4637.0,1431.0,1971.0,33.0
1.0674500465393066,25.0,2288.0,4171.0,1319.0,506.0,40.0
1.068750023841858,33.0,148.0,4577.0,2480.0,898.0,49.0
1.0700500011444092,11.0,4155.0,4367.0,1778.0,1844.0,24.0
1.0713499784469604,30.0,4573.0,3832.0,2596.0,2374.0,0.0
1.0726499557495117,19.0,2263.0,3297.0,1110.0,22.0,6.0
1.0739500522613525,10.0,2889.0,5617.0,1532.0,631.0,9.0
1.0752500295639038,0.0,1365.0,5306.0,3295.0,1072.0,11.0
1.076550006866455,5.0,2554.0,5280.0,2429.0,1513.0,24.0
1.0779000520706177,10.0,3812.0,4553.0,2758.0,916.0,36.0
1.079200029373169,7.0,4194.0,1460.0,3111.0,948.0,24.0
1.0805000066757202,22.0,2821.0,5605.0,3506.0,1333.0,11.0
1.0817999839782715,16.0,5559.0,5522.0,1166.0,1718.0,20.0
1.0830999612808228,10.0,4765.0,3029.0,3595.0,16.0,29.0
1.0844000577926636,16.0,3389.0,4339.0,2562.0,765.0,21.0
1.0857000350952148,10.0,3908.0,6014.0,2360.0,1515.0,12.0
1.0870000123977661,7.0,2981.0,3718.0,3219.0,767.0,13.0
1.0882999897003174,6.0,2852.0,2897.0,2645.0,19.0,13.0
1.0895999670028687,5.0,2724.0,4836.0,2000.0,1781.0,12.0
1.09089994430542,5.0,3249.0,5098.0,3314.0,1081.0,12.0
1.0922000408172607,17.0,3774.0,5361.0,2466.0,2162.0,12.0
1.0935167074203491,64.0,7533.0,4525.0,992.0,1709.0,937.0
1.0948333740234375,38.0,7273.0,3690.0,650.0,1422.0,1371.0
1.0961333513259888,12.0,2125.0,662.0,723.0,2343.0,1806.0
1.09743332862854,9.0,4626.0,3675.0,985.0,793.0,874.0
1.0987333059310913,21.0,3652.0,4845.0,1161.0,1025.0,537.0
1.1000332832336426,32.0,3627.0,4032.0,1336.0,1124.0,992.0
1.1013333797454834,36.0,3605.0,1607.0,1149.0,1556.0,757.0
1.1026333570480347,52.0,3983.0,3525.0,1569.0,3436.0,396.0
1.103933334350586,5.0,3913.0,3012.0,21.0,3061.0,35.0
1.1052333116531372,70.0,3844.0,3144.0,4047.0,2310.0,17.0
1.1065332889556885,12.0,4778.0,3593.0,4038.0,3940.0,0.0
1.1078333854675293,20.0,5023.0,4042.0,3645.0,1406.0,8.0
1.1091333627700806,19.0,2884.0,3760.0,3252.0,1561.0,17.0
1.110466718673706,41.0,3496.0,3477.0,2855.0,3885.0,249.0
1.1117833852767944,52.0,4107.0,6070.0,2459.0,3431.0,262.0
1.1130833625793457,40.0,3203.0,5922.0,929.0,3831.0,275.0
1.114383339881897,7.0,4775.0,5105.0,2882.0,833.0,5.0
1.1156833171844482,24.0,5284.0,5268.0,4836.0,1208.0,24.0
1.1169832944869995,34.0,3989.0,1794.0,6834.0,1855.0,42.0
1.1182833909988403,95.0,1764.0,1066.0,4153.0,2502.0,295.0
1.1195833683013916,64.0,1864.0,338.0,6450.0,3628.0,166.0
1.1208833456039429,33.0,3499.0,1985.0,1740.0,4258.0,37.0
1.1221833229064941,22.0,4174.0,3632.0,4306.0,3736.0,5.0
1.1234833002090454,5.0,6899.0,3935.0,4801.0,1581.0,24.0
1.1247832775115967,32.0,6790.0,4237.0,2747.0,973.0,42.0
1.1260833740234375,57.0,3214.0,4782.0,2397.0,2962.0,48.0
1.1274333000183105,73.0,2542.0,4286.0,3316.0,1864.0,861.0
1.128749966621399,67.0,7560.0,3790.0,2846.0,3574.0,1083.0
1.1300499439239502,43.0,5312.0,4482.0,2294.0,1575.0,1826.0
1.131350040435791,19.0,3741.0,5173.0,5054.0,2406.0,1506.0
1.1326500177383423,55.0,4077.0,8904.0,5514.0,3175.0,1701.0
1.1339499950408936,10.0,3904.0,7465.0,6388.0,3016.0,1985.0
1.1352499723434448,42.0,4695.0,6024.0,4311.0,3022.0,66.0
1.136549949645996,27.0,4810.0,6446.0,915.0,3704.0,1761.0
1.137850046157837,38.0,6599.0,7274.0,5906.0,3649.0,2838.0
1.1391500234603882,7.0,8388.0,6364.0,4643.0,3819.0,5.0
1.1404500007629395,12.0,8057.0,5454.0,8688.0,3799.0,2210.0
1.1417499780654907,18.0,7113.0,4610.0,9124.0,3769.0,748.0
1.143049955368042,5.0,6114.0,6371.0,6058.0,3739.0,33.0
1.1443833112716675,30.0,6161.0,6893.0,6098.0,5468.0,1052.0
1.1456999778747559,15.0,5853.0,7415.0,2897.0,6414.0,828.0
1.1469999551773071,0.0,6884.0,5929.0,6828.0,1181.0,605.0
1.148300051689148,19.0,4736.0,12692.0,6760.0,7810.0,531.0
1.1496000289916992,25.0,3647.0,14740.0,8488.0,5762.0,360.0
1.1509000062942505,31.0,5214.0,8804.0,4390.0,2480.0,361.0
1.1521999835968018,36.0,6301.0,9856.0,5098.0,1721.0,361.0
1.153499960899353,37.0,7387.0,11524.0,7117.0,4791.0,553.0
1.1548000574111938,22.0,8508.0,9688.0,6728.0,4434.0,1286.0
1.1561000347137451,24.0,7188.0,11276.0,3648.0,4077.0,1669.0
1.1574000120162964,36.0,5870.0,11440.0,5004.0,2608.0,1087.0
1.1586999893188477,14.0,9940.0,7398.0,3133.0,4099.0,893.0
1.159999966621399,0.0,3635.0,13276.0,2509.0,3940.0,699.0
1.1613500118255615,6.0,6303.0,7164.0,2639.0,2494.0,1567.0
1.16266667842865,5.0,9384.0,11828.0,5331.0,2531.0,1540.0
1.1639666557312012,7.0,8276.0,12812.0,8296.0,2399.0,855.0
1.1652666330337524,8.0,7761.0,6144.0,7155.0,8039.0,2023.0
1.1665666103363037,7.0,3320.0,9672.0,5589.0,8416.0,794.0
1.1678667068481445,5.0,4905.0,11600.0,6485.0,6544.0,12.0
1.1691666841506958,17.0,4167.0,11664.0,4667.0,7479.0,2493.0
1.170466661453247,29.0,6139.0,10132.0,3145.0,1665.0,2739.0
1.1717666387557983,26.0,7749.0,8600.0,7548.0,4512.0,1053.0
1.1730666160583496,36.0,9360.0,13384.0,7017.0,1593.0,1191.0
1.1743667125701904,5.0,9100.0,11496.0,8384.0,3834.0,49.0
1.1756666898727417,6.0,10232.0,14184.0,6599.0,5367.0,1364.0
1.176966667175293,30.0,8552.0,8672.0,6576.0,5671.0,1820.0
1.1783000230789185,33.0,6872.0,5103.0,6553.0,5976.0,2646.0
1.1796166896820068,7.0,4216.0,15284.0,7060.0,5075.0,808.0
1.180916666984558,11.0,1559.0,15708.0,7568.0,7015.0,948.0
1.1822166442871094,10.0,11568.0,12852.0,5634.0,3237.0,1609.0
1.1835166215896606,26.0,9064.0,19224.0,3699.0,4290.0,1527.0
1.1848167181015015,16.0,13752.0,7012.0,9464.0,8288.0,1446.0
1.1861166954040527,5.0,11156.0,15840.0,9948.0,5102.0,689.0
1.187416672706604,5.0,7393.0,11264.0,10924.0,7805.0,994.0
1.1887166500091553,5.0,7227.0,11576.0,8224.0,6715.0,1298.0
1.1900333166122437,5.0,10148.0,14596.0,4937.0,7014.0,993.0
1.1913167238235474,46.0,10468.0,8668.0,10140.0,5120.0,1614.0
1.1926167011260986,50.0,10792.0,4926.0,8880.0,5279.0,2234.0
1.19391667842865,16.0,14584.0,17304.0,8208.0,5438.0,2093.0
1.1952667236328125,51.0,15184.0,12776.0,7533.0,5425.0,2450.0
1.1965833902359009,18.0,14648.0,9564.0,12148.0,5284.0,2807.0
1.1978833675384521,12.0,10996.0,17724.0,11972.0,5142.0,2586.0
1.1991833448410034,6.0,7831.0,11664.0,6069.0,4348.0,1963.0
1.2004833221435547,10.0,13788.0,13212.0,4750.0,4710.0,2079.0
1.201783299446106,14.0,17720.0,12124.0,8620.0,5072.0,2428.0
1.2030832767486572,11.0,14872.0,17772.0,8528.0,5957.0,429.0
1.204383373260498,10.0,12020.0,18572.0,7701.0,8240.0,4289.0
1.2056833505630493,9.0,13660.0,13916.0,6425.0,8988.0,3053.0
1.2069833278656006,7.0,12248.0,14344.0,7795.0,9736.0,2180.0
1.2082833051681519,5.0,10840.0,14772.0,7248.0,8192.0,1120.0
1.2095832824707031,7.0,15092.0,14108.0,8600.0,8164.0,3065.0
1.210883378982544,9.0,15152.0,23308.0,9952.0,8135.0,3878.0
1.2122166156768799,13.0,15216.0,24032.0,10876.0,8700.0,1226.0
1.2135332822799683,17.0,12228.0,23408.0,11796.0,3411.0,1924.0
1.214833378791809,0.0,16112.0,18892.0,10264.0,7490.0,2754.0
1.2161333560943604,5.0,19444.0,13376.0,8728.0,10848.0,2183.0
1.2174333333969116,13.0,21632.0,21740.0,8404.0,6255.0,4199.0
1.218733310699463,21.0,17204.0,23244.0,9932.0,8464.0,5609.0
1.2200332880020142,18.0,14260.0,23248.0,9256.0,12320.0,4517.0
1.221333384513855,16.0,17784.0,23248.0,11288.0,9036.0,2273.0
1.2226333618164062,40.0,16992.0,22164.0,12432.0,7868.0,760.0
1.2239333391189575,64.0,16204.0,21080.0,11932.0,8185.0,1811.0
1.2252333164215088,63.0,23256.0,19224.0,13124.0,7717.0,2174.0
1.22653329372406,26.0,24488.0,18024.0,12888.0,7250.0,2536.0
1.2278333902359009,38.0,24408.0,27400.0,12648.0,8252.0,1267.0
1.229183316230774,35.0,20820.0,25756.0,11416.0,11740.0,3374.0
1.2304999828338623,31.0,24500.0,26708.0,14032.0,15848.0,4134.0
1.2317999601364136,27.0,19608.0,25848.0,15360.0,13636.0,1515.0
1.2331000566482544,17.0,18208.0,29460.0,9288.0,7653.0,3602.0
1.2344000339508057,35.0,16920.0,32056.0,15048.0,4097.0,3832.0
1.235700011253357,17.0,22564.0,19884.0,13344.0,10244.0,4062.0
1.2369999885559082,133.0,24924.0,27964.0,17708.0,8392.0,2860.0
1.2382999658584595,73.0,24404.0,31852.0,9376.0,12088.0,4143.0
1.2395999431610107,12.0,23996.0,29668.0,16676.0,10564.0,4308.0
1.2409000396728516,20.0,17520.0,33648.0,13736.0,9868.0,4472.0
1.2422000169754028,12.0,27492.0,32656.0,16140.0,9172.0,2710.0
1.243499994277954,5.0,25544.0,22984.0,11944.0,10244.0,2925.0
1.2447999715805054,5.0,19092.0,31116.0,15384.0,10648.0,2416.0
1.2461333274841309,31.0,15664.0,32300.0,18820.0,11052.0,1906.0
1.2474499940872192,61.0,25988.0,34448.0,22740.0,16780.0,4736.0
1.2487499713897705,33.0,22076.0,26172.0,18548.0,19636.0,4621.0
1.2500499486923218,5.0,19428.0,29528.0,14356.0,17560.0,3419.0
1.2513500452041626,37.0,22328.0,32880.0,18288.0,9844.0,3046.0
1.2526500225067139,0.0,25232.0,29172.0,22216.0,10940.0,2672.0
1.2539499998092651,46.0,25364.0,25464.0,20308.0,13452.0,6378.0
1.2552499771118164,44.0,23932.0,38256.0,22148.0,13860.0,6412.0
1.2565499544143677,20.0,31728.0,44320.0,15140.0,13260.0,5640.0
1.2578500509262085,32.0,32304.0,35440.0,20812.0,13172.0,3550.0
1.2591500282287598,10.0,34720.0,40544.0,26248.0,13088.0,6984.0
1.260450005531311,17.0,28244.0,46288.0,26364.0,15728.0,5335.0
1.2617499828338623,25.0,32724.0,45920.0,21916.0,13512.0,4071.0
1.263100028038025,23.0,30548.0,49344.0,27592.0,11296.0,8146.0
1.2644166946411133,20.0,33200.0,36192.0,24448.0,20288.0,3811.0
1.2657166719436646,10.0,33920.0,54432.0,16272.0,18364.0,5452.0
1.2670166492462158,24.0,34640.0,53312.0,19688.0,16440.0,6594.0
1.268316626548767,6.0,29512.0,48048.0,23104.0,18760.0,6092.0
1.2696332931518555,12.0,32476.0,38576.0,22592.0,18352.0,6921.0
1.2709333896636963,11.0,35440.0,46976.0,23608.0,17948.0,4599.0
1.2722166776657104,19.0,34864.0,43664.0,24420.0,21364.0,5980.0
1.2735333442687988,12.0,40992.0,41792.0,19496.0,21652.0,6890.0
1.27483332157135,6.0,48352.0,39904.0,24456.0,21940.0,4458.0
1.2761332988739014,13.0,46400.0,41824.0,25856.0,26528.0,6972.0
1.2774332761764526,18.0,39456.0,50032.0,27256.0,12132.0,4267.0
1.2787333726882935,22.0,41808.0,48704.0,24464.0,20368.0,6819.0
1.2800500392913818,20.0,37824.0,49008.0,25148.0,22104.0,9372.0
1.281350016593933,22.0,42448.0,49328.0,25836.0,25288.0,9352.0
1.2826499938964844,25.0,45136.0,43296.0,28444.0,14928.0,6632.0
1.2839499711990356,33.0,48720.0,56032.0,31048.0,21624.0,8916.0
1.285249948501587,8.0,53280.0,52320.0,26800.0,27536.0,8996.0
1.2865500450134277,40.0,52176.0,48608.0,22556.0,20720.0,4119.0
1.287850022315979,22.0,36928.0,66720.0,31260.0,17756.0,10972.0
1.2891499996185303,18.0,50848.0,67216.0,31900.0,20932.0,5346.0
1.2904499769210815,46.0,53408.0,61056.0,37280.0,26748.0,3479.0
1.2917499542236328,16.0,51136.0,56976.0,29276.0,24484.0,4780.0
1.2930500507354736,38.0,54240.0,52384.0,36400.0,19972.0,6130.0
1.294366717338562,22.0,57344.0,69392.0,31880.0,25544.0,8296.0
1.2956666946411133,5.0,56048.0,72464.0,33408.0,26444.0,8640.0
1.2970000505447388,40.0,55936.0,52032.0,34928.0,27340.0,2543.0
1.29830002784729,32.0,41072.0,58176.0,32896.0,26024.0,4704.0
1.2996000051498413,45.0,61552.0,60016.0,30860.0,24708.0,6773.0
1.3008999824523926,33.0,52080.0,58128.0,42096.0,27344.0,6460.0
1.3021999597549438,18.0,54160.0,60384.0,43936.0,21596.0,7109.0
1.3035000562667847,12.0,60720.0,63008.0,46000.0,25820.0,6329.0
1.304800033569336,36.0,50096.0,70576.0,43792.0,27060.0,5549.0
1.3061000108718872,37.0,61536.0,69840.0,40208.0,33840.0,7203.0
1.3073999881744385,37.0,51696.0,69088.0,38464.0,31952.0,7312.0
1.3086999654769897,37.0,47056.0,72928.0,43184.0,25224.0,7421.0
1.309999942779541,37.0,59840.0,76928.0,34128.0,18900.0,8192.0
1.3113000392913818,27.0,58944.0,82592.0,29176.0,34720.0,11400.0
1.312600016593933,41.0,61344.0,63504.0,30792.0,24804.0,13248.0
1.3139166831970215,48.0,58736.0,69824.0,32408.0,27196.0,10800.0
1.3152166604995728,60.0,56128.0,53408.0,38416.0,24756.0,3071.0
1.316516637802124,18.0,59968.0,62960.0,40240.0,25468.0,13668.0
1.3178166151046753,18.0,61152.0,61456.0,42064.0,26528.0,4262.0
1.3191167116165161,69.0,50240.0,68944.0,36576.0,27584.0,6907.0
1.3204166889190674,5.0,38752.0,80848.0,42832.0,23840.0,11948.0
1.3217166662216187,76.0,48160.0,78160.0,41408.0,24572.0,8588.0
1.32301664352417,19.0,61280.0,51296.0,39984.0,20512.0,9432.0
1.3243166208267212,34.0,62096.0,66496.0,33680.0,25396.0,7800.0
1.325616717338562,30.0,41536.0,60192.0,34048.0,24932.0,10240.0
1.3269166946411133,12.0,56512.0,61328.0,37328.0,24472.0,6859.0
1.3282166719436646,26.0,61696.0,67072.0,38608.0,14664.0,8824.0
1.3295166492462158,46.0,56912.0,61744.0,30308.0,21592.0,4222.0
1.3308833837509155,46.0,44272.0,56544.0,40032.0,27992.0,8748.0
1.3321833610534668,50.0,35696.0,55072.0,30164.0,18268.0,11876.0
1.333483338356018,27.0,42224.0,42016.0,30860.0,23736.0,9000.0
1.3347833156585693,21.0,41744.0,44816.0,32716.0,19448.0,11604.0
1.3360832929611206,41.0,41280.0,34816.0,25140.0,16116.0,8848.0
1.3373833894729614,23.0,37840.0,40928.0,31092.0,16208.0,4056.0
1.3386833667755127,6.0,36416.0,47040.0,17728.0,21668.0,4902.0
1.339983344078064,27.0,40544.0,45456.0,35584.0,13476.0,5787.0
1.3412833213806152,49.0,40032.0,39360.0,23360.0,17792.0,3586.0
1.3425832986831665,51.0,39520.0,37008.0,20836.0,16088.0,7140.0
1.3438832759857178,23.0,36240.0,41584.0,22444.0,19428.0,2527.0
1.3451833724975586,38.0,29296.0,42672.0,25196.0,19280.0,2919.0
1.3464833498001099,57.0,31900.0,43744.0,23528.0,21672.0,3834.0
1.347833275794983,29.0,28440.0,34480.0,20468.0,21144.0,3595.0
1.3491333723068237,0.0,27328.0,33952.0,21168.0,18720.0,3355.0
1.350433349609375,32.0,26216.0,38656.0,22660.0,13176.0,3186.0
1.3517333269119263,20.0,30336.0,34224.0,13424.0,11756.0,3016.0
1.3530333042144775,8.0,22344.0,29716.0,15520.0,12336.0,2263.0
1.3543332815170288,10.0,31776.0,24848.0,17616.0,15920.0,2705.0
1.3556333780288696,11.0,26828.0,28612.0,18088.0,14848.0,3925.0
1.356933355331421,19.0,17272.0,26440.0,17096.0,13440.0,2593.0
1.3582333326339722,25.0,16112.0,24272.0,22548.0,10932.0,1260.0
1.3595499992370605,27.0,14856.0,26412.0,9052.0,6362.0,2786.0
1.3608332872390747,29.0,16952.0,26220.0,10904.0,10060.0,1349.0
1.3621333837509155,18.0,17540.0,22648.0,17276.0,7698.0,876.0
1.3634333610534668,47.0,18124.0,26892.0,19320.0,8432.0,3239.0
1.364799976348877,39.0,18616.0,20876.0,15864.0,8460.0,3446.0
1.3660999536514282,45.0,14376.0,12604.0,12576.0,8492.0,1566.0
1.367400050163269,28.0,20128.0,15348.0,10964.0,7496.0,4128.0
1.3687000274658203,17.0,14688.0,16684.0,13348.0,10300.0,21.0
1.3700000047683716,5.0,11776.0,18888.0,8204.0,4091.0,3115.0
1.3712999820709229,7.0,12048.0,15716.0,9080.0,5661.0,1596.0
1.3725999593734741,4.0,14956.0,19724.0,8332.0,6954.0,2307.0
1.373900055885315,0.0,9796.0,10344.0,9216.0,5535.0,3273.0
1.3752000331878662,4.0,9280.0,16812.0,10100.0,5345.0,2341.0
1.3765000104904175,8.0,14360.0,14456.0,6029.0,6173.0,3025.0
1.3777999877929688,21.0,5803.0,14788.0,6857.0,5707.0,17.0
1.37909996509552,41.0,12256.0,12180.0,6691.0,5006.0,1405.0
1.3803999423980713,21.0,9048.0,13172.0,5356.0,1184.0,310.0
1.3817499876022339,0.0,10528.0,11008.0,1463.0,4129.0,1097.0
1.3830499649047852,12.0,13404.0,5803.0,7350.0,5544.0,1884.0
1.3843499422073364,17.0,6134.0,8552.0,7679.0,2008.0,10.0
1.3856500387191772,21.0,8392.0,7382.0,5684.0,5732.0,430.0
1.3869500160217285,21.0,5488.0,11836.0,4103.0,2862.0,869.0
1.3882499933242798,21.0,5991.0,11128.0,4557.0,2778.0,19.0
1.389549970626831,23.0,4643.0,10124.0,5552.0,2694.0,17.0
1.3908499479293823,25.0,3294.0,5757.0,4913.0,2195.0,14.0
1.3921500444412231,18.0,5367.0,4948.0,2034.0,1697.0,25.0
1.3934500217437744,10.0,4304.0,7500.0,2654.0,14.0,563.0
1.3947499990463257,40.0,5862.0,8352.0,1991.0,1115.0,1100.0
1.396049976348877,39.0,5659.0,7563.0,1933.0,2216.0,773.0
1.3973499536514282,53.0,5554.0,1786.0,2450.0,5661.0,30.0
1.398716688156128,23.0,6360.0,5497.0,1902.0,5586.0,975.0
1.4000166654586792,0.0,4105.0,5579.0,2560.0,2390.0,707.0
1.4013166427612305,41.0,5077.0,8008.0,2031.0,1670.0,29.0
1.4026166200637817,21.0,1917.0,1849.0,1790.0,1378.0,630.0
1.4039167165756226,22.0,1283.0,10412.0,2784.0,2003.0,322.0
1.4052166938781738,6.0,2577.0,3583.0,2502.0,2207.0,14.0
1.406516671180725,0.0,2729.0,2745.0,2219.0,2525.0,537.0
1.4078166484832764,40.0,2024.0,6798.0,1818.0,2844.0,269.0
1.4091166257858276,31.0,1319.0,4545.0,1206.0,2389.0,0.0
1.4104167222976685,28.0,1117.0,3228.0,1777.0,1933.0,607.0
1.4117166996002197,27.0,790.0,1605.0,1573.0,646.0,578.0
1.413016676902771,0.0,464.0,4845.0,697.0,1401.0,46.0
1.4143166542053223,31.0,1831.0,2037.0,748.0,809.0,5.0
1.415683388710022,45.0,1694.0,5640.0,890.0,58.0,23.0
1.4169833660125732,10.0,2412.0,4041.0,942.0,1657.0,40.0
1.4182833433151245,45.0,2247.0,339.0,995.0,917.0,302.0
1.4195833206176758,16.0,2008.0,3886.0,501.0,1108.0,162.0
1.420883297920227,23.0,1152.0,2188.0,6.0,754.0,23.0
1.4221832752227783,30.0,923.0,2014.0,30.0,399.0,23.0
1.4234833717346191,16.0,694.0,3397.0,51.0,9.0,23.0
1.4247833490371704,20.0,998.0,675.0,71.0,12.0,20.0
1.4260833263397217,23.0,1458.0,2389.0,298.0,14.0,18.0
1.427383303642273,30.0,184.0,1982.0,1058.0,926.0,22.0
1.4286832809448242,15.0,1352.0,1886.0,1819.0,1250.0,27.0
1.429983377456665,0.0,1223.0,2269.0,2336.0,829.0,33.0
1.4312833547592163,13.0,1259.0,1212.0,1547.0,778.0,22.0
1.4326332807540894,7.0,252.0,1438.0,1457.0,727.0,10.0
1.4339333772659302,13.0,737.0,2326.0,328.0,979.0,18.0
1.4352333545684814,21.0,1222.0,1879.0,1039.0,788.0,9.0
1.4365333318710327,23.0,2065.0,1919.0,1798.0,598.0,0.0
1.437833309173584,19.0,1812.0,698.0,38.0,725.0,5.0
1.4391332864761353,19.0,1560.0,462.0,0.0,675.0,10.0
1.440433382987976,19.0,847.0,239.0,1887.0,624.0,74.0
1.4417333602905273,5.0,1115.0,17.0,11.0,45.0,39.0
1.4430333375930786,19.0,776.0,46.0,184.0,1516.0,5.0
1.4443333148956299,9.0,442.0,23.0,39.0,2405.0,6.0
1.4456332921981812,0.0,260.0,0.0,1590.0,1966.0,7.0
1.446933388710022,3.0,78.0,24.0,1440.0,490.0,29.0
1.4482333660125732,6.0,32.0,21.0,1377.0,14.0,35.0
1.4495999813079834,6.0,42.0,19.0,13.0,1337.0,0.0
1.4508999586105347,5.0,52.0,1438.0,227.0,20.0,6.0
1.4522000551223755,27.0,53.0,1394.0,586.0,257.0,28.0
1.4535000324249268,28.0,59.0,1349.0,302.0,13.0,34.0
1.454800009727478,12.0,65.0,1288.0,18.0,13.0,40.0
1.4560999870300293,5.0,1347.0,1227.0,17.0,12.0,23.0
1.4573999643325806,19.0,1377.0,1563.0,16.0,14.0,36.0
1.4586999416351318,20.0,25.0,910.0,33.0,17.0,21.0
1.4600000381469727,21.0,45.0,256.0,50.0,20.0,13.0
1.461300015449524,31.0,43.0,354.0,442.0,5.0,5.0
1.4625999927520752,40.0,11.0,105.0,509.0,3.0,14.0
1.4638999700546265,35.0,770.0,291.0,575.0,0.0,11.0
1.4651999473571777,30.0,609.0,772.0,585.0,1014.0,7.0
1.4665499925613403,30.0,433.0,1254.0,596.0,1117.0,24.0
1.4678499698638916,26.0,532.0,920.0,638.0,1113.0,20.0
1.4691499471664429,22.0,296.0,61.0,704.0,593.0,179.0
1.4704500436782837,29.0,59.0,1297.0,1017.0,32.0,104.0
1.471750020980835,0.0,20.0,880.0,10.0,653.0,28.0
1.4730499982833862,22.0,11.0,23.0,46.0,585.0,35.0
1.4743499755859375,40.0,21.0,20.0,21.0,547.0,24.0
1.4756499528884888,18.0,12.0,36.0,20.0,510.0,40.0
1.4769500494003296,16.0,345.0,53.0,40.0,12.0,26.0
1.4782500267028809,13.0,178.0,781.0,1271.0,1738.0,12.0
1.4795500040054321,12.0,10.0,702.0,645.0,1434.0,236.0
1.4808499813079834,10.0,1316.0,16.0,20.0,1327.0,131.0
1.4821499586105347,11.0,706.0,26.0,664.0,8.0,26.0
1.4835166931152344,17.0,95.0,37.0,476.0,83.0,40.0
1.4848166704177856,23.0,5.0,770.0,5.0,35.0,11.0
1.486116647720337,26.0,41.0,652.0,966.0,18.0,49.0
1.4874166250228882,29.0,336.0,17.0,493.0,323.0,23.0
1.488716721534729,55.0,260.0,1233.0,21.0,350.0,0.0
1.4900166988372803,40.0,146.0,793.0,29.0,377.0,21.0
1.4913166761398315,26.0,32.0,830.0,32.0,54.0,41.0
1.4926166534423828,46.0,1889.0,9.0,689.0,12.0,33.0
1.493916630744934,40.0,1537.0,19.0,351.0,11.0,26.0
1.4952166080474854,35.0,0.0,7.0,12.0,9.0,20.0
1.4965167045593262,11.0,985.0,11.0,18.0,23.0,24.0
1.4978166818618774,6.0,358.0,35.0,195.0,37.0,19.0
1.4991166591644287,24.0,61.0,1517.0,115.0,778.0,13.0
1.5004667043685913,18.0,5.0,782.0,34.0,934.0,0.0
1.5017666816711426,31.0,30.0,46.0,16.0,1075.0,28.0
1.5030666589736938,11.0,7.0,1408.0,28.0,284.0,57.0
1.5043666362762451,12.0,1263.0,484.0,57.0,1266.0,43.0
1.5056666135787964,13.0,1006.0,510.0,48.0,35.0,29.0
1.5069667100906372,13.0,980.0,25.0,38.0,26.0,0.0
1.5082666873931885,17.0,955.0,16.0,53.0,186.0,6.0
1.5095666646957397,48.0,16.0,146.0,34.0,60.0,50.0
1.510866641998291,52.0,1182.0,277.0,16.0,0.0,57.0
1.5121666193008423,57.0,701.0,156.0,46.0,6.0,65.0
1.513466715812683,24.0,46.0,36.0,711.0,11.0,0.0
1.5147666931152344,11.0,10.0,0.0,365.0,16.0,6.0
1.5160666704177856,5.0,9.0,0.0,18.0,15.0,11.0
1.5174332857131958,8.0,50.0,248.0,13.0,14.0,11.0
1.5187333822250366,11.0,38.0,253.0,33.0,7.0,10.0
1.520033359527588,11.0,26.0,259.0,49.0,0.0,17.0
1.5213333368301392,11.0,56.0,434.0,43.0,522.0,29.0
1.5226333141326904,43.0,86.0,462.0,38.0,331.0,41.0
1.5239332914352417,37.0,1458.0,490.0,67.0,140.0,30.0
1.5252333879470825,31.0,1185.0,28.0,683.0,389.0,19.0
1.5265333652496338,29.0,1003.0,1187.0,360.0,638.0,18.0
1.527833342552185,5.0,88.0,607.0,37.0,790.0,19.0
1.5291333198547363,26.0,18.0,26.0,329.0,967.0,20.0
1.5304332971572876,18.0,5.0,1495.0,33.0,21.0,13.0
1.5317332744598389,26.0,14.0,11.0,27.0,5.0,7.0
1.5330333709716797,6.0,24.0,706.0,22.0,0.0,0.0
1.5343832969665527,41.0,28.0,8.0,117.0,28.0,19.0
1.535683274269104,40.0,16.0,449.0,82.0,26.0,37.0
1.5369833707809448,62.0,458.0,495.0,48.0,20.0,31.0
1.538283348083496,55.0,305.0,554.0,33.0,13.0,25.0
1.5395833253860474,8.0,152.0,30.0,19.0,10.0,16.0
1.5408833026885986,7.0,55.0,449.0,131.0,16.0,7.0
1.54218327999115,6.0,234.0,25.0,242.0,21.0,18.0
1.5434833765029907,62.0,129.0,100.0,441.0,382.0,29.0
1.544783353805542,31.0,25.0,174.0,233.0,361.0,20.0
1.5460833311080933,0.0,104.0,855.0,25.0,341.0,11.0
1.5473833084106445,38.0,5.0,659.0,29.0,70.0,27.0
1.5486832857131958,37.0,17.0,33.0,26.0,41.0,5.0
1.5499833822250366,11.0,258.0,20.0,30.0,12.0,14.0
1.5513499975204468,35.0,152.0,0.0,33.0,27.0,23.0
1.552649974822998,36.0,46.0,35.0,92.0,48.0,48.0
1.5539499521255493,22.0,32.0,37.0,62.0,38.0,34.0
1.5552500486373901,52.0,19.0,38.0,31.0,5.0,21.0
1.5565500259399414,6.0,24.0,924.0,36.0,26.0,5.0
1.5578500032424927,18.0,30.0,473.0,42.0,38.0,16.0
1.559149980545044,20.0,38.0,23.0,38.0,42.0,40.0
1.5604499578475952,14.0,46.0,728.0,0.0,46.0,23.0
1.561750054359436,7.0,213.0,348.0,29.0,9.0,5.0
1.5630500316619873,20.0,379.0,5.0,5.0,24.0,20.0
1.5643500089645386,0.0,203.0,18.0,5.0,42.0,34.0
1.5656499862670898,20.0,27.0,43.0,11.0,12.0,0.0
1.5669499635696411,0.0,44.0,37.0,17.0,0.0,28.0
1.5683000087738037,29.0,37.0,30.0,21.0,22.0,19.0
1.569599986076355,31.0,32.0,0.0,20.0,41.0,38.0
1.5708999633789062,47.0,25.0,31.0,20.0,39.0,40.0
1.5721999406814575,16.0,22.0,42.0,73.0,36.0,14.0
1.5735000371932983,14.0,24.0,22.0,82.0,13.0,6.0
1.5748000144958496,22.0,26.0,49.0,23.0,5.0,0.0
1.5760999917984009,26.0,21.0,35.0,25.0,3.0,3.0
1.5773999691009521,32.0,25.0,21.0,28.0,0.0,5.0
1.5787166357040405,37.0,27.0,0.0,6.0,5.0,25.0
1.5800000429153442,38.0,29.0,38.0,11.0,10.0,29.0
1.5813000202178955,38.0,26.0,335.0,17.0,18.0,27.0
1.5826166868209839,12.0,36.0,186.0,34.0,26.0,30.0
1.583899974822998,28.0,780.0,37.0,27.0,18.0,25.0
1.5852667093276978,51.0,960.0,30.0,20.0,22.0,35.0
1.586566686630249,63.0,1284.0,29.0,13.0,38.0,13.0
1.5878666639328003,5.0,689.0,0.0,13.0,54.0,5.0
1.5891666412353516,12.0,25.0,31.0,13.0,49.0,37.0
1.5904666185379028,80.0,5.0,202.0,5.0,41.0,13.0
1.5917667150497437,42.0,43.0,374.0,5.0,34.0,25.0
1.593066692352295,18.0,54.0,195.0,5.0,26.0,29.0
1.5943666696548462,50.0,64.0,16.0,17.0,28.0,33.0
1.5956666469573975,0.0,21.0,25.0,17.0,23.0,25.0
1.5969666242599487,30.0,40.0,35.0,53.0,18.0,18.0
1.5982667207717896,41.0,59.0,46.0,32.0,23.0,17.0
1.5995666980743408,32.0,304.0,594.0,10.0,29.0,17.0
1.600866675376892,26.0,173.0,313.0,22.0,5.0,5.0
1.6022167205810547,29.0,42.0,32.0,48.0,8.0,14.0
1.603516697883606,10.0,38.0,678.0,30.0,10.0,6.0
1.6048166751861572,5.0,34.0,36.0,12.0,18.0,16.0
1.6061166524887085,3.0,10.0,50.0,0.0,25.0,31.0
1.6074166297912598,0.0,8.0,33.0,28.0,455.0,46.0
1.608716607093811,5.0,87.0,17.0,56.0,242.0,23.0
1.6100167036056519,10.0,167.0,19.0,42.0,29.0,0.0
1.6113166809082031,16.0,95.0,22.0,28.0,0.0,10.0
1.6126333475112915,39.0,24.0,30.0,41.0,32.0,5.0
1.6139166355133057,22.0,23.0,391.0,33.0,35.0,0.0
1.615216612815857,5.0,37.0,200.0,24.0,37.0,3.0
1.6165167093276978,5.0,31.0,8.0,26.0,0.0,5.0
1.617816686630249,0.0,25.0,48.0,28.0,10.0,24.0
1.6191833019256592,18.0,50.0,20.0,31.0,5.0,21.0
1.6204832792282104,16.0,9.0,53.0,18.0,18.0,6.0
1.6217833757400513,14.0,0.0,18.0,34.0,31.0,12.0
1.6230833530426025,9.0,5.0,10.0,31.0,24.0,11.0
1.6243833303451538,5.0,10.0,48.0,28.0,20.0,14.0
1.625683307647705,18.0,19.0,45.0,5.0,41.0,30.0
1.6269832849502563,14.0,27.0,43.0,5.0,0.0,15.0
1.6282833814620972,10.0,25.0,25.0,29.0,48.0,0.0
1.6295833587646484,8.0,24.0,11.0,22.0,31.0,13.0
1.6308833360671997,5.0,33.0,13.0,16.0,14.0,9.0
1.632183313369751,3.0,27.0,16.0,8.0,32.0,5.0
1.6334832906723022,0.0,21.0,18.0,0.0,0.0,0.0
1.634783387184143,9.0,14.0,14.0,7.0,31.0,11.0
1.6361333131790161,18.0,7.0,10.0,24.0,5.0,12.0
1.6374332904815674,19.0,26.0,23.0,19.0,14.0,12.0
1.6387333869934082,18.0,16.0,27.0,29.0,12.0,11.0
1.6400333642959595,17.0,7.0,31.0,23.0,15.0,12.0
1.6413333415985107,21.0,4.0,18.0,17.0,15.0,12.0
1.642633318901062,25.0,0.0,5.0,14.0,16.0,9.0
1.6439332962036133,30.0,29.0,23.0,5.0,31.0,5.0
1.645233392715454,0.0,23.0,14.0,7.0,27.0,3.0
1.6465333700180054,34.0,19.0,6.0,8.0,23.0,0.0
1.6478333473205566,24.0,9.0,13.0,53.0,37.0,19.0
1.649133324623108,23.0,0.0,21.0,44.0,24.0,19.0
1.6504333019256592,22.0,0.0,30.0,30.0,11.0,28.0
1.6517332792282104,27.0,18.0,20.0,19.0,39.0,14.0
1.6531000137329102,14.0,12.0,10.0,17.0,23.0,0.0
1.6543999910354614,0.0,17.0,5.0,19.0,35.0,49.0
1.6556999683380127,0.0,22.0,35.0,5.0,47.0,314.0
1.656999945640564,26.0,42.0,38.0,5.0,12.0,169.0
1.6583000421524048,19.0,44.0,40.0,8.0,32.0,25.0
1.659600019454956,12.0,45.0,51.0,11.0,47.0,33.0
1.6608999967575073,60.0,0.0,10.0,54.0,10.0,10.0
1.6621999740600586,68.0,8.0,33.0,36.0,17.0,5.0
1.6634999513626099,51.0,40.0,177.0,18.0,20.0,17.0
1.6648000478744507,39.0,9.0,104.0,17.0,43.0,19.0
1.666100025177002,0.0,28.0,32.0,10.0,48.0,21.0
1.6674000024795532,10.0,10.0,46.0,22.0,53.0,11.0
1.6686999797821045,21.0,51.0,59.0,457.0,74.0,13.0
1.670050024986267,34.0,42.0,0.0,256.0,48.0,14.0
1.6713500022888184,24.0,5.0,43.0,55.0,23.0,26.0
1.6726499795913696,14.0,22.0,692.0,12.0,53.0,27.0
1.673949956893921,40.0,11.0,947.0,10.0,37.0,10.0
1.6752500534057617,40.0,23.0,496.0,36.0,21.0,36.0
1.676550030708313,26.0,34.0,809.0,255.0,0.0,24.0
1.6778500080108643,11.0,33.0,10.0,127.0,30.0,11.0
1.6791499853134155,49.0,5.0,17.0,0.0,31.0,35.0
1.6804499626159668,48.0,55.0,406.0,17.0,46.0,18.0
1.6817500591278076,45.0,38.0,12.0,23.0,22.0,16.0
1.6830500364303589,16.0,21.0,35.0,18.0,42.0,25.0
1.6843500137329102,35.0,30.0,573.0,12.0,51.0,27.0
1.6856666803359985,5.0,29.0,602.0,22.0,20.0,34.0
1.6870167255401611,36.0,28.0,6.0,21.0,5.0,40.0
1.6883167028427124,25.0,288.0,318.0,14.0,22.0,0.0
1.6896166801452637,13.0,157.0,30.0,7.0,13.0,14.0
1.690916657447815,0.0,25.0,5.0,23.0,25.0,6.0
1.6922166347503662,33.0,31.0,53.0,16.0,39.0,5.0
1.6935166120529175,58.0,9.0,48.0,20.0,25.0,19.0
1.6948167085647583,67.0,170.0,24.0,0.0,11.0,20.0
1.6961166858673096,5.0,88.0,0.0,33.0,16.0,18.0
1.6974166631698608,55.0,7.0,16.0,22.0,20.0,14.0
1.698716640472412,29.0,102.0,227.0,10.0,18.0,10.0
1.7000166177749634,36.0,69.0,143.0,28.0,17.0,33.0
1.7013167142868042,6.0,36.0,59.0,25.0,8.0,55.0
1.7026166915893555,10.0,36.0,18.0,23.0,23.0,40.0
1.7039666175842285,18.0,36.0,6.0,5.0,11.0,0.0
1.7052667140960693,25.0,24.0,12.0,5.0,21.0,12.0
1.7065666913986206,38.0,29.0,12.0,5.0,26.0,19.0
1.7078666687011719,28.0,24.0,12.0,10.0,28.0,10.0
1.7091666460037231,18.0,18.0,17.0,5.0,31.0,0.0
1.7104666233062744,49.0,11.0,22.0,0.0,39.0,9.0
1.7117667198181152,48.0,7.0,14.0,14.0,47.0,19.0
1.7130666971206665,18.0,26.0,6.0,29.0,40.0,21.0
1.7143666744232178,0.0,32.0,27.0,34.0,43.0,5.0
1.715666651725769,42.0,27.0,49.0,38.0,45.0,3.0
1.7169666290283203,32.0,9.0,80.0,19.0,19.0,0.0
1.7182667255401611,45.0,24.0,82.0,22.0,35.0,8.0
1.7195667028427124,34.0,39.0,11.0,25.0,9.0,4.0
1.7209333181381226,22.0,725.0,54.0,20.0,28.0,0.0
1.7222332954406738,26.0,657.0,29.0,14.0,25.0,5.0
1.7235333919525146,11.0,553.0,12.0,26.0,23.0,13.0
1.724833369255066,23.0,932.0,17.0,7.0,13.0,17.0
1.7261333465576172,0.0,1031.0,21.0,12.0,23.0,21.0
1.7274333238601685,10.0,28.0,25.0,18.0,268.0,16.0
1.7287333011627197,21.0,18.0,22.0,19.0,183.0,10.0
1.730033278465271,13.0,30.0,20.0,14.0,97.0,5.0
1.7313333749771118,9.0,29.0,218.0,37.0,19.0,16.0
1.732633352279663,5.0,34.0,115.0,40.0,22.0,16.0
1.7339333295822144,5.0,20.0,11.0,43.0,47.0,16.0
1.7352333068847656,5.0,5.0,7.0,0.0,41.0,19.0
1.736533284187317,3.0,21.0,10.0,0.0,5.0,16.0
1.7378833293914795,0.0,37.0,12.0,0.0,0.0,12.0
1.7391833066940308,17.0,47.0,17.0,27.0,59.0,0.0
1.7404999732971191,18.0,56.0,11.0,28.0,28.0,10.0
1.7417833805084229,20.0,37.0,5.0,9.0,33.0,21.0
1.7430833578109741,13.0,29.0,15.0,6.0,30.0,16.0
1.7443833351135254,7.0,0.0,25.0,7.0,27.0,11.0
1.7457000017166138,19.0,53.0,30.0,27.0,33.0,7.0
1.746983289718628,9.0,25.0,34.0,16.0,31.0,12.0
1.7482833862304688,0.0,5.0,28.0,5.0,20.0,17.0
1.74958336353302,0.0,20.0,222.0,46.0,12.0,17.0
1.7508833408355713,0.0,34.0,141.0,53.0,0.0,18.0
1.7521833181381226,7.0,6.0,59.0,37.0,27.0,42.0
1.7534832954406738,46.0,22.0,14.0,24.0,16.0,31.0
1.7548500299453735,23.0,38.0,5.0,11.0,5.0,20.0
1.7561500072479248,0.0,45.0,18.0,38.0,11.0,17.0
1.757449984550476,14.0,17.0,7.0,23.0,17.0,7.0
1.7587499618530273,11.0,41.0,8.0,19.0,0.0,16.0
1.7600500583648682,43.0,33.0,9.0,10.0,20.0,13.0
1.7613500356674194,98.0,11.0,10.0,20.0,8.0,11.0
1.7626500129699707,75.0,11.0,32.0,29.0,7.0,12.0
1.763949990272522,0.0,11.0,31.0,37.0,0.0,12.0
1.7652499675750732,40.0,26.0,30.0,38.0,6.0,10.0
1.7665499448776245,26.0,41.0,12.0,38.0,11.0,6.0
1.7678500413894653,21.0,42.0,39.0,38.0,0.0,13.0
1.7691500186920166,25.0,41.0,29.0,37.0,23.0,20.0
1.7704499959945679,22.0,40.0,20.0,10.0,17.0,10.0
1.7718000411987305,19.0,5.0,16.0,35.0,10.0,0.0
1.7731000185012817,17.0,10.0,30.0,25.0,11.0,27.0
1.774399995803833,16.0,16.0,16.0,16.0,11.0,27.0
1.7756999731063843,21.0,12.0,13.0,39.0,14.0,39.0
1.7769999504089355,11.0,8.0,10.0,26.0,16.0,10.0
1.7783000469207764,14.0,7.0,5.0,35.0,18.0,10.0
1.7796000242233276,21.0,5.0,63.0,43.0,16.0,24.0
1.780900001525879,19.0,10.0,51.0,13.0,32.0,14.0
1.7821999788284302,17.0,16.0,41.0,37.0,31.0,5.0
1.7834999561309814,18.0,223.0,32.0,46.0,18.0,0.0
1.7848000526428223,22.0,131.0,11.0,10.0,33.0,0.0
1.7861000299453735,21.0,39.0,38.0,40.0,24.0,36.0
1.7874000072479248,20.0,255.0,31.0,27.0,0.0,51.0
1.788766622543335,13.0,21.0,0.0,20.0,22.0,35.0
1.7900667190551758,28.0,12.0,17.0,29.0,30.0,20.0
1.791366696357727,5.0,10.0,24.0,34.0,5.0,16.0
1.7926666736602783,10.0,10.0,10.0,38.0,17.0,30.0
1.7939666509628296,16.0,9.0,21.0,34.0,29.0,36.0
1.7952666282653809,19.0,5.0,10.0,21.0,21.0,40.0
1.7965667247772217,22.0,0.0,0.0,34.0,12.0,5.0
1.797866702079773,19.0,36.0,3.0,32.0,46.0,9.0
1.7991666793823242,17.0,41.0,5.0,30.0,49.0,20.0
1.8004666566848755,5.0,9.0,6.0,23.0,38.0,33.0
1.8017666339874268,13.0,17.0,7.0,16.0,33.0,27.0
1.803066611289978,22.0,13.0,4.0,16.0,38.0,43.0
1.8043667078018188,31.0,28.0,0.0,10.0,29.0,31.0
1.805733323097229,30.0,27.0,3.0,5.0,31.0,20.0
1.8070333003997803,28.0,17.0,5.0,21.0,33.0,25.0
1.8083332777023315,22.0,45.0,10.0,14.0,20.0,5.0
1.8096333742141724,16.0,40.0,16.0,7.0,7.0,17.0
1.8109333515167236,28.0,27.0,17.0,7.0,16.0,28.0
1.812233328819275,5.0,14.0,19.0,7.0,31.0,26.0
1.8135333061218262,13.0,21.0,29.0,23.0,16.0,24.0
1.8148332834243774,5.0,25.0,24.0,39.0,0.0,19.0
1.8161333799362183,10.0,20.0,19.0,42.0,50.0,14.0
1.8174333572387695,16.0,14.0,24.0,46.0,48.0,25.0
1.8187333345413208,55.0,26.0,29.0,29.0,46.0,5.0
1.820033311843872,31.0,5.0,37.0,27.0,42.0,11.0
1.8213332891464233,6.0,164.0,45.0,25.0,5.0,39.0
1.822700023651123,13.0,93.0,29.0,26.0,56.0,26.0
1.8240000009536743,0.0,22.0,12.0,27.0,19.0,12.0
1.8252999782562256,31.0,19.0,16.0,21.0,29.0,0.0
1.8265999555587769,24.0,16.0,28.0,33.0,28.0,10.0
1.8279000520706177,11.0,27.0,14.0,11.0,7.0,13.0
1.829200029373169,15.0,8.0,12.0,8.0,19.0,16.0
1.8305000066757202,19.0,5.0,27.0,5.0,32.0,18.0
1.8317999839782715,16.0,38.0,36.0,21.0,30.0,21.0
1.8330999612808228,12.0,19.0,0.0,30.0,31.0,27.0
1.8344000577926636,6.0,0.0,39.0,38.0,47.0,28.0
1.8357000350952148,10.0,11.0,20.0,27.0,0.0,5.0
1.8370000123977661,38.0,15.0,13.0,26.0,13.0,0.0
1.8382999897003174,33.0,19.0,10.0,6.0,29.0,19.0
1.839666724205017,0.0,18.0,33.0,18.0,13.0,5.0
1.8409667015075684,19.0,434.0,55.0,29.0,17.0,17.0
1.8422666788101196,11.0,225.0,52.0,39.0,19.0,10.0
1.843566656112671,19.0,16.0,44.0,38.0,10.0,9.0
1.8448666334152222,16.0,32.0,12.0,37.0,20.0,8.0
1.8461666107177734,13.0,17.0,57.0,25.0,7.0,5.0
1.8474667072296143,39.0,21.0,5.0,18.0,39.0,14.0
1.8487666845321655,33.0,23.0,20.0,5.0,46.0,24.0
1.8500666618347168,60.0,11.0,54.0,20.0,21.0,29.0
1.851366639137268,48.0,0.0,10.0,11.0,23.0,0.0
1.8526666164398193,13.0,0.0,16.0,38.0,26.0,0.0
1.8539667129516602,18.0,694.0,24.0,19.0,13.0,5.0
1.8552666902542114,42.0,351.0,33.0,0.0,0.0,11.0
1.8566166162490845,0.0,7.0,34.0,14.0,13.0,13.0
1.8579167127609253,10.0,173.0,21.0,44.0,0.0,0.0
1.8592166900634766,37.0,339.0,0.0,74.0,7.0,14.0
1.8605166673660278,29.0,5.0,0.0,57.0,0.0,27.0
1.861816644668579,14.0,13.0,60.0,34.0,3.0,27.0
1.8631166219711304,30.0,158.0,47.0,20.0,5.0,28.0
1.8644167184829712,29.0,67.0,5.0,24.0,33.0,33.0
1.8657166957855225,28.0,23.0,20.0,23.0,83.0,37.0
1.8670166730880737,11.0,17.0,10.0,23.0,45.0,48.0
1.868316650390625,6.0,23.0,0.0,27.0,6.0,29.0
1.8696166276931763,14.0,36.0,27.0,27.0,0.0,10.0
1.870916724205017,24.0,31.0,5.0,30.0,0.0,12.0
1.8722167015075684,35.0,10.0,20.0,29.0,0.0,13.0
1.8735500574111938,37.0,22.0,34.0,28.0,0.0,16.0
1.8748500347137451,38.0,237.0,35.0,12.0,10.0,19.0
1.8761500120162964,51.0,452.0,289.0,25.0,29.0,20.0
1.8774499893188477,0.0,277.0,337.0,19.0,31.0,12.0
1.878749966621399,5.0,101.0,33.0,16.0,33.0,10.0
1.8800499439239502,26.0,12.0,32.0,12.0,19.0,12.0
1.881350040435791,34.0,0.0,30.0,10.0,19.0,13.0
1.8826500177383423,29.0,40.0,5.0,18.0,29.0,19.0
1.8839499950408936,32.0,24.0,39.0,0.0,10.0,22.0
1.8852499723434448,34.0,8.0,22.0,24.0,35.0,11.0
1.886549949645996,16.0,5.0,25.0,16.0,11.0,0.0
1.887850046157837,10.0,16.0,29.0,12.0,9.0,5.0
1.8891500234603882,35.0,5.0,20.0,54.0,7.0,10.0
1.8905166387557983,40.0,12.0,10.0,39.0,11.0,42.0
1.8918166160583496,7.0,19.0,10.0,25.0,14.0,24.0
1.8931167125701904,34.0,17.0,10.0,7.0,23.0,5.0
1.8944166898727417,23.0,14.0,21.0,19.0,32.0,22.0
1.895716667175293,11.0,48.0,31.0,31.0,27.0,19.0
1.8970166444778442,12.0,50.0,30.0,21.0,23.0,16.0
1.8983166217803955,17.0,53.0,18.0,11.0,7.0,14.0
1.8996167182922363,22.0,40.0,26.0,24.0,27.0,18.0
1.9009166955947876,34.0,27.0,24.0,29.0,22.0,22.0
1.9022166728973389,20.0,91.0,22.0,30.0,16.0,14.0
1.9035166501998901,5.0,715.0,0.0,0.0,36.0,7.0
1.9048166275024414,21.0,851.0,52.0,21.0,29.0,25.0
1.9061167240142822,0.0,751.0,35.0,11.0,23.0,12.0
1.9074833393096924,52.0,650.0,13.0,26.0,5.0,0.0
1.9087833166122437,53.0,5.0,32.0,23.0,31.0,0.0
1.910083293914795,25.0,37.0,20.0,21.0,10.0,7.0
1.9113833904266357,46.0,272.0,32.0,16.0,0.0,16.0
1.912683367729187,34.0,19.0,50.0,10.0,39.0,16.0
1.9139833450317383,35.0,16.0,51.0,24.0,30.0,16.0
1.9152833223342896,21.0,59.0,5.0,18.0,20.0,5.0
1.9165832996368408,10.0,47.0,56.0,12.0,42.0,13.0
1.917883276939392,43.0,35.0,19.0,36.0,16.0,21.0
1.919183373451233,22.0,41.0,5.0,26.0,10.0,10.0
1.9204833507537842,10.0,39.0,130.0,17.0,45.0,0.0
1.9217833280563354,35.0,38.0,486.0,22.0,32.0,29.0
1.9230833053588867,26.0,5.0,250.0,10.0,19.0,17.0
1.9244500398635864,25.0,422.0,14.0,34.0,16.0,8.0
1.9257500171661377,13.0,219.0,35.0,40.0,22.0,0.0
1.927049994468689,29.0,16.0,372.0,53.0,28.0,104.0
1.9283499717712402,24.0,36.0,231.0,27.0,27.0,71.0
1.9296499490737915,5.0,56.0,0.0,6.0,17.0,37.0
1.9309500455856323,25.0,18.0,50.0,21.0,7.0,14.0
1.9322500228881836,27.0,23.0,37.0,36.0,11.0,11.0
1.9335500001907349,30.0,29.0,16.0,19.0,25.0,9.0
1.9348499774932861,30.0,11.0,37.0,27.0,65.0,7.0
1.9361499547958374,30.0,441.0,0.0,39.0,33.0,10.0
1.9374500513076782,45.0,418.0,26.0,51.0,0.0,12.0
1.9387500286102295,33.0,226.0,26.0,5.0,35.0,36.0
1.9400500059127808,20.0,35.0,26.0,12.0,20.0,38.0
1.9414000511169434,28.0,71.0,22.0,31.0,5.0,30.0
1.9427000284194946,23.0,28.0,19.0,225.0,36.0,31.0
1.944000005722046,18.0,63.0,24.0,122.0,5.0,32.0
1.9452999830245972,12.0,41.0,28.0,19.0,27.0,12.0
1.9465999603271484,0.0,20.0,32.0,28.0,25.0,0.0
1.9479000568389893,35.0,25.0,27.0,46.0,23.0,21.0
1.9492000341415405,33.0,26.0,128.0,29.0,55.0,38.0
1.9505000114440918,32.0,28.0,95.0,46.0,177.0,31.0
1.951799988746643,27.0,10.0,61.0,17.0,107.0,10.0
1.9530999660491943,11.0,5.0,19.0,20.0,37.0,25.0
1.9543999433517456,7.0,29.0,31.0,0.0,37.0,20.0
1.9557000398635864,10.0,11.0,10.0,17.0,81.0,14.0
1.9570000171661377,5.0,14.0,29.0,17.0,47.0,0.0
1.9583666324615479,16.0,21.0,5.0,18.0,19.0,50.0
1.9596666097640991,27.0,10.0,16.0,42.0,13.0,31.0
1.96096670627594,13.0,0.0,26.0,46.0,58.0,12.0
1.9622666835784912,0.0,38.0,30.0,49.0,33.0,19.0
1.9635666608810425,21.0,43.0,34.0,32.0,5.0,16.0
1.9648666381835938,13.0,48.0,37.0,18.0,32.0,12.0
1.966166615486145,30.0,48.0,27.0,28.0,18.0,36.0
1.9674667119979858,19.0,16.0,17.0,28.0,5.0,32.0
1.968766689300537,10.0,37.0,17.0,18.0,34.0,6.0
1.9700666666030884,18.0,26.0,18.0,7.0,32.0,24.0
1.9713666439056396,0.0,16.0,114.0,14.0,34.0,13.0
1.972666621208191,13.0,21.0,72.0,12.0,22.0,11.0
1.9739667177200317,26.0,17.0,29.0,25.0,34.0,27.0
1.9753166437149048,11.0,13.0,13.0,22.0,11.0,0.0
1.976616621017456,14.0,5.0,489.0,20.0,49.0,58.0
1.9779167175292969,10.0,12.0,245.0,25.0,0.0,57.0
1.9792166948318481,5.0,19.0,0.0,24.0,33.0,26.0
1.9805166721343994,11.0,284.0,22.0,24.0,48.0,11.0
1.9818166494369507,0.0,142.0,0.0,24.0,23.0,33.0
1.983116626739502,16.0,0.0,0.0,23.0,17.0,22.0
1.9844167232513428,32.0,43.0,0.0,22.0,22.0,16.0
1.985716700553894,27.0,28.0,0.0,56.0,16.0,27.0
1.9870166778564453,33.0,20.0,26.0,46.0,22.0,26.0
1.9883166551589966,23.0,5.0,31.0,36.0,29.0,0.0
1.9896166324615479,23.0,12.0,0.0,10.0,36.0,11.0
1.9909166097640991,23.0,31.0,23.0,12.0,7.0,32.0
1.9922833442687988,17.0,23.0,13.0,19.0,28.0,5.0
1.99358332157135,11.0,14.0,13.0,19.0,39.0,0.0
1.9948832988739014,37.0,5.0,0.0,12.0,28.0,7.0
1.9961832761764526,37.0,30.0,16.0,5.0,18.0,14.0
1.9974833726882935,34.0,32.0,22.0,9.0,11.0,14.0
1.9987833499908447,39.0,29.0,22.0,12.0,23.0,10.0
