,335.2099914550781,336.2099914550781,337.2099914550781,338.2099914550781,339.2099914550781,340.2099914550781,341.2099914550781,342.2099914550781,343.2099914550781,344.2099914550781,345.2099914550781
5.702383518218994,45.0,13.0,59.0,17.0,15.0,28.0,16.0,47.0,24.0,19.0,6.0
5.704766750335693,0.0,0.0,34.0,72.0,24.0,21.0,244.0,24.0,20.0,35.0,5.0
5.707149982452393,12.0,35.0,27.0,7.0,16.0,18.0,64.0,58.0,39.0,1420.0,122.0
5.709533214569092,48.0,0.0,28.0,23.0,17.0,33.0,5.0,5.0,23.0,28.0,6.0
5.711916446685791,14.0,14.0,29.0,39.0,17.0,21.0,11.0,39.0,8.0,55.0,32.0
5.714300155639648,42.0,16.0,20.0,30.0,41.0,8.0,8.0,11.0,20.0,13.0,39.0
5.716683387756348,40.0,0.0,0.0,12.0,40.0,5.0,13.0,13.0,22.0,19.0,270.0
5.719133377075195,25.0,20.0,19.0,14.0,39.0,12.0,12.0,36.0,24.0,24.0,184.0
5.7215166091918945,10.0,13.0,22.0,16.0,5.0,9.0,10.0,5.0,28.0,5.0,98.0
5.723899841308594,28.0,0.0,25.0,11.0,5.0,5.0,8.0,31.0,32.0,56.0,35.0
5.726283550262451,11.0,21.0,0.0,17.0,12.0,16.0,104.0,35.0,28.0,260.0,48.0
5.72866678237915,17.0,43.0,5.0,22.0,13.0,11.0,57.0,10.0,24.0,130.0,60.0
5.73105001449585,22.0,59.0,26.0,23.0,20.0,5.0,9.0,41.0,31.0,0.0,40.0
5.733433246612549,26.0,52.0,21.0,22.0,43.0,8.0,36.0,56.0,25.0,38.0,21.0
5.735866546630859,5.0,48.0,5.0,20.0,25.0,10.0,5.0,5.0,18.0,9.0,17.0
5.738249778747559,22.0,44.0,34.0,5.0,6.0,11.0,5.0,57.0,10.0,14.0,19.0
5.740633487701416,13.0,14.0,24.0,17.0,5.0,11.0,11.0,64.0,26.0,18.0,5.0
5.743016719818115,22.0,10.0,13.0,23.0,5.0,12.0,16.0,15.0,10.0,16.0,16.0
5.7453999519348145,16.0,32.0,253.0,21.0,5.0,12.0,41.0,68.0,0.0,11.0,25.0
5.747783184051514,11.0,0.0,129.0,28.0,13.0,16.0,49.0,28.0,29.0,5.0,20.0
5.750166893005371,19.0,384.0,5.0,36.0,14.0,20.0,38.0,11.0,11.0,16.0,52.0
5.752616882324219,28.0,202.0,20.0,37.0,15.0,22.0,26.0,30.0,24.0,10.0,58.0
5.755000114440918,36.0,19.0,23.0,36.0,16.0,19.0,54.0,21.0,5.0,0.0,24.0
5.757383346557617,38.0,23.0,5.0,25.0,17.0,16.0,5.0,11.0,12.0,25.0,48.0
5.759766578674316,45.0,29.0,14.0,14.0,10.0,13.0,38.0,36.0,13.0,18.0,18.0
5.762149810791016,44.0,5.0,23.0,23.0,13.0,12.0,22.0,29.0,14.0,11.0,7.0
5.764533519744873,43.0,5.0,40.0,14.0,42.0,11.0,5.0,21.0,22.0,18.0,29.0
5.766916751861572,22.0,19.0,28.0,0.0,40.0,9.0,29.0,21.0,44.0,13.0,29.0
5.76936674118042,19.0,7.0,36.0,32.0,39.0,10.0,29.0,25.0,28.0,19.0,29.0
5.771749973297119,45.0,0.0,10.0,16.0,40.0,10.0,28.0,28.0,13.0,25.0,16.0
5.774133205413818,42.0,23.0,13.0,0.0,10.0,16.0,11.0,10.0,21.0,25.0,18.0
5.776516437530518,13.0,12.0,21.0,19.0,12.0,20.0,30.0,15.0,5.0,13.0,31.0
5.778900146484375,8.0,0.0,34.0,10.0,14.0,23.0,40.0,19.0,3.0,30.0,27.0
5.781283378601074,11.0,5.0,48.0,11.0,19.0,21.0,26.0,0.0,0.0,0.0,14.0
5.783666610717773,8.0,10.0,30.0,11.0,24.0,43.0,18.0,38.0,5.0,17.0,25.0
5.786099910736084,5.0,21.0,12.0,16.0,29.0,38.0,22.0,30.0,13.0,32.0,36.0
5.788483142852783,11.0,31.0,10.0,11.0,12.0,32.0,26.0,0.0,21.0,20.0,8.0
5.790866851806641,16.0,27.0,41.0,6.0,31.0,25.0,27.0,30.0,24.0,25.0,10.0
5.79325008392334,12.0,22.0,26.0,5.0,29.0,0.0,27.0,42.0,26.0,30.0,36.0
5.795633316040039,8.0,0.0,12.0,8.0,35.0,16.0,27.0,34.0,12.0,35.0,16.0
5.798016548156738,19.0,16.0,24.0,11.0,18.0,14.0,26.0,42.0,36.0,29.0,11.0
5.8003997802734375,26.0,18.0,24.0,9.0,23.0,12.0,25.0,23.0,29.0,23.0,5.0
5.802849769592285,33.0,10.0,5.0,7.0,10.0,31.0,23.0,11.0,9.0,29.0,5.0
5.805233478546143,5.0,32.0,19.0,11.0,30.0,32.0,27.0,10.0,39.0,41.0,5.0
5.807616710662842,69.0,19.0,33.0,14.0,57.0,27.0,31.0,8.0,29.0,5.0,5.0
5.809999942779541,133.0,5.0,27.0,31.0,47.0,27.0,0.0,6.0,36.0,15.0,25.0
5.81238317489624,590.0,242.0,21.0,36.0,34.0,25.0,29.0,10.0,28.0,29.0,27.0
5.814766883850098,475.0,131.0,18.0,0.0,27.0,10.0,23.0,42.0,21.0,8.0,32.0
5.817150115966797,27.0,19.0,15.0,50.0,20.0,30.0,6.0,31.0,33.0,26.0,21.0
5.819583415985107,23.0,34.0,374.0,16.0,21.0,25.0,7.0,19.0,29.0,21.0,10.0
5.821966648101807,18.0,14.0,195.0,10.0,11.0,20.0,5.0,27.0,5.0,16.0,9.0
5.824349880218506,1101.0,12.0,16.0,93.0,0.0,22.0,10.0,18.0,5.0,58.0,7.0
5.826733112335205,576.0,18.0,21.0,65.0,14.0,22.0,19.0,30.0,47.0,37.0,30.0
5.8291168212890625,51.0,24.0,5.0,36.0,9.0,21.0,17.0,42.0,45.0,16.0,25.0
5.831500053405762,10.0,53.0,25.0,34.0,5.0,5.0,14.0,36.0,43.0,11.0,15.0
5.833883285522461,710.0,82.0,15.0,13.0,10.0,35.0,12.0,30.0,21.0,0.0,5.0
5.836333274841309,122.0,58.0,22.0,57.0,8.0,23.0,12.0,458.0,54.0,13.0,15.0
5.838716506958008,5.0,35.0,15.0,87.0,7.0,10.0,12.0,254.0,5.0,12.0,30.0
5.841100215911865,16.0,22.0,7.0,70.0,35.0,10.0,0.0,50.0,21.0,10.0,67.0
5.8434834480285645,59.0,16.0,12.0,15.0,33.0,28.0,5.0,11.0,15.0,0.0,65.0
5.845866680145264,29.0,5.0,0.0,0.0,5.0,0.0,41.0,25.0,16.0,34.0,0.0
5.848249912261963,0.0,14.0,8.0,60.0,44.0,10.0,36.0,32.0,397.0,27.0,17.0
5.850633144378662,5.0,22.0,15.0,16.0,49.0,16.0,31.0,13.0,584.0,19.0,33.0
5.85308313369751,0.0,19.0,24.0,6.0,5.0,5.0,23.0,35.0,365.0,52.0,0.0
5.855466842651367,16.0,30.0,28.0,28.0,12.0,5.0,24.0,79.0,190.0,0.0,38.0
5.857850074768066,32.0,42.0,32.0,5.0,27.0,17.0,24.0,47.0,10.0,51.0,10.0
5.860233306884766,18.0,41.0,35.0,15.0,27.0,18.0,10.0,15.0,22.0,11.0,18.0
5.862616539001465,5.0,22.0,10.0,10.0,17.0,23.0,0.0,5.0,34.0,11.0,25.0
5.864999771118164,36.0,23.0,10.0,13.0,15.0,28.0,5.0,17.0,484.0,52.0,18.0
5.8673834800720215,5.0,20.0,5.0,41.0,19.0,35.0,27.0,5.0,527.0,36.0,5.0
5.869800090789795,12.0,22.0,11.0,23.0,10.0,30.0,36.0,10.0,571.0,0.0,117.0
5.872200012207031,5.0,11.0,8.0,6.0,19.0,25.0,21.0,10.0,786.0,388.0,58.0
5.8745832443237305,16.0,0.0,5.0,45.0,25.0,10.0,31.0,10.0,3115.0,390.0,0.0
5.87696647644043,23.0,0.0,5.0,7.0,19.0,10.0,23.0,10.0,2454.0,27.0,74.0
5.879350185394287,31.0,10.0,5.0,12.0,13.0,15.0,15.0,9.0,1793.0,18.0,29.0
5.881733417510986,39.0,5.0,5.0,17.0,13.0,16.0,25.0,12.0,701.0,15.0,19.0
5.8841166496276855,34.0,0.0,30.0,14.0,13.0,16.0,32.0,25.0,2358.0,80.0,17.0
5.886499881744385,30.0,8.0,31.0,10.0,0.0,43.0,27.0,18.0,2401.0,144.0,14.0
5.888949871063232,5.0,4.0,19.0,8.0,0.0,34.0,22.0,10.0,275.0,94.0,15.0
5.891333103179932,24.0,0.0,16.0,10.0,5.0,25.0,260.0,833.0,3452.0,45.0,50.0
5.893716812133789,17.0,0.0,21.0,12.0,32.0,16.0,264.0,1020.0,20.0,31.0,45.0
5.896100044250488,10.0,0.0,21.0,15.0,30.0,31.0,0.0,774.0,62.0,18.0,32.0
5.8984832763671875,10.0,0.0,20.0,10.0,41.0,26.0,19.0,492.0,1860.0,418.0,20.0
5.900866508483887,38.0,10.0,22.0,5.0,40.0,20.0,28.0,974.0,355.0,240.0,22.0
5.903250217437744,32.0,19.0,23.0,15.0,6.0,19.0,28.0,2578.0,1129.0,63.0,17.0
5.905683517456055,22.0,25.0,5.0,5.0,23.0,17.0,27.0,2084.0,24.0,9.0,11.0
5.908066749572754,5.0,31.0,18.0,21.0,25.0,711.0,17.0,1979.0,24.0,7.0,6.0
5.910449981689453,31.0,23.0,0.0,32.0,5.0,358.0,36.0,1873.0,81.0,5.0,0.0
5.912833213806152,10.0,10.0,28.0,41.0,34.0,5.0,24.0,1879.0,239.0,12.0,0.0
5.915216445922852,10.0,23.0,27.0,27.0,23.0,10.0,12.0,1884.0,120.0,18.0,0.0
5.917600154876709,44.0,17.0,7.0,19.0,12.0,27.0,14.0,1323.0,0.0,19.0,6.0
5.919983386993408,32.0,11.0,20.0,13.0,12.0,30.0,16.0,3043.0,914.0,20.0,12.0
5.922433376312256,21.0,17.0,0.0,33.0,18.0,33.0,0.0,1664.0,472.0,10.0,11.0
5.924816608428955,9.0,44.0,13.0,22.0,13.0,5.0,8.0,284.0,30.0,0.0,20.0
5.927199840545654,5.0,36.0,25.0,11.0,17.0,11.0,16.0,986.0,291.0,30.0,15.0
5.929583549499512,6.0,38.0,34.0,54.0,5.0,16.0,0.0,1688.0,552.0,38.0,11.0
5.931966781616211,10.0,41.0,43.0,32.0,24.0,0.0,11.0,1481.0,933.0,27.0,21.0
5.93435001373291,41.0,24.0,9.0,10.0,30.0,0.0,22.0,677.0,633.0,21.0,19.0
5.936733245849609,23.0,14.0,24.0,10.0,32.0,5.0,29.0,793.0,343.0,14.0,32.0
5.93916654586792,5.0,39.0,40.0,24.0,24.0,10.0,18.0,1091.0,10.0,6.0,46.0
5.941549777984619,10.0,13.0,47.0,114.0,16.0,12.0,7.0,1390.0,27.0,11.0,58.0
5.943933486938477,23.0,258.0,6.0,205.0,18.0,6.0,21.0,208.0,108.0,16.0,57.0
5.946316719055176,15.0,142.0,19.0,406.0,12.0,0.0,34.0,616.0,488.0,18.0,51.0
5.948699951171875,23.0,26.0,39.0,607.0,6.0,3.0,28.0,936.0,256.0,10.0,45.0
5.951083183288574,11.0,0.0,812.0,1692.0,2211.0,5.0,64.0,899.0,23.0,37.0,18.0
5.9534831047058105,47.0,13.0,5316.0,5300.0,3958.0,1146.0,1173.0,980.0,38.0,63.0,17.0
5.955900192260742,43.0,4046.0,5437.0,7978.0,6967.0,6370.0,3854.0,2935.0,1078.0,49.0,32.0
5.958283424377441,39.0,5273.0,6555.0,8792.0,7775.0,12668.0,10644.0,4706.0,3032.0,36.0,48.0
5.960666656494141,10.0,13160.0,26920.0,26760.0,26228.0,17928.0,13368.0,11872.0,5330.0,3644.0,494.0
5.96304988861084,38.0,38336.0,57520.0,44400.0,50048.0,45168.0,23316.0,15840.0,9180.0,4237.0,1858.0
5.965433120727539,16.0,44496.0,79600.0,78832.0,81648.0,69824.0,82480.0,25932.0,14096.0,5786.0,3221.0
5.9678168296813965,47.0,74432.0,163200.0,174784.0,141312.0,118192.0,74624.0,59344.0,26652.0,8948.0,5472.0
5.970200061798096,34.0,129088.0,233920.0,293696.0,213056.0,197120.0,131264.0,74192.0,40576.0,24892.0,6816.0
5.972599983215332,32.0,184256.0,375360.0,373312.0,310080.0,257536.0,201152.0,106320.0,63792.0,20748.0,6703.0
5.974999904632568,11.0,266368.0,526848.0,492032.0,425536.0,356416.0,274176.0,146496.0,68976.0,30564.0,6590.0
5.977383136749268,40.0,352768.0,657152.0,668416.0,520896.0,434112.0,320768.0,187264.0,67856.0,34688.0,12608.0
5.979766845703125,69.0,440128.0,786432.0,744448.0,679936.0,570624.0,397184.0,206272.0,123536.0,54672.0,16948.0
5.982150077819824,80.0,540416.0,982528.0,909568.0,764928.0,613376.0,465984.0,244032.0,113472.0,57088.0,24428.0
5.984533309936523,26.0,553472.0,1158912.0,1022464.0,860928.0,724992.0,539392.0,285632.0,153792.0,71920.0,22344.0
5.986916542053223,32.0,707840.0,1274368.0,1160192.0,926720.0,737792.0,547840.0,277952.0,145472.0,76656.0,15652.0
5.989316463470459,38.0,784640.0,1355520.0,1292288.0,1006080.0,815616.0,568832.0,327808.0,164992.0,74256.0,27924.0
5.991700172424316,68.0,708608.0,1353984.0,1216768.0,1004800.0,874752.0,591616.0,303808.0,158016.0,77072.0,28632.0
5.994083404541016,98.0,865280.0,1366272.0,1338624.0,1080320.0,886784.0,571904.0,325632.0,159744.0,77568.0,25604.0
5.996466636657715,126.0,833536.0,1381888.0,1239296.0,1047296.0,878336.0,619776.0,304960.0,161920.0,68496.0,27532.0
5.998849868774414,101.0,816640.0,1397504.0,1251328.0,1076992.0,803584.0,621824.0,328896.0,160128.0,70272.0,16812.0
6.001233100891113,92.0,824832.0,1333760.0,1291264.0,1054976.0,849920.0,560640.0,286016.0,158400.0,64464.0,29744.0
6.003616809844971,110.0,761344.0,1287424.0,1210624.0,1039104.0,785408.0,528128.0,277568.0,138432.0,53168.0,22188.0
6.006066799163818,102.0,662528.0,1249024.0,1139968.0,864000.0,688128.0,511680.0,234944.0,127216.0,57344.0,22580.0
6.008450031280518,94.0,655104.0,1168896.0,1029888.0,822272.0,611840.0,461824.0,228544.0,118768.0,51824.0,21852.0
6.010833263397217,102.0,555520.0,1011200.0,892416.0,811520.0,574976.0,416576.0,199488.0,113056.0,50048.0,17504.0
6.013216495513916,91.0,522688.0,924672.0,845312.0,627200.0,515392.0,357504.0,193216.0,87040.0,38544.0,12600.0
6.015600204467773,79.0,474688.0,832768.0,688896.0,536832.0,428672.0,284288.0,150208.0,84048.0,31988.0,17056.0
6.017983436584473,66.0,382464.0,694016.0,583168.0,455232.0,344704.0,271296.0,130288.0,59072.0,29684.0,10248.0
6.020366668701172,54.0,349760.0,534272.0,473344.0,430400.0,298176.0,182336.0,106544.0,50896.0,25628.0,8067.0
6.022799968719482,34.0,259200.0,456128.0,388992.0,336192.0,238656.0,198656.0,88064.0,41200.0,16392.0,4888.0
6.025183200836182,45.0,215936.0,329216.0,295488.0,255488.0,189184.0,122736.0,50864.0,28732.0,7809.0,6256.0
6.027566432952881,56.0,163968.0,271936.0,230336.0,206336.0,150720.0,101456.0,67584.0,22172.0,7998.0,3306.0
6.029950141906738,50.0,119776.0,194944.0,184640.0,163904.0,103888.0,83568.0,35008.0,21584.0,7269.0,4627.0
6.0323333740234375,44.0,79952.0,164096.0,130464.0,107200.0,82304.0,56544.0,24176.0,8416.0,5453.0,2565.0
6.034716606140137,42.0,74304.0,108768.0,131776.0,93568.0,78288.0,41152.0,21620.0,10464.0,5134.0,1861.0
6.037099838256836,41.0,54656.0,87040.0,77968.0,73024.0,52080.0,34032.0,16468.0,6607.0,3685.0,1971.0
6.039549827575684,34.0,49296.0,68544.0,80160.0,61744.0,37840.0,35840.0,11368.0,11980.0,1884.0,701.0
6.041933536529541,26.0,33424.0,54256.0,59376.0,47552.0,23920.0,24376.0,13148.0,4003.0,2936.0,2041.0
6.04431676864624,31.0,23800.0,60960.0,35376.0,45472.0,32540.0,23016.0,12984.0,7510.0,4501.0,901.0
6.0467000007629395,36.0,30208.0,47824.0,40016.0,26324.0,16624.0,15328.0,6685.0,4099.0,1758.0,735.0
6.049083232879639,15.0,16908.0,28724.0,31684.0,22720.0,18312.0,21264.0,5631.0,2163.0,1182.0,54.0
6.051466464996338,12.0,19740.0,30616.0,26904.0,23324.0,16540.0,18676.0,6555.0,3684.0,2064.0,1087.0
6.053850173950195,24.0,18732.0,32020.0,24980.0,25624.0,15624.0,16956.0,6346.0,993.0,1690.0,25.0
6.056283473968506,37.0,19516.0,26236.0,27844.0,17724.0,14708.0,12356.0,5953.0,1980.0,1339.0,32.0
6.058666706085205,59.0,13916.0,28896.0,17740.0,21064.0,14016.0,7561.0,5820.0,4900.0,784.0,38.0
6.061049938201904,50.0,21852.0,25124.0,25812.0,15280.0,14900.0,5681.0,5687.0,4108.0,1211.0,15.0
6.0634331703186035,41.0,18332.0,29008.0,25168.0,18848.0,15784.0,10188.0,4219.0,3339.0,219.0,6.0
6.065816879272461,47.0,13184.0,19832.0,17632.0,20668.0,15904.0,8836.0,6088.0,3388.0,55.0,25.0
6.06820011138916,54.0,12784.0,30648.0,20200.0,23732.0,14548.0,7482.0,7567.0,2051.0,799.0,16.0
6.070583343505859,216.0,6913.0,21144.0,14724.0,11648.0,14120.0,8356.0,7090.0,2007.0,527.0,18.0
6.073033332824707,116.0,11644.0,28068.0,19252.0,11916.0,10472.0,8724.0,6612.0,2563.0,296.0,19.0
6.075416564941406,17.0,14016.0,22516.0,22872.0,14220.0,13996.0,9092.0,6448.0,2605.0,65.0,19.0
6.0777997970581055,36.0,7612.0,14824.0,19764.0,13512.0,7258.0,6894.0,7143.0,2648.0,208.0,19.0
6.080183506011963,56.0,8520.0,11412.0,13004.0,12808.0,9908.0,3597.0,2371.0,2040.0,352.0,489.0
6.082566738128662,5.0,10080.0,16776.0,15112.0,14420.0,11280.0,5004.0,1118.0,984.0,102.0,250.0
6.084949970245361,63.0,9588.0,14564.0,13240.0,10340.0,11168.0,7421.0,3104.0,17.0,55.0,11.0
6.0873332023620605,52.0,5168.0,12356.0,10904.0,8932.0,8932.0,5990.0,3947.0,5.0,7.0,11.0
6.089783191680908,42.0,7600.0,12556.0,6762.0,8216.0,6383.0,7796.0,1011.0,460.0,30.0,33.0
6.092166900634766,17.0,6955.0,10152.0,6179.0,7544.0,5948.0,4939.0,1774.0,914.0,1176.0,34.0
6.094550132751465,644.0,6700.0,11344.0,5597.0,7623.0,4679.0,2642.0,2786.0,1685.0,1113.0,34.0
6.096933364868164,335.0,6444.0,12876.0,6639.0,7569.0,3634.0,6424.0,2844.0,859.0,39.0,681.0
6.099316596984863,25.0,5557.0,6141.0,6340.0,8004.0,2590.0,4458.0,1604.0,33.0,31.0,352.0
6.1016998291015625,18.0,5390.0,6667.0,6040.0,3578.0,5636.0,2191.0,199.0,92.0,54.0,23.0
6.10408353805542,11.0,5223.0,7067.0,6001.0,4462.0,5310.0,2445.0,1665.0,151.0,76.0,23.0
6.106500148773193,23.0,5738.0,7658.0,5962.0,5640.0,3023.0,3931.0,1892.0,492.0,52.0,39.0
6.10890007019043,498.0,2430.0,3437.0,6541.0,3724.0,7013.0,1553.0,732.0,833.0,28.0,31.0
6.111283302307129,252.0,2939.0,4731.0,3831.0,3408.0,2477.0,1294.0,2270.0,837.0,15.0,23.0
6.113666534423828,5.0,3367.0,3857.0,2260.0,1775.0,2601.0,4507.0,5.0,841.0,778.0,17.0
6.116049766540527,26.0,1998.0,3475.0,6682.0,6319.0,942.0,2222.0,2149.0,298.0,972.0,32.0
6.118433475494385,31.0,2029.0,3094.0,6224.0,5011.0,1733.0,1768.0,0.0,475.0,22.0,59.0
6.120816707611084,36.0,2059.0,3124.0,5766.0,3704.0,2524.0,1860.0,1112.0,652.0,1199.0,45.0
6.123199939727783,17.0,3797.0,3154.0,4007.0,6067.0,3083.0,945.0,553.0,347.0,87.0,31.0
6.125649929046631,7.0,3379.0,3623.0,4707.0,6815.0,3642.0,1311.0,809.0,41.0,888.0,24.0
6.12803316116333,7.0,2508.0,3244.0,5408.0,1355.0,547.0,1677.0,578.0,28.0,48.0,21.0
6.1304168701171875,7.0,1644.0,2865.0,4509.0,2884.0,413.0,2008.0,347.0,401.0,380.0,18.0
6.132800102233887,12.0,1799.0,1960.0,3695.0,2859.0,1701.0,2242.0,703.0,774.0,24.0,47.0
6.135183334350586,11.0,1955.0,3153.0,3680.0,1800.0,1470.0,873.0,1060.0,500.0,10.0,45.0
6.137566566467285,11.0,1908.0,4346.0,3852.0,1311.0,2020.0,460.0,571.0,226.0,75.0,44.0
6.139949798583984,0.0,1818.0,5098.0,4023.0,2470.0,1457.0,1118.0,82.0,461.0,5.0,50.0
6.142383098602295,23.0,1897.0,3526.0,3821.0,1775.0,1611.0,1330.0,6.0,665.0,33.0,56.0
6.144766807556152,45.0,2139.0,3448.0,3619.0,1080.0,1400.0,1542.0,1439.0,358.0,5.0,53.0
6.147150039672852,37.0,1693.0,3371.0,1869.0,675.0,1189.0,1213.0,1363.0,51.0,22.0,51.0
6.149533271789551,24.0,1248.0,2995.0,2439.0,270.0,61.0,1568.0,1155.0,31.0,31.0,36.0
6.15191650390625,7.0,980.0,3118.0,2322.0,661.0,30.0,1924.0,1528.0,450.0,41.0,20.0
6.154300212860107,29.0,1262.0,3033.0,2444.0,1051.0,0.0,1694.0,16.0,868.0,67.0,31.0
6.156683444976807,13.0,1543.0,2219.0,2566.0,3174.0,1521.0,1465.0,252.0,1105.0,1037.0,52.0
6.159133434295654,58.0,1610.0,2415.0,1934.0,3301.0,1793.0,1810.0,679.0,1063.0,1168.0,50.0
6.1615166664123535,29.0,1355.0,2611.0,2230.0,1524.0,1049.0,1401.0,345.0,25.0,24.0,33.0
6.163899898529053,0.0,1100.0,4090.0,2526.0,3744.0,2650.0,1647.0,11.0,329.0,28.0,28.0
6.166283130645752,43.0,1453.0,4929.0,2118.0,601.0,3096.0,1893.0,23.0,43.0,34.0,22.0
6.168666839599609,5.0,658.0,996.0,1710.0,1287.0,2033.0,1831.0,35.0,250.0,26.0,15.0
6.171050071716309,16.0,2814.0,5.0,2482.0,2127.0,532.0,1768.0,33.0,456.0,17.0,22.0
6.173433303833008,26.0,2543.0,3178.0,2847.0,2662.0,2106.0,2880.0,31.0,5.0,20.0,28.0
6.175866603851318,32.0,537.0,710.0,3213.0,488.0,1195.0,148.0,10.0,5.0,24.0,23.0
6.178249835968018,23.0,67.0,657.0,1528.0,3742.0,1683.0,3383.0,15.0,5.0,16.0,18.0
6.180633544921875,14.0,2773.0,603.0,2426.0,4050.0,17.0,1747.0,19.0,592.0,8.0,24.0
6.183033466339111,53.0,411.0,1552.0,34.0,3495.0,761.0,30.0,485.0,306.0,0.0,30.0
6.185400009155273,47.0,890.0,1313.0,1301.0,2062.0,880.0,1715.0,267.0,20.0,7.0,29.0
6.187783241271973,18.0,33.0,1074.0,2567.0,1186.0,1887.0,1847.0,50.0,24.0,13.0,18.0
6.190166473388672,23.0,1229.0,811.0,1673.0,1087.0,2071.0,1939.0,440.0,78.0,15.0,7.0
6.1925835609436035,25.0,652.0,548.0,2424.0,1314.0,810.0,1296.0,6.0,497.0,16.0,0.0
6.194966793060303,8.0,1919.0,779.0,1836.0,393.0,22.0,978.0,17.0,653.0,11.0,3.0
6.197350025177002,21.0,2620.0,1010.0,2455.0,1361.0,1380.0,1258.0,69.0,24.0,5.0,6.0
