,275.1099853515625,276.1099853515625,277.1099853515625,278.1099853515625,279.1099853515625
1.9010833501815796,25.0,34.0,37.0,6.0,14.0
1.902166724205017,11.0,15.0,24.0,31.0,92.0
1.903249979019165,14.0,54.0,22.0,0.0,12.0
1.9043333530426025,19.0,20.0,9.0,60.0,26.0
1.9054166078567505,0.0,26.0,23.0,55.0,29.0
1.906499981880188,16.0,21.0,20.0,0.0,50.0
1.9075833559036255,13.0,17.0,17.0,9.0,41.0
1.9086666107177734,22.0,12.0,12.0,17.0,20.0
1.909749984741211,16.0,12.0,7.0,10.0,0.0
1.9108333587646484,10.0,11.0,20.0,17.0,41.0
1.9119166135787964,12.0,11.0,5.0,22.0,16.0
1.9129999876022339,12.0,10.0,18.0,5.0,5.0
1.9140833616256714,11.0,6.0,18.0,47.0,31.0
1.9151666164398193,16.0,8.0,17.0,41.0,25.0
1.9162499904632568,20.0,10.0,20.0,11.0,10.0
1.9174000024795532,21.0,8.0,16.0,20.0,39.0
1.9184833765029907,11.0,5.0,12.0,10.0,33.0
1.9195666313171387,11.0,18.0,15.0,0.0,18.0
1.9206500053405762,43.0,31.0,5.0,10.0,34.0
1.9217333793640137,24.0,40.0,10.0,5.0,23.0
1.9228166341781616,6.0,48.0,19.0,16.0,6.0
1.9239000082015991,271.0,52.0,17.0,37.0,5.0
1.9249833822250366,147.0,16.0,14.0,44.0,7.0
1.9260666370391846,24.0,34.0,16.0,39.0,13.0
1.927150011062622,16.0,267.0,17.0,31.0,14.0
1.9282333850860596,29.0,149.0,13.0,6.0,15.0
1.9293166399002075,20.0,30.0,9.0,0.0,16.0
1.930400013923645,14.0,30.0,20.0,30.0,10.0
1.9314833879470825,21.0,11.0,18.0,20.0,21.0
1.9325666427612305,18.0,21.0,16.0,10.0,34.0
1.933650016784668,15.0,16.0,18.0,8.0,31.0
1.9347833395004272,5.0,7.0,19.0,5.0,23.0
1.9358667135238647,9.0,12.0,0.0,31.0,23.0
1.9369499683380127,0.0,17.0,5.0,30.0,5.0
1.9380333423614502,24.0,0.0,10.0,23.0,35.0
1.9391167163848877,23.0,21.0,7.0,15.0,34.0
1.9401999711990356,32.0,16.0,11.0,29.0,32.0
1.9412833452224731,23.0,6.0,15.0,28.0,28.0
1.9423667192459106,13.0,939.0,25.0,18.0,23.0
1.9434499740600586,0.0,981.0,27.0,15.0,18.0
1.944533348083496,12.0,7.0,27.0,5.0,22.0
1.9456167221069336,6.0,22.0,38.0,15.0,26.0
1.9466999769210815,0.0,5.0,27.0,17.0,16.0
1.947783350944519,11.0,42.0,15.0,18.0,13.0
1.9488667249679565,11.0,33.0,41.0,5.0,10.0
1.9499499797821045,10.0,27.0,40.0,5.0,5.0
1.9510833024978638,14.0,10.0,5.0,5.0,16.0
1.9521833658218384,17.0,25.0,24.0,5.0,12.0
1.9532666206359863,18.0,10.0,17.0,5.0,25.0
1.9543499946594238,19.0,13.0,7.0,5.0,25.0
1.9554333686828613,0.0,16.0,27.0,25.0,19.0
1.9565166234970093,16.0,17.0,5.0,25.0,13.0
1.9575999975204468,0.0,5.0,6.0,25.0,11.0
1.9586833715438843,29.0,18.0,30.0,10.0,26.0
1.9597666263580322,23.0,27.0,19.0,26.0,22.0
1.9608500003814697,33.0,14.0,7.0,5.0,5.0
1.9619333744049072,26.0,0.0,32.0,29.0,0.0
1.9630166292190552,16.0,34.0,37.0,5.0,17.0
1.9641000032424927,29.0,0.0,6.0,0.0,15.0
1.9651833772659302,18.0,7.0,9.0,33.0,8.0
1.9662666320800781,8.0,15.0,10.0,23.0,27.0
1.9673500061035156,10.0,15.0,26.0,12.0,22.0
1.968483328819275,9.0,14.0,24.0,14.0,17.0
1.9695667028427124,7.0,10.0,22.0,12.0,36.0
1.9706499576568604,6.0,0.0,6.0,10.0,25.0
1.9717333316802979,5.0,3.0,14.0,16.0,15.0
1.9728167057037354,15.0,6.0,21.0,21.0,16.0
1.9738999605178833,19.0,15.0,13.0,0.0,8.0
1.9749833345413208,13.0,17.0,5.0,50.0,10.0
1.9760667085647583,7.0,18.0,13.0,59.0,12.0
1.9771499633789062,9.0,12.0,20.0,25.0,42.0
1.9782333374023438,11.0,6.0,21.0,19.0,30.0
1.9793167114257812,11.0,3.0,22.0,12.0,18.0
1.9803999662399292,10.0,0.0,24.0,11.0,22.0
1.9814833402633667,14.0,5.0,25.0,11.0,28.0
1.9825667142868042,16.0,10.0,17.0,0.0,14.0
1.9836499691009521,18.0,25.0,15.0,31.0,13.0
1.9847333431243896,6.0,29.0,12.0,31.0,7.0
1.985883355140686,11.0,14.0,14.0,0.0,0.0
1.986966609954834,15.0,38.0,16.0,47.0,42.0
1.9880499839782715,5.0,37.0,14.0,31.0,33.0
1.989133358001709,19.0,66.0,16.0,0.0,12.0
1.990216612815857,12.0,142.0,16.0,31.0,50.0
1.9912999868392944,5.0,103.0,16.0,13.0,21.0
1.992383360862732,8.0,64.0,15.0,21.0,14.0
1.9934666156768799,10.0,0.0,17.0,37.0,7.0
1.9945499897003174,0.0,20.0,11.0,25.0,15.0
1.9956333637237549,43.0,65.0,21.0,28.0,23.0
1.9967166185379028,42.0,20.0,30.0,30.0,29.0
1.9977999925613403,5.0,12.0,27.0,10.0,25.0
1.9988833665847778,12.0,32.0,24.0,19.0,20.0
1.9999666213989258,36.0,31.0,12.0,27.0,18.0
2.0010499954223633,27.0,5.0,0.0,26.0,15.0
2.002150058746338,17.0,22.0,5.0,33.0,23.0
2.0032334327697754,45.0,18.0,5.0,40.0,5.0
2.004316568374634,5.0,14.0,5.0,85.0,5.0
2.0053999423980713,20.0,21.0,15.0,297.0,14.0
2.006483316421509,6.0,0.0,8.0,151.0,27.0
2.0075666904449463,352.0,23.0,0.0,5.0,41.0
2.008650064468384,698.0,21.0,13.0,30.0,33.0
2.0097334384918213,356.0,18.0,19.0,5.0,20.0
2.0108165740966797,14.0,14.0,25.0,17.0,25.0
2.011899948120117,21.0,22.0,31.0,36.0,31.0
2.0129833221435547,5.0,30.0,22.0,18.0,25.0
2.014066696166992,3.0,22.0,13.0,0.0,18.0
2.0151500701904297,0.0,13.0,22.0,10.0,5.0
2.016233444213867,23.0,6.0,22.0,14.0,14.0
2.0173165798187256,26.0,9.0,17.0,22.0,5.0
2.018399953842163,25.0,11.0,0.0,18.0,10.0
2.019550085067749,41.0,16.0,10.0,17.0,14.0
2.0206332206726074,5.0,14.0,10.0,31.0,19.0
2.021716594696045,21.0,11.0,34.0,36.0,16.0
2.0227999687194824,0.0,21.0,26.0,5.0,14.0
2.02388334274292,19.0,30.0,0.0,5.0,32.0
2.0249667167663574,8.0,45.0,6.0,76.0,53.0
2.026050090789795,27.0,29.0,12.0,47.0,56.0
2.0271332263946533,44.0,12.0,12.0,18.0,20.0
2.028216600418091,29.0,18.0,40.0,32.0,40.0
2.0292999744415283,14.0,20.0,40.0,37.0,25.0
2.030383348464966,11.0,12.0,55.0,0.0,11.0
2.0314667224884033,5.0,5.0,22.0,47.0,17.0
2.032550096511841,40.0,5.0,20.0,15.0,22.0
2.033633232116699,61.0,13.0,5.0,5.0,0.0
2.0347166061401367,42.0,12.0,11.0,14.0,25.0
2.0358333587646484,32.0,0.0,17.0,23.0,30.0
2.036933422088623,27.0,0.0,16.0,37.0,15.0
2.0380165576934814,9.0,0.0,15.0,28.0,5.0
2.039099931716919,10.0,22.0,23.0,0.0,21.0
2.0401833057403564,12.0,23.0,25.0,21.0,10.0
2.041266679763794,5.0,21.0,26.0,15.0,14.0
2.0423500537872314,12.0,10.0,13.0,24.0,18.0
2.043433427810669,698.0,12.0,13.0,38.0,27.0
2.0445165634155273,671.0,14.0,13.0,28.0,23.0
2.045599937438965,15.0,15.0,0.0,17.0,19.0
2.0466833114624023,33.0,16.0,0.0,32.0,30.0
2.04776668548584,5.0,166.0,0.0,9.0,21.0
2.0488500595092773,28.0,95.0,0.0,71.0,5.0
2.049933433532715,24.0,24.0,0.0,59.0,15.0
2.0510165691375732,0.0,13.0,10.0,10.0,38.0
2.0520999431610107,21.0,21.0,26.0,36.0,37.0
2.0532500743865967,12.0,31.0,42.0,0.0,36.0
2.054333448410034,5.0,28.0,44.0,5.0,20.0
2.0554165840148926,20.0,21.0,15.0,0.0,27.0
2.05649995803833,12.0,11.0,46.0,12.0,13.0
2.0575833320617676,14.0,24.0,17.0,10.0,24.0
2.058666706085205,11.0,22.0,11.0,8.0,21.0
2.0597500801086426,8.0,20.0,5.0,18.0,21.0
2.060833215713501,5.0,14.0,0.0,0.0,5.0
2.0619165897369385,15.0,8.0,0.0,6.0,0.0
2.062999963760376,24.0,76.0,0.0,11.0,10.0
2.0640833377838135,18.0,55.0,9.0,5.0,17.0
2.065166711807251,11.0,34.0,17.0,12.0,18.0
2.0662500858306885,30.0,59.0,22.0,24.0,19.0
2.067333221435547,29.0,63.0,25.0,24.0,7.0
2.0684165954589844,5.0,32.0,6.0,23.0,45.0
2.069499969482422,21.0,0.0,0.0,36.0,34.0
2.0706334114074707,36.0,24.0,10.0,42.0,23.0
2.071716785430908,5.0,21.0,16.0,9.0,16.0
2.0727999210357666,6.0,18.0,22.0,28.0,24.0
2.073883295059204,46.0,17.0,28.0,22.0,39.0
2.0749666690826416,10.0,13.0,24.0,10.0,0.0
2.076050043106079,25.0,14.0,20.0,22.0,11.0
2.0771334171295166,0.0,15.0,13.0,40.0,22.0
2.078216552734375,11.0,13.0,5.0,36.0,20.0
2.0792999267578125,24.0,11.0,853.0,91.0,49.0
2.08038330078125,13.0,22.0,1007.0,45.0,217.0
2.0814666748046875,8.0,34.0,604.0,0.0,118.0
2.082550048828125,5.0,745.0,613.0,203.0,18.0
2.0836334228515625,16.0,1629.0,431.0,405.0,12.0
2.084716558456421,27.0,4904.0,1296.0,784.0,6.0
2.0857999324798584,16.0,3843.0,4099.0,412.0,117.0
2.0869500637054443,5.0,3350.0,3240.0,41.0,355.0
2.088033437728882,23.0,4858.0,3543.0,1207.0,592.0
2.0891165733337402,62.0,4430.0,6553.0,1276.0,1366.0
2.0901999473571777,52.0,7947.0,8128.0,1968.0,1995.0
2.0912833213806152,42.0,13072.0,8240.0,2894.0,5762.0
2.0923666954040527,18.0,10932.0,12812.0,3726.0,10848.0
2.0934500694274902,10.0,17956.0,17384.0,4558.0,8524.0
2.0945334434509277,47.0,29500.0,29108.0,3214.0,11120.0
2.095616579055786,35.0,32512.0,32368.0,8612.0,9120.0
2.0966999530792236,23.0,52032.0,32176.0,7982.0,13568.0
2.097783327102661,34.0,52816.0,53440.0,7352.0,28484.0
2.0988667011260986,15.0,72352.0,58128.0,15576.0,30416.0
2.099950075149536,27.0,87984.0,72016.0,14656.0,30604.0
2.1010334491729736,10.0,111920.0,99152.0,17928.0,34416.0
2.102116584777832,6.0,140608.0,122128.0,18500.0,46976.0
2.1031999588012695,13.0,144128.0,129408.0,24476.0,62752.0
2.1043334007263184,29.0,184512.0,153600.0,32136.0,73280.0
2.105416774749756,34.0,227392.0,201728.0,29832.0,91904.0
2.1064999103546143,41.0,239360.0,239360.0,40608.0,123552.0
2.1075832843780518,49.0,311872.0,272960.0,49456.0,122656.0
2.1086666584014893,58.0,297536.0,267072.0,51408.0,99424.0
2.1097500324249268,65.0,359104.0,339264.0,64000.0,138752.0
2.1108334064483643,53.0,402752.0,371264.0,65120.0,148416.0
2.1119167804718018,40.0,446848.0,353920.0,66240.0,160640.0
2.11299991607666,79.0,515776.0,402368.0,73376.0,168576.0
2.1140832901000977,87.0,530432.0,456384.0,80496.0,176448.0
2.115166664123535,70.0,612352.0,541696.0,83184.0,216768.0
2.1162500381469727,53.0,587008.0,559872.0,78048.0,237888.0
2.11733341217041,90.0,721920.0,609792.0,87328.0,228864.0
2.1184165477752686,90.0,669184.0,648960.0,96608.0,243584.0
2.119499921798706,73.0,717824.0,638208.0,97328.0,265088.0
2.120633363723755,69.0,760064.0,638464.0,98032.0,270784.0
2.1217334270477295,64.0,823808.0,729600.0,126320.0,307328.0
2.122816562652588,82.0,810752.0,706816.0,127616.0,310400.0
2.1238999366760254,78.0,859136.0,782848.0,139712.0,285632.0
2.124983310699463,56.0,800768.0,761344.0,122320.0,339008.0
2.1260666847229004,130.0,949504.0,791552.0,136576.0,341440.0
2.127150058746338,151.0,923904.0,794368.0,133376.0,335552.0
2.1282334327697754,84.0,940288.0,851968.0,142976.0,363456.0
2.129316568374634,92.0,990464.0,829184.0,122880.0,362304.0
2.1303999423980713,100.0,983552.0,864512.0,127088.0,325952.0
2.131483316421509,102.0,1008896.0,863232.0,132480.0,346048.0
2.1325666904449463,104.0,972288.0,861952.0,119712.0,340032.0
2.133650064468384,90.0,965632.0,818432.0,152768.0,337792.0
2.1347334384918213,75.0,959232.0,924928.0,163200.0,339776.0
2.1358165740966797,95.0,964608.0,915456.0,148288.0,339584.0
2.136899948120117,80.0,969728.0,878080.0,132992.0,339328.0
2.138033390045166,134.0,986112.0,866304.0,132160.0,348672.0
2.1391167640686035,310.0,1002496.0,832256.0,131328.0,368320.0
2.140199899673462,313.0,1014784.0,864000.0,133952.0,367168.0
2.1412999629974365,200.0,1026816.0,895744.0,136576.0,355968.0
2.142366647720337,86.0,1030656.0,899328.0,151360.0,359616.0
2.1434500217437744,81.0,1023744.0,839680.0,156352.0,315392.0
2.144533395767212,75.0,1016832.0,910080.0,136192.0,344576.0
2.1456167697906494,81.0,1059840.0,839680.0,146112.0,362880.0
2.146699905395508,92.0,965888.0,858624.0,131456.0,340224.0
2.1477999687194824,103.0,967936.0,798976.0,143424.0,322624.0
2.148866653442383,100.0,1017344.0,842752.0,124016.0,333632.0
2.1499500274658203,55.0,994304.0,878848.0,141376.0,318976.0
2.151033401489258,84.0,965632.0,841728.0,139136.0,304256.0
2.1521167755126953,124.0,951808.0,803328.0,109456.0,327552.0
2.1531999111175537,118.0,974080.0,808192.0,146432.0,322688.0
2.154283285140991,112.0,955392.0,813056.0,130896.0,316800.0
2.155433416366577,110.0,920576.0,794624.0,143232.0,326272.0
2.1565165519714355,49.0,921600.0,835584.0,138368.0,346496.0
2.157599925994873,92.0,828160.0,739584.0,121216.0,285312.0
2.1586833000183105,135.0,847360.0,733696.0,129568.0,324160.0
2.159766674041748,230.0,906752.0,770304.0,131264.0,301440.0
2.1608500480651855,212.0,893696.0,752896.0,142208.0,305856.0
2.161933422088623,130.0,860160.0,763648.0,143872.0,325952.0
2.1630165576934814,49.0,838656.0,774144.0,117760.0,288704.0
2.164099931716919,103.0,868096.0,786176.0,132864.0,339392.0
2.1651833057403564,157.0,852480.0,744192.0,110432.0,298112.0
2.166266679763794,138.0,836864.0,683008.0,127744.0,288832.0
2.1673500537872314,120.0,831232.0,714240.0,132864.0,288384.0
2.168433427810669,12.0,873216.0,766208.0,129664.0,284736.0
2.1695165634155273,112.0,787968.0,724224.0,106272.0,281088.0
2.170599937438965,133.0,910336.0,754432.0,119056.0,279232.0
2.171750068664551,270.0,852480.0,743680.0,131840.0,277376.0
2.1728334426879883,153.0,805888.0,721152.0,103744.0,274624.0
2.1739165782928467,36.0,872960.0,768000.0,121376.0,271872.0
2.174999952316284,81.0,853504.0,711680.0,127648.0,286784.0
2.1760833263397217,126.0,870656.0,729088.0,120672.0,281216.0
2.177166700363159,119.0,859392.0,711936.0,119312.0,275584.0
2.1782500743865967,121.0,865536.0,733440.0,117856.0,276352.0
2.179333448410034,104.0,873216.0,721920.0,127584.0,277056.0
2.1804165840148926,87.0,848896.0,746752.0,127104.0,283648.0
2.18149995803833,127.0,949248.0,780544.0,126640.0,290304.0
2.1825833320617676,140.0,939008.0,811264.0,145792.0,349504.0
2.183666706085205,154.0,928768.0,800768.0,146368.0,335488.0
2.1847500801086426,141.0,1001728.0,790272.0,155776.0,346880.0
2.185833215713501,150.0,982272.0,843520.0,134336.0,342400.0
2.1869165897369385,149.0,962816.0,832000.0,146368.0,337920.0
2.187999963760376,117.0,947968.0,820736.0,155776.0,348480.0
2.189150094985962,84.0,959744.0,825344.0,153024.0,359424.0
2.1902332305908203,94.0,971264.0,829952.0,149568.0,410880.0
2.191316604614258,103.0,1006592.0,848640.0,140736.0,393024.0
2.1923999786376953,131.0,1092608.0,924928.0,168256.0,378240.0
2.193483352661133,158.0,1158912.0,1007104.0,169152.0,382464.0
2.1945667266845703,151.0,1117440.0,959744.0,184384.0,363904.0
2.195650100708008,143.0,1117696.0,912384.0,175104.0,401472.0
2.196733236312866,144.0,1163520.0,1015552.0,172992.0,388096.0
2.1978166103363037,146.0,1156352.0,989952.0,161472.0,374720.0
2.198899984359741,144.0,1149184.0,961536.0,161984.0,378688.0
2.1999833583831787,143.0,1076992.0,994048.0,142400.0,405440.0
2.201066732406616,117.0,1114112.0,997888.0,190208.0,409152.0
2.2021501064300537,134.0,1151232.0,1027072.0,179136.0,412800.0
2.203233242034912,174.0,1125888.0,999680.0,145728.0,391552.0
2.2043166160583496,150.0,1100544.0,1014784.0,163840.0,391680.0
2.2054333686828613,125.0,1090560.0,1058304.0,162112.0,421632.0
2.206533432006836,1032.0,1080576.0,922880.0,152704.0,341248.0
2.2076165676116943,815.0,987392.0,918016.0,178624.0,414976.0
2.208699941635132,599.0,1078528.0,1018112.0,172352.0,402496.0
2.2097833156585693,152.0,1073664.0,828928.0,161664.0,375104.0
2.210866689682007,131.0,997632.0,896256.0,152128.0,358912.0
2.2119500637054443,216.0,1019136.0,902656.0,137920.0,319296.0
2.213033437728882,168.0,1005568.0,897024.0,148928.0,383040.0
2.2141165733337402,124.0,998912.0,866816.0,138752.0,327616.0
2.2151999473571777,220.0,992256.0,823552.0,142464.0,327488.0
2.2162833213806152,202.0,888576.0,742144.0,138496.0,322816.0
2.2173666954040527,184.0,876288.0,817920.0,144384.0,317696.0
2.2184500694274902,194.0,820992.0,706560.0,112416.0,281536.0
2.2195334434509277,204.0,774912.0,678144.0,120416.0,279872.0
2.220616579055786,161.0,746496.0,624640.0,105616.0,249472.0
2.2216999530792236,119.0,711168.0,604160.0,97760.0,241472.0
2.2228500843048096,101.0,679424.0,575744.0,82816.0,204736.0
2.223933219909668,77.0,632832.0,556288.0,93552.0,214592.0
2.2250165939331055,78.0,590592.0,500992.0,86704.0,184576.0
2.226099967956543,78.0,588800.0,445376.0,70784.0,180096.0
2.2271833419799805,81.0,538624.0,462656.0,84240.0,192832.0
2.228266716003418,83.0,457600.0,404288.0,83744.0,161024.0
2.2293500900268555,83.0,443136.0,373440.0,61424.0,131520.0
2.230433225631714,83.0,436416.0,341440.0,54144.0,137728.0
2.2315165996551514,68.0,388096.0,343744.0,57360.0,143680.0
2.232599973678589,52.0,355328.0,284736.0,59248.0,104656.0
2.2336833477020264,61.0,318464.0,269760.0,36512.0,116352.0
2.234766721725464,103.0,289152.0,259456.0,49472.0,90864.0
2.2358500957489014,110.0,280448.0,250560.0,31336.0,107200.0
2.2369332313537598,93.0,279360.0,236928.0,38656.0,97296.0
2.2380166053771973,76.0,236224.0,192960.0,34480.0,66336.0
2.2390999794006348,97.0,183616.0,195008.0,25672.0,74544.0
2.2402334213256836,540.0,165504.0,164736.0,27888.0,56576.0
2.241316556930542,286.0,165184.0,151680.0,26504.0,58976.0
2.2423999309539795,31.0,159424.0,131520.0,20304.0,57616.0
2.243483304977417,34.0,146688.0,107568.0,24856.0,40176.0
2.2445666790008545,79.0,131648.0,119264.0,18488.0,42416.0
2.245650053024292,124.0,99520.0,96736.0,9880.0,41152.0
2.2467334270477295,270.0,105056.0,95904.0,13356.0,32564.0
2.247816562652588,194.0,86640.0,78704.0,12484.0,25424.0
2.2488999366760254,118.0,103888.0,75248.0,8672.0,19436.0
2.249983310699463,178.0,86640.0,73312.0,8624.0,25264.0
2.2510666847229004,239.0,76448.0,64304.0,8896.0,24724.0
2.252150058746338,144.0,73728.0,64160.0,7788.0,24244.0
2.2532334327697754,49.0,63968.0,54384.0,11256.0,19256.0
2.254316568374634,718.0,57344.0,52272.0,4882.0,18352.0
2.2553999423980713,751.0,58240.0,34720.0,10624.0,17848.0
2.2565500736236572,29.0,51984.0,53984.0,8908.0,11944.0
2.2576334476470947,951.0,53248.0,47888.0,6314.0,14420.0
2.258716583251953,1930.0,50240.0,36928.0,7442.0,16108.0
2.2597999572753906,2039.0,52288.0,35664.0,4237.0,18988.0
2.260883331298828,1867.0,38112.0,38608.0,4519.0,8968.0
2.2619667053222656,540.0,49280.0,34784.0,8108.0,14244.0
2.263050079345703,651.0,41312.0,34656.0,5749.0,10004.0
2.2641332149505615,1292.0,39056.0,31644.0,6021.0,12660.0
2.265216588973999,1934.0,35120.0,30628.0,6690.0,11020.0
2.2662999629974365,2741.0,37488.0,27660.0,6210.0,13108.0
2.267383337020874,2786.0,34624.0,23888.0,6104.0,10732.0
2.2684667110443115,1803.0,24512.0,23208.0,5596.0,13284.0
2.269550085067749,2266.0,41136.0,22528.0,3032.0,6446.0
2.2706332206726074,1415.0,35120.0,24664.0,1581.0,6747.0
2.271716594696045,2042.0,25328.0,22812.0,6618.0,7047.0
2.2727999687194824,2668.0,30300.0,20960.0,5022.0,4145.0
2.2739334106445312,2783.0,24972.0,22200.0,3427.0,8976.0
2.2750167846679688,3413.0,29184.0,21864.0,1988.0,8376.0
2.276099920272827,1644.0,28556.0,21532.0,2529.0,7776.0
2.2771832942962646,2445.0,28148.0,21684.0,1671.0,11204.0
2.278266668319702,4078.0,27744.0,21836.0,1477.0,10560.0
2.2793500423431396,4234.0,20700.0,20784.0,1979.0,6782.0
2.280433416366577,1486.0,19344.0,15128.0,2480.0,7852.0
2.2815165519714355,6801.0,19872.0,19664.0,2505.0,3429.0
2.282599925994873,4969.0,21896.0,16292.0,2530.0,6197.0
2.2836833000183105,3168.0,23920.0,13072.0,2027.0,9620.0
2.284766674041748,1916.0,23960.0,16328.0,1524.0,5160.0
2.2858500480651855,1613.0,24000.0,17988.0,1710.0,4007.0
2.286933422088623,3877.0,26244.0,12552.0,1987.0,6084.0
2.2880165576934814,3646.0,11312.0,14348.0,2264.0,6253.0
2.289099931716919,3415.0,16944.0,19256.0,2416.0,7797.0
2.2902333736419678,1991.0,17196.0,14460.0,1262.0,3302.0
2.2913334369659424,2832.0,16844.0,15256.0,1637.0,6422.0
2.292416572570801,947.0,14236.0,18808.0,1969.0,2568.0
2.2934999465942383,1000.0,18472.0,21176.0,1817.0,7276.0
2.294583320617676,617.0,14592.0,11580.0,1387.0,4365.0
2.2956666946411133,60.0,18296.0,10336.0,985.0,6772.0
2.296750068664551,259.0,12904.0,6909.0,1812.0,883.0
2.2978334426879883,1076.0,16060.0,9184.0,2083.0,8476.0
2.2989165782928467,546.0,13876.0,12708.0,2341.0,4834.0
2.299999952316284,16.0,13632.0,12776.0,483.0,4767.0
2.3010833263397217,899.0,9760.0,8728.0,5.0,3216.0
2.302166700363159,1088.0,11240.0,13928.0,19.0,5140.0
2.3032500743865967,1277.0,8728.0,10540.0,444.0,2230.0
2.304333448410034,281.0,10908.0,7677.0,870.0,1678.0
2.3054165840148926,457.0,10804.0,7763.0,644.0,2467.0
2.30649995803833,634.0,10700.0,5375.0,419.0,1950.0
2.307633399963379,933.0,3175.0,4198.0,222.0,2325.0
2.3087167739868164,1747.0,9908.0,5304.0,25.0,2700.0
2.309799909591675,2162.0,4522.0,5866.0,113.0,823.0
2.3108832836151123,410.0,4269.0,4057.0,200.0,2137.0
2.31196665763855,805.0,3931.0,4891.0,107.0,2959.0
2.3130500316619873,1347.0,5815.0,5725.0,14.0,48.0
2.314133405685425,706.0,5257.0,2969.0,20.0,1537.0
2.3152167797088623,1152.0,4700.0,3322.0,12.0,1476.0
2.3162999153137207,785.0,5146.0,3332.0,232.0,2538.0
2.317383289337158,2414.0,3455.0,3631.0,451.0,1440.0
2.3184666633605957,2913.0,3871.0,2155.0,921.0,1922.0
2.319550037384033,1492.0,5542.0,1769.0,1037.0,3226.0
2.3206334114074707,870.0,3226.0,1382.0,1801.0,816.0
2.321716785430908,549.0,6440.0,1182.0,1600.0,2223.0
2.3228166103363037,924.0,2141.0,1476.0,811.0,1329.0
2.323883295059204,2232.0,2786.0,2181.0,90.0,1613.0
2.32503342628479,1592.0,653.0,1958.0,217.0,2014.0
2.3261165618896484,951.0,758.0,162.0,5.0,2216.0
2.327199935913086,685.0,1618.0,46.0,281.0,1670.0
2.3282833099365234,419.0,2478.0,2029.0,171.0,1803.0
2.329366683959961,44.0,2112.0,1563.0,62.0,419.0
2.3304500579833984,73.0,53.0,1804.0,34.0,1038.0
2.331533432006836,102.0,1782.0,1373.0,5.0,696.0
2.3326165676116943,394.0,2620.0,942.0,23.0,527.0
2.333699941635132,687.0,2857.0,2398.0,41.0,780.0
2.3347833156585693,1122.0,2005.0,2220.0,234.0,365.0
2.335866689682007,1557.0,2300.0,3782.0,427.0,1392.0
2.3369500637054443,1070.0,3077.0,4251.0,462.0,1580.0
2.338033437728882,87.0,2239.0,1705.0,242.0,645.0
2.3391165733337402,2269.0,27.0,4503.0,22.0,22.0
2.3401999473571777,1244.0,1913.0,3221.0,37.0,66.0
2.3413333892822266,1797.0,4843.0,2944.0,53.0,480.0
2.342416763305664,2828.0,5137.0,789.0,39.0,453.0
2.3434998989105225,663.0,3193.0,243.0,983.0,427.0
2.34458327293396,1266.0,3821.0,3771.0,1078.0,525.0
2.3456666469573975,1704.0,1662.0,1428.0,544.0,88.0
2.346750020980835,66.0,1904.0,1549.0,10.0,800.0
2.3478333950042725,801.0,4161.0,2990.0,478.0,722.0
2.34891676902771,1536.0,3893.0,1733.0,534.0,52.0
2.3499999046325684,1114.0,2667.0,476.0,81.0,353.0
2.351083278656006,583.0,3386.0,2598.0,251.0,736.0
2.3521666526794434,53.0,1943.0,619.0,559.0,828.0
2.353250026702881,15.0,736.0,3054.0,5.0,1521.0
2.3543334007263184,10.0,1051.0,453.0,5.0,1069.0
2.355416774749756,5.0,805.0,815.0,15.0,617.0
2.3564999103546143,20.0,416.0,1494.0,23.0,971.0
2.3575832843780518,25.0,27.0,1520.0,31.0,23.0
2.3587334156036377,15.0,1648.0,1547.0,30.0,308.0
2.359816551208496,52.0,1591.0,807.0,21.0,544.0
2.3608999252319336,63.0,1535.0,33.0,0.0,780.0
2.361983299255371,11.0,2223.0,1682.0,55.0,1028.0
2.3630666732788086,18.0,759.0,1728.0,53.0,847.0
2.364150047302246,26.0,1165.0,40.0,51.0,665.0
2.3652334213256836,47.0,1895.0,25.0,65.0,74.0
2.366316556930542,35.0,417.0,1776.0,31.0,10.0
2.3673999309539795,23.0,1732.0,1384.0,32.0,11.0
2.368483304977417,19.0,2201.0,1261.0,33.0,22.0
2.3695666790008545,30.0,2244.0,47.0,34.0,207.0
2.370650053024292,21.0,2288.0,1674.0,36.0,391.0
2.3717334270477295,12.0,1570.0,38.0,25.0,212.0
2.372816562652588,47.0,925.0,1013.0,11.0,32.0
2.3738999366760254,56.0,938.0,676.0,16.0,38.0
2.375016689300537,33.0,1801.0,1438.0,5.0,229.0
2.3761167526245117,10.0,804.0,107.0,5.0,11.0
2.37719988822937,11.0,5.0,33.0,33.0,43.0
2.3782832622528076,44.0,200.0,1870.0,122.0,13.0
2.379366636276245,55.0,395.0,327.0,89.0,1841.0
2.3804500102996826,31.0,285.0,928.0,56.0,1471.0
2.38153338432312,34.0,51.0,1529.0,57.0,69.0
2.3826167583465576,48.0,447.0,537.0,58.0,26.0
2.383699893951416,42.0,843.0,1861.0,11.0,1523.0
2.3847832679748535,36.0,943.0,1726.0,15.0,12.0
2.385866641998291,7.0,1043.0,623.0,10.0,25.0
2.3869500160217285,55.0,1769.0,1620.0,43.0,347.0
2.388033390045166,55.0,3373.0,1250.0,556.0,7.0
2.3891167640686035,33.0,3175.0,2001.0,431.0,676.0
2.390199899673462,11.0,846.0,1013.0,41.0,803.0
2.3912832736968994,46.0,179.0,25.0,319.0,931.0
2.3924334049224854,5.0,1944.0,18.0,24.0,16.0
2.393516778945923,44.0,2354.0,11.0,11.0,1493.0
2.3945999145507812,41.0,790.0,207.0,40.0,1397.0
2.3956832885742188,43.0,66.0,948.0,25.0,42.0
2.3967666625976562,26.0,767.0,1051.0,10.0,99.0
2.3978500366210938,16.0,1147.0,1104.0,10.0,5.0
2.3989334106445312,44.0,747.0,1156.0,13.0,51.0
2.4000167846679688,25.0,277.0,710.0,15.0,54.0
2.401099920272827,0.0,1415.0,534.0,32.0,36.0
2.4021832942962646,23.0,3770.0,81.0,32.0,18.0
2.403266668319702,25.0,2845.0,862.0,31.0,388.0
2.4043500423431396,24.0,532.0,1439.0,257.0,575.0
2.405433416366577,22.0,1939.0,1234.0,141.0,312.0
2.4065165519714355,29.0,3535.0,572.0,25.0,49.0
2.407599925994873,37.0,1360.0,12.0,5.0,689.0
2.4086833000183105,58.0,856.0,23.0,214.0,788.0
2.4098167419433594,584.0,2541.0,34.0,424.0,169.0
2.410900115966797,312.0,1889.0,1659.0,554.0,1257.0
2.4119832515716553,40.0,3382.0,1690.0,22.0,1084.0
2.4130666255950928,13.0,2882.0,728.0,5.0,20.0
2.4141499996185303,45.0,2216.0,1077.0,697.0,838.0
2.4152333736419678,16.0,1769.0,1616.0,33.0,561.0
2.4163167476654053,31.0,1565.0,1602.0,96.0,432.0
2.4173998832702637,35.0,3251.0,505.0,158.0,523.0
2.418483257293701,37.0,2627.0,2952.0,21.0,613.0
2.4195666313171387,40.0,2004.0,2159.0,10.0,1498.0
2.420650005340576,22.0,1516.0,2079.0,103.0,1693.0
2.4217333793640137,10.0,2226.0,1738.0,15.0,860.0
2.422816753387451,11.0,24.0,1156.0,0.0,1229.0
2.4238998889923096,12.0,2577.0,1264.0,54.0,539.0
2.424983263015747,29.0,2080.0,1371.0,11.0,45.0
2.426133394241333,34.0,3086.0,1419.0,15.0,248.0
2.4272167682647705,26.0,1247.0,1584.0,32.0,450.0
2.428299903869629,19.0,3132.0,993.0,27.0,34.0
2.4293832778930664,5.0,3225.0,902.0,22.0,20.0
2.430466651916504,37.0,530.0,811.0,15.0,36.0
2.4315500259399414,18.0,1840.0,849.0,1211.0,820.0
2.432633399963379,9.0,2551.0,886.0,961.0,1514.0
2.4337167739868164,0.0,1133.0,30.0,465.0,1539.0
2.434799909591675,13.0,581.0,381.0,1510.0,22.0
2.4358832836151123,18.0,286.0,731.0,16.0,1076.0
2.43696665763855,17.0,1086.0,1033.0,20.0,793.0
2.4380500316619873,29.0,2435.0,1336.0,10.0,675.0
2.439133405685425,27.0,2221.0,1362.0,108.0,638.0
2.4402167797088623,24.0,2434.0,1388.0,189.0,15.0
2.4412999153137207,15.0,1411.0,1352.0,270.0,750.0
2.442383289337158,23.0,4906.0,1317.0,1123.0,1051.0
2.443516731262207,7.0,5035.0,763.0,1059.0,29.0
2.4446001052856445,16.0,2723.0,13.0,26.0,880.0
2.445683240890503,25.0,2624.0,493.0,10.0,31.0
2.4467666149139404,53.0,1164.0,1223.0,457.0,1124.0
2.447849988937378,64.0,3020.0,1953.0,256.0,980.0
2.4489333629608154,52.0,1098.0,1583.0,55.0,752.0
2.450016736984253,13.0,225.0,419.0,26.0,390.0
2.4511001110076904,78.0,1854.0,683.0,203.0,28.0
2.452183246612549,37.0,1866.0,1274.0,14.0,621.0
2.4532666206359863,28.0,1878.0,0.0,43.0,334.0
2.454349994659424,31.0,2073.0,2245.0,30.0,47.0
2.4554333686828613,5.0,1260.0,3122.0,17.0,274.0
2.456516742706299,27.0,2665.0,716.0,21.0,274.0
2.4576001167297363,23.0,239.0,761.0,25.0,142.0
2.4586832523345947,29.0,361.0,854.0,10.0,10.0
2.4598166942596436,5.0,1173.0,1216.0,34.0,0.0
2.460916757583618,5.0,914.0,1351.0,26.0,25.0
2.4619998931884766,5.0,1254.0,1486.0,27.0,50.0
2.463083267211914,22.0,1593.0,818.0,31.0,39.0
2.4641666412353516,18.0,2504.0,1654.0,17.0,28.0
2.465250015258789,22.0,2403.0,486.0,28.0,49.0
2.4663333892822266,11.0,2302.0,1161.0,40.0,46.0
2.467416763305664,0.0,1692.0,1836.0,34.0,44.0
2.4684998989105225,8.0,1714.0,1955.0,28.0,29.0
2.46958327293396,17.0,672.0,1029.0,19.0,14.0
2.4706666469573975,33.0,1402.0,128.0,9.0,15.0
2.471750020980835,41.0,2131.0,1901.0,31.0,15.0
2.4728333950042725,30.0,2728.0,417.0,0.0,54.0
2.47391676902771,28.0,3325.0,2504.0,9.0,49.0
2.4749999046325684,5.0,698.0,1296.0,17.0,45.0
2.476083278656006,46.0,2820.0,824.0,25.0,933.0
2.4772167205810547,19.0,554.0,1167.0,22.0,1408.0
2.478300094604492,10.0,1164.0,335.0,19.0,730.0
2.4793832302093506,10.0,1774.0,1404.0,23.0,894.0
2.480466604232788,22.0,1415.0,2004.0,395.0,1377.0
2.4815499782562256,29.0,953.0,3039.0,407.0,932.0
2.482633352279663,22.0,491.0,2742.0,27.0,49.0
2.4837167263031006,46.0,1502.0,2954.0,22.0,527.0
2.484800100326538,56.0,1200.0,62.0,16.0,611.0
2.4858832359313965,66.0,2210.0,1694.0,18.0,1111.0
2.486966609954834,17.0,2229.0,2991.0,13.0,1184.0
2.4880499839782715,41.0,2248.0,1847.0,5.0,1484.0
2.489133358001709,23.0,2142.0,671.0,30.0,1617.0
2.4902167320251465,5.0,1504.0,3304.0,56.0,507.0
2.491300106048584,47.0,625.0,2739.0,51.0,457.0
2.4923832416534424,10.0,1090.0,3306.0,47.0,407.0
2.49346661567688,19.0,1555.0,1058.0,11.0,379.0
2.494616746902466,36.0,1995.0,1530.0,14.0,919.0
2.495699882507324,11.0,1859.0,318.0,14.0,882.0
2.4967832565307617,16.0,1723.0,471.0,31.0,31.0
2.4978833198547363,14.0,722.0,624.0,29.0,1547.0
2.498966693878174,17.0,2176.0,68.0,27.0,30.0
