,259.1700134277344,260.1700134277344,261.1700134277344,262.1700134277344,263.1700134277344
2.401383399963379,217.0,21.0,12.0,5.0,60.0
2.4031167030334473,16.0,30.0,52.0,17.0,19.0
2.405933380126953,10.0,1004.0,6.0,37.0,5.0
2.408750057220459,5.0,0.0,39.0,17.0,21.0
2.411600112915039,21.0,16.0,29.0,24.0,5.0
2.414433240890503,22.0,0.0,19.0,38.0,34.0
2.417249917984009,23.0,12.0,20.0,21.0,23.0
2.4200665950775146,5.0,21.0,20.0,38.0,21.0
2.4228832721710205,26.0,25.0,21.0,10.0,26.0
2.4257166385650635,28.0,32.0,29.0,28.0,46.0
2.4285333156585693,33.0,25.0,36.0,21.0,52.0
2.431349992752075,19.0,19.0,35.0,46.0,10.0
2.434166669845581,8.0,46.0,33.0,71.0,41.0
2.436983346939087,11.0,30.0,28.0,45.0,31.0
2.4398000240325928,0.0,14.0,38.0,18.0,11.0
2.442683219909668,18.0,78.0,70.0,13.0,32.0
2.445499897003174,17.0,47.0,82.0,9.0,21.0
2.4483165740966797,17.0,16.0,54.0,14.0,5.0
2.4511332511901855,20.0,49.0,116.0,26.0,49.0
2.4539499282836914,23.0,20.0,18.0,39.0,33.0
2.4567666053771973,6.0,27.0,35.0,128.0,22.0
2.4596333503723145,0.0,14.0,23.0,80.0,8.0
2.4624500274658203,9.0,15.0,5.0,31.0,25.0
2.465266704559326,6.0,10.0,26.0,12.0,10.0
2.468083381652832,7.0,5.0,22.0,24.0,34.0
2.470900058746338,8.0,26.0,17.0,19.0,28.0
2.4737167358398438,31.0,22.0,24.0,12.0,22.0
2.476599931716919,38.0,18.0,31.0,6.0,19.0
2.479416608810425,27.0,5.0,0.0,5.0,18.0
2.4822332859039307,16.0,12.0,12.0,20.0,17.0
2.4850499629974365,28.0,25.0,11.0,37.0,29.0
2.4878666400909424,21.0,15.0,10.0,35.0,41.0
2.4906833171844482,14.0,5.0,6.0,39.0,39.0
2.4935500621795654,5.0,29.0,0.0,38.0,24.0
2.4963667392730713,21.0,21.0,26.0,10.0,10.0
2.499183416366577,27.0,14.0,59.0,25.0,8.0
2.502000093460083,31.0,768.0,33.0,31.0,5.0
2.504833221435547,0.0,798.0,7.0,28.0,15.0
2.5076498985290527,35.0,404.0,10.0,24.0,15.0
2.51051664352417,7.0,10.0,12.0,27.0,15.0
2.513333320617676,24.0,1195.0,22.0,29.0,0.0
2.5161499977111816,0.0,967.0,15.0,31.0,0.0
2.5189666748046875,0.0,32.0,8.0,37.0,0.0
2.5217833518981934,14.0,854.0,10.0,44.0,3.0
2.524600028991699,15.0,6.0,5.0,32.0,5.0
2.5274667739868164,16.0,1189.0,18.0,20.0,16.0
2.5302834510803223,12.0,1074.0,18.0,21.0,27.0
2.533116579055786,8.0,959.0,18.0,31.0,18.0
2.535933256149292,0.0,1302.0,18.0,5.0,29.0
2.538749933242798,5.0,258.0,18.0,5.0,25.0
2.5415666103363037,9.0,1654.0,58.0,10.0,22.0
2.544433355331421,11.0,578.0,50.0,25.0,19.0
2.5472500324249268,7.0,686.0,53.0,20.0,31.0
2.5500667095184326,5.0,663.0,56.0,15.0,5.0
2.5528833866119385,7.0,608.0,42.0,23.0,57.0
2.5557000637054443,8.0,313.0,27.0,41.0,50.0
2.55851674079895,23.0,18.0,28.0,60.0,57.0
2.5613832473754883,21.0,40.0,5.0,45.0,5.0
2.564199924468994,20.0,786.0,10.0,5.0,47.0
2.567033290863037,19.0,706.0,11.0,18.0,5.0
2.569849967956543,18.0,626.0,12.0,20.0,53.0
2.572666645050049,20.0,0.0,9.0,32.0,10.0
2.5754833221435547,23.0,50.0,5.0,21.0,18.0
2.5783166885375977,20.0,31.0,26.0,10.0,50.0
2.5811333656311035,18.0,11.0,23.0,10.0,22.0
2.5839500427246094,25.0,13.0,5.0,11.0,26.0
2.5867667198181152,30.0,15.0,15.0,11.0,0.0
2.589583396911621,34.0,47.0,25.0,8.0,29.0
2.592400074005127,11.0,39.0,0.0,5.0,39.0
2.595283269882202,27.0,376.0,12.0,48.0,50.0
2.598099946975708,0.0,197.0,18.0,42.0,0.0
2.600916624069214,3.0,19.0,23.0,14.0,35.0
2.6037333011627197,5.0,5.0,46.0,12.0,26.0
2.6065499782562256,12.0,23.0,69.0,8.0,21.0
2.6093666553497314,36.0,5.0,85.0,0.0,20.0
2.6122334003448486,33.0,2062.0,62.0,27.0,10.0
2.6150500774383545,32.0,1851.0,38.0,52.0,0.0
2.6178667545318604,24.0,8508.0,20.0,45.0,12.0
2.620683431625366,16.0,23936.0,1061.0,46.0,11.0
2.62351655960083,0.0,36992.0,963.0,562.0,10.0
2.626333236694336,29.0,78384.0,1324.0,299.0,0.0
2.629199981689453,38.0,138176.0,3096.0,35.0,10.0
2.632016658782959,22.0,197376.0,6127.0,356.0,29.0
2.634833335876465,6.0,269568.0,12932.0,677.0,39.0
2.6376500129699707,36.0,380672.0,14212.0,779.0,50.0
2.6404666900634766,18.0,537088.0,21780.0,1510.0,24.0
2.6432833671569824,0.0,629760.0,27176.0,1659.0,28.0
2.6461501121520996,43.0,597504.0,21700.0,3773.0,33.0
2.6489665508270264,21.0,673536.0,28280.0,3654.0,197.0
2.6517832279205322,38.0,725248.0,28832.0,1195.0,124.0
2.654599905014038,35.0,728064.0,31416.0,3024.0,51.0
2.657433271408081,5.0,790272.0,30276.0,3883.0,36.0
2.660249948501587,7.0,842496.0,29136.0,4112.0,21.0
2.663116693496704,54.0,838144.0,30844.0,4541.0,6.0
2.66593337059021,36.0,797440.0,32200.0,6799.0,1079.0
2.668750047683716,12.0,885504.0,31216.0,6247.0,873.0
2.6715667247772217,45.0,859648.0,34896.0,5878.0,578.0
2.6743834018707275,34.0,832000.0,39184.0,3848.0,343.0
2.6772000789642334,26.0,838656.0,37152.0,2553.0,962.0
2.6800665855407715,28.0,845056.0,34448.0,2930.0,199.0
2.6828832626342773,20.0,808960.0,39808.0,3307.0,971.0
2.685699939727783,11.0,789760.0,30900.0,3978.0,51.0
2.688533306121826,10.0,720896.0,25732.0,4784.0,672.0
2.691349983215332,8.0,675072.0,27468.0,4938.0,11.0
2.694166660308838,46.0,616192.0,25288.0,3575.0,12.0
2.697033405303955,29.0,466368.0,12968.0,4173.0,36.0
2.699850082397461,12.0,392448.0,23664.0,1784.0,37.0
2.702666759490967,23.0,320320.0,11936.0,2050.0,39.0
2.7054834365844727,33.0,252096.0,9292.0,1783.0,41.0
2.7083001136779785,19.0,202752.0,12648.0,1000.0,26.0
2.7111165523529053,49.0,148864.0,4407.0,41.0,18.0
2.7139999866485596,60.0,96688.0,7465.0,449.0,6.0
2.7168166637420654,35.0,100112.0,2704.0,604.0,11.0
2.7196333408355713,60.0,61408.0,1533.0,487.0,17.0
2.722450017929077,55.0,53056.0,2354.0,23.0,8.0
2.725266695022583,26.0,37584.0,492.0,24.0,0.0
2.728083372116089,37.0,39968.0,31.0,18.0,24.0
2.730950117111206,7.0,28904.0,717.0,21.0,11.0
2.733766555786133,41.0,20156.0,16.0,25.0,18.0
2.736599922180176,22.0,15868.0,313.0,28.0,20.0
2.7394165992736816,45.0,18368.0,450.0,31.0,10.0
2.7422332763671875,21.0,14048.0,11.0,15.0,8.0
2.7450499534606934,29.0,14368.0,19.0,24.0,5.0
2.7479166984558105,20.0,13824.0,46.0,34.0,31.0
2.7507333755493164,5.0,7968.0,27.0,27.0,27.0
2.7535500526428223,31.0,9564.0,27.0,15.0,5.0
2.756366729736328,5.0,9372.0,35.0,20.0,5.0
2.759183406829834,29.0,9976.0,309.0,14.0,12.0
2.76200008392334,16.0,7275.0,161.0,8.0,27.0
2.764866590499878,30.0,5885.0,14.0,11.0,33.0
2.767683267593384,45.0,9168.0,23.0,14.0,35.0
2.7704999446868896,49.0,6530.0,32.0,14.0,5.0
2.7733333110809326,31.0,6518.0,118.0,14.0,50.0
2.7761499881744385,33.0,7812.0,67.0,10.0,39.0
2.7789666652679443,22.0,8584.0,17.0,6.0,5.0
2.7818334102630615,36.0,2808.0,28.0,17.0,71.0
2.7846500873565674,23.0,8094.0,24.0,27.0,5.0
2.7874667644500732,45.0,2524.0,24.0,46.0,11.0
2.790283441543579,12.0,3450.0,88.0,64.0,11.0
2.793100118637085,31.0,8952.0,58.0,48.0,18.0
2.7959165573120117,40.0,3221.0,27.0,33.0,15.0
2.798783302307129,8.0,4616.0,24.0,25.0,11.0
2.801616668701172,18.0,9928.0,784.0,10.0,16.0
2.8044333457946777,0.0,3076.0,768.0,28.0,0.0
2.8072500228881836,7.0,4959.0,70.0,16.0,5.0
2.8100666999816895,15.0,3780.0,417.0,10.0,10.0
2.8128833770751953,21.0,2339.0,58.0,5.0,16.0
2.8157498836517334,16.0,2078.0,32.0,35.0,21.0
2.8185665607452393,10.0,2325.0,5.0,47.0,19.0
2.821383237838745,11.0,2572.0,3.0,36.0,12.0
2.824199914932251,11.0,1996.0,0.0,34.0,0.0
2.827016592025757,12.0,1421.0,36.0,44.0,10.0
2.8298332691192627,12.0,2645.0,33.0,51.0,0.0
2.832716703414917,22.0,1911.0,30.0,30.0,799.0
2.835533380508423,47.0,1177.0,15.0,9.0,721.0
2.8383500576019287,27.0,2105.0,0.0,0.0,33.0
2.8411667346954346,7.0,971.0,43.0,5.0,28.0
2.8439834117889404,17.0,1934.0,283.0,10.0,20.0
2.8468000888824463,29.0,1996.0,148.0,34.0,20.0
2.8496665954589844,14.0,2057.0,14.0,28.0,20.0
2.8524832725524902,19.0,2211.0,6.0,23.0,18.0
2.855299949645996,18.0,2365.0,14.0,16.0,17.0
2.858116626739502,18.0,940.0,10.0,30.0,22.0
2.860933303833008,25.0,1645.0,5.0,15.0,27.0
2.8637499809265137,29.0,733.0,7.0,0.0,7.0
2.866633415222168,20.0,1895.0,9.0,23.0,14.0
2.869450092315674,11.0,1566.0,16.0,20.0,21.0
2.8722667694091797,5.0,1238.0,22.0,18.0,22.0
2.8750834465026855,27.0,2482.0,0.0,14.0,24.0
2.8778998851776123,26.0,1258.0,30.0,8.0,12.0
2.880716562271118,0.0,33.0,35.0,13.0,0.0
2.8835833072662354,33.0,1973.0,47.0,18.0,79.0
2.886399984359741,5.0,543.0,21.0,14.0,66.0
2.889216661453247,26.0,8.0,27.0,10.0,54.0
2.892033338546753,25.0,150.0,49.0,10.0,5.0
2.894850015640259,24.0,1677.0,31.0,10.0,10.0
2.8976833820343018,15.0,1493.0,14.0,14.0,11.0
2.90054988861084,7.0,1821.0,318.0,62.0,8.0
2.9033665657043457,0.0,2002.0,631.0,82.0,1075.0
2.9061832427978516,5.0,2182.0,944.0,212.0,917.0
2.9089999198913574,8.0,1143.0,3266.0,1412.0,1495.0
2.9118165969848633,10.0,5886.0,3517.0,1402.0,3450.0
2.914633274078369,53.0,20504.0,13260.0,3404.0,8412.0
2.9175167083740234,48.0,38720.0,37664.0,4684.0,18936.0
2.9203333854675293,44.0,66848.0,69840.0,9288.0,34928.0
2.923150062561035,30.0,130256.0,110768.0,9660.0,54832.0
2.925966739654541,27.0,207680.0,152896.0,19236.0,90576.0
2.928783416748047,29.0,275264.0,205184.0,24312.0,112240.0
2.9316000938415527,30.0,375552.0,323136.0,40480.0,149824.0
2.934466600418091,12.0,484864.0,379904.0,32556.0,174208.0
2.9372832775115967,36.0,572672.0,434752.0,43120.0,221568.0
2.9400999546051025,38.0,631552.0,463616.0,40768.0,237248.0
2.9429166316986084,41.0,716288.0,567808.0,69040.0,276224.0
2.9457333087921143,20.0,773120.0,623616.0,60288.0,312640.0
2.94854998588562,0.0,824320.0,667904.0,59696.0,324608.0
2.9514167308807373,21.0,873216.0,680704.0,79552.0,308352.0
2.9542500972747803,15.0,878592.0,669440.0,76864.0,332224.0
2.957066774368286,38.0,904960.0,650496.0,93552.0,356928.0
2.959883451461792,30.0,931328.0,631552.0,90016.0,348224.0
2.9626998901367188,28.0,975616.0,705280.0,81904.0,323328.0
2.9655165672302246,26.0,960768.0,684032.0,96240.0,342272.0
2.968383312225342,24.0,858112.0,662784.0,82672.0,302208.0
2.9711999893188477,474.0,803072.0,589824.0,69808.0,292160.0
2.9740166664123535,469.0,763136.0,563712.0,63776.0,260864.0
2.9768333435058594,465.0,702208.0,516288.0,48592.0,216256.0
2.9796500205993652,40.0,581888.0,434752.0,55552.0,201920.0
2.982466697692871,28.0,461824.0,328896.0,39920.0,158208.0
2.9853498935699463,59.0,371840.0,265664.0,31888.0,133632.0
2.988166570663452,18.0,290880.0,218752.0,25484.0,118016.0
2.990983247756958,38.0,218112.0,175296.0,14772.0,55008.0
2.993799924850464,29.0,158592.0,132288.0,17292.0,52048.0
2.9966166019439697,39.0,130544.0,85408.0,12652.0,40464.0
2.9994332790374756,25.0,92016.0,64496.0,10712.0,31588.0
3.001166582107544,29.0,80944.0,47664.0,7857.0,25496.0
3.00231671333313,33.0,66000.0,49248.0,5778.0,19148.0
3.0034000873565674,27.0,43200.0,46016.0,5778.0,28536.0
3.004483222961426,30.0,59712.0,53408.0,1101.0,21276.0
3.0055665969848633,37.0,50080.0,38096.0,3301.0,18044.0
3.006649971008301,42.0,45408.0,40624.0,2571.0,15244.0
3.0077333450317383,47.0,43952.0,31844.0,3190.0,20840.0
3.008816719055176,53.0,31068.0,27328.0,1500.0,14472.0
3.0099000930786133,184.0,37824.0,28872.0,811.0,15228.0
3.0109832286834717,95.0,43200.0,21292.0,642.0,10292.0
3.012066602706909,5.0,26448.0,27944.0,1539.0,6257.0
3.0131499767303467,24.0,23428.0,13308.0,1545.0,10164.0
3.014233350753784,47.0,30668.0,22724.0,1551.0,9560.0
3.0153167247772217,29.0,21956.0,14264.0,628.0,7542.0
3.016400098800659,47.0,10852.0,22048.0,1994.0,6400.0
3.0174832344055176,34.0,25104.0,10064.0,1164.0,7877.0
3.018566608428955,21.0,20624.0,19552.0,1883.0,7684.0
3.019700050354004,28.0,15996.0,16708.0,2601.0,5531.0
3.0207834243774414,12.0,18552.0,19436.0,2066.0,3378.0
3.0218665599823,9.0,13152.0,13884.0,1677.0,8114.0
3.0229499340057373,6.0,18912.0,12020.0,1287.0,5706.0
3.024033308029175,33.0,15828.0,12944.0,2670.0,4156.0
3.0251166820526123,38.0,15472.0,11352.0,2662.0,6443.0
3.02620005607605,30.0,17308.0,7794.0,1206.0,5168.0
3.0272834300994873,20.0,9328.0,15268.0,1073.0,6945.0
3.0283665657043457,24.0,17280.0,9748.0,1948.0,6593.0
3.029449939727783,20.0,16652.0,6487.0,1966.0,3845.0
3.0305333137512207,26.0,16128.0,9572.0,1853.0,3755.0
3.031616687774658,26.0,14400.0,6492.0,1403.0,6506.0
3.032716751098633,27.0,13396.0,10300.0,27.0,4915.0
3.033783435821533,27.0,8560.0,11028.0,635.0,4315.0
3.0348665714263916,19.0,6499.0,4932.0,1557.0,2050.0
3.0360167026519775,14.0,12392.0,8177.0,11.0,2256.0
3.037100076675415,27.0,13356.0,7206.0,707.0,3786.0
3.0381834506988525,20.0,5223.0,4539.0,26.0,1305.0
3.039266586303711,12.0,7337.0,4968.0,573.0,2620.0
3.0403499603271484,6.0,10560.0,7621.0,922.0,1098.0
3.041433334350586,0.0,10844.0,5975.0,606.0,2431.0
3.0425167083740234,33.0,9340.0,4330.0,291.0,4109.0
3.043600082397461,26.0,5625.0,8344.0,637.0,3611.0
3.0446832180023193,10.0,9696.0,5699.0,49.0,4692.0
3.045766592025757,57.0,9764.0,3054.0,38.0,955.0
3.0468499660491943,44.0,6114.0,4338.0,1063.0,1338.0
3.047933340072632,15.0,9468.0,3979.0,747.0,2796.0
3.0490167140960693,38.0,7019.0,3619.0,51.0,1079.0
3.050100088119507,26.0,6340.0,3260.0,10.0,1768.0
3.0511832237243652,31.0,6548.0,2888.0,20.0,1832.0
3.0522665977478027,35.0,3064.0,3152.0,8.0,1897.0
3.0534167289733887,30.0,7113.0,3304.0,21.0,303.0
3.054500102996826,24.0,5527.0,3455.0,34.0,1528.0
3.0555832386016846,10.0,5909.0,3695.0,17.0,176.0
3.056666612625122,25.0,5350.0,4082.0,0.0,1021.0
3.0577499866485596,24.0,5624.0,2406.0,10.0,1903.0
3.058833360671997,23.0,4088.0,3459.0,20.0,2124.0
3.0599167346954346,9.0,2552.0,2958.0,36.0,1707.0
3.061000108718872,32.0,6660.0,3008.0,711.0,1290.0
3.0620832443237305,37.0,2547.0,3058.0,824.0,2489.0
3.063166618347168,15.0,6914.0,4384.0,472.0,2455.0
3.0642499923706055,5.0,4433.0,4402.0,32.0,2421.0
3.065333366394043,15.0,5435.0,4763.0,875.0,890.0
3.0664167404174805,22.0,8716.0,1709.0,31.0,1740.0
3.067500114440918,18.0,2557.0,1542.0,603.0,1657.0
3.0685832500457764,14.0,6903.0,2152.0,10.0,2203.0
3.069700002670288,32.0,3235.0,1369.0,30.0,2614.0
3.0708000659942627,29.0,1836.0,2179.0,57.0,2449.0
3.0718834400177,23.0,2983.0,2047.0,35.0,3311.0
3.0729665756225586,0.0,6549.0,1915.0,14.0,866.0
3.074049949645996,45.0,5852.0,865.0,273.0,2480.0
3.0751333236694336,25.0,5845.0,1337.0,173.0,2219.0
3.076216697692871,26.0,2753.0,41.0,73.0,1958.0
3.0773000717163086,28.0,3345.0,37.0,25.0,1560.0
3.078383445739746,25.0,3936.0,33.0,22.0,1169.0
3.0794665813446045,33.0,3607.0,1164.0,16.0,2590.0
3.080549955368042,32.0,2069.0,2295.0,10.0,2176.0
3.0816333293914795,31.0,2515.0,2453.0,32.0,758.0
3.082716703414917,43.0,1062.0,668.0,38.0,843.0
3.0838000774383545,33.0,1244.0,2472.0,45.0,835.0
3.084883451461792,24.0,1561.0,1937.0,51.0,325.0
3.0859665870666504,0.0,1878.0,1173.0,5.0,840.0
3.0871167182922363,3.0,1488.0,2056.0,8.0,652.0
3.088200092315674,6.0,1098.0,1343.0,11.0,58.0
3.0892832279205322,24.0,1887.0,630.0,25.0,692.0
3.0903666019439697,21.0,1356.0,1092.0,854.0,714.0
3.0914499759674072,27.0,825.0,1555.0,834.0,1171.0
3.0925333499908447,33.0,2428.0,1360.0,437.0,1113.0
3.0936167240142822,11.0,2218.0,851.0,39.0,1056.0
3.0947000980377197,11.0,2009.0,2152.0,38.0,546.0
3.095783233642578,0.0,5327.0,2085.0,106.0,1293.0
3.0968666076660156,29.0,4541.0,2018.0,43.0,689.0
3.097949981689453,32.0,1649.0,1809.0,36.0,748.0
3.0990333557128906,8.0,1961.0,1600.0,29.0,1282.0
3.100116729736328,15.0,3065.0,1974.0,0.0,1400.0
3.1012001037597656,21.0,3485.0,1759.0,37.0,1518.0
3.102283239364624,34.0,3781.0,1544.0,21.0,270.0
3.1033666133880615,217.0,1286.0,1493.0,5.0,730.0
3.1045000553131104,137.0,1413.0,1716.0,3.0,77.0
3.105583429336548,57.0,2588.0,850.0,0.0,748.0
3.1066665649414062,31.0,1414.0,1404.0,20.0,490.0
3.1077499389648438,5.0,3850.0,1957.0,21.0,231.0
3.1088333129882812,24.0,4824.0,389.0,22.0,45.0
3.109933376312256,44.0,1396.0,773.0,7.0,32.0
3.1110000610351562,0.0,1909.0,1157.0,49.0,19.0
3.1120834350585938,10.0,342.0,992.0,45.0,681.0
3.113166570663452,52.0,551.0,6.0,372.0,360.0
3.1142499446868896,0.0,760.0,363.0,212.0,39.0
3.115333318710327,0.0,2461.0,3392.0,51.0,65.0
3.1164333820343018,5.0,1781.0,2725.0,10.0,571.0
3.117500066757202,17.0,1101.0,1746.0,26.0,504.0
3.1185998916625977,28.0,2097.0,2704.0,23.0,131.0
3.119666576385498,20.0,3093.0,1514.0,20.0,105.0
3.120816707611084,33.0,2709.0,11.0,0.0,504.0
3.1219000816345215,34.0,1367.0,2669.0,12.0,273.0
3.12298321723938,35.0,26.0,2958.0,6.0,41.0
3.1240665912628174,21.0,4172.0,10.0,16.0,291.0
3.125149965286255,6.0,5659.0,1537.0,11.0,601.0
3.1262333393096924,19.0,2830.0,1672.0,28.0,603.0
3.12731671333313,17.0,6546.0,734.0,14.0,564.0
3.1284000873565674,16.0,3162.0,1933.0,0.0,525.0
3.129483222961426,16.0,2914.0,1220.0,5.0,878.0
3.1305665969848633,19.0,2757.0,1500.0,34.0,705.0
3.131649971008301,15.0,3025.0,188.0,30.0,533.0
3.1327333450317383,10.0,2376.0,27.0,25.0,26.0
3.133816719055176,16.0,576.0,811.0,32.0,25.0
3.1349000930786133,22.0,2734.0,2709.0,41.0,25.0
3.1359832286834717,93.0,1884.0,2629.0,49.0,19.0
3.137066602706909,55.0,1772.0,1472.0,20.0,29.0
3.138216733932495,17.0,1660.0,1148.0,25.0,39.0
3.1393001079559326,12.0,2189.0,1605.0,22.0,25.0
3.140383243560791,14.0,2719.0,2062.0,19.0,11.0
3.1414666175842285,17.0,1567.0,113.0,26.0,314.0
3.142549991607666,21.0,415.0,295.0,23.0,165.0
3.1436333656311035,21.0,687.0,581.0,29.0,16.0
3.144716739654541,14.0,1079.0,638.0,15.0,10.0
3.1458001136779785,7.0,831.0,546.0,50.0,5.0
3.146883249282837,12.0,583.0,620.0,55.0,43.0
3.1479666233062744,17.0,531.0,693.0,17.0,33.0
3.149049997329712,19.0,479.0,696.0,56.0,23.0
3.1501333713531494,35.0,2207.0,19.0,9.0,18.0
3.151216745376587,35.0,1960.0,33.0,25.0,26.0
3.1522998809814453,35.0,485.0,48.0,31.0,37.0
3.153383255004883,36.0,825.0,7.0,57.0,38.0
3.1545000076293945,18.0,17.0,152.0,54.0,39.0
3.1556167602539062,37.0,72.0,84.0,6.0,15.0
3.1566998958587646,5.0,54.0,16.0,63.0,11.0
3.157783269882202,25.0,36.0,27.0,8.0,36.0
3.1588666439056396,20.0,237.0,23.0,11.0,30.0
3.159950017929077,50.0,135.0,16.0,25.0,18.0
3.1610333919525146,35.0,33.0,18.0,14.0,5.0
3.162116765975952,21.0,7.0,21.0,21.0,32.0
3.1631999015808105,32.0,33.0,25.0,19.0,32.0
3.164283275604248,38.0,59.0,7.0,18.0,45.0
3.1653666496276855,15.0,39.0,37.0,0.0,5.0
3.166450023651123,0.0,40.0,28.0,34.0,24.0
3.1675333976745605,7.0,23.0,18.0,20.0,43.0
3.168616771697998,65.0,5.0,46.0,10.0,29.0
3.1696999073028564,58.0,16.0,0.0,26.0,19.0
3.170783281326294,51.0,33.0,19.0,0.0,24.0
3.17193341255188,31.0,51.0,29.0,14.0,16.0
3.1730165481567383,5.0,54.0,24.0,28.0,7.0
3.174099922180176,31.0,45.0,20.0,11.0,31.0
3.1751832962036133,42.0,367.0,18.0,17.0,0.0
3.176266670227051,21.0,207.0,17.0,23.0,0.0
3.1773500442504883,0.0,48.0,20.0,7.0,5.0
3.178433418273926,50.0,11.0,0.0,38.0,10.0
3.179516553878784,17.0,19.0,12.0,52.0,48.0
3.1805999279022217,27.0,24.0,26.0,51.0,37.0
3.181683301925659,5.0,29.0,32.0,33.0,27.0
3.1827666759490967,18.0,29.0,25.0,0.0,17.0
3.183850049972534,14.0,290.0,24.0,24.0,31.0
3.1849334239959717,11.0,400.0,26.0,17.0,25.0
3.18601655960083,16.0,210.0,20.0,10.0,20.0
3.1870999336242676,21.0,20.0,13.0,12.0,5.0
3.188183307647705,28.0,547.0,6.0,5.0,0.0
3.189333438873291,22.0,32.0,8.0,43.0,10.0
3.1904165744781494,16.0,0.0,10.0,38.0,27.0
3.191499948501587,17.0,42.0,26.0,43.0,26.0
3.1925833225250244,19.0,844.0,42.0,17.0,14.0
3.193666696548462,8.0,751.0,31.0,12.0,40.0
3.1947500705718994,12.0,864.0,41.0,45.0,36.0
3.195833444595337,17.0,48.0,52.0,5.0,32.0
3.1969165802001953,16.0,784.0,50.0,16.0,35.0
3.197999954223633,16.0,939.0,36.0,7.0,32.0
3.1990833282470703,18.0,43.0,10.0,26.0,28.0
