,289.1099853515625,290.1099853515625,291.1099853515625,292.1099853515625,293.1099853515625,294.1099853515625
2.551300048828125,14.0,6.0,1987.0,592.0,194.0,50.0
2.5525999069213867,52.0,629.0,1973.0,35.0,42.0,8.0
2.5539000034332275,26.0,1261.0,11.0,21.0,1003.0,22.0
2.5552000999450684,33.0,400.0,6.0,27.0,5.0,11.0
2.55649995803833,54.0,33.0,103.0,32.0,0.0,28.0
2.557800054550171,24.0,879.0,374.0,24.0,16.0,27.0
2.5590999126434326,38.0,775.0,645.0,47.0,21.0,25.0
2.5604000091552734,52.0,671.0,897.0,35.0,17.0,22.0
2.5617001056671143,5.0,1383.0,42.0,24.0,26.0,19.0
2.562999963760376,50.0,14.0,1335.0,765.0,6.0,21.0
2.564300060272217,30.0,2670.0,3074.0,764.0,453.0,20.0
2.5655999183654785,0.0,1788.0,3134.0,764.0,250.0,13.0
2.5669000148773193,71.0,906.0,374.0,955.0,47.0,5.0
2.5682666301727295,51.0,3231.0,1923.0,1201.0,184.0,31.0
2.5695667266845703,47.0,1847.0,15.0,615.0,320.0,31.0
2.570866584777832,17.0,2019.0,2503.0,28.0,1875.0,31.0
2.572166681289673,54.0,2192.0,30.0,746.0,1761.0,43.0
2.5734667778015137,27.0,1459.0,1659.0,1234.0,38.0,38.0
2.5747666358947754,5.0,726.0,943.0,1722.0,808.0,33.0
2.576066732406616,32.0,1978.0,1224.0,590.0,415.0,120.0
2.577366590499878,33.0,3030.0,1504.0,674.0,6.0,632.0
2.5786666870117188,40.0,4288.0,1021.0,757.0,42.0,410.0
2.5799667835235596,13.0,3130.0,531.0,309.0,32.0,188.0
2.5812666416168213,24.0,6814.0,40.0,893.0,23.0,21.0
2.582566738128662,29.0,6990.0,512.0,468.0,481.0,24.0
2.583866596221924,26.0,4709.0,984.0,44.0,939.0,57.0
2.585216760635376,39.0,7054.0,819.0,267.0,1276.0,45.0
2.5865166187286377,36.0,5820.0,166.0,491.0,1636.0,32.0
2.5878167152404785,33.0,7370.0,1746.0,747.0,1249.0,53.0
2.5891165733337402,29.0,7284.0,2445.0,761.0,2475.0,73.0
2.590416669845581,5.0,4611.0,2937.0,775.0,3190.0,52.0
2.59173321723938,5.0,7198.0,1663.0,1187.0,2710.0,30.0
2.5930166244506836,31.0,5481.0,1894.0,1290.0,1103.0,22.0
2.5943167209625244,35.0,2649.0,3205.0,485.0,361.0,27.0
2.595616579055786,25.0,6125.0,946.0,599.0,754.0,14.0
2.596916675567627,25.0,7591.0,1804.0,615.0,813.0,0.0
2.5982167720794678,15.0,5475.0,3341.0,630.0,872.0,24.0
2.5995166301727295,17.0,4162.0,3629.0,1486.0,1208.0,92.0
2.6008167266845703,23.0,6389.0,3982.0,2341.0,1543.0,63.0
2.6021833419799805,0.0,8212.0,3233.0,2474.0,35.0,34.0
2.6034834384918213,7.0,9432.0,3210.0,101.0,1647.0,137.0
2.604783296585083,16.0,8392.0,3516.0,3385.0,17.0,75.0
2.606083393096924,5.0,5389.0,3822.0,2481.0,993.0,12.0
2.6073832511901855,10.0,5622.0,2510.0,1529.0,2172.0,5.0
2.6086833477020264,5.0,3287.0,4389.0,1594.0,1264.0,12.0
2.609983444213867,12.0,6136.0,493.0,1450.0,56.0,11.0
2.611283302307129,19.0,2878.0,1614.0,1231.0,1557.0,34.0
2.6125833988189697,42.0,4243.0,4758.0,1012.0,15.0,57.0
2.6138832569122314,32.0,5615.0,2841.0,1208.0,1529.0,148.0
2.6151833534240723,21.0,5064.0,5097.0,1474.0,1617.0,486.0
2.616483449935913,15.0,5294.0,3453.0,2005.0,2360.0,243.0
2.617783308029175,24.0,916.0,1862.0,2008.0,5.0,0.0
2.619149923324585,23.0,7445.0,3531.0,1779.0,2742.0,64.0
2.620450019836426,21.0,5406.0,3139.0,31.0,1598.0,124.0
2.6217501163482666,33.0,4282.0,1929.0,425.0,20.0,98.0
2.6230499744415283,5.0,6141.0,1361.0,1496.0,1427.0,71.0
2.624350070953369,13.0,6382.0,1912.0,447.0,762.0,52.0
2.625649929046631,22.0,1826.0,1257.0,2110.0,1495.0,33.0
2.6269500255584717,14.0,4278.0,1153.0,1859.0,1634.0,5.0
2.6282498836517334,6.0,3284.0,1049.0,1103.0,831.0,28.0
2.629549980163574,24.0,1397.0,1105.0,641.0,9.0,28.0
2.630850076675415,20.0,4004.0,1160.0,1411.0,2169.0,27.0
2.6321499347686768,15.0,4489.0,903.0,30.0,35.0,24.0
2.6334500312805176,17.0,664.0,1135.0,1227.0,17.0,20.0
2.6347498893737793,19.0,1602.0,518.0,677.0,32.0,11.0
2.6361167430877686,21.0,2175.0,863.0,395.0,57.0,11.0
2.6374166011810303,23.0,3005.0,1209.0,71.0,31.0,10.0
2.638716697692871,5.0,2924.0,31.0,466.0,5.0,10.0
2.640016555786133,3.0,1613.0,1656.0,474.0,35.0,10.0
2.6413166522979736,0.0,26.0,77.0,103.0,6.0,5.0
2.6426167488098145,13.0,845.0,473.0,47.0,15.0,8.0
2.643916606903076,15.0,22.0,28.0,24.0,20.0,10.0
2.645216703414917,17.0,1177.0,35.0,173.0,20.0,43.0
2.6465165615081787,33.0,1756.0,42.0,108.0,54.0,59.0
2.6478166580200195,34.0,1898.0,565.0,42.0,62.0,37.0
2.6491167545318604,35.0,2455.0,858.0,38.0,47.0,15.0
2.650416612625122,16.0,3011.0,821.0,35.0,32.0,28.0
2.651716709136963,19.0,16.0,30.0,8.0,39.0,75.0
2.653083324432373,46.0,10.0,927.0,228.0,46.0,64.0
2.654383420944214,0.0,1087.0,46.0,447.0,49.0,53.0
2.6556832790374756,30.0,669.0,8.0,238.0,29.0,29.0
2.6569833755493164,26.0,792.0,12.0,28.0,10.0,6.0
2.658283233642578,34.0,415.0,35.0,17.0,35.0,16.0
2.659583330154419,30.0,47.0,28.0,14.0,33.0,5.0
2.6608834266662598,26.0,5.0,20.0,23.0,10.0,0.0
2.6621832847595215,32.0,23.0,47.0,32.0,14.0,47.0
2.6634833812713623,16.0,31.0,41.0,0.0,13.0,40.0
2.664783239364624,15.0,40.0,35.0,10.0,9.0,33.0
2.666083335876465,14.0,13.0,67.0,36.0,5.0,13.0
2.6673834323883057,416.0,10.0,0.0,5.0,54.0,24.0
2.6686832904815674,817.0,43.0,20.0,19.0,35.0,35.0
2.6700499057769775,423.0,42.0,5.0,57.0,16.0,50.0
2.6713500022888184,28.0,40.0,11.0,37.0,5.0,49.0
2.672650098800659,33.0,40.0,22.0,17.0,26.0,87.0
2.673949956893921,37.0,15.0,23.0,21.0,19.0,104.0
2.6752500534057617,367.0,13.0,24.0,6.0,14.0,120.0
2.6765499114990234,190.0,11.0,5.0,11.0,0.0,71.0
2.6778500080108643,13.0,18.0,18.0,21.0,31.0,21.0
2.679150104522705,13.0,24.0,0.0,5.0,33.0,45.0
2.680449962615967,13.0,35.0,44.0,15.0,35.0,32.0
2.6817500591278076,226.0,408.0,555.0,17.0,23.0,31.0
2.6830499172210693,439.0,270.0,469.0,30.0,17.0,0.0
2.68435001373291,355.0,131.0,22.0,26.0,10.0,16.0
2.685650110244751,586.0,1198.0,30.0,22.0,29.0,31.0
2.687000036239624,6.0,602.0,21.0,11.0,5.0,25.0
2.6882998943328857,916.0,6.0,16.0,0.0,7.0,19.0
2.6895999908447266,665.0,27.0,10.0,19.0,8.0,5.0
2.6909000873565674,504.0,1240.0,20.0,14.0,0.0,17.0
2.692199945449829,669.0,901.0,0.0,8.0,16.0,15.0
2.693516731262207,23.0,562.0,13.0,7.0,29.0,12.0
2.6948165893554688,685.0,64.0,26.0,5.0,42.0,6.0
2.6961166858673096,541.0,863.0,0.0,9.0,21.0,8.0
2.6974000930786133,25.0,899.0,23.0,13.0,22.0,13.0
2.698716640472412,2054.0,935.0,11.0,13.0,23.0,18.0
2.700000047683716,2066.0,770.0,5.0,16.0,25.0,13.0
2.7013165950775146,1155.0,48.0,43.0,16.0,13.0,7.0
2.7026166915893555,80.0,766.0,24.0,15.0,18.0,67.0
2.7039499282836914,25.0,75.0,5.0,18.0,0.0,65.0
2.7052500247955322,2723.0,25.0,15.0,20.0,14.0,63.0
2.706533432006836,3303.0,54.0,18.0,5.0,28.0,34.0
2.7078499794006348,296.0,27.0,21.0,46.0,59.0,6.0
2.7091500759124756,24.0,16.0,21.0,37.0,72.0,12.0
2.7104499340057373,1667.0,5.0,0.0,9.0,26.0,17.0
2.711733341217041,1482.0,42.0,9.0,46.0,32.0,14.0
2.71304988861084,893.0,51.0,5.0,29.0,25.0,11.0
2.7143499851226807,72.0,10.0,15.0,15.0,21.0,30.0
2.7156500816345215,358.0,17.0,18.0,27.0,23.0,15.0
2.716933250427246,1086.0,797.0,20.0,27.0,25.0,0.0
2.718250036239624,904.0,636.0,18.0,26.0,15.0,5.0
2.719566583633423,722.0,618.0,15.0,23.0,5.0,1115.0
2.7208666801452637,6.0,407.0,14.0,20.0,10.0,583.0
2.7221667766571045,702.0,455.0,13.0,18.0,15.0,51.0
2.7235000133514404,947.0,503.0,5.0,7.0,17.0,10.0
2.724783420562744,581.0,55.0,75.0,11.0,19.0,22.0
2.726083278656006,319.0,728.0,41.0,21.0,11.0,16.0
2.7273833751678467,979.0,394.0,6.0,18.0,21.0,55.0
2.7286832332611084,312.0,60.0,0.0,15.0,20.0,336.0
2.729983329772949,906.0,480.0,5.0,22.0,35.0,400.0
2.73128342628479,155.0,249.0,26.0,29.0,30.0,32.0
2.7325832843780518,34.0,18.0,24.0,24.0,0.0,5.0
2.7338833808898926,39.0,627.0,19.0,18.0,10.0,918.0
2.7351832389831543,2090.0,20.0,13.0,69.0,19.0,1054.0
2.7365000247955322,2025.0,63.0,33.0,57.0,10.0,15.0
2.737799882888794,370.0,63.0,30.0,21.0,0.0,25.0
2.7390999794006348,1290.0,5.0,36.0,27.0,7.0,641.0
2.7404000759124756,1115.0,15.0,0.0,24.0,13.0,43.0
2.7416999340057373,1385.0,14.0,23.0,8.0,7.0,26.0
2.743000030517578,516.0,13.0,21.0,11.0,0.0,1898.0
2.74429988861084,831.0,37.0,100.0,25.0,6.0,1878.0
2.7455999851226807,18.0,54.0,73.0,39.0,10.0,33.0
2.7469000816345215,919.0,71.0,47.0,34.0,33.0,10.0
2.748199939727783,65.0,352.0,24.0,36.0,1087.0,1580.0
2.749500036239624,1944.0,191.0,32.0,35.0,1028.0,2023.0
2.7507998943328857,1867.0,30.0,41.0,26.0,54.0,410.0
2.7520999908447266,110.0,226.0,532.0,22.0,38.0,1488.0
2.7534666061401367,941.0,1758.0,2922.0,15.0,22.0,833.0
2.7547667026519775,430.0,4748.0,3157.0,681.0,6.0,1750.0
2.7560665607452393,26.0,4883.0,6432.0,746.0,1476.0,922.0
2.75736665725708,23.0,6557.0,7332.0,812.0,2344.0,944.0
2.758666753768921,25.0,3976.0,8592.0,4231.0,3778.0,1358.0
2.7599666118621826,357.0,4068.0,6225.0,6006.0,5919.0,1773.0
2.7612667083740234,689.0,11352.0,15140.0,9852.0,6471.0,4619.0
2.762566566467285,683.0,19840.0,25712.0,11156.0,13768.0,8640.0
2.763866662979126,671.0,21792.0,36448.0,22572.0,15240.0,6334.0
2.765166759490967,17.0,29744.0,42656.0,23776.0,20872.0,4432.0
2.7664666175842285,40.0,43984.0,66000.0,46560.0,27936.0,8440.0
2.7677667140960693,307.0,60048.0,77472.0,47760.0,43776.0,13352.0
2.769066572189331,170.0,94432.0,101216.0,69120.0,56192.0,25244.0
2.7704334259033203,32.0,94192.0,154304.0,74112.0,60288.0,25108.0
2.771733283996582,27.0,153792.0,185152.0,122560.0,82368.0,26408.0
2.773033380508423,40.0,163840.0,256384.0,128176.0,104256.0,33808.0
2.7743332386016846,37.0,179648.0,304704.0,178304.0,122336.0,47200.0
2.7756333351135254,31.0,232064.0,348480.0,211136.0,158912.0,47216.0
2.776933431625366,36.0,304704.0,396928.0,199552.0,151488.0,60960.0
2.778233289718628,20.0,375232.0,485760.0,297856.0,209792.0,57808.0
2.7795333862304688,36.0,364416.0,545280.0,325568.0,248576.0,77296.0
2.7808332443237305,52.0,427136.0,581120.0,353280.0,253888.0,95392.0
2.7821333408355713,75.0,454592.0,679680.0,399360.0,276032.0,84608.0
2.783433437347412,84.0,529408.0,775424.0,438528.0,337856.0,96144.0
2.784733295440674,94.0,559360.0,775936.0,508864.0,364672.0,108672.0
2.7860333919525146,70.0,672256.0,847104.0,502464.0,362624.0,113072.0
2.7873833179473877,46.0,736512.0,975616.0,589824.0,449664.0,133376.0
2.7886834144592285,78.0,771840.0,976384.0,604672.0,439552.0,135808.0
2.7899832725524902,111.0,840192.0,1137664.0,663040.0,459200.0,137280.0
2.791283369064331,111.0,839168.0,1185280.0,702720.0,473792.0,154944.0
2.7925832271575928,106.0,931072.0,1236224.0,722944.0,488320.0,164544.0
2.7938833236694336,101.0,974336.0,1369344.0,795392.0,550400.0,150336.0
2.7951834201812744,88.0,980736.0,1383168.0,866048.0,605696.0,181952.0
2.796483278274536,92.0,1020416.0,1372672.0,842752.0,594944.0,188288.0
2.797783374786377,96.0,1085696.0,1516032.0,875520.0,593152.0,172288.0
2.7990832328796387,115.0,1132544.0,1517312.0,880896.0,591104.0,189184.0
2.8003833293914795,135.0,1178368.0,1544192.0,886528.0,626688.0,206464.0
2.8016834259033203,171.0,1221376.0,1571584.0,891904.0,662272.0,230976.0
2.802983283996582,207.0,1242368.0,1697024.0,990976.0,702208.0,209344.0
2.804349899291992,180.0,1288960.0,1761280.0,1064960.0,772352.0,218304.0
2.805649995803833,196.0,1363200.0,1791744.0,1019392.0,724224.0,222656.0
2.806950092315674,110.0,1344256.0,1772032.0,1086976.0,766208.0,211904.0
2.8082499504089355,223.0,1353984.0,1782784.0,1024768.0,722944.0,231680.0
2.8095500469207764,336.0,1363456.0,1793792.0,1069568.0,778752.0,226560.0
2.810849905014038,224.0,1377536.0,1928960.0,1179392.0,804608.0,221504.0
2.812150001525879,111.0,1417216.0,1935360.0,1148160.0,835328.0,266624.0
2.8134500980377197,159.0,1455104.0,1996032.0,1136896.0,816896.0,261312.0
2.8147499561309814,207.0,1447424.0,1972992.0,1163520.0,829440.0,258688.0
2.8160500526428223,259.0,1473280.0,2057984.0,1184768.0,909056.0,261376.0
2.817349910736084,226.0,1499136.0,2146304.0,1206016.0,910848.0,259328.0
2.818650007247925,211.0,1531136.0,2155520.0,1208064.0,815104.0,257216.0
2.8199501037597656,283.0,1563136.0,2111488.0,1191936.0,880896.0,260480.0
2.821316719055176,621.0,1537024.0,2110464.0,1196288.0,873472.0,263616.0
2.8226165771484375,421.0,1510912.0,2065152.0,1200384.0,867840.0,260288.0
2.8239166736602783,221.0,1543936.0,2002176.0,1222144.0,870656.0,256960.0
2.825216770172119,248.0,1576704.0,2114560.0,1243648.0,873216.0,255424.0
2.826516628265381,315.0,1600256.0,2129920.0,1156096.0,831232.0,273984.0
2.8278167247772217,127.0,1582848.0,2200576.0,1216000.0,831744.0,270272.0
2.8291165828704834,218.0,1565184.0,2040832.0,1212672.0,841984.0,266496.0
2.830416679382324,214.0,1533184.0,1969920.0,1054976.0,835328.0,253888.0
2.831716775894165,210.0,1501696.0,2013696.0,1113600.0,828416.0,248640.0
2.8330166339874268,221.0,1544192.0,1992704.0,1111040.0,835328.0,239488.0
2.8343167304992676,1147.0,1476352.0,1994752.0,1093376.0,764416.0,239744.0
2.8356165885925293,1273.0,1419008.0,1928704.0,1129728.0,772864.0,239936.0
2.83691668510437,284.0,1553152.0,1824000.0,1075200.0,773632.0,228608.0
2.838266611099243,221.0,1405696.0,1870336.0,1064704.0,755968.0,233536.0
2.839566707611084,210.0,1382912.0,1730816.0,985088.0,720384.0,221376.0
2.840883255004883,262.0,1347072.0,1812480.0,1061632.0,713984.0,231360.0
2.8421666622161865,218.0,1220864.0,1775872.0,975872.0,700160.0,220160.0
2.8434667587280273,174.0,1237760.0,1651456.0,879104.0,686336.0,208704.0
2.844766616821289,176.0,1284352.0,1639168.0,890880.0,642816.0,209536.0
2.84606671333313,206.0,1118208.0,1524224.0,893184.0,640000.0,208384.0
2.8473665714263916,151.0,1156352.0,1501440.0,864256.0,599296.0,170240.0
2.8486833572387695,316.0,1123328.0,1592832.0,822528.0,601344.0,196224.0
2.8499667644500732,245.0,1043456.0,1380608.0,806144.0,577536.0,181952.0
2.851266622543335,173.0,1100800.0,1421568.0,832000.0,585216.0,165056.0
2.852566719055176,278.0,1057792.0,1321728.0,768000.0,573184.0,152064.0
2.8538665771484375,250.0,875008.0,1209344.0,673024.0,495488.0,152256.0
2.8552334308624268,127.0,905216.0,1219072.0,630528.0,489600.0,152000.0
2.8565332889556885,199.0,881152.0,1133056.0,587776.0,454976.0,127296.0
2.8578333854675293,174.0,867328.0,1141248.0,641280.0,430976.0,132480.0
2.859133243560791,150.0,735488.0,931328.0,558848.0,414528.0,113712.0
2.860433340072632,164.0,660480.0,940032.0,454208.0,340224.0,104848.0
2.8617334365844727,129.0,658176.0,819456.0,483520.0,344000.0,104192.0
2.8630332946777344,108.0,608768.0,793856.0,446976.0,329472.0,102208.0
2.864333391189575,177.0,530432.0,696064.0,412352.0,254976.0,89008.0
2.865633249282837,190.0,527104.0,656128.0,391872.0,270464.0,73504.0
2.8669333457946777,101.0,451392.0,622592.0,355008.0,248640.0,63040.0
2.8682334423065186,83.0,421248.0,558848.0,308736.0,207808.0,73792.0
2.8695333003997803,149.0,386944.0,493952.0,279744.0,218688.0,52624.0
2.870833396911621,150.0,325120.0,402048.0,256000.0,173696.0,56848.0
2.8722000122070312,85.0,309184.0,400512.0,208384.0,148352.0,39376.0
2.873500108718872,70.0,262336.0,346240.0,182720.0,127456.0,45200.0
2.874799966812134,105.0,230400.0,328704.0,165888.0,127168.0,39968.0
2.8761000633239746,79.0,209728.0,280448.0,157760.0,105216.0,27788.0
2.8773999214172363,54.0,185408.0,212608.0,150656.0,93568.0,23128.0
2.878700017929077,117.0,161344.0,208512.0,111136.0,88320.0,21152.0
2.880000114440918,164.0,137536.0,194944.0,114768.0,82368.0,19048.0
2.8812999725341797,137.0,133120.0,169536.0,95808.0,64480.0,17584.0
2.8826000690460205,110.0,103488.0,134784.0,68016.0,51472.0,22468.0
2.8838999271392822,503.0,93584.0,107568.0,62160.0,40992.0,15100.0
2.885200023651123,627.0,75648.0,102304.0,64256.0,42000.0,11840.0
2.8864998817443848,123.0,86400.0,103088.0,62336.0,46128.0,8096.0
2.8877999782562256,46.0,68720.0,88064.0,52864.0,36832.0,12196.0
2.8891499042510986,145.0,76640.0,91776.0,45424.0,46848.0,13316.0
2.8904500007629395,107.0,45856.0,68688.0,48560.0,32120.0,10140.0
2.8917500972747803,91.0,56512.0,71536.0,45792.0,25016.0,10232.0
2.893066644668579,61.0,51712.0,63712.0,28704.0,31508.0,4675.0
2.894350051879883,29.0,43312.0,55184.0,35536.0,17552.0,4377.0
2.8956499099731445,54.0,37840.0,45776.0,23556.0,21812.0,5529.0
2.8969500064849854,65.0,37040.0,40544.0,30308.0,16196.0,4944.0
2.898250102996826,76.0,32096.0,36432.0,26732.0,18872.0,4360.0
2.899549961090088,81.0,32128.0,27780.0,21592.0,21892.0,1990.0
2.900866746902466,85.0,24804.0,33152.0,30840.0,18416.0,5372.0
2.9021499156951904,65.0,28024.0,32896.0,17472.0,8048.0,4669.0
2.9034500122070312,45.0,30180.0,37184.0,15300.0,13408.0,3966.0
2.904750108718872,82.0,17868.0,23012.0,21672.0,14704.0,4082.0
2.9061167240142822,39.0,26972.0,23800.0,17772.0,14960.0,3115.0
2.907416582107544,52.0,19292.0,27416.0,19220.0,8436.0,3579.0
2.9087166786193848,59.0,14644.0,16916.0,5773.0,10328.0,4043.0
2.9100167751312256,46.0,13668.0,20992.0,9880.0,5058.0,655.0
2.9113166332244873,33.0,11720.0,18540.0,12196.0,4059.0,1190.0
2.912616729736328,69.0,12412.0,13564.0,7029.0,5319.0,4424.0
2.91391658782959,16.0,11224.0,18492.0,10360.0,6499.0,3741.0
2.9152166843414307,32.0,13164.0,15024.0,7400.0,1580.0,3058.0
2.9165167808532715,49.0,11652.0,13832.0,8724.0,5240.0,1055.0
2.917816638946533,54.0,10136.0,9832.0,7052.0,2662.0,1537.0
2.919116735458374,40.0,12940.0,9000.0,9820.0,3930.0,302.0
2.9204165935516357,27.0,7384.0,5558.0,2054.0,5291.0,1145.0
2.9217166900634766,47.0,6486.0,7243.0,4961.0,2337.0,2063.0
2.9230833053588867,31.0,3257.0,7758.0,5068.0,4469.0,2827.0
2.9243834018707275,16.0,3413.0,6636.0,2233.0,2603.0,41.0
2.9256832599639893,54.0,3041.0,5514.0,5076.0,2096.0,76.0
2.92698335647583,91.0,3409.0,5527.0,4424.0,1589.0,2420.0
2.928283214569092,85.0,3281.0,2238.0,3030.0,1492.0,53.0
2.9295833110809326,15.0,3153.0,4454.0,3965.0,2005.0,419.0
2.9308834075927734,62.0,2020.0,2855.0,2257.0,2508.0,772.0
2.932183265686035,44.0,1997.0,4467.0,2626.0,3010.0,865.0
2.933483362197876,23.0,3302.0,3567.0,2995.0,988.0,31.0
2.9347832202911377,120.0,4607.0,2666.0,3239.0,727.0,905.0
2.9360833168029785,80.0,4225.0,2761.0,3256.0,93.0,206.0
2.9373834133148193,41.0,1437.0,2620.0,2849.0,28.0,121.0
2.938683271408081,45.0,4158.0,2479.0,1753.0,1836.0,36.0
2.940033435821533,42.0,5274.0,2208.0,3989.0,1648.0,16.0
2.941333293914795,11.0,411.0,3121.0,1502.0,1460.0,38.0
2.9426333904266357,45.0,1821.0,855.0,582.0,322.0,30.0
2.9439332485198975,37.0,3726.0,3964.0,3448.0,2054.0,21.0
2.9452333450317383,21.0,2253.0,1738.0,1119.0,2167.0,299.0
2.946533441543579,6.0,65.0,4719.0,1172.0,176.0,168.0
2.947833299636841,39.0,1347.0,1917.0,1429.0,10.0,36.0
2.9491333961486816,36.0,2040.0,985.0,1123.0,268.0,52.0
2.9504332542419434,34.0,1523.0,1648.0,817.0,62.0,41.0
2.951733350753784,34.0,3113.0,2757.0,1485.0,224.0,30.0
2.953033447265625,34.0,2883.0,28.0,1247.0,386.0,22.0
2.9543333053588867,32.0,2940.0,3770.0,1009.0,212.0,40.0
2.9556334018707275,25.0,3086.0,2555.0,1279.0,37.0,57.0
2.9570000171661377,17.0,3855.0,1875.0,588.0,285.0,57.0
2.9583001136779785,140.0,4678.0,1347.0,1147.0,533.0,58.0
2.9595999717712402,90.0,1926.0,5060.0,368.0,678.0,38.0
2.960900068283081,39.0,534.0,5870.0,153.0,1089.0,30.0
2.9621999263763428,29.0,55.0,7300.0,1458.0,1500.0,23.0
2.9635000228881836,30.0,351.0,2243.0,1712.0,1575.0,16.0
2.9647998809814453,30.0,648.0,2922.0,416.0,1651.0,646.0
2.966099977493286,31.0,789.0,2125.0,674.0,2682.0,581.0
2.967400074005127,32.0,931.0,2477.0,1056.0,3613.0,516.0
2.9686999320983887,28.0,1223.0,2828.0,482.0,39.0,29.0
2.9700000286102295,23.0,1404.0,770.0,770.0,928.0,688.0
2.971299886703491,23.0,3621.0,3749.0,1058.0,1025.0,366.0
2.972599983215332,36.0,3577.0,4389.0,518.0,1874.0,45.0
2.973966598510742,455.0,2162.0,4519.0,627.0,2176.0,18.0
2.975266695022583,558.0,1826.0,433.0,565.0,2552.0,212.0
2.9765665531158447,14.0,1491.0,3453.0,297.0,1548.0,405.0
2.9778666496276855,42.0,1494.0,3321.0,28.0,2394.0,213.0
2.9791667461395264,12.0,1126.0,3864.0,10.0,2564.0,20.0
2.980466604232788,63.0,758.0,2233.0,28.0,2288.0,71.0
2.981766700744629,42.0,1517.0,3260.0,47.0,994.0,42.0
2.9830665588378906,47.0,2276.0,2140.0,803.0,1325.0,13.0
2.9843666553497314,33.0,1597.0,5151.0,931.0,975.0,83.0
2.9856667518615723,54.0,918.0,5844.0,680.0,1759.0,8.0
2.986966609954834,582.0,3329.0,1438.0,429.0,27.0,60.0
2.988266706466675,604.0,2545.0,4815.0,683.0,2493.0,1084.0
2.9895665645599365,72.0,3635.0,3905.0,937.0,67.0,1160.0
2.9909167289733887,18.0,1655.0,4208.0,848.0,1706.0,70.0
2.9922165870666504,22.0,3510.0,4044.0,759.0,2230.0,614.0
2.993516683578491,25.0,1561.0,3326.0,1525.0,1507.0,75.0
2.994816780090332,16.0,2935.0,5878.0,1568.0,1351.0,386.0
2.9961166381835938,6.0,4308.0,5655.0,1612.0,1226.0,1107.0
2.9974334239959717,13.0,2741.0,1592.0,2303.0,2382.0,1484.0
2.9987165927886963,20.0,1202.0,4429.0,2933.0,2019.0,1798.0
3.000016689300537,23.0,2823.0,1833.0,3564.0,1657.0,28.0
3.001316785812378,15.0,1831.0,3282.0,2857.0,1888.0,22.0
3.0026166439056396,24.0,1943.0,5918.0,3012.0,1906.0,1380.0
3.0039334297180176,33.0,2054.0,4426.0,3168.0,18.0,12.0
3.005216598510742,51.0,2969.0,5847.0,1863.0,2602.0,45.0
3.006516695022583,43.0,3291.0,2388.0,2434.0,249.0,43.0
3.007883310317993,25.0,3614.0,5465.0,2927.0,2466.0,35.0
3.009183406829834,41.0,3382.0,4110.0,2741.0,1314.0,26.0
3.0104832649230957,58.0,4181.0,2493.0,2556.0,2167.0,36.0
3.0117833614349365,67.0,4593.0,3614.0,2776.0,2213.0,41.0
3.0130832195281982,57.0,4723.0,2116.0,2996.0,2179.0,31.0
3.014383316040039,56.0,4854.0,2389.0,2306.0,1017.0,22.0
3.01568341255188,55.0,4985.0,2662.0,1615.0,763.0,89.0
3.0169832706451416,79.0,5863.0,3440.0,1359.0,656.0,555.0
3.0182833671569824,27.0,2436.0,3334.0,2608.0,743.0,1021.0
3.019583225250244,0.0,2749.0,3227.0,2542.0,728.0,611.0
3.020883321762085,46.0,2750.0,3604.0,2475.0,714.0,201.0
3.022183418273926,42.0,2182.0,3981.0,2039.0,126.0,1171.0
3.0234832763671875,20.0,1614.0,4819.0,1602.0,448.0,989.0
3.0248498916625977,32.0,2044.0,5657.0,1858.0,2443.0,686.0
3.0261499881744385,42.0,4483.0,8560.0,1521.0,2326.0,930.0
3.0274500846862793,33.0,6498.0,8081.0,1481.0,1622.0,489.0
3.028749942779541,44.0,6226.0,2843.0,1441.0,2333.0,48.0
3.030050039291382,33.0,4648.0,4656.0,1542.0,1966.0,27.0
3.0313498973846436,23.0,1729.0,3204.0,1642.0,1599.0,97.0
3.0326499938964844,31.0,2975.0,4562.0,425.0,2292.0,57.0
3.033950090408325,21.0,5343.0,4753.0,445.0,2992.0,13.0
3.035249948501587,10.0,3393.0,4945.0,465.0,2587.0,5.0
3.0365500450134277,54.0,3027.0,3454.0,1080.0,812.0,74.0
3.0378499031066895,33.0,3270.0,5021.0,987.0,1312.0,73.0
3.0391499996185303,13.0,1892.0,2981.0,770.0,958.0,52.0
3.040450096130371,15.0,513.0,4447.0,553.0,892.0,31.0
3.0418167114257812,23.0,2329.0,5223.0,1790.0,5.0,37.0
3.043116569519043,10.0,2748.0,1584.0,1086.0,982.0,43.0
3.044416666030884,28.0,3167.0,3556.0,381.0,603.0,43.0
3.0457167625427246,29.0,3370.0,4960.0,1710.0,224.0,438.0
3.0470166206359863,37.0,3573.0,3271.0,2191.0,554.0,769.0
3.048316717147827,44.0,2348.0,4489.0,2083.0,883.0,397.0
3.049616575241089,16.0,3181.0,3046.0,1975.0,2432.0,25.0
3.0509166717529297,38.0,3001.0,3400.0,642.0,1966.0,41.0
3.0522167682647705,31.0,2546.0,3926.0,18.0,2260.0,39.0
3.0535166263580322,24.0,2092.0,2588.0,1200.0,31.0,37.0
3.054816722869873,25.0,1828.0,1559.0,2381.0,2684.0,21.0
3.0561165809631348,21.0,1564.0,2243.0,3658.0,52.0,5.0
3.0574166774749756,16.0,3339.0,3237.0,2592.0,1293.0,32.0
3.0587832927703857,24.0,3191.0,2155.0,3619.0,888.0,30.0
3.0600666999816895,32.0,33.0,1073.0,1051.0,51.0,27.0
3.061366558074951,35.0,2831.0,4359.0,4185.0,2079.0,47.0
3.062666654586792,39.0,1635.0,41.0,2534.0,1428.0,374.0
3.06398344039917,23.0,1858.0,3594.0,66.0,776.0,202.0
3.0652832984924316,27.0,2825.0,3354.0,2382.0,67.0,30.0
3.0665667057037354,33.0,3470.0,3122.0,1005.0,1305.0,23.0
3.067866563796997,30.0,4115.0,3559.0,1449.0,1122.0,14.0
3.069166660308838,26.0,274.0,3485.0,1096.0,938.0,54.0
3.0704667568206787,26.0,1248.0,3410.0,1019.0,1287.0,93.0
3.0717666149139404,26.0,308.0,2963.0,942.0,1635.0,416.0
3.0730667114257812,26.0,228.0,2516.0,597.0,381.0,218.0
3.074366569519043,21.0,982.0,2251.0,978.0,1152.0,21.0
3.0757334232330322,15.0,1736.0,2203.0,1359.0,849.0,39.0
3.077033281326294,34.0,1539.0,2155.0,4097.0,983.0,48.0
3.0783333778381348,26.0,2314.0,802.0,4649.0,1116.0,56.0
3.0796332359313965,18.0,2589.0,3126.0,4281.0,597.0,53.0
3.0809333324432373,0.0,17.0,3965.0,1211.0,1792.0,344.0
3.082233428955078,5.0,3386.0,3776.0,15.0,2131.0,414.0
3.08353328704834,11.0,2439.0,4026.0,439.0,846.0,484.0
3.0848333835601807,16.0,369.0,4052.0,835.0,820.0,33.0
3.0861332416534424,26.0,2362.0,4079.0,1931.0,1098.0,26.0
3.087433338165283,42.0,2248.0,2833.0,1973.0,1498.0,14.0
3.088733434677124,31.0,3348.0,2362.0,1335.0,1392.0,26.0
3.0900332927703857,21.0,1739.0,2196.0,1479.0,972.0,38.0
3.0913333892822266,23.0,200.0,2383.0,2321.0,46.0,257.0
3.0927000045776367,25.0,2350.0,2612.0,254.0,1309.0,270.0
3.0940001010894775,24.0,3398.0,2841.0,2466.0,935.0,283.0
3.0952999591827393,35.0,1895.0,2294.0,971.0,562.0,32.0
3.09660005569458,27.0,1951.0,1746.0,1273.0,956.0,14.0
3.097899913787842,18.0,2214.0,3182.0,29.0,20.0,43.0
3.0992000102996826,55.0,1956.0,2819.0,1037.0,1163.0,17.0
3.1005001068115234,30.0,1698.0,3532.0,2045.0,604.0,0.0
3.101799964904785,5.0,2026.0,3146.0,1279.0,46.0,15.0
3.103100061416626,0.0,1776.0,2760.0,512.0,1360.0,29.0
3.1043999195098877,23.0,1526.0,764.0,2364.0,1499.0,629.0
3.1057000160217285,16.0,1185.0,1705.0,30.0,1637.0,610.0
3.1070001125335693,33.0,1845.0,1287.0,642.0,2022.0,590.0
3.108299970626831,26.0,1882.0,870.0,513.0,17.0,595.0
3.109666585922241,17.0,1920.0,54.0,1069.0,930.0,772.0
3.110966682434082,5.0,1358.0,926.0,1254.0,3165.0,22.0
3.112266778945923,33.0,795.0,1799.0,1284.0,2277.0,12.0
3.1135666370391846,30.0,2245.0,1341.0,1121.0,845.0,932.0
3.1148667335510254,26.0,945.0,884.0,967.0,2166.0,22.0
3.116166591644287,25.0,1733.0,1808.0,814.0,916.0,465.0
3.117466688156128,30.0,1843.0,382.0,717.0,2173.0,1120.0
3.1187667846679688,34.0,857.0,2194.0,544.0,931.0,52.0
3.1200666427612305,16.0,1402.0,2828.0,304.0,1562.0,81.0
3.1213667392730713,14.0,2179.0,2153.0,1301.0,432.0,854.0
3.122666597366333,11.0,1726.0,1841.0,1099.0,21.0,45.0
3.123966693878174,35.0,1456.0,2047.0,897.0,605.0,864.0
3.1252665519714355,35.0,1186.0,2031.0,33.0,880.0,526.0
3.1266167163848877,22.0,1018.0,2173.0,1767.0,1166.0,39.0
3.1279165744781494,14.0,1090.0,2316.0,1909.0,909.0,20.0
3.1292166709899902,5.0,705.0,1690.0,1129.0,33.0,54.0
3.130516767501831,12.0,658.0,3443.0,1305.0,21.0,46.0
3.1318166255950928,19.0,31.0,15.0,1654.0,541.0,29.0
3.1331334114074707,19.0,330.0,988.0,481.0,13.0,28.0
3.1344165802001953,19.0,15.0,699.0,97.0,13.0,24.0
3.135716676712036,18.0,0.0,19.0,96.0,13.0,12.0
3.137016773223877,18.0,19.0,872.0,24.0,12.0,26.0
3.1383166313171387,12.0,10.0,185.0,41.0,10.0,39.0
3.1396167278289795,5.0,56.0,9.0,23.0,8.0,30.0
3.140916585922241,41.0,430.0,25.0,19.0,6.0,21.0
3.142216682434082,41.0,234.0,28.0,20.0,19.0,12.0
3.143583297729492,47.0,37.0,724.0,26.0,32.0,9.0
3.144883394241333,19.0,16.0,692.0,32.0,26.0,5.0
3.1461832523345947,47.0,29.0,18.0,38.0,20.0,28.0
3.1474833488464355,61.0,39.0,22.0,45.0,5.0,31.0
3.1487834453582764,46.0,14.0,25.0,34.0,23.0,33.0
3.150083303451538,25.0,31.0,40.0,24.0,0.0,36.0
3.151383399963379,47.0,76.0,56.0,36.0,26.0,39.0
3.1526832580566406,6.0,62.0,125.0,36.0,65.0,11.0
3.1539833545684814,18.0,48.0,77.0,36.0,889.0,5.0
3.1552834510803223,26.0,20.0,28.0,27.0,449.0,39.0
3.156583309173584,50.0,70.0,69.0,17.0,9.0,23.0
3.157883405685425,41.0,53.0,48.0,40.0,10.0,26.0
3.1591832637786865,10.0,5.0,26.0,33.0,109.0,43.0
3.160550117492676,16.0,22.0,17.0,27.0,78.0,38.0
3.1618499755859375,22.0,33.0,20.0,10.0,42.0,47.0
3.1631500720977783,21.0,37.0,52.0,23.0,16.0,28.0
3.16444993019104,39.0,21.0,63.0,32.0,20.0,26.0
3.165750026702881,25.0,5.0,75.0,265.0,23.0,16.0
3.1670498847961426,10.0,26.0,68.0,304.0,27.0,35.0
3.1683499813079834,50.0,39.0,38.0,343.0,30.0,6.0
3.169650077819824,35.0,24.0,226.0,5.0,31.0,43.0
3.170949935913086,16.0,10.0,127.0,16.0,18.0,19.0
3.1722500324249268,17.0,5.0,27.0,26.0,38.0,41.0
3.1735498905181885,29.0,13.0,1148.0,13.0,43.0,10.0
3.1748499870300293,41.0,21.0,1377.0,28.0,51.0,43.0
3.17615008354187,25.0,54.0,710.0,24.0,34.0,29.0
3.1775166988372803,10.0,74.0,48.0,12.0,18.0,16.0
3.178816556930542,45.0,81.0,31.0,11.0,43.0,10.0
3.180116653442383,20.0,88.0,249.0,10.0,46.0,5.0
3.1814167499542236,32.0,12.0,138.0,16.0,28.0,21.0
3.1827166080474854,42.0,19.0,27.0,21.0,638.0,37.0
3.184016704559326,51.0,5.0,59.0,19.0,360.0,37.0
3.185316562652588,6.0,8.0,40.0,17.0,82.0,37.0
3.1866166591644287,20.0,10.0,52.0,22.0,846.0,35.0
3.1879167556762695,16.0,13.0,64.0,22.0,37.0,23.0
3.1892166137695312,26.0,15.0,15.0,21.0,50.0,19.0
3.190516710281372,31.0,56.0,24.0,16.0,33.0,15.0
3.191816568374634,36.0,55.0,22.0,14.0,33.0,40.0
3.1931166648864746,34.0,37.0,21.0,36.0,24.0,41.0
3.1944832801818848,28.0,15.0,33.0,28.0,42.0,33.0
3.1957833766937256,43.0,16.0,45.0,19.0,34.0,21.0
3.1970832347869873,50.0,15.0,44.0,15.0,26.0,12.0
3.198383331298828,16.0,0.0,43.0,19.0,30.0,24.0
