,317.1099853515625,318.1099853515625,319.1099853515625,320.1099853515625,321.1099853515625,322.1099853515625,323.1099853515625
0.6015166640281677,38.0,17.0,0.0,53.0,18.0,64.0,5.0
0.6030333042144775,10.0,26.0,8.0,14.0,6.0,38.0,0.0
0.6045500040054321,21.0,44.0,15.0,63.0,15.0,35.0,8.0
0.6060666441917419,10.0,11.0,10.0,11.0,17.0,17.0,11.0
0.6075833439826965,19.0,20.0,5.0,20.0,10.0,21.0,13.0
0.6090999841690063,27.0,28.0,16.0,53.0,11.0,20.0,15.0
0.6106166839599609,11.0,10.0,11.0,14.0,6.0,18.0,10.0
0.6121333241462708,24.0,19.0,5.0,32.0,0.0,17.0,5.0
0.6136500239372253,37.0,14.0,27.0,58.0,10.0,30.0,10.0
0.6151666641235352,29.0,10.0,22.0,12.0,22.0,43.0,8.0
0.616683304309845,22.0,30.0,10.0,56.0,54.0,0.0,5.0
0.6182666420936584,16.0,41.0,0.0,34.0,34.0,16.0,11.0
0.619783341884613,11.0,31.0,30.0,7.0,14.0,0.0,17.0
0.6212999820709229,6.0,0.0,0.0,23.0,0.0,12.0,19.0
0.6228166818618774,13.0,8.0,12.0,31.0,54.0,23.0,25.0
0.6243333220481873,12.0,22.0,6.0,44.0,62.0,34.0,6.0
0.6258500218391418,18.0,30.0,16.0,57.0,17.0,17.0,0.0
0.6273666620254517,24.0,28.0,12.0,48.0,21.0,24.0,10.0
0.6288833618164062,12.0,25.0,5.0,9.0,24.0,16.0,13.0
0.6304000020027161,0.0,23.0,3.0,0.0,22.0,19.0,15.0
0.6319166421890259,38.0,0.0,0.0,12.0,0.0,22.0,19.0
0.6334333419799805,22.0,49.0,0.0,23.0,18.0,23.0,5.0
0.635016679763794,26.0,56.0,5.0,45.0,30.0,27.0,3.0
0.6365333199501038,44.0,48.0,10.0,38.0,5.0,11.0,0.0
0.6380500197410583,13.0,40.0,16.0,49.0,5.0,26.0,19.0
0.6395666599273682,7.0,0.0,20.0,23.0,28.0,15.0,39.0
0.6410833597183228,0.0,41.0,17.0,0.0,13.0,26.0,38.0
0.6425999999046326,11.0,37.0,19.0,13.0,5.0,21.0,0.0
0.6441166400909424,22.0,32.0,20.0,17.0,10.0,16.0,16.0
0.645633339881897,28.0,16.0,34.0,19.0,0.0,14.0,43.0
0.6471499800682068,24.0,8.0,20.0,25.0,8.0,12.0,39.0
0.6486666798591614,28.0,0.0,5.0,5.0,0.0,15.0,41.0
0.6501833200454712,32.0,5.0,10.0,10.0,23.0,18.0,0.0
0.6517500281333923,46.0,7.0,5.0,16.0,42.0,31.0,53.0
0.6532666683197021,42.0,9.0,17.0,6.0,21.0,44.0,17.0
0.654783308506012,47.0,11.0,15.0,22.0,0.0,109.0,0.0
0.6563000082969666,5.0,28.0,28.0,26.0,0.0,118.0,28.0
0.6578166484832764,38.0,35.0,17.0,7.0,0.0,0.0,16.0
0.659333348274231,13.0,38.0,5.0,30.0,6.0,5.0,19.0
0.6608499884605408,19.0,44.0,21.0,18.0,11.0,22.0,14.0
0.6623666882514954,0.0,6.0,27.0,15.0,15.0,15.0,14.0
0.6638833284378052,5.0,27.0,5.0,39.0,14.0,16.0,12.0
0.6654000282287598,13.0,43.0,5.0,42.0,13.0,13.0,10.0
0.6669166684150696,11.0,17.0,27.0,14.0,14.0,10.0,10.0
0.6685000061988831,9.0,32.0,49.0,5.0,14.0,6.0,34.0
0.6700166463851929,0.0,34.0,40.0,9.0,14.0,14.0,43.0
0.6715333461761475,5.0,28.0,26.0,12.0,14.0,14.0,14.0
0.6730499863624573,7.0,21.0,39.0,9.0,13.0,10.0,8.0
0.6745666861534119,8.0,10.0,5.0,6.0,20.0,5.0,27.0
0.6760833263397217,10.0,20.0,12.0,15.0,26.0,20.0,13.0
0.6776000261306763,17.0,22.0,5.0,23.0,24.0,26.0,5.0
0.6791166663169861,25.0,23.0,32.0,17.0,22.0,19.0,5.0
0.6806333065032959,15.0,12.0,30.0,15.0,0.0,11.0,12.0
0.6821500062942505,5.0,0.0,48.0,98.0,18.0,25.0,26.0
0.6836666464805603,25.0,5.0,60.0,62.0,9.0,18.0,22.0
0.6852333545684814,0.0,5.0,36.0,25.0,0.0,5.0,28.0
0.6867499947547913,6.0,26.0,12.0,24.0,6.0,13.0,0.0
0.6882666945457458,32.0,20.0,9.0,0.0,3.0,18.0,14.0
0.6897833347320557,43.0,27.0,12.0,0.0,0.0,23.0,5.0
0.6912999749183655,15.0,31.0,15.0,11.0,25.0,18.0,0.0
0.6928166747093201,11.0,35.0,5.0,28.0,44.0,13.0,7.0
0.6943333148956299,22.0,29.0,6.0,27.0,46.0,5.0,13.0
0.6958500146865845,19.0,40.0,17.0,20.0,21.0,0.0,12.0
0.6973666548728943,25.0,20.0,28.0,12.0,45.0,7.0,11.0
0.6988833546638489,0.0,13.0,27.0,33.0,223.0,6.0,11.0
0.7003999948501587,20.0,26.0,36.0,5.0,119.0,5.0,11.0
0.7019666433334351,29.0,16.0,5.0,22.0,15.0,15.0,11.0
0.703499972820282,34.0,0.0,0.0,5.0,5.0,25.0,10.0
0.7050166726112366,47.0,23.0,3.0,24.0,22.0,26.0,54.0
0.7065333127975464,5.0,30.0,5.0,30.0,5.0,30.0,45.0
0.708050012588501,6.0,25.0,44.0,136.0,0.0,24.0,17.0
0.7095666527748108,29.0,16.0,37.0,73.0,0.0,29.0,5.0
0.7110833525657654,21.0,0.0,13.0,9.0,7.0,5.0,23.0
0.7125999927520752,31.0,0.0,37.0,19.0,14.0,6.0,14.0
0.7141166925430298,26.0,0.0,0.0,34.0,14.0,15.0,5.0
0.7156333327293396,5.0,0.0,30.0,5.0,19.0,23.0,20.0
0.7171499729156494,28.0,0.0,34.0,28.0,24.0,20.0,38.0
0.718666672706604,26.0,0.0,5.0,29.0,25.0,24.0,34.0
0.7202333211898804,0.0,14.0,31.0,64.0,6.0,31.0,18.0
0.721750020980835,8.0,12.0,5.0,37.0,19.0,0.0,27.0
0.7232666611671448,15.0,10.0,25.0,10.0,16.0,8.0,15.0
0.7247833609580994,30.0,20.0,22.0,30.0,16.0,12.0,0.0
0.7263000011444092,18.0,19.0,19.0,26.0,8.0,7.0,18.0
0.727816641330719,5.0,18.0,12.0,21.0,23.0,25.0,23.0
0.7293333411216736,11.0,17.0,5.0,8.0,81.0,31.0,10.0
0.7308499813079834,5.0,22.0,20.0,32.0,43.0,28.0,8.0
0.732366681098938,37.0,17.0,15.0,25.0,5.0,6.0,5.0
0.7338833212852478,37.0,11.0,15.0,30.0,22.0,17.0,6.0
0.7354000210762024,26.0,6.0,14.0,13.0,0.0,20.0,0.0
0.7369833588600159,5.0,0.0,7.0,60.0,19.0,22.0,7.0
0.7384999990463257,39.0,10.0,5.0,49.0,38.0,65.0,13.0
0.7400166392326355,5.0,19.0,18.0,27.0,28.0,33.0,11.0
0.7415333390235901,26.0,49.0,30.0,15.0,25.0,0.0,0.0
0.7430499792098999,5.0,43.0,35.0,12.0,21.0,20.0,10.0
0.7445666790008545,30.0,37.0,26.0,32.0,0.0,34.0,18.0
0.7460833191871643,10.0,27.0,22.0,24.0,20.0,13.0,14.0
0.7476000189781189,15.0,32.0,17.0,16.0,12.0,0.0,10.0
0.7491166591644287,8.0,15.0,12.0,20.0,15.0,0.0,0.0
0.7506333589553833,0.0,25.0,33.0,35.0,17.0,5.0,6.0
0.7521499991416931,28.0,0.0,44.0,30.0,0.0,0.0,11.0
0.7537166476249695,30.0,6.0,49.0,12.0,0.0,30.0,16.0
0.7552333474159241,41.0,6.0,10.0,32.0,0.0,28.0,22.0
0.7567499876022339,29.0,10.0,17.0,0.0,12.0,25.0,28.0
0.7582666873931885,20.0,0.0,23.0,5.0,9.0,22.0,39.0
0.7597833275794983,22.0,0.0,20.0,0.0,5.0,19.0,6.0
0.7613000273704529,24.0,26.0,17.0,4.0,5.0,20.0,53.0
0.7628166675567627,19.0,29.0,14.0,8.0,5.0,34.0,26.0
0.7643333077430725,18.0,15.0,10.0,17.0,5.0,0.0,13.0
0.7658500075340271,12.0,0.0,25.0,26.0,12.0,44.0,0.0
0.7673666477203369,27.0,15.0,17.0,34.0,30.0,23.0,5.0
0.7688999772071838,13.0,26.0,8.0,31.0,15.0,24.0,20.0
0.770466685295105,0.0,15.0,0.0,28.0,0.0,47.0,34.0
0.7719833254814148,21.0,0.0,12.0,24.0,35.0,13.0,26.0
0.7735000252723694,13.0,6.0,7.0,7.0,10.0,16.0,17.0
0.7750166654586792,5.0,11.0,7.0,20.0,7.0,49.0,0.0
0.776533305644989,5.0,8.0,6.0,10.0,69.0,58.0,16.0
0.7780500054359436,5.0,5.0,12.0,6.0,54.0,38.0,25.0
0.7795666456222534,0.0,11.0,18.0,21.0,14.0,17.0,12.0
0.781083345413208,35.0,38.0,44.0,7.0,13.0,12.0,14.0
0.7825999855995178,42.0,58.0,46.0,4.0,46.0,84.0,16.0
0.7841166853904724,23.0,191.0,32.0,0.0,23.0,42.0,5.0
0.7856333255767822,34.0,1268.0,3645.0,3309.0,2909.0,0.0,170.0
0.7871999740600586,0.0,13748.0,26084.0,23252.0,25528.0,9808.0,4004.0
0.7887166738510132,27.0,29832.0,98208.0,113536.0,80960.0,37120.0,16468.0
0.790233314037323,49.0,127680.0,226304.0,287808.0,197120.0,74144.0,25368.0
0.7917500138282776,26.0,216000.0,484736.0,448192.0,351680.0,156864.0,47200.0
0.7932666540145874,35.0,335808.0,691968.0,670976.0,449920.0,178496.0,71392.0
0.794783353805542,44.0,421632.0,875264.0,901888.0,578560.0,232000.0,64032.0
0.7962999939918518,59.0,522496.0,1065728.0,1115648.0,743168.0,310720.0,85744.0
0.7978166937828064,74.0,602112.0,1123072.0,1168896.0,816896.0,340928.0,90528.0
0.7993333339691162,87.0,649984.0,1317376.0,1404928.0,928256.0,367104.0,96288.0
0.800849974155426,94.0,739840.0,1384448.0,1468416.0,943616.0,408192.0,94528.0
0.8023666739463806,100.0,760832.0,1391104.0,1460480.0,1053696.0,447488.0,99376.0
0.8039166927337646,88.0,834816.0,1522432.0,1611008.0,1076992.0,441472.0,104224.0
0.8054333329200745,119.0,834816.0,1532928.0,1650176.0,1128448.0,427392.0,127024.0
0.8069499731063843,67.0,889600.0,1533440.0,1741056.0,1208320.0,413312.0,118816.0
0.8084666728973389,66.0,879616.0,1534208.0,1742848.0,1169920.0,437056.0,110624.0
0.8099833130836487,132.0,861696.0,1523968.0,1710592.0,1179904.0,443008.0,127264.0
0.8115000128746033,137.0,843520.0,1513728.0,1581568.0,1047040.0,426816.0,105024.0
0.8130166530609131,142.0,889088.0,1493504.0,1598208.0,1034496.0,417920.0,115184.0
0.8145333528518677,106.0,788224.0,1473024.0,1509376.0,951040.0,388800.0,118560.0
0.8160499930381775,124.0,784640.0,1414912.0,1498368.0,1067520.0,391232.0,92896.0
0.8175666928291321,270.0,756992.0,1307392.0,1317888.0,839936.0,358016.0,91216.0
0.8190833330154419,181.0,699136.0,1214976.0,1286912.0,881920.0,337024.0,95488.0
0.8206333518028259,91.0,629248.0,1224960.0,1196544.0,797184.0,313600.0,77312.0
0.8221333622932434,178.0,572672.0,1068544.0,1145344.0,788736.0,313600.0,88352.0
0.8236500024795532,135.0,536832.0,1035776.0,1058816.0,768512.0,309312.0,74816.0
0.825166642665863,135.0,537600.0,930560.0,1000960.0,706048.0,237824.0,75024.0
0.8266833424568176,152.0,459008.0,832000.0,832000.0,573696.0,251008.0,71808.0
0.8281999826431274,169.0,459136.0,798720.0,852224.0,532480.0,206336.0,63312.0
0.8297333121299744,163.0,380928.0,726272.0,696064.0,490176.0,188608.0,50752.0
0.8312333226203918,103.0,339968.0,609536.0,610048.0,397504.0,137152.0,34896.0
0.8327500224113464,80.0,291648.0,515456.0,522496.0,346496.0,136576.0,34112.0
0.8342666625976562,122.0,238912.0,431616.0,425536.0,306112.0,118272.0,27816.0
0.8357833623886108,81.0,193152.0,382912.0,387136.0,247552.0,84560.0,22332.0
0.8373500108718872,22.0,157440.0,300096.0,307648.0,213184.0,70448.0,23976.0
0.8388833403587341,103.0,132736.0,236800.0,233728.0,156224.0,72640.0,22184.0
0.840399980545044,58.0,109680.0,191232.0,215808.0,156544.0,71104.0,10204.0
0.8419166803359985,69.0,86640.0,164224.0,166720.0,103232.0,34576.0,5441.0
0.8434333205223083,56.0,69600.0,143680.0,144960.0,76608.0,40144.0,9600.0
0.8449500203132629,45.0,61008.0,105376.0,102624.0,76208.0,37952.0,7584.0
0.8464666604995728,33.0,52400.0,85056.0,102000.0,58864.0,26024.0,1810.0
0.8479833602905273,49.0,54080.0,85536.0,95344.0,57184.0,20496.0,4351.0
0.8495000004768372,18.0,25620.0,80064.0,69568.0,51776.0,20456.0,1671.0
0.851016640663147,37.0,41232.0,62384.0,72880.0,53328.0,19980.0,3160.0
0.8525333404541016,28.0,38672.0,66592.0,62816.0,34592.0,15672.0,4648.0
0.8540499806404114,19.0,29296.0,54384.0,49136.0,34096.0,15116.0,3559.0
0.8556166887283325,27.0,23344.0,52784.0,60480.0,28924.0,16272.0,4245.0
0.8571333289146423,35.0,30488.0,39600.0,56656.0,33600.0,19044.0,3058.0
0.8586500287055969,30.0,20120.0,41184.0,32864.0,30368.0,8692.0,4633.0
0.8601666688919067,35.0,21780.0,33840.0,54208.0,32668.0,16564.0,34.0
0.8616833090782166,28.0,13184.0,32736.0,44304.0,22576.0,9600.0,4141.0
0.8632000088691711,21.0,15856.0,31636.0,35776.0,26524.0,10488.0,1901.0
0.864716649055481,25.0,18528.0,31296.0,35744.0,19604.0,7545.0,3163.0
0.8662333488464355,28.0,15384.0,30956.0,36352.0,27236.0,6864.0,3214.0
0.8677499890327454,60.0,18212.0,30372.0,36768.0,23876.0,8212.0,1270.0
0.8692666888237,47.0,14432.0,30020.0,23196.0,17464.0,8864.0,2705.0
0.8707833290100098,34.0,11296.0,29668.0,20300.0,15452.0,7893.0,2165.0
0.8723666667938232,50.0,10256.0,30876.0,32864.0,23684.0,6704.0,1797.0
0.8738833069801331,14.0,7319.0,23224.0,30648.0,14644.0,6504.0,4083.0
0.8754000067710876,48.0,15708.0,22872.0,31268.0,15520.0,6508.0,5475.0
0.8769166469573975,38.0,14436.0,18792.0,31248.0,19232.0,6512.0,3902.0
0.878433346748352,20.0,10680.0,19284.0,22076.0,13708.0,6949.0,3120.0
0.8799499869346619,33.0,15548.0,19776.0,28976.0,12332.0,6587.0,1636.0
0.8814666867256165,19.0,9328.0,20080.0,18120.0,12724.0,6224.0,1603.0
0.8829833269119263,5.0,9104.0,20380.0,24784.0,12728.0,5203.0,2559.0
0.8845000267028809,17.0,8880.0,19688.0,19600.0,12732.0,4181.0,1715.0
0.8860166668891907,29.0,9864.0,18992.0,17216.0,12192.0,3864.0,599.0
0.8875333070755005,29.0,10868.0,21108.0,21740.0,11648.0,4034.0,880.0
0.8891000151634216,36.0,11872.0,21200.0,20320.0,13588.0,4204.0,783.0
0.8906166553497314,41.0,12352.0,21292.0,13788.0,15528.0,1573.0,1363.0
0.892133355140686,21.0,9496.0,17236.0,14464.0,8090.0,2267.0,1568.0
0.8936499953269958,32.0,12156.0,19708.0,16500.0,4050.0,2961.0,1773.0
0.8951666951179504,30.0,9680.0,14392.0,16268.0,6151.0,4183.0,42.0
0.8966833353042603,20.0,7204.0,17100.0,16036.0,9072.0,5405.0,205.0
0.8981999754905701,0.0,1875.0,15528.0,19540.0,10816.0,5095.0,462.0
0.8997166752815247,48.0,7051.0,13960.0,11752.0,9128.0,4880.0,1009.0
0.9012333154678345,31.0,5466.0,7070.0,11012.0,9572.0,3001.0,1796.0
0.9027500152587891,41.0,8212.0,10012.0,15072.0,6020.0,3673.0,907.0
0.9042666554450989,19.0,4031.0,12956.0,15708.0,7494.0,4418.0,17.0
0.9058499932289124,20.0,6424.0,14188.0,15160.0,13540.0,3765.0,18.0
0.9073666930198669,10.0,6876.0,14496.0,12008.0,11196.0,5382.0,26.0
0.9088833332061768,0.0,6995.0,13740.0,5553.0,16464.0,57.0,33.0
0.9103999733924866,45.0,6382.0,8788.0,10168.0,7091.0,3252.0,245.0
0.9119166731834412,44.0,6458.0,10288.0,12040.0,6446.0,7557.0,456.0
0.913433313369751,39.0,6534.0,12684.0,14944.0,7469.0,4603.0,1844.0
0.9149500131607056,13.0,8136.0,12232.0,14164.0,9404.0,4004.0,1808.0
0.9164666533470154,23.0,8864.0,12772.0,13956.0,4288.0,2668.0,651.0
0.91798335313797,33.0,9716.0,6179.0,5935.0,10168.0,5315.0,1724.0
0.9194999933242798,43.0,8174.0,10440.0,4115.0,7398.0,2554.0,2194.0
0.9210166931152344,65.0,6593.0,9124.0,15072.0,1510.0,3487.0,673.0
0.9225833415985107,66.0,4016.0,10724.0,13696.0,5124.0,1220.0,685.0
0.9240999817848206,36.0,7508.0,10312.0,13940.0,5825.0,3802.0,253.0
0.9256166815757751,16.0,5493.0,9900.0,10384.0,6750.0,2938.0,439.0
0.927133321762085,7.0,3876.0,5068.0,15424.0,6700.0,3111.0,40.0
0.9286500215530396,15.0,8178.0,11648.0,13320.0,4444.0,2810.0,556.0
0.9301666617393494,16.0,7126.0,9352.0,8776.0,5688.0,2203.0,660.0
0.931683361530304,17.0,3713.0,6206.0,11044.0,6380.0,2697.0,764.0
0.9332000017166138,31.0,4211.0,13816.0,10472.0,8013.0,1635.0,417.0
0.9347166419029236,27.0,7970.0,7663.0,11520.0,9128.0,2236.0,214.0
0.9362333416938782,20.0,8284.0,12052.0,10156.0,7825.0,1767.0,10.0
0.937749981880188,0.0,7198.0,13068.0,6383.0,6794.0,1775.0,980.0
0.9393333196640015,18.0,1529.0,7523.0,7705.0,7660.0,1783.0,1950.0
0.940850019454956,37.0,4594.0,10032.0,9028.0,9432.0,2402.0,2172.0
0.9423666596412659,34.0,7891.0,15732.0,9000.0,8836.0,4456.0,33.0
0.9438833594322205,14.0,2739.0,12996.0,8976.0,7015.0,3643.0,27.0
0.9453999996185303,14.0,5636.0,11892.0,10196.0,7563.0,2829.0,0.0
0.9469166398048401,35.0,8284.0,12060.0,10192.0,9140.0,2016.0,43.0
0.9484333395957947,0.0,6728.0,11188.0,10188.0,9784.0,3968.0,837.0
0.9499499797821045,11.0,2162.0,13496.0,9284.0,4645.0,3350.0,779.0
0.9514666795730591,29.0,8174.0,9392.0,8380.0,6771.0,2358.0,25.0
0.9529833197593689,27.0,4296.0,6060.0,9396.0,4535.0,4751.0,634.0
0.9545000195503235,51.0,5485.0,9716.0,8792.0,5169.0,4417.0,19.0
0.9560499787330627,41.0,5464.0,9176.0,9592.0,5172.0,4422.0,0.0
0.9575833082199097,16.0,5606.0,8632.0,10388.0,4831.0,560.0,208.0
0.9591000080108643,0.0,1233.0,11544.0,10504.0,4491.0,1883.0,123.0
0.9606166481971741,32.0,5819.0,5295.0,10620.0,4391.0,1702.0,37.0
0.9621333479881287,11.0,4305.0,10208.0,12480.0,4290.0,4133.0,5.0
0.9636499881744385,28.0,3511.0,11608.0,7577.0,5525.0,3851.0,929.0
0.9651666879653931,17.0,1694.0,10524.0,11440.0,7159.0,3191.0,1089.0
0.9666833281517029,8.0,3579.0,6401.0,7423.0,6340.0,1928.0,331.0
0.9682000279426575,23.0,2537.0,7885.0,10140.0,5521.0,1298.0,39.0
0.9697166681289673,54.0,2190.0,13712.0,9140.0,5075.0,1446.0,0.0
0.9712333083152771,63.0,3997.0,12576.0,9448.0,3096.0,1209.0,339.0
0.9727500081062317,41.0,3329.0,9052.0,8924.0,6060.0,972.0,173.0
0.9743333458900452,30.0,2661.0,9684.0,8404.0,1121.0,10.0,7.0
0.975849986076355,48.0,2226.0,9852.0,8168.0,4796.0,421.0,43.0
0.9773666858673096,61.0,1568.0,6821.0,7933.0,5433.0,832.0,20.0
0.9788833260536194,59.0,910.0,9064.0,9168.0,6660.0,3853.0,472.0
0.980400025844574,18.0,5609.0,5975.0,8224.0,2110.0,3015.0,457.0
0.9819166660308838,36.0,5296.0,7223.0,7283.0,3956.0,1506.0,442.0
0.9834333062171936,34.0,3353.0,11376.0,6326.0,2910.0,2221.0,224.0
0.9849500060081482,6.0,3080.0,11740.0,9860.0,3289.0,1335.0,5.0
0.986466646194458,15.0,5372.0,8960.0,8304.0,3667.0,449.0,18.0
0.9879833459854126,23.0,3620.0,7804.0,6749.0,3890.0,1743.0,30.0
0.9894999861717224,11.0,3286.0,9164.0,7388.0,4113.0,3036.0,18.0
0.9910666942596436,22.0,5431.0,5689.0,3669.0,5393.0,2345.0,5.0
0.9925833344459534,18.0,4421.0,5431.0,6040.0,5457.0,2388.0,18.0
0.9940999746322632,14.0,5489.0,5450.0,6012.0,5522.0,2492.0,30.0
0.9956166744232178,7.0,6564.0,10636.0,7445.0,6279.0,594.0,95.0
0.9971333146095276,13.0,6696.0,12000.0,6596.0,7037.0,1325.0,160.0
0.9986500144004822,18.0,6829.0,6153.0,5747.0,3098.0,2945.0,899.0
1.000166654586792,23.0,7133.0,8988.0,8007.0,9352.0,1376.0,467.0
1.0016833543777466,33.0,5317.0,10336.0,8568.0,8612.0,1477.0,36.0
1.0032000541687012,38.0,4055.0,9436.0,6853.0,5354.0,1803.0,598.0
1.0047166347503662,27.0,3868.0,10852.0,6739.0,9308.0,6.0,16.0
1.0062333345413208,16.0,3263.0,5522.0,7351.0,7848.0,514.0,37.0
1.0078166723251343,37.0,2293.0,8620.0,6959.0,5340.0,1140.0,124.0
1.0093333721160889,18.0,5230.0,9572.0,7906.0,4699.0,1766.0,210.0
1.010849952697754,19.0,4543.0,8396.0,8432.0,2286.0,1814.0,669.0
1.0123666524887085,45.0,2139.0,6690.0,7268.0,8024.0,2955.0,540.0
1.013883352279663,39.0,7401.0,9016.0,6102.0,6232.0,3005.0,347.0
1.0154000520706177,34.0,1124.0,8212.0,7596.0,8520.0,3055.0,13.0
1.0169166326522827,26.0,5253.0,7404.0,7051.0,8908.0,2119.0,20.0
1.0184333324432373,23.0,8252.0,4550.0,6506.0,9300.0,1183.0,30.0
1.019950032234192,29.0,3322.0,1050.0,6760.0,5645.0,2294.0,18.0
1.021466612815857,24.0,7151.0,7890.0,7015.0,7429.0,3191.0,5.0
1.0229833126068115,19.0,4767.0,6641.0,8196.0,8118.0,3925.0,25.0
1.024549961090088,6.0,6095.0,6435.0,9376.0,5016.0,3116.0,45.0
1.0260666608810425,24.0,939.0,8508.0,3651.0,2839.0,35.0,48.0
1.027583360671997,18.0,1039.0,8744.0,7104.0,6630.0,3051.0,52.0
1.029099941253662,16.0,1653.0,6669.0,8508.0,6118.0,883.0,20.0
1.0306166410446167,11.0,3026.0,7879.0,8744.0,4839.0,4820.0,13.0
1.0321333408355713,5.0,6960.0,10164.0,7992.0,2746.0,3898.0,5.0
1.0336500406265259,0.0,5501.0,10572.0,7241.0,2195.0,1920.0,39.0
1.035166621208191,37.0,1556.0,5804.0,6351.0,1645.0,1758.0,22.0
1.0366833209991455,56.0,8936.0,12492.0,5461.0,5504.0,1666.0,5.0
1.0382000207901,34.0,5743.0,1411.0,6560.0,7543.0,1715.0,34.0
1.0397167205810547,25.0,4300.0,8596.0,7444.0,5804.0,1765.0,33.0
1.0413000583648682,15.0,4587.0,10456.0,7135.0,3211.0,1810.0,32.0
1.0428166389465332,7.0,2694.0,10636.0,8488.0,7416.0,1854.0,29.0
1.0443333387374878,12.0,2452.0,13872.0,10016.0,2045.0,1823.0,26.0
1.0458500385284424,10.0,2211.0,3429.0,9572.0,4975.0,2526.0,73.0
1.0473666191101074,15.0,1970.0,7690.0,4690.0,7823.0,326.0,52.0
1.048883318901062,19.0,4895.0,8320.0,6248.0,3482.0,1354.0,30.0
1.0504000186920166,0.0,4504.0,5286.0,9060.0,5546.0,1403.0,29.0
1.0519167184829712,31.0,7530.0,5935.0,8524.0,7041.0,1453.0,28.0
1.0534332990646362,24.0,6438.0,5814.0,7991.0,6412.0,1156.0,28.0
1.0549499988555908,17.0,4146.0,6406.0,8115.0,5840.0,1594.0,28.0
1.0564666986465454,45.0,3933.0,6998.0,7033.0,2826.0,2032.0,288.0
1.0580333471298218,54.0,5119.0,7591.0,5951.0,5474.0,1324.0,151.0
1.0595500469207764,27.0,3308.0,6455.0,10096.0,3605.0,616.0,13.0
1.0610666275024414,12.0,2967.0,5319.0,10960.0,4560.0,2547.0,19.0
1.062583327293396,25.0,4106.0,8584.0,10208.0,7678.0,1422.0,24.0
1.0641000270843506,14.0,5408.0,11848.0,9516.0,6738.0,1837.0,693.0
1.0656166076660156,5.0,5422.0,11016.0,10384.0,3234.0,1724.0,869.0
1.0671333074569702,21.0,5135.0,4988.0,11252.0,6338.0,2720.0,1430.0
1.0686500072479248,16.0,4848.0,9124.0,9856.0,5740.0,2644.0,1991.0
1.0701667070388794,18.0,3169.0,8920.0,8456.0,3762.0,2569.0,5.0
1.0716832876205444,14.0,1490.0,6632.0,14712.0,5336.0,2087.0,22.0
1.073199987411499,10.0,2609.0,12724.0,14064.0,6910.0,1605.0,852.0
1.0747666358947754,17.0,3727.0,11080.0,3080.0,5726.0,1695.0,663.0
1.076300024986267,16.0,5118.0,8524.0,6051.0,4542.0,1785.0,583.0
1.0778167247772217,15.0,3629.0,12508.0,6958.0,5419.0,1229.0,28.0
1.0793333053588867,14.0,2140.0,9496.0,10996.0,6295.0,1461.0,705.0
1.0808500051498413,12.0,3094.0,13796.0,8556.0,7927.0,1692.0,608.0
1.082366704940796,21.0,4048.0,5842.0,8010.0,7386.0,2223.0,511.0
1.083883285522461,18.0,4985.0,11492.0,8404.0,6710.0,1937.0,580.0
1.0853999853134155,15.0,4448.0,13712.0,8796.0,7468.0,1651.0,650.0
1.0869166851043701,15.0,3911.0,6811.0,8149.0,7031.0,3985.0,685.0
1.0884333848953247,30.0,6048.0,12604.0,12960.0,6594.0,5336.0,719.0
1.0899499654769897,35.0,7045.0,8684.0,11996.0,5037.0,4932.0,677.0
1.0914666652679443,32.0,6490.0,14912.0,13336.0,7244.0,3733.0,20.0
1.0930333137512207,29.0,6072.0,12396.0,11292.0,7170.0,3648.0,640.0
1.0945500135421753,45.0,4270.0,8162.0,10216.0,7097.0,5053.0,345.0
1.0960667133331299,14.0,3594.0,6932.0,8760.0,8332.0,4851.0,50.0
1.097583293914795,12.0,2515.0,13696.0,10520.0,7146.0,2440.0,1120.0
1.0990999937057495,11.0,3863.0,12296.0,11716.0,5959.0,2914.0,893.0
1.100616693496704,56.0,6649.0,9256.0,12816.0,9108.0,2705.0,665.0
1.1021332740783691,72.0,5604.0,8196.0,11380.0,8732.0,1973.0,1746.0
1.1036499738693237,5.0,4148.0,14352.0,9628.0,3827.0,1240.0,1604.0
1.1051666736602783,21.0,8388.0,13188.0,13892.0,5648.0,3728.0,1354.0
1.106683373451233,50.0,9028.0,15052.0,12640.0,7469.0,2987.0,921.0
1.108199954032898,0.0,8668.0,10988.0,11892.0,12668.0,3120.0,26.0
1.1097832918167114,38.0,9340.0,12480.0,13852.0,10276.0,1552.0,5.0
1.111299991607666,10.0,10012.0,11720.0,15812.0,9684.0,1256.0,529.0
1.1128166913986206,14.0,11372.0,11556.0,9316.0,6460.0,961.0,1053.0
1.1143333911895752,18.0,5087.0,11392.0,14188.0,5619.0,2238.0,1811.0
1.1158499717712402,11.0,7189.0,11704.0,12244.0,7241.0,2265.0,1963.0
1.1173666715621948,13.0,7215.0,12016.0,13844.0,8304.0,2292.0,1867.0
1.1188833713531494,31.0,6317.0,12108.0,17428.0,8676.0,2327.0,15.0
1.1203999519348145,33.0,6291.0,12200.0,16012.0,9052.0,2362.0,2030.0
1.121916651725769,5.0,5557.0,13144.0,20000.0,7729.0,2278.0,892.0
1.1234333515167236,44.0,9388.0,17160.0,18780.0,6674.0,2194.0,18.0
1.1249500513076782,38.0,10644.0,18492.0,22684.0,5619.0,2113.0,106.0
1.1265166997909546,30.0,9460.0,21084.0,22620.0,12148.0,2031.0,1832.0
1.1280332803726196,21.0,6233.0,17752.0,10904.0,11708.0,1488.0,1956.0
1.1295499801635742,22.0,9724.0,9140.0,15656.0,11992.0,945.0,14.0
1.1310666799545288,0.0,9352.0,15336.0,12736.0,7694.0,2105.0,312.0
1.1325833797454834,19.0,11052.0,16092.0,19684.0,9588.0,3265.0,609.0
1.1340999603271484,10.0,11984.0,11284.0,19148.0,11480.0,6311.0,324.0
1.135616660118103,0.0,12120.0,16948.0,12656.0,4434.0,6806.0,40.0
1.1371333599090576,16.0,9308.0,18112.0,18836.0,14664.0,6678.0,1057.0
1.1386499404907227,32.0,5897.0,15320.0,21096.0,7273.0,4957.0,1042.0
1.1401666402816772,24.0,9588.0,15308.0,17992.0,12228.0,4708.0,2181.0
1.1416833400726318,11.0,5337.0,16288.0,10356.0,10696.0,3812.0,1814.0
1.1432666778564453,0.0,5768.0,15248.0,17256.0,10536.0,5617.0,810.0
1.1447833776474,26.0,6200.0,15972.0,12196.0,9252.0,2665.0,764.0
1.146299958229065,17.0,4360.0,16692.0,13128.0,13096.0,2946.0,2201.0
1.1478166580200195,12.0,7304.0,16376.0,17516.0,13544.0,3227.0,1330.0
1.1493333578109741,13.0,10228.0,16056.0,17860.0,10352.0,1838.0,1677.0
1.1508500576019287,14.0,12320.0,15756.0,15068.0,15144.0,3992.0,765.0
1.1523666381835938,8.0,4131.0,16572.0,15480.0,16656.0,6146.0,13.0
1.1538833379745483,17.0,6446.0,18292.0,12352.0,4501.0,5637.0,1501.0
1.155400037765503,18.0,7227.0,16604.0,12608.0,9788.0,7069.0,978.0
1.156916618347168,18.0,6762.0,14916.0,12860.0,17128.0,5561.0,7.0
1.1584333181381226,30.0,7481.0,14056.0,17368.0,13816.0,5204.0,2176.0
1.159999966621399,20.0,6446.0,14088.0,18752.0,6537.0,4564.0,1375.0
1.1615166664123535,10.0,5411.0,9604.0,17004.0,11928.0,5081.0,25.0
1.163033366203308,5.0,5877.0,15316.0,15256.0,11412.0,5471.0,347.0
1.1645499467849731,19.0,9476.0,15360.0,17620.0,11452.0,5855.0,1283.0
1.1660666465759277,20.0,8948.0,19356.0,21304.0,11832.0,6207.0,2220.0
1.1675833463668823,29.0,7757.0,15460.0,19552.0,9676.0,6440.0,1134.0
1.169100046157837,13.0,10380.0,12416.0,17804.0,19860.0,7031.0,49.0
1.170616626739502,41.0,10984.0,11808.0,14796.0,17772.0,5176.0,1139.0
1.1721333265304565,33.0,9916.0,11200.0,18088.0,15004.0,3317.0,3037.0
1.1736500263214111,25.0,7737.0,21408.0,16672.0,13196.0,2896.0,2413.0
1.1751667261123657,11.0,12624.0,25612.0,15256.0,12620.0,5926.0,1022.0
1.1767499446868896,22.0,7235.0,25084.0,20264.0,8157.0,6943.0,1121.0
1.1782666444778442,18.0,12196.0,21656.0,19764.0,10152.0,8292.0,1584.0
1.1797833442687988,13.0,12500.0,14936.0,19592.0,12144.0,6193.0,1467.0
1.1813000440597534,20.0,10888.0,19140.0,19420.0,13820.0,4094.0,1147.0
1.1828166246414185,27.0,9276.0,20444.0,20628.0,12452.0,5396.0,1065.0
1.184333324432373,5.0,10916.0,21148.0,21832.0,11084.0,9428.0,2313.0
1.1858500242233276,23.0,7154.0,20060.0,20912.0,10936.0,9180.0,2616.0
1.1873667240142822,21.0,14248.0,20592.0,19992.0,9860.0,4485.0,1127.0
1.1888833045959473,18.0,12460.0,18656.0,14676.0,8784.0,8620.0,2500.0
1.1904000043869019,20.0,7943.0,21880.0,26160.0,9864.0,5013.0,2392.0
1.1919167041778564,21.0,7821.0,17556.0,25856.0,10944.0,1790.0,1456.0
1.1934666633605957,16.0,10524.0,17616.0,18976.0,12684.0,8808.0,1431.0
1.1950000524520874,10.0,16124.0,17680.0,29120.0,15780.0,5920.0,1435.0
1.1965166330337524,0.0,16636.0,29188.0,24748.0,18876.0,5025.0,1438.0
1.198033332824707,13.0,10020.0,30304.0,19168.0,15784.0,7048.0,2276.0
1.1995500326156616,12.0,18772.0,23944.0,28916.0,19544.0,6126.0,2802.0
1.2010666131973267,6.0,9380.0,22228.0,20692.0,12296.0,5790.0,2725.0
1.2025833129882812,12.0,11924.0,21024.0,21540.0,9292.0,6157.0,2648.0
1.2041000127792358,34.0,12980.0,23932.0,21424.0,16052.0,5488.0,2361.0
1.2056167125701904,24.0,10216.0,23760.0,21156.0,14064.0,6533.0,1926.0
1.2071332931518555,13.0,13236.0,23592.0,20888.0,12072.0,7609.0,1298.0
1.2086666822433472,22.0,13780.0,20800.0,19452.0,11504.0,8684.0,1664.0
1.2101666927337646,43.0,14328.0,24328.0,18020.0,10936.0,7590.0,2029.0
1.2117500305175781,40.0,12372.0,25056.0,21416.0,14988.0,7752.0,1273.0
1.2132666110992432,38.0,12724.0,25788.0,27088.0,19044.0,7913.0,3179.0
1.2147833108901978,30.0,13080.0,19300.0,29728.0,17884.0,8484.0,2778.0
1.2163000106811523,12.0,10152.0,26964.0,28148.0,18708.0,6430.0,1045.0
1.217816710472107,11.0,11764.0,26952.0,26672.0,16040.0,6126.0,41.0
1.219333291053772,10.0,10952.0,26308.0,25196.0,13376.0,5821.0,4292.0
1.2208499908447266,47.0,10140.0,30808.0,19444.0,18452.0,8106.0,3012.0
1.2223666906356812,59.0,11536.0,32492.0,26864.0,17016.0,8005.0,1168.0
1.2238833904266357,28.0,11808.0,24916.0,24392.0,23072.0,6851.0,2739.0
1.2253999710083008,25.0,12080.0,27076.0,33248.0,23340.0,5698.0,1775.0
1.2269166707992554,39.0,12108.0,29240.0,29616.0,13512.0,6283.0,2093.0
1.2284833192825317,34.0,12136.0,30460.0,29348.0,23100.0,6868.0,1708.0
1.2300000190734863,22.0,11476.0,31680.0,28000.0,27172.0,8120.0,1200.0
1.231516718864441,48.0,10816.0,21008.0,33296.0,17356.0,3574.0,641.0
1.233049988746643,45.0,12316.0,29540.0,32388.0,18484.0,7135.0,444.0
1.2345499992370605,11.0,13600.0,31012.0,35632.0,13052.0,6715.0,1103.0
1.2360666990280151,5.0,14888.0,30652.0,34048.0,21720.0,6296.0,1153.0
1.2375832796096802,16.0,16528.0,30704.0,27092.0,18896.0,5428.0,1203.0
1.2390999794006348,20.0,15576.0,29280.0,29504.0,16076.0,9304.0,1509.0
1.2406166791915894,10.0,17468.0,30592.0,31912.0,25364.0,9528.0,1815.0
1.2421499490737915,0.0,13544.0,30720.0,32348.0,22140.0,9752.0,2095.0
1.243649959564209,27.0,17168.0,31132.0,28608.0,12936.0,6930.0,2404.0
1.2452332973480225,21.0,17900.0,27800.0,24868.0,16076.0,5085.0,1376.0
1.246749997138977,11.0,20700.0,31412.0,32784.0,20460.0,7793.0,2228.0
1.2482666969299316,13.0,19372.0,35024.0,30764.0,23344.0,8632.0,3080.0
1.2497832775115967,15.0,18044.0,34272.0,28744.0,21088.0,9472.0,2325.0
1.2512999773025513,19.0,17900.0,40160.0,40208.0,23328.0,4899.0,1472.0
1.2528166770935059,21.0,21316.0,40512.0,45744.0,18020.0,12728.0,2185.0
1.2543333768844604,23.0,20520.0,35792.0,50944.0,17920.0,13568.0,1166.0
1.2558499574661255,20.0,19556.0,36576.0,43168.0,17816.0,6112.0,1655.0
1.25736665725708,17.0,17348.0,36432.0,33696.0,27232.0,5971.0,1511.0
1.2588833570480347,17.0,18452.0,38192.0,35216.0,28376.0,10536.0,696.0
1.2604000568389893,42.0,19556.0,39472.0,40208.0,18844.0,9440.0,1212.0
1.2619667053222656,60.0,19148.0,40768.0,34752.0,26816.0,12348.0,1267.0
1.2634832859039307,43.0,12448.0,38816.0,34912.0,19972.0,10360.0,1322.0
1.2649999856948853,42.0,18136.0,36880.0,32928.0,29460.0,10616.0,1920.0
1.2665166854858398,5.0,16284.0,33408.0,28300.0,32536.0,8664.0,5953.0
1.2680333852767944,21.0,15820.0,25680.0,35872.0,28260.0,10876.0,4888.0
1.2695499658584595,36.0,15356.0,29408.0,43440.0,18252.0,7982.0,804.0
1.271066665649414,25.0,15732.0,38976.0,45680.0,21508.0,10976.0,750.0
1.2725833654403687,0.0,16108.0,35360.0,32800.0,26776.0,5731.0,4571.0
1.2740999460220337,32.0,12932.0,43168.0,45664.0,27104.0,9684.0,765.0
1.2756166458129883,28.0,15656.0,41760.0,35888.0,26648.0,11024.0,2187.0
1.2771333456039429,32.0,18376.0,40336.0,35200.0,26188.0,8532.0,1956.0
1.2787166833877563,35.0,18508.0,36368.0,36368.0,25400.0,10680.0,1628.0
1.280233383178711,12.0,18644.0,36208.0,37520.0,24612.0,9420.0,1299.0
1.281749963760376,31.0,13412.0,36048.0,38672.0,25388.0,14876.0,2387.0
1.2832666635513306,21.0,29372.0,41424.0,44112.0,25424.0,14688.0,2383.0
1.2847833633422852,11.0,26644.0,41536.0,46352.0,25456.0,11792.0,2379.0
1.2862999439239502,25.0,30016.0,49744.0,32312.0,26396.0,12868.0,2458.0
1.2878166437149048,14.0,24716.0,48016.0,48864.0,22660.0,8292.0,2537.0
1.2893333435058594,18.0,23244.0,40272.0,52864.0,24276.0,11344.0,3124.0
1.290850043296814,17.0,22544.0,43536.0,43728.0,25392.0,9476.0,3316.0
1.292366623878479,16.0,21212.0,41408.0,47680.0,26508.0,9096.0,3508.0
1.2938833236694336,5.0,26604.0,39280.0,49360.0,26224.0,8716.0,623.0
1.29544997215271,17.0,27012.0,42000.0,45136.0,25936.0,14424.0,3131.0
1.2969666719436646,46.0,23752.0,44736.0,53232.0,26792.0,14860.0,5317.0
1.2984833717346191,50.0,26056.0,45056.0,54992.0,27648.0,12624.0,2777.0
1.2999999523162842,20.0,26476.0,45392.0,50304.0,27460.0,12700.0,683.0
1.3015166521072388,30.0,26900.0,48784.0,54976.0,31116.0,12276.0,1621.0
1.3030333518981934,27.0,28524.0,52160.0,43920.0,34768.0,11716.0,1606.0
1.304550051689148,22.0,27892.0,38784.0,54720.0,31944.0,9088.0,1591.0
1.306066632270813,24.0,27260.0,51312.0,61584.0,29116.0,13260.0,3453.0
1.3075833320617676,26.0,28456.0,63472.0,40448.0,31336.0,12568.0,3161.0
1.3091000318527222,11.0,30016.0,54480.0,44592.0,33552.0,12640.0,4479.0
1.3106166124343872,30.0,31096.0,56160.0,61168.0,32560.0,12712.0,1799.0
1.3121833801269531,10.0,28816.0,51008.0,65056.0,39312.0,13984.0,5067.0
1.3137166500091553,19.0,29416.0,45936.0,65936.0,38704.0,15252.0,3656.0
1.3152333498001099,27.0,30020.0,62704.0,67520.0,38096.0,16472.0,4081.0
1.3167500495910645,26.0,24656.0,59456.0,52784.0,35600.0,17896.0,2203.0
1.3182666301727295,18.0,26740.0,52768.0,68496.0,33120.0,19408.0,3081.0
1.319783329963684,6.0,32928.0,57344.0,60752.0,36032.0,20452.0,4033.0
1.3213000297546387,43.0,32848.0,60688.0,67296.0,35072.0,20712.0,3710.0
1.3228166103363037,31.0,28032.0,64048.0,64864.0,34128.0,15988.0,3387.0
1.3243333101272583,38.0,35536.0,58944.0,65232.0,47344.0,18288.0,2086.0
1.325850009918213,44.0,40768.0,68416.0,65584.0,48656.0,15948.0,1825.0
1.3273667097091675,305.0,38528.0,66368.0,68096.0,43728.0,18508.0,1565.0
1.3288832902908325,174.0,31764.0,64320.0,68768.0,49904.0,17628.0,2154.0
1.3304500579833984,43.0,41632.0,66544.0,68160.0,43808.0,16748.0,2744.0
1.3319666385650635,12.0,39824.0,68768.0,67552.0,45200.0,18252.0,3550.0
1.333483338356018,42.0,38784.0,74000.0,71696.0,46592.0,26532.0,3387.0
1.3350000381469727,56.0,38720.0,72624.0,75840.0,47536.0,24604.0,3224.0
1.3365166187286377,36.0,40528.0,71232.0,82256.0,51056.0,27972.0,3051.0
1.3380333185195923,0.0,40784.0,71984.0,88656.0,57520.0,22216.0,3423.0
1.3395500183105469,29.0,41024.0,79216.0,93856.0,60880.0,22884.0,3795.0
1.3410667181015015,10.0,47472.0,78960.0,83424.0,59168.0,25592.0,4816.0
1.3425832986831665,5.0,48016.0,78704.0,112784.0,63824.0,23488.0,7603.0
1.344099998474121,29.0,49200.0,81440.0,111232.0,79136.0,21384.0,9864.0
1.3456166982650757,17.0,50368.0,84176.0,89552.0,76592.0,21460.0,11620.0
1.3472000360488892,52.0,54448.0,99408.0,109312.0,65120.0,19748.0,10532.0
1.3487166166305542,50.0,58512.0,98112.0,103664.0,83392.0,25908.0,9444.0
1.3502333164215088,10.0,61904.0,85536.0,98416.0,70096.0,31352.0,5980.0
1.3517500162124634,38.0,48912.0,108448.0,103696.0,86592.0,34272.0,8596.0
1.353266716003418,23.0,55632.0,109520.0,108992.0,68368.0,29416.0,4889.0
1.354783296585083,0.0,55264.0,112976.0,111760.0,60912.0,25300.0,12444.0
1.3562999963760376,48.0,52624.0,119744.0,107920.0,88880.0,28160.0,13120.0
1.3578166961669922,25.0,64048.0,121280.0,144064.0,94480.0,37136.0,5935.0
1.3593332767486572,43.0,62352.0,122816.0,132864.0,80000.0,40944.0,7063.0
1.3608499765396118,37.0,60656.0,106240.0,121632.0,71600.0,30032.0,9616.0
1.3623666763305664,31.0,61520.0,134208.0,144064.0,92688.0,26092.0,8168.0
1.3639333248138428,47.0,62384.0,129056.0,136960.0,87552.0,34800.0,13500.0
1.3654500246047974,24.0,55184.0,145856.0,129776.0,88432.0,28348.0,13004.0
1.366966724395752,17.0,71568.0,134272.0,134528.0,93328.0,37520.0,11092.0
1.368483304977417,57.0,78080.0,145408.0,141312.0,98240.0,42672.0,10208.0
1.3700000047683716,53.0,80736.0,156288.0,154368.0,106304.0,35552.0,10280.0
1.3715167045593262,35.0,78928.0,149184.0,152448.0,106864.0,35568.0,10352.0
1.3730332851409912,52.0,76544.0,135168.0,152384.0,116384.0,37328.0,8800.0
1.3745499849319458,50.0,73760.0,157376.0,153984.0,111856.0,38336.0,9144.0
1.3760666847229004,48.0,81728.0,164864.0,155584.0,104032.0,46400.0,9488.0
1.3775999546051025,48.0,84064.0,153088.0,154048.0,106768.0,44752.0,8444.0
1.37909996509552,47.0,96576.0,160640.0,152448.0,128480.0,42960.0,7395.0
1.3806833028793335,47.0,92368.0,166656.0,163264.0,123504.0,56352.0,12352.0
1.382200002670288,39.0,90976.0,172672.0,174016.0,112752.0,57648.0,12144.0
1.3837167024612427,41.0,89584.0,174720.0,196352.0,126704.0,44848.0,11936.0
1.3852332830429077,18.0,107424.0,176768.0,193088.0,137088.0,56976.0,11048.0
1.3867499828338623,19.0,103920.0,181504.0,182144.0,131072.0,48160.0,13548.0
1.388266682624817,31.0,100432.0,177024.0,188032.0,132736.0,41136.0,12448.0
1.3897833824157715,27.0,103872.0,172544.0,193920.0,134464.0,61280.0,11348.0
1.3912999629974365,23.0,110688.0,174976.0,196864.0,136704.0,63328.0,13884.0
1.3928166627883911,35.0,119584.0,177408.0,199808.0,139968.0,53840.0,10348.0
1.3943333625793457,44.0,114944.0,190144.0,209984.0,151424.0,57120.0,13792.0
1.3958499431610107,49.0,113840.0,202176.0,209344.0,165120.0,54304.0,20632.0
1.3974167108535767,55.0,103712.0,204544.0,201280.0,168512.0,58864.0,21192.0
1.3989332914352417,45.0,115072.0,206976.0,193280.0,158400.0,59072.0,18784.0
1.4004499912261963,18.0,113392.0,203520.0,217728.0,153024.0,64848.0,13384.0
1.4019666910171509,5.0,109824.0,200064.0,232064.0,174976.0,64912.0,13384.0
1.4034833908081055,16.0,118592.0,238784.0,231488.0,171456.0,62160.0,13152.0
1.4049999713897705,11.0,126000.0,243968.0,230976.0,154624.0,59392.0,12920.0
1.406516671180725,5.0,133376.0,228672.0,232704.0,163520.0,59792.0,18148.0
1.4080333709716797,17.0,128480.0,252736.0,234368.0,158720.0,61488.0,18456.0
1.4095499515533447,29.0,123552.0,285824.0,256832.0,169536.0,67744.0,18184.0
1.4110666513442993,58.0,123376.0,278272.0,290688.0,194304.0,69664.0,17556.0
1.412583351135254,51.0,123200.0,263232.0,285440.0,190848.0,71584.0,16924.0
1.4141666889190674,45.0,130928.0,247232.0,292608.0,186944.0,77408.0,18676.0
1.415683388710022,43.0,135616.0,269696.0,289344.0,205952.0,87632.0,16880.0
1.417199969291687,38.0,140288.0,282432.0,292352.0,207872.0,94080.0,23484.0
1.4187166690826416,32.0,161600.0,295168.0,296512.0,212736.0,84640.0,22072.0
1.4202333688735962,40.0,165312.0,307264.0,300736.0,214848.0,86112.0,22048.0
1.4217499494552612,55.0,165376.0,310976.0,302208.0,221632.0,81776.0,24748.0
1.4232666492462158,56.0,166400.0,305280.0,303616.0,222144.0,94880.0,14692.0
1.4247833490371704,42.0,170688.0,291264.0,322432.0,234496.0,101456.0,27228.0
1.426300048828125,24.0,174976.0,288640.0,316160.0,233472.0,95168.0,30244.0
1.42781662940979,63.0,187072.0,286016.0,309888.0,185344.0,85872.0,26600.0
1.4293333292007446,61.0,191296.0,385344.0,383296.0,238080.0,81904.0,20936.0
1.4308832883834839,70.0,201984.0,372032.0,396352.0,263040.0,110304.0,27196.0
1.4324333667755127,23.0,205504.0,376384.0,380864.0,273728.0,103312.0,26120.0
1.4339499473571777,50.0,203968.0,384640.0,412544.0,283648.0,111120.0,25692.0
1.4354666471481323,51.0,207168.0,383680.0,419392.0,286016.0,112208.0,25260.0
1.436983346939087,64.0,210432.0,382720.0,426240.0,296768.0,113312.0,27316.0
1.4385000467300415,60.0,244864.0,478016.0,449920.0,301632.0,110032.0,29372.0
1.4400166273117065,55.0,248192.0,478080.0,493504.0,333568.0,131776.0,32896.0
1.4415333271026611,93.0,251584.0,480704.0,510144.0,364480.0,136256.0,33280.0
1.4430500268936157,83.0,276672.0,546816.0,547840.0,378688.0,152128.0,33664.0
1.4445666074752808,74.0,275968.0,555776.0,571648.0,365504.0,142592.0,34608.0
1.4460833072662354,92.0,286208.0,597504.0,604416.0,374912.0,148800.0,36528.0
1.44760000705719,116.0,312192.0,587776.0,569088.0,384256.0,163712.0,35168.0
1.4491666555404663,17.0,335360.0,587520.0,615680.0,402496.0,162048.0,33792.0
1.450683355331421,37.0,319936.0,612608.0,610304.0,452928.0,171264.0,34448.0
1.4522000551223755,64.0,342080.0,611328.0,604928.0,456896.0,137280.0,35088.0
1.4537166357040405,72.0,304832.0,586752.0,531456.0,392768.0,169152.0,40224.0
1.4552333354949951,56.0,303296.0,620032.0,700160.0,447296.0,174464.0,44032.0
1.4567500352859497,62.0,310272.0,625920.0,653568.0,451584.0,183168.0,40784.0
1.4582666158676147,69.0,310912.0,613120.0,669952.0,418304.0,165312.0,43632.0
1.4597833156585693,75.0,311488.0,592640.0,649728.0,447104.0,174592.0,48832.0
1.461300015449524,82.0,347456.0,573440.0,670976.0,420160.0,172288.0,47408.0
1.4628167152404785,90.0,349376.0,606208.0,656640.0,454976.0,166912.0,48576.0
1.4643332958221436,25.0,278336.0,611584.0,631808.0,432896.0,161536.0,41152.0
1.465916633605957,115.0,293696.0,577536.0,591616.0,392384.0,146752.0,40688.0
1.4674333333969116,21.0,338432.0,583680.0,646144.0,468160.0,174336.0,41936.0
1.4689500331878662,100.0,312256.0,553984.0,618752.0,403392.0,170880.0,43936.0
1.4704666137695312,33.0,313216.0,626176.0,637184.0,394752.0,185792.0,45936.0
1.4719833135604858,108.0,354944.0,611584.0,663808.0,406784.0,180992.0,32272.0
1.4735000133514404,127.0,351040.0,596992.0,667136.0,414400.0,161152.0,28312.0
1.475016713142395,88.0,326336.0,602624.0,591360.0,422080.0,188736.0,50448.0
1.47653329372406,82.0,336256.0,631040.0,646144.0,455040.0,184832.0,45200.0
1.4780499935150146,128.0,351424.0,627968.0,657152.0,452928.0,192640.0,40752.0
1.4795666933059692,60.0,342336.0,625152.0,671488.0,471104.0,172736.0,42592.0
1.4810832738876343,96.0,350720.0,694272.0,685312.0,449344.0,194496.0,44928.0
1.4826500415802002,133.0,359040.0,688640.0,673536.0,447168.0,185088.0,45776.0
1.4841666221618652,106.0,360320.0,685824.0,661504.0,439808.0,180160.0,48256.0
1.4856833219528198,181.0,366784.0,673024.0,668160.0,450752.0,184256.0,50720.0
1.4872000217437744,319.0,367104.0,712192.0,674560.0,461760.0,188352.0,56352.0
1.488716721534729,278.0,367488.0,776192.0,703744.0,473280.0,196224.0,60912.0
1.4902499914169312,73.0,385920.0,780544.0,732672.0,484800.0,204160.0,58608.0
1.4917500019073486,173.0,403072.0,752384.0,829696.0,518080.0,197888.0,52528.0
1.4932667016983032,129.0,411840.0,739072.0,798208.0,502272.0,206016.0,52352.0
1.4947832822799683,61.0,420608.0,779520.0,790016.0,486528.0,219776.0,56800.0
1.4962999820709229,33.0,392960.0,771584.0,788736.0,473792.0,219200.0,61264.0
1.4978166818618774,187.0,392832.0,770560.0,783616.0,460992.0,216192.0,56576.0
1.499400019645691,122.0,392640.0,773888.0,827904.0,522944.0,235520.0,51904.0
1.5009167194366455,102.0,393792.0,777216.0,821248.0,520064.0,185792.0,59648.0
1.5024333000183105,107.0,394880.0,781056.0,732672.0,552192.0,236608.0,54288.0
1.5039499998092651,106.0,423424.0,782336.0,809472.0,543744.0,218944.0,48928.0
1.5054666996002197,105.0,429312.0,783872.0,855808.0,542208.0,220736.0,52832.0
1.5069832801818848,88.0,392896.0,742912.0,762112.0,528640.0,235136.0,56432.0
1.5084999799728394,71.0,427456.0,759040.0,803072.0,563968.0,227264.0,47408.0
1.510016679763794,103.0,412800.0,719360.0,770048.0,507328.0,219456.0,49952.0
1.5115333795547485,109.0,382720.0,720640.0,748800.0,586240.0,212096.0,57264.0
1.5130499601364136,88.0,398464.0,724480.0,804864.0,562688.0,220160.0,56768.0
1.5145666599273682,68.0,390976.0,670464.0,786432.0,473664.0,207872.0,58928.0
1.5161499977111816,49.0,375744.0,722688.0,732928.0,505408.0,167552.0,51776.0
1.5176666975021362,112.0,362112.0,728576.0,687104.0,431360.0,176128.0,49936.0
1.5191832780838013,122.0,354304.0,661504.0,706048.0,471744.0,183104.0,42208.0
1.5206999778747559,132.0,329088.0,612608.0,625152.0,420288.0,178048.0,44656.0
1.5222166776657104,88.0,347456.0,667136.0,666624.0,422208.0,172992.0,38880.0
1.523733377456665,79.0,295168.0,581888.0,573696.0,404608.0,140160.0,40800.0
1.52524995803833,87.0,294144.0,595200.0,627456.0,373056.0,146560.0,41296.0
1.5267666578292847,110.0,268992.0,491008.0,613632.0,338816.0,122304.0,37504.0
1.5282833576202393,20.0,261952.0,524800.0,519040.0,396608.0,126112.0,38320.0
1.5298000574111938,85.0,305984.0,493952.0,490880.0,324672.0,140928.0,29060.0
1.5313166379928589,97.0,244480.0,488576.0,497856.0,309376.0,128896.0,34688.0
1.5328832864761353,49.0,215104.0,428224.0,443904.0,309952.0,117776.0,30800.0
1.5343999862670898,104.0,220288.0,436800.0,438528.0,276672.0,117904.0,30268.0
1.5359166860580444,30.0,208192.0,388096.0,451264.0,259648.0,106112.0,29732.0
1.537433385848999,64.0,189760.0,351744.0,357696.0,256768.0,100416.0,30876.0
1.538949966430664,91.0,196224.0,342016.0,363008.0,224768.0,100608.0,21308.0
1.5404666662216187,134.0,167744.0,315008.0,294784.0,175488.0,88640.0,18944.0
1.5419833660125732,100.0,151744.0,277376.0,304960.0,224320.0,84144.0,26720.0
1.5434999465942383,99.0,130560.0,260800.0,247616.0,164864.0,76672.0,16404.0
1.5450166463851929,33.0,136576.0,253184.0,246144.0,155136.0,76512.0,17968.0
1.5465333461761475,54.0,132672.0,214016.0,235968.0,152128.0,67872.0,20336.0
1.548050045967102,69.0,122176.0,220288.0,203904.0,146752.0,69088.0,12372.0
1.5496000051498413,69.0,104656.0,194240.0,192064.0,137664.0,51616.0,15708.0
1.5511499643325806,85.0,86320.0,168320.0,172224.0,111232.0,53680.0,11884.0
1.5526666641235352,99.0,92928.0,138944.0,177408.0,97536.0,35264.0,11404.0
1.5541833639144897,46.0,79920.0,146752.0,159104.0,88080.0,42720.0,9748.0
1.5556999444961548,72.0,75952.0,117520.0,142592.0,113776.0,43552.0,7627.0
1.5572166442871094,74.0,79920.0,124160.0,127840.0,72080.0,39536.0,6440.0
1.558733344078064,43.0,62256.0,106944.0,114208.0,80912.0,27688.0,7811.0
1.5602500438690186,83.0,56992.0,87296.0,109168.0,72224.0,22600.0,9184.0
1.5617666244506836,40.0,58496.0,74912.0,87888.0,72704.0,12696.0,2863.0
1.5632833242416382,45.0,43360.0,77600.0,91152.0,60752.0,26456.0,4435.0
1.5648000240325928,53.0,35888.0,75152.0,76448.0,49552.0,23400.0,2669.0
1.5663167238235474,22.0,32380.0,73024.0,65520.0,51856.0,23456.0,1999.0
1.5678833723068237,60.0,40368.0,64176.0,49744.0,34320.0,16972.0,1329.0
1.5693999528884888,17.0,30684.0,58432.0,79760.0,36672.0,21524.0,2386.0
1.5709166526794434,26.0,21076.0,49248.0,53664.0,35280.0,13508.0,1848.0
1.572433352470398,53.0,23336.0,54224.0,60608.0,32880.0,11244.0,1309.0
1.5739500522613525,41.0,27464.0,45760.0,56928.0,24624.0,10260.0,578.0
1.5754666328430176,28.0,27896.0,38832.0,38400.0,29060.0,10460.0,873.0
1.5769833326339722,34.0,20636.0,43296.0,42384.0,31428.0,10296.0,1169.0
1.5785000324249268,40.0,20276.0,43728.0,40784.0,29508.0,8496.0,2583.0
1.5800166130065918,11.0,22932.0,40304.0,37632.0,28824.0,5516.0,1916.0
1.5815333127975464,35.0,17560.0,32364.0,29008.0,21012.0,11384.0,1248.0
1.583050012588501,52.0,17340.0,29432.0,36000.0,26952.0,8576.0,641.0
1.5846333503723145,70.0,10516.0,26080.0,18376.0,23384.0,10984.0,33.0
1.586150050163269,12.0,20868.0,29912.0,16028.0,16932.0,7129.0,376.0
1.587666630744934,18.0,10264.0,23056.0,29848.0,20968.0,11040.0,719.0
1.5891833305358887,46.0,17580.0,22780.0,20996.0,14668.0,4213.0,642.0
1.5907000303268433,30.0,15916.0,24808.0,22196.0,19688.0,6917.0,564.0
1.5922333002090454,15.0,8904.0,24728.0,28896.0,20868.0,3538.0,3008.0
1.59375,27.0,17552.0,23336.0,15332.0,14520.0,5564.0,1515.0
1.5952666997909546,27.0,15352.0,17552.0,20296.0,16348.0,5840.0,22.0
1.5967832803726196,26.0,7161.0,16384.0,18092.0,11468.0,6115.0,2614.0
1.5982999801635742,34.0,9224.0,12944.0,20516.0,8888.0,2569.0,1790.0
1.5997999906539917,35.0,13796.0,19992.0,19608.0,11284.0,3457.0,2374.0
1.6013833284378052,35.0,8608.0,21216.0,19136.0,10536.0,4345.0,11.0
1.6029000282287598,0.0,5618.0,19488.0,18660.0,8692.0,2315.0,738.0
1.6044166088104248,59.0,6803.0,17760.0,19864.0,9704.0,1476.0,1465.0
1.6059333086013794,30.0,7638.0,15768.0,21520.0,6575.0,636.0,983.0
1.607450008392334,23.0,8732.0,18320.0,15480.0,8380.0,1653.0,847.0
1.6089667081832886,15.0,9184.0,15712.0,18576.0,8488.0,2670.0,711.0
1.6104832887649536,82.0,7194.0,15968.0,17940.0,8596.0,5823.0,917.0
1.6119999885559082,82.0,5764.0,17744.0,17532.0,8544.0,4607.0,2204.0
1.6135333776474,5.0,5745.0,11920.0,14264.0,10436.0,5695.0,2235.0
1.6150333881378174,84.0,5342.0,11748.0,14316.0,8224.0,1729.0,2378.0
1.6165499687194824,88.0,11836.0,9228.0,13056.0,6014.0,1939.0,41.0
1.618133306503296,5.0,11716.0,11000.0,17784.0,9520.0,4879.0,860.0
1.6196500062942505,69.0,8868.0,11816.0,8091.0,9096.0,4522.0,638.0
1.621166706085205,11.0,10148.0,12344.0,10776.0,9564.0,5341.0,0.0
1.6226832866668701,66.0,6236.0,11536.0,8087.0,7374.0,1031.0,190.0
1.6241999864578247,50.0,6081.0,9704.0,9152.0,8648.0,5239.0,380.0
1.6257166862487793,22.0,4902.0,13420.0,4568.0,8580.0,1790.0,731.0
1.6272333860397339,23.0,5083.0,8081.0,9832.0,7810.0,4317.0,1429.0
1.628749966621399,54.0,6403.0,7819.0,7762.0,8680.0,2367.0,1413.0
1.6302666664123535,33.0,4976.0,8836.0,8924.0,8916.0,1435.0,777.0
1.631783366203308,74.0,3549.0,9848.0,9132.0,6569.0,1910.0,845.0
1.6332999467849731,57.0,2898.0,3926.0,7994.0,4222.0,2386.0,45.0
1.6348832845687866,13.0,6561.0,9900.0,6855.0,9020.0,2025.0,992.0
1.6363999843597412,15.0,5829.0,5677.0,9524.0,8692.0,1046.0,715.0
1.6379166841506958,22.0,3515.0,9584.0,8752.0,6764.0,870.0,438.0
1.6394333839416504,37.0,6705.0,9056.0,7978.0,12272.0,3469.0,665.0
1.6409499645233154,18.0,4060.0,11388.0,10092.0,2492.0,3218.0,670.0
1.64246666431427,0.0,6281.0,7463.0,8880.0,7456.0,4133.0,32.0
1.6439833641052246,48.0,5387.0,8692.0,11284.0,9296.0,1435.0,743.0
1.6454999446868896,26.0,5510.0,6466.0,10104.0,1740.0,4820.0,396.0
1.6470166444778442,58.0,1384.0,6597.0,7872.0,8912.0,5171.0,50.0
1.6485333442687988,31.0,5119.0,6728.0,11860.0,4329.0,2805.0,2125.0
1.6500500440597534,56.0,5507.0,10656.0,8089.0,3049.0,2011.0,1695.0
1.6516166925430298,31.0,5985.0,10744.0,7721.0,9508.0,1390.0,1727.0
1.6531333923339844,16.0,2260.0,6028.0,7957.0,3052.0,1050.0,1419.0
1.6546499729156494,9.0,1420.0,5983.0,6839.0,6018.0,1309.0,31.0
1.656166672706604,14.0,3275.0,10512.0,11252.0,8020.0,1202.0,655.0
1.6576833724975586,19.0,4452.0,9144.0,12464.0,6209.0,1096.0,1596.0
1.6591999530792236,23.0,4289.0,6996.0,9208.0,8053.0,362.0,28.0
1.6607166528701782,26.0,2855.0,5577.0,7608.0,2066.0,2196.0,22.0
1.6622333526611328,15.0,1551.0,7642.0,12552.0,4952.0,2025.0,13.0
1.6637500524520874,19.0,4536.0,7003.0,9404.0,3818.0,1950.0,59.0
1.6652666330337524,10.0,4493.0,9784.0,7165.0,5271.0,1869.0,36.0
1.6668000221252441,11.0,484.0,2898.0,13976.0,3566.0,1788.0,13.0
1.6683499813079834,12.0,2563.0,7230.0,3558.0,6179.0,1703.0,20.0
1.669883370399475,35.0,5876.0,6785.0,6289.0,8172.0,870.0,8.0
1.6713999509811401,42.0,6958.0,3100.0,3715.0,1580.0,621.0,570.0
1.6729166507720947,30.0,1686.0,3105.0,6199.0,3383.0,2230.0,301.0
1.6744333505630493,343.0,4058.0,8132.0,7024.0,4944.0,2216.0,31.0
1.675950050354004,174.0,5499.0,4696.0,872.0,836.0,27.0,68.0
1.677466630935669,5.0,4354.0,4920.0,5928.0,1862.0,773.0,337.0
1.6789833307266235,25.0,987.0,11244.0,6883.0,2888.0,3115.0,316.0
1.6805000305175781,28.0,3984.0,8288.0,8508.0,4878.0,2009.0,296.0
1.6820166110992432,7.0,1956.0,5333.0,7089.0,5218.0,2431.0,159.0
1.6835333108901978,34.0,4649.0,3250.0,7476.0,2910.0,1884.0,23.0
1.6850500106811523,33.0,35.0,8464.0,7864.0,2589.0,687.0,58.0
1.6866333484649658,32.0,609.0,6425.0,5284.0,2874.0,450.0,1173.0
1.6881500482559204,15.0,1183.0,4387.0,6901.0,2856.0,597.0,1283.0
1.6896666288375854,20.0,1738.0,4306.0,7168.0,2839.0,744.0,1041.0
1.69118332862854,33.0,938.0,6101.0,3255.0,3076.0,1060.0,571.0
1.6927000284194946,20.0,138.0,6664.0,496.0,2916.0,1375.0,710.0
1.6942166090011597,25.0,985.0,4721.0,3306.0,2757.0,1339.0,482.0
1.6957333087921143,42.0,688.0,4703.0,6339.0,4505.0,1302.0,263.0
1.6972500085830688,23.0,392.0,3206.0,8936.0,4953.0,1055.0,44.0
1.6987667083740234,5.0,2777.0,7045.0,6917.0,4278.0,808.0,38.0
1.7002832889556885,33.0,3447.0,7219.0,9232.0,2930.0,2757.0,54.0
1.701799988746643,18.0,5980.0,7393.0,3391.0,3014.0,2386.0,70.0
1.7033666372299194,15.0,4254.0,4335.0,5741.0,2635.0,709.0,47.0
1.704883337020874,17.0,5090.0,5194.0,3866.0,2256.0,281.0,23.0
1.7064000368118286,23.0,2483.0,4518.0,3290.0,1356.0,2403.0,32.0
1.7079166173934937,20.0,4189.0,3646.0,3178.0,1847.0,2718.0,42.0
1.7094333171844482,16.0,5456.0,2298.0,5955.0,2338.0,1735.0,0.0
1.7109500169754028,11.0,2102.0,950.0,6930.0,2593.0,1645.0,37.0
1.7124667167663574,5.0,1747.0,4964.0,1873.0,1364.0,1554.0,49.0
1.7139832973480225,11.0,68.0,4386.0,5052.0,928.0,0.0,62.0
1.715499997138977,16.0,1778.0,5895.0,3028.0,2515.0,2514.0,46.0
1.7170166969299316,27.0,2302.0,4208.0,4954.0,1936.0,659.0,46.0
1.7185332775115967,33.0,1079.0,2520.0,1420.0,1357.0,1147.0,61.0
1.7201166152954102,38.0,2886.0,2798.0,3148.0,1650.0,2690.0,972.0
1.7216333150863647,46.0,3235.0,2806.0,3684.0,2875.0,1442.0,917.0
1.7231500148773193,13.0,2762.0,2813.0,2942.0,2604.0,12.0,862.0
1.724666714668274,29.0,3032.0,2298.0,4230.0,2333.0,24.0,42.0
1.726183295249939,5.0,493.0,768.0,3906.0,1220.0,1306.0,410.0
1.7276999950408936,11.0,24.0,3294.0,4196.0,1707.0,236.0,0.0
1.7292166948318481,16.0,4004.0,3984.0,4314.0,2904.0,411.0,34.0
1.7307332754135132,12.0,3226.0,4468.0,4432.0,3025.0,586.0,587.0
1.7322499752044678,13.0,1405.0,4952.0,4192.0,3146.0,688.0,308.0
1.7337666749954224,13.0,15.0,5251.0,3952.0,1242.0,790.0,28.0
1.735283374786377,7.0,808.0,4006.0,2418.0,1684.0,244.0,66.0
1.7368500232696533,0.0,1022.0,4642.0,4420.0,505.0,612.0,34.0
1.738366723060608,3.0,2143.0,2939.0,2126.0,419.0,309.0,47.0
1.739883303642273,5.0,2934.0,4304.0,3737.0,333.0,5.0,60.0
1.7414000034332275,9.0,2742.0,2771.0,5347.0,1301.0,1023.0,38.0
1.7429167032241821,12.0,1179.0,3913.0,6349.0,2268.0,696.0,46.0
1.7444332838058472,9.0,260.0,4367.0,1941.0,2826.0,369.0,23.0
1.7459499835968018,5.0,2127.0,1301.0,2352.0,2422.0,1149.0,0.0
1.7474666833877563,18.0,1132.0,3341.0,2309.0,1092.0,773.0,27.0
1.748983383178711,20.0,844.0,3032.0,1265.0,972.0,414.0,23.0
1.750499963760376,21.0,3166.0,4445.0,2968.0,1153.0,641.0,5.0
1.7520166635513306,20.0,2493.0,4430.0,1481.0,1334.0,26.0,18.0
1.753600001335144,35.0,1846.0,2415.0,1817.0,688.0,209.0,30.0
1.7551167011260986,30.0,1965.0,3381.0,2152.0,1784.0,2553.0,28.0
1.7566332817077637,24.0,1198.0,4359.0,2183.0,2135.0,1609.0,17.0
1.7581499814987183,27.0,1334.0,3445.0,2213.0,221.0,665.0,5.0
1.7596666812896729,38.0,1471.0,2531.0,2785.0,2705.0,2732.0,9.0
1.7611833810806274,31.0,1843.0,1259.0,1793.0,1830.0,20.0,12.0
1.7626999616622925,24.0,1822.0,2506.0,801.0,1874.0,22.0,417.0
1.764216661453247,6.0,1260.0,1394.0,2916.0,855.0,826.0,822.0
1.7657333612442017,15.0,1408.0,1921.0,3668.0,2787.0,553.0,751.0
1.7672499418258667,24.0,1438.0,2448.0,4473.0,2399.0,751.0,15.0
1.7687666416168213,25.0,1469.0,2786.0,2897.0,1441.0,562.0,0.0
1.7703332901000977,15.0,43.0,3124.0,3060.0,788.0,372.0,661.0
1.7718499898910522,71.0,2584.0,1527.0,3223.0,849.0,30.0,471.0
1.7733666896820068,76.0,1642.0,3122.0,2708.0,910.0,234.0,638.0
1.7748833894729614,11.0,1483.0,2216.0,2192.0,727.0,438.0,26.0
1.7763999700546265,55.0,3065.0,835.0,2606.0,58.0,628.0,150.0
1.777916669845581,14.0,473.0,2113.0,3020.0,2108.0,975.0,47.0
1.7794333696365356,24.0,249.0,1787.0,3196.0,1974.0,1994.0,16.0
1.7809499502182007,22.0,25.0,3586.0,935.0,44.0,2434.0,9.0
1.7824666500091553,34.0,785.0,3686.0,1355.0,1240.0,694.0,68.0
1.7839833498001099,44.0,398.0,669.0,1776.0,1695.0,1601.0,48.0
1.7855000495910645,35.0,10.0,2520.0,2703.0,2149.0,1419.0,28.0
1.7870666980743408,5.0,564.0,2579.0,2844.0,884.0,1651.0,43.0
1.788599967956543,31.0,1118.0,3066.0,1302.0,1085.0,1375.0,32.0
1.7901166677474976,52.0,1816.0,3552.0,1804.0,1421.0,482.0,21.0
1.7916333675384521,66.0,2552.0,1408.0,2691.0,1351.0,17.0,26.0
1.7931499481201172,20.0,11.0,2914.0,822.0,1281.0,1548.0,30.0
1.7946666479110718,22.0,2800.0,3458.0,1715.0,2632.0,913.0,24.0
1.7961833477020264,24.0,2147.0,1916.0,1356.0,2534.0,2134.0,17.0
1.797700047492981,25.0,2879.0,373.0,997.0,1567.0,626.0,0.0
1.799216628074646,12.0,1769.0,2194.0,701.0,1973.0,862.0,653.0
1.8007333278656006,10.0,2018.0,2637.0,405.0,1404.0,29.0,616.0
1.8022500276565552,5.0,19.0,2102.0,928.0,836.0,36.0,42.0
1.8037666082382202,0.0,824.0,1176.0,1265.0,2034.0,44.0,275.0
1.8053499460220337,6.0,1806.0,2678.0,1602.0,2114.0,66.0,39.0
1.8068666458129883,11.0,12.0,1561.0,1702.0,524.0,898.0,18.0
1.8083833456039429,16.0,31.0,1907.0,3218.0,769.0,957.0,8.0
1.8099000453948975,21.0,40.0,2871.0,2840.0,1449.0,919.0,12.0
1.8114166259765625,22.0,1977.0,3080.0,1995.0,1698.0,603.0,0.0
1.812933325767517,23.0,1814.0,1531.0,2246.0,25.0,276.0,41.0
1.8144500255584717,17.0,916.0,3165.0,633.0,772.0,748.0,81.0
1.8159667253494263,16.0,929.0,2925.0,360.0,868.0,34.0,127.0
1.8174833059310913,32.0,33.0,2054.0,834.0,695.0,835.0,81.0
1.819000005722046,33.0,599.0,1338.0,1308.0,1255.0,25.0,34.0
1.8205167055130005,30.0,532.0,582.0,1234.0,4191.0,23.0,19.0
1.8220833539962769,30.0,1191.0,1885.0,1085.0,4875.0,20.0,20.0
1.8236000537872314,18.0,1506.0,1393.0,936.0,2409.0,18.0,23.0
1.8251166343688965,5.0,1615.0,2640.0,1440.0,1422.0,16.0,37.0
1.826633334159851,10.0,891.0,2222.0,1505.0,680.0,195.0,398.0
1.8281500339508057,24.0,1786.0,1804.0,1569.0,1579.0,374.0,230.0
1.8296666145324707,25.0,799.0,347.0,2496.0,701.0,206.0,62.0
1.8311833143234253,25.0,600.0,1721.0,2261.0,20.0,38.0,49.0
1.8327000141143799,24.0,584.0,1191.0,1778.0,823.0,1038.0,36.0
1.8342167139053345,27.0,1118.0,2945.0,1804.0,1826.0,519.0,50.0
1.8357332944869995,35.0,1221.0,2955.0,1830.0,3166.0,0.0,64.0
1.837249994277954,43.0,2633.0,1659.0,1783.0,2228.0,27.0,16.0
1.8388333320617676,11.0,3185.0,2275.0,1988.0,419.0,32.0,12.0
1.8403500318527222,5.0,1992.0,787.0,2084.0,10.0,557.0,52.0
1.8418666124343872,18.0,3282.0,682.0,2181.0,2519.0,556.0,23.0
1.8433833122253418,16.0,2782.0,1755.0,0.0,1031.0,296.0,27.0
1.8449000120162964,45.0,2098.0,2021.0,10.0,2179.0,37.0,29.0
1.846416711807251,33.0,2044.0,1868.0,869.0,837.0,90.0,31.0
1.847933292388916,22.0,1723.0,1672.0,1380.0,824.0,51.0,16.0
1.8494499921798706,28.0,163.0,650.0,3829.0,811.0,11.0,13.0
1.8509666919708252,33.0,2312.0,553.0,3320.0,1087.0,15.0,10.0
1.8524833917617798,30.0,684.0,1872.0,1616.0,1849.0,355.0,6.0
1.8539999723434448,22.0,1970.0,1861.0,2081.0,1669.0,180.0,13.0
1.8555666208267212,21.0,2637.0,1700.0,2546.0,1490.0,5.0,30.0
1.857100009918213,50.0,27.0,1743.0,1176.0,886.0,1173.0,26.0
1.8586000204086304,43.0,52.0,1552.0,1114.0,1923.0,1456.0,21.0
1.860116720199585,28.0,1309.0,3604.0,1031.0,1654.0,31.0,11.0
1.86163330078125,26.0,1639.0,4369.0,933.0,84.0,25.0,0.0
1.8631500005722046,22.0,17.0,2518.0,836.0,2015.0,33.0,14.0
1.8646667003631592,18.0,31.0,2426.0,2119.0,1071.0,333.0,28.0
1.8661832809448242,19.0,736.0,684.0,1462.0,126.0,750.0,34.0
1.8676999807357788,20.0,984.0,2326.0,806.0,550.0,817.0,16.0
1.8692166805267334,21.0,706.0,643.0,2094.0,771.0,589.0,37.0
1.870733380317688,0.0,849.0,455.0,1314.0,991.0,17.0,17.0
1.8723167181015015,6.0,927.0,267.0,535.0,1471.0,6.0,25.0
1.8738332986831665,25.0,611.0,2590.0,573.0,754.0,40.0,31.0
1.875349998474121,22.0,1059.0,2014.0,559.0,37.0,42.0,37.0
1.8768666982650757,0.0,1340.0,1439.0,916.0,52.0,45.0,26.0
1.8783832788467407,18.0,1620.0,2607.0,1273.0,946.0,35.0,12.0
1.8798999786376953,23.0,2184.0,448.0,1998.0,239.0,25.0,48.0
1.88141667842865,20.0,5.0,3900.0,1838.0,1840.0,25.0,392.0
1.8829333782196045,10.0,1698.0,2846.0,1677.0,1340.0,33.0,737.0
1.8844499588012695,13.0,1505.0,2650.0,1371.0,634.0,28.0,487.0
1.8859666585922241,16.0,55.0,196.0,1065.0,1251.0,23.0,13.0
1.8874833583831787,37.0,407.0,1460.0,1962.0,1099.0,391.0,361.0
1.8890166282653809,19.0,1700.0,2724.0,2860.0,946.0,829.0,356.0
1.8905333280563354,0.0,1201.0,1123.0,3468.0,23.0,439.0,610.0
1.89205002784729,39.0,701.0,876.0,1300.0,29.0,49.0,13.0
1.8935832977294922,53.0,284.0,487.0,794.0,34.0,1478.0,68.0
1.8950833082199097,13.0,16.0,1294.0,514.0,1460.0,759.0,26.0
1.8966000080108643,6.0,398.0,917.0,810.0,1810.0,41.0,16.0
1.8981167078018188,8.0,296.0,541.0,173.0,1181.0,1512.0,64.0
1.8996332883834839,10.0,193.0,926.0,46.0,833.0,1175.0,41.0
1.9011499881744385,21.0,14.0,1311.0,1369.0,37.0,6.0,12.0
1.9026833772659302,11.0,384.0,918.0,692.0,1776.0,10.0,22.0
1.9041833877563477,0.0,0.0,526.0,16.0,1452.0,395.0,266.0
1.905750036239624,11.0,408.0,1619.0,787.0,911.0,18.0,133.0
1.9072833061218262,13.0,300.0,1625.0,91.0,866.0,608.0,0.0
1.9088000059127808,14.0,1525.0,1892.0,718.0,2307.0,1198.0,28.0
1.9103167057037354,17.0,1716.0,1527.0,1806.0,2222.0,1453.0,15.0
1.9118332862854004,16.0,693.0,903.0,911.0,2102.0,1267.0,41.0
1.913349986076355,5.0,47.0,904.0,16.0,10.0,1852.0,31.0
1.9148666858673096,6.0,667.0,585.0,1620.0,1541.0,27.0,21.0
1.9163833856582642,17.0,1204.0,1924.0,1520.0,577.0,1202.0,17.0
1.9178999662399292,28.0,927.0,1694.0,2254.0,642.0,411.0,38.0
1.9194166660308838,24.0,649.0,1759.0,2118.0,2546.0,561.0,34.0
1.9209333658218384,19.0,965.0,1579.0,3178.0,2860.0,16.0,19.0
1.9224499464035034,29.0,1282.0,452.0,22.0,785.0,38.0,625.0
1.9240167140960693,23.0,641.0,1478.0,528.0,1547.0,47.0,675.0
1.9255332946777344,23.0,0.0,1216.0,3824.0,923.0,58.0,15.0
1.927049994468689,22.0,44.0,1875.0,1304.0,776.0,0.0,29.0
1.9285666942596436,16.0,91.0,1288.0,1188.0,426.0,21.0,38.0
1.9300832748413086,23.0,53.0,701.0,783.0,783.0,20.0,46.0
1.9315999746322632,10.0,14.0,280.0,1352.0,34.0,19.0,45.0
1.9331166744232178,0.0,12.0,148.0,663.0,16.0,30.0,47.0
1.9346333742141724,35.0,10.0,16.0,630.0,617.0,239.0,49.0
1.9361499547958374,22.0,24.0,489.0,598.0,19.0,131.0,11.0
1.937666654586792,10.0,38.0,962.0,1239.0,11.0,22.0,12.0
1.9391833543777466,44.0,426.0,1180.0,1137.0,232.0,26.0,18.0
1.94076669216156,61.0,235.0,385.0,886.0,453.0,30.0,15.0
1.9422833919525146,41.0,44.0,378.0,721.0,1181.0,307.0,12.0
1.9437999725341797,16.0,142.0,372.0,556.0,876.0,583.0,37.0
1.9453166723251343,37.0,240.0,205.0,495.0,572.0,292.0,34.0
1.9468333721160889,7.0,24.0,38.0,434.0,658.0,0.0,36.0
1.948349952697754,68.0,34.0,576.0,830.0,744.0,20.0,21.0
1.9498666524887085,49.0,0.0,1113.0,859.0,11.0,41.0,25.0
1.951383352279663,11.0,1518.0,1554.0,889.0,953.0,36.0,20.0
1.9529000520706177,72.0,1259.0,11.0,1453.0,486.0,31.0,15.0
1.9544166326522827,56.0,22.0,1023.0,1054.0,19.0,140.0,19.0
1.9559333324432373,35.0,603.0,1562.0,655.0,615.0,435.0,22.0
1.9575166702270508,35.0,0.0,973.0,757.0,519.0,346.0,908.0
1.9590333700180054,15.0,46.0,1553.0,859.0,348.0,28.0,900.0
1.9605499505996704,6.0,790.0,1215.0,38.0,178.0,300.0,35.0
1.962066650390625,5.0,1534.0,781.0,4447.0,1129.0,168.0,25.0
1.9635833501815796,415.0,1405.0,347.0,3766.0,1710.0,24.0,6.0
1.9651000499725342,208.0,10.0,1124.0,1097.0,1582.0,283.0,20.0
1.9666166305541992,0.0,1241.0,1255.0,1881.0,72.0,62.0,33.0
1.9681333303451538,30.0,1443.0,1387.0,3352.0,407.0,315.0,22.0
1.9696500301361084,41.0,456.0,21.0,1014.0,742.0,168.0,258.0
1.9711666107177734,21.0,1915.0,1132.0,1922.0,458.0,21.0,138.0
1.972683310508728,6.0,644.0,1949.0,1386.0,29.0,17.0,19.0
1.9742499589920044,47.0,1320.0,981.0,1258.0,43.0,12.0,5.0
1.975766658782959,42.0,27.0,27.0,427.0,2600.0,252.0,26.0
1.9772833585739136,38.0,1321.0,1731.0,221.0,3016.0,128.0,31.0
1.9788000583648682,25.0,16.0,51.0,15.0,280.0,5.0,15.0
1.9803166389465332,55.0,1153.0,1302.0,537.0,41.0,18.0,30.0
1.9818333387374878,0.0,817.0,1682.0,1060.0,974.0,27.0,21.0
1.9833500385284424,15.0,11.0,663.0,1038.0,20.0,35.0,11.0
1.9848666191101074,11.0,47.0,101.0,999.0,1792.0,12.0,35.0
1.986383318901062,35.0,24.0,584.0,1026.0,1312.0,15.0,23.0
1.9879000186920166,38.0,278.0,7.0,1053.0,60.0,17.0,31.0
1.9894167184829712,28.0,154.0,21.0,25.0,933.0,25.0,31.0
1.9910000562667847,27.0,29.0,35.0,428.0,967.0,1557.0,31.0
1.9925166368484497,25.0,486.0,1699.0,562.0,31.0,1161.0,47.0
1.9940333366394043,32.0,1194.0,3038.0,696.0,21.0,28.0,28.0
1.9955500364303589,38.0,1847.0,1822.0,1376.0,1088.0,50.0,10.0
1.997066617012024,40.0,2032.0,514.0,2056.0,5.0,548.0,60.0
1.9985833168029785,41.0,85.0,1058.0,1713.0,1573.0,13.0,0.0
2.0000998973846436,25.0,20.0,1079.0,2216.0,862.0,11.0,68.0
2.0016167163848877,12.0,1117.0,1213.0,761.0,963.0,25.0,17.0
2.0031332969665527,20.0,10.0,1574.0,1226.0,1065.0,40.0,14.0
2.004650115966797,17.0,1678.0,580.0,517.0,763.0,27.0,10.0
2.006166696548462,13.0,976.0,410.0,1134.0,5.0,14.0,12.0
2.0077333450317383,21.0,453.0,547.0,1348.0,16.0,17.0,14.0
2.0092499256134033,14.0,1833.0,29.0,1100.0,1346.0,19.0,10.0
2.0107667446136475,30.0,1819.0,52.0,624.0,1038.0,335.0,5.0
2.0122833251953125,23.0,941.0,866.0,689.0,5.0,179.0,19.0
2.0137999057769775,16.0,1160.0,1048.0,575.0,350.0,23.0,21.0
2.0153167247772217,13.0,1361.0,1229.0,460.0,1059.0,17.0,23.0
2.0168333053588867,10.0,965.0,37.0,1480.0,868.0,10.0,10.0
2.0183498859405518,27.0,738.0,612.0,942.0,20.0,253.0,8.0
2.019883394241333,44.0,1010.0,44.0,403.0,71.0,495.0,5.0
2.021383285522461,24.0,0.0,1023.0,367.0,779.0,526.0,343.0
2.022900104522705,5.0,667.0,967.0,617.0,15.0,556.0,598.0
2.0244667530059814,14.0,1333.0,30.0,618.0,16.0,42.0,721.0
2.0260000228881836,21.0,590.0,44.0,619.0,17.0,498.0,28.0
2.0275166034698486,18.0,935.0,70.0,1810.0,686.0,47.0,10.0
2.0290334224700928,14.0,21.0,56.0,1491.0,409.0,23.0,10.0
2.030550003051758,41.0,578.0,42.0,1171.0,131.0,17.0,23.0
2.032066583633423,35.0,763.0,428.0,809.0,10.0,32.0,35.0
2.033583402633667,28.0,450.0,1626.0,7.0,1493.0,483.0,33.0
2.035099983215332,26.0,5.0,1544.0,20.0,1686.0,612.0,19.0
2.036616563796997,0.0,17.0,1462.0,32.0,1245.0,407.0,5.0
2.038133382797241,14.0,29.0,0.0,24.0,18.0,5.0,29.0
2.0396499633789062,28.0,5.0,12.0,865.0,1211.0,5.0,46.0
2.0411667823791504,43.0,19.0,987.0,866.0,669.0,404.0,63.0
2.0427498817443848,36.0,32.0,12.0,609.0,718.0,15.0,32.0
2.044266700744629,29.0,33.0,1078.0,25.0,868.0,45.0,58.0
2.045783281326294,34.0,34.0,1133.0,1542.0,968.0,29.0,52.0
2.047300100326538,5.0,17.0,439.0,1244.0,1068.0,45.0,47.0
2.048816680908203,23.0,0.0,1444.0,1064.0,1414.0,60.0,14.0
2.050333261489868,16.0,10.0,37.0,1051.0,30.0,43.0,17.0
2.0518500804901123,14.0,20.0,47.0,10.0,190.0,25.0,7.0
2.0533666610717773,12.0,22.0,1107.0,711.0,1849.0,24.0,11.0
2.0548832416534424,10.0,686.0,780.0,388.0,548.0,23.0,15.0
2.0564000606536865,16.0,1367.0,247.0,597.0,570.0,16.0,10.0
2.0579166412353516,24.0,1314.0,8.0,806.0,52.0,24.0,25.0
2.059483289718628,0.0,657.0,1356.0,428.0,258.0,31.0,37.0
2.061000108718872,0.0,0.0,1091.0,51.0,483.0,24.0,50.0
2.062516689300537,20.0,26.0,827.0,785.0,626.0,16.0,37.0
2.064033269882202,24.0,16.0,883.0,41.0,267.0,23.0,29.0
2.0655500888824463,16.0,28.0,939.0,940.0,364.0,161.0,21.0
2.0670666694641113,52.0,29.0,2336.0,547.0,461.0,93.0,15.0
2.0685832500457764,52.0,33.0,2623.0,6.0,903.0,24.0,8.0
2.0701000690460205,12.0,37.0,3019.0,1250.0,800.0,13.0,64.0
2.0716166496276855,30.0,11.0,600.0,20.0,138.0,20.0,35.0
2.0731332302093506,40.0,55.0,446.0,13.0,362.0,5.0,5.0
2.0746500492095947,36.0,826.0,714.0,5.0,1141.0,8.0,55.0
2.076233386993408,31.0,499.0,328.0,81.0,731.0,10.0,30.0
2.0777499675750732,21.0,173.0,596.0,779.0,803.0,18.0,47.0
2.0792665481567383,10.0,29.0,971.0,729.0,23.0,25.0,0.0
2.0807833671569824,5.0,18.0,767.0,680.0,36.0,28.0,25.0
2.0822999477386475,0.0,15.0,401.0,1041.0,5.0,30.0,6.0
2.0838167667388916,12.0,23.0,35.0,1403.0,1169.0,495.0,13.0
2.0853333473205566,23.0,46.0,701.0,13.0,1512.0,251.0,19.0
2.0868499279022217,15.0,44.0,1086.0,26.0,945.0,6.0,15.0
2.088366746902466,7.0,42.0,694.0,39.0,676.0,16.0,30.0
2.089883327484131,22.0,1222.0,1109.0,209.0,14.0,1147.0,18.0
2.091399908065796,0.0,1089.0,1281.0,380.0,0.0,876.0,5.0
2.0929665565490723,8.0,375.0,1006.0,849.0,28.0,17.0,5.0
2.0944833755493164,15.0,9.0,873.0,724.0,33.0,38.0,5.0
2.0959999561309814,19.0,1001.0,741.0,599.0,38.0,35.0,6.0
2.0975167751312256,23.0,35.0,928.0,5.0,450.0,31.0,3.0
2.0990333557128906,16.0,10.0,27.0,460.0,863.0,25.0,0.0
2.10141658782959,19.0,8.0,1211.0,914.0,742.0,19.0,5.0
2.1038167476654053,21.0,806.0,39.0,935.0,421.0,626.0,159.0
2.1061999797821045,17.0,1148.0,14.0,956.0,1029.0,488.0,80.0
2.108583450317383,12.0,1193.0,923.0,6465.0,5220.0,349.0,0.0
2.1110167503356934,10.0,10.0,1833.0,4510.0,5982.0,200.0,256.0
2.1133999824523926,8.0,150.0,1917.0,2555.0,1850.0,52.0,513.0
2.115783214569092,5.0,72.0,2002.0,11352.0,7461.0,43.0,1414.0
2.11816668510437,25.0,41.0,1184.0,13860.0,3720.0,33.0,2315.0
2.1205499172210693,80.0,10.0,4924.0,7476.0,3607.0,69.0,2100.0
2.1229333877563477,57.0,34.0,4028.0,11932.0,6469.0,1406.0,2702.0
2.125316619873047,34.0,23.0,833.0,6381.0,6972.0,3049.0,3304.0
2.1277666091918945,1740.0,491.0,5040.0,9428.0,4770.0,2410.0,3756.0
2.130150079727173,1801.0,958.0,3316.0,12476.0,10008.0,1507.0,4124.0
2.132533311843872,21.0,957.0,1437.0,14452.0,9412.0,604.0,2655.0
2.1349167823791504,19.0,97.0,3834.0,11352.0,10532.0,2127.0,2549.0
2.1373000144958496,17.0,13.0,3703.0,11308.0,7047.0,3168.0,2026.0
2.139683246612549,15.0,262.0,3661.0,11264.0,8628.0,2351.0,2175.0
2.142066717147827,13.0,139.0,3618.0,9392.0,7994.0,1533.0,2427.0
2.1444833278656006,69.0,16.0,4440.0,10876.0,7361.0,905.0,2678.0
2.1468665599823,124.0,22.0,704.0,12036.0,9428.0,1367.0,1519.0
2.149250030517578,355.0,327.0,3896.0,11360.0,10268.0,3112.0,2788.0
2.1516332626342773,294.0,168.0,3623.0,10684.0,11108.0,2007.0,2238.0
2.1540167331695557,232.0,10.0,5940.0,9036.0,10688.0,903.0,1688.0
2.156399965286255,9.0,404.0,4032.0,7389.0,5970.0,2611.0,4554.0
2.158783435821533,17.0,242.0,3503.0,10284.0,4999.0,2548.0,4885.0
2.1612000465393066,84.0,482.0,2797.0,13488.0,7410.0,2485.0,3523.0
2.163583278656006,14.0,722.0,2430.0,12980.0,7604.0,1320.0,4289.0
2.165966749191284,94.0,33.0,3102.0,8920.0,7047.0,1565.0,1245.0
2.1683499813079834,53.0,8.0,4133.0,14168.0,4089.0,1810.0,3436.0
2.1707334518432617,778.0,31.0,3757.0,12100.0,7911.0,916.0,2406.0
2.173116683959961,653.0,41.0,1061.0,10688.0,7782.0,533.0,4116.0
2.17549991607666,39.0,48.0,2484.0,8692.0,7653.0,2564.0,1107.0
2.1779167652130127,634.0,41.0,6104.0,9816.0,8880.0,2030.0,3242.0
2.180299997329712,337.0,34.0,4494.0,10628.0,5897.0,2754.0,1327.0
2.182683229446411,40.0,25.0,6667.0,7553.0,7852.0,3422.0,2571.0
2.1850666999816895,325.0,16.0,4087.0,8964.0,9632.0,2992.0,4128.0
2.1874499320983887,176.0,21.0,6167.0,12272.0,9000.0,2863.0,4605.0
2.189833402633667,27.0,26.0,2160.0,10096.0,6995.0,2735.0,2111.0
2.192216634750366,21.0,30.0,4439.0,11300.0,5895.0,22.0,4010.0
2.1946165561676025,320.0,34.0,3534.0,11860.0,8444.0,959.0,4137.0
2.197000026702881,619.0,18.0,3006.0,12420.0,6819.0,906.0,4853.0
2.19938325881958,314.0,17.0,1003.0,12236.0,5196.0,888.0,5951.0
2.2017834186553955,10.0,16.0,2699.0,12048.0,8628.0,1392.0,1941.0
2.2041666507720947,0.0,7.0,3266.0,11092.0,10064.0,1896.0,2846.0
2.206549882888794,32.0,14.0,2500.0,8560.0,12228.0,1388.0,1492.0
2.2089333534240723,46.0,21.0,1733.0,6028.0,7966.0,880.0,913.0
2.2113332748413086,22.0,678.0,4917.0,7179.0,8308.0,1925.0,335.0
2.213716745376587,34.0,594.0,5864.0,8332.0,13248.0,1440.0,1683.0
2.216099977493286,47.0,0.0,1800.0,13024.0,9304.0,1352.0,2061.0
2.2184834480285645,639.0,40.0,1464.0,12160.0,7053.0,1147.0,2100.0
2.220883369445801,351.0,45.0,6091.0,8660.0,7244.0,941.0,2139.0
2.2232666015625,62.0,51.0,3137.0,9588.0,2836.0,1001.0,883.0
2.2256500720977783,1304.0,22.0,1674.0,5292.0,4190.0,990.0,1317.0
2.2280499935150146,1596.0,244.0,574.0,10540.0,2408.0,978.0,1750.0
2.230433225631714,13.0,135.0,1237.0,4782.0,5385.0,1083.0,589.0
2.232816696166992,20.0,26.0,1240.0,8828.0,4376.0,1187.0,1188.0
2.2351999282836914,538.0,68.0,632.0,4958.0,6927.0,593.0,1870.0
2.237600088119507,282.0,110.0,1442.0,6024.0,1982.0,0.0,1372.0
2.239983320236206,25.0,266.0,1306.0,4690.0,1349.0,14.0,874.0
2.2423665523529053,541.0,148.0,1169.0,3904.0,2942.0,21.0,260.0
2.244783401489258,280.0,31.0,442.0,1353.0,835.0,33.0,619.0
2.247166633605957,19.0,6.0,625.0,5521.0,1002.0,46.0,12.0
2.2495501041412354,321.0,33.0,48.0,1742.0,1169.0,42.0,10.0
2.2519333362579346,624.0,23.0,41.0,3711.0,1199.0,38.0,5.0
2.254316568374634,1260.0,42.0,406.0,2399.0,877.0,28.0,8.0
2.256700038909912,1000.0,42.0,771.0,2568.0,555.0,18.0,10.0
2.2590832710266113,570.0,150.0,581.0,2925.0,1009.0,19.0,863.0
2.2614998817443848,140.0,361.0,673.0,919.0,748.0,20.0,929.0
2.263883352279663,2131.0,572.0,689.0,893.0,157.0,25.0,346.0
2.2662665843963623,1617.0,290.0,27.0,1531.0,1142.0,20.0,1331.0
2.2686500549316406,1103.0,8.0,34.0,10.0,1071.0,15.0,29.0
2.27103328704834,171.0,61.0,40.0,309.0,539.0,1546.0,22.0
2.273416757583618,1427.0,18.0,36.0,608.0,282.0,1820.0,858.0
2.2757999897003174,478.0,35.0,31.0,1549.0,22.0,1102.0,278.0
2.278216600418091,1217.0,10.0,477.0,796.0,810.0,5.0,386.0
2.280600070953369,169.0,10.0,710.0,44.0,663.0,597.0,13.0
2.2829833030700684,870.0,10.0,943.0,24.0,517.0,68.0,20.0
2.2853667736053467,1572.0,466.0,285.0,0.0,6.0,16.0,26.0
2.287750005722046,847.0,921.0,506.0,16.0,1070.0,11.0,54.0
2.290133237838745,965.0,1080.0,23.0,32.0,1519.0,20.0,32.0
2.2925167083740234,1260.0,1238.0,16.0,746.0,1315.0,28.0,10.0
2.2949166297912598,1554.0,132.0,22.0,2022.0,11.0,82.0,22.0
2.297300100326538,1812.0,1249.0,235.0,1822.0,778.0,62.0,33.0
2.2996833324432373,2071.0,1167.0,133.0,254.0,40.0,42.0,12.0
2.3020665645599365,820.0,27.0,30.0,53.0,26.0,31.0,13.0
2.304450035095215,705.0,633.0,37.0,293.0,26.0,21.0,14.0
2.306849956512451,1780.0,771.0,780.0,10.0,33.0,120.0,477.0
2.3092334270477295,2060.0,300.0,635.0,73.0,41.0,219.0,271.0
2.311633348464966,2361.0,171.0,807.0,71.0,0.0,175.0,65.0
2.314016580581665,1723.0,42.0,74.0,69.0,263.0,132.0,65.0
2.3164000511169434,794.0,97.0,38.0,54.0,148.0,26.0,18.0
2.3187999725341797,2791.0,75.0,59.0,39.0,33.0,53.0,31.0
2.321183443069458,1899.0,92.0,65.0,75.0,51.0,58.0,86.0
2.3235666751861572,587.0,140.0,72.0,72.0,53.0,63.0,52.0
2.3259499073028564,1050.0,189.0,731.0,69.0,78.0,700.0,63.0
2.328350067138672,155.0,619.0,460.0,122.0,225.0,638.0,100.0
2.330733299255371,1312.0,382.0,189.0,88.0,159.0,60.0,72.0
2.3331167697906494,122.0,146.0,502.0,54.0,93.0,81.0,44.0
2.3355166912078857,126.0,177.0,68.0,89.0,83.0,85.0,104.0
2.337899923324585,894.0,123.0,70.0,93.0,83.0,88.0,79.0
2.3402833938598633,822.0,131.0,72.0,101.0,79.0,89.0,53.0
2.3426666259765625,110.0,135.0,59.0,26.0,75.0,90.0,115.0
2.345066785812378,117.0,123.0,46.0,745.0,998.0,73.0,83.0
2.347450017929077,85.0,112.0,90.0,404.0,549.0,87.0,52.0
2.3498332500457764,53.0,118.0,82.0,64.0,100.0,58.0,48.0
2.352233409881592,222.0,95.0,73.0,1235.0,64.0,51.0,41.0
2.354616641998291,195.0,71.0,79.0,804.0,28.0,44.0,33.0
2.3570001125335693,126.0,149.0,85.0,118.0,38.0,48.0,57.0
2.3593833446502686,131.0,161.0,55.0,98.0,47.0,52.0,62.0
2.361799955368042,145.0,79.0,113.0,126.0,74.0,40.0,67.0
2.3641834259033203,129.0,93.0,87.0,110.0,64.0,27.0,42.0
2.3665666580200195,97.0,68.0,61.0,122.0,54.0,82.0,50.0
2.3689498901367188,124.0,103.0,44.0,109.0,35.0,119.0,58.0
2.371333360671997,150.0,139.0,69.0,95.0,17.0,156.0,63.0
2.3737165927886963,130.0,156.0,94.0,89.0,32.0,56.0,69.0
2.3761000633239746,126.0,140.0,94.0,83.0,63.0,20.0,60.0
2.378516674041748,126.0,125.0,93.0,44.0,93.0,87.0,52.0
2.3808999061584473,226.0,187.0,95.0,134.0,96.0,34.0,85.0
2.3832833766937256,241.0,152.0,96.0,238.0,55.0,44.0,75.0
2.385666608810425,178.0,117.0,107.0,342.0,107.0,47.0,82.0
2.388050079345703,265.0,165.0,95.0,230.0,81.0,110.0,88.0
2.3904333114624023,267.0,885.0,82.0,118.0,54.0,152.0,103.0
2.3928167819976807,121.0,959.0,109.0,578.0,62.0,105.0,53.0
2.395233392715454,193.0,59.0,136.0,575.0,57.0,149.0,90.0
2.3976166248321533,266.0,97.0,132.0,573.0,129.0,133.0,128.0
2.4000000953674316,280.0,481.0,126.0,147.0,96.0,137.0,83.0
2.402383327484131,161.0,114.0,117.0,81.0,63.0,130.0,68.0
2.40476655960083,122.0,493.0,108.0,56.0,66.0,101.0,44.0
2.4071500301361084,93.0,57.0,740.0,73.0,48.0,22.0,67.0
2.4095332622528076,196.0,141.0,403.0,77.0,30.0,80.0,90.0
2.411933422088623,51.0,77.0,66.0,80.0,80.0,74.0,84.0
2.4143333435058594,86.0,43.0,771.0,50.0,48.0,68.0,59.0
2.4167165756225586,54.0,927.0,148.0,44.0,16.0,42.0,34.0
2.419100046157837,52.0,717.0,59.0,44.0,73.0,59.0,48.0
2.421483278274536,50.0,767.0,992.0,32.0,80.0,29.0,61.0
2.4238667488098145,54.0,20.0,34.0,487.0,87.0,0.0,74.0
2.4262499809265137,58.0,66.0,1085.0,264.0,57.0,25.0,28.0
2.42864990234375,81.0,17.0,582.0,41.0,10.0,35.0,15.0
2.4310333728790283,61.0,19.0,79.0,34.0,49.0,46.0,5.0
2.4334166049957275,42.0,29.0,643.0,27.0,36.0,525.0,33.0
2.435800075531006,26.0,40.0,735.0,51.0,23.0,277.0,35.0
2.438183307647705,51.0,29.0,28.0,41.0,28.0,30.0,37.0
2.4405832290649414,0.0,19.0,98.0,30.0,34.0,77.0,20.0
2.4429666996002197,33.0,65.0,998.0,46.0,53.0,77.0,63.0
2.445366621017456,12.0,56.0,492.0,55.0,46.0,49.0,51.0
2.4477500915527344,15.0,48.0,47.0,19.0,262.0,21.0,40.0
2.4501333236694336,18.0,27.0,28.0,51.0,856.0,47.0,34.0
2.452516555786133,17.0,51.0,0.0,73.0,705.0,111.0,49.0
2.454900026321411,15.0,28.0,33.0,95.0,74.0,75.0,65.0
2.4572999477386475,25.0,20.0,50.0,452.0,25.0,38.0,71.0
2.459683418273926,34.0,179.0,43.0,259.0,20.0,27.0,39.0
2.462083339691162,44.0,338.0,29.0,66.0,106.0,10.0,36.0
2.4644665718078613,38.0,179.0,42.0,51.0,191.0,26.0,34.0
2.4668500423431396,13.0,21.0,28.0,245.0,136.0,43.0,20.0
2.469233274459839,54.0,19.0,42.0,176.0,81.0,41.0,50.0
2.471616744995117,11.0,40.0,379.0,107.0,15.0,51.0,5.0
2.4739999771118164,23.0,62.0,221.0,56.0,332.0,42.0,19.0
2.4763998985290527,50.0,53.0,62.0,42.0,188.0,32.0,33.0
2.478800058364868,37.0,44.0,37.0,28.0,44.0,29.0,35.0
2.4811832904815674,79.0,35.0,12.0,5.0,347.0,47.0,13.0
2.4835667610168457,49.0,26.0,0.0,13.0,59.0,34.0,25.0
2.485966682434082,18.0,15.0,0.0,21.0,13.0,22.0,27.0
2.4883499145507812,8.0,15.0,16.0,215.0,23.0,32.0,28.0
2.4907333850860596,14.0,15.0,31.0,408.0,32.0,41.0,14.0
2.493116617202759,17.0,24.0,27.0,445.0,25.0,19.0,21.0
2.4955332279205322,54.0,587.0,184.0,18.0,18.0,6.0,37.0
