,301.2099914550781,302.2099914550781,303.2099914550781,304.2099914550781,305.2099914550781,306.2099914550781,307.2099914550781,308.2099914550781
5.202183246612549,21.0,15.0,0.0,36.0,36.0,53.0,11.0,11.0
5.204349994659424,24.0,35.0,802.0,39.0,33.0,43.0,10.0,0.0
5.2078166007995605,39.0,33.0,811.0,26.0,0.0,45.0,19.0,5.0
5.211283206939697,38.0,25.0,987.0,0.0,24.0,35.0,17.0,42.0
5.214749813079834,36.0,21.0,1446.0,12.0,29.0,41.0,15.0,37.0
5.218216896057129,46.0,17.0,1619.0,6.0,39.0,47.0,13.0,16.0
5.221733570098877,37.0,0.0,737.0,11.0,28.0,30.0,43.0,12.0
5.225200176239014,29.0,23.0,841.0,10.0,18.0,59.0,24.0,32.0
5.2286834716796875,7.0,18.0,2466.0,8.0,31.0,12.0,5.0,33.0
5.232150077819824,31.0,27.0,1242.0,7.0,6.0,82.0,41.0,26.0
5.235616683959961,10.0,5.0,18.0,6.0,16.0,67.0,12.0,27.0
5.239099979400635,29.0,28.0,51.0,10.0,11.0,5.0,5.0,41.0
5.242583274841309,10.0,33.0,21.0,9.0,7.0,36.0,0.0,6.0
5.246049880981445,18.0,222.0,30.0,7.0,21.0,0.0,55.0,25.0
5.249516487121582,20.0,117.0,38.0,16.0,37.0,44.0,43.0,29.0
5.25303316116333,21.0,12.0,25.0,24.0,36.0,5.0,16.0,30.0
5.256499767303467,5.0,10.0,27.0,20.0,7.0,0.0,11.0,36.0
5.259966850280762,28.0,8.0,30.0,13.0,0.0,10.0,33.0,17.0
5.2634501457214355,17.0,23.0,11.0,26.0,18.0,17.0,33.0,26.0
5.266916751861572,5.0,23.0,12.0,0.0,0.0,11.0,32.0,29.0
5.270416736602783,33.0,22.0,9.0,18.0,11.0,5.0,54.0,23.0
5.27388334274292,5.0,25.0,6.0,28.0,23.0,3.0,0.0,52.0
5.277349948883057,15.0,24.0,10.0,49.0,31.0,0.0,11.0,49.0
5.280816555023193,20.0,6.0,8.0,43.0,18.0,27.0,61.0,51.0
5.28428316116333,6.0,23.0,5.0,36.0,5.0,23.0,20.0,43.0
5.287783145904541,19.0,0.0,31.0,19.0,20.0,27.0,24.0,13.0
5.291250228881836,20.0,17.0,34.0,21.0,0.0,16.0,24.0,22.0
5.294716835021973,0.0,20.0,0.0,17.0,3.0,5.0,5.0,17.0
5.298183441162109,5.0,10.0,12.0,13.0,5.0,30.0,28.0,13.0
5.301650047302246,9.0,0.0,28.0,18.0,10.0,48.0,29.0,15.0
5.30513334274292,42.0,10.0,17.0,31.0,13.0,39.0,22.0,6.0
5.308599948883057,24.0,16.0,5.0,16.0,33.0,20.0,23.0,3.0
5.312066555023193,7.0,0.0,23.0,0.0,24.0,42.0,15.0,0.0
5.31553316116333,17.0,16.0,34.0,10.0,15.0,10.0,42.0,11.0
5.318999767303467,20.0,0.0,45.0,12.0,11.0,578.0,23.0,34.0
5.322533130645752,23.0,27.0,6.0,13.0,17.0,569.0,5.0,26.0
5.326000213623047,5.0,23.0,6.0,16.0,22.0,34.0,0.0,42.0
5.329466819763184,0.0,22.0,19.0,18.0,11.0,709.0,21.0,29.0
5.33293342590332,8.0,21.0,12.0,10.0,0.0,431.0,13.0,35.0
5.336400032043457,16.0,12.0,6.0,19.0,3.0,130.0,18.0,0.0
5.339916706085205,23.0,17.0,5.0,28.0,5.0,6.0,23.0,0.0
5.343383312225342,204.0,26.0,5.0,0.0,10.0,36.0,10.0,0.0
5.3468499183654785,119.0,24.0,5.0,0.0,15.0,66.0,5.0,3.0
5.350316524505615,33.0,5.0,33.0,0.0,33.0,34.0,12.0,6.0
5.3538498878479,33.0,7.0,17.0,29.0,33.0,0.0,20.0,14.0
5.357316493988037,0.0,13.0,0.0,54.0,32.0,199.0,20.0,12.0
5.360783100128174,11.0,31.0,24.0,73.0,0.0,142.0,21.0,9.0
5.364250183105469,15.0,25.0,0.0,10.0,24.0,85.0,48.0,10.0
5.3677167892456055,10.0,20.0,8.0,19.0,0.0,0.0,30.0,11.0
5.371250152587891,5.0,25.0,16.0,20.0,10.0,0.0,12.0,23.0
5.374716758728027,39.0,140.0,5.0,10.0,0.0,5.0,21.0,30.0
5.378183364868164,34.0,78.0,21.0,11.0,21.0,23.0,26.0,21.0
5.381649971008301,0.0,17.0,22.0,12.0,22.0,47.0,31.0,16.0
5.3851165771484375,41.0,12.0,23.0,13.0,23.0,35.0,20.0,28.0
5.3886332511901855,36.0,15.0,22.0,13.0,31.0,21.0,5.0,24.0
5.392099857330322,30.0,18.0,26.0,32.0,6.0,32.0,0.0,15.0
5.395566463470459,38.0,0.0,30.0,20.0,35.0,24.0,13.0,19.0
5.399033546447754,46.0,18.0,34.0,7.0,32.0,13.0,6.0,24.0
5.402500152587891,41.0,31.0,0.0,10.0,12.0,0.0,0.0,29.0
5.406033515930176,36.0,44.0,0.0,19.0,37.0,0.0,5.0,65.0
5.4095001220703125,30.0,33.0,39.0,7.0,0.0,5.0,37.0,35.0
5.412966728210449,123.0,32.0,22.0,9.0,10.0,3.0,35.0,5.0
5.416433334350586,99.0,21.0,11.0,10.0,5.0,0.0,34.0,42.0
5.419899940490723,75.0,5.0,16.0,9.0,39.0,12.0,10.0,6.0
5.423416614532471,28.0,5.0,22.0,18.0,41.0,22.0,12.0,29.0
5.426883220672607,5.0,5.0,19.0,44.0,37.0,24.0,24.0,13.0
5.430349826812744,20.0,5.0,17.0,22.0,827.0,28.0,56.0,7.0
5.433816432952881,29.0,563.0,22.0,0.0,785.0,31.0,49.0,35.0
5.437283515930176,38.0,1371.0,28.0,10.0,7.0,29.0,21.0,18.0
5.440816879272461,25.0,1018.0,2677.0,1006.0,3830.0,27.0,1136.0,16.0
5.444283485412598,5.0,1087.0,5335.0,9996.0,6668.0,3712.0,2294.0,526.0
5.447750091552734,20.0,9636.0,11112.0,12920.0,11680.0,11136.0,5126.0,781.0
5.451216697692871,15.0,19584.0,32192.0,35808.0,24056.0,18556.0,8544.0,553.0
5.454683303833008,23.0,34912.0,61216.0,57216.0,67584.0,34368.0,13336.0,2273.0
5.458199977874756,0.0,71216.0,102592.0,105376.0,99424.0,58464.0,23532.0,2471.0
5.461666584014893,25.0,98864.0,141696.0,184000.0,118768.0,71344.0,34032.0,8236.0
5.465133190155029,6.0,119072.0,206656.0,216704.0,188672.0,121408.0,45424.0,6886.0
5.468599796295166,28.0,146752.0,250752.0,273152.0,209856.0,133312.0,47024.0,9632.0
5.472066879272461,43.0,134080.0,274240.0,276928.0,229760.0,146752.0,37296.0,10276.0
5.475599765777588,46.0,155712.0,290560.0,310144.0,242048.0,120320.0,48448.0,5133.0
5.479066848754883,50.0,145856.0,293184.0,290368.0,226496.0,131328.0,46800.0,9440.0
5.4825334548950195,36.0,141632.0,275776.0,245568.0,186112.0,117232.0,49424.0,12632.0
5.486000061035156,90.0,142080.0,232640.0,262592.0,180480.0,102352.0,32056.0,9628.0
5.489533424377441,57.0,116352.0,203648.0,212544.0,167936.0,94320.0,24884.0,3904.0
5.493000030517578,25.0,101168.0,173952.0,183680.0,126816.0,77712.0,36368.0,5540.0
5.496466636657715,23.0,80848.0,135552.0,134592.0,108624.0,59504.0,16560.0,8440.0
5.499933242797852,21.0,68352.0,120096.0,115504.0,83632.0,40880.0,16628.0,1995.0
5.503399848937988,6.0,58144.0,109392.0,86352.0,62352.0,39760.0,14952.0,545.0
5.506883144378662,21.0,43872.0,51840.0,60688.0,44672.0,21100.0,9756.0,1670.0
5.510350227355957,18.0,40096.0,35136.0,47696.0,35584.0,20660.0,5844.0,1134.0
5.513816833496094,16.0,18872.0,39456.0,33680.0,39216.0,11988.0,6455.0,1285.0
5.5172834396362305,19.0,15480.0,16920.0,29692.0,10808.0,9856.0,6291.0,514.0
5.520750045776367,16.0,15144.0,17232.0,16560.0,12480.0,8003.0,5114.0,1160.0
5.524283409118652,13.0,10808.0,18748.0,25332.0,19164.0,7639.0,1983.0,128.0
5.527750015258789,18.0,13200.0,14056.0,10392.0,13004.0,7038.0,5813.0,609.0
5.531216621398926,22.0,3917.0,9752.0,8296.0,5285.0,7366.0,6585.0,40.0
5.5346832275390625,33.0,5362.0,9396.0,7555.0,10524.0,4186.0,97.0,18.0
5.538149833679199,19.0,2974.0,11820.0,11708.0,7400.0,2219.0,21.0,38.0
5.541683197021484,5.0,5623.0,8113.0,9216.0,5123.0,1996.0,2293.0,24.0
5.545149803161621,0.0,5089.0,4194.0,6721.0,5929.0,2873.0,1096.0,10.0
5.548616886138916,46.0,4460.0,5524.0,496.0,2417.0,2239.0,1166.0,18.0
5.552083492279053,28.0,3440.0,3615.0,6366.0,1463.0,1606.0,5.0,21.0
5.5555500984191895,10.0,2985.0,4657.0,2834.0,3577.0,895.0,11.0,25.0
5.559033393859863,11.0,4179.0,3364.0,6826.0,1958.0,877.0,17.0,42.0
5.5625,50.0,390.0,4082.0,1354.0,1046.0,858.0,2219.0,30.0
5.565966606140137,27.0,991.0,2764.0,1097.0,1422.0,55.0,3028.0,19.0
5.569433212280273,5.0,340.0,4033.0,4595.0,1455.0,679.0,1240.0,16.0
5.57289981842041,17.0,2068.0,663.0,4356.0,1223.0,619.0,73.0,11.0
5.576433181762695,27.0,2008.0,2692.0,4118.0,1418.0,826.0,52.0,7.0
5.579899787902832,19.0,775.0,1804.0,3528.0,1613.0,31.0,12.0,29.0
5.583366870880127,11.0,415.0,1715.0,4342.0,1556.0,525.0,6.0,27.0
5.586833477020264,0.0,1287.0,2972.0,1715.0,11.0,621.0,35.0,23.0
5.5903000831604,14.0,649.0,3041.0,5399.0,546.0,717.0,32.0,11.0
5.5938334465026855,29.0,10.0,1121.0,3264.0,943.0,459.0,28.0,34.0
