,259.1700134277344,260.1700134277344,261.1700134277344,262.1700134277344,263.1700134277344
2.4013500213623047,28.0,11.0,11.0,462.0,38.0
2.403083324432373,974.0,25.0,15.0,0.0,33.0
2.405900001525879,10.0,39.0,5.0,22.0,39.0
2.4087166786193848,0.0,22.0,27.0,42.0,5.0
2.411600112915039,15.0,19.0,21.0,16.0,10.0
2.414416551589966,19.0,16.0,5.0,32.0,5.0
2.4172332286834717,23.0,10.0,5.0,23.0,0.0
2.4200499057769775,24.0,45.0,5.0,20.0,6.0
2.4228665828704834,18.0,40.0,10.0,5.0,3.0
2.4256832599639893,0.0,57.0,5.0,12.0,0.0
2.4285500049591064,8.0,16.0,0.0,29.0,0.0
2.4313666820526123,66.0,17.0,15.0,20.0,0.0
2.434183359146118,42.0,39.0,20.0,11.0,4.0
2.437000036239624,18.0,39.0,24.0,10.0,8.0
2.43981671333313,40.0,25.0,23.0,61.0,13.0
2.442650079727173,40.0,11.0,30.0,64.0,13.0
2.445483446121216,57.0,0.0,24.0,0.0,5.0
2.4482998847961426,0.0,18.0,17.0,14.0,20.0
2.4511165618896484,12.0,5.0,23.0,29.0,16.0
2.4539332389831543,15.0,11.0,28.0,50.0,0.0
2.45674991607666,33.0,16.0,23.0,34.0,5.0
2.4596166610717773,32.0,6.0,17.0,18.0,18.0
2.4624500274658203,33.0,15.0,16.0,16.0,15.0
2.4652833938598633,10.0,23.0,14.0,22.0,12.0
2.468100070953369,43.0,19.0,15.0,21.0,5.0
2.470916748046875,21.0,10.0,5.0,20.0,5.0
2.473733425140381,0.0,21.0,10.0,21.0,5.0
2.476583242416382,23.0,22.0,14.0,51.0,9.0
2.479416608810425,5.0,22.0,14.0,32.0,12.0
2.4822499752044678,22.0,0.0,14.0,13.0,0.0
2.4850666522979736,33.0,17.0,6.0,51.0,14.0
2.4878833293914795,5.0,14.0,5.0,5.0,10.0
2.4907000064849854,14.0,10.0,3.0,68.0,14.0
2.4935333728790283,25.0,7.0,0.0,32.0,0.0
2.496350049972534,32.0,18.0,5.0,21.0,5.0
2.49916672706604,0.0,29.0,14.0,11.0,9.0
2.501983404159546,32.0,373.0,10.0,17.0,12.0
2.5048000812530518,496.0,193.0,5.0,17.0,13.0
2.5076167583465576,385.0,13.0,3.0,16.0,36.0
2.510499954223633,32.0,18.0,0.0,24.0,44.0
2.5133166313171387,31.0,226.0,3.0,15.0,39.0
2.5161333084106445,16.0,119.0,5.0,5.0,41.0
2.5189499855041504,5.0,13.0,5.0,8.0,25.0
2.5217666625976562,28.0,18.0,8.0,10.0,18.0
2.524583339691162,23.0,26.0,10.0,27.0,41.0
2.5274667739868164,40.0,20.0,33.0,24.0,29.0
2.5302834510803223,39.0,5.0,17.0,30.0,7.0
2.533099889755249,19.0,321.0,0.0,21.0,24.0
2.535916566848755,21.0,253.0,5.0,15.0,39.0
2.5387332439422607,21.0,38.0,918.0,8.0,5.0
2.5415499210357666,15.0,37.0,894.0,13.0,36.0
2.544416666030884,22.0,35.0,10.0,17.0,0.0
2.5472333431243896,0.0,33.0,21.0,5.0,12.0
2.5500500202178955,0.0,32.0,8.0,30.0,19.0
2.5528666973114014,22.0,117.0,0.0,32.0,22.0
2.5557000637054443,18.0,203.0,8.0,34.0,16.0
2.55851674079895,34.0,111.0,15.0,23.0,22.0
2.561350107192993,16.0,18.0,25.0,38.0,28.0
2.564166784286499,5.0,56.0,19.0,18.0,113.0
2.566983222961426,38.0,137.0,12.0,23.0,61.0
2.5697999000549316,24.0,190.0,0.0,25.0,10.0
2.5726165771484375,30.0,244.0,58.0,10.0,25.0
2.5754332542419434,36.0,125.0,52.0,21.0,41.0
2.5783166885375977,20.0,6.0,46.0,31.0,5.0
2.5811333656311035,33.0,229.0,963.0,10.0,21.0
2.5839500427246094,47.0,122.0,1080.0,29.0,28.0
2.5867667198181152,7.0,15.0,6.0,16.0,35.0
2.589583396911621,54.0,428.0,21.0,12.0,32.0
2.592400074005127,48.0,841.0,43.0,15.0,16.0
2.595266580581665,27.0,4324.0,24.0,15.0,10.0
2.598083257675171,15.0,10052.0,183.0,14.0,11.0
2.6008999347686768,23.0,20660.0,988.0,14.0,23.0
2.6037166118621826,30.0,40736.0,2168.0,487.0,34.0
2.6065332889556885,30.0,74528.0,2886.0,960.0,36.0
2.6093499660491943,30.0,107632.0,4669.0,1678.0,382.0
2.6122334003448486,31.0,210560.0,6006.0,1373.0,728.0
2.6150500774383545,33.0,296576.0,16440.0,1068.0,1011.0
2.6178667545318604,32.0,339584.0,19528.0,5324.0,2117.0
2.620683431625366,31.0,476672.0,20884.0,6986.0,2358.0
2.623500108718872,19.0,556032.0,33856.0,8984.0,1893.0
2.626316785812378,7.0,560128.0,29516.0,6567.0,2032.0
2.629183292388916,40.0,618496.0,30376.0,6308.0,1699.0
2.631999969482422,24.0,742400.0,36224.0,7534.0,2046.0
2.634833335876465,12.0,781312.0,37120.0,9316.0,2029.0
2.6376500129699707,73.0,716288.0,38000.0,12064.0,2011.0
2.6404666900634766,45.0,726016.0,39760.0,11184.0,1851.0
2.6432833671569824,16.0,651520.0,40624.0,9744.0,2397.0
2.6461501121520996,56.0,707328.0,41504.0,10572.0,2506.0
2.6489665508270264,17.0,686848.0,32008.0,9616.0,2616.0
2.6517832279205322,54.0,703488.0,37824.0,7185.0,2172.0
2.654599905014038,46.0,727296.0,35600.0,4655.0,1728.0
2.657416582107544,38.0,735744.0,37856.0,5347.0,2021.0
2.66023325920105,33.0,761600.0,43568.0,4806.0,2315.0
2.663100004196167,0.0,753664.0,43008.0,4265.0,1741.0
2.66593337059021,14.0,745728.0,34832.0,7148.0,1487.0
2.668750047683716,29.0,735488.0,35488.0,7682.0,1551.0
2.6715667247772217,44.0,701440.0,38528.0,6798.0,581.0
2.6743834018707275,32.0,666624.0,37360.0,5692.0,483.0
2.6772000789642334,17.0,581120.0,30092.0,4158.0,255.0
2.6800665855407715,44.0,528640.0,23580.0,6196.0,26.0
2.6828832626342773,20.0,485824.0,24180.0,3874.0,35.0
2.685699939727783,46.0,412608.0,23916.0,1551.0,427.0
2.688516616821289,38.0,352256.0,10020.0,5000.0,820.0
2.691333293914795,19.0,262912.0,23796.0,4137.0,2071.0
2.694149971008301,23.0,228416.0,7671.0,5154.0,1178.0
2.697016716003418,31.0,205888.0,8324.0,5713.0,285.0
2.699833393096924,38.0,150784.0,8840.0,3771.0,5.0
2.7026500701904297,41.0,103376.0,3111.0,649.0,493.0
2.7054834365844727,36.0,74080.0,3482.0,65.0,22.0
2.7083001136779785,28.0,60560.0,2089.0,629.0,31.0
2.7111165523529053,30.0,49152.0,1485.0,28.0,37.0
2.7139832973480225,32.0,24176.0,275.0,15.0,6.0
2.7167999744415283,33.0,29272.0,1084.0,539.0,36.0
2.719616651535034,35.0,12636.0,1431.0,70.0,54.0
2.72243332862854,17.0,17476.0,459.0,68.0,17.0
2.725250005722046,15.0,14292.0,63.0,307.0,63.0
2.7280666828155518,12.0,19292.0,39.0,21.0,479.0
2.730933427810669,9.0,2833.0,33.0,6.0,256.0
2.733750104904175,6.0,10220.0,28.0,44.0,32.0
2.7365832328796387,10.0,7269.0,27.0,47.0,59.0
2.7393999099731445,25.0,7858.0,26.0,50.0,21.0
2.7422165870666504,39.0,8720.0,44.0,45.0,54.0
2.7450332641601562,44.0,4738.0,61.0,41.0,34.0
2.7479000091552734,52.0,7876.0,45.0,33.0,10.0
2.7507166862487793,61.0,7136.0,29.0,25.0,23.0
2.753533363342285,37.0,9808.0,16.0,1028.0,21.0
2.756350040435791,13.0,3380.0,13.0,1369.0,26.0
2.759166717529297,19.0,6369.0,10.0,0.0,30.0
2.7619833946228027,25.0,11368.0,1007.0,12.0,33.0
2.764866590499878,28.0,4549.0,935.0,1728.0,36.0
2.767683267593384,40.0,5702.0,53.0,385.0,28.0
2.7704999446868896,52.0,5853.0,43.0,62.0,24.0
2.7733166217803955,53.0,4869.0,579.0,54.0,32.0
2.7761332988739014,46.0,4392.0,148.0,23.0,0.0
2.7789499759674072,11.0,4324.0,17.0,6.0,14.0
2.7818167209625244,5.0,4256.0,31.0,12.0,211.0
2.7846333980560303,29.0,5330.0,36.0,18.0,119.0
2.787450075149536,15.0,2505.0,18.0,33.0,28.0
2.790266752243042,21.0,2822.0,17.0,570.0,11.0
2.793083429336548,26.0,2777.0,10.0,291.0,14.0
2.7959001064300537,36.0,2990.0,27.0,12.0,17.0
2.798783302307129,27.0,2700.0,14.0,835.0,671.0
2.8015999794006348,17.0,376.0,0.0,420.0,346.0
2.8044166564941406,23.0,1784.0,5.0,6.0,22.0
2.8072333335876465,10.0,2413.0,39.0,312.0,316.0
2.8100500106811523,26.0,474.0,60.0,1214.0,609.0
2.812866687774658,18.0,1954.0,328.0,1765.0,323.0
2.8157498836517334,22.0,585.0,170.0,1201.0,36.0
2.8185665607452393,25.0,2081.0,13.0,685.0,695.0
2.821383237838745,45.0,1901.0,10.0,30.0,533.0
2.824199914932251,50.0,1721.0,7.0,169.0,370.0
2.827016592025757,36.0,2361.0,0.0,866.0,338.0
2.8298332691192627,23.0,52.0,18.0,6.0,372.0
2.83270001411438,17.0,2467.0,36.0,442.0,26.0
2.8355166912078857,10.0,3002.0,52.0,926.0,513.0
2.8383500576019287,11.0,726.0,37.0,24.0,999.0
2.8411667346954346,27.0,768.0,23.0,5.0,758.0
2.8439834117889404,21.0,850.0,13.0,377.0,518.0
2.8468000888824463,15.0,451.0,27.0,828.0,268.0
2.8496665954589844,25.0,51.0,42.0,1280.0,19.0
2.8524832725524902,35.0,680.0,29.0,647.0,12.0
2.855299949645996,5.0,405.0,16.0,13.0,26.0
2.858116626739502,33.0,131.0,30.0,1206.0,27.0
2.860933303833008,19.0,761.0,22.0,267.0,28.0
2.8637499809265137,27.0,1391.0,15.0,23.0,668.0
2.8666000366210938,16.0,2273.0,10.0,15.0,358.0
2.8694167137145996,17.0,2196.0,37.0,5.0,49.0
2.8722333908081055,18.0,2526.0,48.0,13.0,12.0
2.8750500679016113,18.0,0.0,30.0,32.0,46.0
2.877866744995117,20.0,279.0,14.0,25.0,42.0
2.880683422088623,21.0,789.0,34.0,17.0,37.0
2.883549928665161,26.0,344.0,46.0,41.0,35.0
2.886366605758667,13.0,2939.0,36.0,43.0,73.0
2.889183282852173,0.0,3802.0,1185.0,44.0,110.0
2.8919999599456787,36.0,5918.0,5188.0,15.0,4452.0
2.8948166370391846,21.0,20284.0,11776.0,169.0,6118.0
2.8976333141326904,40.0,42784.0,42976.0,5611.0,18384.0
2.9004833698272705,5.0,93808.0,87424.0,14892.0,47680.0
2.9033000469207764,14.0,232256.0,182976.0,26500.0,112976.0
2.9061167240142822,22.0,360256.0,348864.0,36480.0,194432.0
2.908933401107788,26.0,677632.0,609536.0,67088.0,338304.0
2.911750078201294,20.0,993792.0,898304.0,108064.0,449088.0
2.9145667552948,14.0,1334784.0,1161216.0,130208.0,675328.0
2.917449951171875,30.0,1633280.0,1380864.0,158976.0,692480.0
2.920266628265381,83.0,2017280.0,1712128.0,192448.0,790784.0
2.9230833053588867,221.0,2222080.0,1829888.0,221696.0,954624.0
2.9258999824523926,130.0,2562048.0,2051584.0,234240.0,1040384.0
2.9287166595458984,38.0,2616320.0,2129920.0,236928.0,1087488.0
2.9315333366394043,179.0,2906112.0,2402304.0,294976.0,1206016.0
2.9344000816345215,72.0,2975744.0,2451456.0,290688.0,1281536.0
2.9372334480285645,55.0,3101696.0,2497536.0,265600.0,1183232.0
2.940049886703491,38.0,3240960.0,2521088.0,288832.0,1234432.0
2.942866563796997,108.0,3146752.0,2701312.0,335232.0,1285632.0
2.945683240890503,92.0,3377152.0,2699264.0,327872.0,1394944.0
2.948499917984009,765.0,3364864.0,2896896.0,339200.0,1343488.0
2.951366662979126,1479.0,3351552.0,2789376.0,339520.0,1406976.0
2.954183340072632,800.0,3436544.0,2866176.0,328064.0,1390080.0
2.9570000171661377,121.0,3475456.0,2918400.0,340608.0,1413376.0
2.9598166942596436,974.0,3515392.0,2902016.0,345024.0,1380096.0
2.9626333713531494,1417.0,3264512.0,2719744.0,287488.0,1399296.0
2.9654500484466553,102.0,3319808.0,2777088.0,351168.0,1355264.0
2.9683332443237305,138.0,3207168.0,2563072.0,335488.0,1242368.0
2.9711499214172363,516.0,2898944.0,2213888.0,249216.0,1104896.0
2.973966598510742,894.0,2669568.0,2146304.0,257344.0,1063680.0
2.976783275604248,879.0,2485248.0,1892352.0,213312.0,937728.0
2.979599952697754,519.0,1937152.0,1612288.0,180032.0,830720.0
2.9824166297912598,157.0,1767680.0,1331200.0,153664.0,660224.0
2.985283374786377,63.0,1469184.0,1177088.0,145728.0,516608.0
2.988100051879883,678.0,1270016.0,954624.0,122848.0,464320.0
2.990933418273926,853.0,982784.0,740352.0,92224.0,335296.0
2.9937500953674316,80.0,787968.0,632576.0,78544.0,267840.0
2.9965667724609375,886.0,576256.0,448512.0,65888.0,222208.0
2.9993834495544434,943.0,443648.0,386240.0,41232.0,197696.0
3.0011000633239746,43.0,388928.0,339776.0,32384.0,140032.0
3.0022499561309814,777.0,368704.0,273280.0,26128.0,149568.0
3.003333330154419,428.0,326016.0,262080.0,26896.0,126768.0
3.0044167041778564,79.0,297088.0,226240.0,26408.0,118160.0
3.005500078201294,768.0,273344.0,207488.0,24392.0,90288.0
3.0065834522247314,364.0,294400.0,224256.0,26252.0,109264.0
3.00766658782959,110.0,243456.0,183360.0,21196.0,85584.0
3.0087499618530273,53.0,227648.0,191808.0,25824.0,84272.0
3.009833335876465,51.0,215808.0,173632.0,21252.0,84944.0
3.0109167098999023,44.0,241536.0,146944.0,19932.0,82608.0
3.01200008392334,35.0,184320.0,135872.0,18012.0,80272.0
3.0130832195281982,33.0,177472.0,158976.0,12584.0,67088.0
3.0141665935516357,293.0,175744.0,139456.0,7919.0,67792.0
3.0152499675750732,333.0,151232.0,137600.0,13488.0,64128.0
3.0163333415985107,99.0,160576.0,113408.0,11116.0,55776.0
3.0174167156219482,87.0,149248.0,123472.0,15156.0,61376.0
3.018533229827881,75.0,141440.0,117056.0,10528.0,68912.0
3.0196499824523926,46.0,136128.0,107952.0,12480.0,53184.0
3.02073335647583,31.0,128640.0,82544.0,14432.0,54736.0
3.0218167304992676,514.0,136256.0,119408.0,13296.0,55120.0
3.022900104522705,517.0,118752.0,99504.0,12344.0,47200.0
3.0239832401275635,62.0,131840.0,91376.0,11648.0,46192.0
3.025066614151001,50.0,125984.0,101200.0,10756.0,40912.0
3.0261499881744385,63.0,121824.0,92640.0,11100.0,44736.0
3.027233362197876,39.0,125344.0,76688.0,12644.0,45232.0
3.0283167362213135,29.0,110400.0,103328.0,12704.0,33920.0
3.029400110244751,32.0,127104.0,85264.0,7685.0,45776.0
3.0304832458496094,53.0,92016.0,77568.0,11156.0,30704.0
3.031566619873047,76.0,108080.0,87584.0,13688.0,46112.0
3.0326499938964844,65.0,95696.0,61104.0,10344.0,33712.0
3.033733367919922,16.0,106464.0,71056.0,3326.0,38688.0
3.0348167419433594,63.0,77664.0,64208.0,7188.0,35440.0
3.035949945449829,43.0,93840.0,65392.0,8548.0,32108.0
3.0370333194732666,56.0,71184.0,69344.0,9924.0,28768.0
3.038116693496704,49.0,86448.0,47056.0,6452.0,28580.0
3.0392000675201416,42.0,79552.0,58576.0,8700.0,26576.0
3.040283441543579,74.0,71488.0,59856.0,5333.0,29104.0
3.0413665771484375,59.0,74160.0,53744.0,6265.0,23316.0
3.042449951171875,44.0,67936.0,51680.0,1860.0,17532.0
3.0435333251953125,34.0,65104.0,45664.0,8027.0,23944.0
3.04461669921875,45.0,71696.0,55776.0,4528.0,22360.0
3.0457000732421875,51.0,58704.0,49040.0,4049.0,14772.0
3.046783447265625,43.0,58128.0,57152.0,5557.0,24100.0
3.0478665828704834,22.0,50352.0,41776.0,4049.0,20988.0
3.048949956893921,23.0,52336.0,40800.0,5687.0,26324.0
3.0500333309173584,16.0,54304.0,46688.0,5824.0,16384.0
3.051116704940796,25.0,50720.0,42320.0,5125.0,14876.0
3.0522000789642334,26.0,36192.0,42096.0,4931.0,13448.0
3.0533499717712402,26.0,49168.0,46496.0,4737.0,14376.0
3.0544333457946777,26.0,44368.0,34720.0,5378.0,15304.0
3.0555167198181152,44.0,44048.0,38784.0,3867.0,13088.0
3.0566000938415527,32.0,42944.0,39040.0,2933.0,12096.0
3.057683229446411,21.0,45568.0,36576.0,3174.0,11104.0
3.0587666034698486,44.0,44096.0,34128.0,3882.0,9376.0
3.059849977493286,46.0,42624.0,39872.0,3100.0,12980.0
3.0609333515167236,38.0,46384.0,40368.0,4120.0,17024.0
3.062016725540161,38.0,43008.0,18612.0,3416.0,19080.0
3.0631000995635986,27.0,31556.0,27104.0,2712.0,15696.0
3.064183235168457,31.0,44272.0,39792.0,2830.0,7672.0
3.0652666091918945,31.0,37584.0,25124.0,2947.0,17628.0
3.066349983215332,30.0,36304.0,37024.0,3421.0,18476.0
3.0674333572387695,33.0,27700.0,28192.0,3545.0,12224.0
3.068516731262207,10.0,28924.0,28896.0,2045.0,13076.0
3.0696499347686768,22.0,34688.0,35728.0,997.0,10600.0
3.0707333087921143,46.0,36000.0,23020.0,2827.0,10928.0
3.0718166828155518,49.0,39504.0,31252.0,1696.0,12800.0
3.0729000568389893,76.0,30336.0,27808.0,566.0,12380.0
3.0739834308624268,0.0,31804.0,24988.0,1132.0,6833.0
3.075066566467285,11.0,29448.0,23564.0,1242.0,7463.0
3.0761499404907227,34.0,29208.0,28572.0,1352.0,7070.0
3.07723331451416,44.0,20144.0,16668.0,4313.0,7548.0
3.0783166885375977,17.0,27528.0,16048.0,3327.0,8025.0
3.079400062561035,10.0,24848.0,27656.0,2341.0,5188.0
3.0804834365844727,43.0,25440.0,19684.0,2135.0,8820.0
3.081566572189331,18.0,26032.0,16464.0,3605.0,11864.0
3.0826499462127686,39.0,19196.0,26276.0,1683.0,10976.0
3.083733320236206,576.0,27244.0,20040.0,3174.0,10580.0
3.0848166942596436,556.0,24920.0,18904.0,3400.0,11332.0
3.085900068283081,41.0,22592.0,21932.0,4038.0,12084.0
3.087049961090088,26.0,23204.0,12672.0,1300.0,10624.0
3.0881333351135254,54.0,18112.0,20404.0,4781.0,9160.0
3.089216709136963,34.0,19868.0,18544.0,3835.0,11784.0
3.0903000831604004,14.0,24660.0,22164.0,2899.0,5813.0
3.091383218765259,18.0,22532.0,19352.0,3756.0,6420.0
3.0924665927886963,14.0,22012.0,16540.0,2609.0,7026.0
3.093549966812134,26.0,22724.0,13100.0,2423.0,4562.0
3.0946333408355713,20.0,23436.0,16396.0,1793.0,9528.0
3.095716714859009,13.0,23452.0,19908.0,2136.0,8700.0
3.0968000888824463,23.0,23468.0,20680.0,2679.0,7873.0
3.0978832244873047,21.0,22916.0,19948.0,3222.0,8296.0
3.098966598510742,18.0,21336.0,18592.0,669.0,8716.0
3.1000499725341797,28.0,13840.0,16376.0,4243.0,7664.0
3.101133346557617,19.0,18796.0,13072.0,2549.0,6614.0
3.1022167205810547,10.0,23992.0,16732.0,4346.0,7316.0
3.1033332347869873,22.0,17812.0,8660.0,1276.0,8019.0
3.104433298110962,0.0,24204.0,16400.0,4865.0,5843.0
3.1055166721343994,26.0,15344.0,21104.0,3132.0,6514.0
3.106600046157837,16.0,17000.0,24132.0,2981.0,5456.0
3.1076834201812744,5.0,18436.0,17232.0,2545.0,7325.0
3.108766555786133,6.0,21596.0,13152.0,1147.0,4062.0
3.1098499298095703,11.0,19828.0,16932.0,46.0,6571.0
3.110933303833008,15.0,18404.0,10308.0,737.0,4570.0
3.1120166778564453,15.0,16464.0,14720.0,393.0,6910.0
3.113100051879883,20.0,16768.0,12288.0,49.0,3563.0
3.1141834259033203,24.0,16368.0,15012.0,4006.0,1999.0
3.1152665615081787,18.0,21576.0,13540.0,3577.0,7515.0
3.1163666248321533,11.0,7817.0,12068.0,1790.0,4281.0
3.1174333095550537,6.0,13092.0,14476.0,1912.0,6491.0
3.118516683578491,0.0,20488.0,15052.0,2915.0,7239.0
3.1196000576019287,3.0,22240.0,11048.0,1679.0,6465.0
3.1207499504089355,5.0,19848.0,9432.0,2470.0,5717.0
3.121833324432373,43.0,12588.0,9056.0,3262.0,1794.0
3.1229166984558105,40.0,18284.0,8036.0,317.0,9036.0
3.124000072479248,37.0,20316.0,10200.0,837.0,8904.0
3.1250834465026855,23.0,18268.0,10364.0,1794.0,5107.0
3.126166582107544,83.0,13316.0,10524.0,3121.0,4874.0
3.1272499561309814,78.0,12396.0,12736.0,3438.0,4369.0
3.128333330154419,73.0,13036.0,14944.0,759.0,2017.0
3.1294167041778564,40.0,14964.0,13424.0,38.0,5762.0
3.130500078201294,10.0,14416.0,5461.0,1740.0,3904.0
3.1315834522247314,49.0,13872.0,8356.0,1327.0,6781.0
3.13266658782959,46.0,12192.0,9996.0,11.0,6093.0
3.1337499618530273,43.0,15876.0,9920.0,690.0,4638.0
3.134833335876465,50.0,14260.0,9844.0,1863.0,2909.0
3.1359167098999023,56.0,14544.0,10948.0,17.0,6589.0
3.13700008392334,63.0,14016.0,10936.0,291.0,4584.0
3.1381332874298096,59.0,13488.0,10924.0,1211.0,6039.0
3.139216661453247,55.0,14864.0,10292.0,1280.0,3933.0
3.1403000354766846,55.0,12260.0,10732.0,15.0,6032.0
3.141383409500122,0.0,5772.0,7910.0,44.0,2732.0
3.1424667835235596,12.0,12252.0,6289.0,529.0,3043.0
3.143549919128418,0.0,6568.0,8174.0,1093.0,1578.0
3.1446499824523926,53.0,11512.0,3121.0,935.0,2495.0
3.145716667175293,39.0,7994.0,6450.0,778.0,2977.0
3.1468000411987305,17.0,6127.0,8800.0,420.0,3458.0
3.147883415222168,18.0,2894.0,3506.0,62.0,4149.0
3.1489665508270264,20.0,5749.0,6011.0,802.0,588.0
3.150049924850464,25.0,2940.0,4621.0,28.0,33.0
3.1511332988739014,7.0,5436.0,848.0,151.0,1058.0
3.152216672897339,23.0,2732.0,1800.0,43.0,599.0
3.1533167362213135,11.0,4794.0,780.0,43.0,313.0
3.154449939727783,32.0,1572.0,1600.0,44.0,26.0
3.1555333137512207,27.0,2410.0,1533.0,45.0,773.0
3.156616687774658,17.0,3050.0,1155.0,47.0,5.0
3.1577000617980957,14.0,1760.0,1771.0,15.0,264.0
3.158783435821533,10.0,469.0,785.0,752.0,65.0
3.1598665714263916,13.0,3592.0,1141.0,888.0,45.0
3.160949945449829,21.0,1292.0,60.0,463.0,120.0
3.1620333194732666,22.0,1977.0,81.0,37.0,196.0
3.163116693496704,29.0,147.0,669.0,14.0,101.0
3.1642000675201416,27.0,790.0,354.0,7.0,5.0
3.165283441543579,24.0,17.0,39.0,21.0,377.0
3.1663665771484375,29.0,404.0,416.0,14.0,892.0
3.167449951171875,34.0,792.0,225.0,23.0,815.0
3.1685333251953125,50.0,961.0,34.0,32.0,124.0
3.16961669921875,37.0,1131.0,2196.0,26.0,736.0
3.1707000732421875,23.0,796.0,2151.0,19.0,678.0
3.1718332767486572,27.0,56.0,289.0,39.0,342.0
3.1729166507720947,36.0,459.0,946.0,15.0,5.0
3.1740000247955322,27.0,476.0,805.0,16.0,23.0
3.1750833988189697,18.0,773.0,637.0,16.0,41.0
3.1761667728424072,38.0,629.0,986.0,14.0,12.0
3.1772499084472656,25.0,486.0,1335.0,11.0,53.0
3.178333282470703,13.0,802.0,24.0,8.0,45.0
3.1794166564941406,10.0,1118.0,567.0,15.0,24.0
3.180500030517578,20.0,1304.0,657.0,0.0,10.0
3.1815834045410156,11.0,1491.0,907.0,25.0,63.0
3.182666778564453,14.0,734.0,1304.0,31.0,569.0
3.1837499141693115,16.0,1440.0,1255.0,36.0,1075.0
3.184833288192749,30.0,47.0,1205.0,32.0,1459.0
3.1859166622161865,44.0,880.0,777.0,28.0,41.0
3.187000036239624,39.0,827.0,350.0,19.0,23.0
3.1881332397460938,29.0,0.0,188.0,26.0,608.0
3.1892333030700684,20.0,662.0,25.0,12.0,38.0
3.190316677093506,27.0,1081.0,56.0,14.0,0.0
3.1914000511169434,34.0,1043.0,57.0,27.0,26.0
3.192483425140381,16.0,1004.0,479.0,53.0,58.0
3.1935665607452393,14.0,1200.0,390.0,59.0,41.0
3.1946499347686768,11.0,1396.0,301.0,66.0,24.0
3.1957333087921143,21.0,2632.0,54.0,12.0,23.0
3.1968166828155518,19.0,2893.0,1113.0,23.0,22.0
3.1979000568389893,16.0,1006.0,1679.0,35.0,11.0
3.1989834308624268,23.0,17.0,2735.0,30.0,29.0
