,285.1600036621094,286.1600036621094,287.1600036621094,288.1600036621094,289.1600036621094,290.1600036621094,291.1600036621094
3.001516580581665,67.0,10.0,65.0,39.0,70.0,3212.0,2156.0
3.003033399581909,20.0,59.0,25.0,326.0,5.0,6119.0,1619.0
3.004549980163574,31.0,15.0,42.0,1271.0,18.0,3188.0,1199.0
3.0060665607452393,36.0,15.0,15.0,19.0,27.0,4833.0,4687.0
3.0075833797454834,41.0,46.0,33.0,75.0,905.0,4709.0,4323.0
3.0090999603271484,46.0,18.0,23.0,7.0,697.0,4606.0,3588.0
3.0106167793273926,18.0,27.0,33.0,20.0,28.0,4471.0,4102.0
3.0121333599090576,52.0,23.0,42.0,41.0,20.0,4568.0,4964.0
3.0136499404907227,37.0,24.0,5.0,23.0,222.0,4030.0,6472.0
3.015166759490967,5.0,25.0,12.0,29.0,5.0,3492.0,6100.0
3.016683340072632,38.0,0.0,39.0,35.0,27.0,3036.0,7079.0
3.0182666778564453,27.0,7.0,5.0,24.0,40.0,2972.0,5619.0
3.0197832584381104,24.0,14.0,0.0,13.0,13.0,2221.0,2783.0
3.0213000774383545,40.0,17.0,39.0,28.0,13.0,4379.0,4670.0
3.0228166580200195,35.0,10.0,40.0,10.0,22.0,995.0,6668.0
3.0243332386016846,19.0,11.0,32.0,25.0,22.0,1820.0,3242.0
3.0258500576019287,32.0,12.0,42.0,39.0,48.0,2784.0,4069.0
3.0273666381835938,12.0,30.0,44.0,36.0,37.0,3055.0,8452.0
3.028883218765259,20.0,35.0,45.0,6.0,26.0,2109.0,7042.0
3.030400037765503,34.0,40.0,15.0,8.0,28.0,164.0,5401.0
3.031916618347168,16.0,18.0,31.0,18.0,49.0,3727.0,3760.0
3.033433437347412,7.0,22.0,23.0,39.0,419.0,1539.0,3480.0
3.0350000858306885,41.0,19.0,25.0,36.0,228.0,3339.0,5168.0
3.0365166664123535,23.0,16.0,69.0,32.0,37.0,3891.0,5026.0
3.0380332469940186,29.0,16.0,67.0,24.0,29.0,1022.0,5044.0
3.0395500659942627,66.0,15.0,65.0,31.0,7.0,4543.0,4113.0
3.0410666465759277,74.0,38.0,6.0,32.0,51.0,6183.0,1778.0
3.0425832271575928,36.0,29.0,6.0,0.0,37.0,3748.0,1104.0
3.044100046157837,10.0,19.0,20.0,42.0,0.0,634.0,4081.0
3.045616626739502,0.0,11.0,10.0,20.0,16.0,1742.0,3355.0
3.047133445739746,23.0,18.0,18.0,30.0,24.0,3295.0,1086.0
3.048650026321411,26.0,14.0,26.0,28.0,33.0,1571.0,1578.0
3.050166606903076,28.0,11.0,5.0,26.0,39.0,1388.0,2071.0
3.0517499446868896,20.0,15.0,5.0,31.0,45.0,4074.0,3658.0
3.053266763687134,20.0,5.0,24.0,28.0,20.0,2428.0,5346.0
3.054783344268799,14.0,35.0,5.0,25.0,19.0,890.0,6297.0
3.056299924850464,20.0,29.0,13.0,10.0,43.0,3306.0,1486.0
3.057816743850708,19.0,22.0,10.0,381.0,52.0,77.0,3484.0
3.059333324432373,18.0,30.0,19.0,815.0,62.0,4470.0,3922.0
3.060849905014038,18.0,37.0,16.0,870.0,66.0,2400.0,2802.0
3.0623667240142822,17.0,33.0,12.0,58.0,27.0,736.0,2621.0
3.0638833045959473,16.0,28.0,14.0,46.0,5.0,3707.0,4631.0
3.0653998851776123,13.0,6.0,15.0,872.0,31.0,1192.0,3912.0
3.0669167041778564,14.0,29.0,18.0,43.0,13.0,888.0,3378.0
3.06850004196167,21.0,28.0,20.0,23.0,25.0,3058.0,2426.0
3.070016622543335,27.0,20.0,23.0,25.0,30.0,936.0,2993.0
3.071533441543579,20.0,19.0,21.0,52.0,35.0,3048.0,3560.0
3.073050022125244,12.0,29.0,18.0,76.0,40.0,1891.0,360.0
3.074566602706909,6.0,13.0,19.0,73.0,20.0,2381.0,3260.0
3.0760834217071533,18.0,0.0,19.0,70.0,0.0,385.0,2160.0
3.0776000022888184,17.0,29.0,0.0,26.0,0.0,2367.0,1334.0
3.0791165828704834,16.0,15.0,182.0,25.0,0.0,1990.0,1475.0
3.0806334018707275,13.0,22.0,94.0,27.0,35.0,1938.0,2320.0
3.0821499824523926,10.0,27.0,5.0,24.0,26.0,1885.0,2324.0
3.0836665630340576,20.0,23.0,29.0,15.0,15.0,1829.0,2328.0
3.085249900817871,17.0,17.0,38.0,5.0,17.0,17.0,656.0
3.0867667198181152,15.0,20.0,25.0,14.0,19.0,1716.0,3146.0
3.0882833003997803,10.0,21.0,56.0,12.0,88.0,1815.0,2822.0
3.0897998809814453,12.0,22.0,39.0,10.0,62.0,1496.0,2410.0
3.0913166999816895,14.0,69.0,22.0,15.0,36.0,1505.0,1999.0
3.0928332805633545,17.0,44.0,44.0,10.0,96.0,1514.0,882.0
3.0943500995635986,20.0,19.0,67.0,54.0,12.0,2214.0,2748.0
3.0958666801452637,20.0,29.0,48.0,43.0,26.0,2441.0,901.0
3.0973832607269287,21.0,39.0,29.0,31.0,10.0,2668.0,1621.0
3.098900079727173,16.0,16.0,42.0,0.0,28.0,724.0,2455.0
3.100416660308838,10.0,10.0,35.0,38.0,23.0,1454.0,2845.0
3.1019833087921143,9.0,20.0,38.0,26.0,23.0,1399.0,3235.0
3.1035165786743164,7.0,30.0,22.0,15.0,21.0,1843.0,3580.0
3.1050333976745605,10.0,36.0,24.0,48.0,19.0,2446.0,2196.0
3.1065499782562256,17.0,41.0,20.0,47.0,12.0,3836.0,2752.0
3.1080665588378906,16.0,17.0,13.0,38.0,40.0,3005.0,3101.0
3.1095833778381348,30.0,15.0,6.0,16.0,51.0,2174.0,1473.0
3.1110999584198,26.0,46.0,23.0,60.0,62.0,1061.0,2919.0
3.112616777420044,16.0,10.0,17.0,41.0,14.0,3270.0,2971.0
3.114133358001709,34.0,42.0,11.0,23.0,15.0,2350.0,998.0
3.115649938583374,52.0,47.0,5.0,5.0,56.0,1590.0,2681.0
3.117166757583618,52.0,28.0,22.0,16.0,19.0,1888.0,3011.0
3.118683338165283,13.0,5.0,33.0,37.0,10.0,486.0,2038.0
3.1202666759490967,10.0,20.0,43.0,57.0,7.0,1703.0,2301.0
3.1217832565307617,17.0,26.0,33.0,41.0,12.0,312.0,1893.0
3.123300075531006,0.0,5.0,22.0,24.0,16.0,3151.0,711.0
3.124816656112671,3.0,5.0,45.0,23.0,29.0,3370.0,2428.0
3.126333236694336,5.0,0.0,69.0,27.0,28.0,3291.0,286.0
3.12785005569458,5.0,22.0,56.0,26.0,30.0,857.0,66.0
3.129366636276245,16.0,11.0,53.0,26.0,32.0,747.0,994.0
3.13088321685791,27.0,0.0,50.0,35.0,24.0,2300.0,1286.0
3.1324000358581543,24.0,15.0,40.0,46.0,16.0,635.0,1578.0
3.1339166164398193,20.0,30.0,29.0,5.0,0.0,11.0,394.0
3.1354334354400635,30.0,27.0,15.0,36.0,38.0,40.0,439.0
3.13700008392334,17.0,21.0,54.0,16.0,39.0,578.0,956.0
3.138516664505005,24.0,19.0,37.0,45.0,47.0,27.0,550.0
3.14003324508667,31.0,17.0,19.0,5.0,10.0,493.0,36.0
3.141550064086914,8.0,25.0,45.0,5.0,31.0,0.0,702.0
3.143083333969116,10.0,32.0,27.0,17.0,58.0,452.0,393.0
3.144583225250244,43.0,36.0,10.0,22.0,17.0,233.0,84.0
3.1461000442504883,37.0,22.0,34.0,29.0,15.0,15.0,465.0
3.1476166248321533,25.0,26.0,12.0,12.0,12.0,26.0,847.0
3.1491334438323975,13.0,30.0,5.0,34.0,14.0,18.0,576.0
3.1506500244140625,0.0,30.0,41.0,18.0,15.0,5.0,304.0
3.1521832942962646,37.0,36.0,10.0,39.0,20.0,34.0,647.0
3.153749942779541,46.0,16.0,36.0,55.0,18.0,0.0,39.0
3.155266761779785,41.0,30.0,34.0,43.0,19.0,0.0,14.0
3.15678334236145,21.0,27.0,35.0,31.0,12.0,15.0,24.0
3.1582999229431152,27.0,23.0,35.0,44.0,47.0,27.0,23.0
3.1598167419433594,31.0,13.0,30.0,20.0,48.0,32.0,14.0
3.1613333225250244,5.0,17.0,24.0,21.0,22.0,30.0,0.0
3.1628499031066895,48.0,20.0,26.0,27.0,11.0,27.0,17.0
3.1643667221069336,54.0,17.0,0.0,21.0,46.0,11.0,33.0
3.1658833026885986,19.0,14.0,41.0,14.0,12.0,13.0,61.0
3.1673998832702637,5.0,5.0,32.0,21.0,11.0,14.0,45.0
3.168916702270508,57.0,39.0,50.0,5.0,0.0,5.0,27.0
3.1705000400543213,35.0,32.0,10.0,5.0,22.0,9.0,14.0
3.1720166206359863,28.0,5.0,40.0,18.0,17.0,13.0,322.0
3.1735334396362305,66.0,10.0,47.0,8.0,11.0,6.0,194.0
3.1750500202178955,47.0,21.0,53.0,13.0,23.0,13.0,66.0
3.1765666007995605,31.0,17.0,15.0,16.0,30.0,60.0,36.0
3.1780834197998047,53.0,13.0,10.0,18.0,33.0,63.0,6.0
3.1796000003814697,0.0,43.0,45.0,462.0,20.0,65.0,71.0
3.1811165809631348,42.0,39.0,10.0,255.0,7.0,52.0,15.0
3.182633399963379,32.0,34.0,36.0,47.0,34.0,7.0,60.0
3.184149980545044,22.0,23.0,62.0,12.0,40.0,30.0,33.0
3.185666561126709,10.0,29.0,10.0,21.0,23.0,53.0,47.0
3.1872334480285645,5.0,483.0,21.0,14.0,5.0,0.0,21.0
3.1887500286102295,37.0,439.0,12.0,6.0,43.0,30.0,72.0
3.1902666091918945,64.0,86.0,24.0,5.0,22.0,31.0,38.0
3.1917834281921387,45.0,55.0,30.0,19.0,24.0,6.0,5.0
3.1933000087738037,22.0,23.0,35.0,16.0,5.0,8.0,53.0
3.1948165893554688,10.0,42.0,19.0,10.0,117.0,9.0,66.0
3.196333408355713,11.0,32.0,21.0,14.0,120.0,10.0,35.0
3.197849988937378,33.0,32.0,22.0,18.0,0.0,11.0,21.0
3.199366569519043,58.0,23.0,24.0,15.0,5.0,10.0,6.0
3.200883388519287,47.0,16.0,22.0,8.0,38.0,16.0,10.0
3.202399969100952,44.0,24.0,20.0,0.0,39.0,21.0,11.0
3.2039833068847656,39.0,30.0,5.0,32.0,32.0,25.0,21.0
3.2054998874664307,48.0,22.0,8.0,39.0,9.0,5.0,16.0
3.207016706466675,33.0,13.0,21.0,46.0,34.0,10.0,10.0
3.20853328704834,46.0,33.0,33.0,25.0,24.0,11.0,52.0
3.210050106048584,46.0,42.0,58.0,34.0,28.0,515.0,464.0
3.211566686630249,14.0,41.0,42.0,42.0,34.0,277.0,700.0
3.213083267211914,54.0,40.0,26.0,29.0,300.0,39.0,668.0
3.214600086212158,10.0,40.0,18.0,1258.0,565.0,32.0,0.0
3.2161166667938232,25.0,39.0,10.0,1542.0,496.0,20.0,863.0
3.2176332473754883,5.0,2348.0,24.0,2951.0,426.0,646.0,1894.0
3.2191500663757324,9.0,3305.0,723.0,2753.0,3287.0,991.0,1534.0
3.220716714859009,12.0,1631.0,8968.0,2554.0,5472.0,1336.0,11.0
3.222249984741211,39.0,1725.0,9732.0,9540.0,7282.0,1956.0,43.0
3.223766565322876,35.0,1819.0,8368.0,8004.0,7494.0,4966.0,856.0
3.22528338432312,16.0,8592.0,18416.0,13668.0,14844.0,4498.0,2522.0
3.226799964904785,21.0,12516.0,30592.0,24616.0,21272.0,5183.0,2567.0
3.2283167839050293,28.0,12052.0,24084.0,36064.0,23360.0,10328.0,1982.0
3.2298333644866943,34.0,16360.0,28808.0,39008.0,30928.0,14480.0,1398.0
3.2313499450683594,37.0,17836.0,53344.0,42624.0,32580.0,10960.0,3556.0
3.2328667640686035,34.0,38944.0,68096.0,81008.0,54512.0,19924.0,4096.0
3.2343833446502686,30.0,40688.0,79856.0,89840.0,72160.0,31968.0,6747.0
3.2358999252319336,15.0,59184.0,99744.0,120176.0,86096.0,37056.0,8612.0
3.2374167442321777,10.0,68672.0,134400.0,156608.0,106656.0,32636.0,8968.0
3.239000082015991,27.0,76416.0,146112.0,155840.0,117328.0,52256.0,9320.0
3.2405166625976562,44.0,90496.0,214592.0,203200.0,120896.0,61248.0,13756.0
3.2420332431793213,100.0,131136.0,231040.0,244224.0,167744.0,67088.0,15780.0
3.2435500621795654,93.0,150336.0,232320.0,246464.0,212096.0,67360.0,20128.0
3.2450666427612305,70.0,168896.0,300800.0,342976.0,217280.0,95408.0,19440.0
3.2465832233428955,48.0,179456.0,358464.0,420352.0,291328.0,98704.0,23508.0
3.2481000423431396,61.0,202560.0,437568.0,474880.0,343616.0,138304.0,34448.0
3.2496166229248047,18.0,225728.0,504384.0,524544.0,342720.0,150080.0,36000.0
3.251133441925049,61.0,278720.0,559360.0,590336.0,429888.0,164160.0,39184.0
3.252650022506714,43.0,346496.0,615680.0,680192.0,397952.0,190848.0,42016.0
3.254166603088379,48.0,346176.0,674048.0,762880.0,457792.0,194624.0,44848.0
3.2557332515716553,52.0,393408.0,755968.0,816384.0,569088.0,229120.0,52864.0
3.2572500705718994,71.0,418624.0,825600.0,892160.0,650496.0,229760.0,56448.0
3.2587666511535645,89.0,494848.0,894208.0,978176.0,675840.0,230336.0,60016.0
3.2602832317352295,88.0,492672.0,1005824.0,1054208.0,704512.0,250496.0,69664.0
3.2618000507354736,122.0,540672.0,1018880.0,1049344.0,775936.0,272192.0,69088.0
3.2633166313171387,156.0,596224.0,1125888.0,1140224.0,803072.0,308160.0,77552.0
3.264833450317383,131.0,595200.0,1125376.0,1176576.0,813056.0,314304.0,81024.0
3.266350030899048,105.0,637952.0,1149440.0,1318656.0,824576.0,316992.0,83520.0
3.26788330078125,405.0,600064.0,1240576.0,1249792.0,814848.0,328832.0,82768.0
3.269383430480957,263.0,684800.0,1258752.0,1248000.0,818432.0,326976.0,76656.0
3.270900011062622,122.0,715008.0,1282304.0,1231872.0,827136.0,325120.0,78208.0
3.2724499702453613,486.0,662528.0,1215232.0,1238272.0,836096.0,331776.0,79760.0
3.2739665508270264,309.0,667904.0,1191936.0,1244416.0,842752.0,338368.0,90736.0
3.2754833698272705,133.0,675840.0,1235968.0,1312256.0,849408.0,350208.0,93264.0
3.2769999504089355,170.0,662272.0,1237248.0,1359360.0,871168.0,345088.0,88304.0
3.2785167694091797,363.0,648704.0,1238272.0,1392896.0,868352.0,340032.0,95648.0
3.2800333499908447,437.0,678144.0,1220864.0,1295872.0,865792.0,341952.0,81072.0
3.2815499305725098,510.0,674304.0,1203456.0,1255168.0,792064.0,349376.0,92144.0
3.283066749572754,501.0,658688.0,1165568.0,1261312.0,825856.0,318016.0,87504.0
3.284583330154419,491.0,623360.0,1176320.0,1266688.0,813312.0,321984.0,83760.0
3.286099910736084,664.0,615936.0,1187072.0,1156352.0,791552.0,299968.0,82208.0
3.287616729736328,837.0,609280.0,1135360.0,1133312.0,732928.0,275904.0,79904.0
3.2892000675201416,1030.0,580352.0,1026816.0,1127680.0,738048.0,305984.0,65648.0
3.2907166481018066,197.0,604928.0,1003520.0,1027328.0,678912.0,265024.0,69600.0
3.2922332286834717,1259.0,514240.0,978176.0,1033984.0,680960.0,270592.0,65712.0
3.293750047683716,1488.0,521216.0,971776.0,925184.0,624640.0,229952.0,55104.0
3.295266628265381,1717.0,479296.0,942080.0,987136.0,613888.0,259392.0,55376.0
3.296783447265625,1166.0,496000.0,836352.0,873984.0,582144.0,240768.0,65136.0
3.29830002784729,640.0,418240.0,750848.0,800256.0,539904.0,190592.0,53104.0
3.299816608428955,114.0,403200.0,745728.0,749568.0,445376.0,195200.0,41616.0
3.301333427429199,291.0,383168.0,692224.0,716032.0,484288.0,185216.0,40176.0
3.3028500080108643,521.0,364096.0,602112.0,671232.0,417472.0,166912.0,43456.0
3.3043665885925293,1716.0,325120.0,590080.0,611328.0,376000.0,169344.0,32084.0
3.3059499263763428,910.0,261824.0,503936.0,484800.0,333696.0,122032.0,22464.0
3.307466745376587,104.0,247616.0,460352.0,447296.0,276288.0,143296.0,34976.0
3.308983325958252,1856.0,223808.0,412480.0,468224.0,298176.0,102416.0,33056.0
3.310499906539917,655.0,231552.0,386432.0,367680.0,247552.0,99120.0,19296.0
3.312016725540161,1418.0,181120.0,344896.0,307392.0,229632.0,79712.0,24780.0
3.313533306121826,92.0,164096.0,316288.0,273856.0,200768.0,74768.0,13792.0
3.315049886703491,1096.0,147520.0,244352.0,240448.0,165888.0,53584.0,15800.0
3.3165667057037354,1081.0,116864.0,198400.0,212352.0,145792.0,60784.0,13428.0
3.3180832862854004,697.0,101664.0,185408.0,207296.0,105472.0,54640.0,10752.0
3.3196001052856445,1282.0,96592.0,173632.0,151872.0,80288.0,38576.0,9928.0
3.3211166858673096,580.0,90704.0,128048.0,149376.0,81344.0,31160.0,7607.0
3.322700023651123,817.0,69296.0,100496.0,120064.0,86528.0,25248.0,7356.0
3.324216604232788,1053.0,60928.0,96480.0,90592.0,69392.0,29620.0,7064.0
3.3257334232330322,31.0,48128.0,96656.0,84752.0,49184.0,15380.0,4889.0
3.3272500038146973,61.0,38416.0,71856.0,76256.0,36352.0,20972.0,5949.0
3.3287665843963623,447.0,39984.0,57248.0,67504.0,43040.0,12896.0,2571.0
3.3302834033966064,833.0,40400.0,57104.0,64032.0,33248.0,17220.0,1903.0
3.3317999839782715,545.0,33872.0,62416.0,48400.0,35792.0,9688.0,4714.0
3.3333165645599365,66.0,14344.0,40464.0,44912.0,35488.0,14292.0,1319.0
3.3348333835601807,691.0,24828.0,47248.0,57344.0,23072.0,11712.0,5703.0
3.3363499641418457,595.0,20904.0,32000.0,33264.0,20100.0,11216.0,4565.0
3.33786678314209,815.0,18172.0,25328.0,27256.0,23216.0,7606.0,3242.0
3.339433431625366,1155.0,15444.0,36176.0,24988.0,18280.0,11368.0,2527.0
3.3409500122070312,191.0,14804.0,24316.0,23404.0,21648.0,10996.0,2133.0
3.3424832820892334,67.0,11472.0,26976.0,24904.0,17760.0,7056.0,1072.0
3.3439834117889404,53.0,12440.0,34224.0,26404.0,14392.0,3901.0,1072.0
3.3454999923706055,74.0,8520.0,22564.0,17028.0,15044.0,3710.0,1909.0
3.3470165729522705,70.0,7412.0,22160.0,18060.0,9332.0,6112.0,1423.0
3.3485333919525146,551.0,7457.0,18516.0,21672.0,8972.0,5431.0,936.0
3.3500499725341797,295.0,14000.0,14428.0,20692.0,15220.0,6983.0,2956.0
3.351583242416382,38.0,11240.0,17840.0,19716.0,10216.0,5984.0,1490.0
3.353100061416626,46.0,8484.0,12752.0,20056.0,7167.0,4986.0,25.0
3.354599952697754,31.0,6719.0,7666.0,17700.0,8117.0,4371.0,2407.0
3.3561666011810303,28.0,7857.0,12180.0,14556.0,14736.0,3170.0,3068.0
3.3577001094818115,40.0,6732.0,8528.0,15652.0,14184.0,3093.0,2948.0
3.3592166900634766,39.0,5608.0,9380.0,15816.0,7089.0,2348.0,2830.0
3.3607332706451416,10.0,10496.0,10196.0,17440.0,10644.0,5435.0,2712.0
3.3622500896453857,26.0,10828.0,11668.0,10400.0,8452.0,5141.0,2259.0
3.363766670227051,24.0,4069.0,14320.0,12656.0,4043.0,7278.0,1806.0
3.365283250808716,32.0,1701.0,13424.0,13292.0,4120.0,1922.0,901.0
3.36680006980896,7.0,4424.0,12532.0,11148.0,3116.0,861.0,501.0
3.368316650390625,43.0,5369.0,9316.0,15360.0,3719.0,1369.0,101.0
3.36983323097229,36.0,5132.0,6661.0,16620.0,4323.0,529.0,488.0
3.371350049972534,51.0,4894.0,8304.0,8220.0,8340.0,2031.0,23.0
3.372866630554199,39.0,3145.0,7593.0,9200.0,7391.0,2130.0,1888.0
3.3744499683380127,25.0,3448.0,6885.0,7929.0,5863.0,905.0,1605.0
3.3759665489196777,21.0,4062.0,8436.0,9932.0,5619.0,2541.0,1322.0
3.377483367919922,17.0,3463.0,4285.0,6587.0,3731.0,1878.0,1929.0
3.378999948501587,16.0,2864.0,6987.0,3242.0,7241.0,2953.0,1202.0
3.380516767501831,34.0,3592.0,11876.0,10504.0,6065.0,3444.0,475.0
3.382033348083496,52.0,1405.0,9512.0,7380.0,3534.0,3121.0,523.0
3.383549928665161,49.0,1921.0,6458.0,9540.0,9052.0,695.0,962.0
3.3850667476654053,47.0,1702.0,5945.0,9036.0,2135.0,2694.0,915.0
3.3865833282470703,46.0,1871.0,5333.0,10108.0,7482.0,391.0,868.0
3.3880999088287354,50.0,2041.0,5754.0,6828.0,5600.0,892.0,1237.0
3.3896167278289795,30.0,815.0,6175.0,3589.0,3474.0,1392.0,15.0
3.391183376312256,10.0,1281.0,7245.0,7852.0,1605.0,2081.0,1490.0
3.392699956893921,7.0,1746.0,6978.0,6451.0,1775.0,1806.0,1431.0
3.394233226776123,24.0,3656.0,4108.0,7483.0,911.0,605.0,706.0
3.39573335647583,50.0,3208.0,7199.0,8952.0,1731.0,1244.0,1275.0
3.397249937057495,40.0,1184.0,7516.0,5062.0,1666.0,2128.0,1225.0
3.3987667560577393,29.0,3628.0,7253.0,5128.0,1601.0,603.0,1175.0
3.4002833366394043,41.0,1402.0,3816.0,4014.0,1818.0,60.0,1153.0
3.4017999172210693,47.0,1845.0,4090.0,5529.0,2367.0,1741.0,1131.0
3.4033167362213135,41.0,2287.0,8220.0,6448.0,2125.0,2556.0,642.0
3.4048333168029785,20.0,991.0,6159.0,5098.0,1884.0,1976.0,633.0
3.4063498973846436,38.0,2529.0,7337.0,3748.0,775.0,1044.0,624.0
3.407933235168457,34.0,1790.0,1377.0,2758.0,2047.0,2145.0,1993.0
3.409450054168701,30.0,1259.0,7860.0,4555.0,4832.0,2206.0,1861.0
3.410966634750366,34.0,728.0,5503.0,2731.0,5819.0,2798.0,2812.0
3.4124832153320312,27.0,1190.0,7004.0,4151.0,2508.0,564.0,3229.0
3.4140000343322754,76.0,1652.0,4461.0,1638.0,2776.0,994.0,1198.0
3.4155166149139404,70.0,1702.0,2969.0,3911.0,3044.0,1015.0,3991.0
3.4170334339141846,25.0,1062.0,5746.0,2736.0,1194.0,342.0,4148.0
3.4185500144958496,45.0,1507.0,3679.0,2021.0,1516.0,399.0,4111.0
3.4200665950775146,17.0,1953.0,6409.0,3300.0,1010.0,1702.0,2875.0
3.421583414077759,46.0,2160.0,4083.0,2818.0,1638.0,1352.0,1842.0
3.423099994659424,57.0,136.0,2541.0,2335.0,2265.0,1276.0,3236.0
3.4246833324432373,40.0,2975.0,5033.0,5888.0,3367.0,1539.0,2457.0
3.4261999130249023,31.0,2191.0,4396.0,6027.0,3104.0,1483.0,44.0
3.4277167320251465,10.0,1408.0,3759.0,6534.0,2841.0,29.0,2380.0
3.4292333126068115,34.0,50.0,4432.0,5934.0,1322.0,507.0,1187.0
3.4307498931884766,33.0,1055.0,4246.0,5691.0,1341.0,970.0,1125.0
3.4322667121887207,30.0,668.0,4060.0,3445.0,1360.0,789.0,1754.0
3.4337832927703857,26.0,1231.0,2665.0,6622.0,3326.0,608.0,2215.0
3.43530011177063,29.0,1795.0,3724.0,79.0,2921.0,908.0,443.0
3.436816692352295,13.0,2623.0,3458.0,2891.0,766.0,1209.0,1825.0
3.43833327293396,22.0,2293.0,1645.0,2415.0,1613.0,1187.0,10.0
3.439850091934204,31.0,3164.0,3027.0,2275.0,3328.0,1165.0,1607.0
3.4414167404174805,21.0,2647.0,2846.0,2135.0,6135.0,681.0,2300.0
3.4429333209991455,10.0,2152.0,2665.0,3087.0,4607.0,1274.0,1879.0
3.4444665908813477,30.0,42.0,2007.0,3257.0,3323.0,1867.0,1459.0
3.4459667205810547,34.0,2520.0,2460.0,1742.0,6505.0,1796.0,291.0
3.447499990463257,37.0,24.0,2914.0,2581.0,669.0,1725.0,61.0
3.4489998817443848,18.0,853.0,2806.0,5329.0,788.0,2043.0,38.0
3.450516700744629,45.0,2886.0,2699.0,4683.0,1576.0,2404.0,865.0
3.452033281326294,5.0,836.0,2072.0,3228.0,1480.0,900.0,769.0
3.453566551208496,24.0,2172.0,1444.0,4550.0,1384.0,645.0,262.0
3.455066680908203,49.0,1838.0,863.0,2670.0,1611.0,596.0,86.0
3.4565999507904053,18.0,869.0,1345.0,3032.0,1471.0,29.0,903.0
3.4581665992736816,56.0,1065.0,1842.0,2354.0,1330.0,21.0,29.0
3.459683418273926,24.0,1418.0,2313.0,1853.0,1159.0,13.0,146.0
3.461199998855591,33.0,1276.0,2784.0,1351.0,988.0,32.0,903.0
3.462716579437256,21.0,1134.0,2415.0,856.0,2031.0,72.0,927.0
3.4642333984375,25.0,1067.0,1418.0,1783.0,1830.0,95.0,952.0
3.465749979019165,27.0,48.0,10.0,2257.0,852.0,119.0,28.0
3.46726655960083,28.0,1107.0,2473.0,2731.0,488.0,23.0,7.0
3.468783378601074,30.0,1158.0,920.0,2952.0,797.0,30.0,175.0
3.4702999591827393,31.0,561.0,629.0,3777.0,12.0,37.0,9.0
3.4718167781829834,53.0,0.0,894.0,318.0,21.0,29.0,29.0
3.4733333587646484,0.0,416.0,1129.0,1095.0,29.0,251.0,33.0
3.474900007247925,26.0,6.0,231.0,1406.0,27.0,473.0,36.0
3.476433277130127,67.0,29.0,13.0,602.0,24.0,528.0,22.0
3.477950096130371,17.0,52.0,61.0,903.0,27.0,583.0,28.0
3.479466676712036,63.0,46.0,38.0,474.0,53.0,29.0,33.0
3.480983257293701,69.0,74.0,15.0,44.0,31.0,360.0,19.0
3.4825000762939453,34.0,59.0,672.0,564.0,9.0,338.0,19.0
3.4840166568756104,37.0,44.0,570.0,900.0,13.0,317.0,30.0
3.4855332374572754,27.0,27.0,19.0,11.0,34.0,45.0,40.0
3.4870500564575195,34.0,21.0,744.0,554.0,49.0,35.0,167.0
3.4885666370391846,40.0,15.0,383.0,68.0,35.0,24.0,104.0
3.4900832176208496,24.0,0.0,21.0,25.0,42.0,12.0,40.0
3.4916000366210938,21.0,4.0,28.0,201.0,48.0,0.0,11.0
3.4931833744049072,12.0,8.0,28.0,134.0,17.0,28.0,38.0
3.4946999549865723,21.0,13.0,200.0,66.0,40.0,20.0,20.0
3.4962167739868164,29.0,9.0,119.0,44.0,43.0,11.0,50.0
3.4977333545684814,69.0,5.0,37.0,38.0,22.0,8.0,34.0
3.4992499351501465,93.0,14.0,405.0,5.0,13.0,21.0,12.0
3.5007667541503906,73.0,23.0,415.0,14.0,7.0,66.0,19.0
3.5022833347320557,15.0,28.0,643.0,25.0,17.0,52.0,29.0
3.5037999153137207,20.0,12.0,36.0,20.0,15.0,25.0,27.0
3.505316734313965,37.0,42.0,5.0,20.0,28.0,10.0,24.0
3.50683331489563,15.0,51.0,66.0,17.0,468.0,37.0,30.0
3.508349895477295,17.0,5.0,17.0,13.0,252.0,40.0,36.0
3.5099332332611084,18.0,8.0,27.0,9.0,36.0,42.0,41.0
3.5114500522613525,5.0,10.0,17.0,5.0,5.0,22.0,22.0
3.5129666328430176,8.0,85.0,27.0,39.0,19.0,26.0,22.0
3.5144834518432617,10.0,442.0,37.0,37.0,7.0,34.0,5.0
3.5160000324249268,10.0,238.0,626.0,13.0,24.0,31.0,42.0
3.517516613006592,10.0,34.0,318.0,17.0,58.0,35.0,38.0
3.519033432006836,23.0,11.0,10.0,20.0,40.0,41.0,60.0
3.520550012588501,17.0,38.0,59.0,28.0,22.0,43.0,8.0
3.522066593170166,10.0,26.0,30.0,20.0,10.0,27.0,0.0
3.52358341217041,55.0,13.0,22.0,11.0,27.0,60.0,68.0
3.525099992752075,53.0,14.0,221.0,43.0,20.0,55.0,29.0
3.5266666412353516,34.0,15.0,110.0,47.0,13.0,22.0,0.0
3.5281832218170166,32.0,17.0,0.0,31.0,5.0,39.0,35.0
3.5297000408172607,30.0,19.0,35.0,14.0,16.0,21.0,34.0
3.531216621398926,59.0,18.0,71.0,22.0,13.0,46.0,32.0
3.532749891281128,60.0,16.0,41.0,24.0,10.0,6.0,34.0
3.534250020980835,20.0,17.0,19.0,5.0,32.0,13.0,24.0
3.535783290863037,5.0,17.0,81.0,24.0,24.0,15.0,17.0
3.5373001098632812,21.0,15.0,194.0,19.0,17.0,17.0,10.0
3.5388166904449463,31.0,12.0,130.0,14.0,20.0,19.0,34.0
3.5403332710266113,37.0,9.0,67.0,19.0,27.0,20.0,35.0
3.5418500900268555,26.0,5.0,33.0,24.0,33.0,20.0,90.0
3.5433833599090576,5.0,12.0,71.0,27.0,24.0,19.0,82.0
3.5448999404907227,13.0,20.0,36.0,19.0,15.0,25.0,74.0
3.546416759490967,15.0,27.0,64.0,10.0,15.0,31.0,49.0
3.547933340072632,17.0,42.0,31.0,15.0,13.0,32.0,22.0
3.549449920654297,15.0,31.0,18.0,22.0,9.0,17.0,5.0
3.550966739654541,12.0,20.0,10.0,34.0,5.0,73.0,34.0
3.552483320236206,16.0,48.0,5.0,46.0,47.0,49.0,33.0
3.553999900817871,28.0,41.0,34.0,102.0,40.0,24.0,15.0
3.5555167198181152,39.0,32.0,31.0,79.0,33.0,32.0,30.0
3.5570333003997803,66.0,23.0,28.0,56.0,496.0,13.0,17.0
3.5585498809814453,65.0,0.0,5.0,0.0,273.0,7.0,26.0
3.560133218765259,32.0,5.0,23.0,6.0,49.0,13.0,26.0
3.561650037765503,25.0,26.0,41.0,11.0,18.0,18.0,20.0
3.563166618347168,7.0,14.0,29.0,11.0,41.0,22.0,20.0
3.564683437347412,17.0,35.0,23.0,17.0,26.0,53.0,20.0
3.566200017929077,13.0,27.0,17.0,23.0,11.0,35.0,36.0
3.567716598510742,16.0,35.0,15.0,838.0,23.0,18.0,32.0
3.5692334175109863,13.0,40.0,11.0,1454.0,14.0,26.0,28.0
3.5707499980926514,23.0,28.0,17.0,1117.0,7.0,26.0,39.0
3.5722665786743164,33.0,15.0,22.0,10.0,0.0,24.0,20.0
3.5737833976745605,31.0,21.0,49.0,35.0,25.0,22.0,13.0
3.5752999782562256,23.0,26.0,48.0,45.0,36.0,24.0,18.0
3.576866626739502,37.0,16.0,47.0,44.0,26.0,26.0,22.0
3.578399896621704,10.0,13.0,53.0,27.0,17.0,26.0,41.0
3.5799167156219482,54.0,10.0,279.0,15.0,32.0,15.0,52.0
3.581416606903076,82.0,16.0,148.0,14.0,46.0,5.0,51.0
3.5829334259033203,53.0,22.0,18.0,12.0,39.0,5.0,5.0
3.5844500064849854,23.0,48.0,43.0,15.0,16.0,14.0,32.0
3.5859665870666504,18.0,42.0,12.0,20.0,28.0,23.0,59.0
3.5874834060668945,53.0,43.0,5.0,25.0,17.0,18.0,17.0
3.5889999866485596,26.0,43.0,46.0,20.0,5.0,13.0,11.0
3.5905165672302246,27.0,27.0,58.0,15.0,39.0,6.0,16.0
3.5920333862304688,43.0,22.0,35.0,31.0,45.0,26.0,37.0
3.5936167240142822,8.0,12.0,20.0,48.0,51.0,33.0,35.0
3.5951333045959473,38.0,18.0,6.0,27.0,39.0,39.0,33.0
3.5966498851776123,17.0,39.0,10.0,6.0,27.0,40.0,10.0
3.5981667041778564,34.0,26.0,382.0,49.0,15.0,51.0,37.0
