,302.1300048828125,303.1300048828125,304.1300048828125,305.1300048828125,306.1300048828125,307.1300048828125
1.9012999534606934,13.0,24.0,25.0,9.0,30.0,32.0
1.9026000499725342,10.0,14.0,1043.0,36.0,17.0,0.0
1.9039000272750854,0.0,15.0,45.0,27.0,5.0,687.0
1.9052000045776367,13.0,24.0,1158.0,6.0,9.0,39.0
1.906499981880188,18.0,6.0,1039.0,10.0,13.0,29.0
1.9077999591827393,21.0,17.0,38.0,13.0,20.0,0.0
1.90910005569458,7.0,13.0,539.0,7.0,34.0,17.0
1.9104000329971313,15.0,9.0,0.0,0.0,33.0,28.0
1.9117000102996826,17.0,5.0,5.0,7.0,26.0,25.0
1.9129999876022339,18.0,17.0,10.0,14.0,23.0,21.0
1.9142999649047852,9.0,0.0,10.0,15.0,20.0,31.0
1.9155999422073364,0.0,25.0,10.0,16.0,9.0,49.0
1.9169000387191772,23.0,18.0,8.0,131.0,0.0,24.0
1.9182666540145874,5.0,33.0,5.0,83.0,0.0,0.0
1.9195666313171387,11.0,0.0,16.0,36.0,0.0,11.0
1.92086660861969,16.0,16.0,26.0,13.0,38.0,16.0
1.9221667051315308,16.0,38.0,424.0,238.0,40.0,0.0
1.923466682434082,15.0,26.0,214.0,136.0,0.0,23.0
1.9247666597366333,10.0,23.0,5.0,33.0,0.0,16.0
1.9260666370391846,5.0,20.0,32.0,46.0,3.0,8.0
1.9273666143417358,11.0,17.0,10.0,29.0,5.0,0.0
1.9286667108535767,0.0,10.0,5.0,26.0,10.0,21.0
1.929966688156128,13.0,5.0,52.0,22.0,5.0,19.0
1.9312666654586792,6.0,7.0,126.0,17.0,0.0,18.0
1.9325666427612305,8.0,8.0,63.0,19.0,3.0,16.0
1.9338666200637817,10.0,0.0,0.0,21.0,5.0,15.0
1.9352333545684814,8.0,5.0,12.0,29.0,44.0,14.0
1.9365333318710327,6.0,10.0,23.0,37.0,43.0,0.0
1.937833309173584,13.0,9.0,44.0,30.0,29.0,0.0
1.9391332864761353,12.0,7.0,65.0,12.0,37.0,0.0
1.940433382987976,10.0,27.0,56.0,16.0,21.0,61.0
1.9417333602905273,16.0,27.0,48.0,17.0,25.0,49.0
1.9430333375930786,11.0,7.0,46.0,18.0,34.0,37.0
1.9443333148956299,5.0,19.0,25.0,21.0,13.0,28.0
1.9456332921981812,10.0,10.0,210.0,0.0,28.0,29.0
1.946933388710022,16.0,9.0,120.0,12.0,42.0,27.0
1.9482333660125732,35.0,7.0,29.0,24.0,0.0,8.0
1.9495333433151245,33.0,12.0,106.0,28.0,8.0,6.0
1.9508333206176758,31.0,0.0,182.0,40.0,16.0,17.0
1.9521833658218384,16.0,28.0,7.0,52.0,5.0,28.0
1.9534833431243896,5.0,39.0,5.0,5.0,20.0,22.0
1.954783320426941,3.0,35.0,0.0,9.0,0.0,11.0
1.9560832977294922,0.0,13.0,0.0,12.0,24.0,15.0
1.9573832750320435,33.0,20.0,0.0,16.0,16.0,14.0
1.9586833715438843,28.0,17.0,12.0,19.0,5.0,13.0
1.9599833488464355,22.0,0.0,8.0,16.0,12.0,10.0
1.9612833261489868,32.0,4.0,5.0,12.0,0.0,18.0
1.962583303451538,19.0,8.0,145.0,10.0,0.0,22.0
1.9638832807540894,43.0,4.0,350.0,8.0,7.0,26.0
1.9651833772659302,35.0,0.0,649.0,35.0,0.0,17.0
1.9665000438690186,112.0,0.0,508.0,25.0,10.0,14.0
1.9678000211715698,111.0,17.0,647.0,15.0,19.0,11.0
1.9691166877746582,110.0,17.0,34.0,33.0,17.0,22.0
1.9704166650772095,5.0,17.0,28.0,16.0,18.0,14.0
1.9717166423797607,31.0,11.0,15.0,35.0,19.0,5.0
1.973016619682312,24.0,21.0,16.0,30.0,47.0,5.0
1.9743167161941528,16.0,16.0,17.0,21.0,23.0,5.0
1.975616693496704,35.0,10.0,12.0,17.0,0.0,5.0
1.9769166707992554,30.0,21.0,7.0,24.0,14.0,12.0
1.9782166481018066,23.0,20.0,14.0,30.0,27.0,9.0
1.979516625404358,15.0,15.0,11.0,0.0,14.0,6.0
1.9808167219161987,29.0,10.0,8.0,11.0,25.0,14.0
1.98211669921875,27.0,43.0,12.0,46.0,42.0,14.0
1.9834166765213013,10.0,56.0,16.0,26.0,42.0,13.0
1.9847667217254639,9.0,32.0,15.0,32.0,42.0,0.0
1.9860833883285522,15.0,15.0,14.0,48.0,6.0,11.0
1.9873833656311035,10.0,43.0,28.0,46.0,9.0,12.0
1.9886833429336548,5.0,5.0,361.0,45.0,12.0,18.0
1.989983320236206,5.0,0.0,185.0,56.0,12.0,23.0
1.9912832975387573,8.0,41.0,10.0,25.0,11.0,0.0
1.9925832748413086,7.0,8.0,19.0,15.0,24.0,13.0
1.9938833713531494,5.0,32.0,27.0,0.0,28.0,25.0
1.9951833486557007,16.0,22.0,17.0,0.0,5.0,12.0
1.996483325958252,21.0,32.0,6.0,6.0,0.0,7.0
1.9977833032608032,0.0,16.0,28.0,41.0,0.0,0.0
1.9990832805633545,8.0,19.0,8.0,31.0,25.0,5.0
2.0003833770751953,15.0,0.0,22.0,13.0,26.0,13.0
2.0017333030700684,16.0,22.0,11.0,6.0,14.0,21.0
2.0030500888824463,12.0,20.0,0.0,13.0,21.0,21.0
2.004349946975708,8.0,23.0,36.0,20.0,0.0,20.0
2.005650043487549,40.0,26.0,59.0,17.0,48.0,32.0
2.0069499015808105,41.0,13.0,30.0,14.0,42.0,5.0
2.0082499980926514,35.0,22.0,0.0,17.0,24.0,10.0
2.009550094604492,27.0,18.0,50.0,20.0,5.0,14.0
2.010849952697754,18.0,13.0,18.0,0.0,41.0,22.0
2.0121500492095947,11.0,23.0,21.0,31.0,26.0,14.0
2.0134499073028564,16.0,13.0,23.0,5.0,13.0,5.0
2.0147500038146973,21.0,14.0,10.0,38.0,27.0,5.0
2.016050100326538,26.0,12.0,8.0,13.0,19.0,5.0
2.0173499584198,0.0,28.0,6.0,37.0,11.0,5.0
2.018683433532715,10.0,19.0,20.0,23.0,33.0,5.0
2.0199999809265137,11.0,10.0,14.0,45.0,27.0,38.0
2.0213000774383545,11.0,12.0,9.0,48.0,20.0,25.0
2.022599935531616,21.0,14.0,5.0,6.0,23.0,12.0
2.023900032043457,20.0,10.0,0.0,53.0,18.0,25.0
2.0251998901367188,19.0,5.0,92.0,26.0,27.0,15.0
2.0264999866485596,22.0,23.0,65.0,0.0,28.0,7.0
2.0278000831604004,24.0,29.0,37.0,29.0,29.0,4.0
2.029099941253662,32.0,18.0,0.0,10.0,0.0,0.0
2.030400037765503,40.0,6.0,46.0,24.0,0.0,0.0
2.0316998958587646,12.0,19.0,0.0,20.0,21.0,0.0
2.0329999923706055,15.0,35.0,0.0,15.0,22.0,6.0
2.0343000888824463,18.0,51.0,16.0,20.0,23.0,12.0
2.0356333255767822,15.0,33.0,382.0,24.0,28.0,6.0
2.036933422088623,0.0,27.0,201.0,0.0,5.0,0.0
2.0382332801818848,13.0,21.0,19.0,17.0,15.0,5.0
2.0395333766937256,13.0,17.0,473.0,37.0,25.0,6.0
2.0408332347869873,15.0,12.0,518.0,28.0,25.0,7.0
2.042133331298828,15.0,10.0,520.0,20.0,25.0,5.0
2.043433427810669,14.0,26.0,10.0,7.0,0.0,8.0
2.0447332859039307,6.0,16.0,16.0,13.0,16.0,0.0
2.0460333824157715,6.0,6.0,0.0,44.0,5.0,22.0
2.047333240509033,5.0,13.0,241.0,25.0,19.0,21.0
2.048633337020874,19.0,526.0,127.0,6.0,5.0,20.0
2.049933433532715,414.0,808.0,14.0,0.0,5.0,5.0
2.0512332916259766,214.0,1090.0,0.0,10.0,196.0,19.0
2.0525999069213867,15.0,3003.0,6.0,5.0,366.0,13.0
2.0539000034332275,44.0,3029.0,11.0,0.0,197.0,7.0
2.0552000999450684,37.0,363.0,89.0,27.0,29.0,9.0
2.05649995803833,14.0,1803.0,48.0,14.0,24.0,10.0
2.057800054550171,5.0,3972.0,6.0,0.0,21.0,37.0
2.0590999126434326,5.0,1421.0,42.0,26.0,817.0,29.0
2.0604000091552734,10.0,1498.0,5.0,29.0,415.0,21.0
2.0617001056671143,15.0,2718.0,0.0,32.0,14.0,37.0
2.062999963760376,10.0,5757.0,459.0,23.0,0.0,53.0
2.064300060272217,5.0,6419.0,994.0,13.0,360.0,61.0
2.0655999183654785,8.0,4761.0,1181.0,0.0,5.0,63.0
2.0669000148773193,17.0,3421.0,1751.0,4.0,8.0,18.0
2.06820011138916,16.0,3114.0,26.0,7.0,0.0,19.0
2.0695667266845703,15.0,4811.0,35.0,7.0,25.0,20.0
2.070866584777832,5.0,5202.0,1008.0,6.0,21.0,5.0
2.072166681289673,8.0,3507.0,1039.0,41.0,17.0,10.0
2.0734667778015137,11.0,3949.0,191.0,36.0,22.0,15.0
2.0747666358947754,14.0,3911.0,18.0,32.0,6.0,23.0
2.076066732406616,14.0,3422.0,772.0,66.0,17.0,21.0
2.077366590499878,14.0,2934.0,878.0,0.0,15.0,19.0
2.0786666870117188,27.0,5395.0,1422.0,32.0,13.0,35.0
2.0799667835235596,16.0,6704.0,1117.0,26.0,24.0,48.0
2.0812666416168213,5.0,5667.0,897.0,19.0,32.0,0.0
2.082566738128662,21.0,4429.0,874.0,18.0,38.0,5.0
2.083866596221924,37.0,4661.0,798.0,16.0,43.0,31.0
2.0851666927337646,42.0,2861.0,721.0,13.0,15.0,12.0
2.086533308029175,12.0,3432.0,28.0,9.0,19.0,14.0
2.0878334045410156,31.0,4052.0,1038.0,7.0,22.0,16.0
2.0891332626342773,35.0,3812.0,262.0,5.0,26.0,28.0
2.090433359146118,19.0,3572.0,5.0,8.0,11.0,32.0
2.09173321723938,37.0,3771.0,13.0,4.0,14.0,37.0
2.0930333137512207,54.0,3970.0,177.0,0.0,17.0,8.0
2.0943334102630615,5.0,6063.0,21.0,23.0,15.0,22.0
2.0956332683563232,21.0,5870.0,104.0,28.0,38.0,37.0
2.096933364868164,37.0,5609.0,186.0,32.0,22.0,28.0
2.098233222961426,0.0,3616.0,111.0,218.0,6.0,15.0
2.0995333194732666,12.0,2384.0,37.0,120.0,19.0,30.0
2.1008334159851074,18.0,5479.0,28.0,21.0,25.0,13.0
2.102133274078369,21.0,6659.0,14.0,57.0,30.0,22.0
2.1034834384918213,34.0,2265.0,0.0,28.0,26.0,19.0
2.104783296585083,35.0,6278.0,6.0,0.0,25.0,16.0
2.106083393096924,15.0,6210.0,12.0,0.0,32.0,18.0
2.1073832511901855,5.0,4221.0,1462.0,0.0,15.0,20.0
2.1086833477020264,5.0,1936.0,1137.0,8.0,45.0,5.0
2.109983444213867,9.0,3533.0,811.0,15.0,41.0,6.0
2.111283302307129,13.0,2283.0,942.0,23.0,37.0,24.0
2.1125833988189697,24.0,4239.0,10.0,30.0,15.0,14.0
2.1138832569122314,23.0,5629.0,1499.0,242.0,15.0,18.0
2.1151833534240723,20.0,4546.0,54.0,138.0,0.0,21.0
2.116483449935913,66.0,4389.0,20.0,34.0,6.0,6.0
2.117783308029175,72.0,4231.0,10.0,152.0,7.0,0.0
2.1190834045410156,5.0,3219.0,552.0,36.0,7.0,29.0
2.120450019836426,5.0,811.0,481.0,48.0,6.0,28.0
2.1217501163482666,15.0,7497.0,781.0,59.0,3.0,14.0
2.1230499744415283,8.0,5368.0,525.0,32.0,0.0,0.0
2.124350070953369,0.0,938.0,269.0,5.0,99.0,27.0
2.125649929046631,3.0,4703.0,37.0,484.0,72.0,37.0
2.1269500255584717,6.0,7086.0,454.0,274.0,45.0,0.0
2.1282498836517334,9.0,6004.0,481.0,63.0,18.0,16.0
2.129549980163574,12.0,4260.0,1023.0,23.0,5.0,15.0
2.130850076675415,17.0,6680.0,1284.0,27.0,20.0,125.0
2.1321499347686768,204.0,3182.0,1143.0,32.0,16.0,69.0
2.1334500312805176,104.0,6611.0,5.0,42.0,34.0,13.0
2.1347498893737793,5.0,7547.0,31.0,0.0,23.0,41.0
2.13604998588562,5.0,6155.0,32.0,29.0,13.0,53.0
2.137399911880493,5.0,4329.0,89.0,68.0,12.0,0.0
2.138700008392334,12.0,2832.0,527.0,462.0,39.0,10.0
2.140000104904175,375.0,3692.0,937.0,234.0,32.0,45.0
2.1412999629974365,194.0,4552.0,938.0,5.0,24.0,20.0
2.1426000595092773,13.0,3890.0,432.0,26.0,23.0,10.0
2.143899917602539,654.0,6126.0,226.0,18.0,29.0,0.0
2.14520001411438,445.0,5538.0,20.0,15.0,16.0,14.0
2.1465001106262207,235.0,3877.0,22.0,12.0,14.0,10.0
2.1477999687194824,143.0,2419.0,23.0,16.0,11.0,6.0
2.1491000652313232,11.0,3679.0,754.0,8.0,0.0,0.0
2.150399923324585,16.0,1095.0,1061.0,0.0,9.0,19.0
2.151700019836426,47.0,2114.0,1025.0,485.0,17.0,37.0
2.1530001163482666,12.0,1355.0,44.0,268.0,15.0,31.0
2.1543667316436768,18.0,2662.0,43.0,50.0,13.0,0.0
2.1556665897369385,0.0,574.0,5.0,25.0,21.0,23.0
2.1569666862487793,6.0,39.0,5.0,35.0,24.0,10.0
2.15826678276062,12.0,2915.0,20.0,20.0,15.0,25.0
2.159566640853882,51.0,17.0,23.0,0.0,5.0,5.0
2.1608667373657227,689.0,326.0,25.0,21.0,25.0,5.0
2.1621665954589844,653.0,503.0,16.0,17.0,30.0,15.0
2.163466691970825,327.0,622.0,6.0,12.0,11.0,25.0
2.164766550064087,0.0,741.0,6.0,6.0,35.0,20.0
2.1660666465759277,596.0,19.0,119.0,21.0,37.0,13.0
2.1673667430877686,426.0,1182.0,65.0,11.0,16.0,27.0
2.1686666011810303,470.0,6.0,11.0,0.0,15.0,0.0
2.169966697692871,6.0,739.0,41.0,39.0,13.0,61.0
2.171316623687744,660.0,1358.0,10.0,26.0,0.0,53.0
2.172616720199585,341.0,458.0,32.0,13.0,5.0,45.0
2.1739165782928467,21.0,6.0,23.0,19.0,10.0,35.0
2.1752166748046875,911.0,10.0,14.0,25.0,13.0,0.0
2.1765167713165283,714.0,20.0,0.0,28.0,15.0,25.0
2.17781662940979,25.0,55.0,15.0,31.0,20.0,42.0
2.179116725921631,0.0,897.0,30.0,18.0,34.0,0.0
2.1804165840148926,16.0,802.0,22.0,5.0,24.0,27.0
2.1817166805267334,0.0,708.0,16.0,5.0,14.0,35.0
2.183016777038574,44.0,724.0,28.0,5.0,18.0,5.0
2.184316635131836,43.0,740.0,34.0,28.0,16.0,17.0
2.1856167316436768,42.0,20.0,26.0,23.0,22.0,9.0
2.1869165897369385,25.0,26.0,17.0,25.0,21.0,5.0
2.1882834434509277,9.0,7.0,7.0,16.0,16.0,0.0
2.1895833015441895,0.0,21.0,16.0,7.0,10.0,0.0
2.1908833980560303,0.0,35.0,25.0,7.0,0.0,0.0
2.192183256149292,10.0,11.0,24.0,6.0,3.0,10.0
2.193483352661133,0.0,12.0,23.0,3.0,5.0,19.0
2.1947834491729736,22.0,19.0,23.0,0.0,24.0,21.0
2.1960833072662354,21.0,0.0,22.0,3.0,39.0,23.0
2.197383403778076,20.0,0.0,18.0,5.0,24.0,20.0
2.198683261871338,63.0,24.0,14.0,15.0,23.0,16.0
2.1999833583831787,106.0,621.0,29.0,14.0,21.0,20.0
2.2012832164764404,107.0,549.0,17.0,12.0,13.0,21.0
2.2025833129882812,5.0,393.0,5.0,9.0,5.0,21.0
2.203883409500122,247.0,0.0,29.0,5.0,27.0,17.0
2.205233335494995,144.0,13.0,31.0,5.0,22.0,15.0
2.206533432006836,41.0,7.0,21.0,5.0,17.0,12.0
2.2078332901000977,28.0,0.0,12.0,30.0,22.0,11.0
2.2091333866119385,24.0,692.0,36.0,54.0,19.0,11.0
2.2104332447052,0.0,1006.0,17.0,37.0,15.0,10.0
2.211733341217041,22.0,1224.0,27.0,20.0,5.0,14.0
2.213033437728882,27.0,38.0,14.0,10.0,10.0,10.0
2.2143332958221436,20.0,275.0,0.0,0.0,15.0,5.0
2.2156333923339844,13.0,10.0,32.0,0.0,7.0,20.0
2.216933250427246,16.0,6.0,18.0,5.0,0.0,22.0
2.218233346939087,20.0,0.0,0.0,15.0,16.0,11.0
2.2195334434509277,24.0,8.0,9.0,8.0,7.0,7.0
2.2208333015441895,20.0,9.0,17.0,0.0,21.0,22.0
2.2221999168395996,20.0,10.0,11.0,11.0,23.0,10.0
2.2235000133514404,0.0,5.0,5.0,22.0,25.0,10.0
2.2248001098632812,5.0,11.0,283.0,20.0,24.0,18.0
2.226099967956543,25.0,19.0,561.0,21.0,22.0,0.0
2.227400064468384,17.0,20.0,435.0,32.0,12.0,7.0
2.2286999225616455,9.0,14.0,310.0,7.0,16.0,13.0
2.2300000190734863,10.0,26.0,549.0,0.0,19.0,12.0
2.231300115585327,11.0,15.0,788.0,0.0,16.0,20.0
2.232599973678589,10.0,5.0,0.0,11.0,11.0,33.0
2.2339000701904297,0.0,11.0,10.0,17.0,5.0,32.0
2.2351999282836914,7.0,0.0,999.0,22.0,0.0,30.0
2.2365000247955322,13.0,14.0,1057.0,5.0,0.0,18.0
2.237799882888794,13.0,40.0,15.0,8.0,0.0,20.0
2.239150047302246,12.0,47.0,1046.0,21.0,0.0,22.0
2.240449905395508,9.0,10.0,32.0,13.0,0.0,14.0
2.2417500019073486,5.0,7.0,5.0,5.0,5.0,5.0
2.2430500984191895,8.0,7.0,529.0,24.0,22.0,5.0
2.244349956512451,10.0,16.0,58.0,23.0,27.0,12.0
2.245650053024292,20.0,12.0,10.0,21.0,20.0,12.0
2.2469499111175537,30.0,8.0,5.0,8.0,13.0,13.0
2.2482500076293945,27.0,0.0,0.0,26.0,6.0,26.0
2.2495501041412354,29.0,0.0,35.0,21.0,3.0,32.0
2.250849962234497,31.0,0.0,30.0,15.0,0.0,21.0
2.252150058746338,0.0,20.0,27.0,7.0,23.0,13.0
2.2534499168395996,10.0,15.0,25.0,23.0,25.0,10.0
2.2547500133514404,21.0,10.0,23.0,24.0,30.0,13.0
2.2561166286468506,17.0,5.0,10.0,15.0,6.0,15.0
2.2574167251586914,12.0,0.0,0.0,14.0,0.0,24.0
2.258716583251953,27.0,23.0,58.0,18.0,7.0,29.0
2.260016679763794,32.0,29.0,51.0,12.0,13.0,0.0
2.2613167762756348,27.0,22.0,45.0,6.0,15.0,24.0
2.2626166343688965,8.0,14.0,15.0,12.0,10.0,25.0
2.2639167308807373,5.0,27.0,19.0,5.0,5.0,5.0
2.265216588973999,21.0,26.0,22.0,16.0,8.0,41.0
2.26651668548584,5.0,5.0,11.0,0.0,10.0,20.0
2.2678167819976807,5.0,21.0,0.0,24.0,0.0,0.0
2.2691166400909424,50.0,16.0,24.0,24.0,0.0,28.0
2.270416736602783,46.0,10.0,16.0,5.0,33.0,18.0
2.271716594696045,14.0,32.0,20.0,22.0,33.0,21.0
2.273066759109497,64.0,21.0,23.0,24.0,30.0,24.0
2.274366617202759,22.0,10.0,11.0,10.0,19.0,10.0
2.2756667137145996,10.0,8.0,6.0,11.0,15.0,25.0
2.2769665718078613,14.0,6.0,0.0,18.0,35.0,19.0
2.278266668319702,13.0,6.0,10.0,5.0,0.0,13.0
2.279566764831543,0.0,19.0,0.0,7.0,16.0,34.0
2.2808666229248047,41.0,10.0,5.0,17.0,6.0,0.0
2.2821667194366455,44.0,0.0,12.0,26.0,14.0,20.0
2.2834665775299072,13.0,24.0,18.0,21.0,22.0,10.0
2.284766674041748,10.0,47.0,17.0,16.0,59.0,23.0
2.286066770553589,5.0,53.0,18.0,15.0,53.0,31.0
2.2873666286468506,0.0,12.0,19.0,13.0,28.0,25.0
2.2886834144592285,35.0,30.0,15.0,18.0,37.0,9.0
2.2900333404541016,27.0,10.0,10.0,17.0,12.0,24.0
2.2913334369659424,38.0,15.0,27.0,15.0,6.0,16.0
2.292633295059204,1144.0,35.0,44.0,21.0,0.0,8.0
2.293933391571045,905.0,20.0,54.0,5.0,34.0,14.0
2.2952332496643066,22.0,31.0,34.0,3.0,31.0,7.0
2.2965333461761475,902.0,34.0,14.0,0.0,29.0,0.0
2.2978334426879883,61.0,38.0,5.0,0.0,27.0,13.0
