,325.2099914550781,326.2099914550781,327.2099914550781,328.2099914550781,329.2099914550781,330.2099914550781,331.2099914550781,332.2099914550781
2.301949977874756,26.0,0.0,0.0,13.0,12.0,35.0,27.0,13.0
2.304616689682007,21.0,18.0,57.0,13.0,56.0,27.0,26.0,7.0
2.3078665733337402,19.0,31.0,0.0,20.0,12.0,23.0,15.0,25.0
2.3111166954040527,29.0,17.0,28.0,28.0,29.0,5.0,33.0,8.0
2.314366579055786,27.0,36.0,21.0,26.0,8.0,5.0,37.0,22.0
2.3176167011260986,25.0,28.0,15.0,24.0,13.0,14.0,22.0,35.0
2.320866584777832,18.0,95.0,9.0,33.0,51.0,12.0,13.0,17.0
2.324166774749756,10.0,71.0,23.0,31.0,72.0,9.0,20.0,5.0
2.3274333477020264,15.0,47.0,12.0,28.0,65.0,17.0,15.0,5.0
2.3306832313537598,24.0,0.0,0.0,11.0,59.0,23.0,10.0,5.0
2.3339333534240723,20.0,37.0,5.0,10.0,53.0,30.0,14.0,23.0
2.3371832370758057,0.0,27.0,10.0,27.0,0.0,24.0,18.0,24.0
2.3404500484466553,30.0,7.0,15.0,17.0,79.0,18.0,15.0,37.0
2.3436999320983887,19.0,5.0,11.0,19.0,25.0,5.0,14.0,0.0
2.346950054168701,21.0,18.0,7.0,20.0,31.0,5.0,15.0,18.0
2.3501999378204346,24.0,10.0,21.0,12.0,31.0,18.0,46.0,38.0
2.353450059890747,10.0,32.0,39.0,10.0,21.0,31.0,39.0,37.0
2.356766700744629,15.0,25.0,71.0,7.0,35.0,535.0,32.0,32.0
2.3600332736968994,19.0,17.0,44.0,7.0,48.0,500.0,34.0,18.0
2.363283395767212,15.0,17.0,17.0,21.0,41.0,52.0,6.0,18.0
2.3665332794189453,10.0,6.0,16.0,40.0,18.0,21.0,11.0,17.0
2.369783401489258,10.0,11.0,572.0,326.0,20.0,589.0,15.0,20.0
2.3730833530426025,15.0,5.0,966.0,1575.0,21.0,1182.0,11.0,22.0
2.376333236694336,13.0,582.0,4504.0,1651.0,463.0,766.0,6.0,31.0
2.3795833587646484,10.0,4504.0,4431.0,2017.0,1228.0,2356.0,727.0,40.0
2.382833242416382,18.0,4066.0,6799.0,5659.0,4810.0,3031.0,705.0,0.0
2.3860833644866943,15.0,5344.0,9756.0,11064.0,3621.0,3670.0,684.0,282.0
2.389400005340576,11.0,3303.0,15664.0,12684.0,4786.0,2382.0,1088.0,1625.0
2.3926498889923096,6.0,12992.0,17712.0,11220.0,5952.0,7541.0,3955.0,2475.0
2.395900011062622,11.0,18624.0,22612.0,20628.0,13956.0,9896.0,3943.0,6802.0
2.3991498947143555,11.0,23980.0,32380.0,18340.0,15356.0,7934.0,12460.0,8364.0
2.402400016784668,10.0,22784.0,38144.0,19324.0,23012.0,12904.0,11724.0,2999.0
2.4056499004364014,12.0,28188.0,37296.0,34496.0,25528.0,14080.0,9892.0,6092.0
2.408950090408325,13.0,27108.0,55552.0,36608.0,27888.0,16528.0,12336.0,8082.0
2.4121999740600586,13.0,29676.0,61600.0,51200.0,24508.0,18516.0,8568.0,9328.0
2.415450096130371,23.0,29408.0,65760.0,40368.0,26548.0,17292.0,7035.0,7607.0
2.4187166690826416,22.0,29144.0,54224.0,46016.0,33120.0,19900.0,9612.0,5652.0
2.421966552734375,21.0,29288.0,61696.0,46080.0,31352.0,22512.0,10816.0,5892.0
2.425266742706299,17.0,29436.0,67936.0,43984.0,33456.0,21364.0,12020.0,6651.0
2.4285166263580322,12.0,40144.0,68592.0,41888.0,30520.0,17272.0,9720.0,5563.0
2.4317667484283447,25.0,41920.0,69424.0,44656.0,31028.0,20240.0,14932.0,8360.0
2.435016632080078,27.0,40688.0,66080.0,47408.0,31536.0,22492.0,19540.0,8256.0
2.4382667541503906,31.0,44832.0,62736.0,58832.0,34640.0,22324.0,18312.0,6605.0
2.4415833950042725,34.0,46608.0,76704.0,59712.0,37760.0,22156.0,13752.0,8548.0
2.444833278656006,9.0,47568.0,90496.0,60608.0,41200.0,24408.0,19424.0,10556.0
2.4480834007263184,37.0,42976.0,89360.0,65280.0,44656.0,24188.0,14924.0,10420.0
2.4513332843780518,25.0,40816.0,102000.0,70144.0,41680.0,23968.0,26864.0,10288.0
2.4545834064483643,17.0,50976.0,99328.0,75008.0,38720.0,30028.0,24244.0,8416.0
2.4578499794006348,28.0,48320.0,83600.0,57728.0,42064.0,30968.0,18568.0,9400.0
2.4611001014709473,36.0,45936.0,86448.0,75520.0,38560.0,30300.0,12508.0,5024.0
2.4643499851226807,0.0,54080.0,81984.0,57088.0,35040.0,19456.0,15292.0,7401.0
2.467600107192993,29.0,32672.0,56640.0,44528.0,27304.0,18924.0,13708.0,8620.0
2.4708499908447266,0.0,22720.0,66736.0,46416.0,24776.0,14324.0,5422.0,2882.0
2.4741666316986084,6.0,23648.0,47152.0,43360.0,20884.0,13288.0,11396.0,3051.0
2.477416753768921,41.0,25088.0,29196.0,18680.0,17888.0,11608.0,6066.0,3522.0
2.4806666374206543,53.0,13224.0,25688.0,14628.0,9208.0,7353.0,5923.0,4186.0
2.483916759490967,49.0,13240.0,22160.0,12676.0,8836.0,5283.0,3248.0,10.0
2.4871666431427,12.0,11172.0,12496.0,11660.0,4306.0,2579.0,1726.0,319.0
2.490449905395508,41.0,9976.0,10716.0,5884.0,7216.0,4730.0,3402.0,1099.0
2.4937334060668945,32.0,4591.0,5540.0,4506.0,1979.0,1596.0,1380.0,957.0
2.496983289718628,37.0,1754.0,6896.0,4694.0,707.0,2106.0,69.0,1456.0
2.5002334117889404,24.0,2132.0,5686.0,2129.0,721.0,1149.0,24.0,34.0
2.503483295440674,54.0,3364.0,5313.0,4483.0,1651.0,1778.0,18.0,1515.0
2.5067334175109863,5.0,2979.0,5167.0,2712.0,2901.0,1338.0,11.0,15.0
2.509999990463257,0.0,824.0,3527.0,2498.0,3069.0,14.0,28.0,35.0
2.5132501125335693,15.0,985.0,2419.0,1206.0,311.0,361.0,34.0,0.0
2.5164999961853027,10.0,1146.0,3080.0,1412.0,2538.0,708.0,39.0,7.0
2.5197501182556152,12.0,194.0,728.0,1127.0,2639.0,610.0,59.0,13.0
2.5230000019073486,13.0,779.0,864.0,690.0,1501.0,10.0,29.0,26.0
2.5263166427612305,8.0,1364.0,57.0,1729.0,974.0,42.0,0.0,40.0
2.529566764831543,11.0,8.0,31.0,66.0,48.0,21.0,6.0,37.0
2.5328166484832764,13.0,9.0,5.0,1151.0,1712.0,0.0,11.0,19.0
2.536066770553589,13.0,10.0,44.0,513.0,725.0,12.0,916.0,47.0
2.5393166542053223,13.0,394.0,329.0,13.0,929.0,9.0,467.0,23.0
2.542616605758667,15.0,207.0,614.0,1091.0,38.0,5.0,18.0,37.0
2.5458667278289795,35.0,19.0,317.0,524.0,758.0,10.0,1174.0,29.0
2.549116611480713,17.0,141.0,20.0,1108.0,605.0,5.0,6.0,15.0
2.5523667335510254,0.0,12.0,718.0,554.0,21.0,0.0,26.0,0.0
2.555633306503296,44.0,507.0,638.0,0.0,1395.0,18.0,12.0,447.0
2.5589001178741455,5.0,265.0,983.0,971.0,1023.0,67.0,30.0,439.0
2.562150001525879,11.0,23.0,1328.0,1318.0,1066.0,55.0,17.0,15.0
2.5653998851776123,24.0,22.0,835.0,42.0,782.0,44.0,22.0,43.0
2.568650007247925,29.0,21.0,342.0,0.0,303.0,24.0,5.0,17.0
2.571899890899658,33.0,27.0,451.0,28.0,19.0,40.0,226.0,19.0
2.575216770172119,24.0,31.0,19.0,26.0,979.0,10.0,122.0,21.0
2.5784666538238525,14.0,36.0,43.0,23.0,710.0,26.0,17.0,11.0
2.581716775894165,0.0,27.0,66.0,21.0,36.0,265.0,37.0,0.0
2.5849666595458984,22.0,186.0,15.0,19.0,11.0,154.0,16.0,4.0
2.588216781616211,27.0,96.0,1175.0,10.0,1159.0,43.0,25.0,7.0
2.5914666652679443,26.0,6.0,1253.0,12.0,1023.0,25.0,17.0,15.0
2.594783306121826,13.0,9.0,36.0,14.0,15.0,17.0,0.0,22.0
2.5980334281921387,13.0,12.0,1395.0,5.0,410.0,24.0,28.0,42.0
2.601283311843872,13.0,15.0,749.0,45.0,24.0,31.0,10.0,42.0
2.6045334339141846,15.0,18.0,753.0,22.0,7.0,10.0,8.0,16.0
2.607783317565918,15.0,9.0,56.0,0.0,22.0,0.0,5.0,11.0
2.6110999584198,15.0,0.0,51.0,5.0,16.0,15.0,31.0,5.0
2.6143500804901123,19.0,16.0,9.0,5.0,8.0,37.0,31.0,8.0
2.6175999641418457,17.0,31.0,19.0,6.0,0.0,43.0,16.0,11.0
2.620850086212158,14.0,20.0,28.0,7.0,5.0,35.0,12.0,577.0
2.6240999698638916,33.0,9.0,17.0,289.0,21.0,22.0,8.0,632.0
2.627366781234741,31.0,18.0,5.0,152.0,17.0,10.0,17.0,27.0
2.6306166648864746,41.0,25.0,10.0,15.0,12.0,52.0,16.0,40.0
2.633866548538208,5.0,31.0,31.0,49.0,10.0,408.0,5.0,41.0
2.6371166706085205,32.0,25.0,52.0,32.0,7.0,207.0,15.0,0.0
2.640366554260254,12.0,18.0,32.0,16.0,18.0,5.0,9.0,34.0
2.643683433532715,61.0,0.0,12.0,10.0,18.0,26.0,0.0,23.0
2.6469333171844482,53.0,40.0,5.0,32.0,18.0,0.0,7.0,43.0
2.6501834392547607,46.0,24.0,22.0,55.0,34.0,7.0,19.0,21.0
2.653433322906494,31.0,8.0,40.0,38.0,17.0,23.0,10.0,26.0
2.6566834449768066,16.0,12.0,53.0,21.0,0.0,20.0,0.0,30.0
2.6600000858306885,0.0,24.0,66.0,35.0,64.0,17.0,26.0,0.0
2.663249969482422,40.0,36.0,12.0,24.0,120.0,43.0,5.0,5.0
2.6665000915527344,11.0,40.0,14.0,16.0,196.0,32.0,15.0,22.0
2.6697499752044678,27.0,23.0,16.0,33.0,104.0,22.0,17.0,11.0
2.6730000972747803,0.0,53.0,54.0,17.0,11.0,16.0,18.0,5.0
2.676300048828125,17.0,13.0,57.0,0.0,27.0,25.0,50.0,13.0
2.6795833110809326,5.0,0.0,59.0,13.0,11.0,34.0,27.0,0.0
2.682833433151245,8.0,19.0,38.0,25.0,12.0,22.0,5.0,23.0
2.6860833168029785,21.0,18.0,34.0,17.0,12.0,9.0,12.0,40.0
2.689333438873291,10.0,17.0,42.0,8.0,18.0,486.0,16.0,24.0
2.6925833225250244,23.0,17.0,0.0,7.0,9.0,254.0,20.0,0.0
2.695849895477295,43.0,15.0,0.0,9.0,0.0,22.0,22.0,7.0
2.6991000175476074,43.0,26.0,8.0,11.0,0.0,22.0,26.0,14.0
2.702349901199341,18.0,16.0,40.0,16.0,0.0,30.0,5.0,16.0
2.7056000232696533,27.0,5.0,41.0,15.0,5.0,10.0,25.0,362.0
2.7088499069213867,28.0,15.0,43.0,14.0,22.0,11.0,0.0,193.0
2.7121665477752686,28.0,11.0,15.0,10.0,21.0,69.0,40.0,23.0
2.715416669845581,23.0,30.0,0.0,24.0,16.0,44.0,22.0,22.0
2.7186665534973145,18.0,22.0,32.0,25.0,0.0,18.0,26.0,22.0
2.721916675567627,18.0,14.0,39.0,25.0,13.0,14.0,34.0,13.0
2.7251665592193604,22.0,26.0,27.0,21.0,17.0,10.0,287.0,12.0
2.7284834384918213,0.0,6.0,43.0,18.0,9.0,19.0,147.0,11.0
2.7317333221435547,31.0,20.0,14.0,29.0,0.0,15.0,7.0,53.0
2.734983444213867,11.0,14.0,0.0,14.0,12.0,10.0,25.0,33.0
2.7382333278656006,6.0,16.0,36.0,5.0,0.0,12.0,27.0,14.0
2.741483449935913,0.0,38.0,0.0,12.0,24.0,17.0,28.0,14.0
2.744800090789795,3.0,939.0,20.0,16.0,16.0,34.0,34.0,14.0
2.7480499744415283,5.0,773.0,40.0,19.0,8.0,24.0,40.0,8.0
2.751300096511841,6.0,27.0,0.0,0.0,16.0,14.0,40.0,13.0
2.754549980163574,31.0,0.0,15.0,21.0,21.0,7.0,23.0,12.0
2.7578001022338867,49.0,0.0,29.0,13.0,12.0,20.0,5.0,11.0
2.7611000537872314,33.0,17.0,5.0,5.0,6.0,10.0,30.0,22.0
2.764349937438965,24.0,32.0,27.0,5.0,5.0,0.0,39.0,26.0
2.7676000595092773,10.0,26.0,13.0,5.0,10.0,0.0,12.0,29.0
2.7708499431610107,43.0,0.0,0.0,12.0,15.0,12.0,15.0,20.0
2.7741000652313232,29.0,15.0,9.0,6.0,29.0,9.0,17.0,11.0
2.7773666381835938,14.0,8.0,6.0,0.0,40.0,5.0,20.0,91.0
2.7806499004364014,13.0,0.0,12.0,0.0,30.0,3.0,31.0,51.0
2.783900022506714,25.0,49.0,9.0,0.0,21.0,0.0,1002.0,12.0
2.7871499061584473,31.0,55.0,5.0,12.0,24.0,7.0,501.0,437.0
2.7904000282287598,40.0,26.0,11.0,11.0,5.0,4.0,0.0,371.0
2.793649911880493,44.0,13.0,16.0,19.0,178.0,0.0,1368.0,305.0
2.79693341255188,20.0,0.0,16.0,26.0,96.0,0.0,801.0,26.0
2.8001832962036133,38.0,18.0,16.0,31.0,14.0,19.0,26.0,27.0
2.803433418273926,26.0,17.0,25.0,20.0,1572.0,10.0,28.0,28.0
2.806683301925659,43.0,16.0,20.0,28.0,1447.0,0.0,38.0,22.0
2.8099334239959717,40.0,15.0,15.0,37.0,1021.0,12.0,47.0,16.0
2.8132166862487793,37.0,13.0,78.0,28.0,1069.0,12.0,325.0,254.0
2.8164665699005127,13.0,19.0,49.0,11.0,1117.0,11.0,165.0,145.0
2.819716691970825,13.0,24.0,19.0,18.0,2020.0,7.0,6.0,37.0
2.8229665756225586,33.0,32.0,30.0,388.0,1601.0,0.0,41.0,12.0
2.826216697692871,180.0,32.0,36.0,219.0,1182.0,31.0,31.0,14.0
2.829533338546753,92.0,35.0,5.0,50.0,927.0,871.0,82.0,204.0
2.8327832221984863,5.0,37.0,33.0,483.0,716.0,697.0,1774.0,125.0
2.836033344268799,127.0,10.0,18.0,244.0,505.0,523.0,1551.0,46.0
2.8392832279205322,68.0,49.0,32.0,5.0,42.0,11.0,752.0,42.0
2.8425333499908447,69.0,10.0,21.0,11.0,1226.0,22.0,2750.0,38.0
2.8458499908447266,40.0,8.0,37.0,16.0,1693.0,375.0,14596.0,2191.0
2.849100112915039,26.0,23.0,106.0,5.0,2159.0,41.0,18204.0,2402.0
2.8523499965667725,11.0,24.0,83.0,417.0,2223.0,48.0,14300.0,1481.0
2.855600118637085,6.0,25.0,59.0,218.0,2226.0,21.0,25752.0,1390.0
2.8588500022888184,12.0,27.0,32.0,19.0,1305.0,8.0,29848.0,1555.0
2.8621666431427,18.0,29.0,70.0,17.0,794.0,18.0,36480.0,1527.0
2.8654167652130127,32.0,20.0,5.0,26.0,657.0,27.0,32080.0,1498.0
2.868666648864746,47.0,25.0,50.0,25.0,1138.0,33.0,36384.0,2038.0
2.8719167709350586,30.0,6.0,27.0,23.0,331.0,39.0,41056.0,2136.0
2.875166654586792,13.0,12.0,5.0,17.0,37.0,11.0,38960.0,3012.0
2.8784167766571045,35.0,18.0,23.0,10.0,13.0,32.0,36208.0,2785.0
2.8817334175109863,17.0,0.0,27.0,21.0,6.0,11.0,46352.0,2953.0
2.8849833011627197,11.0,21.0,31.0,21.0,9.0,19.0,48272.0,2552.0
2.8882334232330322,10.0,15.0,24.0,21.0,11.0,26.0,44624.0,4260.0
2.8914833068847656,11.0,5.0,26.0,14.0,12.0,19.0,42816.0,4891.0
2.894733428955078,12.0,5.0,40.0,7.0,12.0,12.0,40752.0,4534.0
2.89805006980896,9.0,6.0,54.0,16.0,0.0,20.0,39584.0,2045.0
2.9012999534606934,5.0,12.0,65.0,5.0,11.0,28.0,34240.0,2024.0
2.904550075531006,35.0,18.0,18.0,11.0,7.0,22.0,28940.0,3503.0
2.9077999591827393,37.0,20.0,26.0,27.0,22.0,15.0,18288.0,2978.0
2.9110500812530518,40.0,22.0,9.0,47.0,14.0,5.0,13672.0,44.0
2.9143333435058594,6.0,11.0,10.0,34.0,5.0,22.0,11208.0,2417.0
2.9175832271575928,13.0,0.0,10.0,21.0,11.0,11.0,8026.0,1004.0
2.9208333492279053,20.0,0.0,9.0,12.0,6.0,18.0,5862.0,18.0
2.9240832328796387,10.0,22.0,7.0,17.0,0.0,21.0,3768.0,42.0
2.927333354949951,14.0,23.0,12.0,57.0,27.0,23.0,1936.0,721.0
2.930649995803833,20.0,10.0,16.0,29.0,54.0,16.0,899.0,0.0
2.9339001178741455,13.0,19.0,16.0,0.0,43.0,14.0,52.0,25.0
2.937150001525879,5.0,11.0,15.0,18.0,40.0,34.0,370.0,28.0
2.9403998851776123,6.0,26.0,5.0,31.0,11.0,24.0,943.0,0.0
2.943650007247925,11.0,20.0,13.0,27.0,60.0,13.0,1386.0,28.0
2.9469165802001953,10.0,11.0,35.0,32.0,30.0,18.0,845.0,20.0
2.950166702270508,8.0,8.0,22.0,0.0,12.0,28.0,20.0,35.0
2.953416585922241,12.0,0.0,10.0,19.0,24.0,20.0,1256.0,15.0
2.9566667079925537,11.0,0.0,5.0,29.0,17.0,12.0,1346.0,0.0
2.959916591644287,10.0,11.0,11.0,0.0,0.0,6.0,24.0,48.0
2.963216781616211,0.0,22.0,0.0,12.0,10.0,0.0,28.0,30.0
2.9665000438690186,12.0,17.0,12.0,32.0,9.0,14.0,31.0,12.0
2.969749927520752,24.0,21.0,24.0,37.0,8.0,22.0,27.0,13.0
2.9730000495910645,28.0,23.0,26.0,12.0,7.0,26.0,22.0,33.0
2.976249933242798,18.0,0.0,46.0,0.0,6.0,5.0,26.0,18.0
2.9795000553131104,19.0,47.0,40.0,27.0,3.0,7.0,25.0,31.0
2.982800006866455,19.0,41.0,34.0,0.0,0.0,41.0,23.0,14.0
2.9860498905181885,16.0,30.0,39.0,6.0,18.0,27.0,17.0,0.0
2.989300012588501,13.0,30.0,43.0,20.0,22.0,23.0,10.0,23.0
2.9925498962402344,8.0,43.0,151.0,18.0,21.0,32.0,39.0,0.0
2.995816707611084,5.0,0.0,94.0,15.0,5.0,41.0,834.0,19.0
