,303.1099853515625,304.1099853515625,305.1099853515625,306.1099853515625,307.1099853515625,308.1099853515625
0.5012999773025513,71.0,0.0,14.0,0.0,11.0,19.0
0.5026000142097473,12.0,0.0,5.0,20.0,17.0,24.0
0.5038999915122986,25.0,18.0,37.0,26.0,0.0,55.0
0.5052000284194946,17.0,5.0,10.0,12.0,6.0,17.0
0.5065000057220459,7.0,5.0,31.0,0.0,12.0,7.0
0.5077999830245972,16.0,8.0,24.0,11.0,9.0,28.0
0.5091000199317932,13.0,4.0,10.0,10.0,6.0,18.0
0.5103999972343445,23.0,0.0,13.0,8.0,24.0,8.0
0.5116999745368958,20.0,10.0,9.0,11.0,28.0,12.0
0.5130000114440918,17.0,39.0,5.0,14.0,6.0,6.0
0.5142999887466431,28.0,32.0,13.0,38.0,27.0,14.0
0.5156000256538391,23.0,7.0,15.0,31.0,16.0,15.0
0.5169000029563904,18.0,14.0,17.0,24.0,16.0,16.0
0.5182666778564453,5.0,29.0,22.0,35.0,17.0,0.0
0.5195666551589966,26.0,28.0,26.0,23.0,20.0,14.0
0.5208666920661926,36.0,36.0,46.0,22.0,22.0,16.0
0.5221666693687439,39.0,18.0,41.0,27.0,20.0,17.0
0.5234666466712952,7.0,0.0,27.0,24.0,44.0,50.0
0.5247666835784912,22.0,30.0,0.0,20.0,43.0,49.0
0.5260666608810425,37.0,27.0,0.0,10.0,20.0,41.0
0.5273666381835938,0.0,29.0,27.0,13.0,6.0,52.0
0.5286666750907898,13.0,20.0,20.0,12.0,18.0,7.0
0.5299666523933411,12.0,11.0,21.0,20.0,13.0,41.0
0.5312666893005371,6.0,24.0,21.0,29.0,7.0,11.0
0.5325666666030884,0.0,31.0,0.0,0.0,15.0,0.0
0.5338666439056396,0.0,37.0,3.0,11.0,16.0,16.0
0.5352166891098022,0.0,15.0,5.0,21.0,16.0,5.0
0.5365166664123535,5.0,43.0,16.0,12.0,15.0,15.0
0.5378166437149048,5.0,46.0,29.0,5.0,6.0,5.0
0.5391166806221008,5.0,22.0,20.0,3.0,18.0,11.0
0.5404166579246521,11.0,29.0,19.0,0.0,9.0,11.0
0.5417166948318481,17.0,13.0,18.0,6.0,0.0,10.0
0.5430166721343994,18.0,24.0,9.0,11.0,14.0,11.0
0.5443166494369507,18.0,36.0,0.0,18.0,11.0,6.0
0.5456166863441467,22.0,45.0,20.0,19.0,13.0,11.0
0.546916663646698,26.0,31.0,26.0,20.0,14.0,16.0
0.5482166409492493,5.0,21.0,8.0,33.0,23.0,19.0
0.5495166778564453,6.0,19.0,10.0,38.0,28.0,50.0
0.5508166551589966,6.0,14.0,14.0,5.0,22.0,47.0
0.5521833300590515,0.0,8.0,18.0,11.0,16.0,24.0
0.5534833073616028,3.0,11.0,20.0,5.0,28.0,0.0
0.5547833442687988,5.0,10.0,16.0,5.0,35.0,34.0
0.5560833215713501,13.0,0.0,12.0,5.0,10.0,19.0
0.5573833584785461,9.0,22.0,16.0,11.0,5.0,5.0
0.5586833357810974,5.0,33.0,20.0,16.0,22.0,9.0
0.5599833130836487,6.0,17.0,5.0,15.0,13.0,16.0
0.5612833499908447,9.0,34.0,5.0,13.0,45.0,11.0
0.562583327293396,12.0,25.0,6.0,21.0,29.0,5.0
0.5638833045959473,16.0,16.0,7.0,30.0,12.0,50.0
0.5651833415031433,15.0,28.0,52.0,34.0,30.0,44.0
0.5664833188056946,13.0,39.0,59.0,27.0,0.0,19.0
0.5677833557128906,12.0,0.0,21.0,21.0,5.0,23.0
0.5691333413124084,10.0,23.0,14.0,18.0,0.0,0.0
0.5704333186149597,7.0,37.0,54.0,14.0,3.0,50.0
0.5717333555221558,12.0,35.0,43.0,32.0,5.0,39.0
0.573033332824707,9.0,0.0,28.0,44.0,17.0,5.0
0.5743333101272583,6.0,43.0,30.0,0.0,22.0,33.0
0.5756333470344543,0.0,59.0,33.0,18.0,16.0,8.0
0.5769333243370056,0.0,5.0,15.0,27.0,5.0,27.0
0.5782333612442017,0.0,18.0,6.0,35.0,15.0,25.0
0.5795333385467529,10.0,18.0,16.0,17.0,5.0,28.0
0.5808500051498413,27.0,17.0,12.0,17.0,6.0,14.0
0.5821333527565002,44.0,9.0,20.0,20.0,11.0,8.0
0.5834333300590515,36.0,0.0,14.0,23.0,5.0,34.0
0.5847333073616028,12.0,19.0,7.0,0.0,0.0,38.0
0.5860999822616577,6.0,38.0,15.0,10.0,17.0,28.0
0.5874000191688538,19.0,29.0,30.0,17.0,34.0,17.0
0.588699996471405,32.0,22.0,29.0,9.0,22.0,24.0
0.5899999737739563,38.0,26.0,5.0,33.0,22.0,57.0
0.5913000106811523,14.0,45.0,30.0,31.0,22.0,36.0
0.5925999879837036,28.0,0.0,41.0,28.0,7.0,14.0
0.5939000248908997,42.0,28.0,0.0,31.0,27.0,10.0
0.5952000021934509,24.0,55.0,30.0,34.0,32.0,6.0
0.5964999794960022,23.0,0.0,58.0,13.0,21.0,38.0
0.5978000164031982,22.0,22.0,14.0,11.0,24.0,35.0
0.5990999937057495,8.0,5.0,33.0,36.0,0.0,23.0
0.6003999710083008,6.0,5.0,24.0,0.0,12.0,6.0
0.6017000079154968,14.0,0.0,34.0,36.0,7.0,11.0
0.6030499935150146,10.0,17.0,44.0,14.0,19.0,15.0
0.6043499708175659,7.0,40.0,53.0,39.0,18.0,0.0
0.605650007724762,0.0,36.0,0.0,0.0,47.0,34.0
0.6069499850273132,0.0,21.0,15.0,6.0,40.0,31.0
0.6082500219345093,0.0,6.0,17.0,17.0,10.0,85.0
0.6095499992370605,3.0,26.0,18.0,0.0,32.0,87.0
0.6108499765396118,5.0,25.0,18.0,10.0,53.0,0.0
0.6121500134468079,15.0,30.0,8.0,21.0,17.0,37.0
0.6134499907493591,13.0,32.0,0.0,35.0,13.0,27.0
0.6147500276565552,13.0,41.0,33.0,25.0,30.0,32.0
0.6160500049591064,16.0,12.0,38.0,5.0,13.0,50.0
0.6173499822616577,19.0,25.0,26.0,5.0,7.0,51.0
0.6186500191688538,62.0,23.0,10.0,6.0,17.0,0.0
0.6200166940689087,46.0,15.0,40.0,13.0,16.0,16.0
0.62131667137146,31.0,19.0,5.0,9.0,14.0,17.0
0.6226166486740112,26.0,17.0,22.0,5.0,8.0,5.0
0.6239166855812073,19.0,15.0,21.0,0.0,18.0,20.0
0.6252166628837585,18.0,15.0,5.0,6.0,29.0,22.0
0.6265166401863098,16.0,0.0,20.0,3.0,35.0,23.0
0.6278166770935059,41.0,0.0,30.0,0.0,16.0,21.0
0.6291166543960571,30.0,0.0,11.0,5.0,0.0,23.0
0.6304166913032532,19.0,0.0,0.0,10.0,0.0,0.0
0.6317166686058044,5.0,16.0,0.0,15.0,23.0,0.0
0.6330166459083557,18.0,13.0,24.0,11.0,32.0,5.0
0.6343166828155518,17.0,10.0,16.0,6.0,30.0,17.0
0.635616660118103,15.0,17.0,11.0,15.0,0.0,15.0
0.6369666457176208,5.0,23.0,6.0,16.0,30.0,17.0
0.6382666826248169,22.0,26.0,0.0,16.0,19.0,5.0
0.6395666599273682,16.0,5.0,23.0,13.0,8.0,14.0
0.6408666372299194,13.0,25.0,18.0,10.0,5.0,23.0
0.6421666741371155,10.0,0.0,0.0,15.0,14.0,12.0
0.6434666514396667,8.0,3.0,22.0,5.0,13.0,26.0
0.6447666883468628,33.0,5.0,30.0,18.0,11.0,11.0
0.6460666656494141,26.0,8.0,5.0,21.0,19.0,15.0
0.6473666429519653,19.0,10.0,15.0,23.0,20.0,18.0
0.6486666798591614,12.0,9.0,19.0,13.0,21.0,19.0
0.6499666571617126,19.0,8.0,7.0,20.0,21.0,20.0
0.6512666940689087,30.0,7.0,33.0,28.0,11.0,28.0
0.65256667137146,33.0,5.0,28.0,11.0,0.0,47.0
0.6539333462715149,7.0,0.0,22.0,73.0,12.0,34.0
0.6552333235740662,12.0,9.0,5.0,39.0,6.0,20.0
0.6565333604812622,6.0,9.0,25.0,5.0,16.0,6.0
0.6578333377838135,0.0,12.0,30.0,5.0,10.0,15.0
0.6591333150863647,0.0,12.0,18.0,7.0,33.0,17.0
0.6604333519935608,40.0,55.0,14.0,0.0,40.0,14.0
0.6617333292961121,39.0,55.0,10.0,15.0,0.0,23.0
0.6630333065986633,28.0,15.0,39.0,17.0,21.0,0.0
0.6643333435058594,10.0,0.0,40.0,18.0,53.0,25.0
0.6656333208084106,39.0,18.0,36.0,18.0,39.0,5.0
0.6669333577156067,15.0,37.0,30.0,18.0,29.0,12.0
0.668233335018158,0.0,30.0,18.0,17.0,0.0,16.0
0.6695333123207092,13.0,5.0,10.0,33.0,49.0,18.0
0.6708833575248718,6.0,14.0,0.0,21.0,29.0,60.0
0.6721833348274231,0.0,7.0,23.0,10.0,8.0,56.0
0.6734833121299744,0.0,0.0,28.0,14.0,0.0,19.0
0.6747833490371704,10.0,33.0,32.0,18.0,20.0,18.0
0.6761000156402588,17.0,33.0,13.0,0.0,5.0,17.0
0.677383303642273,25.0,28.0,40.0,19.0,14.0,0.0
0.6786999702453613,12.0,23.0,25.0,5.0,5.0,4.0
0.6799833178520203,10.0,23.0,5.0,3.0,8.0,8.0
0.6812833547592163,21.0,11.0,0.0,0.0,10.0,28.0
0.6825833320617676,19.0,21.0,18.0,0.0,15.0,28.0
0.6838833093643188,17.0,28.0,28.0,19.0,19.0,20.0
0.6851833462715149,20.0,8.0,16.0,17.0,0.0,13.0
0.6864833235740662,8.0,11.0,11.0,44.0,24.0,17.0
0.6878499984741211,5.0,11.0,7.0,35.0,23.0,21.0
0.6891499757766724,17.0,10.0,18.0,12.0,40.0,14.0
0.6904500126838684,30.0,12.0,5.0,15.0,20.0,6.0
0.6917499899864197,23.0,14.0,16.0,35.0,0.0,16.0
0.6930500268936157,17.0,10.0,29.0,11.0,43.0,26.0
0.694350004196167,27.0,5.0,20.0,39.0,0.0,29.0
0.6956499814987183,5.0,5.0,31.0,13.0,5.0,31.0
0.6969500184059143,31.0,5.0,0.0,31.0,24.0,34.0
0.6982499957084656,18.0,21.0,7.0,0.0,0.0,10.0
0.6995499730110168,7.0,20.0,6.0,5.0,29.0,0.0
0.7008500099182129,29.0,18.0,5.0,12.0,5.0,11.0
0.7021499872207642,0.0,5.0,0.0,19.0,38.0,6.0
0.7034500241279602,0.0,6.0,12.0,14.0,31.0,0.0
0.7048166394233704,3.0,5.0,12.0,9.0,0.0,35.0
0.7061166763305664,5.0,11.0,12.0,41.0,0.0,31.0
0.7074166536331177,8.0,6.0,23.0,44.0,11.0,7.0
0.7087166905403137,10.0,0.0,12.0,30.0,16.0,0.0
0.710016667842865,10.0,0.0,0.0,25.0,20.0,8.0
0.7113166451454163,10.0,0.0,18.0,21.0,39.0,16.0
0.7126166820526123,18.0,24.0,12.0,42.0,32.0,21.0
0.7139166593551636,20.0,19.0,6.0,6.0,24.0,25.0
0.7152166962623596,14.0,28.0,28.0,44.0,30.0,34.0
0.7165166735649109,7.0,0.0,25.0,0.0,26.0,42.0
0.7178166508674622,16.0,6.0,22.0,22.0,7.0,34.0
0.7191166877746582,26.0,11.0,42.0,16.0,38.0,26.0
0.7204166650772095,20.0,26.0,5.0,15.0,12.0,12.0
0.7217666506767273,14.0,28.0,0.0,18.0,26.0,5.0
0.7230666875839233,10.0,21.0,0.0,21.0,18.0,33.0
0.7243666648864746,5.0,12.0,0.0,0.0,5.0,63.0
0.7256666421890259,22.0,16.0,0.0,26.0,13.0,49.0
0.7269666790962219,21.0,18.0,19.0,21.0,16.0,20.0
0.7282666563987732,15.0,20.0,18.0,25.0,11.0,13.0
0.7295666933059692,26.0,5.0,17.0,29.0,9.0,24.0
0.7308666706085205,0.0,14.0,11.0,26.0,5.0,21.0
0.7321666479110718,17.0,5.0,5.0,0.0,26.0,14.0
0.7334666848182678,30.0,12.0,5.0,5.0,36.0,5.0
0.7347666621208191,43.0,25.0,0.0,9.0,29.0,6.0
0.7360833287239075,38.0,20.0,10.0,13.0,17.0,7.0
0.7373666763305664,42.0,0.0,11.0,30.0,26.0,0.0
0.7387333512306213,20.0,24.0,12.0,29.0,39.0,5.0
0.7400333285331726,42.0,48.0,24.0,25.0,5.0,5.0
0.7413333058357239,24.0,45.0,23.0,35.0,15.0,5.0
0.7426333427429199,34.0,13.0,22.0,28.0,7.0,10.0
0.7439333200454712,0.0,12.0,19.0,20.0,17.0,11.0
0.7452333569526672,41.0,22.0,5.0,16.0,10.0,12.0
0.7465333342552185,21.0,19.0,5.0,11.0,16.0,5.0
0.7478333115577698,28.0,0.0,5.0,5.0,22.0,12.0
0.7491333484649658,43.0,19.0,17.0,7.0,25.0,10.0
0.7504333257675171,16.0,18.0,13.0,17.0,29.0,8.0
0.7517333626747131,51.0,9.0,8.0,16.0,0.0,14.0
0.7530333399772644,46.0,0.0,20.0,20.0,23.0,19.0
0.7543333172798157,41.0,0.0,10.0,0.0,20.0,20.0
0.7556833624839783,41.0,0.0,36.0,22.0,0.0,20.0
0.7569833397865295,32.0,15.0,30.0,10.0,18.0,17.0
0.7582833170890808,20.0,30.0,10.0,8.0,36.0,24.0
0.7595833539962769,22.0,34.0,24.0,14.0,26.0,31.0
0.7608833312988281,23.0,17.0,11.0,19.0,23.0,28.0
0.7621999979019165,26.0,0.0,33.0,19.0,11.0,24.0
0.7634833455085754,21.0,5.0,0.0,19.0,18.0,22.0
0.7647833228111267,16.0,10.0,127.0,7.0,5.0,12.0
0.7660833597183228,28.0,5.0,67.0,24.0,9.0,5.0
0.767383337020874,18.0,5.0,7.0,10.0,10.0,5.0
0.7686833143234253,9.0,10.0,10.0,11.0,29.0,10.0
0.7699833512306213,0.0,7.0,21.0,11.0,32.0,15.0
0.7712833285331726,21.0,5.0,16.0,13.0,0.0,41.0
0.7726500034332275,39.0,8.0,11.0,11.0,37.0,43.0
0.7739499807357788,33.0,7.0,5.0,8.0,0.0,34.0
0.7752500176429749,26.0,6.0,12.0,9.0,13.0,25.0
0.7765499949455261,10.0,6.0,9.0,10.0,28.0,5.0
0.7778499722480774,0.0,6.0,5.0,8.0,10.0,21.0
0.7791500091552734,9.0,39.0,9.0,5.0,18.0,0.0
0.7804499864578247,23.0,53.0,8.0,8.0,13.0,20.0
0.7817500233650208,18.0,72.0,7.0,4.0,7.0,34.0
0.783050000667572,12.0,5.0,0.0,0.0,0.0,5.0
0.7843499779701233,18.0,6.0,7.0,31.0,3.0,0.0
0.7856500148773193,13.0,11.0,16.0,34.0,5.0,204.0
0.7869499921798706,18.0,1092.0,25.0,11.0,487.0,133.0
0.7882500290870667,10.0,3482.0,671.0,1066.0,2629.0,61.0
0.7896166443824768,11.0,10428.0,5502.0,1801.0,2917.0,1564.0
0.7909166812896729,11.0,21668.0,16036.0,8500.0,10132.0,4175.0
0.7922166585922241,8.0,45360.0,47472.0,32468.0,19472.0,5303.0
0.7935166954994202,15.0,97680.0,84448.0,54160.0,46256.0,12644.0
0.7948166728019714,17.0,152384.0,133760.0,65600.0,52704.0,26504.0
0.7961166501045227,18.0,177088.0,172608.0,107136.0,81088.0,30400.0
0.7974166870117188,5.0,270336.0,267008.0,123280.0,102768.0,33952.0
0.79871666431427,47.0,280896.0,251584.0,157888.0,118560.0,38464.0
0.8000166416168213,38.0,328832.0,314752.0,172224.0,127744.0,43280.0
0.8013166785240173,30.0,342528.0,333120.0,179584.0,129872.0,43840.0
0.8026166558265686,51.0,324800.0,343936.0,192256.0,136704.0,36976.0
0.8039166927337646,24.0,336768.0,328576.0,188544.0,143552.0,42608.0
0.8052166700363159,19.0,338688.0,322496.0,184768.0,138304.0,48272.0
0.8065666556358337,51.0,340544.0,332800.0,198784.0,136256.0,36336.0
0.8078666925430298,33.0,281344.0,325120.0,172352.0,141312.0,38880.0
0.809166669845581,56.0,319232.0,329920.0,205888.0,145600.0,44352.0
0.8104666471481323,91.0,319360.0,335232.0,218176.0,149888.0,46688.0
0.8117666840553284,125.0,291008.0,312960.0,185280.0,129760.0,42000.0
0.8130666613578796,101.0,333184.0,341248.0,189824.0,146816.0,43696.0
0.8143666386604309,12.0,302336.0,322944.0,192192.0,135488.0,48352.0
0.815666675567627,25.0,311296.0,321472.0,199936.0,129920.0,46752.0
0.8169666528701782,60.0,291968.0,319936.0,177984.0,149440.0,35920.0
0.8182666897773743,48.0,282752.0,317120.0,159552.0,112688.0,34272.0
0.8195666670799255,43.0,288064.0,308864.0,168384.0,124304.0,47360.0
0.8208666443824768,19.0,266112.0,252800.0,144896.0,112288.0,33040.0
0.8221666812896729,30.0,240384.0,252352.0,145728.0,110688.0,27792.0
0.8235333561897278,10.0,222912.0,249536.0,127840.0,97536.0,29832.0
0.824833333492279,54.0,185792.0,204416.0,115344.0,91872.0,23072.0
0.8261333107948303,67.0,168960.0,194880.0,95760.0,73504.0,18916.0
0.8274333477020264,50.0,165312.0,164480.0,110688.0,64112.0,25448.0
0.8287333250045776,99.0,137728.0,139264.0,83040.0,54640.0,22832.0
0.8300333619117737,9.0,107376.0,111472.0,70784.0,53280.0,14244.0
0.831333339214325,95.0,106000.0,95408.0,67712.0,37296.0,14352.0
0.8326333165168762,5.0,97744.0,86448.0,58000.0,38384.0,12996.0
0.8339333534240723,10.0,71840.0,80160.0,43296.0,22424.0,10272.0
0.8352333307266235,43.0,49056.0,54432.0,28828.0,22748.0,4959.0
0.8365333080291748,32.0,47744.0,57776.0,34960.0,16284.0,3627.0
0.8378333449363708,39.0,32428.0,34624.0,17704.0,12848.0,6118.0
0.8391333222389221,21.0,25688.0,27720.0,18700.0,12540.0,5950.0
0.8404833078384399,24.0,24992.0,34208.0,20776.0,13272.0,3813.0
0.841783344745636,18.0,23964.0,19764.0,17180.0,6039.0,3980.0
0.8430833220481873,22.0,21600.0,16480.0,10276.0,10356.0,2223.0
0.8443833589553833,11.0,14648.0,16596.0,4986.0,6035.0,2765.0
0.8456833362579346,11.0,14332.0,13796.0,12236.0,10048.0,980.0
0.8469833135604858,14.0,17388.0,5879.0,7377.0,4810.0,979.0
0.8482833504676819,16.0,12260.0,7466.0,5455.0,20.0,16.0
0.8495833277702332,0.0,10876.0,9168.0,7938.0,7410.0,11.0
0.8508833050727844,17.0,7828.0,9184.0,4359.0,6010.0,228.0
0.8521833419799805,22.0,6688.0,9200.0,1020.0,4648.0,387.0
0.8534833192825317,17.0,8360.0,5411.0,2043.0,3971.0,546.0
0.8547833561897278,5.0,9472.0,8696.0,4922.0,2865.0,632.0
0.856083333492279,21.0,5489.0,8324.0,3086.0,1114.0,55.0
0.857450008392334,59.0,11728.0,4818.0,533.0,2507.0,278.0
0.8587499856948853,41.0,5273.0,5749.0,2448.0,1167.0,148.0
0.8600500226020813,22.0,3550.0,5675.0,2025.0,1208.0,18.0
0.8613499999046326,18.0,13212.0,6361.0,1603.0,1248.0,23.0
0.8626499772071838,10.0,4770.0,6857.0,1968.0,1328.0,27.0
0.8639500141143799,18.0,6185.0,5718.0,2333.0,1408.0,491.0
0.8652499914169312,26.0,1783.0,4580.0,2189.0,927.0,251.0
0.8665500283241272,26.0,3237.0,2271.0,1551.0,445.0,10.0
0.8678500056266785,0.0,4690.0,6021.0,912.0,2493.0,8.0
0.8691499829292297,51.0,6244.0,3441.0,2697.0,1373.0,6.0
0.8704500198364258,37.0,7231.0,3821.0,2066.0,253.0,8.0
0.871749997138977,7.0,2598.0,5953.0,621.0,1117.0,10.0
0.8730499744415283,18.0,7280.0,3037.0,1581.0,669.0,5.0
0.8744166493415833,29.0,5455.0,5246.0,1334.0,1733.0,0.0
0.8757166862487793,20.0,5950.0,4336.0,1087.0,874.0,688.0
0.8770166635513306,8.0,3144.0,3115.0,1475.0,15.0,359.0
0.8783166408538818,42.0,3029.0,4193.0,5.0,896.0,31.0
0.8796166777610779,34.0,2914.0,5271.0,881.0,1304.0,23.0
0.8809166550636292,25.0,9308.0,1535.0,1230.0,194.0,15.0
0.8822166919708252,29.0,8094.0,3406.0,65.0,784.0,14.0
0.8835166692733765,6.0,6586.0,1391.0,1874.0,958.0,513.0
0.8848166465759277,39.0,5078.0,1375.0,2384.0,7.0,1011.0
0.8861166834831238,22.0,3251.0,1359.0,1557.0,39.0,517.0
0.887416660785675,5.0,3222.0,2522.0,730.0,745.0,23.0
0.8887166380882263,16.0,4082.0,2609.0,2287.0,392.0,689.0
0.8900166749954224,26.0,4942.0,1161.0,477.0,40.0,8.0
0.8913666605949402,34.0,3717.0,1719.0,1153.0,1135.0,19.0
0.8926666378974915,22.0,2492.0,2277.0,358.0,1175.0,643.0
0.8939666748046875,19.0,4397.0,4798.0,184.0,2212.0,327.0
0.8952666521072388,17.0,6303.0,3439.0,10.0,1532.0,10.0
0.8965666890144348,15.0,5806.0,2079.0,147.0,47.0,10.0
0.8978666663169861,13.0,5309.0,1198.0,1021.0,522.0,12.0
0.8991833329200745,5.0,4576.0,2915.0,523.0,19.0,210.0
0.9004666805267334,12.0,3844.0,2666.0,25.0,538.0,123.0
0.9017833471298218,13.0,2979.0,2991.0,48.0,1056.0,36.0
0.9030666947364807,13.0,4649.0,2536.0,39.0,528.0,20.0
0.904366672039032,7.0,4393.0,2578.0,30.0,0.0,11.0
0.9056666493415833,46.0,4138.0,2916.0,21.0,29.0,39.0
0.9069666862487793,51.0,4681.0,2603.0,2088.0,42.0,39.0
0.9083333611488342,56.0,2373.0,2291.0,2698.0,20.0,32.0
0.9096333384513855,47.0,5084.0,2304.0,5.0,13.0,26.0
0.9109333157539368,38.0,5415.0,2318.0,4152.0,5.0,30.0
0.9122333526611328,36.0,5746.0,4401.0,1905.0,223.0,18.0
0.9135333299636841,34.0,3690.0,4910.0,2269.0,441.0,18.0
0.9148333072662354,0.0,1634.0,1275.0,1248.0,411.0,18.0
0.9161333441734314,33.0,7491.0,1728.0,1416.0,782.0,995.0
0.9174333214759827,21.0,7524.0,1692.0,560.0,652.0,835.0
0.9187333583831787,7.0,7055.0,1779.0,1750.0,522.0,1013.0
0.92003333568573,9.0,7194.0,1303.0,321.0,196.0,40.0
0.9213333129882812,19.0,7717.0,827.0,774.0,259.0,19.0
0.9226333498954773,0.0,9108.0,2389.0,978.0,323.0,1016.0
0.9239333271980286,8.0,5042.0,2936.0,1182.0,757.0,72.0
0.9252833127975464,14.0,4128.0,2482.0,602.0,3064.0,22.0
0.9265833497047424,5.0,7371.0,1948.0,22.0,2873.0,7.0
0.9278833270072937,23.0,5642.0,2855.0,262.0,520.0,12.0
0.929183304309845,23.0,5836.0,1321.0,502.0,661.0,13.0
0.930483341217041,24.0,8684.0,829.0,1126.0,297.0,13.0
0.9317833185195923,24.0,9316.0,337.0,1538.0,37.0,912.0
0.9330833554267883,28.0,4784.0,2105.0,1752.0,960.0,465.0
0.9343833327293396,22.0,5515.0,1584.0,783.0,490.0,19.0
0.9356833100318909,17.0,8114.0,1063.0,905.0,20.0,0.0
0.9369833469390869,24.0,8132.0,1397.0,41.0,29.0,16.0
0.9382833242416382,24.0,9292.0,1046.0,164.0,240.0,363.0
0.9395833611488342,23.0,7977.0,2534.0,288.0,460.0,190.0
0.9408833384513855,0.0,8256.0,2722.0,21.0,355.0,17.0
0.9422500133514404,0.0,8148.0,2911.0,309.0,251.0,5.0
0.9435499906539917,39.0,7724.0,2807.0,596.0,44.0,11.0
0.9448500275611877,33.0,7300.0,1612.0,823.0,1562.0,17.0
0.946150004863739,34.0,8081.0,557.0,1050.0,1197.0,28.0
0.9474499821662903,16.0,6289.0,1071.0,1257.0,1140.0,17.0
0.9487500190734863,24.0,6435.0,1694.0,411.0,590.0,6.0
0.9500499963760376,28.0,6582.0,1599.0,1189.0,22.0,5.0
0.9513499736785889,16.0,6604.0,1504.0,682.0,43.0,42.0
0.9526500105857849,5.0,6627.0,2293.0,175.0,30.0,46.0
0.9539499878883362,8.0,4051.0,1937.0,218.0,16.0,34.0
0.9552500247955322,11.0,6807.0,1582.0,261.0,18.0,22.0
0.9565500020980835,5.0,4526.0,2899.0,1131.0,15.0,18.0
0.9578499794006348,3.0,7977.0,4217.0,2691.0,12.0,15.0
0.9592000246047974,0.0,8052.0,3610.0,2396.0,17.0,16.0
0.9605000019073486,16.0,5874.0,3003.0,696.0,22.0,22.0
0.9617999792098999,18.0,3497.0,2685.0,1430.0,785.0,31.0
0.963100016117096,0.0,5881.0,2188.0,771.0,715.0,25.0
0.9643999934196472,17.0,8264.0,4645.0,186.0,610.0,303.0
0.9656999707221985,15.0,6756.0,275.0,41.0,5.0,560.0
0.9670000076293945,0.0,6570.0,755.0,20.0,204.0,308.0
0.9682999849319458,0.0,3416.0,100.0,0.0,694.0,56.0
0.9696000218391418,17.0,3266.0,1059.0,104.0,318.0,67.0
0.9708999991416931,19.0,2687.0,2017.0,208.0,551.0,40.0
0.9721999764442444,20.0,2109.0,1782.0,118.0,784.0,55.0
0.9735000133514404,5.0,3600.0,2782.0,29.0,609.0,8.0
0.9747999906539917,31.0,3961.0,2245.0,2010.0,318.0,56.0
0.9761666655540466,36.0,4207.0,2009.0,1779.0,28.0,35.0
0.9774666428565979,0.0,4453.0,2316.0,2846.0,10.0,14.0
0.978766679763794,6.0,4813.0,2624.0,2039.0,317.0,13.0
0.9800666570663452,0.0,5173.0,1539.0,582.0,535.0,12.0
0.9813666939735413,13.0,5608.0,735.0,1074.0,326.0,24.0
0.9826666712760925,18.0,5607.0,1269.0,29.0,116.0,22.0
0.9839666485786438,14.0,1366.0,1263.0,521.0,246.0,20.0
0.9852666854858398,21.0,5319.0,1258.0,267.0,128.0,23.0
0.9865666627883911,27.0,3241.0,4013.0,13.0,11.0,30.0
0.9878666400909424,14.0,2372.0,4187.0,1571.0,1020.0,11.0
0.9891666769981384,0.0,5979.0,2005.0,1205.0,1359.0,0.0
0.9904666543006897,34.0,5736.0,576.0,1617.0,1250.0,20.0
0.9917666912078857,19.0,3509.0,3657.0,1555.0,1142.0,127.0
0.9931166768074036,5.0,2382.0,4454.0,1493.0,1251.0,73.0
0.9944166541099548,0.0,3680.0,3751.0,27.0,1360.0,19.0
0.9957166910171509,24.0,3397.0,4150.0,2218.0,820.0,14.0
0.9970166683197021,17.0,1643.0,4377.0,1400.0,1012.0,22.0
0.9983166456222534,10.0,4190.0,3295.0,994.0,806.0,25.0
0.9996166825294495,10.0,2583.0,2390.0,269.0,31.0,28.0
1.0009167194366455,5.0,2992.0,1264.0,1446.0,0.0,20.0
1.0022166967391968,8.0,4745.0,4519.0,5.0,581.0,273.0
1.003516674041748,11.0,2603.0,3439.0,3392.0,2197.0,152.0
1.0048166513442993,14.0,4817.0,3418.0,3372.0,1666.0,31.0
1.0061166286468506,59.0,4119.0,4601.0,1086.0,1135.0,11.0
1.0074167251586914,74.0,2690.0,3434.0,4383.0,786.0,156.0
1.0087167024612427,29.0,4123.0,5745.0,1515.0,1012.0,28.0
1.0100833177566528,0.0,4214.0,35.0,324.0,744.0,32.0
1.011383295059204,15.0,4304.0,2989.0,471.0,17.0,23.0
1.012683391571045,10.0,3912.0,5015.0,947.0,9.0,12.0
1.0139833688735962,16.0,3520.0,4479.0,7.0,14.0,0.0
1.0152833461761475,22.0,3625.0,3943.0,460.0,352.0,32.0
1.0165833234786987,0.0,3730.0,5232.0,912.0,364.0,63.0
1.01788330078125,6.0,4059.0,2516.0,2690.0,376.0,109.0
1.0191832780838013,12.0,2957.0,1968.0,2239.0,1057.0,156.0
1.020483374595642,15.0,1856.0,1520.0,3172.0,1738.0,775.0
1.0217833518981934,0.0,3698.0,1211.0,2420.0,1107.0,391.0
1.0230833292007446,0.0,2273.0,1629.0,2792.0,475.0,6.0
1.024383306503296,9.0,2078.0,2048.0,3673.0,1978.0,159.0
1.0256832838058472,8.0,2489.0,2357.0,4241.0,255.0,247.0
1.0270333290100098,7.0,2973.0,2665.0,802.0,2776.0,126.0
1.028333306312561,7.0,5399.0,2146.0,2508.0,3150.0,5.0
1.0296332836151123,16.0,5350.0,1627.0,2890.0,1901.0,662.0
1.0309333801269531,17.0,5119.0,3708.0,2412.0,3212.0,348.0
1.0322333574295044,9.0,2012.0,4329.0,2024.0,2499.0,34.0
1.0335333347320557,0.0,5856.0,4950.0,1529.0,0.0,26.0
1.034833312034607,11.0,3803.0,4935.0,1034.0,2933.0,18.0
1.0361332893371582,59.0,5486.0,4800.0,3274.0,3572.0,68.0
1.037433385848999,42.0,6669.0,4665.0,3566.0,2398.0,118.0
1.0387333631515503,25.0,4984.0,3586.0,3858.0,1972.0,61.0
1.0400333404541016,26.0,3299.0,2516.0,3109.0,3412.0,5.0
1.0413333177566528,10.0,3760.0,5334.0,3190.0,1448.0,360.0
1.042633295059204,45.0,3633.0,2910.0,3271.0,3333.0,884.0
1.0440000295639038,45.0,3815.0,8364.0,3150.0,2624.0,1408.0
1.045300006866455,7.0,3998.0,7415.0,3030.0,2446.0,1819.0
1.0465999841690063,0.0,2441.0,4311.0,3697.0,3911.0,1702.0
1.0478999614715576,10.0,1404.0,5080.0,3771.0,0.0,11.0
1.0492000579833984,14.0,4803.0,5992.0,1913.0,2243.0,60.0
1.0505000352859497,17.0,2036.0,6020.0,2364.0,442.0,1850.0
1.051800012588501,28.0,2627.0,5533.0,2814.0,2028.0,364.0
1.0530999898910522,38.0,4102.0,5197.0,3126.0,1157.0,11.0
1.0543999671936035,22.0,4933.0,5620.0,3437.0,1625.0,18.0
1.0556999444961548,7.0,5764.0,6043.0,3669.0,2325.0,1561.0
1.0570000410079956,14.0,3430.0,6999.0,4489.0,1792.0,1182.0
1.0583000183105469,38.0,6391.0,7955.0,633.0,1260.0,303.0
1.0595999956130981,34.0,4649.0,6415.0,5286.0,3243.0,1392.0
1.0609500408172607,31.0,5584.0,4875.0,2831.0,2942.0,40.0
1.062250018119812,14.0,5255.0,4447.0,3774.0,2641.0,644.0
1.0635499954223633,16.0,6020.0,4097.0,4285.0,1712.0,1490.0
1.0648499727249146,48.0,6784.0,3746.0,4530.0,2607.0,938.0
1.0661499500274658,44.0,7114.0,5493.0,2459.0,3503.0,21.0
1.0674500465393066,47.0,7443.0,5319.0,2707.0,3299.0,1220.0
1.068750023841858,5.0,6552.0,5145.0,2954.0,3094.0,2153.0
1.0700500011444092,60.0,5661.0,7989.0,3541.0,3345.0,1162.0
1.0713499784469604,5.0,5911.0,6902.0,1493.0,3215.0,171.0
1.0726499557495117,7.0,7078.0,5815.0,4059.0,3086.0,0.0
1.0739500522613525,25.0,8244.0,5423.0,4241.0,3422.0,1733.0
1.0752500295639038,19.0,7970.0,5094.0,4424.0,3858.0,863.0
1.076550006866455,13.0,7696.0,4765.0,5127.0,4294.0,451.0
1.0779166221618652,28.0,3618.0,7426.0,5831.0,297.0,39.0
1.079216718673706,5.0,5989.0,10556.0,5220.0,2856.0,1133.0
1.0805166959762573,7.0,6047.0,10972.0,4609.0,5986.0,276.0
1.0818166732788086,6.0,6104.0,3999.0,5548.0,6538.0,2255.0
1.0831166505813599,5.0,7140.0,8648.0,5743.0,4935.0,2626.0
1.0844166278839111,21.0,8176.0,7202.0,5852.0,5913.0,2486.0
1.085716724395752,21.0,4487.0,5254.0,4140.0,6031.0,2167.0
1.0870167016983032,5.0,9848.0,12188.0,2428.0,5285.0,2165.0
1.0883166790008545,13.0,6999.0,12736.0,5909.0,2699.0,1364.0
1.0896166563034058,8.0,2372.0,14008.0,5076.0,5796.0,2343.0
1.090916633605957,0.0,13744.0,9508.0,5072.0,909.0,744.0
1.0922166109085083,7.0,12108.0,9764.0,6112.0,609.0,1813.0
1.0935167074203491,22.0,10288.0,8436.0,5440.0,3114.0,774.0
1.0948666334152222,21.0,9820.0,9700.0,7160.0,2332.0,1344.0
1.0961666107177734,21.0,11288.0,10968.0,7639.0,2405.0,2747.0
1.0974667072296143,21.0,11976.0,7173.0,8118.0,5704.0,2798.0
1.0987666845321655,31.0,12660.0,11584.0,7808.0,5486.0,11.0
1.1000666618347168,39.0,7554.0,6781.0,4661.0,4305.0,651.0
1.101366639137268,48.0,6722.0,13276.0,5274.0,4018.0,228.0
1.1026666164398193,38.0,9104.0,14820.0,4508.0,3730.0,1104.0
1.1039667129516602,19.0,7683.0,9940.0,3742.0,5880.0,2123.0
1.1052666902542114,17.0,6262.0,15132.0,8896.0,6425.0,1761.0
1.1065666675567627,0.0,6075.0,12264.0,7995.0,5337.0,1398.0
1.107866644859314,0.0,7087.0,14660.0,5439.0,3377.0,1299.0
1.1091666221618652,0.0,11572.0,19568.0,7967.0,6075.0,1199.0
1.110466718673706,16.0,13624.0,21660.0,7716.0,6315.0,2310.0
1.1118333339691162,19.0,14640.0,17176.0,7464.0,6887.0,2097.0
1.1131333112716675,13.0,9036.0,11520.0,6898.0,5115.0,845.0
1.1144332885742188,7.0,8161.0,13040.0,6332.0,6321.0,2825.0
1.1157333850860596,20.0,7760.0,14844.0,7043.0,2649.0,2099.0
1.1170333623886108,10.0,13048.0,12576.0,7755.0,3892.0,1421.0
1.118333339691162,0.0,12444.0,16200.0,8764.0,7170.0,1839.0
1.1196333169937134,11.0,11972.0,16660.0,10100.0,8336.0,2023.0
1.1209332942962646,21.0,11500.0,17208.0,9548.0,8062.0,2207.0
1.1222333908081055,22.0,17024.0,16300.0,11492.0,4272.0,1472.0
1.1235333681106567,16.0,15928.0,22084.0,11364.0,5336.0,1071.0
1.124833345413208,9.0,11140.0,20164.0,11232.0,6863.0,1054.0
1.1261333227157593,0.0,13620.0,18244.0,7832.0,6393.0,1369.0
1.1274333000183105,0.0,15316.0,16824.0,3279.0,4190.0,1529.0
1.1287833452224731,18.0,13768.0,17380.0,10320.0,3692.0,2357.0
1.1300833225250244,14.0,15340.0,17932.0,8516.0,4475.0,3186.0
1.1313832998275757,10.0,15508.0,16988.0,7954.0,5258.0,3746.0
1.132683277130127,22.0,15672.0,16044.0,6665.0,7447.0,2764.0
1.1339833736419678,23.0,11192.0,16620.0,10800.0,9636.0,1821.0
1.135283350944519,12.0,10976.0,14572.0,9576.0,9208.0,1115.0
1.1365833282470703,6.0,10760.0,12528.0,8352.0,8780.0,166.0
1.1378833055496216,28.0,10300.0,15180.0,6231.0,6915.0,3316.0
1.1391832828521729,37.0,13732.0,15776.0,12304.0,7517.0,3041.0
1.1404833793640137,22.0,17168.0,20088.0,10952.0,8780.0,2765.0
1.141783356666565,19.0,17396.0,20388.0,13380.0,9808.0,3109.0
1.1430833339691162,31.0,18176.0,22228.0,11620.0,12356.0,2673.0
1.1443833112716675,18.0,18952.0,24068.0,10636.0,8988.0,2450.0
1.1457500457763672,5.0,20032.0,25208.0,9652.0,5622.0,2470.0
1.1470500230789185,5.0,23672.0,26352.0,9588.0,10192.0,2490.0
1.1483500003814697,12.0,22964.0,24292.0,12108.0,11660.0,1938.0
1.149649977684021,32.0,24752.0,26964.0,18908.0,7772.0,1386.0
1.1509499549865723,35.0,20384.0,25548.0,16608.0,5658.0,2157.0
1.152250051498413,0.0,22692.0,25544.0,14652.0,9940.0,2929.0
1.1535500288009644,13.0,22232.0,25544.0,14676.0,13688.0,2781.0
1.1548500061035156,5.0,13416.0,30988.0,14696.0,11396.0,2480.0
1.156149983406067,26.0,26412.0,31268.0,17136.0,12392.0,2179.0
1.1574499607086182,22.0,18432.0,24632.0,17872.0,10848.0,1185.0
1.158750057220459,18.0,23968.0,26888.0,21768.0,13484.0,2380.0
1.1600500345230103,5.0,20964.0,29572.0,8093.0,9488.0,3574.0
1.1613500118255615,28.0,21432.0,32256.0,14684.0,13276.0,3415.0
1.1627000570297241,38.0,23300.0,22668.0,20392.0,12320.0,959.0
1.1640000343322754,0.0,25168.0,20948.0,25708.0,15160.0,4315.0
1.1653000116348267,10.0,28428.0,30240.0,16388.0,9144.0,2538.0
1.166599988937378,18.0,29416.0,28816.0,20424.0,12464.0,6103.0
1.1678999662399292,26.0,27884.0,25752.0,16732.0,17476.0,5799.0
1.1691999435424805,25.0,23312.0,27268.0,20460.0,15788.0,3154.0
1.1705000400543213,33.0,23804.0,28780.0,21212.0,14096.0,4854.0
1.1718000173568726,31.0,26520.0,30396.0,19328.0,12136.0,6553.0
1.1730999946594238,26.0,24196.0,32016.0,20980.0,15384.0,2781.0
1.174399971961975,11.0,27420.0,38144.0,22628.0,13772.0,3195.0
1.1756999492645264,26.0,26652.0,39488.0,24060.0,12724.0,6917.0
1.1770000457763672,17.0,24480.0,39936.0,18792.0,15072.0,7028.0
1.1783000230789185,8.0,28208.0,29184.0,16068.0,13644.0,6338.0
1.1796666383743286,5.0,28304.0,39648.0,27472.0,12212.0,5407.0
1.1809666156768799,11.0,24188.0,37808.0,21680.0,16444.0,4476.0
1.1822667121887207,11.0,30848.0,45040.0,21508.0,18904.0,6065.0
1.183566689491272,11.0,32372.0,44384.0,26592.0,19492.0,5188.0
1.1848666667938232,19.0,32636.0,33040.0,22460.0,18308.0,4311.0
1.1861666440963745,0.0,29472.0,55440.0,20748.0,17888.0,3871.0
1.1874666213989258,10.0,34352.0,51200.0,25684.0,17464.0,4896.0
1.1887667179107666,19.0,29992.0,41824.0,22460.0,17768.0,5628.0
1.1900666952133179,10.0,31896.0,45328.0,19904.0,18072.0,6360.0
1.1913666725158691,0.0,39424.0,54592.0,19988.0,12308.0,2810.0
1.1926666498184204,0.0,38128.0,41840.0,20892.0,16936.0,6535.0
1.1939666271209717,11.0,40688.0,50880.0,19364.0,20652.0,5408.0
1.1952667236328125,8.0,44944.0,42432.0,26508.0,11504.0,6120.0
1.1966166496276855,5.0,47152.0,53616.0,25108.0,21100.0,5353.0
1.1979166269302368,5.0,37424.0,43808.0,23708.0,22052.0,4587.0
1.1992332935333252,5.0,33632.0,54272.0,21052.0,26136.0,4398.0
1.200516700744629,8.0,44480.0,52848.0,18396.0,21340.0,4504.0
1.2018166780471802,10.0,41952.0,52768.0,26712.0,26288.0,4610.0
1.2031166553497314,0.0,44672.0,51504.0,33936.0,26072.0,5832.0
1.2044166326522827,0.0,44640.0,50240.0,33344.0,21920.0,9696.0
1.205716609954834,11.0,44624.0,53920.0,31928.0,25296.0,8304.0
1.2070167064666748,12.0,37072.0,53856.0,30512.0,23500.0,6909.0
1.208316683769226,13.0,62816.0,53776.0,25404.0,25688.0,13064.0
1.2096166610717773,13.0,56416.0,55984.0,30440.0,27876.0,15236.0
1.2109166383743286,22.0,53504.0,58288.0,31520.0,25064.0,10160.0
1.2122166156768799,29.0,48144.0,60016.0,30776.0,22248.0,9212.0
1.2135833501815796,53.0,48464.0,58720.0,38464.0,29192.0,6280.0
1.2148833274841309,50.0,42528.0,57424.0,43584.0,31932.0,3654.0
1.2161833047866821,17.0,47776.0,60592.0,41824.0,30672.0,8464.0
1.2174832820892334,0.0,44160.0,63776.0,41328.0,22316.0,7249.0
1.2187833786010742,65.0,56880.0,67984.0,40816.0,24260.0,11688.0
1.2200833559036255,21.0,55584.0,70784.0,40944.0,31084.0,9676.0
1.2213833332061768,28.0,54288.0,73600.0,40000.0,31380.0,10580.0
1.222683310508728,41.0,72176.0,85808.0,39056.0,25780.0,10508.0
1.2239832878112793,35.0,72912.0,85120.0,40224.0,37728.0,9984.0
1.2252833843231201,29.0,60400.0,80592.0,44000.0,35360.0,9460.0
1.2265833616256714,22.0,54512.0,79600.0,42784.0,40144.0,10112.0
1.2278833389282227,17.0,66800.0,72336.0,41568.0,39552.0,9876.0
1.229183316230774,11.0,67472.0,82848.0,40112.0,38944.0,9644.0
1.2305500507354736,13.0,68128.0,91024.0,38656.0,34384.0,11756.0
1.231850028038025,15.0,68816.0,87040.0,42720.0,37312.0,11488.0
1.2331500053405762,21.0,64528.0,100016.0,46800.0,36608.0,9816.0
1.2344499826431274,21.0,68208.0,70304.0,51904.0,37120.0,10644.0
1.2357499599456787,20.0,70288.0,98368.0,51264.0,37616.0,11476.0
1.2370500564575195,17.0,72368.0,89792.0,50736.0,38432.0,9820.0
1.2383500337600708,19.0,65648.0,108176.0,50208.0,39248.0,9788.0
1.239650011062622,20.0,58928.0,92288.0,45952.0,36000.0,9760.0
1.2409499883651733,17.0,90192.0,109824.0,66064.0,38752.0,12348.0
1.2422499656677246,22.0,81104.0,80832.0,65456.0,41504.0,15556.0
1.2435499429702759,27.0,89776.0,112176.0,54528.0,39344.0,17332.0
1.2448500394821167,18.0,88544.0,91248.0,53424.0,37184.0,9292.0
1.246150016784668,9.0,89504.0,103504.0,61744.0,39744.0,13804.0
1.2475166320800781,36.0,91808.0,101680.0,56704.0,39168.0,13212.0
1.2488166093826294,23.0,100000.0,114176.0,47760.0,55296.0,13172.0
1.2501167058944702,20.0,103296.0,120832.0,66752.0,55392.0,13272.0
1.2514166831970215,0.0,84864.0,114160.0,65008.0,41104.0,13248.0
1.2527166604995728,24.0,91040.0,122544.0,66912.0,42016.0,14100.0
1.254016637802124,18.0,91200.0,106160.0,68032.0,52320.0,13496.0
1.2553166151046753,12.0,95856.0,116080.0,69136.0,30472.0,12892.0
1.2566167116165161,11.0,91136.0,113920.0,57360.0,48080.0,15876.0
1.2579166889190674,10.0,101744.0,109376.0,71568.0,47328.0,15344.0
1.2592166662216187,11.0,91360.0,107072.0,67664.0,56016.0,14808.0
1.26051664352417,11.0,80960.0,117488.0,63744.0,56176.0,13976.0
1.2618166208267212,20.0,97840.0,127888.0,64288.0,48448.0,14980.0
1.263116717338562,20.0,101632.0,121168.0,72320.0,47408.0,15988.0
1.2644833326339722,19.0,106224.0,114448.0,74304.0,50960.0,15936.0
1.2657833099365234,25.0,106224.0,115552.0,70672.0,53184.0,15400.0
1.2670832872390747,31.0,101424.0,117376.0,66000.0,57808.0,17488.0
1.2683833837509155,42.0,100784.0,119200.0,60096.0,55728.0,18932.0
1.2696833610534668,53.0,86176.0,124352.0,70080.0,49616.0,12404.0
1.270983338356018,51.0,85424.0,122592.0,56592.0,45616.0,20708.0
1.2722833156585693,46.0,92144.0,120848.0,64736.0,52192.0,18684.0
1.2735832929611206,41.0,97040.0,106544.0,57776.0,50320.0,9668.0
1.2748833894729614,45.0,76432.0,112656.0,59936.0,48448.0,17952.0
1.2761833667755127,31.0,84400.0,109904.0,67616.0,40224.0,11884.0
1.277483344078064,13.0,76240.0,107152.0,55792.0,40640.0,12152.0
1.2787833213806152,5.0,90912.0,106944.0,59536.0,38704.0,17072.0
1.2800832986831665,25.0,89264.0,102080.0,60656.0,38944.0,13724.0
1.2814500331878662,24.0,87600.0,97216.0,62192.0,39184.0,10376.0
1.2827500104904175,23.0,79648.0,87280.0,50560.0,43584.0,11580.0
1.2840499877929688,66.0,71328.0,102256.0,55536.0,47984.0,7742.0
1.28534996509552,56.0,83232.0,106448.0,54352.0,47104.0,16884.0
1.2866499423980713,38.0,81440.0,92480.0,49120.0,44240.0,19684.0
1.287950038909912,20.0,86912.0,75648.0,43872.0,36320.0,6905.0
1.2892500162124634,7.0,60208.0,79888.0,48624.0,43680.0,10640.0
1.2905499935150146,29.0,78688.0,89120.0,41200.0,40064.0,15156.0
1.291849970817566,26.0,68672.0,77152.0,38880.0,35232.0,9836.0
1.2931499481201172,61.0,55824.0,79456.0,42304.0,37360.0,10840.0
1.294450044631958,47.0,63552.0,72320.0,45728.0,29612.0,8396.0
1.2957500219345093,68.0,58224.0,76304.0,44464.0,24372.0,7433.0
1.2970499992370605,16.0,60176.0,82704.0,31068.0,31312.0,11016.0
1.2984000444412231,39.0,59952.0,65616.0,39408.0,28360.0,7301.0
1.2997000217437744,29.0,55424.0,68688.0,33408.0,25300.0,8752.0
1.3009999990463257,18.0,53856.0,69008.0,28880.0,22240.0,4188.0
1.302299976348877,56.0,52832.0,64640.0,30604.0,23340.0,7942.0
1.3035999536514282,48.0,47520.0,65088.0,32324.0,24436.0,5796.0
1.304900050163269,0.0,47392.0,57248.0,24948.0,16024.0,6963.0
1.3062000274658203,3.0,36656.0,47840.0,32120.0,26484.0,8424.0
1.3075000047683716,5.0,55920.0,46736.0,23804.0,27784.0,4965.0
1.3087999820709229,9.0,30824.0,45904.0,25336.0,17728.0,4048.0
1.3100999593734741,12.0,32176.0,40736.0,28456.0,29252.0,3573.0
1.311400055885315,16.0,42464.0,45472.0,22272.0,11880.0,4565.0
1.3127000331878662,20.0,31564.0,41392.0,25952.0,16436.0,4857.0
1.3140000104904175,5.0,29140.0,31992.0,20428.0,12132.0,6209.0
1.3153666257858276,17.0,41104.0,42352.0,20548.0,15844.0,5227.0
1.3166667222976685,9.0,36064.0,37504.0,23196.0,16004.0,4245.0
1.3179666996002197,0.0,17600.0,40400.0,20448.0,16164.0,5831.0
1.319266676902771,47.0,29484.0,31352.0,13452.0,11900.0,5587.0
1.3205666542053223,58.0,26012.0,32600.0,20084.0,16960.0,2515.0
1.3218666315078735,8.0,33616.0,38304.0,22620.0,11844.0,4846.0
1.3231666088104248,0.0,16656.0,34560.0,14388.0,14904.0,2590.0
1.3244667053222656,19.0,21236.0,23416.0,21744.0,11384.0,1029.0
1.325766682624817,32.0,13524.0,26208.0,15472.0,5995.0,2438.0
1.3270666599273682,20.0,14588.0,29448.0,17960.0,13568.0,3313.0
1.3283666372299194,29.0,15648.0,20900.0,12748.0,6092.0,2642.0
1.3296666145324707,0.0,17556.0,27004.0,12748.0,9456.0,1972.0
1.3309667110443115,20.0,17108.0,21100.0,13228.0,7747.0,2476.0
1.3323333263397217,41.0,9696.0,18768.0,10536.0,5819.0,2980.0
1.333633303642273,16.0,17256.0,21044.0,12176.0,7118.0,2585.0
1.3349332809448242,37.0,11568.0,20468.0,7062.0,7959.0,2189.0
1.336233377456665,18.0,16428.0,16752.0,8604.0,8820.0,3734.0
1.3375333547592163,12.0,16424.0,13672.0,6425.0,9684.0,3843.0
1.3388333320617676,38.0,17604.0,11972.0,7118.0,4167.0,2529.0
1.3401333093643188,33.0,14104.0,15924.0,9664.0,8672.0,1718.0
1.3414332866668701,19.0,12808.0,10616.0,3859.0,2086.0,2022.0
1.342733383178711,18.0,8928.0,9520.0,7509.0,2610.0,1428.0
1.3440333604812622,5.0,10500.0,13836.0,4520.0,5385.0,1437.0
1.3453333377838135,11.0,6427.0,3588.0,4125.0,1781.0,1207.0
1.3466333150863647,10.0,8300.0,12556.0,3729.0,1932.0,385.0
1.347933292388916,8.0,7487.0,6675.0,2624.0,5622.0,2445.0
1.3492833375930786,5.0,4724.0,7918.0,1519.0,2021.0,1984.0
1.3505833148956299,41.0,5781.0,8692.0,1554.0,3560.0,940.0
1.3518832921981812,42.0,8020.0,7900.0,1590.0,2142.0,1719.0
1.353183388710022,10.0,1834.0,7108.0,2579.0,2226.0,930.0
1.3544833660125732,18.0,2936.0,6102.0,2417.0,2310.0,24.0
1.3557833433151245,21.0,5389.0,5095.0,2255.0,404.0,0.0
1.3570833206176758,25.0,2361.0,5718.0,2811.0,551.0,180.0
1.358383297920227,23.0,1875.0,5218.0,4492.0,697.0,961.0
1.3596832752227783,21.0,4612.0,4717.0,4169.0,962.0,893.0
1.3609833717346191,15.0,1905.0,4992.0,2749.0,1226.0,824.0
1.3622833490371704,0.0,3251.0,3832.0,2459.0,2019.0,900.0
1.3635833263397217,24.0,4596.0,2672.0,281.0,1719.0,912.0
1.364883303642273,24.0,3378.0,2307.0,1754.0,1419.0,924.0
1.3662500381469727,23.0,4720.0,1782.0,1665.0,1645.0,844.0
1.367550015449524,28.0,3761.0,3324.0,1575.0,1378.0,1059.0
1.3688499927520752,11.0,2663.0,5109.0,2092.0,1111.0,0.0
1.3701499700546265,20.0,1894.0,4391.0,1680.0,2604.0,905.0
1.3714499473571777,30.0,2662.0,3302.0,1267.0,0.0,759.0
1.3727500438690186,0.0,1612.0,6309.0,1661.0,1589.0,895.0
1.3740500211715698,17.0,1900.0,1909.0,2049.0,2080.0,53.0
1.375349998474121,40.0,2424.0,4603.0,2414.0,1093.0,49.0
1.3766499757766724,10.0,1303.0,4265.0,2779.0,1394.0,10.0
1.3779499530792236,37.0,1156.0,3550.0,2274.0,1696.0,215.0
1.3792500495910645,17.0,1010.0,2013.0,1983.0,798.0,129.0
1.3805500268936157,0.0,2508.0,2965.0,976.0,1965.0,44.0
1.381850004196167,0.0,2452.0,3918.0,2101.0,1069.0,45.0
1.3832000494003296,5.0,3125.0,2943.0,1673.0,2015.0,46.0
1.3845000267028809,0.0,2578.0,1965.0,645.0,1153.0,32.0
1.3858000040054321,6.0,1695.0,1078.0,2325.0,17.0,18.0
1.3870999813079834,11.0,13.0,1128.0,409.0,947.0,6.0
1.3883999586105347,44.0,2675.0,1178.0,135.0,285.0,383.0
1.3897000551223755,34.0,2790.0,1906.0,1496.0,867.0,214.0
1.3910000324249268,15.0,3481.0,1406.0,1175.0,754.0,45.0
1.392300009727478,97.0,2910.0,905.0,853.0,774.0,232.0
1.3936166763305664,110.0,487.0,1734.0,2750.0,191.0,21.0
1.3949166536331177,0.0,763.0,13.0,2704.0,7.0,402.0
1.396216630935669,75.0,1175.0,301.0,682.0,354.0,205.0
1.3975166082382202,13.0,2151.0,589.0,2113.0,20.0,8.0
1.398816704750061,54.0,1719.0,1508.0,78.0,0.0,5.0
1.4001333713531494,20.0,1473.0,2426.0,1772.0,11.0,19.0
1.4014333486557007,24.0,1042.0,2650.0,436.0,22.0,19.0
1.402733325958252,5.0,1194.0,2873.0,280.0,356.0,29.0
1.4040499925613403,21.0,1650.0,1734.0,124.0,689.0,28.0
1.4053499698638916,20.0,980.0,1548.0,37.0,345.0,34.0
1.4066499471664429,30.0,310.0,856.0,756.0,0.0,40.0
1.4079333543777466,18.0,1108.0,1123.0,1009.0,5.0,15.0
1.409250020980835,7.0,738.0,1390.0,338.0,26.0,12.0
1.4105499982833862,12.0,0.0,24.0,699.0,386.0,1716.0
1.4118499755859375,15.0,1071.0,342.0,1061.0,217.0,1813.0
1.4131499528884888,17.0,890.0,660.0,845.0,48.0,48.0
1.4144500494003296,20.0,208.0,32.0,17.0,15.0,285.0
1.4157999753952026,7.0,405.0,77.0,11.0,468.0,22.0
1.4170833826065063,18.0,240.0,123.0,17.0,653.0,39.0
1.4183833599090576,29.0,981.0,68.0,380.0,837.0,23.0
1.4196833372116089,18.0,1101.0,13.0,552.0,826.0,29.0
1.420966625213623,11.0,718.0,956.0,725.0,814.0,7.0
1.4222667217254639,8.0,336.0,860.0,525.0,976.0,17.0
1.4235666990280151,15.0,683.0,765.0,952.0,61.0,0.0
1.4248666763305664,5.0,640.0,1008.0,917.0,8.0,6.0
1.4261833429336548,6.0,598.0,43.0,883.0,1332.0,12.0
1.427466630935669,7.0,393.0,12.0,1518.0,877.0,12.0
1.4287666082382202,4.0,59.0,66.0,20.0,738.0,12.0
1.4300832748413086,0.0,24.0,49.0,703.0,870.0,12.0
1.4313833713531494,4.0,1628.0,32.0,1028.0,1412.0,12.0
1.4327000379562378,7.0,1436.0,26.0,1309.0,61.0,11.0
1.434000015258789,6.0,1244.0,381.0,0.0,49.0,41.0
1.4352999925613403,16.0,1086.0,878.0,1272.0,24.0,813.0
1.4365999698638916,25.0,1351.0,649.0,383.0,213.0,428.0
1.4378999471664429,18.0,1617.0,420.0,23.0,121.0,42.0
1.4392000436782837,10.0,15.0,571.0,31.0,30.0,268.0
1.440500020980835,13.0,413.0,236.0,42.0,31.0,137.0
1.4417999982833862,16.0,5.0,656.0,5.0,33.0,5.0
1.4430999755859375,13.0,338.0,547.0,20.0,44.0,11.0
1.4443999528884888,14.0,380.0,437.0,36.0,56.0,0.0
1.4457000494003296,15.0,423.0,248.0,42.0,0.0,6.0
1.4470000267028809,16.0,45.0,58.0,49.0,193.0,12.0
1.4483000040054321,12.0,391.0,186.0,19.0,222.0,12.0
1.4496666193008423,27.0,199.0,314.0,35.0,251.0,12.0
1.450966715812683,0.0,7.0,179.0,0.0,5.0,23.0
1.4522666931152344,13.0,4.0,44.0,32.0,56.0,22.0
1.4535666704177856,31.0,0.0,1142.0,20.0,106.0,20.0
1.454866647720337,39.0,453.0,1061.0,8.0,17.0,21.0
1.4561666250228882,31.0,871.0,1709.0,21.0,9.0,20.0
1.457466721534729,5.0,1956.0,26.0,34.0,0.0,18.0
1.4587666988372803,34.0,1853.0,10.0,24.0,8.0,44.0
1.4600666761398315,0.0,1681.0,25.0,24.0,15.0,25.0
1.4613666534423828,31.0,30.0,1066.0,24.0,597.0,6.0
1.462666630744934,0.0,679.0,784.0,0.0,642.0,8.0
1.4639666080474854,43.0,176.0,503.0,152.0,24.0,10.0
1.4652667045593262,38.0,234.0,355.0,99.0,21.0,0.0
1.4666333198547363,37.0,292.0,400.0,46.0,0.0,21.0
1.4679332971572876,19.0,0.0,217.0,34.0,10.0,722.0
1.4692332744598389,26.0,11.0,46.0,21.0,20.0,610.0
1.4705333709716797,10.0,34.0,1238.0,362.0,23.0,5.0
1.471833348274231,11.0,2152.0,1894.0,702.0,27.0,41.0
1.4731333255767822,20.0,2726.0,1901.0,1294.0,190.0,37.0
1.4744333028793335,0.0,788.0,1302.0,650.0,459.0,20.0
1.4757332801818848,10.0,826.0,329.0,7.0,243.0,47.0
1.4770333766937256,19.0,0.0,34.0,905.0,27.0,0.0
1.4783333539962769,0.0,20.0,29.0,10.0,20.0,5.0
1.4796333312988281,5.0,131.0,19.0,11.0,0.0,53.0
1.4809333086013794,10.0,470.0,10.0,898.0,19.0,30.0
1.4822332859039307,31.0,261.0,20.0,5.0,73.0,12.0
1.4836000204086304,25.0,51.0,220.0,43.0,127.0,42.0
1.4848999977111816,29.0,33.0,420.0,15.0,376.0,32.0
1.486199975013733,20.0,14.0,434.0,17.0,192.0,21.0
1.4874999523162842,12.0,55.0,447.0,19.0,7.0,16.0
1.488800048828125,10.0,6.0,244.0,321.0,21.0,10.0
1.4901000261306763,7.0,13.0,40.0,171.0,38.0,24.0
1.4914000034332275,4.0,5.0,2445.0,21.0,25.0,18.0
1.4926999807357788,0.0,3.0,2178.0,434.0,12.0,11.0
1.49399995803833,11.0,0.0,22.0,220.0,9.0,25.0
1.495300054550171,6.0,429.0,792.0,5.0,6.0,24.0
1.4966000318527222,0.0,214.0,963.0,0.0,35.0,22.0
1.4979000091552734,3.0,0.0,26.0,0.0,39.0,0.0
1.4991999864578247,5.0,53.0,1470.0,659.0,44.0,25.0
1.5005500316619873,0.0,196.0,605.0,455.0,0.0,20.0
1.5018500089645386,3.0,101.0,754.0,251.0,22.0,16.0
1.5031499862670898,5.0,5.0,17.0,275.0,28.0,30.0
1.5044499635696411,15.0,185.0,19.0,150.0,10.0,22.0
1.5057499408721924,8.0,105.0,21.0,25.0,11.0,52.0
1.5070500373840332,0.0,25.0,28.0,25.0,12.0,46.0
1.5083500146865845,17.0,29.0,1120.0,265.0,5.0,40.0
1.5096499919891357,19.0,33.0,576.0,669.0,24.0,38.0
1.510949969291687,15.0,11.0,32.0,498.0,44.0,309.0
1.5122499465942383,8.0,0.0,23.0,327.0,1361.0,163.0
1.513550043106079,0.0,8.0,5.0,844.0,1086.0,16.0
1.5148500204086304,24.0,6.0,9.0,425.0,1742.0,57.0
1.5161499977111816,38.0,23.0,13.0,5.0,8.0,42.0
1.5175166130065918,24.0,24.0,442.0,411.0,496.0,29.0
1.5188167095184326,0.0,297.0,224.0,13.0,19.0,15.0
1.5201166868209839,5.0,168.0,5.0,6.0,17.0,60.0
1.5214166641235352,40.0,39.0,25.0,27.0,18.0,49.0
1.5227166414260864,34.0,5.0,23.0,48.0,0.0,39.0
1.5240166187286377,20.0,406.0,21.0,1198.0,11.0,295.0
1.5253167152404785,7.0,806.0,16.0,619.0,6.0,153.0
1.5266166925430298,10.0,854.0,21.0,40.0,0.0,11.0
1.527916669845581,17.0,901.0,344.0,38.0,5.0,75.0
1.5292166471481323,24.0,229.0,666.0,573.0,18.0,12.0
1.5305166244506836,20.0,210.0,515.0,6.0,9.0,28.0
1.5318167209625244,19.0,191.0,22.0,14.0,0.0,24.0
1.5331166982650757,17.0,43.0,14.0,21.0,10.0,282.0
1.5344833135604858,16.0,11.0,789.0,396.0,32.0,153.0
1.535783290863037,14.0,203.0,931.0,770.0,31.0,24.0
1.537083387374878,0.0,19.0,1051.0,791.0,28.0,18.0
1.5383833646774292,30.0,1000.0,23.0,654.0,12.0,11.0
1.5396833419799805,44.0,784.0,12.0,342.0,5.0,0.0
1.5409833192825317,33.0,21.0,0.0,30.0,11.0,25.0
1.542283296585083,0.0,817.0,13.0,33.0,30.0,26.0
1.5435832738876343,14.0,1283.0,11.0,37.0,210.0,26.0
1.544883370399475,19.0,867.0,1054.0,38.0,778.0,10.0
1.5461833477020264,18.0,26.0,1122.0,21.0,769.0,0.0
1.5474833250045776,16.0,11.0,50.0,604.0,36.0,0.0
1.548783302307129,21.0,693.0,28.0,695.0,38.0,11.0
1.5500832796096802,0.0,94.0,1002.0,68.0,23.0,11.0
1.5514333248138428,28.0,39.0,1229.0,59.0,43.0,11.0
1.552733302116394,46.0,0.0,1310.0,23.0,17.0,15.0
1.5540332794189453,64.0,23.0,16.0,45.0,13.0,12.0
1.5553333759307861,35.0,0.0,12.0,0.0,5.0,8.0
1.5566333532333374,6.0,21.0,926.0,9.0,34.0,9.0
1.5579333305358887,17.0,37.0,50.0,18.0,27.0,10.0
1.55923330783844,29.0,40.0,13.0,15.0,212.0,11.0
1.5605332851409912,12.0,36.0,208.0,12.0,118.0,5.0
1.561833381652832,7.0,32.0,17.0,10.0,23.0,44.0
1.5631333589553833,19.0,10.0,46.0,30.0,31.0,38.0
1.5644333362579346,26.0,12.0,36.0,24.0,37.0,18.0
1.5657333135604858,32.0,14.0,5.0,19.0,9.0,41.0
1.567033290863037,36.0,7.0,58.0,1024.0,10.0,21.0
1.5684000253677368,0.0,0.0,359.0,1027.0,20.0,16.0
1.569700002670288,29.0,8.0,989.0,769.0,31.0,10.0
1.5709999799728394,5.0,16.0,1176.0,8.0,25.0,19.0
1.5722999572753906,5.0,775.0,300.0,1081.0,19.0,16.0
1.5736000537872314,5.0,1017.0,17.0,19.0,30.0,13.0
1.5749000310897827,0.0,0.0,24.0,712.0,0.0,16.0
1.576200008392334,8.0,13.0,0.0,1134.0,9.0,18.0
1.5774999856948853,16.0,310.0,7.0,914.0,17.0,24.0
1.5787999629974365,25.0,8.0,30.0,45.0,57.0,28.0
1.5801000595092773,16.0,26.0,53.0,1267.0,46.0,13.0
1.5814000368118286,18.0,324.0,36.0,18.0,36.0,9.0
1.5827000141143799,14.0,21.0,19.0,7.0,10.0,5.0
1.5839999914169312,10.0,33.0,181.0,30.0,22.0,12.0
1.5853500366210938,7.0,26.0,448.0,30.0,6.0,16.0
1.586650013923645,19.0,30.0,229.0,30.0,31.0,14.0
1.5879499912261963,16.0,24.0,10.0,16.0,56.0,10.0
1.5892499685287476,34.0,19.0,13.0,10.0,46.0,14.0
1.5905499458312988,28.0,31.0,713.0,10.0,37.0,12.0
1.5918500423431396,19.0,39.0,363.0,10.0,0.0,0.0
1.593150019645691,0.0,47.0,13.0,9.0,35.0,0.0
1.5944499969482422,29.0,247.0,47.0,8.0,31.0,0.0
1.5957499742507935,32.0,447.0,15.0,623.0,34.0,3.0
1.5970499515533447,18.0,240.0,10.0,318.0,32.0,5.0
1.5983500480651855,9.0,33.0,5.0,13.0,31.0,10.0
1.5996500253677368,33.0,111.0,890.0,20.0,10.0,10.0
1.600950002670288,11.0,22.0,1133.0,63.0,0.0,28.0
1.6023166179656982,16.0,145.0,23.0,21.0,25.0,28.0
1.603616714477539,30.0,73.0,583.0,0.0,12.0,20.0
1.6049166917800903,15.0,0.0,1168.0,5.0,37.0,17.0
1.6062166690826416,22.0,0.0,529.0,5.0,39.0,13.0
1.6075166463851929,30.0,5.0,35.0,6.0,24.0,19.0
1.6088166236877441,33.0,23.0,754.0,6.0,10.0,12.0
1.610116720199585,12.0,35.0,6.0,3.0,38.0,14.0
1.6114166975021362,35.0,47.0,18.0,0.0,23.0,16.0
1.6127166748046875,26.0,39.0,22.0,5.0,9.0,23.0
1.6140166521072388,15.0,31.0,33.0,19.0,17.0,21.0
1.61531662940979,5.0,208.0,30.0,19.0,25.0,21.0
1.6166167259216309,34.0,125.0,26.0,18.0,10.0,22.0
1.6179167032241821,46.0,43.0,5.0,23.0,0.0,23.0
1.6192833185195923,24.0,46.0,26.0,29.0,0.0,32.0
1.6205832958221436,18.0,31.0,0.0,11.0,0.0,50.0
1.6218833923339844,0.0,16.0,30.0,11.0,0.0,43.0
1.6231833696365356,5.0,12.0,60.0,10.0,3.0,31.0
1.624483346939087,5.0,8.0,35.0,6.0,5.0,28.0
1.6257833242416382,3.0,12.0,10.0,12.0,5.0,37.0
1.6270833015441895,0.0,17.0,8.0,6.0,5.0,17.0
1.6283832788467407,0.0,1936.0,5.0,3.0,5.0,6.0
1.6296833753585815,3.0,992.0,649.0,0.0,9.0,7.0
1.6309833526611328,5.0,48.0,795.0,22.0,13.0,26.0
1.632283329963684,21.0,5.0,925.0,14.0,704.0,23.0
1.6335833072662354,18.0,24.0,631.0,5.0,675.0,20.0
1.6348832845687866,19.0,11.0,338.0,40.0,32.0,0.0
1.6362333297729492,25.0,0.0,8.0,47.0,32.0,23.0
1.6375333070755005,19.0,15.0,13.0,11.0,16.0,6.0
1.6388332843780518,12.0,12.0,16.0,11.0,0.0,16.0
1.6401333808898926,0.0,10.0,34.0,10.0,391.0,23.0
1.6414333581924438,19.0,388.0,29.0,8.0,221.0,15.0
1.6427333354949951,0.0,238.0,36.0,5.0,50.0,19.0
1.6440333127975464,5.0,88.0,12.0,22.0,450.0,0.0
1.6453332901000977,10.0,38.0,23.0,21.0,5.0,33.0
1.6466333866119385,12.0,1483.0,1086.0,19.0,7.0,21.0
1.6479333639144897,14.0,1477.0,1402.0,23.0,11.0,10.0
1.649233341217041,10.0,6.0,759.0,28.0,12.0,13.0
1.6505333185195923,8.0,23.0,11.0,33.0,22.0,11.0
1.6518332958221436,12.0,42.0,17.0,5.0,26.0,12.0
1.6532000303268433,6.0,28.0,16.0,31.0,6.0,12.0
1.6545000076293945,6.0,8.0,32.0,36.0,0.0,15.0
1.6557999849319458,0.0,5.0,29.0,24.0,12.0,20.0
1.657099962234497,19.0,7.0,26.0,12.0,22.0,24.0
1.658400058746338,10.0,12.0,24.0,0.0,33.0,15.0
1.6597000360488892,0.0,23.0,29.0,6.0,27.0,5.0
1.6610000133514404,14.0,19.0,34.0,15.0,14.0,14.0
1.6622999906539917,5.0,13.0,470.0,0.0,0.0,22.0
1.663599967956543,7.0,7.0,414.0,8.0,19.0,14.0
1.6648999452590942,19.0,0.0,357.0,16.0,5.0,5.0
1.666200041770935,27.0,19.0,24.0,0.0,29.0,14.0
1.6675000190734863,27.0,717.0,591.0,5.0,22.0,21.0
1.6687999963760376,26.0,365.0,35.0,10.0,23.0,0.0
1.6701500415802002,20.0,12.0,454.0,0.0,12.0,5.0
1.6714500188827515,17.0,11.0,20.0,8.0,24.0,46.0
1.6727499961853027,14.0,6.0,30.0,16.0,0.0,43.0
1.674049973487854,0.0,33.0,602.0,16.0,8.0,44.0
1.6753499507904053,24.0,35.0,860.0,13.0,16.0,46.0
1.676650047302246,20.0,37.0,724.0,10.0,18.0,75.0
1.6779500246047974,16.0,14.0,562.0,10.0,20.0,5.0
1.6792500019073486,11.0,7.0,737.0,12.0,17.0,21.0
1.6805499792099,15.0,0.0,50.0,11.0,8.0,18.0
1.6818499565124512,5.0,50.0,549.0,10.0,8.0,9.0
1.683150053024292,26.0,317.0,47.0,21.0,7.0,20.0
1.6844500303268433,28.0,167.0,37.0,32.0,23.0,9.0
1.6857666969299316,30.0,17.0,0.0,28.0,40.0,22.0
1.6871166229248047,20.0,60.0,15.0,23.0,23.0,21.0
1.6884167194366455,8.0,303.0,47.0,11.0,6.0,0.0
1.6897166967391968,22.0,176.0,20.0,34.0,16.0,33.0
1.691016674041748,39.0,49.0,43.0,5.0,0.0,0.0
1.6923166513442993,48.0,43.0,20.0,19.0,0.0,0.0
1.6936166286468506,18.0,31.0,62.0,23.0,14.0,38.0
1.6949167251586914,9.0,847.0,103.0,23.0,29.0,0.0
1.6962167024612427,26.0,777.0,54.0,23.0,36.0,20.0
1.697516679763794,13.0,15.0,5.0,11.0,5.0,29.0
1.6988166570663452,11.0,619.0,78.0,17.0,23.0,0.0
1.7001166343688965,31.0,13.0,22.0,22.0,14.0,12.0
1.7014166116714478,24.0,21.0,56.0,20.0,0.0,9.0
1.7027167081832886,17.0,12.0,109.0,24.0,0.0,6.0
1.7040666341781616,31.0,5.0,5.0,21.0,38.0,17.0
1.705366611480713,44.0,6.0,5.0,17.0,392.0,20.0
1.7066667079925537,50.0,7.0,11.0,23.0,462.0,37.0
1.707966685295105,21.0,0.0,6.0,15.0,532.0,21.0
1.7092666625976562,5.0,228.0,5.0,7.0,10.0,6.0
1.7105666399002075,0.0,117.0,0.0,12.0,0.0,6.0
1.7118666172027588,11.0,5.0,0.0,17.0,7.0,9.0
1.7131667137145996,0.0,367.0,4.0,17.0,6.0,5.0
1.7144666910171509,3.0,338.0,8.0,16.0,5.0,0.0
1.7157666683197021,5.0,35.0,24.0,0.0,15.0,64.0
1.7170666456222534,10.0,0.0,15.0,9.0,14.0,63.0
1.7183666229248047,15.0,20.0,5.0,18.0,0.0,61.0
1.7196667194366455,10.0,24.0,49.0,32.0,23.0,20.0
1.7210333347320557,5.0,28.0,32.0,22.0,14.0,7.0
1.722333312034607,38.0,44.0,15.0,28.0,5.0,11.0
1.7236332893371582,42.0,28.0,20.0,33.0,36.0,18.0
1.724933385848999,10.0,11.0,0.0,26.0,29.0,39.0
1.7262333631515503,12.0,17.0,0.0,11.0,23.0,40.0
1.7275333404541016,5.0,0.0,20.0,15.0,17.0,41.0
1.7288333177566528,9.0,25.0,15.0,19.0,33.0,51.0
1.730133295059204,12.0,19.0,10.0,9.0,13.0,8.0
1.731433391571045,27.0,13.0,5.0,5.0,0.0,12.0
1.7327333688735962,20.0,9.0,0.0,0.0,32.0,5.0
1.7340333461761475,14.0,5.0,22.0,0.0,38.0,11.0
1.7353333234786987,26.0,3.0,14.0,7.0,0.0,23.0
1.73663330078125,21.0,0.0,5.0,24.0,17.0,27.0
1.7379833459854126,26.0,31.0,20.0,15.0,23.0,0.0
1.7392833232879639,31.0,15.0,15.0,5.0,30.0,11.0
1.7405833005905151,33.0,0.0,416.0,29.0,14.0,36.0
1.7418832778930664,20.0,0.0,218.0,29.0,25.0,35.0
1.7431833744049072,10.0,27.0,19.0,8.0,32.0,35.0
1.7444833517074585,12.0,53.0,18.0,0.0,39.0,39.0
1.7457833290100098,12.0,842.0,20.0,33.0,42.0,25.0
1.747083306312561,11.0,1120.0,21.0,19.0,0.0,15.0
1.7483832836151123,26.0,38.0,23.0,6.0,8.0,5.0
1.7496833801269531,23.0,5.0,24.0,37.0,28.0,19.0
1.7509833574295044,19.0,52.0,33.0,17.0,48.0,13.0
1.7522833347320557,32.0,6.0,19.0,11.0,30.0,19.0
1.753583312034607,44.0,34.0,5.0,5.0,32.0,19.0
1.7549500465393066,0.0,13.0,40.0,29.0,0.0,18.0
1.756250023841858,0.0,22.0,10.0,18.0,45.0,16.0
1.7575500011444092,30.0,31.0,37.0,7.0,16.0,13.0
1.7588499784469604,28.0,5.0,32.0,4.0,10.0,0.0
1.7601499557495117,25.0,0.0,0.0,0.0,0.0,17.0
1.7614500522613525,17.0,26.0,15.0,20.0,16.0,6.0
1.7627500295639038,6.0,11.0,33.0,18.0,16.0,10.0
1.764050006866455,24.0,21.0,26.0,17.0,14.0,13.0
1.7653499841690063,13.0,6.0,19.0,16.0,12.0,16.0
1.7666499614715576,21.0,10.0,13.0,24.0,6.0,5.0
1.7679500579833984,54.0,13.0,20.0,25.0,6.0,0.0
1.7692500352859497,45.0,17.0,60.0,25.0,13.0,43.0
1.770550012588501,5.0,11.0,62.0,29.0,19.0,61.0
1.7719000577926636,33.0,5.0,22.0,32.0,22.0,40.0
1.7732000350952148,56.0,0.0,44.0,37.0,25.0,788.0
1.7745000123977661,72.0,61.0,65.0,28.0,16.0,615.0
1.7757999897003174,30.0,122.0,13.0,19.0,18.0,11.0
1.7770999670028687,17.0,150.0,39.0,9.0,20.0,10.0
1.77839994430542,7.0,82.0,39.0,11.0,0.0,0.0
1.7797000408172607,6.0,14.0,32.0,13.0,10.0,17.0
1.7810167074203491,7.0,5.0,24.0,35.0,20.0,34.0
1.7822999954223633,10.0,21.0,118.0,17.0,31.0,24.0
1.7835999727249146,20.0,19.0,82.0,0.0,34.0,61.0
1.7848999500274658,22.0,17.0,47.0,83.0,0.0,33.0
1.7862000465393066,6.0,55.0,5.0,47.0,12.0,5.0
1.787500023841858,34.0,28.0,0.0,12.0,5.0,15.0
1.788866639137268,61.0,0.0,37.0,17.0,18.0,0.0
1.7901666164398193,44.0,10.0,46.0,21.0,17.0,11.0
1.7914667129516602,21.0,20.0,55.0,6.0,16.0,22.0
1.7927666902542114,16.0,10.0,18.0,26.0,7.0,19.0
1.7940666675567627,0.0,0.0,29.0,26.0,23.0,15.0
1.795366644859314,123.0,7.0,0.0,25.0,8.0,49.0
1.7966666221618652,938.0,6.0,0.0,64.0,0.0,59.0
1.797966718673706,1060.0,5.0,6.0,350.0,3.0,0.0
1.7992666959762573,18.0,11.0,12.0,194.0,6.0,13.0
1.8005666732788086,27.0,16.0,14.0,38.0,32.0,6.0
1.8018666505813599,5.0,11.0,15.0,24.0,58.0,6.0
1.8031666278839111,34.0,5.0,8.0,10.0,39.0,5.0
1.804466724395752,10.0,9.0,0.0,145.0,29.0,27.0
1.805833339691162,43.0,15.0,4.0,280.0,34.0,48.0
1.8071333169937134,18.0,14.0,8.0,151.0,0.0,180.0
1.8084332942962646,42.0,13.0,20.0,22.0,47.0,90.0
1.8097333908081055,23.0,5.0,33.0,8.0,52.0,0.0
1.8110333681106567,5.0,0.0,235.0,27.0,29.0,0.0
1.812333345413208,9.0,31.0,126.0,22.0,24.0,24.0
1.8136333227157593,14.0,44.0,17.0,23.0,0.0,12.0
1.8149333000183105,15.0,58.0,23.0,17.0,27.0,17.0
1.8162332773208618,16.0,11.0,0.0,21.0,35.0,22.0
1.8175333738327026,5.0,275.0,26.0,0.0,55.0,10.0
1.818833351135254,13.0,138.0,0.0,0.0,32.0,26.0
1.8201333284378052,21.0,0.0,20.0,0.0,8.0,30.0
1.8214333057403564,18.0,48.0,27.0,4.0,13.0,12.0
1.822783350944519,10.0,96.0,11.0,7.0,17.0,0.0
1.8240833282470703,11.0,52.0,0.0,12.0,20.0,11.0
1.8253833055496216,11.0,7.0,21.0,10.0,0.0,20.0
1.8266832828521729,10.0,6.0,508.0,7.0,5.0,29.0
1.8279833793640137,12.0,38.0,426.0,11.0,23.0,25.0
1.829283356666565,14.0,27.0,344.0,9.0,12.0,21.0
1.8305833339691162,7.0,16.0,13.0,6.0,10.0,26.0
1.8318833112716675,10.0,24.0,13.0,14.0,14.0,42.0
1.8331832885742188,11.0,31.0,26.0,0.0,12.0,0.0
1.8344833850860596,20.0,45.0,5.0,0.0,10.0,22.0
1.8357833623886108,19.0,56.0,5.0,0.0,8.0,15.0
1.837083339691162,17.0,47.0,30.0,5.0,10.0,18.0
1.8383833169937134,11.0,38.0,7.0,9.0,11.0,21.0
1.839750051498413,5.0,335.0,7.0,12.0,11.0,13.0
1.8410500288009644,9.0,170.0,7.0,8.0,16.0,5.0
1.8423500061035156,0.0,5.0,6.0,13.0,15.0,14.0
1.843649983406067,5.0,16.0,25.0,10.0,14.0,13.0
1.8449499607086182,16.0,28.0,15.0,6.0,10.0,11.0
1.846250057220459,78.0,18.0,5.0,12.0,5.0,28.0
1.8475500345230103,42.0,127.0,0.0,9.0,17.0,14.0
1.8488500118255615,6.0,63.0,599.0,6.0,14.0,0.0
1.8501499891281128,26.0,0.0,821.0,0.0,10.0,18.0
1.851449966430664,47.0,11.0,1257.0,3.0,76.0,28.0
1.8527499437332153,30.0,22.0,5.0,6.0,50.0,38.0
1.8540500402450562,10.0,13.0,5.0,31.0,24.0,17.0
1.8553500175476074,6.0,8.0,5.0,23.0,18.0,7.0
1.8566999435424805,34.0,19.0,15.0,19.0,36.0,8.0
1.8580000400543213,21.0,266.0,31.0,15.0,43.0,7.0
1.8593000173568726,0.0,150.0,1194.0,11.0,43.0,5.0
1.8605999946594238,18.0,34.0,1066.0,51.0,44.0,0.0
1.861899971961975,20.0,573.0,665.0,49.0,220.0,4.0
1.8631999492645264,0.0,550.0,17.0,9.0,134.0,7.0
1.8645000457763672,9.0,7.0,24.0,5.0,47.0,0.0
1.8658000230789185,17.0,6.0,26.0,15.0,9.0,8.0
1.8671000003814697,20.0,15.0,15.0,32.0,13.0,15.0
1.868399977684021,28.0,9.0,21.0,21.0,18.0,22.0
1.8696999549865723,28.0,17.0,26.0,10.0,5.0,58.0
1.871000051498413,28.0,23.0,5.0,40.0,13.0,34.0
1.8723000288009644,24.0,30.0,27.0,32.0,21.0,10.0
1.8736666440963745,5.0,337.0,15.0,74.0,0.0,8.0
1.8749666213989258,18.0,169.0,40.0,50.0,28.0,70.0
1.8762667179107666,5.0,0.0,82.0,27.0,0.0,62.0
1.8775666952133179,5.0,23.0,125.0,23.0,10.0,39.0
1.8788666725158691,20.0,47.0,70.0,37.0,12.0,19.0
1.8801666498184204,21.0,18.0,15.0,26.0,13.0,21.0
1.8814666271209717,5.0,34.0,52.0,15.0,11.0,45.0
1.8827667236328125,26.0,47.0,453.0,18.0,22.0,10.0
1.8840667009353638,20.0,58.0,238.0,25.0,33.0,0.0
1.885366678237915,13.0,7.0,22.0,28.0,42.0,10.0
1.8866666555404663,9.0,40.0,14.0,20.0,5.0,8.0
1.8879666328430176,5.0,40.0,5.0,31.0,0.0,11.0
1.8892666101455688,28.0,731.0,13.0,15.0,10.0,8.0
1.8906333446502686,20.0,591.0,21.0,0.0,9.0,5.0
1.8919333219528198,12.0,451.0,17.0,0.0,7.0,12.0
1.893233299255371,12.0,582.0,12.0,0.0,4.0,9.0
1.8945332765579224,11.0,714.0,20.0,9.0,0.0,6.0
1.8958333730697632,6.0,13.0,21.0,18.0,28.0,0.0
1.8971333503723145,0.0,367.0,21.0,28.0,19.0,11.0
1.8984333276748657,3.0,30.0,20.0,20.0,10.0,6.0
1.899733304977417,5.0,7.0,19.0,8.0,13.0,0.0
1.9010332822799683,20.0,544.0,23.0,0.0,21.0,19.0
1.902333378791809,35.0,400.0,13.0,13.0,22.0,13.0
1.9036333560943604,33.0,221.0,24.0,7.0,23.0,5.0
1.9049333333969116,30.0,41.0,37.0,0.0,14.0,18.0
1.906233310699463,28.0,47.0,26.0,29.0,5.0,16.0
1.9075833559036255,11.0,709.0,14.0,21.0,17.0,13.0
1.9088833332061768,0.0,361.0,24.0,14.0,11.0,21.0
1.910183310508728,34.0,14.0,35.0,15.0,5.0,14.0
1.9114832878112793,11.0,526.0,8.0,15.0,13.0,7.0
1.9127833843231201,23.0,20.0,0.0,10.0,14.0,35.0
1.9140833616256714,0.0,267.0,13.0,5.0,14.0,34.0
1.9153833389282227,5.0,41.0,6.0,7.0,12.0,33.0
1.916683316230774,9.0,274.0,12.0,9.0,9.0,6.0
1.9179832935333252,30.0,152.0,0.0,0.0,9.0,22.0
1.919283390045166,34.0,30.0,0.0,18.0,5.0,23.0
1.9205833673477173,21.0,13.0,0.0,23.0,0.0,27.0
1.9218833446502686,23.0,0.0,10.0,23.0,0.0,51.0
1.9231833219528198,26.0,19.0,19.0,23.0,0.0,45.0
1.9245500564575195,21.0,15.0,19.0,23.0,34.0,31.0
1.9258500337600708,8.0,0.0,18.0,17.0,31.0,40.0
1.927150011062622,38.0,5.0,17.0,11.0,20.0,50.0
1.9284499883651733,33.0,244.0,17.0,10.0,32.0,38.0
1.9297499656677246,12.0,269.0,17.0,14.0,32.0,27.0
1.9310499429702759,0.0,295.0,10.0,20.0,32.0,24.0
1.9323500394821167,0.0,25.0,13.0,26.0,140.0,13.0
1.933650016784668,28.0,21.0,15.0,5.0,249.0,5.0
1.9349499940872192,30.0,29.0,15.0,18.0,124.0,3.0
1.9362499713897705,33.0,14.0,14.0,34.0,0.0,0.0
1.9375499486923218,5.0,46.0,21.0,23.0,16.0,29.0
1.9388500452041626,10.0,25.0,5.0,12.0,40.0,50.0
1.9401500225067139,34.0,5.0,13.0,7.0,28.0,46.0
1.941499948501587,37.0,25.0,0.0,5.0,16.0,7.0
1.9428000450134277,6.0,21.0,28.0,57.0,10.0,0.0
1.944100022315979,0.0,16.0,38.0,36.0,5.0,0.0
1.9453999996185303,8.0,11.0,19.0,14.0,21.0,5.0
1.9466999769210815,10.0,6.0,15.0,20.0,0.0,6.0
1.9479999542236328,10.0,13.0,25.0,9.0,8.0,6.0
1.9493000507354736,10.0,20.0,11.0,13.0,15.0,11.0
1.950600028038025,12.0,16.0,9.0,7.0,12.0,15.0
1.9519000053405762,0.0,667.0,6.0,0.0,8.0,22.0
1.9531999826431274,9.0,408.0,26.0,6.0,12.0,29.0
1.9544999599456787,18.0,150.0,35.0,11.0,13.0,19.0
1.9558000564575195,20.0,327.0,21.0,12.0,13.0,10.0
1.9571000337600708,9.0,503.0,27.0,12.0,14.0,23.0
1.958466649055481,13.0,13.0,15.0,15.0,14.0,16.0
1.9597666263580322,16.0,15.0,26.0,50.0,11.0,9.0
1.961066722869873,36.0,16.0,24.0,86.0,22.0,5.0
1.9623667001724243,32.0,0.0,23.0,48.0,0.0,0.0
1.9636666774749756,37.0,23.0,21.0,10.0,0.0,11.0
1.9649666547775269,21.0,46.0,0.0,6.0,15.0,6.0
1.9662666320800781,36.0,30.0,27.0,29.0,16.0,0.0
1.9675666093826294,0.0,14.0,53.0,29.0,37.0,5.0
1.9688667058944702,45.0,15.0,58.0,22.0,30.0,10.0
1.9701666831970215,0.0,26.0,41.0,9.0,21.0,10.0
1.9714666604995728,37.0,811.0,20.0,17.0,14.0,10.0
1.972766637802124,16.0,927.0,0.0,9.0,11.0,27.0
1.9740666151046753,32.0,32.0,3.0,20.0,6.0,31.0
1.975416660308838,10.0,29.0,5.0,31.0,5.0,36.0
1.9767166376113892,9.0,10.0,9.0,0.0,10.0,5.0
1.9780166149139404,25.0,0.0,12.0,18.0,5.0,15.0
1.9793167114257812,24.0,7.0,31.0,0.0,0.0,39.0
1.9806166887283325,23.0,5.0,28.0,3.0,15.0,17.0
1.9819166660308838,22.0,6.0,37.0,6.0,8.0,18.0
1.983216643333435,20.0,7.0,36.0,11.0,0.0,19.0
1.9845166206359863,21.0,17.0,35.0,16.0,19.0,18.0
1.9858167171478271,0.0,28.0,26.0,11.0,35.0,17.0
1.9871166944503784,35.0,19.0,17.0,12.0,30.0,32.0
1.9884166717529297,0.0,10.0,15.0,13.0,19.0,0.0
1.989716649055481,43.0,13.0,12.0,34.0,8.0,0.0
1.9910166263580322,43.0,15.0,9.0,59.0,0.0,0.0
1.992383360862732,35.0,30.0,5.0,119.0,18.0,27.0
1.9936833381652832,5.0,17.0,109.0,73.0,12.0,32.0
1.9949833154678345,45.0,5.0,74.0,26.0,6.0,0.0
1.9962832927703857,37.0,13.0,39.0,71.0,37.0,38.0
1.9975833892822266,8.0,33.0,33.0,51.0,34.0,20.0
1.9988833665847778,10.0,21.0,17.0,17.0,23.0,5.0
