,317.1099853515625,318.1099853515625,319.1099853515625,320.1099853515625,321.1099853515625,322.1099853515625,323.1099853515625
0.6015166640281677,15.0,21.0,15.0,61.0,19.0,35.0,8.0
0.6030333042144775,21.0,17.0,24.0,28.0,40.0,28.0,5.0
0.6045500040054321,516.0,35.0,48.0,0.0,32.0,17.0,53.0
0.6060666441917419,34.0,25.0,19.0,30.0,18.0,10.0,10.0
0.6075833439826965,22.0,14.0,26.0,21.0,0.0,19.0,40.0
0.6090999841690063,25.0,5.0,58.0,12.0,8.0,13.0,31.0
0.6106166839599609,23.0,37.0,15.0,10.0,7.0,6.0,22.0
0.6121333241462708,21.0,31.0,10.0,12.0,9.0,0.0,6.0
0.6136500239372253,10.0,31.0,35.0,6.0,10.0,6.0,16.0
0.6151666641235352,14.0,33.0,26.0,0.0,13.0,8.0,5.0
0.616683304309845,17.0,29.0,22.0,10.0,15.0,10.0,8.0
0.6182666420936584,20.0,32.0,17.0,10.0,14.0,5.0,10.0
0.619783341884613,29.0,34.0,21.0,7.0,5.0,0.0,15.0
0.6212999820709229,36.0,19.0,27.0,20.0,9.0,27.0,10.0
0.6228166818618774,43.0,25.0,32.0,20.0,13.0,34.0,5.0
0.6243333220481873,5.0,26.0,26.0,16.0,15.0,55.0,5.0
0.6258500218391418,11.0,0.0,13.0,11.0,16.0,30.0,5.0
0.6273666620254517,14.0,25.0,5.0,10.0,39.0,58.0,8.0
0.6288833618164062,54.0,23.0,38.0,34.0,25.0,27.0,10.0
0.6304000020027161,43.0,21.0,43.0,31.0,10.0,5.0,10.0
0.6319166421890259,20.0,5.0,0.0,27.0,5.0,53.0,12.0
0.6334333419799805,18.0,10.0,5.0,8.0,12.0,28.0,5.0
0.635016679763794,15.0,55.0,16.0,12.0,16.0,28.0,22.0
0.6365333199501038,16.0,88.0,45.0,21.0,45.0,0.0,15.0
0.6380500197410583,22.0,67.0,44.0,19.0,37.0,35.0,8.0
0.6395666599273682,27.0,21.0,5.0,17.0,39.0,32.0,18.0
0.6410833597183228,24.0,31.0,0.0,14.0,40.0,28.0,0.0
0.6425999999046326,29.0,34.0,24.0,5.0,22.0,10.0,11.0
0.6441166400909424,26.0,0.0,32.0,0.0,25.0,27.0,10.0
0.645633339881897,23.0,31.0,13.0,21.0,40.0,6.0,5.0
0.6471499800682068,20.0,11.0,10.0,17.0,30.0,31.0,17.0
0.6486666798591614,5.0,17.0,30.0,13.0,10.0,14.0,28.0
0.6501833200454712,5.0,44.0,15.0,5.0,6.0,39.0,46.0
0.6517500281333923,5.0,37.0,21.0,11.0,31.0,32.0,49.0
0.6532666683197021,14.0,21.0,26.0,25.0,12.0,19.0,13.0
0.654783308506012,13.0,10.0,5.0,18.0,27.0,5.0,17.0
0.6563000082969666,12.0,39.0,5.0,10.0,34.0,6.0,34.0
0.6578166484832764,9.0,61.0,5.0,21.0,33.0,13.0,23.0
0.659333348274231,5.0,83.0,5.0,31.0,40.0,16.0,23.0
0.6608499884605408,3.0,44.0,18.0,27.0,22.0,13.0,23.0
0.6623666882514954,0.0,5.0,27.0,12.0,21.0,20.0,32.0
0.6638833284378052,19.0,45.0,20.0,5.0,19.0,32.0,41.0
0.6654000282287598,27.0,16.0,12.0,14.0,16.0,30.0,6.0
0.6669166684150696,15.0,23.0,16.0,22.0,20.0,34.0,5.0
0.6685000061988831,15.0,20.0,11.0,19.0,23.0,37.0,12.0
0.6700166463851929,11.0,36.0,5.0,42.0,12.0,7.0,11.0
0.6715333461761475,18.0,42.0,23.0,24.0,12.0,10.0,30.0
0.6730499863624573,16.0,31.0,14.0,5.0,6.0,5.0,30.0
0.6745666861534119,15.0,20.0,5.0,39.0,20.0,0.0,11.0
0.6760833263397217,13.0,26.0,16.0,21.0,35.0,19.0,22.0
0.6776000261306763,11.0,31.0,0.0,26.0,49.0,16.0,5.0
0.6791166663169861,11.0,18.0,21.0,30.0,35.0,13.0,13.0
0.6806333065032959,11.0,5.0,17.0,38.0,20.0,7.0,20.0
0.6821500062942505,26.0,13.0,19.0,22.0,39.0,0.0,22.0
0.6836666464805603,38.0,5.0,19.0,6.0,5.0,20.0,22.0
0.6852499842643738,37.0,28.0,19.0,30.0,17.0,10.0,30.0
0.6867666840553284,30.0,25.0,19.0,18.0,21.0,0.0,28.0
0.6882833242416382,18.0,21.0,5.0,25.0,25.0,27.0,20.0
0.6898000240325928,41.0,17.0,12.0,21.0,15.0,22.0,23.0
0.6913166642189026,5.0,24.0,32.0,20.0,5.0,16.0,25.0
0.6928333044052124,16.0,25.0,24.0,19.0,31.0,5.0,35.0
0.694350004196167,10.0,16.0,20.0,26.0,18.0,10.0,44.0
0.6958666443824768,5.0,0.0,15.0,25.0,5.0,40.0,0.0
0.6973833441734314,0.0,15.0,12.0,23.0,31.0,35.0,5.0
0.6988999843597412,16.0,21.0,27.0,0.0,20.0,5.0,43.0
0.7004166841506958,11.0,27.0,41.0,28.0,41.0,29.0,35.0
0.7019666433334351,8.0,25.0,34.0,12.0,31.0,47.0,45.0
0.703499972820282,11.0,10.0,26.0,19.0,22.0,32.0,18.0
0.7050166726112366,13.0,15.0,48.0,26.0,25.0,26.0,39.0
0.7065333127975464,15.0,20.0,0.0,25.0,28.0,24.0,5.0
0.708050012588501,10.0,10.0,10.0,23.0,0.0,25.0,11.0
0.7095666527748108,10.0,21.0,0.0,15.0,21.0,26.0,0.0
0.7110833525657654,18.0,5.0,43.0,10.0,34.0,11.0,33.0
0.7125999927520752,25.0,24.0,34.0,8.0,47.0,7.0,38.0
0.7141166925430298,32.0,10.0,9.0,5.0,14.0,22.0,42.0
0.7156500220298767,5.0,36.0,0.0,5.0,5.0,37.0,44.0
0.7171499729156494,0.0,22.0,11.0,5.0,26.0,47.0,45.0
0.718666672706604,15.0,8.0,0.0,5.0,18.0,34.0,42.0
0.7202500104904175,12.0,23.0,5.0,5.0,10.0,25.0,25.0
0.7217666506767273,13.0,24.0,12.0,7.0,0.0,16.0,10.0
0.7232833504676819,20.0,25.0,9.0,16.0,5.0,34.0,45.0
0.7247999906539917,23.0,28.0,5.0,25.0,49.0,12.0,10.0
0.7263166904449463,26.0,31.0,18.0,25.0,39.0,0.0,38.0
0.7278333306312561,25.0,17.0,39.0,41.0,28.0,27.0,54.0
0.7293499708175659,23.0,10.0,33.0,38.0,32.0,10.0,6.0
0.7308666706085205,13.0,43.0,29.0,35.0,25.0,26.0,26.0
0.7323833107948303,14.0,38.0,0.0,22.0,25.0,10.0,11.0
0.7339000105857849,15.0,5.0,5.0,22.0,24.0,10.0,21.0
0.7354166507720947,24.0,19.0,35.0,12.0,23.0,17.0,15.0
0.7369999885559082,33.0,18.0,17.0,24.0,14.0,16.0,21.0
0.7385166883468628,31.0,16.0,0.0,21.0,5.0,15.0,15.0
0.7400333285331726,28.0,14.0,12.0,18.0,5.0,11.0,29.0
0.7415500283241272,28.0,13.0,15.0,38.0,13.0,23.0,42.0
0.743066668510437,27.0,12.0,17.0,24.0,15.0,14.0,51.0
0.7445833086967468,24.0,20.0,25.0,10.0,16.0,5.0,59.0
0.7461000084877014,21.0,34.0,28.0,35.0,13.0,22.0,6.0
0.7476166486740112,0.0,32.0,31.0,23.0,22.0,28.0,22.0
0.7491333484649658,12.0,17.0,31.0,10.0,21.0,13.0,26.0
0.7506499886512756,16.0,12.0,15.0,24.0,20.0,20.0,18.0
0.7521666884422302,26.0,11.0,37.0,20.0,44.0,0.0,10.0
0.7537333369255066,22.0,0.0,19.0,15.0,70.0,12.0,18.0
0.7552666664123535,18.0,25.0,0.0,11.0,48.0,24.0,25.0
0.7567833065986633,0.0,21.0,26.0,6.0,25.0,29.0,22.0
0.7582833170890808,17.0,23.0,21.0,0.0,21.0,34.0,52.0
0.7598000168800354,35.0,25.0,16.0,3.0,35.0,30.0,49.0
0.7613166570663452,18.0,27.0,53.0,5.0,29.0,26.0,45.0
0.7628333568572998,0.0,28.0,39.0,44.0,23.0,0.0,49.0
0.7643499970436096,39.0,27.0,25.0,36.0,44.0,35.0,16.0
0.7658666372299194,22.0,26.0,15.0,54.0,15.0,20.0,0.0
0.767383337020874,32.0,24.0,20.0,17.0,5.0,5.0,48.0
0.7688999772071838,0.0,24.0,23.0,16.0,24.0,27.0,10.0
0.7704833149909973,13.0,23.0,0.0,15.0,28.0,52.0,39.0
0.7720000147819519,25.0,24.0,16.0,24.0,23.0,47.0,5.0
0.7735166549682617,20.0,7.0,31.0,22.0,17.0,19.0,39.0
0.7750333547592163,15.0,0.0,21.0,5.0,30.0,26.0,15.0
0.7765499949455261,0.0,17.0,56.0,13.0,23.0,5.0,20.0
0.7780666947364807,12.0,19.0,57.0,0.0,23.0,20.0,39.0
0.7795833349227905,24.0,21.0,58.0,15.0,0.0,33.0,30.0
0.7810999751091003,33.0,14.0,20.0,0.0,10.0,28.0,26.0
0.7826166749000549,26.0,10.0,10.0,27.0,19.0,22.0,13.0
0.7841333150863647,19.0,6.0,41.0,29.0,17.0,55.0,5.0
0.7856500148773193,5.0,5.0,6.0,16.0,14.0,40.0,5.0
0.7872333526611328,28.0,10.0,29.0,13.0,815.0,25.0,23.0
0.7887499928474426,28.0,1350.0,1311.0,3191.0,6486.0,1336.0,370.0
0.7902666926383972,27.0,7365.0,11092.0,15980.0,23356.0,5964.0,2676.0
0.791783332824707,27.0,30828.0,69440.0,94560.0,78160.0,28044.0,6798.0
0.7932999730110168,26.0,96656.0,201856.0,233088.0,169728.0,90640.0,26876.0
0.7948166728019714,26.0,201280.0,363456.0,430656.0,350016.0,133760.0,38832.0
0.7963333129882812,25.0,306624.0,601344.0,656384.0,463232.0,194624.0,54576.0
0.7978500127792358,68.0,377792.0,807680.0,852480.0,637440.0,255680.0,69408.0
0.7993666529655457,70.0,477632.0,947456.0,961536.0,686336.0,268864.0,76272.0
0.8008833527565002,72.0,524096.0,1108224.0,1161984.0,800256.0,303872.0,91616.0
0.8023999929428101,53.0,591872.0,1225216.0,1264384.0,929792.0,387776.0,90432.0
0.8039833307266235,75.0,733440.0,1392896.0,1402368.0,919296.0,381312.0,101392.0
0.8054999709129333,134.0,777472.0,1447424.0,1647360.0,1023488.0,419264.0,116192.0
0.8070166707038879,156.0,811008.0,1579008.0,1619200.0,1063680.0,435776.0,112112.0
0.8085333108901978,154.0,815872.0,1607424.0,1566720.0,1018112.0,450368.0,124848.0
0.8100500106811523,138.0,822528.0,1680640.0,1629952.0,1182464.0,485632.0,122416.0
0.8115666508674622,158.0,829184.0,1686272.0,1693440.0,1181184.0,487680.0,125696.0
0.8130833506584167,122.0,836352.0,1628928.0,1708544.0,1185536.0,454272.0,119808.0
0.8145999908447266,157.0,827904.0,1715712.0,1693696.0,1152768.0,487680.0,110928.0
0.8161166906356812,152.0,811008.0,1524224.0,1678848.0,1179136.0,433216.0,102752.0
0.817633330821991,147.0,794112.0,1524224.0,1759232.0,1079040.0,391104.0,102704.0
0.8191499710083008,139.0,807168.0,1502464.0,1532928.0,1056512.0,409472.0,111232.0
0.8206999897956848,130.0,793600.0,1468928.0,1510144.0,997120.0,416384.0,113808.0
0.8222500085830688,104.0,729856.0,1393152.0,1432320.0,1020672.0,366208.0,110432.0
0.8237500190734863,79.0,729856.0,1263104.0,1242368.0,840960.0,397888.0,110560.0
0.8252666592597961,89.0,687360.0,1257984.0,1304576.0,851456.0,319488.0,92880.0
0.8267833590507507,99.0,653056.0,1210624.0,1229056.0,783104.0,313728.0,78064.0
0.8282999992370605,92.0,614912.0,1138176.0,1141248.0,657920.0,298624.0,79664.0
0.8298166394233704,110.0,536320.0,1014784.0,1055232.0,755200.0,274944.0,69904.0
0.831333339214325,128.0,507584.0,961024.0,999680.0,674048.0,278016.0,67536.0
0.8328666687011719,122.0,468096.0,843520.0,869888.0,631808.0,245120.0,67648.0
0.8343833088874817,217.0,443392.0,820992.0,876288.0,574464.0,227648.0,72736.0
0.8359000086784363,215.0,413056.0,707328.0,774656.0,509248.0,179136.0,52032.0
0.8374166488647461,55.0,386944.0,668928.0,756992.0,454848.0,184896.0,36272.0
0.838949978351593,90.0,313024.0,658944.0,609792.0,419840.0,177344.0,42912.0
0.8404666781425476,125.0,287616.0,574464.0,611584.0,353088.0,143104.0,48496.0
0.8419833183288574,155.0,258752.0,496768.0,506816.0,328128.0,126528.0,39024.0
0.843500018119812,111.0,237568.0,492480.0,480512.0,307520.0,115776.0,25768.0
0.8450166583061218,110.0,193536.0,420544.0,451072.0,296064.0,105520.0,22436.0
0.8465333580970764,62.0,205440.0,388608.0,395648.0,247040.0,101648.0,27820.0
0.8480499982833862,134.0,196544.0,347712.0,357696.0,237376.0,94912.0,31416.0
0.849566638469696,114.0,169152.0,343232.0,370176.0,235008.0,88688.0,29584.0
0.8510833382606506,62.0,176704.0,324928.0,326912.0,218560.0,77888.0,29108.0
0.8525999784469604,60.0,156544.0,279744.0,298432.0,213888.0,89520.0,16896.0
0.854116678237915,57.0,136576.0,281024.0,282432.0,187968.0,71872.0,20032.0
0.8556833267211914,116.0,110928.0,268096.0,289856.0,191168.0,75472.0,16004.0
0.857200026512146,123.0,125200.0,258176.0,280896.0,169664.0,66448.0,19552.0
0.8587166666984558,117.0,109280.0,217920.0,260352.0,137280.0,70800.0,12228.0
0.8602333068847656,111.0,115488.0,230144.0,241088.0,156032.0,70352.0,16100.0
0.8617500066757202,29.0,121696.0,210432.0,243968.0,153344.0,48496.0,12540.0
0.86326664686203,54.0,96400.0,223808.0,217408.0,126816.0,57552.0,11204.0
0.8647833466529846,103.0,105872.0,220352.0,200256.0,137664.0,43808.0,15516.0
0.8662999868392944,46.0,91728.0,206592.0,190912.0,127808.0,55008.0,14868.0
0.867816686630249,42.0,94160.0,186688.0,188992.0,108160.0,46720.0,11484.0
0.8693333268165588,37.0,81744.0,174720.0,178048.0,110160.0,48992.0,7965.0
0.8708500266075134,48.0,83408.0,164608.0,166976.0,103872.0,49424.0,7851.0
0.8724333047866821,60.0,81888.0,169664.0,178944.0,106464.0,38912.0,12112.0
0.8739500045776367,108.0,71296.0,150336.0,156288.0,109040.0,46272.0,9940.0
0.8754666447639465,107.0,70832.0,142464.0,145472.0,103280.0,54560.0,10712.0
0.8769833445549011,10.0,75168.0,154688.0,148864.0,104304.0,37616.0,4227.0
0.8784999847412109,64.0,82064.0,145600.0,148992.0,97904.0,47088.0,14108.0
0.8800166845321655,54.0,78992.0,132928.0,147328.0,99152.0,36832.0,8416.0
0.8815333247184753,44.0,81136.0,153664.0,138368.0,100400.0,48944.0,7713.0
0.8830500245094299,69.0,68240.0,133888.0,124368.0,92224.0,33520.0,14092.0
0.8845666646957397,27.0,74848.0,139456.0,127856.0,89584.0,28452.0,11760.0
0.8860833048820496,74.0,71344.0,133696.0,132608.0,92368.0,32832.0,8860.0
0.8876000046730042,71.0,73488.0,124848.0,112736.0,70752.0,32864.0,6893.0
0.8891833424568176,18.0,65664.0,124832.0,122816.0,85072.0,15792.0,4263.0
0.8906999826431274,47.0,58464.0,112384.0,117424.0,84256.0,27916.0,8544.0
0.892216682434082,42.0,52336.0,123712.0,116960.0,83312.0,33008.0,10704.0
0.8937333226203918,66.0,60016.0,102384.0,119216.0,84496.0,30716.0,12864.0
0.8952500224113464,57.0,49488.0,113584.0,118560.0,72384.0,30204.0,8916.0
0.8967666625976562,17.0,48224.0,119536.0,127552.0,82224.0,29688.0,8098.0
0.8982833623886108,68.0,54656.0,116400.0,126000.0,81088.0,33872.0,8620.0
0.8998000025749207,21.0,54688.0,113264.0,118480.0,60928.0,35056.0,7496.0
0.9013166427612305,51.0,57456.0,115856.0,124208.0,69712.0,25928.0,7725.0
0.9028333425521851,48.0,57344.0,75392.0,108496.0,67392.0,23796.0,7953.0
0.9043499827384949,35.0,59536.0,95104.0,111600.0,73520.0,31616.0,4997.0
0.9059333205223083,45.0,55936.0,106224.0,93584.0,67008.0,27032.0,4524.0
0.9074500203132629,54.0,52336.0,94816.0,103344.0,67920.0,23340.0,4860.0
0.9089666604995728,39.0,45920.0,90640.0,113808.0,74032.0,21816.0,9588.0
0.9104833602905273,33.0,43328.0,103104.0,110928.0,71424.0,29420.0,9504.0
0.9120000004768372,69.0,45856.0,107760.0,114560.0,64288.0,29176.0,6770.0
0.913516640663147,17.0,48384.0,83376.0,93600.0,67872.0,31512.0,11104.0
0.9150333404541016,41.0,46928.0,94640.0,106432.0,65632.0,29904.0,9672.0
0.9165499806404114,23.0,46000.0,86368.0,102128.0,72512.0,28296.0,8232.0
0.918066680431366,30.0,54384.0,89136.0,96976.0,69392.0,27172.0,7080.0
0.9195833206176758,21.0,54432.0,81840.0,93232.0,66272.0,26048.0,2237.0
0.9211000204086304,19.0,48032.0,88912.0,94768.0,75696.0,30576.0,4283.0
0.9226833581924438,17.0,54128.0,88128.0,94656.0,59936.0,16752.0,2808.0
0.9241999983787537,39.0,48448.0,77392.0,94528.0,56176.0,17744.0,4293.0
0.9257166385650635,30.0,51072.0,81872.0,96112.0,63504.0,31588.0,5779.0
0.9272333383560181,21.0,48784.0,86368.0,97696.0,56752.0,31376.0,6339.0
0.9287499785423279,38.0,50144.0,87600.0,99616.0,58224.0,27032.0,6609.0
0.9302666783332825,25.0,45920.0,88832.0,97536.0,54960.0,20996.0,7206.0
0.9317833185195923,19.0,42832.0,82848.0,95440.0,64368.0,22148.0,7803.0
0.9333000183105469,13.0,43808.0,85040.0,101072.0,67088.0,24260.0,4419.0
0.9348166584968567,5.0,39808.0,92512.0,92304.0,51088.0,22948.0,4227.0
0.9363333582878113,10.0,35792.0,86304.0,92368.0,68912.0,21636.0,6406.0
0.9378499984741211,5.0,44896.0,80096.0,100496.0,77248.0,21612.0,7285.0
0.9394333362579346,37.0,45856.0,72256.0,97408.0,68144.0,21876.0,6836.0
0.9409499764442444,39.0,46736.0,81488.0,98448.0,59792.0,22140.0,6388.0
0.942466676235199,42.0,45040.0,85008.0,81552.0,70528.0,24740.0,6021.0
0.9439833164215088,37.0,29924.0,96928.0,79072.0,65184.0,16648.0,6441.0
0.9455000162124634,33.0,28084.0,94832.0,100896.0,61024.0,20668.0,4995.0
0.9470166563987732,36.0,34784.0,83664.0,108224.0,56848.0,24688.0,7193.0
0.9485333561897278,39.0,48272.0,104064.0,79408.0,60032.0,26380.0,6584.0
0.9500499963760376,30.0,51888.0,84784.0,75632.0,63232.0,27480.0,8648.0
0.9515666961669922,21.0,46896.0,87904.0,91360.0,61952.0,21704.0,7090.0
0.953083336353302,41.0,50944.0,80304.0,93632.0,61120.0,29200.0,8328.0
0.9545999765396118,20.0,51344.0,85280.0,103440.0,60288.0,18252.0,6036.0
0.956166684627533,21.0,53904.0,85920.0,81088.0,63840.0,18896.0,3848.0
0.9577000141143799,25.0,48032.0,76912.0,83920.0,57280.0,26316.0,3724.0
0.9592166543006897,29.0,52512.0,87536.0,97088.0,59584.0,18812.0,5520.0
0.9607333540916443,32.0,54720.0,74320.0,92336.0,58720.0,23920.0,4343.0
0.9622499942779541,35.0,41312.0,89424.0,90784.0,59280.0,27388.0,3167.0
0.9637666940689087,53.0,40544.0,90464.0,89248.0,50640.0,22828.0,4101.0
0.9652833342552185,66.0,39504.0,79408.0,75344.0,54864.0,28124.0,5036.0
0.9667999744415283,18.0,47456.0,88096.0,84688.0,60736.0,24844.0,4889.0
0.9683166742324829,28.0,48864.0,90672.0,92560.0,57120.0,21224.0,3964.0
0.9698333144187927,37.0,48096.0,84016.0,89472.0,53936.0,23568.0,4111.0
0.9713500142097473,27.0,47344.0,81824.0,83648.0,51440.0,24468.0,4259.0
0.9728666543960571,46.0,42672.0,79648.0,94800.0,51136.0,20580.0,4331.0
0.9744333624839783,49.0,40640.0,83936.0,66128.0,50816.0,20908.0,4451.0
0.9759666919708252,52.0,47568.0,88224.0,89088.0,47712.0,26956.0,6156.0
0.9774666428565979,53.0,48496.0,88080.0,90112.0,44592.0,26736.0,6193.0
0.9789833426475525,24.0,47408.0,87936.0,89872.0,46464.0,32220.0,6231.0
0.9804999828338623,58.0,51584.0,103216.0,88736.0,48320.0,29044.0,3298.0
0.9820333123207092,51.0,41776.0,104928.0,93584.0,62032.0,25784.0,6684.0
0.9835500121116638,28.0,47184.0,99120.0,82576.0,58784.0,18440.0,3771.0
0.9850666522979736,5.0,45824.0,89760.0,97632.0,57648.0,20652.0,5560.0
0.9865833520889282,51.0,50448.0,84912.0,95664.0,60256.0,17744.0,2744.0
0.988099992275238,24.0,33152.0,84192.0,89760.0,55072.0,20676.0,3471.0
0.9896166920661926,15.0,43696.0,60512.0,97680.0,47408.0,17460.0,3515.0
0.9911500215530396,66.0,39552.0,97616.0,84240.0,62704.0,22004.0,6495.0
0.9926666617393494,51.0,44368.0,75648.0,96144.0,62256.0,26612.0,5979.0
0.994183361530304,46.0,36416.0,77664.0,93376.0,55296.0,30780.0,5463.0
0.9957000017166138,54.0,47104.0,91264.0,80672.0,57280.0,23724.0,3913.0
0.9972166419029236,80.0,47456.0,78896.0,86992.0,62912.0,23432.0,4059.0
0.9987333416938782,61.0,42080.0,98336.0,76736.0,65248.0,23140.0,4205.0
1.000249981880188,42.0,38336.0,91024.0,81168.0,64528.0,21652.0,7299.0
1.0017666816711426,21.0,47632.0,83344.0,71760.0,58752.0,20164.0,6553.0
1.0032833814620972,20.0,32256.0,90688.0,92256.0,59712.0,21756.0,4549.0
1.0047999620437622,33.0,41632.0,86128.0,92032.0,60672.0,16524.0,4572.0
1.0063166618347168,38.0,53088.0,87120.0,87360.0,58144.0,22304.0,6952.0
1.0078999996185303,10.0,38720.0,88128.0,87312.0,57376.0,18904.0,10416.0
1.0094166994094849,18.0,39424.0,85568.0,88304.0,58160.0,19788.0,9444.0
1.01093327999115,25.0,45520.0,89280.0,80752.0,58960.0,21708.0,5336.0
1.0124499797821045,23.0,43296.0,92976.0,87056.0,52752.0,23624.0,4622.0
1.013966679573059,14.0,45648.0,78448.0,87136.0,53264.0,25300.0,4450.0
1.0154833793640137,5.0,47984.0,87872.0,90080.0,54928.0,27104.0,6027.0
1.0169999599456787,25.0,44928.0,77072.0,99232.0,52768.0,19984.0,5585.0
1.0185166597366333,23.0,41872.0,81392.0,100400.0,67248.0,25140.0,5143.0
1.020033359527588,21.0,34400.0,90288.0,90624.0,65232.0,13732.0,5617.0
1.0215500593185425,10.0,47504.0,85856.0,96048.0,65328.0,14628.0,4904.0
1.0230666399002075,31.0,52944.0,79392.0,83296.0,52048.0,22720.0,4190.0
1.024649977684021,27.0,46928.0,88048.0,88224.0,69296.0,20120.0,6286.0
1.0261499881744385,0.0,42336.0,85408.0,88304.0,65648.0,25700.0,8204.0
1.027666687965393,30.0,36464.0,108368.0,88240.0,50304.0,24828.0,8150.0
1.0291833877563477,6.0,49888.0,104288.0,88192.0,67280.0,23536.0,11076.0
1.0307166576385498,37.0,48432.0,77680.0,84784.0,55888.0,22944.0,3558.0
1.0322166681289673,23.0,41088.0,83216.0,100304.0,65152.0,25804.0,2198.0
1.0337333679199219,15.0,42704.0,86880.0,99664.0,55456.0,28668.0,4781.0
1.035249948501587,27.0,44096.0,86528.0,109104.0,56208.0,24156.0,5560.0
1.0367666482925415,20.0,45488.0,86176.0,95888.0,53920.0,19648.0,6338.0
1.038283348083496,14.0,43408.0,92272.0,97024.0,66112.0,24504.0,6428.0
1.0398166179656982,15.0,41312.0,92816.0,84400.0,63664.0,24048.0,6517.0
1.04135000705719,16.0,40624.0,76944.0,82912.0,64208.0,23592.0,5676.0
1.0428667068481445,38.0,55600.0,81664.0,103184.0,65696.0,25912.0,5732.0
1.0443832874298096,31.0,54112.0,86400.0,102480.0,63408.0,25836.0,5788.0
1.0458999872207642,23.0,40768.0,91360.0,116464.0,66096.0,25760.0,5078.0
1.0474166870117188,29.0,53280.0,92160.0,108832.0,65840.0,25280.0,6059.0
1.0489333868026733,26.0,53632.0,99408.0,93984.0,65584.0,27824.0,7041.0
1.0504499673843384,23.0,52144.0,99392.0,92336.0,54896.0,21120.0,6167.0
1.051966667175293,31.0,50496.0,99744.0,95872.0,69040.0,20944.0,5293.0
1.0534833669662476,38.0,41344.0,94448.0,94128.0,63152.0,21300.0,9908.0
1.0549999475479126,40.0,49312.0,98704.0,101728.0,69600.0,24232.0,7236.0
1.0565166473388672,27.0,50752.0,80928.0,97568.0,74368.0,27164.0,4563.0
1.0580999851226807,26.0,41472.0,89728.0,93408.0,72400.0,26484.0,9584.0
1.0596166849136353,24.0,45728.0,104816.0,97360.0,70432.0,26760.0,3319.0
1.0611333847045898,13.0,57728.0,101280.0,96304.0,66784.0,22024.0,4280.0
1.0626499652862549,50.0,52608.0,101200.0,95264.0,73264.0,23472.0,6794.0
1.0641666650772095,53.0,47056.0,104160.0,98288.0,73840.0,24916.0,7421.0
1.065683364868164,49.0,58576.0,96464.0,101296.0,73696.0,28824.0,8047.0
1.067199945449829,42.0,56880.0,92688.0,96992.0,68176.0,27816.0,6994.0
1.0687166452407837,34.0,56544.0,111552.0,92688.0,68928.0,22860.0,5941.0
1.0702333450317383,26.0,35520.0,115680.0,105072.0,69680.0,26392.0,7140.0
1.0717500448226929,19.0,47360.0,98352.0,107728.0,80928.0,27760.0,5725.0
1.073266625404358,12.0,50544.0,113008.0,114608.0,78912.0,29452.0,4309.0
1.0748499631881714,0.0,53424.0,105712.0,102752.0,62080.0,27032.0,6819.0
1.076366662979126,0.0,56320.0,108304.0,118752.0,60272.0,27308.0,5776.0
1.0778833627700806,8.0,56720.0,92848.0,100752.0,68992.0,27584.0,4675.0
1.0793999433517456,15.0,55488.0,111040.0,123664.0,68000.0,27860.0,7226.0
1.0809166431427002,36.0,54256.0,111888.0,123376.0,75744.0,25816.0,6694.0
1.0824333429336548,43.0,55056.0,107536.0,105328.0,70288.0,23776.0,6355.0
1.0839500427246094,36.0,55840.0,107840.0,117248.0,84416.0,23976.0,6632.0
1.0854666233062744,29.0,50352.0,108144.0,113856.0,77008.0,28240.0,6489.0
1.086983323097229,10.0,44864.0,104144.0,111600.0,69600.0,29808.0,6346.0
1.0885000228881836,25.0,44160.0,108768.0,110752.0,75264.0,36400.0,5899.0
1.0900167226791382,39.0,44480.0,113392.0,109904.0,87184.0,33808.0,6402.0
1.0915833711624146,28.0,52656.0,92544.0,112096.0,88000.0,24900.0,6905.0
1.0930999517440796,35.0,63600.0,129152.0,114272.0,87168.0,26232.0,8660.0
1.0946166515350342,38.0,69824.0,120928.0,106512.0,71776.0,31960.0,8170.0
1.0961333513259888,32.0,71360.0,124032.0,118496.0,78544.0,31916.0,7618.0
1.0976500511169434,33.0,58944.0,98448.0,118656.0,80464.0,34736.0,8013.0
1.0991833209991455,18.0,60736.0,117584.0,114688.0,86656.0,32688.0,2828.0
1.100683331489563,23.0,49136.0,118352.0,114752.0,90192.0,30636.0,8264.0
1.1022000312805176,28.0,66016.0,116640.0,119072.0,67600.0,28292.0,5224.0
1.1037166118621826,27.0,66512.0,95408.0,116256.0,80096.0,30340.0,5380.0
1.1052333116531372,35.0,63776.0,112656.0,117136.0,79920.0,27256.0,10068.0
1.106766700744629,42.0,60912.0,114080.0,118016.0,84544.0,31020.0,8416.0
1.1083166599273682,33.0,61648.0,100432.0,124032.0,74880.0,28700.0,3550.0
1.1098500490188599,24.0,70064.0,118896.0,128848.0,76992.0,26384.0,11240.0
1.111366629600525,52.0,49584.0,91808.0,128800.0,72992.0,31028.0,8488.0
1.1128833293914795,45.0,64896.0,109440.0,131392.0,79680.0,35680.0,7396.0
1.114400029182434,23.0,48496.0,109152.0,123376.0,78032.0,32736.0,3927.0
1.1159166097640991,66.0,56384.0,103120.0,120000.0,76384.0,32352.0,7292.0
1.1174333095550537,30.0,62528.0,131904.0,125504.0,77104.0,31964.0,11248.0
1.1189500093460083,42.0,59392.0,137600.0,114464.0,77824.0,31348.0,15164.0
1.120466709136963,51.0,55696.0,126576.0,122960.0,76544.0,27940.0,11912.0
1.121983289718628,59.0,53152.0,112192.0,124608.0,75248.0,33296.0,6130.0
1.1234999895095825,26.0,59792.0,124192.0,121184.0,75120.0,35680.0,5862.0
1.125016689300537,28.0,54656.0,122528.0,122400.0,74976.0,28356.0,7128.0
1.1266000270843506,27.0,59488.0,120880.0,123616.0,89680.0,34800.0,5625.0
1.1281166076660156,21.0,63360.0,119248.0,126080.0,91504.0,39392.0,4122.0
1.1296333074569702,14.0,67216.0,107648.0,111152.0,86272.0,34832.0,6423.0
1.1311500072479248,14.0,64224.0,106736.0,128976.0,74432.0,31212.0,8724.0
1.1326667070388794,16.0,70368.0,130224.0,109728.0,73104.0,28372.0,9780.0
1.1341832876205444,17.0,49120.0,130816.0,127664.0,77984.0,29312.0,6062.0
1.135699987411499,26.0,58144.0,105072.0,111648.0,74896.0,30296.0,6588.0
1.1372166872024536,50.0,65600.0,121696.0,138176.0,81920.0,29600.0,10164.0
1.1387333869934082,64.0,66848.0,118832.0,125104.0,81872.0,30552.0,8208.0
1.1402499675750732,71.0,67840.0,121248.0,120320.0,81840.0,30704.0,4140.0
1.1417666673660278,29.0,63248.0,116912.0,132672.0,80688.0,30856.0,11852.0
1.1433333158493042,41.0,63184.0,106624.0,120944.0,79552.0,30084.0,7637.0
1.1448500156402588,38.0,61744.0,105008.0,125024.0,73152.0,29312.0,11880.0
1.1463667154312134,21.0,60288.0,109872.0,113536.0,98576.0,30428.0,7740.0
1.1478832960128784,21.0,62560.0,114736.0,113024.0,107632.0,31544.0,8006.0
1.1494166851043701,17.0,59040.0,122720.0,141184.0,100272.0,36016.0,8272.0
1.1509166955947876,41.0,55504.0,139264.0,137344.0,72464.0,33184.0,6927.0
1.1524332761764526,37.0,59872.0,132224.0,136640.0,97936.0,30328.0,9500.0
1.1539499759674072,8.0,64224.0,130960.0,138304.0,85552.0,29892.0,8532.0
1.1554666757583618,87.0,63664.0,145344.0,146240.0,84400.0,24872.0,7563.0
1.156999945640564,69.0,59536.0,112912.0,118384.0,82128.0,39232.0,7490.0
1.1584999561309814,55.0,48080.0,108224.0,115584.0,84528.0,36128.0,10972.0
1.160083293914795,44.0,61504.0,108704.0,119600.0,84352.0,24744.0,11568.0
1.1615999937057495,32.0,67808.0,112288.0,117456.0,84176.0,45632.0,6079.0
1.163116693496704,6.0,57104.0,115888.0,115312.0,85888.0,30468.0,14224.0
1.1646332740783691,8.0,75808.0,119712.0,122800.0,87584.0,31476.0,11644.0
1.1661499738693237,26.0,78832.0,123536.0,124224.0,92160.0,28000.0,6691.0
1.1676666736602783,16.0,70080.0,123424.0,125648.0,94656.0,28808.0,6612.0
1.169183373451233,30.0,66384.0,121856.0,127632.0,98544.0,29616.0,7355.0
1.170699954032898,7.0,58208.0,120304.0,136320.0,84592.0,28824.0,8101.0
1.1722166538238525,0.0,67184.0,120880.0,134656.0,92784.0,28032.0,7865.0
1.1737333536148071,51.0,58448.0,132544.0,133056.0,87888.0,27188.0,7628.0
1.1752500534057617,54.0,69632.0,129904.0,122160.0,98352.0,26340.0,5194.0
1.1768333911895752,17.0,69520.0,127248.0,128272.0,101184.0,36016.0,7003.0
1.1783499717712402,27.0,61120.0,136192.0,130320.0,86784.0,40848.0,8812.0
1.1798666715621948,34.0,69072.0,118880.0,131200.0,101904.0,35824.0,10196.0
1.1813833713531494,40.0,61264.0,128464.0,132096.0,89504.0,32800.0,9312.0
1.1828999519348145,11.0,64592.0,142912.0,133440.0,88944.0,29772.0,7013.0
1.184416651725769,34.0,65056.0,123744.0,127808.0,91024.0,30712.0,12020.0
1.1859333515167236,31.0,71120.0,126784.0,155200.0,87120.0,35264.0,9804.0
1.1874500513076782,55.0,71888.0,139200.0,159616.0,83216.0,39808.0,10368.0
1.1889666318893433,39.0,72656.0,139392.0,148480.0,91680.0,42256.0,4025.0
1.1904833316802979,41.0,64624.0,133248.0,143744.0,93152.0,42528.0,11772.0
1.1920000314712524,42.0,66992.0,138432.0,126880.0,80352.0,30292.0,7055.0
1.193583369255066,23.0,85088.0,143616.0,137856.0,85872.0,32348.0,6902.0
1.195099949836731,32.0,81600.0,140352.0,132608.0,75424.0,42544.0,6590.0
1.1966166496276855,18.0,77216.0,137088.0,155392.0,82480.0,30616.0,7353.0
1.1981333494186401,17.0,75872.0,147456.0,153152.0,82240.0,38688.0,8117.0
1.1996500492095947,16.0,75856.0,131456.0,142464.0,91424.0,38080.0,9748.0
1.2011666297912598,35.0,68656.0,135744.0,143616.0,95072.0,36784.0,10072.0
1.2026833295822144,36.0,72416.0,146048.0,142912.0,90512.0,39840.0,5335.0
1.204200029373169,24.0,75440.0,135808.0,136192.0,93232.0,33456.0,7730.0
1.205716609954834,6.0,78448.0,121008.0,142848.0,92368.0,37232.0,9216.0
1.2072333097457886,37.0,73712.0,117088.0,151360.0,91056.0,31476.0,5805.0
1.2087500095367432,42.0,68960.0,140032.0,128352.0,89744.0,32864.0,11684.0
1.2103166580200195,47.0,75296.0,141632.0,135744.0,84224.0,30752.0,10996.0
1.2118333578109741,26.0,71296.0,159936.0,150976.0,83696.0,39888.0,7565.0
1.2133666276931763,30.0,68496.0,144000.0,149824.0,86096.0,37456.0,6957.0
1.2148666381835938,28.0,65680.0,137856.0,148608.0,92480.0,35024.0,10812.0
1.2163833379745483,31.0,65648.0,135168.0,133312.0,91728.0,48784.0,10036.0
1.217900037765503,29.0,65632.0,130944.0,153920.0,87296.0,47744.0,9256.0
1.219433307647705,27.0,74720.0,133312.0,162240.0,94256.0,28876.0,10128.0
1.2209333181381226,16.0,72560.0,135744.0,166848.0,92960.0,45344.0,9004.0
1.2224500179290771,69.0,54800.0,138688.0,149056.0,85888.0,28700.0,8812.0
1.2239667177200317,68.0,79584.0,122496.0,155840.0,89792.0,39472.0,9892.0
1.2254832983016968,80.0,71936.0,126304.0,142720.0,94992.0,38976.0,9112.0
1.2270499467849731,25.0,70192.0,130096.0,140608.0,93248.0,34640.0,8468.0
1.2285833358764648,53.0,68432.0,120864.0,148544.0,91520.0,50848.0,7826.0
1.2301000356674194,60.0,58928.0,135808.0,167168.0,94128.0,47776.0,7234.0
1.2316166162490845,32.0,62432.0,149056.0,168704.0,95136.0,41952.0,6642.0
1.233133316040039,5.0,65952.0,140352.0,146048.0,97632.0,37056.0,8948.0
1.2346500158309937,22.0,72336.0,142272.0,155520.0,89584.0,32928.0,11256.0
1.2361667156219482,32.0,71600.0,141312.0,145152.0,85840.0,38064.0,13692.0
1.2376832962036133,58.0,70880.0,140352.0,147072.0,100144.0,37168.0,11464.0
1.2391999959945679,58.0,64048.0,126832.0,142464.0,89504.0,36272.0,7684.0
1.2407166957855225,58.0,87696.0,145088.0,137856.0,91408.0,45856.0,10096.0
1.2422332763671875,11.0,87712.0,143744.0,161152.0,77248.0,43712.0,8147.0
1.243749976158142,45.0,73648.0,148160.0,157632.0,107136.0,35680.0,7974.0
1.2453333139419556,61.0,83840.0,145344.0,152128.0,101968.0,32528.0,7801.0
1.2468500137329102,47.0,83424.0,142592.0,154112.0,103712.0,42352.0,10804.0
1.2483667135238647,42.0,79472.0,138688.0,153216.0,106464.0,43024.0,9624.0
1.249899983406067,36.0,81920.0,134272.0,142272.0,114416.0,32708.0,8444.0
1.2513999938964844,39.0,84368.0,129920.0,157312.0,92352.0,42736.0,9140.0
1.252916693687439,42.0,79520.0,136896.0,122400.0,73280.0,41952.0,7984.0
1.2544499635696411,36.0,83696.0,119424.0,174464.0,95696.0,44448.0,11220.0
1.2559666633605957,30.0,81728.0,143872.0,147776.0,90816.0,44640.0,11616.0
1.2574666738510132,44.0,78624.0,159872.0,145792.0,85936.0,38544.0,6933.0
1.2589833736419678,40.0,73264.0,162176.0,148736.0,88192.0,29516.0,7128.0
1.2604999542236328,36.0,65216.0,162048.0,158336.0,90448.0,40752.0,7322.0
1.2620667219161987,71.0,72784.0,170240.0,167872.0,88608.0,36752.0,6817.0
1.2635666131973267,81.0,72608.0,129296.0,135040.0,86768.0,35408.0,6313.0
1.2650833129882812,45.0,59472.0,125296.0,164096.0,95184.0,34064.0,7222.0
1.2666000127792358,23.0,79904.0,139264.0,159872.0,103616.0,40960.0,7258.0
1.2681167125701904,70.0,65984.0,140160.0,148544.0,99216.0,47744.0,7293.0
1.2696499824523926,80.0,70480.0,145856.0,129024.0,83152.0,49536.0,7860.0
1.2711666822433472,14.0,66288.0,143040.0,142080.0,104832.0,30764.0,10280.0
1.2726999521255493,13.0,69536.0,141952.0,162240.0,110912.0,43488.0,9772.0
1.274216651916504,43.0,69248.0,140864.0,157760.0,95648.0,38080.0,9260.0
1.2757333517074585,41.0,68960.0,143872.0,169664.0,113904.0,43776.0,9344.0
1.277250051498413,56.0,88304.0,145216.0,169728.0,114832.0,34592.0,8768.0
1.2787833213806152,64.0,86592.0,134912.0,153536.0,100336.0,38144.0,8380.0
1.2803000211715698,46.0,72864.0,136960.0,149184.0,87312.0,40432.0,7987.0
1.2818167209625244,28.0,91184.0,123408.0,160832.0,113648.0,33216.0,8468.0
1.2833333015441895,46.0,67136.0,160960.0,163200.0,100944.0,38096.0,8948.0
1.284850001335144,50.0,86512.0,153664.0,165504.0,103888.0,46608.0,9920.0
1.2863667011260986,45.0,73424.0,153536.0,166272.0,104624.0,47008.0,10352.0
1.2878832817077637,39.0,66480.0,153152.0,167040.0,115104.0,30816.0,9784.0
1.2893999814987183,35.0,76912.0,152960.0,166272.0,113056.0,50656.0,9220.0
1.2909166812896729,10.0,77360.0,129024.0,136768.0,118416.0,39536.0,10416.0
1.2924333810806274,30.0,80512.0,172288.0,156672.0,114032.0,45632.0,11612.0
1.2939499616622925,50.0,83680.0,174656.0,162496.0,102768.0,44656.0,12848.0
1.295533299446106,52.0,85360.0,161280.0,164608.0,127792.0,45520.0,11096.0
1.2970499992370605,63.0,83392.0,171264.0,170432.0,126192.0,47232.0,12236.0
1.2985666990280151,86.0,81424.0,160448.0,167936.0,136896.0,43136.0,14992.0
1.3000832796096802,83.0,86576.0,149568.0,149440.0,125888.0,44288.0,12420.0
1.3015999794006348,66.0,87888.0,159104.0,159168.0,126736.0,55504.0,9848.0
1.3031166791915894,69.0,89200.0,170752.0,202112.0,127456.0,60368.0,12388.0
1.304633378982544,21.0,84512.0,173568.0,205376.0,123248.0,49808.0,12640.0
1.306149959564209,48.0,79808.0,178240.0,211776.0,119024.0,54656.0,13392.0
1.3076666593551636,30.0,79088.0,159424.0,183808.0,126208.0,49712.0,13064.0
1.3091833591461182,42.0,82016.0,166016.0,192448.0,129008.0,50800.0,11924.0
1.3107000589370728,48.0,92640.0,192384.0,214848.0,131840.0,53936.0,10788.0
1.3122832775115967,34.0,100336.0,197312.0,204480.0,133056.0,69104.0,10868.0
1.3137999773025513,44.0,106128.0,180736.0,212480.0,134272.0,66288.0,9968.0
1.3153166770935059,54.0,109424.0,203968.0,208896.0,137600.0,64864.0,9068.0
1.3168333768844604,29.0,83840.0,215808.0,208832.0,139840.0,66064.0,11908.0
1.3183499574661255,46.0,101024.0,206272.0,211520.0,142080.0,67264.0,14748.0
1.31986665725708,69.0,116208.0,211264.0,214272.0,124448.0,60608.0,14520.0
1.3213833570480347,73.0,111488.0,231360.0,222528.0,161984.0,57056.0,14292.0
1.3229000568389893,78.0,116432.0,240320.0,230848.0,150592.0,56128.0,15016.0
1.3244166374206543,58.0,110496.0,244800.0,223488.0,167424.0,53760.0,15740.0
1.3259333372116089,60.0,115344.0,256320.0,216192.0,161024.0,72512.0,10592.0
1.3274500370025635,61.0,120176.0,256448.0,225536.0,154560.0,72864.0,18252.0
1.3290166854858398,55.0,103696.0,229312.0,234880.0,149824.0,53440.0,20744.0
1.3305333852767944,62.0,123184.0,241024.0,250560.0,161152.0,65424.0,11076.0
1.3320499658584595,37.0,123040.0,241984.0,264576.0,175040.0,81968.0,15396.0
1.3335833549499512,52.0,132032.0,255168.0,257600.0,178432.0,76496.0,21548.0
1.3351000547409058,39.0,123376.0,256000.0,267968.0,195008.0,83088.0,13264.0
1.3365999460220337,120.0,114720.0,274624.0,278272.0,199744.0,75232.0,20600.0
1.3381166458129883,73.0,137024.0,280896.0,278784.0,164928.0,76352.0,18396.0
1.3396333456039429,25.0,156736.0,287168.0,290048.0,180288.0,71520.0,22552.0
1.3411500453948975,37.0,155648.0,267200.0,295680.0,178048.0,77024.0,19452.0
1.3426666259765625,41.0,156352.0,281088.0,299200.0,184768.0,63008.0,15868.0
1.344183325767517,16.0,134656.0,279296.0,302784.0,200000.0,72448.0,21868.0
1.3457666635513306,33.0,154240.0,277568.0,320576.0,215168.0,82208.0,24072.0
1.3472833633422852,31.0,144512.0,310080.0,333696.0,222336.0,87712.0,18984.0
1.3487999439239502,24.0,161920.0,307520.0,333632.0,232640.0,102784.0,22696.0
1.3503166437149048,17.0,160128.0,302400.0,337088.0,217088.0,97312.0,26412.0
1.3518333435058594,53.0,158400.0,342656.0,340480.0,199616.0,89520.0,25260.0
1.353350043296814,62.0,180160.0,335680.0,336704.0,235584.0,94208.0,24104.0
1.354866623878479,72.0,187840.0,335360.0,332864.0,227648.0,90720.0,27848.0
1.3563833236694336,39.0,180224.0,336832.0,367808.0,274624.0,87232.0,25316.0
1.3579000234603882,105.0,182976.0,317248.0,365632.0,254400.0,81200.0,22788.0
1.3594167232513428,90.0,177280.0,334464.0,363456.0,229824.0,103584.0,21804.0
1.3609333038330078,29.0,174784.0,352000.0,347136.0,248128.0,104688.0,20076.0
1.3625166416168213,59.0,176064.0,364608.0,370112.0,247552.0,101760.0,21792.0
1.3640333414077759,61.0,185664.0,366400.0,366208.0,244096.0,102528.0,23512.0
1.3655500411987305,77.0,213056.0,368192.0,362240.0,240640.0,103280.0,24940.0
1.3670666217803955,56.0,205120.0,347776.0,376896.0,274048.0,104288.0,32064.0
1.36858332157135,26.0,192128.0,366272.0,412224.0,268480.0,104032.0,31252.0
1.3701000213623047,57.0,223552.0,416448.0,423232.0,259392.0,104048.0,33120.0
1.3716167211532593,35.0,225728.0,437376.0,417856.0,265984.0,104064.0,34976.0
1.3731333017349243,61.0,219520.0,377856.0,453952.0,302976.0,101840.0,25576.0
1.374650001525879,87.0,196736.0,437632.0,440512.0,296896.0,110848.0,20692.0
1.3761667013168335,85.0,207168.0,400576.0,427136.0,289792.0,109920.0,27548.0
1.3776832818984985,84.0,222912.0,421312.0,460992.0,278720.0,109008.0,30476.0
1.3792333602905273,106.0,232896.0,439168.0,451968.0,282880.0,95168.0,24512.0
1.3807666301727295,119.0,220608.0,408832.0,442880.0,287040.0,119792.0,34640.0
1.382283329963684,140.0,220288.0,432128.0,466240.0,329600.0,119920.0,33312.0
1.3838000297546387,48.0,229824.0,408512.0,479104.0,320064.0,110288.0,34608.0
1.3853166103363037,76.0,233856.0,465088.0,505024.0,309440.0,128832.0,34928.0
1.3868333101272583,34.0,237888.0,513600.0,504064.0,337216.0,123904.0,27788.0
1.38836669921875,52.0,234240.0,511680.0,497984.0,338816.0,129840.0,27784.0
1.3898667097091675,77.0,255808.0,474560.0,477888.0,311744.0,145408.0,27784.0
1.3913832902908325,64.0,267456.0,502144.0,481088.0,356288.0,131392.0,35568.0
1.392899990081787,85.0,257664.0,472832.0,484352.0,349888.0,117344.0,43536.0
1.3944166898727417,106.0,260416.0,480128.0,493184.0,339392.0,144384.0,39840.0
1.3959333896636963,94.0,263168.0,487360.0,502080.0,359040.0,156160.0,30108.0
1.3975166082382202,49.0,283200.0,506112.0,568320.0,354688.0,143296.0,36656.0
1.3990333080291748,127.0,280960.0,524800.0,572416.0,340544.0,140544.0,40816.0
1.4005500078201294,91.0,260608.0,552704.0,549632.0,326464.0,164992.0,37376.0
1.402066707611084,116.0,253376.0,537600.0,554240.0,348736.0,155776.0,45360.0
1.403583288192749,109.0,281024.0,566272.0,559104.0,370944.0,163968.0,47936.0
1.4050999879837036,48.0,315200.0,577536.0,588032.0,362240.0,166592.0,41968.0
1.4066166877746582,55.0,298560.0,585472.0,627456.0,353600.0,153984.0,42672.0
1.4081333875656128,25.0,290432.0,610304.0,618240.0,376832.0,160512.0,40352.0
1.4096499681472778,48.0,279872.0,597248.0,607488.0,443776.0,160192.0,37728.0
1.4111666679382324,71.0,326400.0,585984.0,636672.0,443456.0,159872.0,42496.0
1.412683367729187,121.0,332736.0,575232.0,630528.0,395968.0,171136.0,47264.0
1.4142667055130005,99.0,349440.0,631296.0,654080.0,410112.0,182336.0,48480.0
1.4157832860946655,42.0,328384.0,639488.0,703232.0,426112.0,175680.0,49680.0
1.4172999858856201,95.0,336448.0,646400.0,717056.0,465216.0,170048.0,47920.0
1.4188166856765747,88.0,332288.0,646144.0,708864.0,462720.0,167680.0,51664.0
1.4203333854675293,59.0,348800.0,645888.0,700928.0,460224.0,175104.0,59648.0
1.4218499660491943,65.0,369984.0,674816.0,722432.0,486272.0,182528.0,63632.0
1.423366665840149,71.0,367424.0,703744.0,744192.0,494656.0,205824.0,40272.0
1.4248833656311035,66.0,393152.0,699648.0,782592.0,483200.0,215808.0,57760.0
1.4263999462127686,123.0,392384.0,746496.0,814336.0,512640.0,227264.0,53664.0
1.4279166460037231,120.0,406528.0,746752.0,820480.0,583168.0,218368.0,55504.0
1.4294333457946777,136.0,416384.0,793600.0,808960.0,560640.0,209472.0,56896.0
1.4310166835784912,91.0,409728.0,774656.0,822016.0,573952.0,219392.0,58288.0
1.4325333833694458,140.0,403072.0,755712.0,835072.0,542720.0,229376.0,51792.0
1.4340499639511108,153.0,398528.0,819200.0,895232.0,575488.0,227200.0,59216.0
1.4355666637420654,126.0,438144.0,828672.0,890368.0,608000.0,225024.0,62656.0
1.43708336353302,99.0,443648.0,822016.0,858112.0,688128.0,224640.0,66096.0
1.438599944114685,125.0,437120.0,815616.0,864256.0,647936.0,224192.0,64976.0
1.4401166439056396,97.0,435712.0,835840.0,870400.0,647168.0,236352.0,55088.0
1.4416333436965942,69.0,435648.0,877056.0,862976.0,582656.0,248448.0,70512.0
1.4431500434875488,108.0,485504.0,919296.0,923904.0,591616.0,263424.0,61888.0
1.4446666240692139,106.0,514944.0,961792.0,988160.0,634624.0,249216.0,58176.0
1.4461833238601685,104.0,493184.0,948992.0,978176.0,612352.0,251264.0,61568.0
1.4477499723434448,129.0,469952.0,945664.0,927488.0,631552.0,260608.0,69136.0
1.4492666721343994,101.0,470976.0,914944.0,966656.0,652800.0,270016.0,77808.0
1.4507999420166016,72.0,473088.0,902912.0,935168.0,644352.0,279232.0,83216.0
1.452299952507019,122.0,447424.0,951296.0,1004544.0,667392.0,282560.0,59168.0
1.4538166522979736,90.0,517568.0,942592.0,1014016.0,661504.0,266240.0,52560.0
1.4553333520889282,133.0,510208.0,986880.0,968704.0,654336.0,259200.0,74960.0
1.4568666219711304,135.0,530176.0,1000448.0,1049600.0,688640.0,267840.0,73600.0
1.458383321762085,190.0,522752.0,1031936.0,1043712.0,690944.0,287808.0,63840.0
1.4599000215530396,245.0,514304.0,1028096.0,1009152.0,693248.0,280832.0,73696.0
1.461400032043457,324.0,497728.0,1036800.0,975360.0,687360.0,280000.0,65136.0
1.462916612625122,403.0,526592.0,1018112.0,1087232.0,687616.0,282048.0,78672.0
1.4644666910171509,106.0,555776.0,999680.0,1046784.0,688128.0,285632.0,73632.0
1.4659833908081055,136.0,563200.0,1046272.0,1012736.0,726784.0,273152.0,68592.0
1.4674999713897705,146.0,499200.0,1066240.0,1074688.0,730624.0,305920.0,78624.0
1.469016671180725,82.0,522240.0,987904.0,1035776.0,726016.0,313280.0,79824.0
1.4705333709716797,122.0,554240.0,1042944.0,1008896.0,717824.0,326144.0,66128.0
1.4720499515533447,132.0,535296.0,1053440.0,1094144.0,711680.0,315712.0,72336.0
1.4735666513442993,115.0,532480.0,1008640.0,1062912.0,718336.0,288832.0,79920.0
1.475083351135254,131.0,555520.0,1036288.0,1067008.0,724992.0,314304.0,72768.0
1.4766000509262085,147.0,547584.0,1066496.0,1072640.0,730880.0,280960.0,66864.0
1.4781166315078735,115.0,539648.0,1090560.0,1078272.0,724992.0,266112.0,75984.0
1.4796333312988281,83.0,575488.0,1097728.0,1155072.0,718848.0,328448.0,80752.0
1.4812166690826416,141.0,567296.0,1112064.0,1143040.0,731392.0,302400.0,78064.0
1.4827333688735962,117.0,555520.0,1042432.0,1130752.0,743936.0,289600.0,75392.0
1.4842499494552612,148.0,562176.0,1053440.0,1079808.0,794112.0,283776.0,78288.0
1.4857666492462158,130.0,544512.0,1107712.0,1134336.0,804352.0,298560.0,80048.0
1.4872833490371704,122.0,526592.0,1048064.0,1127424.0,702464.0,298944.0,81824.0
1.488800048828125,181.0,509184.0,1082112.0,1118976.0,699904.0,284288.0,78112.0
1.49031662940979,169.0,517440.0,1108736.0,1146112.0,765184.0,304256.0,74400.0
1.4918333292007446,93.0,525824.0,1133824.0,1095168.0,700160.0,316480.0,78592.0
1.4933500289916992,156.0,528640.0,1035776.0,1072640.0,711168.0,267840.0,75472.0
1.4948666095733643,115.0,517312.0,1032960.0,1129472.0,743680.0,295232.0,79360.0
1.4963833093643188,106.0,506112.0,1035264.0,1068800.0,723200.0,303808.0,68752.0
1.4979666471481323,115.0,508736.0,1008128.0,1103616.0,728320.0,279424.0,83936.0
1.499483346939087,125.0,533504.0,1035008.0,1144832.0,733696.0,302848.0,56336.0
1.5010000467300415,134.0,538112.0,982528.0,1051136.0,715776.0,294464.0,75728.0
1.5025166273117065,143.0,497088.0,1010944.0,1107456.0,680704.0,281344.0,71360.0
1.5040333271026611,110.0,498304.0,943872.0,1044736.0,703232.0,278912.0,65584.0
1.5055500268936157,118.0,512064.0,962048.0,980480.0,718336.0,270656.0,56784.0
1.5070666074752808,126.0,438208.0,916480.0,992256.0,649728.0,270848.0,65024.0
1.5085833072662354,113.0,444928.0,913408.0,942592.0,668160.0,245952.0,66016.0
1.51010000705719,100.0,510016.0,940032.0,961280.0,644352.0,248704.0,63072.0
1.5116167068481445,107.0,457152.0,885760.0,950016.0,583168.0,235072.0,60256.0
1.5131332874298096,173.0,462784.0,844800.0,855296.0,627456.0,238656.0,64528.0
1.5146833658218384,151.0,480192.0,871168.0,903936.0,624128.0,202432.0,53072.0
1.5162166357040405,129.0,434432.0,860672.0,824320.0,570624.0,204672.0,71088.0
1.5177333354949951,137.0,440128.0,794880.0,858368.0,603648.0,232064.0,64704.0
1.5192500352859497,144.0,398720.0,701440.0,764928.0,540416.0,198208.0,54960.0
1.5207833051681519,127.0,364352.0,760064.0,769792.0,521600.0,203968.0,50272.0
1.5223000049591064,102.0,356224.0,715520.0,710144.0,502336.0,167936.0,49344.0
1.523816704750061,102.0,327488.0,644352.0,675328.0,458048.0,189120.0,49872.0
1.5253167152404785,82.0,306944.0,669440.0,629248.0,483776.0,176960.0,47936.0
1.5268332958221436,34.0,289728.0,541696.0,567040.0,435968.0,173312.0,46000.0
1.5283499956130981,146.0,271936.0,547328.0,552704.0,346816.0,148096.0,33760.0
1.5298666954040527,102.0,280128.0,542464.0,533504.0,343680.0,154624.0,35120.0
1.5313832759857178,153.0,274752.0,483264.0,498880.0,356672.0,121280.0,30140.0
1.5329666137695312,27.0,223168.0,417792.0,463616.0,297984.0,111056.0,34896.0
1.5344833135604858,77.0,213184.0,404672.0,464320.0,289792.0,120032.0,33248.0
1.5360000133514404,121.0,198592.0,396224.0,437568.0,269696.0,112800.0,24016.0
1.537516713142395,133.0,203712.0,334400.0,369408.0,246080.0,106544.0,26524.0
1.53903329372406,129.0,142400.0,321728.0,334848.0,219904.0,88464.0,15480.0
1.5405499935150146,125.0,173760.0,319616.0,324352.0,182336.0,92720.0,27156.0
1.5420666933059692,123.0,135296.0,282240.0,286336.0,223360.0,72528.0,18712.0
1.5435832738876343,61.0,135360.0,242880.0,250048.0,155328.0,58960.0,18528.0
1.5450999736785889,72.0,123376.0,217856.0,263936.0,134336.0,70976.0,18448.0
1.5466166734695435,98.0,106080.0,223808.0,199104.0,149312.0,58640.0,12556.0
1.548133373260498,63.0,99104.0,169984.0,187520.0,119136.0,51696.0,13532.0
1.5497167110443115,28.0,98640.0,172032.0,166784.0,95840.0,36400.0,9196.0
1.5512332916259766,68.0,71488.0,168640.0,162304.0,111248.0,43024.0,9108.0
1.5527499914169312,91.0,77696.0,147456.0,151488.0,105392.0,42704.0,8111.0
1.5542666912078857,84.0,78448.0,130064.0,147904.0,87312.0,39184.0,3139.0
1.5557833909988403,56.0,62976.0,116400.0,116992.0,67776.0,25880.0,8436.0
1.5572999715805054,58.0,39632.0,102144.0,108336.0,62128.0,26952.0,7854.0
1.55881667137146,79.0,49664.0,99024.0,102416.0,56000.0,41152.0,4821.0
1.5603333711624146,83.0,41920.0,75264.0,81024.0,62768.0,22024.0,6359.0
1.5618499517440796,94.0,39072.0,66064.0,85616.0,58992.0,23120.0,5218.0
1.5633666515350342,96.0,35888.0,89184.0,73104.0,57696.0,24644.0,4523.0
1.5648833513259888,45.0,31828.0,70352.0,63872.0,44352.0,18364.0,3827.0
1.5664499998092651,12.0,32440.0,60288.0,73200.0,40096.0,15316.0,4278.0
1.5679666996002197,78.0,34608.0,61968.0,60592.0,42576.0,19648.0,2419.0
1.5694832801818848,50.0,23616.0,48784.0,58176.0,28484.0,12764.0,5553.0
1.5709999799728394,69.0,22208.0,49024.0,55152.0,44672.0,17048.0,4355.0
1.572533369064331,63.0,29896.0,40544.0,46432.0,28132.0,11544.0,4961.0
1.5740333795547485,56.0,22848.0,39632.0,51792.0,35712.0,12320.0,5566.0
1.5755499601364136,36.0,19788.0,38304.0,43200.0,22116.0,8568.0,1284.0
1.5770666599273682,100.0,27860.0,39152.0,39520.0,31276.0,14644.0,4918.0
1.5785833597183228,111.0,18528.0,29572.0,46672.0,28172.0,5564.0,3788.0
1.5801000595092773,96.0,10440.0,29976.0,35904.0,20368.0,9216.0,421.0
1.5816166400909424,23.0,20388.0,23528.0,33296.0,19296.0,7348.0,2139.0
1.5831999778747559,53.0,11524.0,24556.0,37648.0,20356.0,6896.0,1389.0
1.5847166776657104,28.0,11440.0,25580.0,35968.0,20516.0,6444.0,121.0
1.586233377456665,10.0,9288.0,25068.0,29536.0,19160.0,6483.0,415.0
1.58774995803833,31.0,11388.0,32016.0,36400.0,17808.0,6522.0,710.0
1.5892666578292847,89.0,13492.0,34032.0,31872.0,18000.0,6697.0,1237.0
1.5907833576202393,89.0,13756.0,23656.0,29560.0,21312.0,7127.0,1908.0
1.5923000574111938,34.0,8171.0,25064.0,30048.0,20276.0,1164.0,3894.0
1.5938166379928589,51.0,12496.0,20368.0,23468.0,12416.0,12568.0,4199.0
1.5953333377838135,61.0,10496.0,27452.0,36928.0,17580.0,10044.0,2252.0
1.596850037574768,29.0,8860.0,24972.0,18780.0,10988.0,11556.0,1240.0
1.598366618156433,58.0,13616.0,15772.0,17164.0,7310.0,4849.0,1790.0
1.5999499559402466,15.0,9708.0,17108.0,24864.0,11208.0,3735.0,993.0
1.6014666557312012,64.0,8169.0,16644.0,18860.0,12624.0,6972.0,1160.0
1.6029833555221558,50.0,11044.0,19768.0,19028.0,14040.0,4494.0,1326.0
1.6045000553131104,35.0,11260.0,21628.0,16312.0,12420.0,1744.0,911.0
1.6060166358947754,12.0,10340.0,19644.0,16132.0,13092.0,6796.0,61.0
1.60753333568573,15.0,9420.0,18712.0,18744.0,13220.0,5887.0,511.0
1.6090500354766846,18.0,8896.0,15464.0,18912.0,11408.0,4977.0,1108.0
1.6105666160583496,32.0,8376.0,18192.0,13668.0,7880.0,6511.0,979.0
1.6120833158493042,21.0,7895.0,17744.0,12392.0,13608.0,4240.0,849.0
1.6136000156402588,10.0,7413.0,17296.0,13996.0,9928.0,5775.0,1636.0
1.6151167154312134,43.0,6939.0,20524.0,15600.0,12992.0,4069.0,66.0
1.6167000532150269,32.0,7477.0,12060.0,18608.0,13260.0,7301.0,1144.0
1.618216633796692,25.0,8332.0,22580.0,18320.0,12944.0,1235.0,71.0
1.6197333335876465,31.0,8145.0,14072.0,18032.0,11828.0,5810.0,2010.0
1.621250033378601,28.0,6130.0,15012.0,14436.0,5942.0,2214.0,1236.0
1.6227666139602661,24.0,8107.0,22580.0,21624.0,13928.0,2885.0,1021.0
1.6242833137512207,30.0,8972.0,15416.0,12672.0,13348.0,4435.0,54.0
1.6258000135421753,35.0,7177.0,11532.0,18148.0,7777.0,4615.0,1457.0
1.6273167133331299,46.0,9280.0,12344.0,15436.0,12832.0,3085.0,764.0
1.628833293914795,38.0,7634.0,17128.0,14608.0,9176.0,2157.0,56.0
1.6303499937057495,30.0,9444.0,17980.0,7606.0,8368.0,2068.0,56.0
1.631866693496704,38.0,8400.0,17604.0,16056.0,5839.0,1979.0,55.0
1.6334166526794434,43.0,6725.0,18220.0,12944.0,11752.0,1463.0,477.0
1.6349666118621826,45.0,4324.0,13384.0,14744.0,10244.0,3302.0,898.0
1.6364833116531372,72.0,3685.0,8130.0,8106.0,9112.0,4676.0,713.0
1.6380000114440918,80.0,4909.0,9616.0,4832.0,8640.0,3491.0,528.0
1.6395167112350464,68.0,4999.0,10224.0,15992.0,5881.0,2687.0,41.0
1.6410332918167114,45.0,5089.0,11840.0,8228.0,8992.0,1650.0,654.0
1.642549991607666,81.0,5192.0,11692.0,9704.0,8688.0,3438.0,453.0
1.6440666913986206,28.0,5294.0,8696.0,10984.0,10496.0,1688.0,850.0
1.6455833911895752,28.0,5604.0,8045.0,11480.0,5092.0,2760.0,38.0
1.6470999717712402,15.0,4753.0,8340.0,5061.0,10840.0,7180.0,950.0
1.6486166715621948,26.0,3901.0,8632.0,5269.0,7083.0,6295.0,407.0
1.6501333713531494,44.0,5708.0,8536.0,5478.0,9040.0,2136.0,451.0
1.6517000198364258,35.0,5180.0,8436.0,6669.0,5978.0,6473.0,176.0
1.6532167196273804,29.0,1994.0,5688.0,7861.0,5660.0,5670.0,838.0
1.6547333002090454,17.0,7084.0,11844.0,8240.0,7851.0,2197.0,431.0
1.65625,27.0,5901.0,9988.0,7545.0,6480.0,3643.0,24.0
1.6577666997909546,29.0,5930.0,14272.0,6849.0,3701.0,4825.0,1091.0
1.6592832803726196,31.0,6825.0,9116.0,7143.0,6726.0,2815.0,105.0
1.6607999801635742,35.0,5711.0,10052.0,13024.0,5191.0,1184.0,69.0
1.6623166799545288,38.0,5228.0,7113.0,14688.0,3657.0,2177.0,231.0
1.6638333797454834,11.0,2577.0,7769.0,9112.0,5031.0,2252.0,40.0
1.6653499603271484,17.0,2094.0,8472.0,7148.0,5170.0,3012.0,775.0
1.666866660118103,23.0,5552.0,9336.0,6018.0,3506.0,3434.0,405.0
1.6684499979019165,32.0,5547.0,10204.0,12232.0,5424.0,3463.0,34.0
1.669966697692871,40.0,4533.0,5026.0,11028.0,3468.0,3492.0,5.0
1.6714832782745361,32.0,3819.0,8280.0,8208.0,6169.0,2235.0,77.0
1.6729999780654907,22.0,2116.0,8612.0,8552.0,6411.0,1967.0,320.0
1.6745166778564453,0.0,5179.0,8944.0,10852.0,2205.0,942.0,574.0
1.6760333776474,10.0,3886.0,11348.0,9548.0,6981.0,341.0,828.0
1.677549958229065,20.0,6707.0,5398.0,8248.0,5612.0,758.0,416.0
1.6790666580200195,59.0,4336.0,7995.0,6474.0,3525.0,1174.0,5.0
1.6805833578109741,45.0,3149.0,4735.0,7469.0,4232.0,945.0,211.0
1.6821000576019287,36.0,3317.0,7259.0,8464.0,3686.0,1302.0,417.0
1.6836166381835938,45.0,4537.0,8260.0,7570.0,3140.0,33.0,33.0
1.6851999759674072,31.0,4095.0,9260.0,9048.0,4433.0,2429.0,600.0
1.6867166757583618,10.0,3080.0,9524.0,6472.0,4126.0,1616.0,712.0
1.6882333755493164,17.0,3166.0,7583.0,6310.0,3819.0,927.0,824.0
1.6897499561309814,23.0,3251.0,11408.0,6147.0,3475.0,751.0,6.0
1.691266655921936,17.0,2424.0,6031.0,9116.0,5348.0,1658.0,860.0
1.6927833557128906,10.0,1596.0,3117.0,10108.0,5400.0,181.0,24.0
1.6943000555038452,21.0,2692.0,12068.0,6398.0,4600.0,770.0,975.0
1.6958166360855103,32.0,1904.0,4026.0,5888.0,4201.0,1239.0,5.0
1.6973333358764648,54.0,1117.0,8728.0,1548.0,3801.0,1707.0,1414.0
1.6988500356674194,56.0,3351.0,6588.0,3808.0,4268.0,869.0,1360.0
1.7003666162490845,20.0,2881.0,3023.0,6069.0,4611.0,32.0,1305.0
1.7019333839416504,27.0,3445.0,6213.0,7025.0,2341.0,16.0,21.0
1.7034499645233154,49.0,3494.0,6106.0,8588.0,3591.0,793.0,68.0
1.70496666431427,16.0,3543.0,3640.0,6314.0,5768.0,907.0,44.0
1.7064833641052246,10.0,2878.0,1835.0,8732.0,8600.0,1020.0,584.0
1.7080166339874268,5.0,2031.0,5031.0,4567.0,6578.0,309.0,309.0
1.7095333337783813,32.0,3058.0,4410.0,2431.0,5159.0,897.0,34.0
1.7110333442687988,25.0,4085.0,3789.0,9372.0,3451.0,1485.0,28.0
1.7125500440597534,17.0,3215.0,5642.0,7443.0,5473.0,234.0,71.0
1.7140666246414185,26.0,2344.0,5551.0,5515.0,4561.0,621.0,44.0
1.715583324432373,26.0,2597.0,5642.0,6214.0,3021.0,1008.0,64.0
1.7171000242233276,35.0,1134.0,2904.0,10468.0,1482.0,1723.0,10.0
1.7186833620071411,26.0,4537.0,3984.0,10220.0,2863.0,1189.0,57.0
1.7201999425888062,16.0,3595.0,4527.0,7226.0,4244.0,655.0,47.0
1.7217166423797607,13.0,2669.0,5069.0,7635.0,612.0,330.0,240.0
1.7232333421707153,33.0,2664.0,4829.0,7070.0,4089.0,6.0,432.0
1.72475004196167,30.0,1763.0,5483.0,3181.0,2758.0,888.0,419.0
1.726266622543335,26.0,863.0,4992.0,5419.0,2672.0,1771.0,28.0
1.7277833223342896,26.0,3664.0,4500.0,2875.0,4609.0,1421.0,16.0
1.7293000221252441,36.0,2742.0,3869.0,4255.0,4567.0,826.0,52.0
1.7308167219161987,21.0,2022.0,3540.0,5538.0,5595.0,1174.0,37.0
1.7323333024978638,5.0,5389.0,4127.0,3518.0,3630.0,1523.0,5.0
1.7338500022888184,25.0,4630.0,2558.0,4798.0,2959.0,3051.0,29.0
1.7354333400726318,28.0,1998.0,6120.0,6245.0,4562.0,2584.0,52.0
1.7369500398635864,31.0,1514.0,5087.0,3798.0,3457.0,2117.0,69.0
1.7384666204452515,5.0,770.0,4649.0,4400.0,3217.0,1850.0,33.0
1.739983320236206,19.0,2242.0,4529.0,4747.0,2978.0,2323.0,41.0
1.7415000200271606,15.0,2495.0,6071.0,4296.0,3951.0,1079.0,246.0
1.7430167198181152,41.0,3188.0,2186.0,3845.0,4924.0,278.0,514.0
1.7445333003997803,34.0,2182.0,3092.0,3573.0,3782.0,2467.0,782.0
1.7460500001907349,26.0,1168.0,3999.0,4043.0,2640.0,33.0,966.0
1.7475666999816895,35.0,4273.0,4506.0,4513.0,2465.0,925.0,634.0
1.7490832805633545,55.0,2845.0,5013.0,3990.0,2290.0,547.0,823.0
1.750599980354309,42.0,5167.0,3502.0,3467.0,2075.0,358.0,65.0
1.752150058746338,29.0,2196.0,1990.0,5080.0,4949.0,169.0,10.0
1.75368332862854,51.0,1070.0,4303.0,4195.0,5547.0,552.0,27.0
1.7552000284194946,8.0,3096.0,4539.0,3310.0,3104.0,934.0,22.0
1.7567166090011597,63.0,2969.0,4368.0,6454.0,3013.0,1047.0,5.0
1.7582333087921143,61.0,2842.0,3461.0,6492.0,5423.0,1160.0,10.0
1.7597500085830688,11.0,2655.0,2554.0,4047.0,2713.0,3433.0,28.0
1.7612667083740234,18.0,2467.0,4074.0,5502.0,3633.0,3067.0,40.0
1.7627999782562256,24.0,1588.0,2827.0,2747.0,4696.0,3087.0,51.0
1.764299988746643,20.0,1983.0,4361.0,4035.0,39.0,42.0,41.0
1.7658166885375977,16.0,2377.0,5592.0,3474.0,985.0,831.0,31.0
1.7673333883285522,25.0,3011.0,6518.0,4361.0,1990.0,2697.0,49.0
1.7688499689102173,30.0,3601.0,787.0,5102.0,3614.0,1631.0,36.0
1.770400047302246,34.0,1130.0,1738.0,1637.0,3095.0,66.0,0.0
1.7719166278839111,26.0,3197.0,2784.0,1385.0,3428.0,875.0,56.0
1.7734333276748657,25.0,2650.0,3855.0,3876.0,3409.0,1786.0,245.0
1.7749500274658203,31.0,293.0,3497.0,2386.0,3571.0,749.0,141.0
1.7764666080474854,66.0,459.0,3139.0,1049.0,1551.0,899.0,36.0
1.77798330783844,68.0,2724.0,2683.0,3926.0,1528.0,1050.0,23.0
1.7795000076293945,26.0,1513.0,2226.0,3953.0,1888.0,57.0,29.0
1.7810167074203491,15.0,1443.0,3100.0,4087.0,1968.0,105.0,34.0
1.7825332880020142,30.0,501.0,855.0,2377.0,2047.0,153.0,389.0
1.7840499877929688,35.0,559.0,4508.0,3622.0,1483.0,91.0,203.0
1.7855666875839233,32.0,617.0,3380.0,3500.0,918.0,28.0,17.0
1.7871500253677368,13.0,1956.0,2252.0,4941.0,6171.0,959.0,30.0
1.7886667251586914,51.0,1652.0,4921.0,4109.0,5259.0,943.0,20.0
1.7901833057403564,66.0,1348.0,2065.0,3276.0,3753.0,1849.0,10.0
1.791700005531311,41.0,1296.0,2790.0,3990.0,4872.0,1379.0,28.0
1.7932167053222656,23.0,1244.0,1960.0,4801.0,1669.0,176.0,46.0
1.7947332859039307,40.0,2042.0,1847.0,2518.0,3320.0,18.0,342.0
1.7962499856948853,49.0,2891.0,1717.0,702.0,2174.0,442.0,702.0
1.7977666854858398,35.0,3497.0,1587.0,5650.0,1028.0,356.0,354.0
1.7992833852767944,43.0,1340.0,1980.0,3490.0,2973.0,656.0,5.0
1.8007999658584595,10.0,2226.0,2374.0,5595.0,2052.0,482.0,22.0
1.802316665649414,25.0,819.0,2448.0,4589.0,1132.0,307.0,41.0
1.8039000034332275,43.0,1209.0,2522.0,5700.0,491.0,1294.0,59.0
1.8054167032241821,24.0,24.0,3628.0,3271.0,1838.0,1547.0,449.0
1.8069332838058472,21.0,554.0,3937.0,1964.0,760.0,702.0,567.0
1.8084499835968018,51.0,346.0,4639.0,2727.0,663.0,937.0,854.0
1.8099666833877563,40.0,26.0,2416.0,1534.0,567.0,11.0,672.0
1.811483383178711,15.0,575.0,3370.0,1555.0,678.0,1400.0,42.0
1.812999963760376,45.0,294.0,4489.0,1638.0,2167.0,1624.0,207.0
1.8145166635513306,64.0,13.0,17.0,2141.0,2481.0,39.0,0.0
1.8160333633422852,11.0,1774.0,1478.0,2644.0,2007.0,28.0,5.0
1.8175499439239502,33.0,4534.0,2940.0,1992.0,1534.0,991.0,43.0
1.8190666437149048,23.0,4122.0,2096.0,1340.0,2726.0,51.0,56.0
1.8206499814987183,16.0,1626.0,3093.0,2436.0,2397.0,589.0,10.0
1.8221666812896729,38.0,427.0,2943.0,2610.0,783.0,15.0,25.0
1.8236833810806274,42.0,576.0,2128.0,2533.0,2087.0,215.0,42.0
1.8251999616622925,40.0,1434.0,1313.0,2457.0,3572.0,415.0,43.0
1.826716661453247,23.0,1091.0,2635.0,1992.0,2385.0,57.0,933.0
1.8282333612442017,29.0,748.0,3034.0,2081.0,4191.0,43.0,744.0
1.8297499418258667,34.0,973.0,1889.0,2170.0,67.0,1095.0,554.0
1.8312666416168213,34.0,988.0,3561.0,2764.0,3043.0,820.0,31.0
1.8327833414077759,33.0,1003.0,6093.0,3357.0,1360.0,546.0,31.0
1.8343000411987305,37.0,2028.0,5976.0,3461.0,30.0,51.0,12.0
1.8358166217803955,45.0,2138.0,1404.0,1097.0,4591.0,51.0,24.0
1.8373833894729614,36.0,1909.0,4823.0,3442.0,3081.0,657.0,35.0
1.8388999700546265,26.0,1020.0,2921.0,2838.0,1052.0,339.0,22.0
1.840416669845581,36.0,1236.0,1364.0,2454.0,4538.0,20.0,24.0
1.8419500589370728,39.0,1453.0,3993.0,1127.0,3161.0,836.0,26.0
1.8434499502182007,30.0,675.0,1947.0,960.0,1248.0,59.0,13.0
1.8449666500091553,33.0,1664.0,2429.0,3749.0,3224.0,990.0,18.0
1.8464833498001099,66.0,929.0,4339.0,2186.0,1625.0,626.0,207.0
1.8480000495910645,60.0,1440.0,3630.0,623.0,1111.0,575.0,142.0
1.8495166301727295,37.0,1666.0,2947.0,1693.0,3739.0,56.0,76.0
1.851033329963684,5.0,341.0,2264.0,2123.0,1441.0,85.0,34.0
1.8525500297546387,5.0,1799.0,2948.0,2553.0,3199.0,201.0,43.0
1.8541333675384521,15.0,2915.0,3886.0,3395.0,4049.0,27.0,23.0
1.8556499481201172,15.0,2273.0,4471.0,4428.0,430.0,22.0,39.0
1.8571666479110718,10.0,627.0,3432.0,878.0,3210.0,16.0,38.0
1.8586833477020264,50.0,436.0,1830.0,1510.0,3593.0,439.0,39.0
1.860200047492981,61.0,2004.0,2012.0,2935.0,15.0,260.0,34.0
1.861716628074646,27.0,547.0,1020.0,2702.0,1623.0,82.0,50.0
1.8632333278656006,6.0,2436.0,1841.0,2470.0,3423.0,386.0,47.0
1.8647500276565552,35.0,76.0,2661.0,4277.0,3448.0,690.0,32.0
1.8662666082382202,38.0,1856.0,3134.0,4453.0,2637.0,491.0,33.0
1.8677833080291748,41.0,1478.0,3606.0,906.0,1275.0,266.0,45.0
1.8693000078201294,49.0,410.0,2689.0,2849.0,1089.0,42.0,42.0
1.8708833456039429,17.0,1961.0,2741.0,3232.0,2305.0,2127.0,38.0
1.8724000453948975,6.0,1545.0,1155.0,1260.0,1813.0,2667.0,24.0
1.8739166259765625,37.0,621.0,3291.0,2512.0,1949.0,3002.0,48.0
1.875433325767517,11.0,1213.0,1918.0,1818.0,1020.0,57.0,24.0
1.8769500255584717,31.0,1804.0,374.0,1124.0,2456.0,2933.0,39.0
1.8784667253494263,34.0,3241.0,2040.0,1478.0,1851.0,921.0,0.0
1.8799833059310913,36.0,1981.0,2496.0,1620.0,3342.0,337.0,558.0
1.881500005722046,36.0,721.0,1707.0,1763.0,2554.0,35.0,467.0
1.8830167055130005,22.0,1441.0,1869.0,2643.0,2059.0,63.0,375.0
1.8845332860946655,15.0,1186.0,1686.0,2632.0,1564.0,1030.0,810.0
1.8860499858856201,17.0,1237.0,5025.0,2337.0,37.0,1037.0,898.0
1.8875999450683594,18.0,2047.0,4765.0,2042.0,3125.0,1056.0,26.0
1.889133334159851,11.0,1640.0,476.0,1860.0,2020.0,1075.0,99.0
1.8906500339508057,26.0,1233.0,2391.0,2113.0,2990.0,851.0,208.0
1.8921666145324707,40.0,1126.0,3425.0,2221.0,2009.0,713.0,23.0
1.8936833143234253,36.0,2537.0,4602.0,2330.0,2129.0,42.0,39.0
1.8952000141143799,5.0,3207.0,1494.0,1431.0,1718.0,448.0,54.0
1.8967167139053345,49.0,182.0,1235.0,2626.0,1019.0,854.0,16.0
1.8982332944869995,59.0,13.0,3294.0,733.0,13.0,23.0,43.0
1.899749994277954,15.0,6.0,716.0,1720.0,432.0,920.0,34.0
1.9012666940689087,59.0,18.0,2485.0,1673.0,850.0,7.0,25.0
1.9027832746505737,57.0,29.0,2866.0,1626.0,795.0,1117.0,34.0
1.9042999744415283,56.0,582.0,760.0,1282.0,195.0,34.0,16.0
1.9058833122253418,36.0,525.0,1472.0,1392.0,328.0,6.0,10.0
1.9074000120162964,41.0,468.0,1925.0,1091.0,462.0,405.0,42.0
1.908916711807251,41.0,1058.0,610.0,1595.0,5.0,25.0,39.0
1.910433292388916,50.0,1151.0,1858.0,2100.0,699.0,1165.0,10.0
1.9119499921798706,47.0,1017.0,1834.0,1815.0,677.0,908.0,34.0
1.9134666919708252,43.0,883.0,2171.0,2243.0,655.0,652.0,19.0
1.9149833917617798,15.0,1196.0,2508.0,2079.0,511.0,1556.0,26.0
1.9164999723434448,47.0,1661.0,1312.0,1915.0,367.0,256.0,33.0
1.9180166721343994,46.0,2274.0,1609.0,1593.0,2725.0,64.0,15.0
1.919533371925354,35.0,1228.0,923.0,1635.0,3404.0,42.0,68.0
1.921049952507019,23.0,181.0,1640.0,1907.0,279.0,20.0,560.0
1.9226332902908325,36.0,2227.0,2357.0,1077.0,1954.0,30.0,630.0
1.924149990081787,20.0,2304.0,2153.0,248.0,2581.0,40.0,53.0
1.9256666898727417,10.0,42.0,1949.0,1423.0,2886.0,46.0,30.0
1.9271833896636963,15.0,1231.0,1526.0,3186.0,257.0,27.0,79.0
1.9286999702453613,20.0,2209.0,1990.0,2898.0,802.0,25.0,27.0
1.930216670036316,5.0,672.0,1709.0,2956.0,505.0,22.0,19.0
1.9317333698272705,17.0,547.0,1428.0,1991.0,266.0,5.0,10.0
1.9332499504089355,16.0,2660.0,3969.0,3709.0,27.0,727.0,15.0
1.9347666501998901,14.0,1312.0,4113.0,3391.0,447.0,694.0,38.0
1.9362833499908447,33.0,1010.0,3095.0,4088.0,867.0,31.0,42.0
1.9378000497817993,34.0,2168.0,1779.0,1510.0,1377.0,84.0,35.0
1.9393666982650757,34.0,19.0,1681.0,2873.0,1886.0,15.0,27.0
1.9408832788467407,36.0,85.0,1620.0,39.0,1315.0,31.0,21.0
1.9423999786376953,38.0,150.0,1559.0,3701.0,972.0,26.0,15.0
1.94391667842865,34.0,963.0,1408.0,4029.0,630.0,20.0,38.0
1.945449948310852,30.0,789.0,1160.0,2221.0,920.0,31.0,50.0
1.9469666481018066,10.0,614.0,2233.0,5342.0,516.0,920.0,59.0
1.9484666585922241,39.0,830.0,2570.0,956.0,112.0,826.0,34.0
1.9499833583831787,13.0,753.0,2908.0,32.0,583.0,731.0,97.0
1.9515000581741333,14.0,675.0,2145.0,2643.0,296.0,58.0,51.0
1.9530166387557983,15.0,581.0,3101.0,814.0,10.0,203.0,5.0
1.954533338546753,42.0,487.0,4056.0,3120.0,2968.0,347.0,20.0
1.9561166763305664,38.0,2511.0,4611.0,479.0,2264.0,13.0,24.0
1.957633376121521,34.0,2176.0,3666.0,1747.0,655.0,236.0,1039.0
1.959149956703186,35.0,25.0,2808.0,2032.0,1624.0,458.0,1110.0
1.9606666564941406,35.0,45.0,1654.0,1103.0,1896.0,585.0,16.0
1.9621833562850952,23.0,1516.0,3346.0,2368.0,2217.0,711.0,28.0
1.9637000560760498,28.0,1847.0,2591.0,726.0,1136.0,928.0,41.0
1.9652166366577148,32.0,1277.0,2677.0,2064.0,1414.0,10.0,39.0
1.9667333364486694,25.0,1275.0,3070.0,1567.0,1351.0,22.0,38.0
1.968250036239624,26.0,34.0,433.0,1070.0,694.0,63.0,37.0
1.969766616821289,31.0,20.0,26.0,984.0,1393.0,13.0,27.0
1.9712833166122437,36.0,1603.0,3660.0,897.0,744.0,31.0,17.0
1.9728666543960571,42.0,47.0,1609.0,2410.0,644.0,49.0,11.0
1.9743833541870117,37.0,770.0,43.0,2481.0,349.0,10.0,5.0
1.9759000539779663,28.0,1053.0,2585.0,3219.0,20.0,48.0,15.0
1.9774166345596313,21.0,779.0,1811.0,1229.0,435.0,27.0,32.0
1.978933334350586,14.0,505.0,1038.0,3002.0,998.0,1489.0,48.0
1.9804500341415405,20.0,1145.0,844.0,2090.0,826.0,755.0,40.0
1.9819666147232056,18.0,521.0,1825.0,1652.0,655.0,21.0,32.0
1.9834833145141602,16.0,67.0,1422.0,2027.0,491.0,85.0,209.0
1.9850000143051147,20.0,489.0,1019.0,1452.0,328.0,885.0,125.0
1.9865167140960693,23.0,18.0,848.0,877.0,49.0,38.0,41.0
1.9880332946777344,43.0,495.0,676.0,1633.0,363.0,36.0,24.0
1.9896166324615479,32.0,274.0,1659.0,2390.0,196.0,588.0,6.0
1.9911333322525024,20.0,52.0,1524.0,2922.0,29.0,306.0,25.0
1.992650032043457,22.0,21.0,1472.0,2307.0,23.0,24.0,5.0
1.994166612625122,14.0,385.0,690.0,1693.0,19.0,47.0,32.0
1.9956833124160767,5.0,749.0,1116.0,478.0,15.0,38.0,34.0
1.9972000122070312,46.0,682.0,663.0,2630.0,26.0,105.0,35.0
1.9987167119979858,40.0,348.0,1481.0,19.0,37.0,171.0,15.0
2.0002334117889404,39.0,14.0,1695.0,2234.0,328.0,642.0,30.0
2.0017499923706055,39.0,39.0,425.0,1564.0,619.0,656.0,16.0
2.0032665729522705,34.0,944.0,826.0,2064.0,803.0,518.0,35.0
2.0047833919525146,20.0,481.0,1227.0,1227.0,987.0,891.0,36.0
2.006333351135254,10.0,18.0,1197.0,65.0,828.0,0.0,36.0
2.007866621017456,30.0,185.0,2079.0,647.0,668.0,23.0,21.0
2.0093834400177,10.0,805.0,2835.0,1466.0,765.0,17.0,22.0
2.0109167098999023,20.0,426.0,2410.0,327.0,863.0,63.0,23.0
2.0124166011810303,21.0,46.0,1587.0,548.0,793.0,999.0,31.0
2.0139334201812744,26.0,25.0,1578.0,770.0,724.0,852.0,38.0
2.0154500007629395,16.0,23.0,25.0,1233.0,1526.0,655.0,1110.0
2.0169665813446045,26.0,20.0,499.0,1695.0,1084.0,12.0,1269.0
2.0184834003448486,36.0,769.0,1817.0,1319.0,642.0,44.0,31.0
2.020016670227051,21.0,1045.0,2124.0,1160.0,1214.0,15.0,29.0
2.0215165615081787,5.0,481.0,2024.0,890.0,22.0,72.0,55.0
2.023033380508423,48.0,31.0,993.0,621.0,378.0,52.0,30.0
2.0246167182922363,38.0,1563.0,2610.0,1272.0,733.0,32.0,28.0
2.0261332988739014,28.0,985.0,2469.0,661.0,542.0,46.0,57.0
2.0276501178741455,32.0,29.0,425.0,50.0,279.0,17.0,86.0
2.0291666984558105,36.0,777.0,609.0,43.0,16.0,34.0,55.0
2.0306832790374756,36.0,32.0,1406.0,27.0,594.0,51.0,25.0
2.0322000980377197,36.0,866.0,3122.0,852.0,1011.0,72.0,40.0
2.0337166786193848,5.0,726.0,2671.0,679.0,1428.0,94.0,12.0
2.03523325920105,5.0,586.0,1296.0,506.0,1265.0,14.0,9.0
2.036750078201294,11.0,315.0,1382.0,1234.0,645.0,446.0,5.0
2.038266658782959,36.0,720.0,830.0,1140.0,1729.0,483.0,29.0
2.039783239364624,41.0,550.0,860.0,1278.0,1528.0,519.0,22.0
2.0413665771484375,49.0,25.0,387.0,1467.0,1327.0,613.0,15.0
2.0428833961486816,33.0,20.0,2330.0,1656.0,1209.0,151.0,20.0
2.0443999767303467,49.0,630.0,1715.0,516.0,63.0,53.0,24.0
2.0459165573120117,0.0,356.0,1101.0,184.0,22.0,684.0,19.0
2.047433376312256,42.0,204.0,335.0,1278.0,1691.0,21.0,14.0
2.048949956893921,20.0,719.0,1849.0,406.0,1093.0,337.0,15.0
2.050466775894165,32.0,814.0,1974.0,221.0,765.0,309.0,15.0
2.05198335647583,17.0,606.0,2461.0,35.0,476.0,5.0,10.0
2.053499937057495,23.0,41.0,10.0,823.0,40.0,57.0,5.0
2.0550167560577393,16.0,828.0,2815.0,1668.0,1036.0,10.0,18.0
2.0565333366394043,5.0,444.0,2685.0,1247.0,367.0,40.0,30.0
2.0580999851226807,32.0,59.0,22.0,1332.0,466.0,30.0,29.0
2.0596165657043457,36.0,57.0,84.0,53.0,1048.0,47.0,28.0
2.061150074005127,32.0,1452.0,1039.0,29.0,872.0,5.0,29.0
2.062649965286255,30.0,1706.0,692.0,1038.0,444.0,77.0,33.0
2.064166784286499,27.0,703.0,649.0,410.0,17.0,150.0,36.0
2.065683364868164,15.0,1490.0,607.0,1214.0,712.0,404.0,35.0
2.067199945449829,14.0,1173.0,984.0,2017.0,1408.0,228.0,33.0
2.0687167644500732,18.0,1034.0,1361.0,1817.0,1759.0,52.0,18.0
2.0702333450317383,22.0,38.0,58.0,1951.0,497.0,404.0,43.0
2.0717499256134033,22.0,5.0,1259.0,2390.0,1909.0,12.0,35.0
2.0732667446136475,22.0,831.0,651.0,2560.0,886.0,11.0,33.0
2.074850082397461,27.0,41.0,43.0,2367.0,453.0,25.0,13.0
2.076366662979126,31.0,582.0,247.0,3294.0,2341.0,10.0,53.0
2.077883243560791,45.0,1123.0,723.0,333.0,37.0,20.0,45.0
2.079400062561035,49.0,1215.0,256.0,2492.0,1572.0,34.0,49.0
2.0809166431427,26.0,519.0,985.0,633.0,1260.0,23.0,42.0
2.0824332237243652,29.0,46.0,1714.0,2215.0,2029.0,12.0,34.0
2.0839500427246094,21.0,474.0,2397.0,1730.0,755.0,61.0,5.0
2.0854666233062744,19.0,5.0,1998.0,1487.0,57.0,845.0,25.0
2.0869834423065186,16.0,1241.0,2217.0,33.0,21.0,1088.0,44.0
2.0885000228881836,6.0,1974.0,2330.0,1427.0,23.0,561.0,39.0
2.0900166034698486,22.0,2500.0,1854.0,1348.0,41.0,33.0,34.0
2.091599941253662,5.0,628.0,1378.0,1270.0,59.0,1418.0,10.0
2.093100070953369,50.0,2122.0,1142.0,2026.0,491.0,573.0,24.0
2.0946333408355713,29.0,40.0,1702.0,1990.0,923.0,20.0,38.0
2.096133232116699,7.0,413.0,1617.0,2065.0,761.0,47.0,35.0
2.0976500511169434,21.0,304.0,1532.0,2141.0,464.0,66.0,10.0
2.0991666316986084,5.0,194.0,1074.0,1635.0,2029.0,84.0,16.0
2.1015665531158447,28.0,22.0,616.0,2560.0,2863.0,18.0,21.0
2.103950023651123,22.0,27.0,1440.0,2468.0,2089.0,282.0,835.0
2.1063332557678223,16.0,31.0,2561.0,2376.0,1005.0,546.0,854.0
2.108766555786133,10.0,759.0,2019.0,856.0,2543.0,1199.0,33.0
2.111150026321411,12.0,386.0,1999.0,4270.0,4248.0,617.0,776.0
2.1135332584381104,13.0,13.0,2455.0,4510.0,3641.0,35.0,1472.0
2.1159167289733887,20.0,1091.0,2910.0,3515.0,5336.0,10.0,1017.0
2.118299961090088,18.0,795.0,3468.0,2849.0,5332.0,1893.0,887.0
2.120683431625366,15.0,958.0,928.0,13920.0,6209.0,1818.0,514.0
2.1230666637420654,16.0,1121.0,3175.0,13624.0,8014.0,73.0,141.0
2.125516653060913,16.0,284.0,648.0,16348.0,8017.0,3550.0,864.0
2.1278998851776123,15.0,923.0,2256.0,8928.0,8608.0,3744.0,731.0
2.1302833557128906,13.0,1461.0,794.0,12656.0,8448.0,1170.0,2679.0
2.13266658782959,10.0,16.0,2473.0,11256.0,8288.0,5042.0,5641.0
2.135050058364868,25.0,40.0,2057.0,12204.0,8308.0,855.0,4431.0
2.1374332904815674,510.0,1612.0,2553.0,10120.0,8324.0,900.0,3221.0
2.1398167610168457,266.0,20.0,1288.0,11656.0,8340.0,2349.0,3444.0
2.1422667503356934,22.0,1342.0,23.0,13192.0,8352.0,3482.0,3217.0
2.1446499824523926,155.0,59.0,1380.0,13892.0,9336.0,4531.0,2989.0
2.147033214569092,289.0,503.0,1903.0,14172.0,7815.0,903.0,2643.0
2.14941668510437,12.0,1343.0,2427.0,14456.0,6296.0,4679.0,2296.0
2.1517999172210693,645.0,999.0,2565.0,12216.0,8448.0,1979.0,1219.0
2.1541833877563477,418.0,33.0,2344.0,13568.0,5892.0,1328.0,4778.0
2.156566619873047,190.0,1824.0,2124.0,8187.0,12580.0,2929.0,7269.0
2.1589832305908203,136.0,903.0,5450.0,12348.0,12168.0,1582.0,6707.0
2.161400079727173,83.0,1092.0,5469.0,10692.0,9692.0,756.0,2684.0
2.163783311843872,55.0,26.0,2468.0,10508.0,10608.0,2651.0,7550.0
2.1661667823791504,40.0,517.0,4954.0,10740.0,7753.0,2188.0,4603.0
2.1685500144958496,95.0,1084.0,3545.0,10976.0,9676.0,2685.0,3951.0
2.170933246612549,81.0,533.0,796.0,10900.0,9480.0,2429.0,6860.0
2.173316717147827,1778.0,466.0,7270.0,10824.0,10528.0,2173.0,5241.0
2.1756999492645264,1685.0,400.0,5409.0,12192.0,7088.0,1594.0,2528.0
2.1781165599823,915.0,158.0,3162.0,11080.0,6910.0,1641.0,3694.0
2.180500030517578,662.0,535.0,6503.0,9964.0,6731.0,1760.0,2721.0
2.1828832626342773,10.0,911.0,5371.0,10696.0,10532.0,3412.0,4539.0
2.1852667331695557,737.0,1435.0,1421.0,12068.0,10552.0,4482.0,3751.0
2.187649965286255,379.0,1394.0,5337.0,13440.0,12416.0,4040.0,3423.0
2.190033435821533,21.0,5.0,5261.0,13828.0,9464.0,3598.0,3094.0
2.1924166679382324,610.0,595.0,2867.0,11144.0,6884.0,3842.0,4858.0
2.194833278656006,317.0,1447.0,2723.0,11708.0,14800.0,1772.0,7029.0
2.197216749191284,23.0,1691.0,3229.0,17752.0,5518.0,2189.0,8248.0
2.1995999813079834,24.0,43.0,2944.0,18576.0,16524.0,2371.0,4452.0
2.2019834518432617,25.0,10.0,2659.0,12448.0,12576.0,2400.0,3205.0
2.204366683959961,1022.0,526.0,3708.0,15968.0,7281.0,2463.0,3676.0
2.20674991607666,889.0,660.0,2104.0,8844.0,3971.0,268.0,381.0
2.2091333866119385,756.0,794.0,2887.0,8228.0,8186.0,1375.0,3088.0
2.211549997329712,884.0,525.0,1901.0,8131.0,5142.0,1044.0,4075.0
2.213933229446411,659.0,344.0,426.0,8034.0,9136.0,1839.0,4491.0
2.2163166999816895,75.0,164.0,3916.0,8964.0,6270.0,3125.0,4907.0
2.2186999320983887,68.0,19.0,608.0,9892.0,9968.0,2445.0,3546.0
2.221083402633667,718.0,109.0,3378.0,8828.0,9464.0,1765.0,2049.0
2.223466634750366,41.0,430.0,341.0,7765.0,4079.0,1775.0,2820.0
2.2258501052856445,19.0,750.0,3014.0,8580.0,5232.0,737.0,72.0
2.228266716003418,43.0,1074.0,4448.0,9392.0,7010.0,4375.0,3893.0
2.230649948120117,37.0,893.0,27.0,9296.0,5514.0,3633.0,3038.0
2.2330334186553955,30.0,713.0,5471.0,9200.0,3257.0,1009.0,692.0
2.2354166507720947,27.0,642.0,1764.0,6202.0,7889.0,2404.0,3708.0
2.237799882888794,24.0,971.0,3592.0,11488.0,10400.0,10.0,1015.0
2.2401833534240723,135.0,560.0,1618.0,10380.0,1054.0,821.0,585.0
2.2425665855407715,245.0,296.0,2248.0,6574.0,3284.0,38.0,667.0
2.244983434677124,356.0,32.0,447.0,5807.0,4995.0,24.0,452.0
2.2473666667938232,467.0,38.0,1523.0,5242.0,1448.0,10.0,236.0
2.2497498989105225,688.0,42.0,636.0,5922.0,1490.0,16.0,79.0
2.252133369445801,560.0,232.0,959.0,6841.0,2433.0,54.0,13.0
2.2545166015625,432.0,137.0,1282.0,3579.0,1782.0,372.0,18.0
2.2569000720977783,1318.0,41.0,1336.0,4095.0,1130.0,333.0,350.0
2.2592833042144775,684.0,21.0,1390.0,316.0,2059.0,293.0,195.0
2.261699914932251,50.0,0.0,707.0,3458.0,483.0,1349.0,39.0
2.2640833854675293,44.0,3.0,25.0,10.0,1264.0,686.0,34.0
2.2664666175842285,2359.0,5.0,999.0,2048.0,653.0,23.0,29.0
2.268850088119507,1409.0,3.0,1236.0,3508.0,42.0,306.0,21.0
2.271233320236206,459.0,0.0,864.0,1706.0,1411.0,161.0,20.0
2.2736165523529053,1304.0,20.0,891.0,475.0,5.0,15.0,19.0
2.2760000228881836,549.0,51.0,919.0,1288.0,1490.0,44.0,10.0
2.278416633605957,3407.0,490.0,686.0,124.0,1330.0,36.0,15.0
2.2808001041412354,3364.0,563.0,25.0,2003.0,10.0,28.0,29.0
2.2831833362579346,2086.0,592.0,903.0,1197.0,643.0,52.0,23.0
2.285566568374634,2025.0,29.0,999.0,1568.0,1276.0,35.0,17.0
2.287950038909912,1964.0,138.0,227.0,997.0,823.0,19.0,17.0
2.2903332710266113,1612.0,248.0,996.0,425.0,15.0,302.0,17.0
2.2927167415618896,2541.0,51.0,1079.0,450.0,708.0,155.0,27.0
2.295133352279663,3470.0,178.0,34.0,474.0,94.0,9.0,16.0
2.2975165843963623,3814.0,304.0,1425.0,32.0,1108.0,22.0,5.0
2.2999000549316406,3008.0,54.0,1181.0,363.0,803.0,24.0,28.0
2.302299976348877,2545.0,25.0,473.0,694.0,32.0,12.0,36.0
2.3046834468841553,2083.0,831.0,475.0,441.0,29.0,0.0,0.0
2.3070666790008545,1771.0,680.0,659.0,669.0,787.0,57.0,18.0
2.309466600418091,2175.0,662.0,65.0,374.0,593.0,47.0,13.0
2.3118834495544434,1645.0,664.0,293.0,79.0,399.0,36.0,7.0
2.3142666816711426,1856.0,858.0,522.0,661.0,38.0,36.0,56.0
2.316649913787842,635.0,75.0,650.0,890.0,583.0,35.0,47.0
2.31903338432312,871.0,730.0,777.0,657.0,622.0,18.0,122.0
2.3214166164398193,643.0,1067.0,492.0,1138.0,135.0,32.0,84.0
2.3238000869750977,109.0,287.0,72.0,144.0,91.0,45.0,46.0
2.326183319091797,152.0,1269.0,256.0,122.0,184.0,74.0,120.0
2.3285999298095703,518.0,1359.0,902.0,802.0,278.0,57.0,128.0
2.3309834003448486,446.0,50.0,487.0,599.0,189.0,41.0,126.0
2.333366632461548,374.0,1336.0,73.0,82.0,100.0,53.0,125.0
2.335750102996826,734.0,99.0,679.0,740.0,345.0,65.0,61.0
2.3381333351135254,480.0,1652.0,91.0,110.0,232.0,51.0,68.0
2.3405165672302246,227.0,132.0,72.0,106.0,119.0,58.0,81.0
2.342900037765503,196.0,152.0,92.0,103.0,78.0,64.0,141.0
2.3453166484832764,190.0,769.0,113.0,799.0,81.0,69.0,125.0
2.3477001190185547,211.0,118.0,135.0,1012.0,121.0,73.0,102.0
2.350083351135254,219.0,141.0,872.0,1195.0,107.0,92.0,39.0
2.352466583251953,278.0,141.0,1648.0,103.0,94.0,96.0,107.0
2.3548500537872314,287.0,130.0,1616.0,91.0,111.0,100.0,95.0
2.3572332859039307,295.0,118.0,1842.0,91.0,104.0,108.0,97.0
2.359616756439209,188.0,162.0,509.0,101.0,97.0,117.0,88.0
2.3620333671569824,295.0,141.0,1084.0,79.0,96.0,137.0,98.0
2.3644165992736816,118.0,119.0,953.0,58.0,46.0,156.0,96.0
2.36680006980896,204.0,228.0,67.0,92.0,46.0,124.0,93.0
2.369183301925659,342.0,187.0,423.0,125.0,121.0,93.0,114.0
2.3715667724609375,296.0,146.0,183.0,528.0,129.0,151.0,134.0
2.3739500045776367,250.0,174.0,152.0,329.0,137.0,96.0,142.0
2.376333236694336,198.0,538.0,120.0,129.0,138.0,125.0,62.0
2.3787500858306885,208.0,386.0,90.0,212.0,139.0,90.0,143.0
2.3811333179473877,172.0,234.0,257.0,138.0,1177.0,113.0,74.0
2.383516550064087,183.0,263.0,211.0,334.0,1014.0,101.0,96.0
2.3859000205993652,193.0,160.0,165.0,201.0,174.0,89.0,106.0
2.3882832527160645,156.0,142.0,476.0,68.0,706.0,38.0,116.0
2.3906667232513428,173.0,124.0,1161.0,341.0,124.0,147.0,91.0
2.393049955368042,222.0,268.0,1209.0,260.0,62.0,115.0,91.0
2.3954665660858154,234.0,183.0,137.0,179.0,765.0,92.0,25.0
2.3978500366210938,196.0,99.0,110.0,244.0,151.0,71.0,64.0
2.400233268737793,171.0,249.0,152.0,797.0,71.0,121.0,48.0
2.4026167392730713,222.0,400.0,400.0,729.0,86.0,93.0,98.0
2.4049999713897705,134.0,319.0,250.0,113.0,62.0,81.0,156.0
2.407383441925049,168.0,121.0,99.0,598.0,113.0,68.0,169.0
2.409766674041748,189.0,50.0,203.0,115.0,91.0,80.0,93.0
2.4121832847595215,163.0,130.0,32.0,731.0,69.0,92.0,127.0
2.4145667552948,144.0,128.0,58.0,190.0,651.0,56.0,117.0
2.416949987411499,146.0,404.0,85.0,105.0,695.0,72.0,106.0
2.4193332195281982,163.0,233.0,361.0,118.0,655.0,50.0,100.0
2.4217166900634766,107.0,61.0,637.0,134.0,880.0,89.0,85.0
2.424099922180176,52.0,664.0,505.0,528.0,1444.0,96.0,69.0
2.426483392715454,67.0,709.0,62.0,296.0,1348.0,63.0,31.0
2.4289000034332275,124.0,80.0,71.0,64.0,43.0,37.0,62.0
2.4312832355499268,72.0,87.0,68.0,40.0,44.0,92.0,38.0
2.433666706085205,29.0,23.0,79.0,16.0,109.0,23.0,39.0
2.4360499382019043,61.0,25.0,46.0,87.0,71.0,54.0,34.0
2.4384334087371826,54.0,27.0,1225.0,96.0,376.0,58.0,29.0
2.440816640853882,45.0,26.0,1431.0,64.0,216.0,837.0,52.0
2.44320011138916,72.0,25.0,55.0,31.0,56.0,438.0,76.0
2.4456167221069336,77.0,261.0,144.0,81.0,23.0,39.0,88.0
2.447999954223633,54.0,320.0,1342.0,86.0,376.0,9.0,54.0
2.450383424758911,14.0,57.0,1064.0,91.0,581.0,351.0,71.0
2.4527666568756104,54.0,1750.0,390.0,872.0,786.0,65.0,47.0
2.4551498889923096,93.0,1900.0,5.0,638.0,789.0,63.0,26.0
2.457533359527588,67.0,51.0,67.0,405.0,792.0,28.0,26.0
2.459916591644287,39.0,1196.0,48.0,28.0,885.0,36.0,34.0
2.4623334407806396,40.0,35.0,29.0,11.0,1045.0,40.0,29.0
2.464716672897339,848.0,356.0,33.0,974.0,34.0,32.0,28.0
2.467099905014038,707.0,821.0,51.0,1700.0,41.0,23.0,50.0
2.4694833755493164,55.0,286.0,40.0,1685.0,65.0,35.0,38.0
2.4718666076660156,83.0,38.0,30.0,1831.0,73.0,32.0,25.0
2.474250078201294,761.0,37.0,505.0,782.0,69.0,29.0,43.0
2.476633310317993,47.0,48.0,272.0,553.0,80.0,116.0,49.0
2.4790499210357666,36.0,45.0,38.0,38.0,68.0,73.0,56.0
2.481433391571045,25.0,41.0,191.0,453.0,56.0,30.0,60.0
2.483816623687744,24.0,32.0,39.0,261.0,1033.0,47.0,65.0
2.4862000942230225,22.0,22.0,54.0,69.0,992.0,34.0,20.0
2.4885833263397217,29.0,67.0,38.0,49.0,62.0,51.0,27.0
2.490966558456421,36.0,103.0,634.0,683.0,20.0,27.0,35.0
2.493350028991699,11.0,139.0,325.0,549.0,28.0,43.0,19.0
2.4957666397094727,34.0,100.0,16.0,503.0,29.0,25.0,30.0
