,335.2099914550781,336.2099914550781,337.2099914550781,338.2099914550781,339.2099914550781,340.2099914550781,341.2099914550781,342.2099914550781,343.2099914550781,344.2099914550781,345.2099914550781
5.702383518218994,27.0,220.0,19.0,31.0,51.0,39.0,31.0,5.0,18.0,40.0,0.0
5.704766750335693,101.0,1044.0,10.0,24.0,24.0,81.0,5.0,21.0,51.0,55.0,286.0
5.707149982452393,38.0,44.0,59.0,36.0,10.0,18.0,42.0,29.0,33.0,6.0,7.0
5.709533214569092,38.0,37.0,6.0,12.0,34.0,37.0,24.0,28.0,12.0,31.0,43.0
5.711916446685791,37.0,25.0,528.0,22.0,10.0,5.0,6.0,27.0,20.0,23.0,30.0
5.714300155639648,632.0,31.0,266.0,33.0,19.0,26.0,27.0,22.0,34.0,29.0,17.0
5.716683387756348,352.0,5.0,5.0,32.0,26.0,47.0,12.0,27.0,10.0,20.0,11.0
5.719133377075195,71.0,12.0,47.0,30.0,5.0,32.0,8.0,18.0,19.0,11.0,5.0
5.7215166091918945,58.0,191.0,42.0,28.0,12.0,17.0,5.0,32.0,19.0,13.0,12.0
5.723899841308594,23.0,370.0,17.0,966.0,5.0,48.0,22.0,45.0,19.0,9.0,20.0
5.726283550262451,791.0,427.0,21.0,1264.0,24.0,44.0,24.0,0.0,10.0,5.0,16.0
5.72866678237915,697.0,485.0,25.0,5.0,30.0,29.0,5.0,20.0,38.0,10.0,17.0
5.73105001449585,602.0,18.0,20.0,14.0,34.0,45.0,23.0,15.0,37.0,15.0,24.0
5.733433246612549,25.0,762.0,27.0,534.0,37.0,11.0,15.0,19.0,5.0,7.0,30.0
5.735866546630859,904.0,46.0,26.0,29.0,34.0,22.0,5.0,18.0,0.0,0.0,33.0
5.738249778747559,869.0,15.0,26.0,66.0,30.0,35.0,5.0,17.0,5.0,19.0,45.0
5.740650177001953,74.0,982.0,38.0,21.0,10.0,8.0,6.0,5.0,6.0,11.0,47.0
5.743016719818115,653.0,43.0,0.0,36.0,15.0,7.0,12.0,7.0,7.0,5.0,0.0
5.7453999519348145,782.0,783.0,22.0,15.0,19.0,5.0,18.0,10.0,7.0,10.0,0.0
5.747783184051514,912.0,16.0,0.0,5.0,5.0,25.0,67.0,24.0,0.0,379.0,22.0
5.750166893005371,18.0,32.0,5.0,16.0,8.0,25.0,36.0,24.0,10.0,222.0,34.0
5.752616882324219,13.0,20.0,19.0,35.0,11.0,26.0,5.0,23.0,20.0,65.0,34.0
5.755000114440918,841.0,27.0,15.0,20.0,11.0,20.0,22.0,28.0,35.0,39.0,24.0
5.757383346557617,242.0,25.0,11.0,5.0,18.0,14.0,0.0,11.0,31.0,28.0,5.0
5.759766578674316,46.0,12.0,23.0,38.0,18.0,24.0,21.0,22.0,16.0,10.0,24.0
5.762149810791016,10.0,8.0,34.0,28.0,17.0,18.0,27.0,42.0,17.0,10.0,16.0
5.764533519744873,24.0,5.0,40.0,19.0,26.0,17.0,16.0,37.0,10.0,10.0,13.0
5.766916751861572,38.0,0.0,13.0,17.0,22.0,18.0,5.0,32.0,7.0,24.0,39.0
5.76936674118042,29.0,12.0,25.0,25.0,19.0,20.0,19.0,20.0,5.0,39.0,39.0
5.771749973297119,19.0,13.0,20.0,24.0,17.0,22.0,0.0,0.0,6.0,27.0,38.0
5.774133205413818,18.0,17.0,10.0,22.0,27.0,24.0,5.0,20.0,61.0,15.0,11.0
5.776516437530518,26.0,21.0,12.0,30.0,36.0,24.0,10.0,23.0,51.0,25.0,14.0
5.778900146484375,25.0,21.0,15.0,23.0,23.0,0.0,20.0,17.0,41.0,19.0,39.0
5.781283378601074,23.0,514.0,15.0,17.0,9.0,8.0,18.0,10.0,22.0,12.0,88.0
5.783666610717773,14.0,581.0,16.0,10.0,25.0,16.0,16.0,43.0,22.0,5.0,44.0
5.786099910736084,5.0,25.0,20.0,46.0,36.0,16.0,36.0,30.0,22.0,15.0,0.0
5.788483142852783,57.0,54.0,31.0,64.0,28.0,16.0,44.0,16.0,12.0,25.0,26.0
5.790866851806641,286.0,40.0,33.0,80.0,5.0,10.0,51.0,16.0,11.0,18.0,22.0
5.793266773223877,515.0,25.0,35.0,37.0,34.0,16.0,5.0,12.0,10.0,11.0,14.0
5.795633316040039,620.0,10.0,20.0,79.0,12.0,23.0,5.0,0.0,5.0,23.0,6.0
5.798016548156738,28.0,15.0,5.0,28.0,12.0,31.0,17.0,20.0,38.0,22.0,20.0
5.8003997802734375,1430.0,15.0,35.0,18.0,12.0,29.0,18.0,11.0,22.0,16.0,0.0
5.802849769592285,1338.0,25.0,13.0,25.0,15.0,27.0,20.0,50.0,5.0,10.0,0.0
5.805233478546143,729.0,18.0,18.0,50.0,17.0,17.0,22.0,66.0,47.0,15.0,35.0
5.807616710662842,549.0,11.0,6.0,36.0,17.0,10.0,25.0,82.0,11.0,19.0,25.0
5.809999942779541,31.0,40.0,14.0,21.0,27.0,24.0,0.0,11.0,25.0,33.0,10.0
5.81238317489624,18.0,26.0,13.0,41.0,37.0,32.0,8.0,26.0,15.0,33.0,24.0
5.814766883850098,596.0,12.0,12.0,20.0,32.0,32.0,32.0,0.0,15.0,33.0,25.0
5.817150115966797,301.0,53.0,24.0,23.0,51.0,38.0,39.0,20.0,16.0,39.0,22.0
5.8196001052856445,5.0,6.0,36.0,43.0,51.0,10.0,15.0,15.0,20.0,33.0,29.0
5.821983337402344,8.0,29.0,46.0,10.0,43.0,23.0,0.0,10.0,24.0,26.0,23.0
5.824366569519043,12.0,40.0,44.0,15.0,32.0,5.0,25.0,5.0,6.0,20.0,18.0
5.826749801635742,232.0,23.0,24.0,15.0,32.0,9.0,5.0,0.0,5.0,16.0,27.0
5.8291335105896,452.0,5.0,22.0,10.0,10.0,13.0,33.0,13.0,38.0,29.0,28.0
5.831516742706299,244.0,30.0,14.0,19.0,7.0,19.0,44.0,25.0,421.0,32.0,19.0
5.833899974822998,36.0,46.0,5.0,13.0,21.0,49.0,27.0,27.0,214.0,34.0,10.0
5.836333274841309,33.0,44.0,5.0,6.0,15.0,90.0,33.0,19.0,7.0,15.0,28.0
5.838733196258545,30.0,6.0,7.0,13.0,10.0,69.0,10.0,33.0,1115.0,0.0,24.0
5.841100215911865,12.0,6.0,10.0,9.0,42.0,48.0,54.0,26.0,560.0,10.0,20.0
5.8434834480285645,32.0,18.0,10.0,5.0,35.0,20.0,39.0,18.0,5.0,256.0,15.0
5.845866680145264,233.0,20.0,49.0,12.0,24.0,20.0,26.0,13.0,24.0,144.0,10.0
5.848249912261963,123.0,24.0,49.0,18.0,13.0,26.0,21.0,7.0,43.0,32.0,10.0
5.850633144378662,13.0,27.0,49.0,23.0,5.0,24.0,33.0,5.0,1977.0,32.0,10.0
5.85308313369751,24.0,28.0,42.0,24.0,30.0,65.0,31.0,8.0,2368.0,25.0,16.0
5.855466842651367,38.0,28.0,54.0,24.0,31.0,43.0,28.0,11.0,3262.0,40.0,35.0
5.857850074768066,7.0,30.0,13.0,35.0,32.0,20.0,30.0,8.0,1034.0,27.0,31.0
5.860233306884766,1000.0,32.0,18.0,46.0,25.0,10.0,0.0,6.0,2576.0,14.0,28.0
5.862616539001465,1103.0,5.0,22.0,39.0,0.0,52.0,22.0,28.0,29.0,15.0,11.0
5.864999771118164,32.0,7.0,21.0,25.0,24.0,36.0,33.0,26.0,21.0,16.0,22.0
5.8673834800720215,10.0,10.0,18.0,12.0,46.0,19.0,44.0,33.0,378.0,15.0,390.0
5.869800090789795,42.0,23.0,15.0,43.0,29.0,34.0,1084.0,39.0,22.0,14.0,204.0
5.872216701507568,20.0,49.0,31.0,28.0,28.0,22.0,1148.0,19.0,298.0,14.0,18.0
5.874599933624268,24.0,57.0,24.0,33.0,10.0,33.0,32.0,0.0,157.0,13.0,46.0
5.876983165740967,32.0,41.0,17.0,38.0,17.0,42.0,21.0,803.0,16.0,7.0,30.0
5.879366874694824,5.0,40.0,18.0,23.0,18.0,39.0,1187.0,414.0,672.0,0.0,41.0
5.881750106811523,5.0,21.0,21.0,18.0,12.0,35.0,26.0,26.0,687.0,6.0,39.0
5.884133338928223,501.0,5.0,26.0,30.0,7.0,19.0,814.0,1705.0,1151.0,12.0,37.0
5.886516571044922,266.0,10.0,0.0,28.0,16.0,20.0,21.0,1696.0,1615.0,16.0,25.0
5.888949871063232,31.0,10.0,5.0,27.0,24.0,10.0,651.0,1920.0,72.0,20.0,13.0
5.891333103179932,54.0,10.0,43.0,22.0,28.0,16.0,29.0,2144.0,19.0,10.0,32.0
5.893716812133789,52.0,15.0,42.0,25.0,17.0,13.0,5.0,887.0,51.0,14.0,30.0
5.896100044250488,16.0,18.0,32.0,27.0,20.0,32.0,29.0,1478.0,15.0,18.0,29.0
5.8984832763671875,5.0,27.0,0.0,10.0,23.0,31.0,229.0,39.0,20.0,18.0,12.0
5.900866508483887,12.0,32.0,40.0,10.0,11.0,19.0,137.0,532.0,21.0,17.0,22.0
5.903250217437744,16.0,36.0,15.0,24.0,5.0,20.0,45.0,3216.0,409.0,26.0,31.0
5.905700206756592,20.0,35.0,23.0,20.0,16.0,24.0,41.0,2897.0,1022.0,19.0,21.0
5.908083438873291,21.0,5.0,18.0,20.0,27.0,28.0,37.0,2013.0,870.0,12.0,10.0
5.91046667098999,5.0,49.0,34.0,20.0,34.0,5.0,19.0,2058.0,50.0,6.0,14.0
5.9128499031066895,12.0,5.0,30.0,22.0,37.0,32.0,0.0,3864.0,7.0,0.0,23.0
5.915233135223389,14.0,10.0,20.0,15.0,37.0,28.0,0.0,367.0,13.0,5.0,32.0
5.917616844177246,5.0,12.0,10.0,18.0,33.0,24.0,21.0,3014.0,1178.0,10.0,26.0
5.920000076293945,0.0,22.0,93.0,19.0,29.0,31.0,41.0,2107.0,1519.0,18.0,20.0
5.922450065612793,2.0,32.0,79.0,27.0,33.0,1058.0,690.0,1824.0,43.0,27.0,25.0
5.924833297729492,5.0,24.0,296.0,45.0,37.0,1137.0,986.0,1967.0,16.0,35.0,30.0
5.927216529846191,10.0,17.0,513.0,1351.0,46.0,1216.0,1062.0,4225.0,2625.0,30.0,5.0
5.929599761962891,38.0,284.0,589.0,7919.0,959.0,2206.0,2418.0,5185.0,1665.0,871.0,39.0
5.931983470916748,48.0,551.0,5967.0,8348.0,2086.0,6918.0,3660.0,5164.0,3309.0,1864.0,38.0
5.934366703033447,11.0,8440.0,8628.0,10704.0,16708.0,12240.0,6887.0,12148.0,1000.0,1530.0,5.0
5.9367499351501465,45.0,15164.0,24244.0,29588.0,19300.0,20628.0,15352.0,13196.0,4590.0,1963.0,310.0
5.939183235168457,13.0,17392.0,49168.0,51056.0,44272.0,36192.0,27428.0,12104.0,8612.0,2397.0,614.0
5.941566467285156,15.0,45120.0,84480.0,92800.0,65552.0,50672.0,39504.0,20764.0,14280.0,8868.0,760.0
5.943950176239014,68.0,55872.0,125200.0,128112.0,103296.0,86784.0,71440.0,38000.0,19564.0,7140.0,3192.0
5.94635009765625,45.0,84448.0,183360.0,194240.0,160320.0,142784.0,92384.0,60384.0,29020.0,13456.0,3602.0
5.948716640472412,76.0,128016.0,257344.0,252800.0,203264.0,147072.0,134784.0,55808.0,40720.0,17940.0,4961.0
5.951116561889648,56.0,169856.0,337664.0,340672.0,299264.0,222912.0,197568.0,89216.0,57216.0,26144.0,6320.0
5.9534831047058105,35.0,222592.0,441216.0,446976.0,389888.0,321408.0,227392.0,104400.0,59008.0,29832.0,8496.0
5.955933570861816,46.0,290816.0,604416.0,509504.0,464064.0,378240.0,272064.0,123136.0,73152.0,39280.0,15060.0
5.958316802978516,57.0,360704.0,730880.0,637440.0,588544.0,403264.0,323712.0,171008.0,86064.0,32448.0,15120.0
5.960700035095215,68.0,374016.0,736512.0,703232.0,628736.0,491904.0,376000.0,180544.0,92560.0,41456.0,11796.0
5.963083267211914,42.0,489152.0,884224.0,787456.0,709888.0,520576.0,368576.0,198080.0,101072.0,42784.0,21764.0
5.965466499328613,17.0,486784.0,926976.0,879872.0,746752.0,556288.0,419904.0,216960.0,102096.0,44800.0,21124.0
5.967850208282471,82.0,518464.0,1084416.0,930304.0,824320.0,631808.0,434560.0,209920.0,107712.0,46832.0,19960.0
5.97023344039917,43.0,561664.0,1018624.0,1014272.0,844544.0,673280.0,439808.0,229056.0,129744.0,49344.0,20680.0
5.972683429718018,123.0,574464.0,1048320.0,1016832.0,810752.0,632064.0,467712.0,261760.0,133376.0,51856.0,21400.0
5.975066661834717,107.0,607488.0,1181952.0,1061632.0,836608.0,692224.0,535552.0,248384.0,128112.0,53328.0,19948.0
5.977449893951416,91.0,595200.0,1217792.0,1126912.0,832000.0,730880.0,510144.0,269824.0,127616.0,60816.0,15384.0
5.979833126068115,405.0,616448.0,1158144.0,1129472.0,827392.0,733952.0,483072.0,253120.0,127120.0,58784.0,24696.0
5.982216835021973,538.0,608768.0,1214976.0,1100544.0,849152.0,688640.0,462976.0,233984.0,132992.0,52128.0,23096.0
5.984600067138672,358.0,622592.0,1236736.0,1134080.0,873216.0,668672.0,487360.0,245056.0,134272.0,55440.0,25060.0
5.986983299255371,117.0,636416.0,1142016.0,1080064.0,897280.0,664064.0,504640.0,266112.0,121360.0,61104.0,18364.0
5.989433288574219,22.0,595200.0,1145600.0,1062912.0,897536.0,691456.0,494528.0,256320.0,134720.0,55200.0,18960.0
5.991816520690918,106.0,621824.0,1139712.0,1030400.0,832000.0,665856.0,454720.0,245376.0,135680.0,50544.0,16920.0
5.994200229644775,112.0,596224.0,1117696.0,1008384.0,798208.0,691712.0,502464.0,224448.0,129088.0,53600.0,19860.0
5.996583461761475,115.0,631808.0,1127168.0,958208.0,776960.0,662016.0,481472.0,260096.0,110240.0,52208.0,17584.0
5.998966693878174,105.0,561152.0,1094400.0,1013760.0,837120.0,620544.0,508608.0,249728.0,118224.0,51760.0,15308.0
6.001349925994873,95.0,599296.0,1101568.0,992000.0,854528.0,661760.0,480000.0,253760.0,131264.0,51312.0,12604.0
6.003733158111572,105.0,559360.0,1084928.0,964096.0,838400.0,658176.0,464832.0,212096.0,117968.0,43424.0,19524.0
6.006166458129883,115.0,550912.0,1054720.0,967424.0,764928.0,580608.0,465792.0,237504.0,110176.0,47344.0,12080.0
6.00855016708374,18.0,545280.0,949248.0,930816.0,747008.0,561408.0,433216.0,212096.0,112768.0,49888.0,20172.0
6.0109333992004395,118.0,560384.0,966912.0,846848.0,739072.0,564992.0,431744.0,186880.0,93008.0,46048.0,16212.0
6.013316631317139,80.0,527104.0,935680.0,857344.0,741376.0,553472.0,382720.0,186304.0,94992.0,49904.0,16772.0
6.015699863433838,100.0,456256.0,854272.0,844032.0,733184.0,529920.0,370944.0,189504.0,82256.0,37792.0,18260.0
6.018099784851074,178.0,474816.0,806400.0,778496.0,613376.0,470720.0,364800.0,173376.0,89232.0,39328.0,17020.0
6.0204668045043945,132.0,407680.0,787200.0,665088.0,566016.0,449344.0,312384.0,144000.0,83824.0,32700.0,17476.0
6.022916793823242,86.0,384256.0,695040.0,608512.0,485312.0,399744.0,266304.0,145600.0,60928.0,28920.0,11180.0
6.025300025939941,91.0,340032.0,600832.0,546816.0,446464.0,357568.0,252736.0,135872.0,74368.0,25428.0,8061.0
6.027683258056641,95.0,319488.0,544000.0,485184.0,439488.0,338496.0,190592.0,112000.0,51968.0,23956.0,4330.0
6.03006649017334,75.0,274688.0,476096.0,453760.0,339392.0,245760.0,196544.0,93376.0,43792.0,24228.0,8916.0
6.032450199127197,54.0,225600.0,386560.0,364544.0,299328.0,204032.0,159744.0,73760.0,42576.0,13040.0,4621.0
6.0348334312438965,78.0,175552.0,313856.0,295680.0,240448.0,180224.0,137216.0,76320.0,27476.0,10412.0,8196.0
6.037216663360596,38.0,146624.0,274816.0,227776.0,181952.0,133632.0,104880.0,44944.0,23076.0,10988.0,972.0
6.039666652679443,22.0,121088.0,209984.0,212864.0,162880.0,138176.0,82304.0,37280.0,16860.0,14432.0,2759.0
6.042049884796143,71.0,113488.0,164800.0,149888.0,140544.0,96384.0,59152.0,28616.0,12172.0,7594.0,40.0
6.044433116912842,99.0,74592.0,136512.0,129488.0,114992.0,75424.0,63808.0,36176.0,14036.0,8244.0,4602.0
6.046816825866699,126.0,66496.0,129520.0,105088.0,87104.0,55568.0,56320.0,14712.0,11196.0,9380.0,3318.0
6.049200057983398,94.0,48336.0,99392.0,86928.0,58976.0,44672.0,37744.0,16380.0,4456.0,2917.0,50.0
6.051583290100098,18.0,50000.0,78112.0,71200.0,56496.0,47088.0,29416.0,16076.0,3826.0,1405.0,586.0
6.053966522216797,379.0,34480.0,51296.0,53376.0,41760.0,40576.0,19892.0,5158.0,10528.0,857.0,36.0
6.05638313293457,211.0,39984.0,50976.0,47200.0,52112.0,22884.0,18712.0,11228.0,1560.0,2309.0,423.0
6.058783531188965,43.0,24164.0,39664.0,33632.0,33584.0,24988.0,20516.0,7519.0,4305.0,1530.0,810.0
6.061166763305664,44.0,13840.0,39648.0,33392.0,26408.0,12940.0,10428.0,8688.0,1755.0,1307.0,1220.0
6.063549995422363,44.0,20904.0,35840.0,24624.0,27644.0,14456.0,12448.0,2433.0,4535.0,2069.0,1243.0
6.0659499168396,194.0,15772.0,31228.0,25892.0,16836.0,14196.0,9324.0,7445.0,2835.0,62.0,58.0
6.068316459655762,110.0,23144.0,27548.0,21632.0,18892.0,11524.0,12108.0,9272.0,3989.0,62.0,288.0
6.070700168609619,26.0,11620.0,23052.0,17752.0,15676.0,17032.0,6820.0,4545.0,2125.0,1024.0,85.0
6.073083400726318,34.0,19604.0,23036.0,17668.0,11236.0,10308.0,9156.0,8936.0,3374.0,528.0,24.0
6.075533390045166,63.0,9680.0,23660.0,14416.0,22064.0,15032.0,11236.0,4272.0,1394.0,470.0,528.0
6.077916622161865,37.0,12968.0,18432.0,17004.0,12360.0,12676.0,3961.0,3851.0,571.0,411.0,829.0
6.0802998542785645,11.0,6824.0,24104.0,12176.0,13048.0,9536.0,12400.0,1350.0,2159.0,1024.0,555.0
6.082683563232422,20.0,9724.0,8560.0,14956.0,9836.0,6091.0,8452.0,4378.0,1856.0,1032.0,160.0
6.085066795349121,29.0,9376.0,15204.0,12392.0,8492.0,10040.0,7110.0,2729.0,36.0,542.0,20.0
6.08745002746582,37.0,8440.0,16412.0,6129.0,11828.0,6094.0,7010.0,1081.0,1239.0,53.0,16.0
6.0898332595825195,45.0,1732.0,11340.0,10684.0,9368.0,5868.0,10164.0,2957.0,2196.0,1079.0,57.0
6.092283248901367,53.0,5106.0,7243.0,6183.0,7200.0,6549.0,3938.0,1903.0,963.0,718.0,104.0
6.094666481018066,49.0,9012.0,8232.0,12596.0,7499.0,5724.0,4475.0,2594.0,1478.0,544.0,78.0
6.097050189971924,45.0,7971.0,9964.0,10760.0,8432.0,4899.0,7549.0,2209.0,456.0,881.0,53.0
6.099433422088623,12.0,7080.0,9480.0,5119.0,6593.0,7333.0,5515.0,1973.0,40.0,60.0,88.0
6.101816654205322,50.0,6353.0,9000.0,10248.0,4288.0,6274.0,3234.0,757.0,1894.0,15.0,66.0
6.1041998863220215,40.0,3803.0,6889.0,6231.0,7095.0,1350.0,4784.0,2802.0,599.0,19.0,29.0
6.106583118438721,25.0,5312.0,6425.0,9324.0,4482.0,5192.0,2742.0,2272.0,3059.0,98.0,29.0
6.1090168952941895,10.0,4003.0,5712.0,5629.0,5916.0,8296.0,5607.0,670.0,2220.0,54.0,29.0
6.111400127410889,57.0,1070.0,4999.0,4420.0,5156.0,7084.0,4501.0,938.0,1632.0,10.0,34.0
6.113783359527588,776.0,5691.0,5934.0,4121.0,5570.0,5915.0,5770.0,29.0,2186.0,51.0,43.0
6.116166591644287,875.0,3171.0,5005.0,5051.0,5983.0,4888.0,1422.0,694.0,452.0,11.0,45.0
6.118549823760986,29.0,3326.0,4076.0,5981.0,4891.0,2219.0,4040.0,1338.0,1234.0,0.0,47.0
6.120933532714844,36.0,427.0,5354.0,2424.0,2780.0,2186.0,1708.0,1555.0,28.0,70.0,27.0
6.123316764831543,36.0,4310.0,6612.0,4258.0,3975.0,605.0,3405.0,875.0,37.0,94.0,51.0
6.125766754150391,35.0,3803.0,2705.0,974.0,3342.0,2907.0,2879.0,1975.0,120.0,84.0,40.0
6.12814998626709,33.0,2327.0,7632.0,2561.0,3994.0,2272.0,2846.0,20.0,204.0,75.0,30.0
6.130533218383789,30.0,1983.0,4527.0,4877.0,2091.0,2662.0,874.0,297.0,472.0,46.0,39.0
6.132916450500488,44.0,2586.0,4916.0,1421.0,2955.0,2860.0,1520.0,495.0,676.0,18.0,47.0
6.135300159454346,39.0,3404.0,4138.0,2033.0,2991.0,1279.0,1874.0,567.0,880.0,28.0,29.0
6.137683391571045,34.0,365.0,6022.0,2060.0,1614.0,3891.0,929.0,640.0,548.0,35.0,39.0
6.140066623687744,27.0,2681.0,1373.0,2087.0,2335.0,3353.0,475.0,259.0,0.0,54.0,48.0
6.142516613006592,37.0,1347.0,3001.0,2337.0,3055.0,2159.0,13.0,606.0,578.0,55.0,35.0
6.144899845123291,43.0,858.0,6368.0,2587.0,1248.0,3026.0,1205.0,76.0,298.0,55.0,27.0
6.147283554077148,48.0,2199.0,6854.0,2304.0,1632.0,2251.0,1073.0,964.0,17.0,55.0,18.0
6.149666786193848,45.0,2681.0,6701.0,2020.0,2017.0,2248.0,53.0,519.0,31.0,17.0,6.0
6.152050018310547,25.0,197.0,3422.0,2293.0,2551.0,1618.0,1398.0,73.0,47.0,16.0,0.0
6.154433250427246,21.0,1993.0,1707.0,2306.0,2040.0,1604.0,788.0,14.0,33.0,26.0,9.0
6.156816482543945,16.0,2702.0,1602.0,2320.0,1530.0,356.0,631.0,92.0,21.0,165.0,18.0
6.159249782562256,25.0,3603.0,1716.0,2959.0,1553.0,595.0,401.0,27.0,363.0,304.0,64.0
6.16165018081665,0.0,2070.0,1830.0,3598.0,1575.0,834.0,172.0,257.0,967.0,183.0,37.0
6.1640167236328125,10.0,3690.0,5875.0,798.0,1687.0,830.0,727.0,486.0,1615.0,62.0,11.0
6.166416645050049,27.0,1602.0,6873.0,706.0,1798.0,1873.0,2643.0,796.0,1219.0,59.0,18.0
6.168783187866211,44.0,697.0,6099.0,3511.0,3846.0,1800.0,3002.0,1276.0,31.0,45.0,21.0
6.171166896820068,47.0,2267.0,4851.0,912.0,3850.0,1817.0,1820.0,952.0,495.0,31.0,18.0
6.173550128936768,47.0,1030.0,1754.0,2139.0,3223.0,504.0,1250.0,628.0,959.0,25.0,15.0
6.176000118255615,23.0,2051.0,1724.0,1713.0,3575.0,573.0,1361.0,13.0,27.0,20.0,24.0
6.1783833503723145,5.0,198.0,337.0,649.0,2725.0,1754.0,1882.0,43.0,14.0,402.0,32.0
6.180766582489014,50.0,1732.0,521.0,2745.0,2532.0,978.0,2403.0,389.0,0.0,596.0,34.0
6.183149814605713,46.0,79.0,704.0,1281.0,35.0,812.0,59.0,15.0,201.0,790.0,35.0
6.18553352355957,41.0,1916.0,4362.0,1838.0,3798.0,3049.0,2007.0,467.0,741.0,42.0,35.0
6.1879167556762695,25.0,248.0,4040.0,2511.0,2718.0,1834.0,25.0,701.0,385.0,1027.0,35.0
6.190299987792969,22.0,3051.0,4079.0,2530.0,1540.0,619.0,1083.0,935.0,29.0,229.0,10.0
6.192749977111816,24.0,2479.0,3428.0,935.0,1461.0,282.0,560.0,436.0,840.0,40.0,5.0
6.195133209228516,25.0,1354.0,3049.0,790.0,2261.0,328.0,1427.0,24.0,435.0,25.0,12.0
6.197516441345215,123.0,17.0,1617.0,1148.0,1191.0,374.0,1120.0,27.0,30.0,34.0,19.0
