,374.2099914550781,375.2099914550781,376.2099914550781,377.2099914550781,378.2099914550781,379.2099914550781,380.2099914550781,381.2099914550781,382.2099914550781,383.2099914550781,384.2099914550781,385.2099914550781,386.2099914550781
5.9028167724609375,28.0,157.0,710.0,16.0,43.0,10.0,32.0,44.0,16.0,66.0,26.0,10.0,5.0
5.905633449554443,30.0,0.0,29.0,49.0,11.0,29.0,7.0,26.0,1295.0,22.0,762.0,1055.0,5.0
5.908450126647949,32.0,0.0,34.0,40.0,28.0,24.0,31.0,572.0,112.0,27.0,8.0,22.0,44.0
5.911266803741455,5.0,0.0,706.0,61.0,6.0,32.0,32.0,75.0,16.0,5.0,352.0,36.0,5.0
5.914083480834961,45.0,5.0,24.0,40.0,35.0,20.0,0.0,5.0,41.0,0.0,36.0,21.0,20.0
5.916900157928467,34.0,10.0,43.0,16.0,43.0,7.0,35.0,28.0,20.0,14.0,10.0,39.0,22.0
5.919783115386963,25.0,15.0,0.0,5.0,10.0,14.0,27.0,15.0,15.0,10.0,20.0,24.0,21.0
5.922599792480469,15.0,20.0,0.0,5.0,49.0,20.0,13.0,11.0,26.0,5.0,5.0,24.0,20.0
5.925416469573975,32.0,15.0,15.0,18.0,34.0,20.0,15.0,30.0,33.0,6.0,10.0,39.0,25.0
5.9282331466674805,39.0,7.0,5.0,15.0,41.0,20.0,8.0,48.0,39.0,7.0,14.0,18.0,23.0
5.931049823760986,46.0,6.0,10.0,12.0,20.0,20.0,0.0,36.0,7.0,24.0,39.0,25.0,21.0
5.933866500854492,8.0,5.0,14.0,17.0,15.0,10.0,3.0,11.0,45.0,18.0,32.0,22.0,24.0
5.936733245849609,27.0,3.0,17.0,25.0,0.0,32.0,6.0,0.0,25.0,13.0,29.0,22.0,10.0
5.939549922943115,5.0,0.0,14.0,15.0,5.0,25.0,19.0,28.0,0.0,12.0,5.0,21.0,0.0
5.942366600036621,15.0,3.0,5.0,5.0,5.0,17.0,501.0,14.0,14.0,11.0,26.0,18.0,11.0
5.945183277130127,5.0,5.0,13.0,33.0,11.0,31.0,1123.0,0.0,40.0,20.0,18.0,15.0,20.0
5.947999954223633,43.0,14.0,20.0,5.0,12.0,218.0,948.0,48.0,608.0,34.0,10.0,5.0,23.0
5.950816631317139,43.0,19.0,22.0,13.0,12.0,404.0,51.0,36.0,322.0,25.0,21.0,28.0,0.0
5.953700065612793,21.0,44.0,34.0,21.0,29.0,213.0,31.0,69.0,35.0,16.0,5.0,29.0,6.0
5.956516742706299,22.0,42.0,0.0,23.0,45.0,21.0,759.0,5.0,1133.0,10.0,0.0,42.0,11.0
5.959333419799805,22.0,40.0,13.0,24.0,28.0,16.0,930.0,51.0,956.0,7.0,19.0,34.0,0.0
5.9621500968933105,26.0,43.0,25.0,773.0,11.0,19.0,10.0,7.0,780.0,35.0,34.0,25.0,55.0
5.964966773986816,91.0,50.0,0.0,413.0,604.0,36.0,745.0,338.0,0.0,44.0,24.0,11.0,40.0
5.967783451080322,62.0,29.0,6.0,52.0,694.0,18.0,384.0,181.0,626.0,28.0,14.0,38.0,24.0
5.970666885375977,33.0,15.0,11.0,294.0,881.0,0.0,700.0,23.0,504.0,12.0,58.0,39.0,19.0
5.973483562469482,15.0,0.0,8.0,535.0,704.0,28.0,824.0,0.0,10.0,0.0,62.0,22.0,17.0
5.97629976272583,21.0,5.0,5.0,27.0,527.0,12.0,910.0,6.0,28.0,21.0,24.0,21.0,20.0
5.979116439819336,6.0,10.0,10.0,30.0,15.0,20.0,16.0,12.0,18.0,15.0,15.0,35.0,23.0
5.981933116912842,0.0,15.0,9.0,32.0,1080.0,28.0,1322.0,11.0,15.0,322.0,26.0,33.0,0.0
5.984749794006348,26.0,16.0,7.0,43.0,10.0,15.0,1473.0,32.0,12.0,168.0,23.0,41.0,33.0
5.987616539001465,24.0,23.0,35.0,42.0,36.0,1545.0,391.0,46.0,42.0,14.0,21.0,42.0,0.0
5.990449905395508,22.0,17.0,21.0,337.0,399.0,1652.0,1420.0,415.0,54.0,19.0,10.0,42.0,19.0
5.993249893188477,20.0,11.0,7.0,632.0,813.0,517.0,45.0,235.0,0.0,16.0,30.0,21.0,39.0
5.996066570281982,6.0,5.0,11.0,741.0,547.0,53.0,562.0,55.0,26.0,13.0,29.0,8.0,21.0
5.998883247375488,14.0,8.0,50.0,849.0,30.0,1311.0,43.0,276.0,56.0,17.0,28.0,52.0,18.0
6.001699924468994,13.0,10.0,50.0,935.0,368.0,1280.0,346.0,154.0,25.0,20.0,24.0,33.0,15.0
6.004583358764648,9.0,13.0,11.0,43.0,706.0,59.0,655.0,32.0,15.0,277.0,19.0,22.0,18.0
6.007400035858154,5.0,11.0,347.0,907.0,359.0,924.0,437.0,231.0,27.0,152.0,28.0,33.0,20.0
6.01021671295166,6.0,10.0,178.0,31.0,12.0,678.0,43.0,429.0,26.0,27.0,40.0,0.0,5.0
6.013033390045166,10.0,10.0,9.0,5.0,19.0,433.0,472.0,909.0,24.0,0.0,26.0,0.0,12.0
6.015850067138672,13.0,10.0,10.0,18.0,26.0,47.0,900.0,455.0,40.0,34.0,11.0,17.0,19.0
6.018666744232178,21.0,11.0,10.0,30.0,49.0,16.0,1147.0,0.0,25.0,69.0,5.0,19.0,843.0
6.021550178527832,13.0,11.0,23.0,15.0,592.0,29.0,12.0,343.0,11.0,72.0,213.0,20.0,773.0
6.024366855621338,5.0,13.0,17.0,0.0,308.0,48.0,31.0,5.0,15.0,66.0,135.0,27.0,18.0
6.027183532714844,6.0,12.0,10.0,219.0,24.0,38.0,20.0,121.0,19.0,61.0,57.0,34.0,42.0
6.03000020980835,7.0,10.0,5.0,437.0,34.0,27.0,20.0,16.0,17.0,7.0,44.0,30.0,30.0
6.0328168869018555,11.0,25.0,20.0,221.0,7.0,83.0,22.0,10.0,40.0,25.0,60.0,23.0,27.0
6.035633563995361,15.0,39.0,26.0,5.0,31.0,332.0,17.0,32.0,35.0,17.0,58.0,36.0,16.0
6.038516521453857,12.0,50.0,74.0,5.0,55.0,423.0,12.0,36.0,29.0,34.0,37.0,36.0,5.0
6.041316509246826,8.0,5.0,47.0,10.0,0.0,28.0,12.0,21.0,28.0,0.0,36.0,16.0,37.0
6.044133186340332,23.0,61.0,20.0,24.0,26.0,12.0,20.0,36.0,0.0,9.0,57.0,43.0,70.0
6.046949863433838,38.0,15.0,0.0,21.0,52.0,36.0,10.0,22.0,27.0,18.0,21.0,12.0,44.0
6.049766540527344,49.0,17.0,25.0,21.0,177.0,11.0,0.0,5.0,5.0,12.0,42.0,15.0,18.0
6.05258321762085,58.0,6.0,22.0,21.0,110.0,5.0,36.0,33.0,30.0,20.0,20.0,10.0,32.0
6.055466651916504,15.0,13.0,18.0,12.0,42.0,18.0,28.0,10.0,17.0,28.0,23.0,5.0,26.0
6.05828332901001,30.0,20.0,31.0,17.0,570.0,24.0,37.0,10.0,24.0,31.0,24.0,30.0,19.0
6.061100006103516,41.0,102.0,522.0,22.0,1098.0,433.0,0.0,10.0,5.0,14.0,5.0,36.0,17.0
6.0639166831970215,15.0,1116.0,639.0,1075.0,1073.0,843.0,43.0,21.0,10.0,78.0,972.0,42.0,5.0
6.066733360290527,13.0,600.0,1614.0,957.0,936.0,1133.0,583.0,21.0,19.0,57.0,959.0,40.0,24.0
6.069550037384033,44.0,83.0,1231.0,1229.0,1976.0,1423.0,1570.0,1467.0,27.0,35.0,15.0,10.0,33.0
6.0724334716796875,35.0,19.0,1296.0,1175.0,5224.0,4785.0,2557.0,743.0,30.0,52.0,722.0,17.0,42.0
6.075250148773193,57.0,1668.0,3414.0,1121.0,5088.0,4785.0,1659.0,19.0,33.0,10.0,53.0,12.0,50.0
6.078066825866699,29.0,2600.0,5747.0,3891.0,6214.0,3465.0,5617.0,2957.0,1309.0,6.0,1528.0,5.0,12.0
6.080883502960205,0.0,3650.0,7063.0,6524.0,5148.0,6296.0,4582.0,3646.0,2585.0,493.0,1053.0,12.0,60.0
6.083700180053711,19.0,2488.0,3404.0,9084.0,10304.0,8676.0,8300.0,4335.0,1792.0,1231.0,43.0,18.0,29.0
6.086516857147217,39.0,1325.0,7053.0,12484.0,11288.0,11056.0,5866.0,3384.0,2751.0,1079.0,52.0,9.0,15.0
6.089383125305176,50.0,2739.0,7218.0,16536.0,15700.0,12252.0,4261.0,2721.0,4534.0,987.0,60.0,0.0,32.0
6.092199802398682,37.0,6041.0,12896.0,14472.0,15728.0,12092.0,11732.0,3721.0,6124.0,895.0,363.0,26.0,37.0
6.0950164794921875,45.0,5248.0,12416.0,17660.0,10316.0,16000.0,10808.0,4721.0,6254.0,695.0,437.0,52.0,41.0
6.097833156585693,11.0,9224.0,12696.0,17648.0,18856.0,13840.0,14016.0,11848.0,7683.0,3139.0,512.0,49.0,16.0
6.100649833679199,27.0,8672.0,12972.0,17632.0,20648.0,11680.0,15072.0,9960.0,8212.0,2408.0,353.0,36.0,20.0
6.103466510772705,5.0,6529.0,13672.0,20936.0,16348.0,15528.0,13968.0,9480.0,2400.0,1677.0,205.0,44.0,25.0
6.106349945068359,13.0,6378.0,14372.0,20824.0,20436.0,17344.0,11536.0,6761.0,5881.0,3650.0,57.0,36.0,175.0
6.109166622161865,20.0,6215.0,13156.0,20712.0,20784.0,23232.0,11968.0,7361.0,8052.0,3880.0,35.0,27.0,101.0
6.111983299255371,25.0,5943.0,11940.0,17104.0,21440.0,23456.0,13164.0,6158.0,6178.0,1947.0,13.0,22.0,27.0
6.114799976348877,26.0,5671.0,12140.0,12884.0,17348.0,15960.0,11856.0,6349.0,6587.0,3109.0,15.0,26.0,5.0
6.117616653442383,26.0,7624.0,14544.0,23500.0,18056.0,11724.0,14532.0,6541.0,4090.0,1930.0,17.0,30.0,44.0
6.120433330535889,16.0,7365.0,14728.0,23072.0,18388.0,12552.0,15684.0,6554.0,5501.0,1685.0,15.0,28.0,18.0
6.123316764831543,6.0,4969.0,14908.0,13872.0,18148.0,11928.0,10796.0,6502.0,5461.0,2860.0,165.0,175.0,37.0
6.126133441925049,19.0,2573.0,8688.0,21400.0,17908.0,11564.0,11640.0,6450.0,5421.0,1115.0,316.0,321.0,112.0
6.128950119018555,12.0,4610.0,11348.0,15680.0,18932.0,11204.0,11748.0,7464.0,5491.0,753.0,755.0,163.0,58.0
6.1317667961120605,5.0,5074.0,10540.0,13608.0,16464.0,10696.0,10208.0,9736.0,3393.0,2156.0,389.0,5.0,5.0
6.134583473205566,5.0,5539.0,9908.0,16008.0,12884.0,9456.0,7187.0,9492.0,6291.0,2266.0,23.0,27.0,46.0
6.137400150299072,5.0,5696.0,10536.0,16056.0,6783.0,8216.0,10904.0,6940.0,3478.0,2087.0,778.0,22.0,46.0
6.1402668952941895,25.0,5298.0,9668.0,17104.0,11580.0,9660.0,5633.0,4029.0,2202.0,711.0,728.0,5.0,33.0
6.143083095550537,13.0,5356.0,4458.0,16268.0,10988.0,11104.0,6675.0,2946.0,35.0,247.0,1297.0,11.0,30.0
6.145899772644043,0.0,4046.0,8652.0,4529.0,8130.0,5080.0,6704.0,7694.0,2283.0,28.0,24.0,16.0,7.0
6.148716449737549,0.0,2737.0,9032.0,11040.0,8108.0,11784.0,5621.0,1997.0,2534.0,790.0,111.0,16.0,12.0
6.151533126831055,0.0,4678.0,4527.0,10708.0,7194.0,6608.0,7371.0,5363.0,2979.0,400.0,501.0,47.0,5.0
6.1543498039245605,27.0,4230.0,5728.0,3110.0,7804.0,5643.0,4839.0,2547.0,1723.0,11.0,262.0,336.0,10.0
6.157233238220215,23.0,3783.0,5401.0,8776.0,3549.0,6816.0,3926.0,2259.0,773.0,10.0,23.0,176.0,26.0
6.160049915313721,19.0,2164.0,4921.0,1616.0,6193.0,2176.0,2162.0,34.0,2309.0,57.0,620.0,16.0,18.0
6.162866592407227,0.0,3012.0,3715.0,3864.0,4231.0,3058.0,2111.0,3296.0,229.0,38.0,323.0,59.0,10.0
6.165683269500732,0.0,802.0,2109.0,1841.0,2964.0,3311.0,2072.0,424.0,1016.0,18.0,26.0,79.0,20.0
6.168499946594238,13.0,4342.0,3045.0,1741.0,1481.0,2714.0,3341.0,12.0,13.0,29.0,13.0,0.0,15.0
6.171316623687744,15.0,17.0,995.0,1643.0,40.0,255.0,3047.0,2077.0,28.0,40.0,15.0,45.0,10.0
6.174200057983398,16.0,145.0,146.0,709.0,250.0,1061.0,266.0,745.0,19.0,30.0,30.0,15.0,5.0
6.177016735076904,19.0,0.0,531.0,2284.0,464.0,647.0,10.0,42.0,24.0,25.0,27.0,11.0,0.0
6.17983341217041,25.0,10.0,941.0,505.0,678.0,450.0,906.0,22.0,29.0,14.0,15.0,23.0,25.0
6.182650089263916,31.0,117.0,51.0,1713.0,985.0,15.0,1151.0,34.0,26.0,13.0,16.0,24.0,21.0
6.185466766357422,33.0,22.0,419.0,16.0,1056.0,23.0,856.0,15.0,22.0,12.0,17.0,25.0,0.0
6.188283443450928,34.0,22.0,46.0,56.0,975.0,5.0,23.0,5.0,22.0,22.0,35.0,17.0,30.0
6.191166877746582,7.0,30.0,27.0,986.0,43.0,10.0,891.0,26.0,7.0,0.0,32.0,20.0,32.0
6.193983554840088,4.0,0.0,27.0,730.0,10.0,10.0,34.0,18.0,32.0,10.0,29.0,23.0,25.0
6.196800231933594,0.0,12.0,21.0,474.0,19.0,10.0,66.0,10.0,16.0,24.0,5.0,16.0,31.0
6.199616432189941,3.0,33.0,264.0,15.0,37.0,25.0,806.0,27.0,0.0,37.0,30.0,0.0,5.0
6.202433109283447,5.0,40.0,135.0,5.0,30.0,40.0,46.0,25.0,28.0,37.0,48.0,36.0,20.0
6.205249786376953,10.0,23.0,5.0,19.0,22.0,42.0,11.0,22.0,26.0,36.0,47.0,45.0,5.0
6.20811653137207,20.0,5.0,38.0,0.0,0.0,18.0,31.0,24.0,11.0,23.0,46.0,12.0,20.0
6.210933208465576,33.0,5.0,291.0,17.0,41.0,37.0,23.0,27.0,47.0,17.0,40.0,10.0,11.0
6.213749885559082,40.0,11.0,160.0,33.0,5.0,26.0,14.0,26.0,35.0,17.0,0.0,21.0,10.0
6.216566562652588,35.0,15.0,29.0,36.0,5.0,35.0,5.0,24.0,10.0,0.0,15.0,19.0,5.0
6.219383239746094,25.0,20.0,163.0,0.0,30.0,32.0,7.0,25.0,29.0,20.0,37.0,17.0,55.0
6.222216606140137,52.0,51.0,78.0,54.0,18.0,29.0,18.0,18.0,5.0,39.0,5.0,5.0,61.0
6.22504997253418,42.0,45.0,18.0,6.0,0.0,33.0,9.0,10.0,5.0,40.0,5.0,27.0,31.0
6.2278666496276855,15.0,27.0,23.0,5.0,335.0,8.0,0.0,0.0,13.0,26.0,15.0,17.0,15.0
6.230683326721191,11.0,48.0,27.0,15.0,183.0,24.0,35.0,20.0,11.0,10.0,24.0,6.0,30.0
6.233500003814697,68.0,5.0,14.0,33.0,31.0,40.0,37.0,26.0,9.0,33.0,23.0,19.0,5.0
6.236316680908203,56.0,41.0,0.0,24.0,16.0,20.0,28.0,16.0,12.0,22.0,5.0,31.0,0.0
6.23918342590332,25.0,41.0,12.0,15.0,0.0,43.0,16.0,16.0,13.0,12.0,22.0,33.0,22.0
6.242016792297363,30.0,41.0,23.0,37.0,30.0,22.0,50.0,11.0,14.0,10.0,10.0,19.0,14.0
6.244833469390869,34.0,29.0,23.0,21.0,18.0,0.0,38.0,6.0,28.0,31.0,36.0,5.0,19.0
6.247650146484375,15.0,502.0,12.0,5.0,0.0,10.0,26.0,9.0,19.0,39.0,30.0,28.0,13.0
6.250466823577881,29.0,274.0,0.0,25.0,3.0,31.0,16.0,11.0,10.0,5.0,10.0,26.0,44.0
6.253283500671387,82.0,46.0,13.0,16.0,6.0,53.0,12.0,15.0,10.0,28.0,31.0,22.0,38.0
6.256133556365967,73.0,39.0,9.0,5.0,27.0,57.0,13.0,14.0,10.0,23.0,44.0,17.0,32.0
6.258983135223389,21.0,286.0,5.0,31.0,26.0,45.0,14.0,12.0,18.0,23.0,20.0,62.0,10.0
6.2617998123168945,46.0,35.0,35.0,10.0,0.0,13.0,37.0,13.0,26.0,22.0,17.0,50.0,30.0
6.2646164894104,71.0,39.0,35.0,41.0,15.0,29.0,60.0,20.0,36.0,17.0,7.0,37.0,24.0
6.267433166503906,8.0,39.0,45.0,232.0,10.0,7.0,54.0,26.0,48.0,22.0,28.0,19.0,17.0
6.270249843597412,17.0,29.0,11.0,122.0,5.0,22.0,30.0,19.0,37.0,5.0,31.0,7.0,17.0
6.273099899291992,39.0,5.0,23.0,13.0,24.0,36.0,10.0,12.0,28.0,29.0,50.0,42.0,8.0
6.275933265686035,22.0,17.0,7.0,12.0,22.0,22.0,25.0,10.0,5.0,16.0,28.0,10.0,14.0
6.278749942779541,13.0,28.0,15.0,22.0,23.0,15.0,13.0,17.0,8.0,0.0,6.0,18.0,19.0
6.281566619873047,27.0,31.0,23.0,24.0,25.0,20.0,14.0,40.0,11.0,32.0,26.0,16.0,20.0
6.284383296966553,6.0,38.0,18.0,10.0,58.0,10.0,15.0,33.0,25.0,58.0,19.0,27.0,14.0
6.287199974060059,28.0,5.0,12.0,11.0,38.0,15.0,10.0,35.0,29.0,49.0,12.0,31.0,39.0
6.290066719055176,10.0,8.0,25.0,12.0,18.0,20.0,5.0,33.0,37.0,17.0,22.0,28.0,33.0
6.292900085449219,51.0,10.0,36.0,0.0,29.0,15.0,16.0,31.0,24.0,78.0,14.0,26.0,29.0
6.295716762542725,29.0,8.0,21.0,13.0,30.0,15.0,41.0,32.0,21.0,15.0,5.0,20.0,32.0
