,344.2099914550781,345.2099914550781,346.2099914550781,347.2099914550781,348.2099914550781,349.2099914550781,350.2099914550781,351.2099914550781
2.3018667697906494,367.0,12.0,13.0,21.0,25.0,11.0,37.0,5.0
2.3036000728607178,27.0,13.0,32.0,11.0,23.0,7.0,61.0,47.0
2.305333375930786,13.0,27.0,27.0,46.0,18.0,36.0,22.0,0.0
2.307133436203003,45.0,5.0,0.0,5.0,33.0,15.0,5.0,43.0
2.3088667392730713,29.0,10.0,12.0,5.0,0.0,30.0,25.0,28.0
2.3106000423431396,5.0,14.0,13.0,5.0,53.0,0.0,16.0,34.0
2.312333345413208,6.0,21.0,5.0,10.0,33.0,26.0,32.0,21.0
2.3140666484832764,7.0,20.0,12.0,10.0,14.0,20.0,29.0,0.0
2.3157999515533447,5.0,0.0,18.0,10.0,20.0,6.0,26.0,38.0
2.317533254623413,5.0,10.0,14.0,5.0,8.0,17.0,32.0,0.0
2.3192665576934814,14.0,10.0,10.0,14.0,0.0,12.0,40.0,324.0
2.321000099182129,16.0,0.0,0.0,13.0,18.0,6.0,5.0,168.0
2.3227334022521973,17.0,16.0,4.0,11.0,24.0,14.0,32.0,12.0
2.324516773223877,24.0,12.0,8.0,16.0,12.0,33.0,11.0,37.0
2.3262500762939453,27.0,7.0,12.0,11.0,0.0,30.0,0.0,8.0
2.3279833793640137,29.0,0.0,17.0,5.0,12.0,27.0,32.0,33.0
2.329716682434082,25.0,4.0,21.0,5.0,24.0,37.0,26.0,32.0
2.3314499855041504,23.0,7.0,19.0,5.0,20.0,21.0,10.0,23.0
2.3331832885742188,31.0,10.0,13.0,6.0,15.0,27.0,10.0,0.0
2.334916591644287,28.0,13.0,13.0,7.0,35.0,18.0,9.0,3.0
2.3366498947143555,44.0,7.0,12.0,47.0,30.0,27.0,8.0,5.0
2.338383436203003,0.0,0.0,30.0,47.0,25.0,43.0,21.0,8.0
2.3401665687561035,20.0,0.0,32.0,61.0,19.0,50.0,43.0,10.0
2.341916561126709,12.0,0.0,14.0,21.0,10.0,70.0,28.0,18.0
2.3436501026153564,0.0,0.0,29.0,24.0,8.0,0.0,12.0,13.0
2.345383405685425,30.0,5.0,5.0,10.0,5.0,0.0,17.0,7.0
2.347116708755493,28.0,5.0,21.0,5.0,62.0,5.0,21.0,5.0
2.3488500118255615,44.0,5.0,0.0,5.0,58.0,5.0,10.0,6.0
2.35058331489563,0.0,3.0,19.0,11.0,26.0,8.0,17.0,7.0
2.3523166179656982,47.0,0.0,10.0,16.0,51.0,52.0,24.0,7.0
2.3540499210357666,12.0,0.0,40.0,18.0,0.0,30.0,42.0,6.0
2.355783224105835,16.0,0.0,74.0,19.0,0.0,7.0,127.0,35.0
2.3575832843780518,24.0,32.0,39.0,35.0,14.0,20.0,80.0,29.0
2.35931658744812,26.0,37.0,5.0,31.0,5.0,5.0,33.0,23.0
2.3610498905181885,0.0,5.0,38.0,0.0,6.0,23.0,5.0,7.0
2.362783432006836,17.0,22.0,20.0,15.0,7.0,23.0,42.0,28.0
2.3645167350769043,31.0,11.0,12.0,34.0,14.0,23.0,8.0,38.0
2.3662500381469727,18.0,0.0,38.0,20.0,14.0,0.0,30.0,28.0
2.367983341217041,8.0,7.0,0.0,6.0,14.0,23.0,7.0,17.0
2.3697166442871094,11.0,5.0,24.0,0.0,12.0,5.0,0.0,0.0
2.3714499473571777,13.0,31.0,27.0,38.0,9.0,12.0,12.0,6.0
2.373183250427246,0.0,28.0,5.0,28.0,14.0,18.0,6.0,11.0
2.374966621398926,27.0,20.0,26.0,28.0,18.0,5.0,0.0,16.0
2.376699924468994,26.0,12.0,0.0,14.0,21.0,12.0,0.0,27.0
2.3784332275390625,25.0,18.0,19.0,21.0,11.0,0.0,0.0,19.0
2.38016676902771,24.0,23.0,5.0,27.0,0.0,31.0,0.0,11.0
2.3819000720977783,14.0,26.0,13.0,10.0,11.0,25.0,0.0,32.0
2.3836333751678467,14.0,6.0,20.0,35.0,17.0,17.0,4.0,15.0
2.385366678237915,0.0,28.0,12.0,10.0,18.0,20.0,7.0,29.0
2.3870999813079834,6.0,27.0,22.0,28.0,12.0,15.0,23.0,21.0
2.3888332843780518,18.0,26.0,0.0,32.0,5.0,23.0,19.0,5.0
2.39056658744812,17.0,5.0,59.0,22.0,0.0,8.0,0.0,17.0
2.392366647720337,15.0,38.0,72.0,33.0,5.0,18.0,6.0,29.0
2.3940999507904053,14.0,24.0,24.0,5.0,8.0,0.0,0.0,27.0
2.3958332538604736,5.0,11.0,18.0,0.0,23.0,12.0,0.0,24.0
2.397566556930542,28.0,22.0,28.0,3.0,44.0,10.0,0.0,10.0
2.3993000984191895,21.0,19.0,28.0,6.0,38.0,26.0,0.0,15.0
2.4021167755126953,29.0,10.0,28.0,6.0,5.0,31.0,0.0,19.0
2.404933214187622,22.0,0.0,32.0,19.0,20.0,41.0,18.0,20.0
2.407749891281128,15.0,12.0,35.0,28.0,19.0,22.0,17.0,21.0
2.410616636276245,0.0,0.0,18.0,23.0,14.0,22.0,16.0,11.0
2.413433313369751,20.0,5.0,18.0,23.0,8.0,43.0,32.0,0.0
2.416266679763794,5.0,22.0,17.0,16.0,11.0,11.0,22.0,25.0
2.4190833568573,10.0,28.0,25.0,9.0,14.0,10.0,11.0,29.0
2.4219000339508057,30.0,39.0,27.0,5.0,5.0,27.0,8.0,0.0
2.4247167110443115,20.0,86.0,18.0,0.0,5.0,31.0,5.0,0.0
2.4275500774383545,10.0,50.0,13.0,5.0,5.0,12.0,20.0,20.0
2.4303834438323975,8.0,15.0,29.0,33.0,3.0,22.0,26.0,15.0
2.433199882507324,5.0,20.0,28.0,22.0,0.0,24.0,18.0,38.0
2.43601655960083,5.0,24.0,27.0,11.0,5.0,38.0,14.0,27.0
2.438833236694336,5.0,0.0,21.0,12.0,6.0,22.0,23.0,40.0
2.441683292388916,0.0,9.0,30.0,12.0,0.0,5.0,21.0,22.0
2.444533348083496,34.0,17.0,24.0,5.0,3.0,41.0,19.0,5.0
2.447350025177002,29.0,18.0,17.0,28.0,5.0,5.0,21.0,26.0
2.450166702270508,14.0,9.0,30.0,14.0,15.0,29.0,29.0,0.0
2.4529833793640137,21.0,0.0,19.0,0.0,12.0,15.0,664.0,21.0
2.4558000564575195,6.0,0.0,20.0,5.0,0.0,0.0,546.0,10.0
2.4586501121520996,20.0,0.0,0.0,29.0,0.0,7.0,6.0,19.0
2.4614999294281006,0.0,0.0,15.0,24.0,0.0,5.0,33.0,7.0
2.4643166065216064,19.0,0.0,24.0,18.0,3.0,10.0,22.0,30.0
2.4671332836151123,12.0,0.0,20.0,12.0,6.0,14.0,11.0,32.0
2.469949960708618,34.0,3.0,10.0,9.0,12.0,13.0,18.0,33.0
2.472766637802124,40.0,5.0,60.0,5.0,11.0,15.0,20.0,17.0
2.475616693496704,20.0,13.0,35.0,0.0,10.0,16.0,26.0,0.0
2.478466749191284,22.0,21.0,10.0,7.0,10.0,0.0,25.0,5.0
2.48128342628479,11.0,305.0,29.0,14.0,10.0,11.0,18.0,0.0
2.484100103378296,32.0,162.0,27.0,102.0,5.0,20.0,12.0,0.0
2.4869167804718018,0.0,18.0,24.0,63.0,0.0,17.0,13.0,0.0
2.4897332191467285,3.0,22.0,24.0,25.0,19.0,13.0,15.0,12.0
2.4925832748413086,5.0,91.0,24.0,17.0,22.0,18.0,17.0,24.0
2.4954333305358887,16.0,25.0,23.0,31.0,21.0,24.0,6.0,19.0
2.4982500076293945,11.0,10.0,22.0,5.0,16.0,30.0,22.0,13.0
2.5010666847229004,5.0,36.0,20.0,38.0,0.0,25.0,10.0,16.0
2.5038833618164062,6.0,23.0,5.0,17.0,10.0,15.0,10.0,17.0
2.506700038909912,10.0,13.0,9.0,10.0,0.0,18.0,25.0,0.0
2.509550094604492,13.0,12.0,12.0,10.0,14.0,5.0,21.0,12.0
2.512399911880493,31.0,23.0,12.0,0.0,18.0,6.0,17.0,23.0
2.515216588973999,43.0,14.0,21.0,6.0,22.0,16.0,36.0,31.0
2.518033266067505,35.0,5.0,30.0,11.0,16.0,8.0,5.0,39.0
2.5208499431610107,27.0,19.0,0.0,8.0,10.0,0.0,21.0,5.0
2.5236666202545166,34.0,26.0,0.0,5.0,12.0,5.0,19.0,27.0
2.5265166759490967,11.0,32.0,21.0,5.0,21.0,10.0,0.0,27.0
2.5293667316436768,35.0,51.0,22.0,5.0,30.0,8.0,11.0,25.0
2.5321834087371826,42.0,47.0,23.0,20.0,25.0,5.0,15.0,26.0
2.5350000858306885,0.0,7.0,22.0,18.0,10.0,0.0,10.0,10.0
2.5378167629241943,20.0,16.0,20.0,15.0,6.0,30.0,5.0,22.0
2.5406334400177,0.0,20.0,15.0,21.0,6.0,27.0,18.0,5.0
2.543466567993164,24.0,23.0,18.0,21.0,6.0,15.0,0.0,12.0
2.54628324508667,13.0,9.0,35.0,5.0,5.0,20.0,24.0,0.0
2.549099922180176,25.0,0.0,26.0,20.0,12.0,10.0,0.0,15.0
2.5519165992736816,0.0,30.0,16.0,34.0,14.0,0.0,0.0,9.0
2.5547332763671875,5.0,20.0,15.0,28.0,13.0,9.0,8.0,33.0
2.5575499534606934,10.0,5.0,228.0,11.0,5.0,17.0,21.0,20.0
2.5604333877563477,8.0,14.0,440.0,105.0,14.0,23.0,16.0,6.0
2.5632500648498535,0.0,22.0,2430.0,64.0,10.0,18.0,11.0,29.0
2.5660667419433594,39.0,14.0,3093.0,23.0,18.0,12.0,11.0,23.0
2.5688834190368652,32.0,6.0,3406.0,26.0,16.0,5.0,21.0,30.0
2.571700096130371,0.0,19.0,3718.0,481.0,14.0,12.0,29.0,17.0
2.574516773223877,43.0,32.0,3012.0,738.0,0.0,19.0,38.0,0.0
2.577399969100952,10.0,41.0,5038.0,696.0,5.0,23.0,23.0,24.0
2.580216646194458,13.0,11.0,7064.0,653.0,22.0,5.0,6.0,27.0
2.583033323287964,41.0,52.0,9468.0,15.0,17.0,15.0,16.0,15.0
2.5858500003814697,12.0,31.0,6654.0,40.0,8.0,6.0,0.0,26.0
2.5886666774749756,14.0,0.0,7939.0,808.0,10.0,40.0,5.0,22.0
2.5914833545684814,13.0,6.0,4196.0,826.0,12.0,40.0,10.0,14.0
2.5943665504455566,13.0,22.0,5871.0,113.0,6.0,29.0,5.0,5.0
2.5971832275390625,12.0,25.0,7545.0,361.0,0.0,23.0,0.0,23.0
2.5999999046325684,0.0,16.0,8184.0,702.0,16.0,17.0,4.0,5.0
2.602816581726074,44.0,7.0,8824.0,20.0,31.0,13.0,7.0,20.0
2.60563325881958,35.0,40.0,11588.0,1191.0,26.0,13.0,4.0,18.0
2.608449935913086,26.0,34.0,13832.0,776.0,21.0,12.0,0.0,32.0
2.6113333702087402,44.0,27.0,4482.0,425.0,15.0,10.0,6.0,33.0
2.614150047302246,5.0,25.0,12560.0,650.0,11.0,8.0,13.0,33.0
2.616966724395752,30.0,23.0,16444.0,875.0,6.0,6.0,33.0,17.0
2.619783401489258,55.0,15.0,8732.0,38.0,11.0,20.0,36.0,44.0
2.6226000785827637,54.0,15.0,10280.0,185.0,22.0,27.0,12.0,0.0
2.6254167556762695,35.0,6.0,13060.0,331.0,293.0,23.0,7.0,10.0
2.6282999515533447,6.0,36.0,6441.0,346.0,154.0,18.0,8.0,12.0
2.6311166286468506,26.0,39.0,3425.0,361.0,15.0,14.0,6.0,25.0
2.6339333057403564,30.0,6.0,3516.0,28.0,5.0,17.0,12.0,27.0
2.6367499828338623,13.0,35.0,4929.0,33.0,19.0,26.0,18.0,31.0
2.639566659927368,0.0,24.0,844.0,5.0,193.0,35.0,26.0,35.0
2.642383337020874,5.0,28.0,535.0,781.0,116.0,27.0,34.0,6.0
2.645216703414917,10.0,30.0,2700.0,674.0,39.0,29.0,28.0,6.0
2.648033380508423,8.0,32.0,1996.0,19.0,6.0,30.0,37.0,5.0
2.6508500576019287,5.0,32.0,826.0,16.0,11.0,0.0,12.0,27.0
2.6536667346954346,6.0,34.0,13.0,403.0,6.0,27.0,10.0,31.0
2.6564834117889404,6.0,27.0,23.0,285.0,17.0,42.0,24.0,13.0
2.6593000888824463,11.0,27.0,30.0,168.0,17.0,26.0,38.0,7.0
2.6621832847595215,15.0,26.0,32.0,58.0,16.0,24.0,401.0,0.0
2.6649999618530273,11.0,26.0,34.0,11.0,20.0,11.0,765.0,19.0
2.667816638946533,6.0,26.0,10.0,1097.0,131.0,1541.0,670.0,25.0
2.670633316040039,12.0,859.0,1154.0,1527.0,242.0,1441.0,0.0,647.0
2.673449993133545,17.0,696.0,2297.0,6847.0,254.0,2010.0,25.0,746.0
2.676266670227051,31.0,1769.0,5916.0,5212.0,1873.0,1542.0,515.0,22.0
2.679150104522705,27.0,1555.0,5224.0,8073.0,2900.0,2531.0,1803.0,39.0
2.681966781616211,21.0,3015.0,5523.0,10684.0,11116.0,7788.0,1634.0,606.0
2.6847832202911377,11.0,4475.0,14840.0,16756.0,15140.0,8009.0,2172.0,317.0
2.6875998973846436,16.0,5534.0,23924.0,25456.0,18652.0,9988.0,2725.0,28.0
2.6904165744781494,21.0,11704.0,27820.0,28372.0,23632.0,11244.0,4722.0,29.0
2.6932332515716553,23.0,15196.0,25460.0,34400.0,26444.0,10552.0,4452.0,343.0
2.6961166858673096,24.0,18960.0,26800.0,38128.0,38464.0,15360.0,4976.0,657.0
2.6989500522613525,24.0,15324.0,28136.0,39216.0,34288.0,14040.0,3059.0,685.0
2.7017667293548584,0.0,12396.0,34832.0,49184.0,32944.0,20420.0,7137.0,714.0
2.7045834064483643,11.0,15012.0,35536.0,58048.0,40032.0,22232.0,8624.0,64.0
2.70740008354187,18.0,13388.0,34368.0,53408.0,38032.0,12216.0,8196.0,11.0
2.710216760635376,48.0,21632.0,37568.0,46976.0,39824.0,25944.0,5819.0,18.0
2.71304988861084,40.0,20796.0,31364.0,64784.0,41616.0,28676.0,6451.0,397.0
2.7158665657043457,8.0,19956.0,55600.0,43344.0,44928.0,29052.0,7975.0,400.0
2.7186832427978516,15.0,19020.0,49856.0,54688.0,48224.0,21056.0,6394.0,765.0
2.7214999198913574,16.0,18084.0,61776.0,50352.0,46368.0,20952.0,3662.0,1130.0
2.7243165969848633,19.0,22616.0,57312.0,58480.0,44496.0,26432.0,5073.0,870.0
2.727133274078369,19.0,20888.0,40144.0,61920.0,46096.0,21604.0,5383.0,1018.0
2.7300167083740234,22.0,19160.0,46816.0,56928.0,41344.0,18056.0,6184.0,833.0
2.7328333854675293,25.0,21164.0,42176.0,51936.0,45312.0,25012.0,5734.0,25.0
2.735650062561035,0.0,23168.0,30928.0,44880.0,35456.0,20372.0,5285.0,309.0
2.738466739654541,6.0,21980.0,48608.0,50288.0,41184.0,20504.0,6244.0,593.0
2.741283416748047,5.0,20788.0,38752.0,34704.0,29876.0,14792.0,4201.0,24.0
2.7441000938415527,0.0,10364.0,44352.0,30992.0,32232.0,12476.0,4338.0,14.0
2.746983289718628,29.0,14392.0,34096.0,24800.0,22948.0,15184.0,767.0,46.0
2.749799966812134,25.0,7961.0,26332.0,24096.0,12276.0,9592.0,2485.0,15.0
2.7526166439056396,20.0,11624.0,20564.0,18504.0,13332.0,8728.0,4539.0,37.0
2.7554333209991455,0.0,4615.0,11224.0,17076.0,8400.0,3375.0,4150.0,466.0
2.7582499980926514,7.0,2641.0,9396.0,7903.0,9612.0,4806.0,60.0,560.0
2.7610666751861572,14.0,5911.0,9356.0,4568.0,5947.0,3126.0,23.0,0.0
2.7639501094818115,42.0,2789.0,5450.0,5214.0,4360.0,2002.0,543.0,5.0
2.7667665481567383,26.0,336.0,3681.0,2896.0,6940.0,1482.0,714.0,10.0
2.769583225250244,10.0,294.0,12.0,4011.0,488.0,699.0,886.0,12.0
2.772416591644287,6.0,306.0,1752.0,5127.0,903.0,24.0,689.0,14.0
2.775233268737793,14.0,160.0,331.0,1848.0,13.0,1535.0,491.0,39.0
2.778049945831299,5.0,14.0,259.0,4085.0,21.0,646.0,18.0,48.0
2.780883312225342,5.0,579.0,1267.0,1043.0,28.0,5.0,52.0,25.0
2.7836999893188477,5.0,1143.0,1289.0,785.0,27.0,6.0,10.0,5.0
2.7865166664123535,10.0,587.0,1012.0,1732.0,26.0,822.0,10.0,37.0
2.7893333435058594,5.0,31.0,735.0,2008.0,566.0,9.0,14.0,38.0
2.7921500205993652,0.0,91.0,872.0,2283.0,289.0,31.0,18.0,27.0
2.794966697692871,0.0,21.0,918.0,727.0,11.0,54.0,20.0,0.0
2.7978498935699463,13.0,205.0,470.0,369.0,446.0,213.0,20.0,10.0
2.800666570663452,28.0,110.0,21.0,11.0,232.0,113.0,20.0,20.0
2.803483247756958,23.0,14.0,311.0,18.0,18.0,12.0,18.0,18.0
2.806299924850464,9.0,12.0,601.0,25.0,441.0,5.0,16.0,15.0
2.8091166019439697,5.0,10.0,33.0,28.0,227.0,15.0,6.0,11.0
2.8119332790374756,34.0,8.0,695.0,31.0,12.0,10.0,8.0,0.0
2.81481671333313,30.0,6.0,14.0,23.0,21.0,5.0,10.0,28.0
2.8176333904266357,26.0,11.0,752.0,18.0,29.0,14.0,5.0,24.0
2.8204500675201416,32.0,0.0,35.0,13.0,292.0,574.0,0.0,20.0
2.8232667446136475,38.0,10.0,545.0,207.0,156.0,463.0,21.0,34.0
2.8260834217071533,32.0,20.0,14.0,111.0,20.0,12.0,34.0,5.0
2.828900098800659,26.0,26.0,5.0,14.0,6.0,20.0,39.0,0.0
2.8317832946777344,10.0,10.0,24.0,329.0,14.0,313.0,43.0,41.0
2.8345999717712402,14.0,0.0,21.0,780.0,36.0,45.0,28.0,5.0
2.837416648864746,18.0,29.0,11.0,609.0,36.0,24.0,13.0,9.0
2.840233325958252,12.0,5.0,11.0,61.0,320.0,43.0,17.0,10.0
2.843050003051758,17.0,13.0,25.0,37.0,320.0,43.0,13.0,87.0
2.845883369445801,11.0,20.0,22.0,37.0,321.0,27.0,8.0,104.0
2.8487167358398438,5.0,22.0,14.0,46.0,161.0,16.0,5.0,57.0
2.8515334129333496,5.0,34.0,10.0,18.0,0.0,5.0,3.0,17.0
2.8543500900268555,5.0,36.0,6.0,19.0,5.0,23.0,0.0,0.0
2.8571667671203613,3.0,34.0,47.0,35.0,0.0,6.0,15.0,0.0
2.859983444213867,0.0,34.0,44.0,33.0,76.0,15.0,25.0,3.0
2.862799882888794,6.0,33.0,26.0,29.0,41.0,5.0,21.0,5.0
2.8656833171844482,23.0,17.0,19.0,0.0,5.0,13.0,17.0,5.0
2.868499994277954,14.0,16.0,11.0,7.0,40.0,31.0,0.0,5.0
2.87131667137146,5.0,14.0,20.0,14.0,5.0,26.0,13.0,5.0
2.874133348464966,21.0,5.0,26.0,29.0,33.0,13.0,25.0,15.0
2.8769500255584717,29.0,11.0,0.0,277.0,41.0,0.0,22.0,304.0
2.8797667026519775,37.0,17.0,13.0,179.0,49.0,5.0,24.0,160.0
2.8826498985290527,16.0,11.0,14.0,82.0,8.0,10.0,0.0,15.0
2.8854665756225586,18.0,5.0,15.0,30.0,23.0,15.0,26.0,17.0
2.8882832527160645,5.0,6.0,20.0,0.0,37.0,26.0,21.0,7.0
2.8910999298095703,27.0,7.0,25.0,5.0,0.0,33.0,5.0,8.0
2.893916606903076,26.0,5.0,5.0,13.0,4.0,5.0,41.0,12.0
2.896733283996582,19.0,0.0,14.0,13.0,8.0,6.0,60.0,6.0
2.8996167182922363,25.0,5.0,15.0,13.0,5.0,34.0,33.0,0.0
2.902433395385742,19.0,58.0,15.0,118.0,0.0,19.0,7.0,17.0
2.905250072479248,13.0,44.0,7.0,78.0,3.0,24.0,0.0,8.0
2.908083438873291,23.0,30.0,38.0,37.0,5.0,24.0,14.0,14.0
2.910900115966797,9.0,0.0,712.0,17.0,20.0,23.0,44.0,40.0
2.9137165546417236,7.0,18.0,818.0,19.0,21.0,14.0,236.0,40.0
2.9165499210357666,11.0,31.0,7.0,20.0,21.0,24.0,121.0,28.0
2.9193665981292725,28.0,34.0,20.0,26.0,2211.0,24.0,5.0,15.0
2.9221832752227783,22.0,36.0,23.0,32.0,2104.0,23.0,357.0,1083.0
2.924999952316284,16.0,32.0,11.0,19.0,1349.0,41.0,430.0,937.0
2.92781662940979,55.0,27.0,14.0,5.0,1032.0,30.0,503.0,592.0
2.930633306503296,49.0,30.0,16.0,144.0,1052.0,18.0,15.0,312.0
2.93351674079895,15.0,32.0,18.0,283.0,1143.0,28.0,13.0,32.0
2.936333417892456,80.0,57.0,20.0,594.0,1234.0,39.0,968.0,47.0
2.939150094985962,51.0,54.0,19.0,330.0,592.0,446.0,937.0,37.0
2.9419667720794678,86.0,46.0,17.0,66.0,573.0,853.0,50.0,26.0
2.9447834491729736,87.0,38.0,44.0,356.0,1083.0,1015.0,511.0,508.0
2.9475998878479004,88.0,88.0,47.0,646.0,1203.0,895.0,1869.0,318.0
2.9504833221435547,69.0,82.0,51.0,679.0,1324.0,776.0,1484.0,127.0
2.9532999992370605,99.0,76.0,36.0,661.0,1388.0,63.0,33.0,313.0
2.9561166763305664,102.0,29.0,21.0,74.0,1440.0,1303.0,77.0,499.0
2.9589333534240723,105.0,102.0,38.0,990.0,1600.0,599.0,24.0,474.0
2.961750030517578,101.0,57.0,55.0,752.0,1761.0,7.0,1160.0,69.0
2.964566707611084,118.0,93.0,89.0,515.0,1848.0,1025.0,1606.0,769.0
2.967449903488159,119.0,56.0,77.0,1164.0,1935.0,470.0,2570.0,848.0
2.970266580581665,115.0,63.0,66.0,25.0,1411.0,1123.0,2053.0,50.0
2.973083257675171,117.0,60.0,75.0,393.0,48.0,590.0,2131.0,44.0
2.9758999347686768,61.0,60.0,46.0,39.0,821.0,812.0,43.0,25.0
2.9787166118621826,19.0,37.0,70.0,52.0,523.0,27.0,20.0,26.0
2.9815332889556885,38.0,38.0,86.0,32.0,25.0,11.0,46.0,27.0
2.9844167232513428,57.0,39.0,26.0,30.0,468.0,32.0,62.0,29.0
2.9872334003448486,51.0,34.0,16.0,35.0,32.0,25.0,10.0,31.0
2.9900500774383545,45.0,29.0,73.0,30.0,117.0,26.0,32.0,30.0
2.9928667545318604,58.0,0.0,41.0,25.0,54.0,26.0,54.0,33.0
2.995683431625366,24.0,51.0,32.0,32.0,0.0,30.0,59.0,36.0
