,301.2099914550781,302.2099914550781,303.2099914550781,304.2099914550781,305.2099914550781,306.2099914550781,307.2099914550781,308.2099914550781
5.201733112335205,20.0,31.0,1875.0,43.0,22.0,6.0,120.0,27.0
5.203466892242432,12.0,31.0,437.0,5.0,18.0,0.0,20.0,37.0
5.2052001953125,19.0,23.0,7.0,27.0,7.0,19.0,51.0,47.0
5.206933498382568,9.0,10.0,401.0,20.0,13.0,28.0,33.0,29.0
5.208666801452637,0.0,0.0,17.0,11.0,19.0,17.0,36.0,11.0
5.210400104522705,10.0,5.0,1738.0,25.0,26.0,5.0,55.0,10.0
5.212133407592773,11.0,9.0,1469.0,19.0,18.0,6.0,10.0,21.0
5.213866710662842,12.0,13.0,1604.0,12.0,10.0,6.0,61.0,5.0
5.21560001373291,21.0,18.0,822.0,24.0,7.0,10.0,15.0,0.0
5.217400074005127,19.0,16.0,40.0,26.0,51.0,11.0,19.0,20.0
5.219133377075195,18.0,5.0,35.0,28.0,44.0,11.0,23.0,23.0
5.220866680145264,23.0,5.0,2755.0,25.0,12.0,10.0,24.0,26.0
5.222599983215332,0.0,5.0,2471.0,15.0,10.0,13.0,28.0,11.0
5.2243332862854,5.0,61.0,2374.0,13.0,10.0,24.0,28.0,17.0
5.226066589355469,20.0,39.0,3224.0,11.0,34.0,21.0,28.0,28.0
5.227799892425537,27.0,17.0,1496.0,8.0,25.0,18.0,0.0,23.0
5.2295331954956055,24.0,13.0,3776.0,18.0,17.0,0.0,0.0,12.0
5.231266498565674,17.0,44.0,18.0,18.0,18.0,45.0,13.0,31.0
5.232999801635742,21.0,65.0,16.0,18.0,17.0,25.0,40.0,30.0
5.234799861907959,28.0,52.0,1833.0,28.0,21.0,6.0,32.0,0.0
5.236533164978027,21.0,7.0,1899.0,17.0,21.0,33.0,34.0,51.0
5.238266468048096,15.0,26.0,2030.0,5.0,22.0,38.0,35.0,59.0
5.239999771118164,0.0,35.0,824.0,27.0,42.0,52.0,65.0,33.0
5.241733551025391,13.0,19.0,0.0,25.0,37.0,16.0,40.0,20.0
5.243466854095459,0.0,23.0,5.0,23.0,7.0,5.0,15.0,24.0
5.245200157165527,10.0,46.0,144.0,5.0,24.0,26.0,25.0,10.0
5.246933460235596,0.0,5.0,129.0,37.0,21.0,27.0,17.0,10.0
5.248666763305664,0.0,76.0,46.0,31.0,17.0,29.0,13.0,8.0
5.250400066375732,5.0,78.0,59.0,25.0,6.0,30.0,26.0,5.0
5.252183437347412,21.0,23.0,10.0,37.0,5.0,29.0,10.0,16.0
5.2539167404174805,15.0,15.0,36.0,0.0,11.0,31.0,23.0,8.0
5.255650043487549,8.0,6.0,28.0,5.0,15.0,33.0,18.0,0.0
5.257383346557617,10.0,15.0,20.0,5.0,18.0,21.0,12.0,17.0
5.2591166496276855,11.0,15.0,22.0,10.0,0.0,26.0,13.0,0.0
5.260849952697754,15.0,15.0,22.0,15.0,26.0,21.0,6.0,30.0
5.262583255767822,18.0,27.0,5.0,22.0,27.0,23.0,29.0,18.0
5.264333248138428,23.0,13.0,45.0,22.0,28.0,26.0,41.0,6.0
5.266049861907959,31.0,0.0,38.0,23.0,18.0,17.0,38.0,0.0
5.267783164978027,29.0,5.0,31.0,34.0,28.0,18.0,16.0,10.0
5.269583225250244,26.0,6.0,26.0,6.0,37.0,20.0,31.0,20.0
5.2713165283203125,32.0,7.0,13.0,16.0,5.0,33.0,44.0,36.0
5.273049831390381,0.0,19.0,29.0,26.0,0.0,21.0,27.0,33.0
5.274783134460449,9.0,30.0,49.0,0.0,51.0,8.0,17.0,19.0
5.276516437530518,19.0,22.0,384.0,8.0,28.0,18.0,10.0,5.0
5.278250217437744,38.0,28.0,405.0,17.0,5.0,19.0,5.0,35.0
5.2799835205078125,37.0,0.0,27.0,22.0,15.0,21.0,18.0,5.0
5.281716823577881,109.0,21.0,5.0,28.0,32.0,18.0,18.0,25.0
5.283450126647949,99.0,36.0,26.0,27.0,0.0,15.0,18.0,15.0
5.285250186920166,22.0,51.0,5.0,34.0,40.0,8.0,8.0,5.0
5.286983489990234,39.0,51.0,17.0,35.0,5.0,17.0,0.0,16.0
5.288716793060303,25.0,51.0,32.0,35.0,5.0,28.0,25.0,18.0
5.290450096130371,21.0,27.0,40.0,34.0,5.0,19.0,16.0,13.0
5.2921833992004395,17.0,11.0,53.0,33.0,5.0,10.0,19.0,8.0
5.293916702270508,12.0,59.0,39.0,31.0,20.0,22.0,12.0,0.0
5.295650005340576,9.0,71.0,33.0,28.0,21.0,0.0,6.0,5.0
5.2973833084106445,5.0,46.0,21.0,20.0,30.0,24.0,18.0,9.0
5.299116611480713,5.0,20.0,5.0,12.0,18.0,24.0,12.0,12.0
5.300849914550781,3.0,23.0,33.0,12.0,5.0,27.0,6.0,23.0
5.302633285522461,0.0,16.0,42.0,18.0,10.0,16.0,44.0,19.0
5.304366588592529,31.0,34.0,0.0,12.0,6.0,21.0,24.0,12.0
5.306099891662598,42.0,0.0,19.0,7.0,11.0,23.0,5.0,13.0
5.307833194732666,43.0,50.0,7.0,16.0,18.0,25.0,32.0,23.0
5.309566497802734,44.0,70.0,22.0,21.0,20.0,18.0,15.0,6.0
5.311299800872803,30.0,29.0,11.0,26.0,22.0,10.0,39.0,31.0
5.313033103942871,31.0,30.0,24.0,0.0,7.0,10.0,10.0,35.0
5.314766883850098,32.0,30.0,25.0,19.0,25.0,10.0,21.0,22.0
5.316500186920166,26.0,6.0,26.0,13.0,28.0,23.0,24.0,19.0
5.318233489990234,23.0,6.0,5.0,5.0,51.0,21.0,21.0,0.0
5.320033550262451,20.0,10.0,20.0,20.0,68.0,19.0,15.0,11.0
5.3217668533325195,23.0,20.0,18.0,34.0,34.0,47.0,19.0,22.0
5.323500156402588,20.0,29.0,17.0,34.0,0.0,50.0,32.0,25.0
5.325233459472656,29.0,27.0,18.0,32.0,8.0,20.0,46.0,28.0
5.326966762542725,10.0,39.0,19.0,30.0,17.0,20.0,58.0,5.0
5.328700065612793,21.0,5.0,30.0,31.0,8.0,22.0,63.0,22.0
5.330433368682861,32.0,46.0,38.0,34.0,23.0,24.0,43.0,12.0
5.33216667175293,0.0,28.0,27.0,37.0,11.0,36.0,0.0,18.0
5.333899974822998,25.0,11.0,16.0,42.0,0.0,36.0,6.0,23.0
5.335633277893066,23.0,11.0,34.0,45.0,13.0,36.0,24.0,13.0
5.337416648864746,21.0,11.0,23.0,48.0,5.0,48.0,27.0,18.0
5.3391499519348145,80.0,13.0,22.0,11.0,28.0,36.0,24.0,23.0
5.340883255004883,139.0,15.0,21.0,21.0,23.0,24.0,22.0,34.0
5.342616558074951,749.0,17.0,17.0,25.0,19.0,20.0,12.0,28.0
5.3443498611450195,763.0,54.0,20.0,29.0,24.0,0.0,36.0,22.0
5.346083164215088,810.0,43.0,24.0,0.0,23.0,6.0,41.0,18.0
5.347816467285156,777.0,33.0,21.0,11.0,23.0,13.0,46.0,33.0
5.349549770355225,1011.0,27.0,19.0,23.0,33.0,12.0,42.0,10.0
5.351283550262451,42.0,18.0,45.0,13.0,44.0,11.0,39.0,11.0
5.35308313369751,613.0,0.0,43.0,21.0,27.0,15.0,36.0,26.0
5.354816436767578,24.0,21.0,24.0,16.0,10.0,18.0,33.0,18.0
5.356550216674805,0.0,13.0,17.0,26.0,55.0,0.0,30.0,5.0
5.358283519744873,10.0,6.0,19.0,27.0,55.0,3.0,24.0,10.0
5.360016822814941,17.0,13.0,21.0,28.0,0.0,5.0,6.0,34.0
5.36175012588501,23.0,23.0,13.0,22.0,28.0,29.0,18.0,41.0
5.363483428955078,16.0,24.0,5.0,18.0,57.0,75.0,18.0,24.0
5.3652167320251465,39.0,26.0,40.0,9.0,59.0,57.0,18.0,7.0
5.366950035095215,26.0,28.0,33.0,0.0,22.0,13.0,5.0,26.0
5.368683338165283,12.0,30.0,30.0,10.0,34.0,68.0,5.0,22.0
5.370466709136963,12.0,33.0,15.0,20.0,20.0,0.0,5.0,18.0
5.372200012207031,28.0,33.0,36.0,13.0,5.0,0.0,12.0,19.0
5.3739333152771,25.0,33.0,20.0,7.0,30.0,44.0,19.0,27.0
5.375666618347168,23.0,31.0,49.0,5.0,21.0,46.0,13.0,22.0
5.377399921417236,20.0,5.0,56.0,5.0,0.0,11.0,8.0,17.0
5.379133224487305,18.0,5.0,28.0,5.0,0.0,27.0,17.0,27.0
5.380866527557373,35.0,93.0,34.0,19.0,9.0,27.0,0.0,19.0
5.382599830627441,0.0,66.0,5.0,17.0,10.0,15.0,0.0,11.0
5.38433313369751,42.0,38.0,30.0,6.0,11.0,22.0,8.0,11.0
5.386066436767578,63.0,45.0,6.0,8.0,76.0,24.0,16.0,32.0
5.387866497039795,50.0,43.0,5.0,17.0,38.0,6.0,30.0,30.0
5.389599800109863,37.0,34.0,223.0,29.0,0.0,5.0,40.0,26.0
5.391333103179932,11.0,32.0,120.0,27.0,10.0,5.0,0.0,22.0
5.393066883087158,698.0,12.0,17.0,26.0,30.0,16.0,18.0,5.0
5.394800186157227,727.0,61.0,29.0,16.0,28.0,26.0,29.0,22.0
5.396533489227295,20.0,58.0,0.0,22.0,32.0,24.0,0.0,24.0
5.398266792297363,16.0,55.0,11.0,23.0,27.0,28.0,21.0,25.0
5.400000095367432,10.0,23.0,26.0,5.0,23.0,27.0,24.0,18.0
5.4017333984375,30.0,35.0,28.0,15.0,25.0,25.0,27.0,21.0
5.403466701507568,47.0,31.0,22.0,5.0,17.0,30.0,27.0,25.0
5.405250072479248,30.0,26.0,26.0,11.0,5.0,11.0,34.0,37.0
5.406983375549316,13.0,42.0,40.0,18.0,26.0,11.0,32.0,28.0
5.408716678619385,62.0,37.0,43.0,18.0,19.0,19.0,30.0,20.0
5.410449981689453,52.0,52.0,51.0,21.0,13.0,13.0,12.0,48.0
5.4121832847595215,11.0,33.0,41.0,5.0,6.0,7.0,10.0,35.0
5.41391658782959,49.0,15.0,32.0,27.0,10.0,9.0,21.0,16.0
5.415649890899658,24.0,33.0,23.0,17.0,13.0,11.0,19.0,8.0
5.417383193969727,0.0,25.0,13.0,6.0,0.0,0.0,18.0,26.0
5.419116497039795,14.0,21.0,7.0,5.0,10.0,4.0,5.0,0.0
5.420916557312012,19.0,29.0,0.0,27.0,17.0,8.0,28.0,20.0
5.42264986038208,23.0,20.0,12.0,23.0,24.0,10.0,18.0,33.0
5.424383163452148,6.0,10.0,6.0,19.0,8.0,12.0,17.0,19.0
5.426116466522217,15.0,24.0,0.0,12.0,10.0,13.0,11.0,5.0
5.427849769592285,22.0,19.0,7.0,5.0,11.0,5.0,0.0,5.0
5.429583549499512,19.0,13.0,15.0,19.0,16.0,43.0,21.0,5.0
5.43131685256958,16.0,10.0,10.0,33.0,20.0,44.0,24.0,7.0
5.433050155639648,13.0,34.0,395.0,36.0,22.0,43.0,27.0,6.0
5.434783458709717,33.0,134.0,204.0,38.0,24.0,134.0,23.0,5.0
5.436516761779785,19.0,233.0,12.0,335.0,2016.0,542.0,519.0,13.0
5.438316822052002,5.0,726.0,25.0,1776.0,2090.0,482.0,626.0,17.0
5.44005012512207,5.0,1805.0,2846.0,3107.0,718.0,818.0,0.0,20.0
5.441783428192139,16.0,3030.0,5130.0,4438.0,6153.0,1154.0,1143.0,1010.0
5.443516731262207,27.0,2134.0,10220.0,8372.0,8248.0,7790.0,2802.0,1152.0
5.445250034332275,35.0,7491.0,11352.0,16816.0,21960.0,7861.0,2086.0,330.0
5.446983337402344,43.0,12560.0,23588.0,20000.0,21444.0,14848.0,5893.0,1321.0
5.448716640472412,25.0,14952.0,26736.0,32260.0,31852.0,17408.0,8804.0,861.0
5.4504499435424805,7.0,21244.0,63744.0,51072.0,44480.0,24668.0,14052.0,560.0
5.452183246612549,6.0,45200.0,67648.0,78336.0,69072.0,31624.0,18456.0,2159.0
5.453916549682617,0.0,47536.0,109472.0,92768.0,65904.0,40992.0,17988.0,2887.0
5.455699920654297,55.0,49488.0,108272.0,111168.0,101392.0,62240.0,17844.0,4703.0
5.457433223724365,69.0,86256.0,137664.0,135488.0,136384.0,72416.0,27076.0,5427.0
5.459166526794434,32.0,89520.0,168320.0,193792.0,160000.0,79472.0,26160.0,6571.0
5.460899829864502,25.0,111504.0,213248.0,225728.0,153152.0,95808.0,38032.0,8728.0
5.46263313293457,0.0,127536.0,226496.0,250752.0,184768.0,110896.0,48752.0,8916.0
5.464366436004639,25.0,160896.0,283776.0,267008.0,223168.0,122656.0,42416.0,11060.0
5.466100215911865,39.0,161408.0,294848.0,312832.0,254592.0,127360.0,49568.0,11764.0
5.467833518981934,53.0,177152.0,309184.0,333952.0,244416.0,133440.0,51536.0,12480.0
5.469566822052002,41.0,154816.0,297664.0,326528.0,274240.0,142848.0,51696.0,9552.0
5.47130012512207,61.0,195776.0,299776.0,344960.0,274944.0,138176.0,51856.0,12888.0
5.473100185394287,21.0,210816.0,301888.0,343744.0,244480.0,133504.0,48960.0,9948.0
5.4748334884643555,24.0,197120.0,309952.0,368000.0,247744.0,145600.0,46064.0,13060.0
5.476566791534424,75.0,192640.0,303040.0,367680.0,247296.0,136512.0,41696.0,10828.0
5.478300094604492,80.0,173120.0,296192.0,349888.0,249536.0,140544.0,51184.0,12808.0
5.4800333976745605,84.0,172672.0,316672.0,359360.0,251456.0,130048.0,53744.0,11632.0
5.481766700744629,67.0,171712.0,263424.0,292224.0,239296.0,105008.0,44336.0,11912.0
5.483500003814697,63.0,149696.0,273216.0,276224.0,235200.0,129984.0,50080.0,5969.0
5.485233306884766,58.0,122032.0,255168.0,287680.0,216064.0,107808.0,49696.0,8644.0
5.486966609954834,29.0,142976.0,254400.0,235904.0,185280.0,113856.0,39648.0,9096.0
5.488749980926514,16.0,106160.0,205760.0,233152.0,176000.0,85776.0,38160.0,4475.0
5.490483283996582,27.0,119904.0,185728.0,217536.0,150336.0,70848.0,37232.0,3607.0
5.49221658706665,38.0,116128.0,185472.0,178240.0,101136.0,77584.0,28568.0,6021.0
5.493966579437256,0.0,106720.0,137280.0,159040.0,107904.0,64416.0,25636.0,4018.0
5.495683193206787,50.0,81328.0,137728.0,139392.0,92944.0,59184.0,26760.0,3125.0
5.4974164962768555,220.0,84128.0,127504.0,126992.0,96272.0,49744.0,26832.0,2748.0
5.499149799346924,390.0,62096.0,108784.0,99376.0,95968.0,42928.0,20404.0,3014.0
5.500883102416992,221.0,59904.0,109728.0,95328.0,76736.0,42400.0,12952.0,1508.0
5.502616882324219,52.0,38272.0,78944.0,95808.0,71232.0,32732.0,16368.0,3151.0
5.504366874694824,64.0,37328.0,81968.0,67888.0,53200.0,24012.0,11124.0,2471.0
5.506149768829346,426.0,39024.0,65392.0,71216.0,41584.0,22616.0,14260.0,2162.0
5.507883548736572,678.0,31908.0,51792.0,47216.0,34992.0,27832.0,9900.0,12.0
5.509616851806641,929.0,22680.0,32800.0,43904.0,36352.0,19864.0,11380.0,1211.0
5.511350154876709,23.0,22336.0,37328.0,49680.0,30528.0,17512.0,3689.0,1138.0
5.513083457946777,38.0,14888.0,26984.0,29864.0,29656.0,15344.0,6499.0,839.0
5.514816761016846,18.0,13840.0,25584.0,21276.0,27856.0,12332.0,4856.0,540.0
5.516550064086914,18.0,17536.0,26192.0,26820.0,25392.0,10000.0,3204.0,85.0
5.518283367156982,19.0,15896.0,18144.0,22724.0,22204.0,10120.0,3026.0,70.0
5.520016670227051,21.0,14260.0,24120.0,25020.0,14764.0,6003.0,1626.0,7.0
5.521749973297119,23.0,15368.0,19164.0,11636.0,14368.0,5065.0,2773.0,272.0
5.523550033569336,29.0,10620.0,12816.0,16796.0,12176.0,4127.0,3920.0,536.0
5.525283336639404,97.0,13540.0,11644.0,20276.0,11204.0,7836.0,3461.0,279.0
5.527016639709473,77.0,10704.0,15080.0,12068.0,8856.0,8022.0,4654.0,23.0
5.528749942779541,57.0,6788.0,12708.0,12660.0,8300.0,6208.0,3798.0,5.0
5.530483245849609,54.0,8556.0,9792.0,11432.0,9140.0,5295.0,2942.0,37.0
5.532216548919678,46.0,9540.0,11132.0,12396.0,5639.0,7565.0,1361.0,37.0
5.533949851989746,44.0,2661.0,10056.0,11512.0,4140.0,2059.0,2940.0,37.0
5.5356831550598145,24.0,10516.0,10512.0,10628.0,2642.0,5148.0,809.0,11.0
5.537416458129883,5.0,4986.0,8580.0,11600.0,3404.0,4384.0,859.0,49.0
5.539150238037109,43.0,5782.0,8768.0,13916.0,4166.0,1853.0,910.0,263.0
5.540933132171631,35.0,1847.0,8824.0,7443.0,5255.0,1387.0,919.0,141.0
5.542666435241699,36.0,5503.0,5791.0,3179.0,4810.0,3617.0,753.0,19.0
5.544400215148926,18.0,2058.0,6927.0,5435.0,5058.0,3823.0,45.0,21.0
5.546133518218994,22.0,3318.0,8063.0,5197.0,5306.0,2087.0,185.0,24.0
5.5478668212890625,27.0,6007.0,3890.0,3816.0,6557.0,369.0,325.0,26.0
5.549600124359131,20.0,3707.0,6704.0,2436.0,4757.0,1570.0,61.0,28.0
5.551333427429199,27.0,3395.0,4835.0,3184.0,2958.0,1766.0,42.0,31.0
5.553066730499268,13.0,2533.0,4034.0,3932.0,2224.0,1411.0,23.0,33.0
5.554800033569336,30.0,1115.0,3241.0,5736.0,3226.0,1056.0,114.0,10.0
5.556600093841553,10.0,3484.0,3192.0,6102.0,2981.0,1932.0,59.0,25.0
5.558333396911621,8.0,2147.0,3144.0,3866.0,2605.0,603.0,5.0,36.0
5.5600666999816895,21.0,1706.0,1449.0,1315.0,2228.0,333.0,91.0,36.0
5.561800003051758,33.0,1264.0,1306.0,2355.0,2914.0,527.0,268.0,36.0
5.563533306121826,45.0,1247.0,2099.0,2261.0,2747.0,722.0,444.0,39.0
5.5652666091918945,31.0,670.0,2893.0,4104.0,2575.0,224.0,1099.0,29.0
5.566999912261963,18.0,659.0,3507.0,3597.0,896.0,846.0,1365.0,21.0
5.568733215332031,0.0,982.0,4145.0,3005.0,692.0,442.0,42.0,12.0
5.5704665184021,17.0,1305.0,1462.0,2413.0,1007.0,703.0,326.0,13.0
5.572199821472168,33.0,999.0,2621.0,3674.0,752.0,785.0,10.0,48.0
5.573983192443848,36.0,694.0,468.0,2071.0,42.0,636.0,47.0,30.0
5.575716495513916,31.0,642.0,1846.0,3476.0,1684.0,44.0,16.0,12.0
5.577449798583984,26.0,591.0,3223.0,3654.0,1622.0,0.0,639.0,21.0
5.579183101654053,31.0,44.0,3038.0,1781.0,1561.0,8.0,333.0,37.0
5.580916881561279,37.0,917.0,2856.0,2257.0,2166.0,17.0,26.0,45.0
5.582650184631348,0.0,733.0,833.0,2525.0,949.0,49.0,12.0,53.0
5.584383487701416,21.0,550.0,473.0,1084.0,805.0,36.0,25.0,21.0
5.586116790771484,33.0,18.0,291.0,1825.0,34.0,41.0,21.0,0.0
5.587850093841553,32.0,873.0,806.0,2065.0,824.0,574.0,17.0,26.0
5.589583396911621,47.0,16.0,856.0,1813.0,1158.0,532.0,11.0,6.0
5.591383457183838,39.0,539.0,906.0,1560.0,1492.0,441.0,6.0,21.0
5.593116760253906,31.0,1062.0,1818.0,4101.0,283.0,694.0,46.0,15.0
5.594850063323975,20.0,489.0,3438.0,3672.0,19.0,1527.0,219.0,39.0
5.596583366394043,10.0,1372.0,2999.0,3481.0,1565.0,1771.0,132.0,33.0
5.598316669464111,15.0,1288.0,4742.0,8504.0,3112.0,6168.0,45.0,27.0
5.60004997253418,20.0,3813.0,3913.0,10760.0,4309.0,5023.0,883.0,17.0
5.601783275604248,10.0,4080.0,3084.0,15916.0,12732.0,5782.0,1721.0,33.0
5.603516578674316,0.0,4812.0,20488.0,22888.0,14384.0,10236.0,3366.0,16.0
5.605249881744385,10.0,8760.0,20320.0,31008.0,28176.0,11616.0,4143.0,661.0
5.606983184814453,8.0,16048.0,28832.0,47248.0,44992.0,24304.0,4919.0,1307.0
5.60878324508667,5.0,26544.0,43664.0,75376.0,63104.0,29436.0,15476.0,3313.0
5.610516548156738,25.0,24040.0,62608.0,111040.0,82640.0,52928.0,13536.0,5131.0
5.612249851226807,24.0,42832.0,92640.0,147840.0,110944.0,60816.0,15504.0,3402.0
5.613983154296875,35.0,52464.0,116944.0,166336.0,143872.0,84128.0,29180.0,4343.0
5.615716457366943,43.0,81280.0,195584.0,230656.0,186816.0,108512.0,33216.0,5284.0
5.61745023727417,47.0,102144.0,208128.0,297408.0,223872.0,123472.0,51504.0,5794.0
5.619183540344238,52.0,110960.0,269760.0,366656.0,280128.0,156416.0,49488.0,6305.0
5.620916843414307,45.0,163520.0,296640.0,429440.0,341824.0,179840.0,73056.0,16688.0
5.622650146484375,17.0,188160.0,352128.0,477888.0,411136.0,212864.0,79520.0,17120.0
5.624433517456055,19.0,206784.0,383872.0,587264.0,453888.0,269440.0,87104.0,19368.0
5.626166820526123,20.0,214528.0,457856.0,628480.0,495680.0,257792.0,93184.0,21440.0
5.6279168128967285,76.0,260800.0,508032.0,717312.0,553472.0,320192.0,105296.0,20512.0
5.62963342666626,85.0,272448.0,504896.0,754432.0,570112.0,308928.0,106960.0,23068.0
5.631366729736328,81.0,244032.0,558080.0,736512.0,655872.0,342848.0,108624.0,23452.0
5.6331000328063965,44.0,271680.0,563456.0,736256.0,623360.0,338624.0,110816.0,24804.0
5.634833335876465,67.0,321344.0,561920.0,800256.0,656128.0,358656.0,110384.0,17080.0
5.636566638946533,80.0,327872.0,593920.0,794880.0,614912.0,359936.0,109936.0,21980.0
5.638299942016602,92.0,324736.0,573952.0,804864.0,642048.0,345408.0,106192.0,16792.0
5.64003324508667,88.0,302784.0,554240.0,777728.0,645632.0,335360.0,98224.0,18412.0
5.641833305358887,86.0,311552.0,604928.0,763392.0,655104.0,341120.0,113696.0,20028.0
5.643566608428955,84.0,296768.0,572416.0,724736.0,541696.0,326208.0,99040.0,18932.0
5.645299911499023,74.0,277376.0,588544.0,704512.0,521984.0,281984.0,86752.0,17836.0
5.647033214569092,64.0,278656.0,433152.0,624384.0,481536.0,287872.0,90176.0,18932.0
5.64876651763916,70.0,241088.0,452288.0,582912.0,520896.0,263616.0,98384.0,20028.0
5.6504998207092285,76.0,237184.0,394560.0,524288.0,396864.0,215296.0,67136.0,16576.0
5.652233123779297,75.0,215552.0,395456.0,490624.0,367616.0,213824.0,74720.0,9512.0
5.653966903686523,74.0,172864.0,332416.0,467584.0,335488.0,197376.0,66176.0,5990.0
5.655700206756592,80.0,169344.0,297408.0,389760.0,307520.0,140544.0,51920.0,15504.0
5.65743350982666,101.0,136256.0,244160.0,318400.0,274240.0,147520.0,35904.0,7635.0
5.65921688079834,122.0,141632.0,230656.0,302272.0,226688.0,118336.0,37472.0,6400.0
5.660950183868408,38.0,106672.0,184960.0,253824.0,189248.0,109808.0,26888.0,4402.0
5.662683486938477,55.0,89984.0,149888.0,195968.0,160896.0,92384.0,22564.0,3636.0
5.664416790008545,53.0,66928.0,128992.0,188608.0,130064.0,70064.0,14060.0,6493.0
5.666150093078613,51.0,68016.0,114064.0,156480.0,109664.0,62704.0,18460.0,5614.0
5.667883396148682,510.0,46272.0,103680.0,129920.0,95488.0,65552.0,13064.0,1788.0
5.66961669921875,285.0,40192.0,80336.0,104240.0,84768.0,38528.0,8692.0,3724.0
5.671350002288818,60.0,32408.0,50144.0,82352.0,64656.0,39792.0,10572.0,1667.0
5.673083305358887,58.0,39008.0,47168.0,58992.0,49360.0,35568.0,13752.0,1853.0
5.674816608428955,85.0,26716.0,37936.0,56048.0,43584.0,25320.0,5355.0,1117.0
5.676616668701172,69.0,21912.0,29016.0,45120.0,29284.0,10104.0,5020.0,1716.0
5.67834997177124,54.0,13856.0,35632.0,40928.0,28428.0,14796.0,4067.0,1332.0
5.680083274841309,18.0,12560.0,21232.0,39632.0,15728.0,12112.0,1257.0,962.0
5.681816577911377,26.0,10080.0,24212.0,28408.0,26568.0,8796.0,5783.0,1097.0
5.683549880981445,35.0,9548.0,25588.0,25624.0,18140.0,13592.0,3966.0,1390.0
5.685283184051514,17.0,6607.0,19644.0,23632.0,18756.0,6985.0,1895.0,1387.0
5.687016487121582,18.0,10604.0,13676.0,22392.0,17412.0,8166.0,4097.0,1385.0
5.68874979019165,19.0,9704.0,13372.0,17356.0,13864.0,6266.0,4476.0,52.0
5.690483570098877,19.0,8045.0,12512.0,19432.0,16144.0,8062.0,62.0,46.0
5.6922831535339355,20.0,4520.0,6307.0,12936.0,7478.0,7045.0,2285.0,27.0
5.694016456604004,12.0,3891.0,8416.0,13796.0,11692.0,5066.0,2938.0,377.0
5.6957502365112305,29.0,2762.0,10072.0,4738.0,6966.0,3402.0,1155.0,224.0
5.697483539581299,46.0,3484.0,4809.0,16576.0,9056.0,5401.0,2760.0,71.0
5.699216842651367,44.0,2623.0,4539.0,13304.0,11108.0,3937.0,1545.0,49.0
5.7009501457214355,0.0,1762.0,4269.0,18248.0,8028.0,2474.0,1483.0,0.0
5.702683448791504,13.0,3638.0,5905.0,6979.0,6640.0,5504.0,1421.0,86.0
5.704416751861572,41.0,3191.0,5294.0,11508.0,11884.0,2889.0,337.0,173.0
5.706150054931641,13.0,2206.0,4684.0,11768.0,8732.0,6665.0,1589.0,100.0
5.707883358001709,47.0,1221.0,5645.0,9372.0,7821.0,5654.0,1784.0,28.0
5.709666728973389,7.0,666.0,6607.0,5535.0,9544.0,4690.0,1030.0,43.0
5.711400032043457,0.0,2434.0,5340.0,4190.0,7574.0,1913.0,603.0,115.0
5.713133335113525,16.0,2186.0,4072.0,6434.0,4549.0,6245.0,900.0,35.0
5.714866638183594,30.0,1939.0,4357.0,5577.0,7593.0,2196.0,1196.0,24.0
5.716599941253662,36.0,2441.0,4642.0,4719.0,7641.0,2399.0,615.0,12.0
5.7183332443237305,32.0,1738.0,3251.0,6880.0,7005.0,2419.0,633.0,18.0
5.720066547393799,27.0,1034.0,4809.0,5418.0,7712.0,254.0,38.0,22.0
5.721799850463867,37.0,1143.0,8680.0,3956.0,3720.0,1159.0,1013.0,26.0
5.7235331535339355,16.0,4280.0,10752.0,7955.0,3022.0,1645.0,0.0,33.0
5.725266456604004,14.0,3752.0,1417.0,3220.0,8116.0,2027.0,23.0,0.0
5.727066516876221,12.0,3063.0,2556.0,6338.0,4330.0,2409.0,404.0,36.0
5.728799819946289,23.0,3015.0,2689.0,3838.0,2279.0,1785.0,15.0,13.0
5.730533123016357,33.0,2415.0,3007.0,2161.0,4766.0,1840.0,10.0,47.0
5.732266902923584,26.0,1558.0,3324.0,7653.0,4494.0,2758.0,19.0,23.0
5.734000205993652,23.0,38.0,3100.0,3504.0,2866.0,929.0,13.0,27.0
5.735733509063721,5.0,2204.0,2877.0,2170.0,3591.0,1942.0,737.0,32.0
5.737466812133789,29.0,1320.0,3235.0,4759.0,5669.0,2878.0,382.0,11.0
5.739200115203857,31.0,1008.0,2943.0,2818.0,5274.0,4053.0,27.0,15.0
5.740933418273926,32.0,900.0,2651.0,4537.0,5233.0,3104.0,19.0,18.0
5.742666721343994,21.0,473.0,1789.0,2052.0,5268.0,698.0,233.0,18.0
5.744450092315674,20.0,46.0,3733.0,3896.0,1763.0,53.0,29.0,18.0
5.746183395385742,19.0,524.0,3385.0,2186.0,1008.0,58.0,22.0,14.0
5.7479166984558105,30.0,718.0,3397.0,2212.0,1662.0,1512.0,23.0,10.0
5.749650001525879,93.0,913.0,3248.0,4477.0,2754.0,890.0,29.0,31.0
5.751383304595947,116.0,1466.0,3099.0,1686.0,2645.0,268.0,33.0,329.0
5.753116607666016,12.0,1863.0,3804.0,1978.0,2764.0,1601.0,23.0,175.0
5.754849910736084,19.0,22.0,1619.0,5135.0,1411.0,296.0,13.0,22.0
5.756583213806152,26.0,919.0,3930.0,3441.0,2486.0,1257.0,22.0,189.0
5.758316516876221,33.0,150.0,2742.0,2162.0,1320.0,1052.0,30.0,17.0
5.7601165771484375,27.0,213.0,1554.0,4227.0,754.0,830.0,1028.0,5.0
5.761849880218506,204.0,29.0,1185.0,966.0,787.0,21.0,770.0,3.0
5.763583183288574,116.0,725.0,2805.0,944.0,732.0,676.0,28.0,0.0
5.765316486358643,27.0,1240.0,1938.0,1973.0,677.0,347.0,26.0,19.0
5.767049789428711,15.0,1212.0,2015.0,60.0,753.0,18.0,0.0,20.0
5.7687835693359375,30.0,27.0,2093.0,2981.0,828.0,836.0,5.0,21.0
5.770516872406006,31.0,1531.0,2253.0,2849.0,823.0,15.0,30.0,16.0
5.772250175476074,32.0,909.0,2412.0,1456.0,818.0,848.0,55.0,26.0
5.773983478546143,19.0,21.0,654.0,21.0,1054.0,656.0,47.0,20.0
5.775716781616211,11.0,253.0,915.0,3354.0,1290.0,464.0,20.0,13.0
5.777516841888428,18.0,860.0,1210.0,3529.0,655.0,437.0,124.0,29.0
5.779250144958496,29.0,531.0,1082.0,984.0,21.0,411.0,80.0,11.0
5.7809834480285645,48.0,1169.0,33.0,3304.0,625.0,1006.0,36.0,5.0
5.782716751098633,288.0,1619.0,27.0,3848.0,323.0,1368.0,5.0,10.0
5.784450054168701,170.0,30.0,2677.0,1390.0,22.0,0.0,3.0,31.0
5.7861833572387695,52.0,1130.0,2834.0,1395.0,360.0,1365.0,0.0,35.0
5.787916660308838,53.0,51.0,1168.0,428.0,751.0,18.0,12.0,43.0
5.789649963378906,5.0,183.0,33.0,5.0,1141.0,228.0,12.0,29.0
5.791383266448975,22.0,34.0,15.0,37.0,1278.0,439.0,12.0,45.0
5.793116569519043,22.0,46.0,411.0,192.0,1416.0,1054.0,17.0,5.0
5.794899940490723,24.0,8.0,1451.0,1488.0,689.0,1808.0,22.0,55.0
5.796633243560791,28.0,13.0,1098.0,1152.0,368.0,1945.0,34.0,23.0
5.798366546630859,17.0,15.0,686.0,817.0,48.0,2784.0,22.0,37.0
