,285.1600036621094,286.1600036621094,287.1600036621094,288.1600036621094,289.1600036621094,290.1600036621094,291.1600036621094
3.001516580581665,45.0,51.0,6.0,29.0,13.0,526.0,1821.0
3.003033399581909,12.0,0.0,34.0,49.0,19.0,323.0,1482.0
3.004549980163574,44.0,8.0,9.0,9.0,11.0,411.0,536.0
3.0060665607452393,51.0,50.0,36.0,32.0,10.0,30.0,30.0
3.0075833797454834,5.0,39.0,5.0,35.0,14.0,34.0,12.0
3.0090999603271484,36.0,45.0,35.0,25.0,17.0,14.0,29.0
3.0106167793273926,12.0,59.0,18.0,15.0,35.0,51.0,270.0
3.0121333599090576,55.0,27.0,0.0,27.0,31.0,28.0,510.0
3.0136499404907227,40.0,13.0,13.0,20.0,25.0,6.0,273.0
3.015166759490967,17.0,28.0,19.0,12.0,5.0,5.0,35.0
3.016700029373169,20.0,17.0,10.0,11.0,23.0,1042.0,18.0
3.018249988555908,18.0,30.0,0.0,10.0,13.0,825.0,0.0
3.0197665691375732,30.0,25.0,17.0,0.0,6.0,2205.0,731.0
3.0212833881378174,30.0,20.0,23.0,20.0,5.0,1970.0,562.0
3.0227999687194824,30.0,17.0,25.0,16.0,5.0,12.0,532.0
3.0243165493011475,9.0,23.0,19.0,0.0,39.0,563.0,15.0
3.0258333683013916,5.0,0.0,28.0,11.0,33.0,53.0,21.0
3.0273499488830566,0.0,11.0,35.0,5.0,27.0,24.0,32.0
3.028866767883301,17.0,6.0,6.0,19.0,46.0,634.0,185.0
3.0303666591644287,30.0,5.0,17.0,15.0,16.0,21.0,337.0
3.031899929046631,48.0,14.0,20.0,23.0,33.0,858.0,456.0
3.033416748046875,51.0,12.0,57.0,15.0,25.0,963.0,575.0
3.0349667072296143,10.0,11.0,43.0,7.0,0.0,505.0,5.0
3.0364832878112793,6.0,6.0,29.0,0.0,0.0,1098.0,920.0
3.0379834175109863,36.0,0.0,35.0,11.0,7.0,722.0,1030.0
3.0395166873931885,15.0,0.0,37.0,11.0,13.0,1195.0,19.0
3.0410332679748535,37.0,0.0,39.0,11.0,14.0,7.0,341.0
3.0425500869750977,35.0,6.0,17.0,11.0,11.0,30.0,20.0
3.0440666675567627,9.0,11.0,16.0,10.0,6.0,41.0,0.0
3.0455832481384277,36.0,10.0,24.0,58.0,0.0,39.0,0.0
3.047100067138672,30.0,5.0,31.0,58.0,0.0,17.0,272.0
3.048616647720337,80.0,37.0,5.0,28.0,12.0,24.0,138.0
3.050133228302002,58.0,32.0,64.0,29.0,23.0,12.0,5.0
3.051666736602783,35.0,27.0,57.0,29.0,27.0,0.0,42.0
3.0531833171844482,13.0,0.0,27.0,6.0,19.0,5.0,78.0
3.0546998977661133,32.0,0.0,16.0,23.0,29.0,42.0,870.0
3.0562167167663574,33.0,27.0,5.0,19.0,38.0,29.0,900.0
3.0577499866485596,0.0,20.0,0.0,15.0,39.0,17.0,782.0
3.0592501163482666,10.0,0.0,8.0,45.0,26.0,31.0,837.0
3.0607666969299316,17.0,13.0,7.0,46.0,13.0,29.0,17.0
3.0622832775115967,39.0,25.0,5.0,37.0,15.0,22.0,33.0
3.063800096511841,29.0,27.0,5.0,40.0,31.0,13.0,19.0
3.065316677093506,34.0,20.0,26.0,43.0,22.0,11.0,5.0
3.066833257675171,37.0,24.0,29.0,0.0,12.0,214.0,17.0
3.06838321685791,26.0,17.0,9.0,21.0,29.0,147.0,28.0
3.0699000358581543,10.0,0.0,40.0,42.0,17.0,80.0,1157.0
3.0714166164398193,29.0,25.0,0.0,0.0,5.0,66.0,1312.0
3.0729334354400635,72.0,20.0,5.0,36.0,14.0,52.0,345.0
3.0744500160217285,43.0,14.0,0.0,20.0,13.0,40.0,32.0
3.0759665966033936,13.0,27.0,260.0,36.0,12.0,0.0,55.0
3.0774834156036377,16.0,30.0,138.0,11.0,21.0,33.0,19.0
3.0789999961853027,31.0,26.0,17.0,33.0,30.0,15.0,12.0
3.0805165767669678,34.0,43.0,14.0,14.0,25.0,19.0,5.0
3.082033395767212,5.0,43.0,10.0,16.0,8.0,23.0,3.0
3.083549976348877,30.0,20.0,10.0,27.0,40.0,17.0,0.0
3.0851333141326904,52.0,29.0,9.0,6.0,75.0,23.0,11.0
3.0866498947143555,0.0,0.0,10.0,13.0,61.0,28.0,37.0
3.0881667137145996,0.0,28.0,8.0,19.0,47.0,1114.0,414.0
3.0896832942962646,26.0,10.0,5.0,18.0,37.0,1893.0,207.0
3.091200113296509,15.0,20.0,9.0,16.0,6.0,1626.0,0.0
3.092716693878174,10.0,13.0,13.0,27.0,41.0,254.0,20.0
3.094233274459839,26.0,0.0,20.0,16.0,0.0,5.0,15.0
3.095750093460083,18.0,12.0,28.0,5.0,12.0,1146.0,10.0
3.097266674041748,10.0,6.0,29.0,28.0,16.0,1258.0,509.0
3.098783254623413,32.0,11.0,29.0,5.0,0.0,56.0,317.0
3.1003000736236572,53.0,5.0,25.0,21.0,6.0,1191.0,125.0
3.1018667221069336,42.0,10.0,20.0,0.0,0.0,36.0,570.0
3.1033833026885986,56.0,7.0,16.0,5.0,15.0,16.0,203.0
3.1048998832702637,33.0,5.0,11.0,9.0,29.0,25.0,15.0
3.106416702270508,6.0,3.0,10.0,11.0,26.0,434.0,21.0
3.107933282852173,0.0,0.0,9.0,12.0,16.0,843.0,603.0
3.109450101852417,0.0,8.0,44.0,17.0,5.0,1776.0,309.0
3.110966682434082,0.0,7.0,60.0,0.0,33.0,2055.0,16.0
3.112483263015747,0.0,6.0,62.0,8.0,21.0,426.0,51.0
3.114000082015991,12.0,14.0,45.0,16.0,13.0,22.0,31.0
3.1155333518981934,15.0,7.0,31.0,0.0,12.0,274.0,19.0
3.1170332431793213,18.0,0.0,17.0,33.0,26.0,320.0,39.0
3.1186165809631348,34.0,14.0,17.0,25.0,29.0,17.0,16.0
3.120133399963379,55.0,62.0,9.0,12.0,5.0,62.0,11.0
3.121649980545044,44.0,55.0,0.0,0.0,25.0,53.0,5.0
3.123166561126709,0.0,17.0,19.0,21.0,8.0,26.0,0.0
3.124683380126953,25.0,5.0,10.0,11.0,21.0,0.0,0.0
3.126199960708618,23.0,16.0,0.0,22.0,0.0,52.0,0.0
3.1277167797088623,10.0,12.0,0.0,27.0,16.0,21.0,0.0
3.1292333602905273,7.0,7.0,6.0,18.0,32.0,13.0,0.0
3.1307499408721924,10.0,16.0,11.0,10.0,22.0,5.0,21.0
3.1322667598724365,12.0,24.0,6.0,28.0,11.0,48.0,35.0
3.1337833404541016,22.0,21.0,0.0,24.0,9.0,39.0,34.0
3.135349988937378,14.0,18.0,21.0,19.0,6.0,22.0,20.0
3.136866569519043,6.0,15.0,18.0,0.0,6.0,35.0,6.0
3.138383388519287,11.0,47.0,14.0,23.0,5.0,6.0,40.0
3.139899969100952,17.0,47.0,5.0,26.0,12.0,37.0,5.0
3.141416549682617,14.0,39.0,26.0,28.0,11.0,5.0,0.0
3.1429333686828613,10.0,22.0,48.0,28.0,10.0,6.0,0.0
3.1444499492645264,14.0,0.0,47.0,24.0,7.0,10.0,0.0
3.1459667682647705,14.0,5.0,47.0,20.0,0.0,17.0,6.0
3.1474833488464355,0.0,21.0,64.0,19.0,0.0,11.0,11.0
3.1489999294281006,5.0,11.0,8.0,16.0,0.0,6.0,18.0
3.1505167484283447,16.0,0.0,23.0,13.0,7.0,17.0,12.0
3.152100086212158,6.0,20.0,0.0,7.0,19.0,18.0,6.0
3.1536166667938232,6.0,18.0,30.0,14.0,12.0,24.0,6.0
3.1551332473754883,5.0,11.0,21.0,10.0,5.0,13.0,11.0
3.1566500663757324,5.0,20.0,13.0,7.0,14.0,15.0,15.0
3.1581666469573975,5.0,29.0,30.0,16.0,14.0,16.0,0.0
3.1596832275390625,16.0,31.0,5.0,24.0,25.0,18.0,7.0
3.1612000465393066,14.0,0.0,13.0,42.0,22.0,19.0,14.0
3.1627166271209717,12.0,15.0,21.0,45.0,18.0,15.0,7.0
3.164233446121216,12.0,10.0,25.0,5.0,18.0,10.0,0.0
3.165750026702881,5.0,10.0,5.0,26.0,17.0,12.0,5.0
3.167266607284546,5.0,10.0,8.0,50.0,5.0,10.0,10.0
3.168816566467285,0.0,8.0,15.0,16.0,6.0,7.0,0.0
3.1703500747680664,19.0,6.0,8.0,21.0,24.0,15.0,6.0
3.1718666553497314,16.0,5.0,0.0,0.0,25.0,13.0,12.0
3.1733832359313965,12.0,13.0,5.0,0.0,17.0,33.0,17.0
3.1749000549316406,20.0,21.0,62.0,10.0,13.0,35.0,19.0
3.1764166355133057,13.0,14.0,61.0,5.0,14.0,61.0,8.0
3.1779332160949707,5.0,6.0,26.0,21.0,80.0,47.0,11.0
3.179450035095215,24.0,10.0,9.0,16.0,73.0,0.0,20.0
3.18096661567688,0.0,16.0,25.0,11.0,65.0,11.0,7.0
3.182483434677124,5.0,8.0,42.0,16.0,16.0,18.0,24.0
3.184000015258789,17.0,0.0,24.0,21.0,9.0,25.0,24.0
3.185516595840454,17.0,10.0,6.0,0.0,5.0,29.0,22.0
3.1870999336242676,25.0,14.0,10.0,28.0,21.0,5.0,19.0
3.1886167526245117,19.0,15.0,11.0,172.0,21.0,36.0,18.0
3.1901333332061768,12.0,15.0,11.0,105.0,16.0,29.0,25.0
3.191649913787842,5.0,10.0,14.0,37.0,10.0,31.0,31.0
3.193166732788086,13.0,18.0,17.0,10.0,23.0,33.0,34.0
3.194683313369751,9.0,34.0,15.0,40.0,20.0,34.0,30.0
3.196199893951416,5.0,29.0,12.0,25.0,16.0,20.0,25.0
3.19771671295166,22.0,24.0,5.0,0.0,17.0,5.0,15.0
3.199233293533325,30.0,22.0,0.0,27.0,9.0,5.0,28.0
3.2007501125335693,39.0,19.0,24.0,16.0,5.0,20.0,11.0
3.2022666931152344,0.0,0.0,24.0,30.0,13.0,10.0,11.0
3.2038333415985107,17.0,37.0,24.0,17.0,10.0,0.0,10.0
3.205349922180176,40.0,27.0,38.0,0.0,5.0,0.0,7.0
3.20686674118042,7.0,32.0,27.0,32.0,0.0,10.0,73.0
3.208383321762085,26.0,19.0,17.0,20.0,0.0,5.0,57.0
3.20989990234375,5.0,29.0,18.0,36.0,0.0,17.0,28.0
3.211416721343994,5.0,7.0,23.0,12.0,0.0,11.0,32.0
3.212933301925659,23.0,12.0,15.0,8.0,3.0,32.0,53.0
3.214449882507324,0.0,22.0,7.0,45.0,5.0,19.0,0.0
3.2159667015075684,10.0,11.0,11.0,5.0,3.0,5.0,9.0
3.2174832820892334,19.0,17.0,15.0,0.0,0.0,25.0,62.0
3.2190001010894775,21.0,22.0,12.0,21.0,39.0,30.0,0.0
3.220583438873291,25.0,11.0,8.0,7.0,28.0,35.0,9.0
3.222100019454956,13.0,0.0,10.0,20.0,17.0,30.0,15.0
3.223616600036621,19.0,9.0,0.0,7.0,22.0,25.0,11.0
3.2251334190368652,30.0,21.0,0.0,17.0,26.0,13.0,6.0
3.2266499996185303,13.0,16.0,4.0,0.0,27.0,0.0,10.0
3.2281665802001953,19.0,11.0,7.0,129.0,28.0,7.0,33.0
3.2296833992004395,25.0,21.0,14.0,76.0,19.0,14.0,20.0
3.2311999797821045,14.0,39.0,13.0,22.0,28.0,17.0,7.0
3.2327165603637695,22.0,32.0,11.0,29.0,325.0,0.0,15.0
3.2342333793640137,0.0,25.0,869.0,15.0,174.0,11.0,22.0
3.2357499599456787,16.0,29.0,827.0,1141.0,23.0,11.0,12.0
3.237316608428955,14.0,32.0,748.0,2266.0,23.0,11.0,0.0
3.238833427429199,12.0,918.0,670.0,1896.0,1042.0,10.0,11.0
3.2403500080108643,11.0,1347.0,3915.0,2095.0,3111.0,8.0,15.0
3.2418665885925293,10.0,1596.0,3847.0,5221.0,3659.0,431.0,18.0
3.2433834075927734,10.0,1845.0,3779.0,5285.0,3885.0,854.0,31.0
3.2448999881744385,10.0,3647.0,10656.0,8109.0,6416.0,1738.0,47.0
3.2464165687561035,5.0,4353.0,13216.0,11908.0,10560.0,3483.0,1562.0
3.2479333877563477,0.0,6333.0,16156.0,19888.0,14088.0,8600.0,1500.0
3.2494499683380127,6.0,8312.0,21464.0,20084.0,14032.0,6733.0,1472.0
3.2509665489196777,3.0,16004.0,30540.0,25580.0,23348.0,6023.0,1444.0
3.252483367919922,0.0,25332.0,35888.0,40736.0,21756.0,8460.0,2356.0
3.2540667057037354,13.0,25916.0,33840.0,50000.0,36912.0,11812.0,3268.0
3.2555832862854004,25.0,27076.0,50176.0,68480.0,41376.0,21752.0,3043.0
3.2571001052856445,22.0,29136.0,53920.0,67808.0,48560.0,20996.0,4770.0
3.2586166858673096,11.0,35248.0,83040.0,70144.0,57232.0,28188.0,4240.0
3.2601332664489746,29.0,41344.0,98512.0,100224.0,60896.0,23556.0,3709.0
3.2616500854492188,34.0,64944.0,94816.0,101056.0,67600.0,31228.0,10316.0
3.263166666030884,47.0,74320.0,109648.0,121792.0,69632.0,25852.0,10132.0
3.264683246612549,39.0,71568.0,108592.0,131904.0,92832.0,37616.0,8900.0
3.266200065612793,31.0,78720.0,136192.0,133888.0,98912.0,47088.0,7673.0
3.267716646194458,30.0,92640.0,160896.0,153344.0,110304.0,55008.0,9300.0
3.269233226776123,39.0,87632.0,149184.0,162688.0,101360.0,39728.0,10928.0
3.2708001136779785,25.0,82624.0,182016.0,197184.0,110176.0,48672.0,9808.0
3.2723166942596436,5.0,94768.0,190272.0,183104.0,118992.0,51664.0,8688.0
3.2738332748413086,27.0,106928.0,178432.0,177088.0,123008.0,46672.0,13164.0
3.2753500938415527,7.0,116288.0,194752.0,182336.0,107312.0,53808.0,13148.0
3.2768666744232178,46.0,122864.0,215296.0,172416.0,128416.0,60944.0,14756.0
3.278383255004883,67.0,122128.0,205696.0,200064.0,116528.0,57472.0,17832.0
3.279900074005127,42.0,115104.0,197632.0,193408.0,143488.0,52816.0,8652.0
3.281416654586792,17.0,125152.0,194816.0,209920.0,152640.0,46768.0,15956.0
3.282933235168457,46.0,117440.0,193920.0,178496.0,128144.0,44544.0,12956.0
3.284450054168701,51.0,119504.0,188928.0,192960.0,123616.0,55200.0,16704.0
3.285966634750366,30.0,121216.0,182400.0,177344.0,113376.0,49120.0,4097.0
3.2875332832336426,23.0,119360.0,165120.0,194816.0,110240.0,38944.0,9648.0
3.2890665531158447,45.0,92432.0,150720.0,136960.0,93680.0,41168.0,7031.0
3.290583372116089,30.0,84400.0,148736.0,154880.0,110400.0,38768.0,9064.0
3.292099952697754,15.0,78496.0,122928.0,142592.0,77808.0,25956.0,8476.0
3.293616771697998,20.0,70512.0,106976.0,107536.0,81792.0,30376.0,7886.0
3.295133352279663,13.0,71216.0,118880.0,109600.0,72496.0,30696.0,11616.0
3.296649932861328,6.0,67936.0,114384.0,103504.0,70640.0,26052.0,2910.0
3.2981667518615723,21.0,58624.0,103088.0,72448.0,48704.0,16288.0,4604.0
3.2996833324432373,29.0,44336.0,64560.0,69088.0,57888.0,15848.0,11212.0
3.3011999130249023,29.0,41376.0,84896.0,69760.0,36640.0,21536.0,2093.0
3.3027167320251465,20.0,32740.0,49136.0,54512.0,34192.0,16120.0,4202.0
3.3042333126068115,11.0,43664.0,52672.0,43280.0,29412.0,14808.0,4136.0
3.305799961090088,30.0,26476.0,44144.0,42112.0,32756.0,11360.0,1713.0
3.307316780090332,28.0,22068.0,33664.0,32264.0,24352.0,11292.0,1613.0
3.308833360671997,17.0,13852.0,29600.0,36176.0,13284.0,6587.0,1327.0
3.310349941253662,5.0,14604.0,28864.0,17564.0,11788.0,3522.0,593.0
3.3118667602539062,9.0,16492.0,20928.0,15312.0,8340.0,3665.0,930.0
3.3133833408355713,12.0,10428.0,18324.0,13724.0,5679.0,3608.0,172.0
3.3148999214172363,0.0,11552.0,15596.0,13560.0,6943.0,1646.0,918.0
3.3164167404174805,3.0,5464.0,13668.0,13396.0,5163.0,1727.0,1570.0
3.3179333209991455,5.0,4950.0,8268.0,10972.0,3557.0,2357.0,1257.0
3.3194499015808105,5.0,2299.0,18368.0,14388.0,3346.0,1146.0,18.0
3.3209667205810547,11.0,2367.0,5687.0,5871.0,5739.0,2050.0,1200.0
3.322550058364868,16.0,6350.0,5089.0,5047.0,3840.0,2638.0,58.0
3.324066638946533,23.0,6480.0,6098.0,5216.0,5248.0,2098.0,19.0
3.3255832195281982,29.0,3459.0,5503.0,5876.0,2770.0,2373.0,35.0
3.3271000385284424,25.0,3563.0,4907.0,5973.0,3452.0,18.0,18.0
3.3286166191101074,10.0,5768.0,4616.0,6938.0,4134.0,16.0,148.0
3.3301334381103516,16.0,1938.0,4324.0,2359.0,3675.0,1432.0,277.0
3.3316500186920166,11.0,4408.0,3270.0,3325.0,3215.0,21.0,148.0
3.3331665992736816,6.0,27.0,3164.0,3713.0,3967.0,21.0,19.0
3.334683418273926,18.0,943.0,1486.0,2083.0,2697.0,52.0,16.0
3.336199998855591,20.0,745.0,2155.0,5736.0,3394.0,464.0,20.0
3.337716579437256,22.0,1539.0,2267.0,5540.0,4385.0,433.0,22.0
3.3392999172210693,18.0,2333.0,3707.0,5084.0,2805.0,402.0,23.0
3.3408167362213135,13.0,3565.0,3577.0,2713.0,2288.0,214.0,64.0
3.3423333168029785,0.0,3078.0,3447.0,3368.0,1497.0,25.0,34.0
3.3438498973846436,34.0,2081.0,2605.0,2370.0,1039.0,593.0,5.0
3.3453667163848877,31.0,911.0,3654.0,4893.0,286.0,421.0,12.0
3.3468832969665527,40.0,1889.0,884.0,4740.0,4698.0,1150.0,21.0
3.348400115966797,31.0,2866.0,1369.0,3028.0,3653.0,1301.0,242.0
3.349916696548462,26.0,454.0,2578.0,1273.0,1289.0,18.0,121.0
3.351433277130127,30.0,685.0,3472.0,2703.0,1892.0,590.0,0.0
3.352950096130371,15.0,1067.0,3357.0,2250.0,1930.0,191.0,74.0
3.354466676712036,34.0,1522.0,1888.0,641.0,1290.0,11.0,23.0
3.3560333251953125,43.0,1750.0,1651.0,1154.0,1875.0,6.0,27.0
3.3575499057769775,16.0,21.0,1932.0,915.0,1935.0,0.0,30.0
3.3590667247772217,26.0,1056.0,2705.0,675.0,1059.0,0.0,20.0
3.3605833053588867,6.0,18.0,755.0,2344.0,408.0,0.0,9.0
3.3620998859405518,30.0,1833.0,2900.0,1960.0,467.0,10.0,268.0
3.363616704940796,14.0,1513.0,27.0,1477.0,255.0,20.0,163.0
3.365133285522461,5.0,1194.0,869.0,1399.0,44.0,41.0,59.0
3.366650104522705,11.0,56.0,19.0,597.0,123.0,740.0,29.0
3.36816668510437,5.0,2233.0,20.0,1496.0,203.0,1006.0,32.0
3.369683265686035,64.0,11.0,21.0,1216.0,193.0,376.0,31.0
3.3712000846862793,71.0,46.0,488.0,451.0,266.0,23.0,33.0
3.3727834224700928,15.0,653.0,2287.0,620.0,338.0,720.0,682.0
3.374300003051758,27.0,775.0,2261.0,788.0,19.0,15.0,521.0
3.375816583633423,5.0,898.0,558.0,844.0,87.0,574.0,1081.0
3.377333402633667,5.0,0.0,1202.0,901.0,60.0,0.0,935.0
3.378849983215332,10.0,17.0,782.0,1234.0,33.0,217.0,5.0
3.380366563796997,5.0,14.0,748.0,6.0,214.0,10.0,29.0
3.381883382797241,35.0,22.0,512.0,1515.0,120.0,25.0,7.0
3.3833999633789062,33.0,979.0,275.0,903.0,25.0,27.0,137.0
3.3849167823791504,25.0,959.0,588.0,749.0,1105.0,29.0,266.0
3.3864333629608154,31.0,939.0,314.0,175.0,887.0,29.0,1111.0
3.3879499435424805,36.0,11.0,41.0,19.0,583.0,6.0,1531.0
3.389516592025757,5.0,40.0,253.0,45.0,36.0,248.0,1713.0
3.391033411026001,22.0,20.0,388.0,1462.0,8.0,131.0,1895.0
3.392549991607666,0.0,0.0,523.0,1429.0,142.0,13.0,1472.0
3.394066572189331,3.0,20.0,537.0,16.0,642.0,21.0,1049.0
3.395583391189575,5.0,742.0,519.0,369.0,610.0,34.0,2078.0
3.3970999717712402,21.0,690.0,276.0,22.0,579.0,20.0,165.0
3.3986165523529053,19.0,638.0,33.0,735.0,591.0,86.0,2201.0
3.4001333713531494,19.0,529.0,27.0,373.0,498.0,63.0,3388.0
3.4016499519348145,18.0,64.0,843.0,11.0,47.0,40.0,1596.0
3.4031667709350586,0.0,0.0,670.0,1110.0,23.0,27.0,2434.0
3.4046833515167236,7.0,7.0,92.0,1422.0,1260.0,24.0,938.0
3.40625,6.0,10.0,210.0,542.0,1423.0,17.0,511.0
3.407783269882202,5.0,14.0,577.0,1694.0,1157.0,10.0,1103.0
3.4093000888824463,6.0,13.0,294.0,768.0,55.0,9.0,319.0
3.4108166694641113,5.0,12.0,11.0,0.0,62.0,7.0,532.0
3.4123332500457764,15.0,40.0,12.0,962.0,740.0,6.0,1326.0
3.4138500690460205,72.0,286.0,23.0,703.0,979.0,5.0,1136.0
3.4153666496276855,57.0,146.0,33.0,380.0,26.0,14.0,947.0
3.4168832302093506,6.0,5.0,25.0,1114.0,24.0,13.0,33.0
3.4184000492095947,26.0,0.0,16.0,378.0,12.0,12.0,1705.0
3.4199166297912598,27.0,6.0,23.0,936.0,0.0,11.0,1160.0
3.421433448791504,0.0,10.0,29.0,39.0,9.0,10.0,2113.0
3.422950029373169,10.0,14.0,24.0,728.0,18.0,19.0,169.0
3.4245333671569824,24.0,33.0,18.0,1239.0,12.0,27.0,11.0
3.4260499477386475,37.0,19.0,22.0,737.0,21.0,21.0,1093.0
3.4275667667388916,34.0,5.0,14.0,236.0,10.0,15.0,897.0
3.4290833473205566,31.0,10.0,8.0,13.0,5.0,5.0,701.0
3.4305999279022217,31.0,38.0,0.0,987.0,0.0,11.0,608.0
3.432116746902466,0.0,47.0,12.0,727.0,22.0,6.0,42.0
3.433633327484131,16.0,55.0,24.0,34.0,45.0,0.0,52.0
3.435149908065796,32.0,0.0,17.0,20.0,35.0,11.0,17.0
3.43666672706604,0.0,18.0,10.0,5.0,0.0,476.0,25.0
3.438183307647705,13.0,7.0,102.0,20.0,44.0,446.0,33.0
3.43969988822937,5.0,1026.0,60.0,22.0,13.0,23.0,30.0
3.4412667751312256,8.0,1006.0,17.0,24.0,15.0,33.0,214.0
3.4427833557128906,16.0,13.0,24.0,5.0,0.0,0.0,107.0
3.4442999362945557,20.0,393.0,30.0,15.0,11.0,19.0,0.0
3.4458167552948,10.0,56.0,21.0,24.0,11.0,39.0,32.0
3.447333335876465,0.0,10.0,36.0,11.0,6.0,13.0,56.0
3.44884991645813,31.0,36.0,854.0,10.0,359.0,35.0,80.0
3.450366735458374,24.0,262.0,456.0,10.0,844.0,12.0,53.0
3.451883316040039,0.0,142.0,58.0,2311.0,426.0,15.0,34.0
3.453399896621704,45.0,23.0,18.0,2244.0,9.0,17.0,0.0
3.4549167156219482,62.0,22.0,10.0,626.0,478.0,74.0,0.0
3.4564332962036133,28.0,5.0,25.0,945.0,254.0,41.0,28.0
3.4580166339874268,14.0,32.0,39.0,1264.0,30.0,8.0,18.0
3.459533214569092,39.0,16.0,77.0,2805.0,15.0,49.0,16.0
3.461050033569336,36.0,0.0,50.0,2916.0,0.0,21.0,13.0
3.462566614151001,0.0,6.0,22.0,3400.0,23.0,17.0,12.0
3.464083433151245,14.0,25.0,11.0,3884.0,42.0,23.0,10.0
3.46560001373291,26.0,44.0,0.0,5438.0,783.0,28.0,22.0
3.467116594314575,15.0,39.0,26.0,5025.0,396.0,44.0,34.0
3.4686334133148193,27.0,19.0,13.0,4611.0,8.0,60.0,39.0
3.4701499938964844,0.0,15.0,0.0,6658.0,346.0,36.0,0.0
3.4716665744781494,0.0,16.0,312.0,10004.0,386.0,13.0,43.0
3.4731833934783936,11.0,16.0,156.0,10584.0,427.0,9.0,39.0
3.47475004196167,20.0,15.0,0.0,9300.0,672.0,5.0,520.0
3.476266622543335,26.0,14.0,136.0,9612.0,916.0,23.0,262.0
3.477783441543579,31.0,25.0,0.0,9928.0,1301.0,19.0,5.0
3.479300022125244,33.0,0.0,22.0,9472.0,1284.0,11.0,23.0
3.480816602706909,35.0,6.0,238.0,9016.0,1015.0,17.0,289.0
3.4823334217071533,27.0,0.0,216.0,10532.0,971.0,23.0,37.0
3.4838500022888184,19.0,21.0,194.0,12760.0,109.0,16.0,26.0
3.4853665828704834,31.0,32.0,105.0,14988.0,2440.0,34.0,28.0
3.4868834018707275,25.0,46.0,16.0,18004.0,2195.0,53.0,29.0
3.4883999824523926,18.0,42.0,16.0,18176.0,2703.0,55.0,41.0
3.4899165630340576,7.0,37.0,42.0,13652.0,171.0,57.0,35.0
3.491499900817871,13.0,35.0,783.0,16224.0,1419.0,60.0,28.0
3.4930167198181152,19.0,6.0,858.0,17600.0,927.0,64.0,40.0
3.4945333003997803,5.0,25.0,649.0,9928.0,435.0,45.0,32.0
3.4960498809814453,14.0,5.0,907.0,10156.0,827.0,25.0,25.0
3.4975666999816895,0.0,16.0,1448.0,13028.0,1601.0,5.0,10.0
3.4990832805633545,11.0,10.0,32.0,8656.0,2092.0,5.0,21.0
3.5006000995635986,20.0,16.0,303.0,6111.0,18.0,10.0,0.0
3.5021166801452637,17.0,496.0,26.0,6557.0,1405.0,14.0,56.0
3.5036332607269287,14.0,268.0,28.0,5104.0,15.0,10.0,73.0
3.505150079727173,37.0,40.0,29.0,4317.0,25.0,5.0,5.0
3.506666660308838,42.0,35.0,574.0,5274.0,40.0,5.0,42.0
3.5082333087921143,0.0,12.0,309.0,1246.0,17.0,3.0,0.0
3.5097498893737793,0.0,0.0,44.0,2075.0,292.0,0.0,33.0
3.5112667083740234,12.0,15.0,8.0,795.0,166.0,11.0,32.0
3.5127832889556885,24.0,29.0,9.0,14.0,41.0,22.0,12.0
3.5143001079559326,20.0,24.0,26.0,1206.0,18.0,19.0,9.0
3.5158166885375977,32.0,23.0,5.0,68.0,5.0,15.0,5.0
3.5173332691192627,26.0,22.0,6.0,9.0,21.0,18.0,3.0
3.518850088119507,33.0,21.0,24.0,20.0,29.0,15.0,0.0
3.520366668701172,32.0,16.0,43.0,130.0,0.0,12.0,0.0
3.521883249282837,30.0,18.0,35.0,78.0,15.0,16.0,0.0
3.523400068283081,29.0,9.0,36.0,26.0,5.0,20.0,21.0
3.5249667167663574,27.0,0.0,36.0,59.0,15.0,26.0,26.0
3.5264999866485596,8.0,41.0,36.0,43.0,23.0,22.0,0.0
3.5280165672302246,23.0,34.0,36.0,26.0,21.0,18.0,0.0
3.5295333862304688,24.0,52.0,51.0,37.0,6.0,23.0,16.0
3.531049966812134,25.0,45.0,37.0,49.0,943.0,5.0,19.0
3.532566785812378,20.0,6.0,24.0,10.0,477.0,11.0,22.0
3.534083366394043,15.0,6.0,10.0,29.0,11.0,22.0,32.0
3.535599946975708,5.0,5.0,28.0,7.0,19.0,35.0,19.0
3.537116765975952,26.0,11.0,14.0,15.0,27.0,49.0,5.0
3.538633346557617,18.0,17.0,20.0,24.0,25.0,47.0,40.0
3.5401499271392822,10.0,22.0,84.0,43.0,32.0,25.0,50.0
3.5416667461395264,17.0,14.0,56.0,33.0,39.0,6.0,17.0
3.5432333946228027,12.0,6.0,28.0,17.0,5.0,23.0,15.0
3.5447499752044678,7.0,23.0,7.0,0.0,9.0,5.0,15.0
3.546266555786133,50.0,21.0,26.0,5.0,22.0,16.0,16.0
3.547783374786377,47.0,18.0,17.0,10.0,34.0,20.0,16.0
3.549299955368042,5.0,10.0,12.0,16.0,30.0,16.0,6.0
3.550816774368286,8.0,12.0,6.0,21.0,19.0,11.0,25.0
3.552333354949951,23.0,25.0,252.0,0.0,26.0,6.0,24.0
3.553849935531616,29.0,0.0,375.0,22.0,37.0,0.0,5.0
3.5553667545318604,24.0,6.0,497.0,13.0,27.0,0.0,0.0
3.5568833351135254,18.0,11.0,48.0,5.0,16.0,0.0,22.0
3.5583999156951904,5.0,6.0,33.0,5.0,20.0,0.0,13.0
3.559950113296509,32.0,0.0,12.0,3.0,18.0,27.0,30.0
3.561466693878174,12.0,12.0,48.0,0.0,15.0,37.0,34.0
3.562983274459839,29.0,25.0,7.0,18.0,32.0,6.0,35.0
3.564500093460083,50.0,21.0,30.0,21.0,43.0,26.0,35.0
3.566016674041748,28.0,37.0,57.0,19.0,43.0,39.0,5.0
3.567533254623413,6.0,0.0,31.0,21.0,12.0,40.0,14.0
3.5690500736236572,25.0,17.0,5.0,0.0,22.0,41.0,33.0
3.5705666542053223,29.0,27.0,6.0,13.0,31.0,32.0,22.0
3.5720832347869873,31.0,24.0,6.0,25.0,0.0,13.0,26.0
3.5736000537872314,36.0,20.0,11.0,11.0,19.0,13.0,17.0
3.5751166343688965,19.0,24.0,15.0,11.0,40.0,0.0,8.0
3.5766499042510986,17.0,28.0,47.0,10.0,0.0,0.0,16.0
3.5781667232513428,30.0,52.0,65.0,14.0,21.0,23.0,5.0
3.579683303833008,19.0,33.0,51.0,18.0,14.0,34.0,16.0
3.581199884414673,18.0,15.0,36.0,30.0,0.0,46.0,7.0
3.582733392715454,17.0,19.0,13.0,19.0,28.0,0.0,9.0
3.584233283996582,12.0,28.0,22.0,7.0,22.0,17.0,5.0
3.585750102996826,7.0,6.0,19.0,22.0,5.0,33.0,0.0
3.587266683578491,20.0,18.0,15.0,15.0,21.0,21.0,7.0
3.5887832641601562,15.0,40.0,20.0,7.0,10.0,15.0,23.0
3.5903000831604004,14.0,20.0,37.0,16.0,7.0,0.0,28.0
3.5918166637420654,10.0,0.0,59.0,24.0,21.0,7.0,27.0
3.593400001525879,16.0,33.0,32.0,23.0,24.0,14.0,7.0
3.594916582107544,16.0,39.0,5.0,21.0,5.0,5.0,40.0
3.596433401107788,17.0,31.0,5.0,19.0,11.0,22.0,32.0
3.597949981689453,11.0,24.0,154.0,21.0,15.0,21.0,19.0
