,245.0800018310547,246.0800018310547,247.0800018310547,248.0800018310547
2.1012165546417236,5.0,13.0,32.0,42.0
2.102299928665161,55.0,19.0,50.0,11.0
2.1046833992004395,16.0,0.0,31.0,17.0
2.1070666313171387,30.0,20.0,6.0,13.0
2.109499931335449,26.0,13.0,45.0,7.0
2.1118834018707275,18.0,10.0,10.0,0.0
2.114283323287964,24.0,6.0,17.0,16.0
2.116666555404663,12.0,17.0,37.0,9.0
2.1190500259399414,16.0,28.0,53.0,5.0
2.1214332580566406,11.0,23.0,38.0,5.0
2.123816728591919,5.0,17.0,7.0,5.0
2.1262333393096924,0.0,5.0,39.0,9.0
2.1286165714263916,0.0,12.0,39.0,12.0
2.13100004196167,5.0,13.0,12.0,11.0
2.133383274078369,7.0,13.0,55.0,10.0
2.1357667446136475,6.0,21.0,47.0,675.0
2.1381499767303467,8.0,28.0,39.0,597.0
2.140533447265625,8.0,20.0,30.0,519.0
2.1429500579833984,7.0,11.0,24.0,7.0
2.1453332901000977,25.0,15.0,9.0,58.0
2.147733449935913,25.0,11.0,13.0,28.0
2.150099992752075,25.0,7.0,0.0,907.0
2.1524832248687744,8.0,0.0,0.0,1284.0
2.1548666954040527,7.0,3.0,19.0,1665.0
2.157249927520752,5.0,6.0,8.0,1335.0
2.1596500873565674,3.0,7.0,37.0,1006.0
2.1620333194732666,0.0,11.0,24.0,465.0
2.164416551589966,32.0,14.0,10.0,834.0
2.166800022125244,19.0,25.0,43.0,867.0
2.1691832542419434,5.0,29.0,24.0,955.0
2.1715667247772217,19.0,0.0,22.0,22.0
2.173949956893921,5.0,39.0,23.0,34.0
2.1763999462127686,12.0,20.0,11.0,733.0
2.178783416748047,30.0,0.0,13.0,385.0
2.181166648864746,28.0,0.0,11.0,36.0
2.1835498809814453,5.0,6.0,24.0,263.0
2.1859333515167236,17.0,3.0,30.0,489.0
2.188316583633423,23.0,0.0,37.0,257.0
2.190700054168701,28.0,16.0,25.0,25.0
2.193150043487549,18.0,216.0,13.0,23.0
2.195533275604248,13.0,112.0,26.0,10.0
2.1979167461395264,39.0,7.0,11.0,0.0
2.2002999782562256,30.0,21.0,24.0,198.0
2.202683448791504,11.0,61.0,35.0,397.0
2.205066680908203,17.0,19.0,5.0,534.0
2.2074499130249023,23.0,14.0,34.0,671.0
2.209866762161255,14.0,7.0,32.0,747.0
2.2122833728790283,5.0,0.0,20.0,29.0
2.2146666049957275,16.0,10.0,23.0,1060.0
2.217050075531006,26.0,20.0,17.0,252.0
2.219433307647705,23.0,18.0,10.0,26.0
2.2218167781829834,14.0,17.0,30.0,19.0
2.2242000102996826,5.0,10.0,26.0,17.0
2.226583242416382,9.0,13.0,16.0,6.0
2.2289834022521973,13.0,6.0,30.0,514.0
2.2313833236694336,23.0,3.0,17.0,407.0
2.233766555786133,40.0,0.0,16.0,38.0
2.236150026321411,38.0,3.0,11.0,5.0
2.2385332584381104,53.0,5.0,6.0,21.0
2.2409167289733887,44.0,5.0,0.0,32.0
2.243299961090088,7.0,5.0,17.0,1038.0
2.245699882507324,26.0,39.0,28.0,889.0
2.2480833530426025,28.0,24.0,39.0,39.0
2.250483274459839,0.0,8.0,0.0,0.0
2.252866744995117,11.0,23.0,10.0,39.0
2.2552499771118164,0.0,32.0,20.0,31.0
2.2576334476470947,16.0,50.0,28.0,22.0
2.260016679763794,17.0,45.0,0.0,13.0
2.2624166011810303,17.0,23.0,0.0,39.0
2.2648000717163086,0.0,25.0,41.0,22.0
2.267183303833008,24.0,0.0,49.0,5.0
2.269583225250244,20.0,25.0,17.0,25.0
2.2719666957855225,16.0,20.0,0.0,36.0
2.2743499279022217,13.0,15.0,16.0,48.0
2.2767333984375,13.0,18.0,23.0,126.0
2.2791333198547363,13.0,7.0,11.0,65.0
2.2815332412719727,15.0,542.0,18.0,5.0
2.283916711807251,17.0,1076.0,23.0,836.0
2.28629994392395,16.0,3073.0,911.0,2774.0
2.2886834144592285,0.0,9732.0,881.0,4498.0
2.2910666465759277,6.0,20144.0,3456.0,6094.0
2.293450117111206,11.0,45456.0,8220.0,10436.0
2.2958500385284424,16.0,75952.0,10076.0,24272.0
2.2982332706451416,11.0,179456.0,20788.0,46432.0
2.300633430480957,5.0,298048.0,36864.0,78032.0
2.3030166625976562,12.0,426752.0,32632.0,142208.0
2.3053998947143555,9.0,776192.0,81408.0,185280.0
2.307783365249634,6.0,1122048.0,104192.0,312704.0
2.310166597366333,6.0,1535232.0,135040.0,363008.0
2.3125667572021484,5.0,1697792.0,150656.0,414400.0
2.3149499893188477,48.0,2171904.0,219200.0,534272.0
2.317349910736084,51.0,2494464.0,208640.0,618752.0
2.3197333812713623,65.0,2760704.0,246976.0,689664.0
2.3221166133880615,200.0,2891776.0,254400.0,708096.0
2.32450008392334,177.0,2972672.0,247808.0,760320.0
2.326883316040039,36.0,3227648.0,282304.0,756992.0
2.3292999267578125,49.0,3323904.0,274112.0,781312.0
2.331683397293091,99.0,3373056.0,265920.0,805376.0
2.33406662940979,92.0,3450880.0,279872.0,810752.0
2.3364500999450684,84.0,3419136.0,310976.0,816128.0
2.3388333320617676,72.0,3360768.0,320640.0,864256.0
2.341216564178467,88.0,3303424.0,298560.0,884224.0
2.343600034713745,82.0,3429376.0,305152.0,844032.0
2.3459999561309814,77.0,3555328.0,319424.0,863232.0
2.348400115966797,87.0,3555328.0,316928.0,833024.0
2.350783348083496,96.0,3435520.0,300928.0,804864.0
2.3531665802001953,60.0,3397632.0,295680.0,797184.0
2.3555500507354736,286.0,3356672.0,287360.0,824832.0
2.357933282852173,158.0,3247104.0,274368.0,786944.0
2.360316753387451,29.0,3394560.0,306688.0,800000.0
2.3627333641052246,117.0,3328000.0,302016.0,776704.0
2.365116596221924,125.0,3546112.0,324864.0,803584.0
2.367500066757202,133.0,3497984.0,286912.0,830208.0
2.3698832988739014,67.0,3390464.0,270272.0,885504.0
2.3722667694091797,78.0,3679232.0,328896.0,880384.0
2.374650001525879,67.0,3936256.0,282624.0,874752.0
2.377033233642578,66.0,3795968.0,308032.0,888832.0
2.3794333934783936,66.0,3765248.0,314368.0,887040.0
2.3818166255950928,77.0,3929088.0,329984.0,885248.0
2.384216785430908,89.0,3673088.0,312064.0,888320.0
2.3866000175476074,83.0,3898368.0,329216.0,891648.0
2.3889832496643066,78.0,3982336.0,311552.0,876544.0
2.391366720199585,98.0,3274752.0,311040.0,861184.0
2.393749952316284,75.0,3408896.0,252224.0,755712.0
2.3961665630340576,52.0,3156992.0,284736.0,795392.0
2.398550033569336,57.0,2714624.0,248640.0,643840.0
2.400933265686035,47.0,2621440.0,248320.0,650240.0
2.4033167362213135,48.0,2448384.0,213504.0,498880.0
2.4056999683380127,49.0,2148352.0,189696.0,528128.0
2.408083438873291,44.0,1853696.0,140992.0,412480.0
2.4104666709899902,39.0,1569792.0,131264.0,346304.0
2.4128832817077637,50.0,1261568.0,101248.0,316416.0
2.415266752243042,60.0,1071872.0,92400.0,261760.0
2.417649984359741,54.0,924416.0,75888.0,190912.0
2.4200332164764404,49.0,643584.0,55712.0,157376.0
2.4224166870117188,48.0,577280.0,40928.0,118784.0
2.424799919128418,48.0,468224.0,46384.0,91472.0
2.4271833896636963,33.0,349632.0,30972.0,71312.0
2.4295833110809326,19.0,301568.0,25272.0,76448.0
2.431966781616211,13.0,242688.0,25324.0,60256.0
2.4343667030334473,35.0,205248.0,17444.0,45744.0
2.4367499351501465,36.0,175680.0,10764.0,47872.0
2.439133405685425,37.0,150784.0,9588.0,32308.0
2.441516637802124,18.0,133312.0,13676.0,40928.0
2.4439001083374023,49.0,130544.0,13160.0,28916.0
2.4463000297546387,28.0,115296.0,10392.0,19972.0
2.448683261871338,31.0,111456.0,11744.0,22796.0
2.4510834217071533,43.0,101360.0,3014.0,25312.0
2.4534666538238525,21.0,104640.0,8892.0,20820.0
2.4558498859405518,53.0,100320.0,12364.0,16260.0
2.45823335647583,13.0,79456.0,7407.0,14108.0
2.4606165885925293,40.0,72560.0,4877.0,13516.0
2.463033437728882,10.0,66208.0,7875.0,12040.0
2.465416669845581,23.0,61568.0,8784.0,6691.0
2.4677999019622803,41.0,60960.0,7945.0,15484.0
2.4701833724975586,26.0,65536.0,5349.0,14872.0
2.472566604614258,10.0,59312.0,6051.0,13636.0
2.474950075149536,37.0,61104.0,7960.0,12404.0
2.4773333072662354,39.0,47168.0,2979.0,9352.0
2.4797332286834717,42.0,59792.0,2972.0,10492.0
2.482133388519287,45.0,52864.0,5284.0,14668.0
2.4845166206359863,29.0,54576.0,5447.0,11892.0
2.4869000911712646,29.0,61616.0,4446.0,9116.0
2.489283323287964,29.0,49136.0,3641.0,14544.0
2.491666555404663,28.0,38576.0,4533.0,9776.0
2.4940500259399414,19.0,43456.0,2887.0,12808.0
2.4964499473571777,10.0,43616.0,4609.0,11348.0
2.498833417892456,51.0,37840.0,5252.0,4474.0
2.500999927520752,77.0,37472.0,4110.0,10900.0
2.501866579055786,70.0,40880.0,1987.0,5030.0
2.5027332305908203,22.0,37616.0,4098.0,11404.0
2.5035998821258545,12.0,32696.0,3440.0,10924.0
2.5044667720794678,40.0,34992.0,750.0,8056.0
2.505333423614502,35.0,32816.0,2664.0,5405.0
2.506200075149536,0.0,34208.0,3172.0,8632.0
2.5070667266845703,25.0,34208.0,1306.0,7269.0
2.5079333782196045,19.0,34208.0,3330.0,5790.0
2.5088000297546387,12.0,33952.0,626.0,4835.0
2.509666681289673,36.0,37488.0,1609.0,3881.0
2.510550022125244,33.0,40160.0,2593.0,7200.0
2.5114667415618896,29.0,29652.0,2938.0,6148.0
2.512333393096924,6.0,44064.0,1904.0,4893.0
2.513200044631958,14.0,32352.0,1950.0,7007.0
2.514066696166992,33.0,30752.0,3360.0,5875.0
2.5149333477020264,20.0,40928.0,3150.0,4743.0
2.5157999992370605,43.0,29976.0,3213.0,10412.0
2.5166666507720947,44.0,31008.0,3763.0,9104.0
2.517533302307129,46.0,30380.0,4023.0,9300.0
2.518399953842163,17.0,32624.0,3410.0,9548.0
2.5192666053771973,60.0,25972.0,2796.0,4762.0
2.5201332569122314,15.0,31508.0,3442.0,7396.0
2.5209999084472656,55.0,30492.0,3225.0,7895.0
2.5218665599823,15.0,25808.0,3008.0,4547.0
2.522733449935913,27.0,27888.0,28.0,5178.0
2.5236001014709473,19.0,26460.0,3550.0,9252.0
2.5244667530059814,15.0,25624.0,4209.0,1526.0
2.5253334045410156,10.0,25572.0,4797.0,5381.0
2.52620005607605,19.0,24472.0,2618.0,13048.0
2.527066707611084,28.0,23372.0,2385.0,12304.0
2.5279667377471924,27.0,31164.0,3276.0,3713.0
2.528866767883301,18.0,29600.0,3040.0,8668.0
2.529733419418335,36.0,28032.0,5207.0,8003.0
2.530600070953369,24.0,27136.0,4669.0,4728.0
2.5314667224884033,11.0,21584.0,2848.0,8688.0
2.5323333740234375,17.0,25136.0,879.0,8792.0
2.5332000255584717,29.0,28692.0,5655.0,8130.0
2.534066677093506,17.0,30728.0,3452.0,7179.0
2.53493332862854,5.0,32912.0,2794.0,6228.0
2.535799980163574,17.0,21912.0,435.0,6292.0
2.5366666316986084,17.0,20668.0,1120.0,8436.0
2.5375332832336426,11.0,28612.0,1805.0,6633.0
2.5383999347686768,11.0,24012.0,1615.0,4832.0
2.539266586303711,11.0,29280.0,1425.0,5399.0
2.540133237838745,50.0,28304.0,1654.0,5565.0
2.5409998893737793,53.0,25584.0,1883.0,5730.0
2.5418667793273926,26.0,22864.0,2013.0,2431.0
2.5427334308624268,11.0,25140.0,1906.0,6773.0
2.543600082397461,23.0,28308.0,2323.0,4213.0
2.544466733932495,34.0,17132.0,981.0,6952.0
2.5453832149505615,41.0,24332.0,959.0,8556.0
2.546250104904175,15.0,26620.0,938.0,7369.0
2.547116756439209,31.0,16184.0,1027.0,3973.0
2.547983407974243,41.0,23424.0,1595.0,6298.0
2.5488500595092773,37.0,28736.0,2162.0,9700.0
2.5497167110443115,19.0,29024.0,53.0,8396.0
2.5505833625793457,27.0,20476.0,595.0,4223.0
2.55145001411438,5.0,22164.0,1208.0,4037.0
2.552316665649414,34.0,19108.0,1821.0,6758.0
2.5531833171844482,36.0,23212.0,1361.0,7340.0
2.5540499687194824,18.0,22844.0,589.0,4401.0
2.5549166202545166,30.0,22476.0,863.0,4528.0
2.555783271789551,32.0,23748.0,1137.0,5778.0
2.556649923324585,34.0,21628.0,296.0,5057.0
2.557516574859619,31.0,23800.0,897.0,4335.0
2.5583832263946533,33.0,17560.0,1794.0,4174.0
2.5592501163482666,37.0,16632.0,1656.0,5332.0
2.560116767883301,41.0,17136.0,1518.0,2943.0
2.560983419418335,19.0,14304.0,2008.0,1745.0
2.5618999004364014,27.0,18968.0,2098.0,5726.0
2.5627832412719727,14.0,16504.0,2188.0,3897.0
2.563649892807007,50.0,14040.0,2042.0,2429.0
2.56451678276062,52.0,17240.0,1122.0,7607.0
2.5653834342956543,0.0,20440.0,1738.0,5424.0
2.5662500858306885,43.0,20940.0,2341.0,2983.0
2.5671167373657227,66.0,19056.0,1959.0,3843.0
2.567983388900757,26.0,18788.0,2162.0,3114.0
2.568850040435791,63.0,17720.0,22.0,4312.0
2.569716691970825,13.0,16648.0,2563.0,6166.0
2.5705833435058594,8.0,20884.0,2089.0,6681.0
2.5714499950408936,31.0,19544.0,2168.0,8153.0
2.5723166465759277,24.0,18204.0,740.0,3720.0
2.573183298110962,17.0,12840.0,1213.0,4315.0
2.574049949645996,15.0,22868.0,3017.0,6898.0
2.5749166011810303,12.0,15488.0,4560.0,2952.0
2.5757832527160645,15.0,18072.0,3008.0,2535.0
2.5766499042510986,18.0,19964.0,1303.0,6688.0
2.577516555786133,12.0,16696.0,1556.0,5278.0
2.578383445739746,5.0,13372.0,664.0,4750.0
2.5792999267578125,12.0,21088.0,21.0,2121.0
2.5801665782928467,23.0,18308.0,1961.0,729.0
2.581033229827881,24.0,12284.0,785.0,6251.0
2.581899881362915,33.0,12196.0,588.0,6181.0
2.5827667713165283,41.0,10296.0,391.0,5004.0
2.5836334228515625,48.0,14344.0,20.0,2283.0
2.5845000743865967,54.0,14676.0,908.0,3371.0
2.585366725921631,48.0,15004.0,645.0,6100.0
2.586233377456665,11.0,14540.0,383.0,3844.0
2.587100028991699,20.0,14072.0,584.0,1415.0
2.5879666805267334,32.0,12480.0,1043.0,5547.0
2.5888500213623047,38.0,16172.0,799.0,4294.0
2.5896999835968018,43.0,13208.0,555.0,2997.0
2.590566635131836,43.0,10244.0,745.0,3834.0
2.59143328666687,577.0,20960.0,935.0,4672.0
2.5922999382019043,301.0,18100.0,474.0,5155.0
2.5931665897369385,25.0,23364.0,12.0,5638.0
2.5940332412719727,20.0,17164.0,493.0,3454.0
2.594899892807007,26.0,14856.0,35.0,4503.0
2.5958166122436523,11.0,10952.0,45.0,6390.0
2.5966999530792236,54.0,13936.0,379.0,1809.0
2.597566604614258,43.0,16916.0,713.0,3695.0
2.598433256149292,51.0,10252.0,2481.0,4052.0
2.599299907684326,33.0,16104.0,1772.0,1975.0
2.6001665592193604,5.0,16644.0,1064.0,3231.0
2.6010334491729736,5.0,17240.0,52.0,2500.0
2.601900100708008,8.0,12028.0,290.0,5462.0
2.602766752243042,10.0,17260.0,529.0,4070.0
2.603633403778076,87.0,11668.0,574.0,2677.0
2.6045000553131104,52.0,11796.0,619.0,1487.0
2.6053667068481445,18.0,17896.0,7.0,4015.0
2.6062333583831787,31.0,14232.0,629.0,3003.0
2.607100009918213,44.0,9992.0,2914.0,3706.0
2.607966661453247,28.0,13176.0,2674.0,4410.0
2.6088333129882812,12.0,15516.0,553.0,5152.0
2.6096999645233154,1809.0,11076.0,249.0,2080.0
2.6105666160583496,2129.0,14708.0,1817.0,1087.0
2.611433267593384,1142.0,13764.0,493.0,798.0
2.612299919128418,1341.0,10760.0,1181.0,1885.0
2.6132333278656006,1061.0,14204.0,633.0,1941.0
2.6140999794006348,2494.0,9356.0,871.0,1997.0
2.614966630935669,4005.0,15196.0,1568.0,1761.0
2.615833282470703,3105.0,16820.0,40.0,3935.0
2.6166999340057373,2205.0,14508.0,564.0,4226.0
2.6175665855407715,3276.0,10148.0,1245.0,4517.0
2.6184332370758057,4347.0,12828.0,775.0,914.0
2.61929988861084,5595.0,14544.0,450.0,3911.0
2.620166778564453,5170.0,9312.0,552.0,1865.0
2.6210334300994873,4745.0,14720.0,654.0,3094.0
2.6219000816345215,6423.0,7025.0,531.0,469.0
2.6227667331695557,8101.0,8428.0,641.0,3898.0
2.62363338470459,7954.0,7655.0,841.0,1277.0
2.624500036239624,7245.0,7121.0,1042.0,2197.0
2.625366687774658,8460.0,8232.0,911.0,2055.0
2.6262333393096924,9676.0,8153.0,779.0,1913.0
2.6270999908447266,10068.0,8073.0,11.0,2304.0
2.6279666423797607,10460.0,8187.0,23.0,2695.0
2.628833293914795,6846.0,8656.0,34.0,466.0
2.6297333240509033,17224.0,9124.0,5.0,2730.0
2.6306166648864746,18164.0,9716.0,14.0,689.0
2.631483316421509,13108.0,10456.0,23.0,15.0
2.632349967956543,15712.0,12244.0,645.0,685.0
2.633216619491577,12280.0,5877.0,328.0,1355.0
2.6340832710266113,10036.0,8448.0,11.0,1420.0
2.6349499225616455,11364.0,11436.0,646.0,1372.0
2.6358165740966797,12692.0,8608.0,512.0,681.0
2.636683225631714,10128.0,6813.0,379.0,1894.0
2.637550115585327,9984.0,7204.0,48.0,1750.0
2.6384167671203613,9836.0,7713.0,111.0,2193.0
2.6392834186553955,14296.0,8220.0,686.0,1897.0
2.6401500701904297,13944.0,4395.0,352.0,2714.0
2.641016721725464,13588.0,6260.0,19.0,806.0
2.641883373260498,15624.0,5952.0,17.0,2060.0
2.6427500247955322,15816.0,5645.0,44.0,1863.0
2.6436166763305664,16008.0,8169.0,24.0,1336.0
2.6444833278656006,18780.0,5345.0,31.0,825.0
2.6453499794006348,11252.0,2522.0,38.0,2482.0
2.646216630935669,14160.0,6346.0,31.0,17.0
2.6471500396728516,17636.0,6184.0,24.0,783.0
2.6480166912078857,13528.0,3260.0,20.0,2535.0
2.64888334274292,13476.0,8672.0,516.0,872.0
2.649749994277954,16920.0,9940.0,540.0,920.0
2.6506166458129883,13964.0,7600.0,565.0,1615.0
2.6514832973480225,17052.0,8668.0,301.0,1728.0
2.6523499488830566,15720.0,8660.0,37.0,3884.0
2.653216600418091,12580.0,8006.0,21.0,3000.0
2.654083251953125,14736.0,7343.0,5.0,2117.0
2.654949903488159,13148.0,6056.0,508.0,2787.0
2.6558165550231934,13068.0,6307.0,1011.0,1841.0
2.6566834449768066,14952.0,9452.0,517.0,426.0
2.657550096511841,14168.0,11740.0,22.0,615.0
2.658416748046875,13144.0,10792.0,48.0,1914.0
2.659283399581909,13404.0,8196.0,114.0,732.0
2.6601500511169434,13660.0,9252.0,252.0,642.0
2.6610167026519775,23184.0,10008.0,135.0,553.0
2.6618833541870117,21412.0,8520.0,17.0,1307.0
2.662750005722046,12228.0,7058.0,27.0,672.0
2.6636500358581543,15116.0,8292.0,37.0,37.0
2.6645500659942627,16252.0,9528.0,66.0,554.0
2.665416717529297,13744.0,8832.0,1118.0,1071.0
2.666283369064331,16672.0,8136.0,1242.0,867.0
2.6671500205993652,15276.0,9508.0,7.0,973.0
2.6680166721343994,13880.0,3406.0,174.0,1074.0
2.6688833236694336,16228.0,6113.0,30.0,1175.0
2.6697499752044678,12788.0,3293.0,35.0,1102.0
2.670616626739502,11024.0,6204.0,41.0,8.0
2.671483278274536,18180.0,6934.0,1031.0,1621.0
2.6723499298095703,17596.0,2541.0,533.0,664.0
2.6732165813446045,10200.0,2980.0,34.0,1715.0
2.6740832328796387,10960.0,7436.0,722.0,56.0
2.674949884414673,15088.0,6799.0,143.0,1130.0
2.675816774368286,15732.0,1572.0,287.0,867.0
2.6766834259033203,13200.0,2627.0,30.0,56.0
2.6775500774383545,10032.0,4912.0,34.0,962.0
2.6784167289733887,11124.0,6100.0,37.0,492.0
2.679283380508423,12220.0,5383.0,13.0,22.0
2.680150032043457,11804.0,5470.0,642.0,1040.0
2.6810667514801025,11388.0,1072.0,644.0,996.0
2.6819334030151367,14096.0,4415.0,327.0,953.0
2.682800054550171,6670.0,4214.0,11.0,702.0
2.683666706085205,8992.0,1212.0,368.0,858.0
2.6845333576202393,12304.0,2998.0,188.0,1015.0
2.6854000091552734,12348.0,5395.0,7.0,578.0
2.6862666606903076,10244.0,4795.0,544.0,56.0
2.687133312225342,9060.0,5277.0,280.0,540.0
2.687999963760376,5611.0,5375.0,15.0,1318.0
2.68886661529541,12768.0,5473.0,476.0,1551.0
2.6897332668304443,11420.0,4641.0,247.0,5.0
2.6905999183654785,12872.0,3810.0,17.0,1083.0
2.6914665699005127,11060.0,4374.0,366.0,889.0
2.692333221435547,7947.0,4939.0,35.0,889.0
2.69320011138916,6603.0,3978.0,21.0,462.0
2.6940667629241943,7308.0,2179.0,6.0,34.0
2.6949334144592285,8013.0,3105.0,15.0,842.0
2.6958000659942627,11548.0,3183.0,90.0,88.0
2.696666717529297,11088.0,3261.0,165.0,33.0
2.6975834369659424,5554.0,1912.0,184.0,5.0
2.6984667778015137,4492.0,2988.0,202.0,76.0
