,325.2099914550781,326.2099914550781,327.2099914550781,328.2099914550781,329.2099914550781,330.2099914550781,331.2099914550781,332.2099914550781
2.302116632461548,16.0,10.0,39.0,1887.0,14.0,5.0,11.0,45.0
2.3045499324798584,17.0,24.0,5.0,20.0,31.0,86.0,17.0,14.0
2.307800054550171,18.0,1024.0,32.0,34.0,541.0,1326.0,45.0,20.0
2.3110499382019043,9.0,8.0,0.0,56.0,31.0,15.0,29.0,30.0
2.314300060272217,12.0,32.0,28.0,68.0,12.0,28.0,13.0,40.0
2.31754994392395,14.0,39.0,49.0,39.0,20.0,12.0,20.0,29.0
2.3208000659942627,10.0,42.0,53.0,45.0,18.0,56.0,12.0,5.0
2.3241167068481445,6.0,0.0,26.0,64.0,15.0,66.0,27.0,51.0
2.327366590499878,17.0,43.0,13.0,31.0,11.0,5.0,28.0,15.0
2.3306167125701904,14.0,10.0,5.0,48.0,5.0,31.0,10.0,5.0
2.333866596221924,17.0,20.0,13.0,21.0,21.0,23.0,31.0,16.0
2.3371167182922363,20.0,31.0,20.0,11.0,32.0,18.0,14.0,0.0
2.340416669845581,67.0,16.0,26.0,11.0,31.0,22.0,0.0,55.0
2.3436665534973145,59.0,0.0,29.0,23.0,29.0,6.0,63.0,47.0
2.346916675567627,27.0,24.0,28.0,0.0,30.0,15.0,34.0,15.0
2.3501665592193604,6.0,7.0,27.0,23.0,31.0,0.0,5.0,31.0
2.353416681289673,56.0,29.0,5.0,12.0,32.0,8.0,43.0,15.0
2.3567333221435547,22.0,19.0,22.0,15.0,34.0,16.0,43.0,39.0
2.359983444213867,39.0,6.0,25.0,18.0,5.0,16.0,0.0,19.0
2.3632333278656006,34.0,18.0,27.0,20.0,21.0,16.0,7.0,0.0
2.366499900817871,29.0,9.0,6.0,10.0,24.0,32.0,58.0,7.0
2.3697500228881836,46.0,0.0,13.0,0.0,26.0,22.0,21.0,44.0
2.3730499744415283,0.0,4.0,28.0,727.0,28.0,12.0,502.0,28.0
2.376300096511841,22.0,8.0,5.0,1003.0,12.0,286.0,557.0,12.0
2.379549980163574,36.0,1240.0,35.0,718.0,618.0,163.0,611.0,43.0
2.3828001022338867,5.0,1065.0,3691.0,2263.0,1225.0,40.0,616.0,577.0
2.38604998588562,36.0,2284.0,5630.0,4659.0,4050.0,1763.0,1337.0,691.0
2.389366626739502,31.0,3502.0,9224.0,5114.0,3753.0,4972.0,2057.0,899.0
2.3926167488098145,9.0,6770.0,15664.0,5569.0,9068.0,4904.0,1858.0,2474.0
2.395866632461548,5.0,17608.0,26392.0,12592.0,10196.0,3555.0,1660.0,3996.0
2.3991167545318604,15.0,16616.0,32464.0,14076.0,12296.0,6530.0,3723.0,3633.0
2.4023666381835938,15.0,15336.0,33296.0,15560.0,14396.0,9440.0,5786.0,3269.0
2.4056167602539062,12.0,23580.0,44432.0,30736.0,29352.0,19108.0,4681.0,3615.0
2.408933401107788,17.0,25892.0,46928.0,42192.0,31532.0,15136.0,17356.0,3380.0
2.4121832847595215,22.0,36496.0,61840.0,49776.0,34640.0,21620.0,16996.0,3144.0
2.415433406829834,0.0,36832.0,66768.0,59584.0,38272.0,25508.0,18864.0,7557.0
2.4186832904815674,10.0,39856.0,78976.0,57392.0,36576.0,21096.0,14428.0,8512.0
2.42193341255188,20.0,29624.0,64704.0,55616.0,36848.0,20420.0,11568.0,8552.0
2.4252500534057617,23.0,27588.0,60848.0,58832.0,37120.0,23912.0,17712.0,8592.0
2.428499937057495,12.0,43568.0,70240.0,60064.0,37232.0,22548.0,18168.0,5616.0
2.4317500591278076,11.0,39648.0,71808.0,59168.0,37344.0,21180.0,19116.0,7072.0
2.434999942779541,29.0,45760.0,73360.0,57440.0,33776.0,20648.0,18172.0,8528.0
2.4382500648498535,36.0,45968.0,100880.0,59104.0,42064.0,23072.0,15212.0,14748.0
2.4415833950042725,0.0,44112.0,94384.0,60752.0,44096.0,25320.0,24456.0,12640.0
2.444833278656006,44.0,45712.0,85712.0,60496.0,46128.0,29644.0,21940.0,15868.0
2.4480834007263184,21.0,47296.0,89232.0,60240.0,44832.0,28492.0,16248.0,17168.0
2.4513332843780518,18.0,51008.0,96288.0,54864.0,45712.0,30848.0,25076.0,12472.0
2.4545834064483643,13.0,54640.0,88256.0,56880.0,51488.0,34880.0,16480.0,15628.0
2.4578499794006348,24.0,57664.0,97488.0,58896.0,54032.0,34192.0,16980.0,15120.0
2.4611001014709473,25.0,56912.0,82368.0,61440.0,48128.0,32416.0,18472.0,8724.0
2.4643499851226807,19.0,45872.0,74400.0,57072.0,55424.0,24740.0,17696.0,5140.0
2.467600107192993,12.0,34208.0,62336.0,52688.0,35120.0,22000.0,16372.0,7972.0
2.4708499908447266,6.0,41104.0,53408.0,35408.0,24516.0,13732.0,8864.0,7422.0
2.4741666316986084,0.0,26500.0,50576.0,34048.0,25428.0,17136.0,5731.0,2129.0
2.477416753768921,11.0,30036.0,31504.0,28984.0,11160.0,15212.0,4147.0,4851.0
2.4806666374206543,31.0,25180.0,28424.0,18500.0,16448.0,6356.0,3146.0,2328.0
2.483916759490967,24.0,19544.0,21560.0,19332.0,6612.0,6590.0,3421.0,2971.0
2.4871666431427,0.0,11420.0,18144.0,9556.0,13928.0,10228.0,3810.0,21.0
2.490466594696045,33.0,10020.0,10616.0,11280.0,4108.0,2527.0,2846.0,1623.0
2.4937334060668945,29.0,3327.0,8920.0,7352.0,6594.0,2513.0,47.0,25.0
2.496983289718628,15.0,3350.0,5820.0,1225.0,4604.0,3623.0,565.0,928.0
2.5002334117889404,12.0,4537.0,10172.0,3154.0,2374.0,788.0,773.0,51.0
2.503483295440674,19.0,1696.0,2344.0,2988.0,1559.0,445.0,498.0,1048.0
2.5067334175109863,10.0,2719.0,2145.0,1841.0,3799.0,517.0,223.0,659.0
2.510050058364868,10.0,1913.0,2673.0,2398.0,3519.0,23.0,19.0,1526.0
2.5132999420166016,10.0,2241.0,2913.0,1809.0,918.0,1832.0,177.0,923.0
2.516550064086914,16.0,0.0,3152.0,3766.0,1262.0,1274.0,335.0,302.0
2.5197999477386475,0.0,1264.0,2942.0,2314.0,30.0,715.0,173.0,18.0
2.52305006980896,5.0,666.0,2733.0,863.0,291.0,55.0,11.0,55.0
2.526366710662842,27.0,3235.0,3006.0,1280.0,300.0,1284.0,17.0,1000.0
2.529616594314575,35.0,2954.0,144.0,1745.0,1125.0,154.0,23.0,752.0
2.5328667163848877,49.0,1436.0,697.0,1451.0,867.0,456.0,48.0,504.0
2.536116600036621,27.0,1648.0,440.0,1274.0,608.0,613.0,30.0,57.0
2.5393667221069336,5.0,1385.0,1004.0,28.0,33.0,338.0,12.0,16.0
2.5426666736602783,63.0,1121.0,800.0,1483.0,1803.0,64.0,10.0,6.0
2.5459165573120117,22.0,971.0,1296.0,1536.0,2332.0,23.0,26.0,22.0
2.549166679382324,50.0,104.0,33.0,1244.0,83.0,27.0,13.0,0.0
2.5524165630340576,21.0,32.0,1093.0,15.0,493.0,0.0,0.0,12.0
2.5556833744049072,8.0,150.0,329.0,2212.0,36.0,18.0,5.0,24.0
2.558983325958252,10.0,268.0,756.0,22.0,11.0,35.0,58.0,23.0
2.5622334480285645,15.0,349.0,2100.0,33.0,18.0,10.0,44.0,21.0
2.565483331680298,23.0,431.0,1769.0,584.0,478.0,22.0,24.0,40.0
2.5687332153320312,31.0,10.0,6.0,1399.0,246.0,15.0,11.0,40.0
2.5719833374023438,24.0,13.0,0.0,1396.0,13.0,24.0,18.0,40.0
2.5752665996551514,17.0,16.0,5.0,11.0,27.0,12.0,25.0,18.0
2.578550100326538,34.0,14.0,10.0,11.0,149.0,0.0,16.0,18.0
2.5817999839782715,19.0,11.0,14.0,809.0,77.0,15.0,24.0,17.0
2.585050106048584,12.0,11.0,1601.0,80.0,5.0,11.0,0.0,13.0
2.5882999897003174,5.0,10.0,1633.0,36.0,10.0,7.0,31.0,16.0
2.59155011177063,0.0,13.0,1477.0,548.0,14.0,10.0,5.0,5.0
2.5948166847229004,10.0,12.0,1281.0,23.0,505.0,30.0,23.0,51.0
2.598066568374634,20.0,10.0,915.0,23.0,265.0,17.0,10.0,28.0
2.6013166904449463,27.0,16.0,1617.0,22.0,25.0,5.0,10.0,5.0
2.6045665740966797,34.0,10.0,12.0,31.0,639.0,5.0,7.0,10.0
2.607816696166992,22.0,5.0,27.0,29.0,0.0,18.0,6.0,22.0
2.611133337020874,22.0,856.0,14.0,27.0,587.0,16.0,5.0,44.0
2.6143832206726074,22.0,439.0,68.0,14.0,32.0,15.0,5.0,31.0
2.61763334274292,5.0,21.0,48.0,0.0,5.0,42.0,8.0,18.0
2.6208832263946533,25.0,32.0,27.0,7.0,24.0,26.0,11.0,10.0
2.624133348464966,18.0,23.0,66.0,13.0,43.0,10.0,23.0,0.0
2.6274333000183105,12.0,12.0,38.0,1028.0,28.0,8.0,25.0,4.0
2.630683422088623,5.0,0.0,43.0,1051.0,13.0,6.0,27.0,7.0
2.6339333057403564,6.0,13.0,823.0,50.0,26.0,28.0,0.0,25.0
2.637183427810669,7.0,45.0,1041.0,32.0,26.0,17.0,7.0,26.0
2.6404333114624023,27.0,40.0,10.0,5.0,28.0,5.0,11.0,31.0
2.643749952316284,51.0,26.0,23.0,684.0,29.0,795.0,17.0,30.0
2.6470000743865967,28.0,11.0,576.0,774.0,35.0,837.0,16.0,14.0
2.65024995803833,5.0,16.0,44.0,538.0,26.0,20.0,15.0,35.0
2.6535000801086426,28.0,21.0,42.0,21.0,17.0,6.0,31.0,0.0
2.656749963760376,49.0,23.0,24.0,1019.0,1062.0,21.0,18.0,35.0
2.660066604614258,30.0,25.0,18.0,22.0,906.0,13.0,5.0,0.0
2.6633167266845703,53.0,917.0,12.0,33.0,25.0,5.0,6.0,17.0
2.6665666103363037,10.0,777.0,5.0,36.0,19.0,13.0,7.0,17.0
2.669816732406616,22.0,0.0,0.0,22.0,24.0,20.0,29.0,16.0
2.6730666160583496,14.0,39.0,3.0,8.0,17.0,24.0,21.0,13.0
2.676316738128662,5.0,7.0,5.0,8.0,20.0,30.0,13.0,24.0
2.6795833110809326,12.0,15.0,50.0,11.0,13.0,1025.0,14.0,22.0
2.682833433151245,17.0,17.0,231.0,21.0,5.0,1145.0,6.0,27.0
2.6860833168029785,10.0,18.0,115.0,29.0,20.0,9.0,16.0,20.0
2.689333438873291,5.0,32.0,0.0,38.0,26.0,35.0,14.0,12.0
2.6925833225250244,29.0,45.0,322.0,31.0,30.0,11.0,12.0,20.0
2.6958999633789062,21.0,30.0,6.0,25.0,21.0,15.0,13.0,16.0
2.6991500854492188,5.0,15.0,0.0,31.0,21.0,162.0,13.0,12.0
2.702399969100952,30.0,43.0,54.0,32.0,20.0,81.0,10.0,5.0
2.7056500911712646,10.0,5.0,32.0,12.0,10.0,0.0,54.0,0.0
2.708899974822998,8.0,5.0,22.0,23.0,101.0,5.0,739.0,7.0
2.71221661567688,5.0,29.0,26.0,34.0,60.0,5.0,794.0,14.0
2.7154667377471924,0.0,17.0,26.0,35.0,18.0,0.0,45.0,15.0
2.718716621398926,3.0,5.0,33.0,35.0,20.0,15.0,19.0,15.0
2.7219667434692383,5.0,9.0,67.0,40.0,22.0,29.0,14.0,24.0
2.7252166271209717,0.0,13.0,48.0,0.0,36.0,41.0,51.0,32.0
2.7284834384918213,22.0,12.0,28.0,227.0,32.0,20.0,32.0,0.0
2.7317333221435547,20.0,10.0,5.0,124.0,20.0,0.0,13.0,47.0
2.734983444213867,17.0,0.0,40.0,20.0,70.0,25.0,17.0,55.0
2.7382333278656006,11.0,5.0,12.0,45.0,41.0,21.0,9.0,22.0
2.741483449935913,26.0,10.0,30.0,0.0,11.0,26.0,20.0,23.0
2.744800090789795,28.0,46.0,0.0,0.0,42.0,29.0,19.0,23.0
2.7480499744415283,20.0,29.0,39.0,0.0,42.0,33.0,17.0,17.0
2.751300096511841,35.0,12.0,59.0,0.0,37.0,13.0,21.0,10.0
2.754549980163574,12.0,35.0,5.0,0.0,32.0,34.0,90.0,0.0
2.7578001022338867,16.0,11.0,20.0,9.0,12.0,17.0,56.0,9.0
2.7610833644866943,34.0,18.0,35.0,17.0,10.0,22.0,21.0,5.0
2.764366626739502,5.0,20.0,24.0,17.0,11.0,43.0,32.0,29.0
2.7676167488098145,0.0,6.0,12.0,10.0,10.0,33.0,22.0,43.0
2.770866632461548,18.0,13.0,0.0,23.0,5.0,28.0,21.0,43.0
2.7741167545318604,39.0,20.0,10.0,21.0,0.0,16.0,10.0,10.0
2.7773666381835938,31.0,21.0,18.0,18.0,5.0,49.0,12.0,21.0
2.7806334495544434,24.0,50.0,13.0,20.0,10.0,45.0,12.0,17.0
2.7838833332061768,27.0,25.0,0.0,18.0,45.0,18.0,6.0,51.0
2.78713321685791,36.0,0.0,19.0,10.0,39.0,10.0,0.0,43.0
2.7903833389282227,10.0,15.0,28.0,10.0,30.0,20.0,35.0,21.0
2.793633222579956,17.0,29.0,37.0,13.0,22.0,18.0,50.0,42.0
2.796950101852417,15.0,24.0,0.0,14.0,828.0,16.0,39.0,54.0
2.8001999855041504,36.0,18.0,8.0,14.0,653.0,21.0,28.0,27.0
2.803450107574463,21.0,26.0,15.0,0.0,478.0,13.0,31.0,0.0
2.8066999912261963,6.0,21.0,15.0,45.0,449.0,33.0,33.0,2262.0
2.809950113296509,17.0,23.0,16.0,26.0,295.0,23.0,165.0,2812.0
2.8132667541503906,35.0,24.0,16.0,7.0,46.0,12.0,296.0,366.0
2.816516637802124,29.0,22.0,0.0,14.0,1483.0,11.0,271.0,600.0
2.8197667598724365,15.0,22.0,10.0,20.0,2077.0,11.0,682.0,30.0
2.82301664352417,13.0,33.0,24.0,430.0,1764.0,13.0,1094.0,42.0
2.8262667655944824,0.0,22.0,33.0,356.0,2139.0,15.0,915.0,19.0
2.8295834064483643,3.0,10.0,42.0,18.0,838.0,253.0,683.0,5.0
2.8328332901000977,5.0,39.0,31.0,615.0,814.0,141.0,450.0,15.0
2.83608341217041,17.0,17.0,20.0,881.0,1914.0,28.0,1544.0,614.0
2.8393332958221436,12.0,12.0,10.0,0.0,0.0,52.0,2638.0,889.0
2.842583417892456,6.0,18.0,28.0,811.0,1394.0,515.0,5497.0,805.0
2.8458499908447266,6.0,7.0,0.0,993.0,574.0,415.0,6682.0,722.0
2.849100112915039,5.0,9.0,0.0,47.0,551.0,316.0,11068.0,1357.0
2.8523499965667725,14.0,10.0,7.0,5.0,529.0,23.0,15700.0,3286.0
2.855600118637085,29.0,13.0,16.0,11.0,1176.0,19.0,17228.0,3898.0
2.8588500022888184,26.0,15.0,24.0,24.0,596.0,54.0,30144.0,1939.0
2.8620998859405518,23.0,21.0,18.0,19.0,16.0,6.0,28168.0,2201.0
2.8654167652130127,38.0,21.0,32.0,13.0,33.0,29.0,33088.0,1127.0
2.868666648864746,36.0,23.0,27.0,27.0,767.0,27.0,39728.0,1840.0
2.8719167709350586,31.0,22.0,21.0,17.0,5.0,25.0,36592.0,2552.0
2.875166654586792,51.0,38.0,29.0,5.0,706.0,22.0,34128.0,509.0
2.8784167766571045,11.0,40.0,29.0,5.0,98.0,5.0,37824.0,1521.0
2.8817334175109863,10.0,26.0,29.0,5.0,377.0,11.0,33888.0,511.0
2.8849833011627197,11.0,11.0,5.0,17.0,21.0,17.0,45520.0,1460.0
2.8882334232330322,17.0,40.0,21.0,21.0,61.0,248.0,49168.0,6191.0
2.8914833068847656,19.0,6.0,11.0,28.0,5.0,138.0,43392.0,6255.0
2.894733428955078,24.0,10.0,17.0,29.0,604.0,27.0,40544.0,3692.0
2.89805006980896,29.0,30.0,22.0,10.0,692.0,150.0,37536.0,1356.0
2.9012999534606934,32.0,27.0,22.0,63.0,65.0,14.0,31148.0,3869.0
2.904550075531006,21.0,30.0,22.0,51.0,717.0,12.0,19692.0,3589.0
2.9077999591827393,25.0,33.0,21.0,21.0,51.0,13.0,12552.0,1611.0
2.9110500812530518,28.0,24.0,18.0,18.0,18.0,19.0,12468.0,45.0
2.9143166542053223,0.0,15.0,15.0,53.0,25.0,12.0,10304.0,1714.0
2.9175667762756348,43.0,6.0,5.0,23.0,26.0,5.0,4674.0,6.0
2.920816659927368,36.0,16.0,14.0,12.0,26.0,30.0,7288.0,1003.0
2.9240667819976807,19.0,20.0,22.0,13.0,25.0,37.0,2524.0,24.0
2.927316665649414,26.0,10.0,15.0,14.0,15.0,0.0,822.0,0.0
2.930633306503296,25.0,18.0,8.0,5.0,14.0,19.0,176.0,26.0
2.9338834285736084,0.0,5.0,28.0,7.0,13.0,17.0,20.0,33.0
2.937133312225342,24.0,18.0,7.0,35.0,17.0,14.0,10.0,33.0
2.9403834342956543,0.0,28.0,14.0,31.0,48.0,0.0,24.0,36.0
2.9436333179473877,28.0,39.0,20.0,32.0,39.0,0.0,51.0,8.0
2.9469332695007324,39.0,56.0,10.0,31.0,31.0,23.0,45.0,51.0
2.950216770172119,50.0,54.0,14.0,30.0,24.0,17.0,39.0,9.0
2.9534666538238525,5.0,5.0,18.0,37.0,15.0,12.0,20.0,37.0
2.956716775894165,8.0,0.0,19.0,39.0,19.0,7.0,13.0,23.0
2.9599666595458984,0.0,29.0,20.0,22.0,23.0,15.0,25.0,15.0
2.963216781616211,5.0,12.0,10.0,34.0,0.0,13.0,22.0,15.0
2.9664833545684814,19.0,17.0,0.0,15.0,20.0,39.0,18.0,5.0
2.969733238220215,16.0,5.0,7.0,37.0,18.0,24.0,19.0,8.0
2.9729833602905273,31.0,21.0,14.0,14.0,16.0,10.0,19.0,10.0
2.9762332439422607,21.0,37.0,14.0,7.0,7.0,16.0,23.0,28.0
2.9794833660125732,10.0,39.0,10.0,24.0,16.0,27.0,22.0,19.0
2.982800006866455,0.0,35.0,6.0,42.0,14.0,5.0,21.0,10.0
2.9860498905181885,19.0,34.0,31.0,30.0,11.0,23.0,11.0,6.0
2.989300012588501,18.0,0.0,25.0,23.0,14.0,27.0,0.0,28.0
2.9925498962402344,6.0,3.0,18.0,16.0,34.0,31.0,20.0,30.0
2.995800018310547,8.0,5.0,5.0,36.0,23.0,23.0,31.0,0.0
