,580.6400146484375,581.6400146484375,582.6400146484375,583.6400146484375,584.6400146484375,585.6400146484375,586.6400146484375,587.6400146484375
3.701733350753784,31.0,5.0,23.0,36.0,12.0,21.0,0.0,10.0
3.7034666538238525,36.0,16.0,20.0,36.0,5.0,92.0,25.0,21.0
3.705199956893921,29.0,11.0,36.0,275.0,32.0,144.0,22.0,63.0
3.7069332599639893,21.0,0.0,5.0,18.0,27.0,8.0,22.0,15.0
3.7086665630340576,0.0,18.0,36.0,37.0,23.0,59.0,22.0,18.0
3.710400104522705,12.0,28.0,26.0,38.0,20.0,62.0,22.0,6.0
3.7121334075927734,19.0,30.0,16.0,37.0,12.0,12.0,22.0,10.0
3.713866710662842,19.0,20.0,17.0,32.0,17.0,12.0,25.0,15.0
3.71560001373291,5.0,27.0,31.0,20.0,19.0,51.0,6.0,0.0
3.717400074005127,34.0,34.0,30.0,44.0,21.0,5.0,23.0,16.0
3.7191333770751953,20.0,32.0,28.0,42.0,5.0,16.0,23.0,18.0
3.7208666801452637,5.0,19.0,30.0,7.0,5.0,18.0,33.0,20.0
3.722599983215332,35.0,5.0,31.0,29.0,5.0,11.0,13.0,21.0
3.7243332862854004,22.0,41.0,43.0,10.0,11.0,19.0,47.0,23.0
3.7260665893554688,17.0,40.0,42.0,5.0,15.0,22.0,44.0,9.0
3.727799892425537,35.0,40.0,27.0,51.0,19.0,25.0,37.0,38.0
3.7295334339141846,22.0,40.0,56.0,46.0,20.0,52.0,36.0,36.0
3.731266736984253,5.0,60.0,18.0,34.0,17.0,45.0,12.0,34.0
3.7330000400543213,35.0,11.0,42.0,37.0,15.0,12.0,50.0,0.0
3.734783411026001,0.0,55.0,19.0,52.0,28.0,44.0,15.0,11.0
3.7365167140960693,4.0,20.0,5.0,52.0,49.0,6.0,25.0,13.0
3.7382500171661377,8.0,28.0,41.0,52.0,41.0,5.0,11.0,15.0
3.739983320236206,11.0,24.0,21.0,44.0,40.0,22.0,0.0,13.0
3.7417166233062744,13.0,21.0,0.0,35.0,41.0,31.0,22.0,7.0
3.7434499263763428,16.0,18.0,18.0,33.0,12.0,43.0,21.0,21.0
3.745183229446411,27.0,22.0,0.0,28.0,17.0,35.0,31.0,25.0
3.7469167709350586,26.0,26.0,19.0,43.0,13.0,27.0,10.0,17.0
3.748650074005127,25.0,8.0,22.0,50.0,18.0,26.0,34.0,8.0
3.7503833770751953,28.0,13.0,12.0,11.0,23.0,7.0,18.0,0.0
3.752183437347412,32.0,22.0,17.0,49.0,24.0,10.0,40.0,0.0
3.7539167404174805,49.0,20.0,27.0,18.0,19.0,10.0,49.0,9.0
3.755650043487549,44.0,18.0,24.0,13.0,67.0,9.0,31.0,8.0
3.757383346557617,39.0,19.0,21.0,23.0,64.0,0.0,21.0,6.0
3.7591166496276855,31.0,21.0,23.0,5.0,17.0,34.0,46.0,18.0
3.760849952697754,46.0,11.0,26.0,23.0,38.0,28.0,11.0,30.0
3.7625832557678223,35.0,15.0,26.0,58.0,34.0,23.0,18.0,24.0
3.7643165588378906,30.0,18.0,27.0,54.0,27.0,26.0,22.0,5.0
3.766050100326538,25.0,21.0,33.0,78.0,23.0,25.0,19.0,49.0
3.7677834033966064,17.0,22.0,8.0,28.0,23.0,24.0,17.0,39.0
3.769566774368286,26.0,0.0,26.0,27.0,19.0,10.0,70.0,27.0
3.7713000774383545,36.0,12.0,43.0,28.0,16.0,6.0,60.0,42.0
3.773033380508423,0.0,55.0,55.0,10.0,5.0,47.0,31.0,38.0
3.774766683578491,18.0,48.0,17.0,5.0,5.0,44.0,24.0,30.0
3.7764999866485596,21.0,28.0,31.0,23.0,5.0,17.0,17.0,48.0
3.778233289718628,17.0,18.0,10.0,18.0,34.0,30.0,19.0,49.0
3.7799665927886963,32.0,25.0,0.0,12.0,32.0,17.0,0.0,16.0
3.7816998958587646,45.0,16.0,43.0,31.0,29.0,20.0,7.0,23.0
3.783433437347412,35.0,9.0,61.0,42.0,5.0,21.0,13.0,23.0
3.78523325920105,16.0,15.0,41.0,31.0,24.0,41.0,12.0,23.0
3.786966562271118,22.0,13.0,20.0,32.0,54.0,38.0,5.0,23.0
3.7887001037597656,10.0,0.0,47.0,5.0,44.0,5.0,19.0,10.0
3.790433406829834,5.0,13.0,36.0,12.0,26.0,10.0,35.0,21.0
3.7921667098999023,11.0,26.0,51.0,0.0,19.0,24.0,42.0,32.0
3.7939000129699707,21.0,33.0,18.0,23.0,25.0,28.0,5.0,30.0
3.795633316040039,15.0,22.0,10.0,21.0,18.0,31.0,0.0,27.0
3.7973666191101074,9.0,42.0,46.0,19.0,13.0,0.0,46.0,23.0
3.799099922180176,25.0,35.0,22.0,0.0,13.0,0.0,20.0,31.0
3.800833225250244,12.0,29.0,27.0,15.0,13.0,22.0,19.0,38.0
3.802616596221924,0.0,10.0,20.0,5.0,11.0,29.0,22.0,44.0
3.804349899291992,34.0,29.0,17.0,8.0,9.0,29.0,31.0,26.0
3.8060834407806396,5.0,28.0,15.0,22.0,20.0,27.0,5.0,21.0
3.807816743850708,32.0,16.0,13.0,27.0,27.0,35.0,0.0,20.0
3.8095500469207764,16.0,26.0,8.0,26.0,35.0,43.0,3.0,15.0
3.8112833499908447,15.0,18.0,0.0,15.0,23.0,37.0,5.0,27.0
3.813016653060913,13.0,10.0,12.0,50.0,21.0,65.0,0.0,30.0
3.8147499561309814,17.0,5.0,9.0,49.0,19.0,0.0,19.0,0.0
3.81648325920105,7.0,37.0,6.0,41.0,22.0,24.0,16.0,69.0
3.818216562271118,11.0,41.0,12.0,20.0,26.0,25.0,13.0,49.0
3.820016622543335,20.0,8.0,24.0,9.0,31.0,29.0,10.0,0.0
3.8217499256134033,21.0,6.0,24.0,5.0,28.0,19.0,0.0,0.0
3.8234832286834717,23.0,6.0,23.0,0.0,23.0,10.0,30.0,20.0
3.825216770172119,17.0,30.0,26.0,5.0,19.0,18.0,26.0,25.0
3.8269500732421875,11.0,26.0,29.0,10.0,30.0,14.0,13.0,38.0
3.828683376312256,9.0,20.0,25.0,20.0,0.0,10.0,0.0,15.0
3.830416679382324,6.0,0.0,21.0,22.0,35.0,22.0,6.0,18.0
3.8321499824523926,38.0,10.0,26.0,5.0,56.0,13.0,11.0,5.0
3.833883285522461,50.0,21.0,34.0,26.0,48.0,5.0,0.0,15.0
3.8356165885925293,38.0,19.0,51.0,33.0,21.0,6.0,29.0,16.0
3.837399959564209,39.0,34.0,56.0,21.0,0.0,30.0,33.0,36.0
3.8391332626342773,40.0,28.0,13.0,36.0,23.0,21.0,30.0,38.0
3.8408665657043457,18.0,12.0,41.0,30.0,0.0,11.0,18.0,39.0
3.842600107192993,10.0,21.0,7.0,23.0,19.0,17.0,24.0,36.0
3.8443334102630615,12.0,26.0,23.0,5.0,29.0,22.0,11.0,32.0
3.846083402633667,19.0,21.0,49.0,36.0,25.0,21.0,26.0,31.0
3.8478000164031982,0.0,17.0,10.0,24.0,34.0,0.0,36.0,37.0
3.8495333194732666,12.0,10.0,10.0,11.0,59.0,22.0,32.0,30.0
3.851266622543335,11.0,0.0,10.0,27.0,47.0,30.0,7.0,15.0
3.8530666828155518,18.0,32.0,19.0,17.0,35.0,6.0,6.0,0.0
3.85479998588562,12.0,19.0,17.0,11.0,31.0,12.0,5.0,0.0
3.8565332889556885,6.0,5.0,15.0,35.0,40.0,6.0,20.0,18.0
3.858266592025757,8.0,28.0,12.0,33.0,11.0,27.0,34.0,9.0
3.859999895095825,7.0,22.0,10.0,18.0,37.0,23.0,25.0,12.0
3.8617334365844727,5.0,22.0,5.0,0.0,26.0,20.0,16.0,15.0
3.863466739654541,5.0,17.0,12.0,40.0,16.0,21.0,37.0,17.0
3.8652000427246094,5.0,8.0,27.0,20.0,0.0,20.0,17.0,0.0
3.8669333457946777,9.0,0.0,41.0,31.0,24.0,19.0,36.0,22.0
3.868666648864746,12.0,3.0,47.0,43.0,31.0,19.0,0.0,26.0
3.870450019836426,11.0,6.0,5.0,29.0,28.0,19.0,28.0,17.0
3.872183322906494,43.0,10.0,58.0,17.0,31.0,23.0,0.0,21.0
3.8739166259765625,36.0,13.0,53.0,17.0,22.0,28.0,19.0,24.0
3.875649929046631,12.0,29.0,28.0,14.0,12.0,29.0,0.0,26.0
3.877383232116699,21.0,29.0,46.0,11.0,22.0,17.0,32.0,21.0
3.8791167736053467,20.0,31.0,23.0,15.0,24.0,27.0,20.0,24.0
3.880850076675415,18.0,18.0,39.0,13.0,7.0,37.0,39.0,8.0
3.8825833797454834,17.0,5.0,0.0,11.0,10.0,31.0,45.0,43.0
3.8843166828155518,15.0,5.0,46.0,16.0,20.0,38.0,20.0,43.0
3.88604998588562,12.0,34.0,42.0,15.0,26.0,45.0,11.0,44.0
3.887850046157837,22.0,50.0,27.0,15.0,33.0,12.0,34.0,0.0
3.8895833492279053,18.0,63.0,8.0,5.0,35.0,61.0,5.0,0.0
3.8913166522979736,13.0,15.0,13.0,13.0,5.0,68.0,24.0,12.0
3.893049955368042,20.0,12.0,20.0,24.0,12.0,75.0,42.0,15.0
3.8947832584381104,26.0,34.0,20.0,19.0,24.0,5.0,33.0,18.0
3.8965165615081787,23.0,35.0,12.0,16.0,23.0,53.0,33.0,17.0
3.898250102996826,24.0,29.0,5.0,13.0,22.0,57.0,22.0,16.0
3.8999834060668945,26.0,27.0,11.0,30.0,22.0,18.0,20.0,15.0
3.901716709136963,21.0,18.0,16.0,66.0,13.0,21.0,19.0,15.0
3.9034500122070312,32.0,27.0,20.0,63.0,31.0,18.0,0.0,25.0
3.905250072479248,42.0,21.0,16.0,16.0,26.0,21.0,17.0,23.0
3.9069833755493164,41.0,16.0,11.0,10.0,22.0,13.0,0.0,32.0
3.9087166786193848,32.0,16.0,31.0,5.0,13.0,6.0,5.0,19.0
3.910449981689453,23.0,30.0,18.0,13.0,10.0,12.0,5.0,5.0
3.9121832847595215,29.0,25.0,5.0,21.0,7.0,12.0,12.0,48.0
3.91391658782959,27.0,20.0,42.0,34.0,13.0,12.0,9.0,36.0
3.915649890899658,25.0,19.0,32.0,17.0,20.0,12.0,5.0,40.0
3.9173834323883057,6.0,19.0,23.0,0.0,0.0,11.0,22.0,41.0
3.919116735458374,55.0,16.0,41.0,0.0,15.0,13.0,22.0,36.0
3.9209165573120117,73.0,41.0,13.0,21.0,10.0,0.0,22.0,37.0
3.922650098800659,47.0,41.0,25.0,5.0,5.0,0.0,23.0,15.0
3.9243834018707275,16.0,7.0,37.0,8.0,16.0,8.0,25.0,25.0
3.926116704940796,12.0,30.0,33.0,10.0,15.0,9.0,9.0,21.0
3.9278500080108643,22.0,32.0,5.0,22.0,13.0,10.0,18.0,25.0
3.9295833110809326,17.0,5.0,19.0,33.0,13.0,12.0,16.0,30.0
3.931316614151001,12.0,28.0,21.0,31.0,12.0,18.0,8.0,18.0
3.9330499172210693,27.0,5.0,28.0,28.0,23.0,11.0,28.0,32.0
3.9347832202911377,45.0,35.0,29.0,24.0,26.0,5.0,27.0,35.0
3.936516761779785,27.0,33.0,30.0,22.0,30.0,0.0,70.0,33.0
3.938316583633423,10.0,30.0,462.0,21.0,19.0,13.0,40.0,31.0
3.940049886703491,6.0,29.0,641.0,21.0,32.0,27.0,10.0,34.0
3.9417834281921387,11.0,28.0,820.0,21.0,43.0,22.0,10.0,36.0
3.943516731262207,6.0,27.0,10.0,18.0,54.0,18.0,24.0,10.0
3.9452500343322754,9.0,33.0,1713.0,16.0,15.0,31.0,27.0,10.0
3.9469833374023438,12.0,340.0,1790.0,1339.0,46.0,5.0,30.0,39.0
3.948716640472412,337.0,961.0,862.0,1933.0,407.0,8.0,6.0,31.0
3.9504499435424805,188.0,1564.0,804.0,2604.0,768.0,44.0,24.0,25.0
3.952183246612549,40.0,1079.0,306.0,1644.0,649.0,48.0,24.0,29.0
3.953916549682617,20.0,594.0,580.0,2296.0,329.0,53.0,19.0,5.0
3.955716609954834,0.0,650.0,303.0,3084.0,8.0,13.0,18.0,20.0
3.9574499130249023,794.0,337.0,27.0,821.0,356.0,71.0,24.0,10.0
3.9591832160949707,610.0,24.0,193.0,1632.0,320.0,36.0,18.0,0.0
3.960916757583618,426.0,2204.0,887.0,1440.0,2034.0,5.0,11.0,92.0
3.9626500606536865,332.0,3222.0,1275.0,701.0,1630.0,0.0,1240.0,60.0
3.964383363723755,612.0,2440.0,1548.0,1266.0,1226.0,7.0,626.0,27.0
3.9661166667938232,420.0,16.0,896.0,1127.0,2200.0,15.0,12.0,0.0
3.9678499698638916,227.0,1789.0,243.0,988.0,1023.0,41.0,6.0,21.0
3.96958327293396,34.0,695.0,1357.0,766.0,645.0,309.0,50.0,5.0
3.9713165760040283,751.0,1390.0,959.0,544.0,44.0,161.0,41.0,44.0
3.973116636276245,641.0,843.0,811.0,280.0,423.0,12.0,32.0,47.0
3.9748499393463135,665.0,1568.0,663.0,16.0,159.0,29.0,5.0,20.0
3.976583242416382,567.0,1261.0,694.0,355.0,101.0,22.0,22.0,31.0
3.9783167839050293,470.0,404.0,982.0,566.0,43.0,16.0,15.0,16.0
3.9800500869750977,44.0,1576.0,1269.0,777.0,293.0,29.0,0.0,7.0
3.981783390045166,31.0,1649.0,44.0,5.0,543.0,61.0,5.0,19.0
3.9835166931152344,35.0,24.0,339.0,8.0,288.0,33.0,12.0,25.0
3.9852499961853027,39.0,10.0,1100.0,25.0,33.0,5.0,9.0,5.0
3.986983299255371,294.0,18.0,22.0,29.0,18.0,21.0,6.0,5.0
3.988766670227051,184.0,731.0,410.0,32.0,5.0,32.0,20.0,5.0
3.990499973297119,75.0,1067.0,12.0,19.0,28.0,0.0,33.0,5.0
3.9922332763671875,519.0,1014.0,5.0,5.0,17.0,6.0,64.0,5.0
3.993966579437256,430.0,534.0,120.0,21.0,27.0,12.0,48.0,23.0
3.995699882507324,228.0,0.0,63.0,37.0,19.0,19.0,23.0,17.0
3.9974334239959717,27.0,15.0,5.0,185.0,11.0,27.0,6.0,11.0
3.99916672706604,29.0,31.0,16.0,112.0,5.0,24.0,10.0,10.0
4.000899791717529,20.0,57.0,26.0,38.0,5.0,21.0,28.0,31.0
4.002633571624756,28.0,191.0,31.0,30.0,5.0,13.0,25.0,27.0
4.004366874694824,28.0,99.0,26.0,24.0,23.0,5.0,12.0,23.0
4.006166458129883,15.0,7.0,39.0,30.0,27.0,8.0,16.0,0.0
4.007900238037109,7.0,877.0,30.0,28.0,32.0,10.0,0.0,30.0
4.009633541107178,17.0,767.0,21.0,27.0,35.0,8.0,9.0,20.0
4.011366844177246,18.0,25.0,31.0,24.0,29.0,6.0,19.0,12.0
4.0131001472473145,19.0,24.0,41.0,22.0,5.0,16.0,5.0,5.0
4.014833450317383,17.0,46.0,35.0,16.0,15.0,32.0,21.0,11.0
4.016566753387451,16.0,29.0,28.0,10.0,20.0,28.0,10.0,22.0
4.0183000564575195,0.0,19.0,31.0,0.0,34.0,24.0,0.0,40.0
4.020033359527588,0.0,8.0,30.0,3.0,30.0,30.0,19.0,33.0
4.021766662597656,32.0,21.0,29.0,6.0,17.0,72.0,16.0,31.0
4.023550033569336,39.0,34.0,8.0,12.0,12.0,59.0,13.0,27.0
4.025283336639404,16.0,34.0,6.0,19.0,26.0,47.0,15.0,0.0
4.027016639709473,27.0,34.0,10.0,41.0,19.0,28.0,7.0,45.0
4.028749942779541,38.0,25.0,5.0,30.0,12.0,0.0,0.0,27.0
4.030483245849609,11.0,11.0,11.0,20.0,15.0,11.0,8.0,19.0
4.032216548919678,12.0,16.0,8.0,19.0,13.0,5.0,4.0,28.0
4.033949851989746,28.0,16.0,5.0,19.0,11.0,16.0,0.0,38.0
4.0356831550598145,38.0,22.0,31.0,19.0,13.0,31.0,0.0,33.0
4.037416458129883,52.0,5.0,23.0,13.0,16.0,31.0,8.0,46.0
4.039150238037109,36.0,0.0,16.0,11.0,59.0,10.0,17.0,18.0
4.040949821472168,36.0,45.0,20.0,6.0,67.0,10.0,28.0,11.0
4.042683124542236,36.0,29.0,20.0,21.0,19.0,26.0,28.0,30.0
4.044416904449463,33.0,12.0,21.0,23.0,5.0,42.0,24.0,13.0
4.046150207519531,13.0,20.0,38.0,6.0,18.0,55.0,18.0,10.0
4.0478835105896,116.0,36.0,19.0,25.0,11.0,16.0,21.0,31.0
4.049616813659668,71.0,49.0,0.0,15.0,12.0,12.0,14.0,34.0
4.051350116729736,26.0,33.0,21.0,23.0,28.0,8.0,7.0,23.0
4.053100109100342,30.0,26.0,19.0,26.0,29.0,11.0,4.0,22.0
4.05483341217041,11.0,40.0,18.0,28.0,38.0,26.0,0.0,22.0
4.056583404541016,17.0,5.0,18.0,0.0,34.0,16.0,10.0,21.0
4.058316707611084,20.0,38.0,23.0,3.0,30.0,6.0,18.0,20.0
4.060050010681152,16.0,42.0,19.0,5.0,39.0,14.0,24.0,18.0
4.061800003051758,15.0,6.0,15.0,12.0,34.0,22.0,30.0,41.0
4.063516616821289,43.0,0.0,17.0,12.0,28.0,27.0,23.0,35.0
4.0652666091918945,37.0,23.0,19.0,9.0,11.0,10.0,32.0,29.0
4.066999912261963,30.0,5.0,0.0,6.0,21.0,11.0,6.0,33.0
4.068733215332031,0.0,19.0,8.0,36.0,30.0,12.0,12.0,17.0
4.0704665184021,46.0,12.0,16.0,30.0,0.0,22.0,15.0,20.0
4.072183132171631,32.0,5.0,10.0,22.0,22.0,22.0,22.0,24.0
4.0739665031433105,5.0,9.0,5.0,38.0,5.0,22.0,19.0,29.0
4.075699806213379,12.0,12.0,14.0,18.0,5.0,21.0,39.0,39.0
4.077433109283447,13.0,17.0,22.0,25.0,11.0,21.0,37.0,36.0
4.079150199890137,13.0,22.0,21.0,16.0,33.0,21.0,49.0,23.0
4.080900192260742,10.0,32.0,20.0,20.0,28.0,26.0,35.0,48.0
4.0826334953308105,11.0,37.0,67.0,10.0,23.0,11.0,0.0,21.0
4.084350109100342,11.0,42.0,59.0,20.0,13.0,23.0,41.0,42.0
4.08608341217041,13.0,36.0,15.0,23.0,12.0,0.0,53.0,0.0
4.0878167152404785,36.0,30.0,33.0,48.0,10.0,5.0,16.0,0.0
4.089550018310547,33.0,42.0,51.0,41.0,0.0,0.0,0.0,0.0
4.091350078582764,48.0,9.0,34.0,67.0,22.0,7.0,55.0,36.0
4.093083381652832,63.0,54.0,12.0,51.0,16.0,13.0,33.0,37.0
4.0948166847229,7.0,20.0,7.0,35.0,14.0,21.0,35.0,49.0
4.096549987792969,6.0,19.0,19.0,15.0,11.0,28.0,12.0,20.0
4.098283290863037,12.0,11.0,16.0,32.0,18.0,25.0,21.0,57.0
4.1000165939331055,9.0,19.0,12.0,7.0,15.0,23.0,10.0,11.0
4.101749897003174,5.0,0.0,17.0,31.0,12.0,0.0,17.0,11.0
4.103483200073242,0.0,13.0,22.0,16.0,30.0,20.0,24.0,10.0
4.1052165031433105,5.0,27.0,24.0,0.0,28.0,37.0,16.0,0.0
4.106983184814453,9.0,21.0,21.0,5.0,15.0,18.0,32.0,9.0
4.1087164878845215,12.0,15.0,5.0,5.0,27.0,23.0,32.0,18.0
4.11044979095459,16.0,0.0,6.0,34.0,36.0,29.0,12.0,31.0
4.112183570861816,31.0,22.0,9.0,40.0,21.0,10.0,32.0,28.0
4.113916873931885,25.0,33.0,12.0,77.0,37.0,21.0,24.0,35.0
4.115650177001953,19.0,33.0,34.0,69.0,19.0,7.0,20.0,18.0
4.1173834800720215,5.0,30.0,28.0,17.0,33.0,29.0,5.0,0.0
4.11911678314209,15.0,19.0,22.0,33.0,21.0,26.0,25.0,19.0
4.120850086212158,10.0,15.0,17.0,12.0,24.0,24.0,26.0,0.0
4.122583389282227,0.0,10.0,12.0,12.0,27.0,37.0,21.0,21.0
4.124383449554443,3.0,0.0,0.0,40.0,19.0,24.0,16.0,29.0
4.126116752624512,5.0,6.0,10.0,28.0,27.0,10.0,15.0,16.0
4.12785005569458,5.0,12.0,11.0,49.0,27.0,8.0,24.0,19.0
4.129583358764648,12.0,26.0,17.0,17.0,28.0,5.0,34.0,22.0
4.131316661834717,19.0,27.0,22.0,0.0,45.0,16.0,32.0,21.0
4.133049964904785,25.0,28.0,27.0,31.0,6.0,8.0,17.0,21.0
4.1347832679748535,31.0,10.0,21.0,6.0,50.0,0.0,8.0,12.0
4.136516571044922,26.0,26.0,16.0,32.0,35.0,26.0,0.0,10.0
4.13824987411499,21.0,27.0,11.0,19.0,30.0,16.0,5.0,26.0
4.139983177185059,5.0,22.0,44.0,12.0,6.0,5.0,16.0,28.0
4.141783237457275,18.0,18.0,22.0,13.0,5.0,11.0,19.0,35.0
4.143516540527344,30.0,10.0,0.0,0.0,0.0,13.0,11.0,0.0
4.145249843597412,27.0,8.0,15.0,0.0,14.0,15.0,33.0,49.0
4.1469831466674805,18.0,6.0,0.0,26.0,28.0,20.0,35.0,24.0
4.148716449737549,19.0,9.0,23.0,19.0,17.0,15.0,28.0,0.0
4.150450229644775,17.0,9.0,22.0,11.0,5.0,10.0,13.0,47.0
4.152183532714844,7.0,8.0,26.0,11.0,34.0,22.0,11.0,19.0
4.153916835784912,12.0,5.0,49.0,0.0,6.0,23.0,5.0,8.0
4.1556501388549805,22.0,10.0,47.0,22.0,38.0,18.0,19.0,22.0
4.15743350982666,17.0,5.0,46.0,37.0,13.0,24.0,33.0,18.0
4.159183502197266,6.0,14.0,26.0,47.0,18.0,17.0,26.0,17.0
4.160916805267334,8.0,23.0,20.0,27.0,22.0,5.0,42.0,17.0
4.162650108337402,0.0,40.0,55.0,25.0,8.0,9.0,0.0,17.0
4.164383411407471,0.0,39.0,0.0,46.0,9.0,27.0,6.0,0.0
4.166116714477539,0.0,25.0,0.0,0.0,9.0,67.0,5.0,23.0
4.167850017547607,19.0,11.0,34.0,11.0,0.0,34.0,53.0,5.0
4.169583320617676,18.0,26.0,27.0,10.0,8.0,0.0,45.0,10.0
4.171316623687744,17.0,16.0,21.0,6.0,5.0,33.0,5.0,26.0
4.1730499267578125,14.0,13.0,11.0,5.0,11.0,49.0,21.0,23.0
4.174849987030029,11.0,11.0,19.0,13.0,0.0,27.0,33.0,20.0
4.176583290100098,5.0,14.0,27.0,22.0,34.0,27.0,32.0,20.0
4.178316593170166,18.0,17.0,7.0,57.0,32.0,28.0,24.0,21.0
4.180049896240234,18.0,20.0,23.0,44.0,24.0,19.0,16.0,27.0
4.181783199310303,18.0,24.0,35.0,51.0,13.0,10.0,36.0,29.0
4.183516502380371,23.0,37.0,36.0,44.0,35.0,0.0,18.0,32.0
4.1852498054504395,5.0,37.0,36.0,21.0,25.0,17.0,22.0,15.0
4.186983108520508,35.0,0.0,17.0,10.0,6.0,9.0,27.0,22.0
4.188716888427734,35.0,22.0,5.0,36.0,17.0,0.0,30.0,29.0
4.190450191497803,34.0,35.0,20.0,27.0,11.0,12.0,33.0,24.0
4.192233562469482,35.0,11.0,23.0,23.0,16.0,24.0,18.0,23.0
4.193966865539551,20.0,27.0,26.0,20.0,13.0,22.0,9.0,26.0
4.195700168609619,16.0,17.0,6.0,27.0,10.0,20.0,5.0,21.0
4.1974334716796875,22.0,5.0,55.0,5.0,10.0,0.0,28.0,16.0
