,317.1099853515625,318.1099853515625,319.1099853515625,320.1099853515625,321.1099853515625,322.1099853515625,323.1099853515625
0.6015166640281677,15.0,65.0,31.0,0.0,0.0,26.0,18.0
0.6030333042144775,27.0,6.0,47.0,0.0,14.0,10.0,49.0
0.6045500040054321,0.0,31.0,17.0,22.0,37.0,15.0,36.0
0.6060666441917419,22.0,32.0,36.0,0.0,17.0,8.0,53.0
0.6075833439826965,16.0,38.0,15.0,16.0,25.0,22.0,5.0
0.6090999841690063,10.0,39.0,25.0,22.0,23.0,36.0,34.0
0.6106166839599609,10.0,7.0,5.0,17.0,30.0,37.0,38.0
0.6121333241462708,9.0,23.0,26.0,12.0,22.0,38.0,26.0
0.6136500239372253,22.0,17.0,0.0,0.0,13.0,22.0,0.0
0.6151666641235352,21.0,22.0,5.0,0.0,32.0,24.0,51.0
0.616683304309845,0.0,18.0,18.0,0.0,0.0,25.0,0.0
0.6182500123977661,16.0,25.0,35.0,30.0,49.0,27.0,18.0
0.6197666525840759,32.0,23.0,37.0,49.0,29.0,12.0,0.0
0.6212833523750305,30.0,21.0,28.0,44.0,10.0,25.0,17.0
0.6227999925613403,0.0,27.0,19.0,36.0,28.0,5.0,8.0
0.6243166923522949,10.0,21.0,35.0,19.0,11.0,21.0,12.0
0.6258500218391418,12.0,16.0,35.0,36.0,43.0,14.0,6.0
0.6273499727249146,17.0,23.0,35.0,42.0,41.0,26.0,11.0
0.6288666725158691,21.0,26.0,26.0,29.0,0.0,5.0,6.0
0.630383312702179,5.0,22.0,0.0,21.0,31.0,13.0,14.0
0.6319000124931335,21.0,26.0,32.0,23.0,16.0,21.0,23.0
0.6334166526794434,30.0,8.0,19.0,25.0,9.0,16.0,28.0
0.6349999904632568,18.0,0.0,7.0,5.0,29.0,10.0,36.0
0.6365166902542114,21.0,22.0,31.0,25.0,22.0,5.0,30.0
0.6380333304405212,25.0,35.0,33.0,65.0,15.0,20.0,9.0
0.639549970626831,52.0,28.0,10.0,80.0,7.0,12.0,17.0
0.6410666704177856,57.0,10.0,24.0,66.0,29.0,5.0,33.0
0.6425833106040955,0.0,5.0,19.0,19.0,0.0,0.0,28.0
0.64410001039505,5.0,30.0,28.0,11.0,44.0,20.0,26.0
0.6456166505813599,10.0,33.0,37.0,50.0,36.0,21.0,24.0
0.6471333503723145,19.0,36.0,7.0,21.0,31.0,22.0,11.0
0.6486499905586243,27.0,32.0,14.0,0.0,5.0,11.0,29.0
0.6501666903495789,19.0,35.0,21.0,31.0,25.0,25.0,43.0
0.6517333388328552,26.0,20.0,5.0,35.0,25.0,29.0,45.0
0.653249979019165,26.0,19.0,5.0,11.0,0.0,0.0,13.0
0.6547666788101196,26.0,26.0,35.0,23.0,11.0,15.0,19.0
0.6562833189964294,30.0,21.0,34.0,23.0,5.0,30.0,25.0
0.657800018787384,34.0,43.0,31.0,11.0,9.0,30.0,7.0
0.6593166589736938,10.0,43.0,37.0,0.0,13.0,30.0,15.0
0.6608333587646484,16.0,43.0,12.0,17.0,20.0,43.0,28.0
0.6623499989509583,22.0,13.0,30.0,14.0,26.0,31.0,28.0
0.6638666391372681,5.0,28.0,36.0,11.0,41.0,20.0,35.0
0.6653833389282227,6.0,22.0,29.0,30.0,45.0,30.0,21.0
0.6668999791145325,7.0,21.0,34.0,35.0,0.0,5.0,16.0
0.668483316898346,16.0,19.0,5.0,35.0,17.0,36.0,16.0
0.6700000166893005,20.0,5.0,39.0,6.0,10.0,5.0,15.0
0.6715166568756104,16.0,39.0,12.0,6.0,5.0,11.0,17.0
0.6730333566665649,12.0,61.0,22.0,5.0,0.0,7.0,18.0
0.6745499968528748,12.0,45.0,39.0,5.0,10.0,23.0,20.0
0.6760666370391846,10.0,8.0,33.0,0.0,20.0,23.0,29.0
0.6775833368301392,7.0,28.0,37.0,22.0,25.0,25.0,18.0
0.679099977016449,9.0,55.0,32.0,17.0,5.0,11.0,6.0
0.6806166768074036,7.0,37.0,27.0,12.0,27.0,34.0,36.0
0.6821333169937134,5.0,19.0,39.0,17.0,25.0,23.0,23.0
0.683650016784668,50.0,26.0,52.0,22.0,0.0,11.0,5.0
0.6852166652679443,53.0,11.0,26.0,28.0,6.0,13.0,25.0
0.6867333054542542,29.0,5.0,0.0,27.0,5.0,10.0,28.0
0.6882500052452087,0.0,23.0,12.0,27.0,0.0,6.0,5.0
0.6897666454315186,30.0,22.0,26.0,30.0,18.0,13.0,25.0
0.6912833452224731,0.0,17.0,19.0,0.0,35.0,7.0,17.0
0.692799985408783,6.0,11.0,12.0,33.0,23.0,0.0,12.0
0.6943166851997375,23.0,20.0,9.0,33.0,10.0,8.0,17.0
0.6958333253860474,0.0,8.0,5.0,33.0,5.0,15.0,11.0
0.697350025177002,5.0,21.0,12.0,18.0,5.0,30.0,5.0
0.6988666653633118,21.0,17.0,12.0,36.0,5.0,20.0,5.0
0.7003999948501587,59.0,13.0,11.0,29.0,17.0,10.0,5.0
0.7019500136375427,29.0,18.0,20.0,34.0,29.0,18.0,5.0
0.7034833431243896,0.0,13.0,21.0,0.0,51.0,18.0,24.0
0.7049999833106995,14.0,30.0,28.0,3.0,41.0,5.0,33.0
0.706516683101654,5.0,41.0,8.0,5.0,19.0,10.0,25.0
0.7080333232879639,13.0,33.0,10.0,34.0,12.0,16.0,41.0
0.7095500230789185,23.0,53.0,34.0,39.0,9.0,10.0,7.0
0.7110666632652283,56.0,0.0,20.0,39.0,13.0,5.0,29.0
0.7125833630561829,67.0,24.0,0.0,51.0,10.0,7.0,39.0
0.7141000032424927,14.0,0.0,9.0,5.0,7.0,14.0,49.0
0.7156166434288025,33.0,9.0,19.0,5.0,18.0,0.0,14.0
0.7171333432197571,21.0,19.0,18.0,30.0,28.0,27.0,0.0
0.7186499834060669,25.0,21.0,12.0,25.0,41.0,27.0,14.0
0.720216691493988,29.0,23.0,7.0,11.0,26.0,28.0,20.0
0.7217333316802979,28.0,24.0,0.0,29.0,10.0,5.0,25.0
0.7232499718666077,18.0,25.0,16.0,24.0,12.0,12.0,5.0
0.7247666716575623,31.0,15.0,15.0,37.0,24.0,0.0,13.0
0.7262833118438721,21.0,24.0,14.0,39.0,10.0,3.0,43.0
0.7278000116348267,28.0,28.0,6.0,31.0,27.0,6.0,25.0
0.7293166518211365,35.0,29.0,8.0,27.0,0.0,12.0,6.0
0.7308333516120911,13.0,30.0,10.0,24.0,26.0,9.0,27.0
0.7323499917984009,23.0,28.0,0.0,21.0,10.0,8.0,30.0
0.7338666915893555,28.0,27.0,39.0,10.0,13.0,6.0,19.0
0.7353833317756653,13.0,21.0,42.0,22.0,22.0,6.0,25.0
0.7369666695594788,23.0,14.0,41.0,28.0,30.0,6.0,32.0
0.7384833097457886,23.0,0.0,32.0,23.0,20.0,13.0,5.0
0.7400000095367432,24.0,35.0,23.0,18.0,10.0,20.0,5.0
0.741516649723053,27.0,28.0,25.0,36.0,17.0,27.0,33.0
0.7430333495140076,33.0,5.0,40.0,18.0,24.0,30.0,26.0
0.7445499897003174,38.0,50.0,46.0,0.0,27.0,34.0,18.0
0.746066689491272,49.0,5.0,42.0,16.0,8.0,0.0,20.0
0.7475833296775818,5.0,32.0,26.0,50.0,0.0,29.0,22.0
0.7491000294685364,29.0,65.0,10.0,58.0,37.0,17.0,44.0
0.7506166696548462,5.0,25.0,47.0,22.0,24.0,18.0,27.0
0.752133309841156,14.0,22.0,13.0,12.0,10.0,45.0,10.0
0.7537000179290771,23.0,56.0,8.0,20.0,31.0,38.0,24.0
0.755216658115387,11.0,38.0,23.0,11.0,33.0,29.0,11.0
0.7567333579063416,21.0,57.0,49.0,6.0,17.0,12.0,24.0
0.7582499980926514,19.0,7.0,41.0,0.0,18.0,37.0,26.0
0.7597666382789612,18.0,46.0,34.0,14.0,20.0,7.0,27.0
0.7612833380699158,0.0,38.0,26.0,17.0,0.0,33.0,0.0
0.7627999782562256,0.0,30.0,18.0,20.0,11.0,34.0,22.0
0.7643166780471802,0.0,41.0,23.0,16.0,23.0,38.0,0.0
0.76583331823349,22.0,16.0,28.0,11.0,33.0,12.0,24.0
0.7673500180244446,25.0,29.0,16.0,36.0,29.0,0.0,27.0
0.7688666582107544,17.0,11.0,10.0,44.0,31.0,13.0,35.0
0.7704499959945679,5.0,10.0,21.0,22.0,24.0,26.0,42.0
0.7719666957855225,21.0,9.0,10.0,10.0,20.0,27.0,13.0
0.7734833359718323,0.0,11.0,10.0,18.0,17.0,29.0,24.0
0.7749999761581421,26.0,0.0,7.0,10.0,22.0,10.0,17.0
0.7765166759490967,5.0,15.0,11.0,11.0,6.0,31.0,33.0
0.7780333161354065,19.0,30.0,11.0,21.0,26.0,19.0,22.0
0.7795500159263611,33.0,42.0,10.0,31.0,22.0,27.0,10.0
0.7810666561126709,30.0,41.0,12.0,31.0,0.0,36.0,18.0
0.7825833559036255,6.0,40.0,19.0,41.0,11.0,18.0,13.0
0.7840999960899353,21.0,5.0,26.0,37.0,8.0,18.0,50.0
0.7856166958808899,30.0,58.0,29.0,32.0,5.0,19.0,35.0
0.7871833443641663,35.0,32.0,33.0,34.0,0.0,18.0,20.0
0.7886999845504761,22.0,545.0,65.0,19.0,417.0,18.0,48.0
0.7902166843414307,18.0,1058.0,3292.0,3880.0,2706.0,1456.0,0.0
0.7917333245277405,7.0,4198.0,14064.0,9896.0,6744.0,5058.0,217.0
0.7932500243186951,6.0,15820.0,19556.0,31472.0,27716.0,12236.0,435.0
0.7947666645050049,5.0,34752.0,65872.0,81568.0,60048.0,22052.0,3750.0
0.7962833046913147,13.0,44768.0,111984.0,109184.0,101648.0,32612.0,7066.0
0.7978000044822693,21.0,85360.0,140480.0,169600.0,139328.0,49712.0,15268.0
0.7993333339691162,43.0,102256.0,197248.0,221312.0,145792.0,50848.0,26788.0
0.800849974155426,36.0,105680.0,245440.0,224448.0,167040.0,75232.0,20076.0
0.8023666739463806,47.0,148800.0,226752.0,250176.0,191360.0,68528.0,19092.0
0.8039166927337646,30.0,169600.0,258432.0,298496.0,179456.0,61824.0,26204.0
0.8054333329200745,136.0,153088.0,287360.0,336576.0,193472.0,71744.0,28576.0
0.8069499731063843,84.0,161216.0,311552.0,320640.0,196416.0,68400.0,17832.0
0.8084666728973389,31.0,167936.0,309632.0,288128.0,199424.0,73344.0,15880.0
0.8099833130836487,50.0,174592.0,305984.0,285504.0,181120.0,78272.0,19500.0
0.8115000128746033,37.0,168064.0,302336.0,325632.0,196544.0,87808.0,17076.0
0.8130166530609131,53.0,155456.0,271232.0,302784.0,223488.0,88272.0,14652.0
0.8145333528518677,33.0,166976.0,277120.0,296896.0,217920.0,75904.0,20532.0
0.8160499930381775,37.0,175872.0,283008.0,270656.0,193536.0,88048.0,18828.0
0.8175666928291321,41.0,155776.0,265280.0,275584.0,195648.0,73904.0,16828.0
0.8190833330154419,48.0,148480.0,247552.0,300416.0,180160.0,85184.0,18756.0
0.8206166625022888,41.0,142720.0,274624.0,269376.0,169472.0,67760.0,16192.0
0.8221333622932434,34.0,130928.0,235776.0,254720.0,167936.0,78800.0,14320.0
0.8236500024795532,30.0,131520.0,241088.0,226176.0,143744.0,65152.0,18312.0
0.8251833319664001,7.0,99968.0,189504.0,217856.0,115360.0,52656.0,12032.0
0.82669997215271,84.0,103984.0,169920.0,169856.0,130240.0,48480.0,14920.0
0.8282166719436646,70.0,89952.0,150464.0,135936.0,101776.0,33568.0,6845.0
0.829716682434082,24.0,73712.0,106800.0,128256.0,81984.0,30956.0,6580.0
0.8312333226203918,47.0,47344.0,116080.0,131264.0,64384.0,33344.0,7954.0
0.8327500224113464,84.0,66416.0,85792.0,90688.0,45504.0,25036.0,7273.0
0.8342833518981934,42.0,41824.0,83632.0,74624.0,48448.0,17268.0,4933.0
0.8357999920845032,39.0,46480.0,61600.0,61488.0,40976.0,18944.0,5176.0
0.8373333215713501,35.0,35792.0,41632.0,56592.0,24316.0,14028.0,4302.0
0.8388500213623047,33.0,23140.0,41728.0,52096.0,22244.0,9412.0,690.0
0.8403666615486145,37.0,16768.0,32216.0,29312.0,19696.0,7621.0,4285.0
0.8418833613395691,33.0,15956.0,22668.0,19416.0,17772.0,5928.0,492.0
0.8434000015258789,29.0,10204.0,25564.0,9348.0,15796.0,7465.0,1961.0
0.8449166417121887,34.0,6521.0,15720.0,15284.0,10752.0,1749.0,1924.0
0.8464333415031433,6.0,6661.0,17628.0,8948.0,5910.0,3572.0,816.0
0.8479499816894531,42.0,7924.0,9592.0,14204.0,7911.0,2882.0,411.0
0.8494666814804077,12.0,5844.0,5626.0,9220.0,6286.0,1717.0,5.0
0.8509833216667175,15.0,3698.0,8956.0,2952.0,8128.0,696.0,11.0
0.8525000214576721,22.0,3811.0,8098.0,6362.0,4617.0,417.0,605.0
0.8540833592414856,19.0,2821.0,6382.0,7142.0,4845.0,2352.0,591.0
0.8555999994277954,17.0,2630.0,6392.0,3799.0,2585.0,1872.0,577.0
0.8571166396141052,5.0,1936.0,6403.0,7085.0,4264.0,1290.0,23.0
0.8586333394050598,3.0,1984.0,3529.0,9952.0,2358.0,849.0,54.0
0.8601499795913696,0.0,2032.0,2754.0,8348.0,5119.0,1613.0,170.0
0.8616666793823242,3.0,1381.0,6612.0,4020.0,4449.0,1902.0,10.0
0.863183319568634,5.0,1622.0,5349.0,2034.0,3854.0,620.0,21.0
0.8647000193595886,8.0,1863.0,2960.0,5556.0,3852.0,2054.0,31.0
0.8662166595458984,11.0,1452.0,3102.0,2582.0,3849.0,1572.0,28.0
0.867733359336853,10.0,872.0,2965.0,5026.0,4076.0,233.0,26.0
0.8692499995231628,11.0,1075.0,1998.0,5260.0,2188.0,701.0,38.0
0.8708000183105469,11.0,1279.0,2936.0,5868.0,2599.0,1484.0,50.0
0.8723333477973938,23.0,1004.0,3843.0,4298.0,2337.0,956.0,53.0
0.8738499879837036,25.0,728.0,3740.0,2388.0,1798.0,427.0,45.0
0.8753666877746582,38.0,1461.0,3175.0,6966.0,1259.0,1370.0,37.0
0.876883327960968,31.0,1028.0,3236.0,1629.0,1411.0,40.0,60.0
0.8784000277519226,24.0,595.0,2321.0,4612.0,1621.0,1236.0,18.0
0.8799166679382324,33.0,402.0,953.0,1455.0,1831.0,1537.0,1022.0
0.8814333081245422,17.0,391.0,3147.0,2966.0,1883.0,10.0,1199.0
0.8829500079154968,0.0,1398.0,1338.0,4197.0,1935.0,1498.0,47.0
0.8844666481018066,8.0,1375.0,20.0,2329.0,1966.0,1189.0,23.0
0.8859833478927612,21.0,39.0,4006.0,2581.0,28.0,603.0,22.0
0.887499988079071,33.0,2391.0,3627.0,1862.0,2942.0,17.0,28.0
0.8890833258628845,25.0,3247.0,1701.0,1786.0,2281.0,441.0,0.0
0.8906000256538391,20.0,18.0,4600.0,1044.0,2674.0,16.0,5.0
0.8921166658401489,5.0,512.0,23.0,303.0,2491.0,16.0,8.0
0.8936333060264587,26.0,19.0,1132.0,384.0,39.0,16.0,11.0
0.8951500058174133,24.0,22.0,2935.0,1687.0,2052.0,45.0,21.0
0.8966666460037231,6.0,498.0,13.0,846.0,1232.0,74.0,31.0
0.8981833457946777,21.0,308.0,1655.0,5.0,55.0,53.0,29.0
0.8996999859809875,13.0,118.0,1123.0,180.0,2500.0,32.0,27.0
0.9012166857719421,5.0,429.0,1647.0,355.0,563.0,30.0,24.0
0.902733325958252,54.0,739.0,328.0,620.0,2252.0,29.0,29.0
0.9042500257492065,46.0,1205.0,2093.0,1342.0,1194.0,66.0,17.0
0.9058166742324829,42.0,1671.0,957.0,1475.0,1914.0,41.0,5.0
0.9073333144187927,32.0,1138.0,50.0,1607.0,31.0,16.0,18.0
0.9088500142097473,31.0,16.0,1789.0,1102.0,66.0,1086.0,42.0
0.9103666543960571,28.0,1786.0,959.0,598.0,20.0,1724.0,39.0
0.9118833541870117,25.0,450.0,721.0,307.0,30.0,1367.0,23.0
0.9133999943733215,18.0,25.0,550.0,17.0,15.0,17.0,6.0
0.9149166941642761,44.0,60.0,378.0,1729.0,0.0,1280.0,16.0
0.9164333343505859,40.0,375.0,1254.0,1685.0,38.0,28.0,18.0
0.9179499745368958,35.0,244.0,1263.0,2729.0,43.0,17.0,11.0
0.9194666743278503,33.0,113.0,1272.0,981.0,49.0,0.0,5.0
0.9209833145141602,24.0,306.0,1088.0,1855.0,835.0,5.0,18.0
0.9225666522979736,31.0,499.0,910.0,651.0,771.0,10.0,31.0
0.9240833520889282,39.0,2760.0,733.0,1284.0,47.0,543.0,44.0
0.925599992275238,48.0,2560.0,1079.0,763.0,43.0,280.0,66.0
0.9271166920661926,35.0,1292.0,1526.0,666.0,2827.0,17.0,65.0
0.9286333322525024,22.0,1377.0,1974.0,569.0,2470.0,19.0,28.0
0.9301499724388123,8.0,811.0,2732.0,484.0,714.0,19.0,85.0
0.9316666722297668,6.0,50.0,31.0,399.0,1732.0,193.0,42.0
0.9331833124160767,0.0,1215.0,1993.0,28.0,635.0,107.0,40.0
0.9347000122070312,18.0,10.0,2509.0,1906.0,5.0,21.0,35.0
0.9362166523933411,19.0,1341.0,2879.0,2641.0,323.0,32.0,33.0
0.9377333521842957,21.0,533.0,262.0,1831.0,37.0,317.0,28.0
0.939300000667572,91.0,329.0,2851.0,581.0,1031.0,168.0,37.0
0.9408166408538818,73.0,332.0,1556.0,1057.0,2025.0,19.0,29.0
0.9423333406448364,6.0,334.0,1154.0,581.0,2316.0,91.0,5.0
0.9438499808311462,39.0,5.0,2278.0,105.0,777.0,148.0,42.0
0.9453666806221008,18.0,15.0,827.0,198.0,2072.0,205.0,660.0
0.9468833208084106,29.0,25.0,2467.0,290.0,1404.0,103.0,516.0
0.9484000205993652,0.0,834.0,1507.0,1704.0,586.0,0.0,34.0
0.949916660785675,12.0,427.0,923.0,2111.0,1144.0,30.0,26.0
0.9514333605766296,5.0,21.0,1197.0,1891.0,966.0,60.0,20.0
0.9529500007629395,8.0,786.0,1321.0,573.0,45.0,46.0,39.0
0.9544666409492493,11.0,1042.0,787.0,82.0,805.0,70.0,13.0
0.9560166597366333,10.0,1298.0,1100.0,2182.0,942.0,93.0,23.0
0.9575333595275879,19.0,767.0,27.0,291.0,1078.0,12.0,22.0
0.9590499997138977,27.0,1722.0,1123.0,2086.0,980.0,29.0,22.0
0.9605666399002075,23.0,15.0,736.0,1727.0,367.0,47.0,343.0
0.9620833396911621,20.0,1241.0,270.0,2887.0,24.0,26.0,176.0
0.9635999798774719,18.0,517.0,63.0,1459.0,632.0,39.0,9.0
0.9651166796684265,14.0,28.0,1139.0,945.0,339.0,33.0,29.0
0.9666333198547363,17.0,1298.0,1045.0,1550.0,45.0,27.0,23.0
0.9681500196456909,19.0,30.0,951.0,499.0,704.0,10.0,21.0
0.9696666598320007,16.0,668.0,582.0,1496.0,668.0,1422.0,31.0
0.9711833596229553,18.0,582.0,0.0,961.0,631.0,1209.0,24.0
0.972766637802124,20.0,804.0,790.0,765.0,1598.0,0.0,10.0
0.9742833375930786,17.0,1025.0,768.0,379.0,2565.0,17.0,17.0
0.9757999777793884,18.0,1428.0,1341.0,25.0,2567.0,27.0,12.0
0.977316677570343,19.0,62.0,1371.0,94.0,12.0,680.0,16.0
0.9788333177566528,32.0,20.0,1049.0,1408.0,57.0,920.0,20.0
0.9803500175476074,21.0,73.0,726.0,2080.0,599.0,958.0,25.0
0.9818666577339172,9.0,26.0,331.0,1222.0,448.0,1143.0,30.0
0.9833833575248718,32.0,129.0,1014.0,1630.0,500.0,569.0,31.0
0.9848999977111816,59.0,233.0,625.0,2038.0,551.0,10.0,13.0
0.9864166378974915,45.0,132.0,236.0,1915.0,21.0,50.0,10.0
0.987933337688446,36.0,31.0,831.0,716.0,744.0,1458.0,26.0
0.9894999861717224,37.0,656.0,777.0,1442.0,665.0,1453.0,27.0
0.991016685962677,46.0,788.0,725.0,17.0,1084.0,5.0,28.0
0.9925333261489868,0.0,29.0,672.0,797.0,507.0,0.0,24.0
0.9940500259399414,10.0,376.0,730.0,41.0,846.0,61.0,31.0
0.9955666661262512,21.0,19.0,637.0,534.0,854.0,10.0,5.0
0.997083306312561,19.0,870.0,543.0,1178.0,438.0,8.0,43.0
0.9986000061035156,17.0,606.0,1181.0,1822.0,22.0,5.0,0.0
1.0001167058944702,30.0,342.0,613.0,1171.0,424.0,36.0,17.0
1.0016332864761353,27.0,78.0,44.0,519.0,825.0,34.0,24.0
1.0031499862670898,33.0,44.0,551.0,2283.0,1391.0,34.0,31.0
1.0046666860580444,26.0,61.0,1058.0,2098.0,946.0,34.0,30.0
1.0062333345413208,8.0,77.0,544.0,2756.0,478.0,37.0,29.0
1.0077667236328125,14.0,57.0,29.0,1326.0,10.0,40.0,5.0
1.0092833042144775,0.0,634.0,1896.0,1719.0,63.0,11.0,19.0
1.0108000040054321,33.0,387.0,1990.0,1358.0,479.0,283.0,24.0
1.0123167037963867,29.0,141.0,1002.0,2387.0,515.0,554.0,0.0
1.0138332843780518,42.0,54.0,1962.0,12.0,62.0,691.0,10.0
1.0153499841690063,44.0,61.0,2254.0,633.0,650.0,18.0,8.0
1.016866683959961,36.0,68.0,2546.0,1421.0,334.0,35.0,5.0
1.0183833837509155,12.0,42.0,72.0,614.0,18.0,52.0,14.0
1.0198999643325806,10.0,15.0,1428.0,42.0,559.0,14.0,23.0
1.0214166641235352,32.0,28.0,3145.0,314.0,39.0,17.0,24.0
1.0229333639144897,17.0,41.0,2329.0,587.0,721.0,0.0,26.0
1.0245000123977661,11.0,271.0,43.0,22.0,859.0,10.0,29.0
1.0260167121887207,27.0,501.0,1497.0,0.0,997.0,35.0,19.0
1.0275332927703857,9.0,660.0,1006.0,402.0,1020.0,30.0,5.0
1.0290499925613403,35.0,818.0,921.0,205.0,753.0,26.0,27.0
1.030566692352295,26.0,18.0,1700.0,7.0,795.0,23.0,5.0
1.0320833921432495,20.0,581.0,2417.0,203.0,838.0,21.0,5.0
1.0335999727249146,30.0,0.0,2140.0,102.0,1376.0,278.0,29.0
1.0351166725158691,13.0,138.0,282.0,0.0,859.0,143.0,34.0
1.0366333723068237,0.0,481.0,950.0,936.0,343.0,8.0,36.0
1.0381499528884888,14.0,254.0,1997.0,488.0,470.0,11.0,37.0
1.0396666526794434,10.0,28.0,1526.0,39.0,598.0,63.0,32.0
1.0412499904632568,20.0,52.0,1243.0,6.0,297.0,467.0,15.0
1.0427666902542114,7.0,76.0,941.0,22.0,500.0,870.0,13.0
1.044283390045166,5.0,712.0,1256.0,37.0,702.0,641.0,10.0
1.045799970626831,23.0,664.0,1581.0,605.0,649.0,679.0,5.0
1.0473166704177856,7.0,616.0,210.0,1172.0,655.0,60.0,8.0
1.0488333702087402,14.0,977.0,2555.0,1107.0,661.0,32.0,10.0
1.0503499507904053,22.0,1338.0,1722.0,1042.0,409.0,5.0,12.0
1.0518666505813599,14.0,52.0,2275.0,2580.0,604.0,28.0,13.0
1.0533833503723145,21.0,920.0,10.0,2650.0,937.0,33.0,13.0
1.054900050163269,41.0,778.0,1220.0,477.0,971.0,12.0,13.0
1.056416630744934,23.0,393.0,418.0,49.0,759.0,0.0,29.0
1.0579832792282104,5.0,7.0,945.0,252.0,75.0,32.0,44.0
1.059499979019165,23.0,32.0,1473.0,852.0,68.0,19.0,39.0
1.0610166788101196,0.0,1448.0,646.0,754.0,44.0,6.0,0.0
1.0625333786010742,40.0,988.0,1926.0,1816.0,698.0,13.0,10.0
1.0640499591827393,42.0,527.0,1662.0,927.0,535.0,58.0,28.0
1.0655666589736938,44.0,11.0,1348.0,38.0,288.0,48.0,24.0
1.0670833587646484,28.0,35.0,699.0,249.0,40.0,38.0,19.0
1.068600058555603,10.0,24.0,49.0,460.0,350.0,22.0,72.0
1.070116639137268,40.0,13.0,775.0,851.0,184.0,5.0,49.0
1.0716333389282227,34.0,28.0,398.0,625.0,18.0,395.0,25.0
1.0731500387191772,27.0,289.0,1147.0,399.0,35.0,784.0,74.0
1.0747333765029907,26.0,685.0,787.0,524.0,973.0,1149.0,67.0
1.0762499570846558,26.0,709.0,1129.0,649.0,945.0,1420.0,21.0
1.0777666568756104,11.0,734.0,1471.0,1356.0,0.0,1650.0,32.0
1.079283356666565,0.0,18.0,1434.0,1042.0,906.0,34.0,22.0
1.0808000564575195,19.0,1089.0,1397.0,729.0,35.0,787.0,25.0
1.0823166370391846,14.0,1304.0,158.0,1877.0,487.0,1127.0,37.0
1.0838333368301392,24.0,1640.0,0.0,1495.0,5.0,44.0,35.0
1.0853500366210938,5.0,584.0,1504.0,1497.0,104.0,5.0,28.0
1.0868666172027588,12.0,80.0,2111.0,783.0,203.0,51.0,22.0
1.0883833169937134,20.0,47.0,1290.0,1127.0,1516.0,17.0,36.0
1.089900016784668,15.0,131.0,470.0,2411.0,1518.0,31.0,27.0
1.0914666652679443,10.0,215.0,928.0,3092.0,1024.0,45.0,36.0
1.092983365058899,10.0,1046.0,830.0,27.0,836.0,12.0,53.0
1.094499945640564,10.0,649.0,1502.0,988.0,647.0,35.0,69.0
1.0960166454315186,10.0,252.0,1444.0,2794.0,272.0,34.0,51.0
1.0975333452224731,9.0,1329.0,1058.0,3059.0,560.0,33.0,33.0
1.0990500450134277,12.0,1437.0,645.0,2409.0,601.0,10.0,10.0
1.1005666255950928,14.0,331.0,232.0,2679.0,27.0,23.0,61.0
1.1020833253860474,25.0,2481.0,663.0,985.0,1884.0,26.0,32.0
1.103600025177002,34.0,1811.0,688.0,1454.0,1156.0,29.0,33.0
1.1051167249679565,27.0,1011.0,714.0,644.0,428.0,43.0,33.0
1.1066333055496216,24.0,40.0,739.0,1718.0,15.0,126.0,24.0
1.108216643333435,10.0,195.0,764.0,1865.0,1021.0,84.0,18.0
1.1097333431243896,7.0,20.0,641.0,1980.0,1353.0,42.0,5.0
1.1112500429153442,23.0,378.0,518.0,10.0,692.0,32.0,12.0
1.1127666234970093,16.0,408.0,303.0,2677.0,31.0,24.0,41.0
1.1142833232879639,21.0,438.0,88.0,677.0,30.0,17.0,55.0
1.1158000230789185,22.0,977.0,1588.0,635.0,225.0,272.0,45.0
1.117316722869873,24.0,1138.0,1327.0,1063.0,420.0,148.0,35.0
1.118833303451538,0.0,599.0,1066.0,1207.0,566.0,23.0,24.0
1.1203500032424927,17.0,733.0,500.0,1207.0,1050.0,22.0,13.0
1.1218667030334473,32.0,643.0,2077.0,1266.0,1535.0,1144.0,12.0
1.1233832836151123,47.0,554.0,1902.0,1324.0,1286.0,1067.0,10.0
1.1249333620071411,45.0,815.0,2009.0,2279.0,1037.0,1044.0,20.0
1.1264666318893433,14.0,763.0,389.0,1713.0,1580.0,1166.0,21.0
1.1279833316802979,14.0,746.0,1588.0,1147.0,1156.0,971.0,27.0
1.1295000314712524,39.0,730.0,1699.0,1012.0,732.0,775.0,5.0
1.1310166120529175,46.0,850.0,1383.0,57.0,1605.0,557.0,35.0
1.132533311843872,27.0,833.0,1066.0,646.0,1272.0,338.0,28.0
1.1340500116348267,21.0,804.0,1361.0,1235.0,793.0,30.0,22.0
1.1355667114257812,30.0,1677.0,1212.0,516.0,1638.0,49.0,20.0
1.1370832920074463,23.0,2281.0,2586.0,1089.0,974.0,29.0,19.0
1.1385999917984009,19.0,0.0,2696.0,1101.0,1444.0,820.0,12.0
1.1401166915893555,5.0,571.0,1395.0,1113.0,1914.0,1058.0,30.0
1.14163339138031,17.0,52.0,1447.0,1524.0,2313.0,1448.0,38.0
1.143216609954834,28.0,702.0,2481.0,1936.0,787.0,17.0,1147.0
1.1447333097457886,27.0,336.0,1681.0,271.0,11.0,22.0,966.0
1.1462500095367432,20.0,946.0,2073.0,2091.0,497.0,913.0,249.0
1.1477667093276978,13.0,1357.0,2465.0,3025.0,982.0,44.0,44.0
1.1492832899093628,10.0,1310.0,2439.0,3275.0,21.0,13.0,24.0
1.1507999897003174,0.0,893.0,2413.0,2310.0,1117.0,934.0,0.0
1.152316689491272,6.0,804.0,2063.0,1375.0,862.0,709.0,32.0
1.1538333892822266,6.0,714.0,3169.0,1513.0,606.0,7.0,18.0
1.1553499698638916,3.0,2397.0,666.0,663.0,1105.0,22.0,39.0
1.1568666696548462,0.0,2754.0,4427.0,1496.0,982.0,28.0,23.0
1.1583833694458008,40.0,947.0,4140.0,1389.0,1031.0,34.0,12.0
1.1599500179290771,23.0,553.0,3073.0,1282.0,1984.0,17.0,6.0
1.1614667177200317,6.0,495.0,1957.0,1301.0,1311.0,24.0,0.0
1.1629832983016968,6.0,42.0,2444.0,1320.0,638.0,32.0,8.0
1.1644999980926514,28.0,302.0,958.0,1334.0,2370.0,7.0,88.0
1.166016697883606,24.0,562.0,1543.0,1177.0,2603.0,38.0,47.0
1.167533278465271,17.0,287.0,1723.0,1111.0,32.0,776.0,6.0
1.1690499782562256,33.0,11.0,1903.0,1045.0,1977.0,938.0,14.0
1.1705666780471802,32.0,429.0,957.0,3634.0,2859.0,1101.0,22.0
1.1720833778381348,30.0,846.0,10.0,4533.0,1430.0,863.0,51.0
1.1735999584197998,22.0,1244.0,4654.0,3052.0,0.0,5.0,42.0
1.1751166582107544,36.0,1115.0,3429.0,3334.0,806.0,7.0,43.0
1.1766999959945679,40.0,1861.0,1711.0,473.0,711.0,8.0,7.0
1.1782166957855225,25.0,3275.0,1883.0,5145.0,1096.0,867.0,11.0
1.1797332763671875,32.0,3800.0,1412.0,2944.0,1671.0,579.0,14.0
1.181249976158142,14.0,1309.0,2362.0,2473.0,1546.0,291.0,10.0
1.1827666759490967,19.0,2088.0,2922.0,1741.0,1421.0,7.0,5.0
1.1842833757400513,20.0,3402.0,3094.0,2211.0,2524.0,316.0,17.0
1.1857999563217163,15.0,1397.0,3266.0,2681.0,2532.0,1080.0,16.0
1.187316656112671,10.0,2542.0,2074.0,3026.0,20.0,689.0,14.0
1.1888333559036255,27.0,2487.0,1967.0,3290.0,2019.0,298.0,1068.0
1.19035005569458,24.0,951.0,1860.0,3421.0,3845.0,878.0,1094.0
1.1918666362762451,5.0,22.0,77.0,2638.0,1596.0,28.0,751.0
1.1934332847595215,12.0,3536.0,1326.0,1855.0,485.0,468.0,19.0
1.194949984550476,19.0,1664.0,953.0,3951.0,880.0,609.0,69.0
1.1964666843414307,20.0,3631.0,579.0,2742.0,115.0,11.0,257.0
1.1979833841323853,22.0,10.0,2292.0,3640.0,1315.0,14.0,0.0
1.1994999647140503,16.0,1234.0,3340.0,2716.0,935.0,18.0,21.0
1.2010166645050049,19.0,4688.0,3194.0,2481.0,1616.0,18.0,42.0
1.2025333642959595,29.0,2524.0,2361.0,4317.0,3723.0,19.0,44.0
1.2040499448776245,28.0,758.0,1528.0,3767.0,4398.0,24.0,33.0
1.205566644668579,27.0,696.0,4790.0,3482.0,2338.0,19.0,432.0
1.2070833444595337,0.0,1222.0,5122.0,2720.0,2609.0,13.0,227.0
1.2086000442504883,5.0,3301.0,2571.0,2982.0,176.0,26.0,21.0
1.2101833820343018,8.0,3773.0,3769.0,2972.0,1139.0,371.0,122.0
1.2116999626159668,17.0,4244.0,1578.0,2399.0,673.0,516.0,310.0
1.2132166624069214,26.0,1215.0,1292.0,1949.0,207.0,661.0,497.0
1.214733362197876,57.0,951.0,2710.0,1498.0,1231.0,14.0,1191.0
1.216249942779541,46.0,3260.0,3562.0,3368.0,819.0,528.0,1301.0
1.2177666425704956,5.0,2554.0,4414.0,3116.0,407.0,491.0,1026.0
1.2192833423614502,41.0,1848.0,2603.0,3165.0,1498.0,454.0,709.0
1.2208000421524048,29.0,564.0,3477.0,2773.0,1288.0,402.0,29.0
1.2223166227340698,27.0,1034.0,2202.0,5888.0,1077.0,306.0,5.0
1.2238333225250244,15.0,1504.0,2457.0,6564.0,1063.0,447.0,12.0
1.225350022315979,10.0,21.0,5833.0,7250.0,1510.0,324.0,20.0
1.2269166707992554,6.0,419.0,4843.0,4234.0,2152.0,201.0,15.0
1.22843337059021,19.0,818.0,5135.0,5015.0,3068.0,6.0,10.0
1.229949951171875,12.0,1089.0,3062.0,5770.0,2688.0,161.0,18.0
1.2314666509628296,5.0,1524.0,1635.0,2746.0,2309.0,83.0,18.0
1.2329833507537842,11.0,1959.0,4501.0,4239.0,988.0,5.0,18.0
1.2345000505447388,17.0,1537.0,953.0,5646.0,2035.0,1193.0,61.0
1.2360166311264038,14.0,1007.0,6321.0,4538.0,1495.0,1348.0,259.0
1.2375333309173584,12.0,2394.0,4387.0,3908.0,1684.0,1552.0,139.0
1.239050030708313,10.0,2115.0,3751.0,3905.0,1276.0,1696.0,19.0
1.240566611289978,10.0,1707.0,4659.0,3090.0,1486.0,1400.0,29.0
1.2420833110809326,0.0,1778.0,5178.0,2275.0,1661.0,529.0,5.0
1.243649959564209,10.0,1848.0,3470.0,4393.0,1836.0,1023.0,718.0
1.2451833486557007,25.0,2017.0,3005.0,4262.0,949.0,860.0,455.0
1.2467000484466553,15.0,84.0,6026.0,2603.0,61.0,696.0,192.0
1.2482166290283203,6.0,1076.0,7090.0,3047.0,2387.0,351.0,548.0
1.249733328819275,18.0,744.0,5070.0,5034.0,2154.0,6.0,691.0
1.2512500286102295,11.0,1847.0,5491.0,4450.0,1624.0,1238.0,834.0
1.2527666091918945,5.0,4216.0,5912.0,5460.0,3217.0,2070.0,15.0
1.2542833089828491,5.0,4855.0,3564.0,4019.0,3480.0,2051.0,41.0
1.2558000087738037,27.0,533.0,4449.0,5198.0,3133.0,62.0,26.0
1.2573167085647583,29.0,774.0,4983.0,6378.0,2786.0,1085.0,11.0
1.2588332891464233,32.0,3817.0,5518.0,2763.0,3301.0,3638.0,40.0
1.260349988937378,6.0,661.0,6085.0,7283.0,3340.0,2340.0,23.0
1.2619166374206543,27.0,2993.0,6550.0,3656.0,1767.0,1864.0,12.0
1.2634333372116089,15.0,4012.0,5020.0,2535.0,4569.0,1343.0,209.0
1.2649500370025635,10.0,3280.0,3491.0,5928.0,3997.0,742.0,112.0
1.2664666175842285,38.0,2548.0,3177.0,5248.0,2502.0,2674.0,16.0
1.267983317375183,51.0,4299.0,2726.0,3979.0,4753.0,2605.0,26.0
1.2695000171661377,0.0,2244.0,2276.0,4743.0,5641.0,1636.0,381.0
1.2710167169570923,17.0,5087.0,2708.0,6588.0,6312.0,3451.0,380.0
1.2725332975387573,5.0,3698.0,2678.0,6498.0,5729.0,1278.0,524.0
1.274049997329712,3.0,1326.0,2647.0,4418.0,4600.0,148.0,29.0
1.2755666971206665,0.0,3512.0,3438.0,7788.0,3762.0,3134.0,43.0
1.2770832777023315,3.0,2789.0,4228.0,5048.0,5619.0,2593.0,0.0
1.278666615486145,6.0,2066.0,4901.0,4347.0,5992.0,814.0,5.0
1.2801833152770996,18.0,3312.0,5575.0,3646.0,3790.0,1605.0,1048.0
1.2817000150680542,23.0,1724.0,7033.0,8948.0,4908.0,2056.0,532.0
1.2832167148590088,52.0,1766.0,6385.0,10292.0,2277.0,2307.0,17.0
1.2847332954406738,41.0,1809.0,7650.0,8784.0,6552.0,0.0,31.0
1.2862499952316284,18.0,2070.0,7778.0,3192.0,5508.0,1445.0,38.0
1.287766695022583,44.0,2332.0,4657.0,7380.0,3925.0,1812.0,6.0
1.289283275604248,43.0,946.0,4184.0,2205.0,5008.0,18.0,27.0
1.2907999753952026,56.0,2269.0,4454.0,9252.0,5461.0,2178.0,471.0
1.2923166751861572,41.0,3592.0,4723.0,6565.0,5692.0,1028.0,638.0
1.2938333749771118,17.0,2670.0,6562.0,6654.0,5379.0,1454.0,805.0
1.2954000234603882,16.0,3322.0,6204.0,6743.0,5075.0,2578.0,521.0
1.2969167232513428,8.0,3974.0,5846.0,6632.0,5110.0,2579.0,5.0
1.2984333038330078,11.0,2821.0,5725.0,6521.0,5019.0,707.0,20.0
1.2999500036239624,13.0,1011.0,4908.0,6019.0,4928.0,524.0,425.0
1.301466703414917,14.0,3778.0,7719.0,6808.0,5515.0,1878.0,21.0
1.302983283996582,0.0,3677.0,7502.0,7596.0,5951.0,1695.0,971.0
1.3044999837875366,4.0,4162.0,3020.0,4741.0,6388.0,1512.0,1041.0
1.3060166835784912,7.0,2538.0,7017.0,7027.0,4741.0,1108.0,32.0
1.3075333833694458,0.0,914.0,8584.0,11532.0,5001.0,1954.0,225.0
1.3090499639511108,0.0,3041.0,14264.0,11468.0,5498.0,1972.0,418.0
1.3105666637420654,0.0,1996.0,11948.0,6265.0,4030.0,1991.0,69.0
1.312150001525879,20.0,4020.0,11132.0,12756.0,5006.0,2333.0,43.0
1.3136667013168335,28.0,4272.0,9288.0,12604.0,3873.0,667.0,59.0
1.3151832818984985,24.0,3306.0,9932.0,9648.0,4217.0,348.0,23.0
1.3166999816894531,10.0,2574.0,4053.0,8628.0,5366.0,28.0,908.0
1.3182166814804077,26.0,5543.0,4678.0,10188.0,5372.0,2600.0,851.0
1.3197333812713623,23.0,5041.0,6865.0,10288.0,5378.0,3090.0,1147.0
1.3212499618530273,20.0,3438.0,5899.0,10392.0,3747.0,2664.0,41.0
1.322766661643982,17.0,2157.0,7765.0,3643.0,5438.0,2513.0,863.0
1.3242833614349365,39.0,7528.0,8412.0,13156.0,5311.0,2463.0,1309.0
1.3257999420166016,37.0,6996.0,8816.0,15432.0,5551.0,4395.0,22.0
1.3273166418075562,14.0,4564.0,9216.0,4461.0,4845.0,4018.0,365.0
1.3288832902908325,16.0,4294.0,11012.0,13296.0,7176.0,3425.0,673.0
1.330399990081787,17.0,4537.0,5233.0,9260.0,8170.0,2831.0,582.0
1.3319166898727417,24.0,4781.0,11696.0,6381.0,6898.0,1550.0,803.0
1.3334333896636963,22.0,4951.0,10696.0,10360.0,6534.0,4971.0,482.0
1.3349499702453613,19.0,5120.0,10396.0,11044.0,5003.0,4703.0,8.0
1.336466670036316,27.0,5219.0,13076.0,11984.0,4392.0,2257.0,59.0
1.3379833698272705,19.0,6069.0,7628.0,10300.0,8396.0,2964.0,192.0
1.3394999504089355,10.0,2378.0,12976.0,11700.0,6373.0,1349.0,693.0
1.3410166501998901,20.0,8992.0,15240.0,10732.0,4349.0,1490.0,737.0
1.3425333499908447,18.0,9580.0,9128.0,9444.0,5638.0,1532.0,5.0
1.3440666198730469,17.0,6578.0,6884.0,12252.0,6927.0,669.0,795.0
1.3456333875656128,13.0,7884.0,13084.0,4674.0,15296.0,1117.0,1204.0
1.3471499681472778,10.0,5175.0,15944.0,7081.0,13084.0,2280.0,15.0
1.3486666679382324,29.0,7263.0,14664.0,9140.0,7785.0,2579.0,0.0
1.350183367729187,31.0,3793.0,12116.0,9556.0,6972.0,2565.0,211.0
1.351699948310852,6.0,4377.0,12260.0,9968.0,9032.0,2195.0,422.0
1.3532166481018066,10.0,5248.0,11264.0,11392.0,7887.0,4203.0,1290.0
1.3547333478927612,12.0,6118.0,10792.0,12812.0,7437.0,4451.0,673.0
1.3562500476837158,10.0,5688.0,13108.0,16032.0,6987.0,5043.0,57.0
1.3577666282653809,8.0,5964.0,13356.0,14976.0,6775.0,3392.0,351.0
1.3592833280563354,5.0,6241.0,13604.0,15664.0,6563.0,3210.0,236.0
1.36080002784729,14.0,5389.0,11792.0,16352.0,13044.0,5796.0,120.0
1.3623499870300293,23.0,4537.0,10424.0,15844.0,12504.0,3867.0,823.0
1.363883376121521,23.0,7241.0,16784.0,10252.0,11732.0,1937.0,876.0
1.365399956703186,24.0,9944.0,16056.0,10636.0,13472.0,6676.0,15.0
1.3669166564941406,0.0,8932.0,15324.0,14044.0,5832.0,8684.0,21.0
1.3684333562850952,25.0,7320.0,15604.0,16604.0,15660.0,6617.0,26.0
1.3699500560760498,24.0,8158.0,15884.0,14684.0,13084.0,3600.0,817.0
1.3714666366577148,23.0,8996.0,16176.0,12764.0,11796.0,7881.0,1130.0
1.3729833364486694,18.0,8224.0,13096.0,15236.0,9368.0,4873.0,427.0
1.374500036239624,13.0,8692.0,12964.0,17024.0,12924.0,7785.0,19.0
1.376016616821289,18.0,8324.0,16432.0,16160.0,6991.0,10252.0,2321.0
1.3775333166122437,6.0,7954.0,16624.0,17792.0,8053.0,3291.0,2707.0
1.3790500164031982,31.0,9408.0,20208.0,9912.0,8416.0,8380.0,2168.0
1.3806333541870117,18.0,8256.0,21036.0,21632.0,11820.0,4914.0,396.0
1.3821500539779663,5.0,7103.0,21864.0,18940.0,14644.0,5045.0,921.0
1.3836666345596313,17.0,7582.0,16508.0,15936.0,12184.0,3696.0,1101.0
1.385183334350586,16.0,9268.0,17652.0,20036.0,11932.0,7275.0,1289.0
1.3867000341415405,15.0,10016.0,17948.0,14264.0,18524.0,8768.0,1476.0
1.3882166147232056,43.0,11156.0,12976.0,22364.0,17620.0,3220.0,1318.0
1.3897333145141602,45.0,12036.0,16184.0,30792.0,15944.0,5034.0,462.0
1.3912500143051147,0.0,8492.0,18260.0,25564.0,11824.0,4022.0,664.0
1.3927667140960693,11.0,10304.0,18076.0,23772.0,10876.0,5635.0,568.0
1.3942832946777344,28.0,12120.0,23600.0,23892.0,15428.0,4930.0,300.0
1.395799994468689,23.0,14756.0,25596.0,14964.0,15444.0,4226.0,32.0
1.3973666429519653,14.0,16692.0,23804.0,30128.0,18288.0,4353.0,2779.0
1.39888334274292,5.0,18192.0,17776.0,22116.0,14580.0,5272.0,2294.0
1.4004000425338745,20.0,7671.0,26368.0,24444.0,17244.0,5178.0,2742.0
1.4019166231155396,11.0,11160.0,21332.0,24832.0,19992.0,5085.0,3288.0
1.4034333229064941,15.0,18360.0,16300.0,26744.0,21688.0,2898.0,1698.0
1.4049500226974487,0.0,12740.0,25724.0,25276.0,16684.0,4828.0,1357.0
1.4064667224884033,12.0,3747.0,27060.0,25032.0,17844.0,6758.0,444.0
1.4079833030700684,9.0,11692.0,29544.0,24784.0,16148.0,7388.0,2396.0
1.409500002861023,5.0,12964.0,27520.0,26828.0,15752.0,8018.0,3215.0
1.4110167026519775,52.0,20480.0,29472.0,26400.0,15356.0,7221.0,1730.0
1.4125332832336426,47.0,19912.0,31752.0,31976.0,13304.0,8268.0,3065.0
1.414116621017456,41.0,18052.0,25556.0,31204.0,11256.0,6868.0,770.0
1.4156333208084106,28.0,19524.0,30176.0,29840.0,22716.0,5638.0,2977.0
1.4171500205993652,26.0,16000.0,26016.0,30976.0,21940.0,5600.0,3834.0
1.4186667203903198,13.0,18352.0,30288.0,28948.0,18520.0,12820.0,1550.0
1.4201833009719849,17.0,10412.0,32084.0,26920.0,21584.0,15200.0,2247.0
1.4217000007629395,20.0,15732.0,29364.0,37488.0,22488.0,8504.0,3667.0
1.423216700553894,27.0,14884.0,32424.0,35984.0,22476.0,5844.0,1418.0
1.424733281135559,55.0,14036.0,32816.0,23820.0,22108.0,13088.0,2731.0
1.4262499809265137,46.0,11852.0,33216.0,37120.0,21736.0,6720.0,3377.0
1.4277666807174683,38.0,9668.0,31360.0,39776.0,21544.0,13504.0,1535.0
1.4292833805084229,25.0,11160.0,40736.0,36944.0,20808.0,9024.0,3526.0
1.4308500289916992,34.0,12652.0,44320.0,38944.0,20072.0,6758.0,887.0
1.4323666095733643,43.0,20356.0,49936.0,36240.0,21456.0,6149.0,3036.0
1.4338833093643188,21.0,22012.0,40976.0,33520.0,22840.0,6347.0,2645.0
1.4354000091552734,13.0,23328.0,42368.0,44576.0,31044.0,12600.0,916.0
1.436916708946228,12.0,21704.0,47552.0,41632.0,31032.0,11172.0,3185.0
1.4384499788284302,7.0,15096.0,44784.0,36864.0,34432.0,13852.0,4827.0
1.4399499893188477,5.0,19384.0,33248.0,50800.0,22216.0,8480.0,3953.0
1.4414666891098022,13.0,15604.0,43072.0,46800.0,35216.0,13680.0,2473.0
1.4429833889007568,21.0,20188.0,52960.0,50528.0,35632.0,14156.0,1500.0
1.4444999694824219,16.0,24040.0,56256.0,52160.0,40128.0,12064.0,4326.0
1.4460166692733765,11.0,27920.0,63120.0,56976.0,31148.0,9972.0,3284.0
1.44760000705719,12.0,33856.0,60704.0,58752.0,39952.0,15348.0,2242.0
1.4491167068481445,13.0,36080.0,58304.0,60512.0,45824.0,11956.0,3000.0
1.4506332874298096,27.0,36864.0,60464.0,69760.0,41920.0,16664.0,3800.0
1.4521499872207642,28.0,33440.0,62608.0,73136.0,41280.0,15196.0,2989.0
1.4536666870117188,15.0,37280.0,73312.0,75344.0,48928.0,13728.0,3316.0
1.4551833868026733,44.0,36096.0,75680.0,76832.0,46992.0,14996.0,3644.0
1.4566999673843384,44.0,34912.0,75104.0,78304.0,45056.0,16268.0,2555.0
1.458216667175293,44.0,37984.0,75968.0,76080.0,48656.0,12168.0,1466.0
1.4597333669662476,29.0,41056.0,76832.0,68192.0,52256.0,17608.0,5532.0
1.4612499475479126,29.0,48288.0,73024.0,71824.0,38032.0,18028.0,5563.0
1.4627666473388672,34.0,44288.0,78352.0,75440.0,44528.0,18448.0,5594.0
1.4643499851226807,29.0,42368.0,74944.0,87904.0,54096.0,18896.0,6113.0
1.4658666849136353,25.0,46224.0,71536.0,84368.0,59008.0,18844.0,6775.0
1.4673833847045898,14.0,48608.0,95040.0,67680.0,55744.0,24140.0,4626.0
1.4688999652862549,28.0,47264.0,89408.0,80848.0,52496.0,23404.0,4252.0
1.4704166650772095,29.0,46560.0,81120.0,81600.0,58448.0,22668.0,4418.0
1.471933364868164,30.0,42288.0,82960.0,93680.0,54272.0,24184.0,5427.0
1.473449945449829,8.0,39760.0,100800.0,90880.0,50096.0,21620.0,6437.0
1.4749666452407837,32.0,41744.0,95072.0,94944.0,63200.0,25292.0,4858.0
1.4764833450317383,79.0,43728.0,100720.0,94384.0,67232.0,17064.0,3279.0
1.4780000448226929,103.0,43504.0,82816.0,93632.0,62112.0,20544.0,7185.0
1.479516625404358,39.0,51600.0,94880.0,92896.0,54608.0,28888.0,5645.0
1.4810832738876343,5.0,51088.0,76480.0,88192.0,47312.0,26868.0,2426.0
1.482616662979126,42.0,50576.0,88720.0,100256.0,51616.0,26732.0,8576.0
1.4841333627700806,48.0,52864.0,81552.0,105952.0,53632.0,24260.0,6013.0
1.4856499433517456,42.0,40256.0,91408.0,97312.0,67728.0,24892.0,7897.0
1.4871666431427002,34.0,54016.0,94032.0,93776.0,70064.0,25524.0,4124.0
1.4886833429336548,18.0,41280.0,95280.0,98192.0,61744.0,24892.0,3778.0
1.4902000427246094,21.0,62496.0,92528.0,102608.0,53440.0,24260.0,6127.0
1.4917166233062744,13.0,64688.0,75088.0,97792.0,65456.0,22800.0,6008.0
1.493233323097229,19.0,46432.0,94944.0,92976.0,54976.0,28452.0,9212.0
1.4947500228881836,24.0,48960.0,106784.0,114256.0,75152.0,28980.0,8804.0
1.4962667226791382,29.0,64304.0,102064.0,115744.0,79824.0,24784.0,7976.0
1.4977833032608032,23.0,54576.0,83376.0,97536.0,65104.0,18888.0,7835.0
1.4993499517440796,28.0,59168.0,97088.0,103584.0,69568.0,27512.0,7693.0
1.5008666515350342,11.0,59856.0,94624.0,107632.0,69072.0,22380.0,3040.0
1.5023833513259888,13.0,60112.0,111312.0,111408.0,72704.0,25468.0,10204.0
1.5039000511169434,16.0,60352.0,105808.0,115184.0,76336.0,28556.0,10068.0
1.5054166316986084,16.0,54944.0,105648.0,122592.0,74112.0,36656.0,9820.0
1.506933331489563,16.0,55072.0,105504.0,130528.0,71888.0,38016.0,8684.0
1.5084500312805176,27.0,55216.0,108528.0,129568.0,78704.0,39168.0,7546.0
1.5099666118621826,36.0,71872.0,108352.0,121056.0,83504.0,30612.0,10988.0
1.5114833116531372,37.0,75040.0,108160.0,124000.0,83584.0,32096.0,11836.0
1.5130000114440918,27.0,63536.0,121312.0,123984.0,82624.0,27644.0,6081.0
1.5145167112350464,38.0,61920.0,121264.0,110320.0,82576.0,32448.0,6353.0
1.5160666704177856,35.0,44448.0,127728.0,106752.0,82528.0,30476.0,8980.0
1.5175833702087402,18.0,57664.0,115824.0,110336.0,79296.0,28504.0,4631.0
1.5190999507904053,39.0,75760.0,115104.0,109472.0,83120.0,30088.0,9780.0
1.5206166505813599,48.0,66944.0,114400.0,108608.0,75712.0,28368.0,8892.0
1.5221333503723145,7.0,66688.0,101504.0,115840.0,68384.0,26648.0,7228.0
1.523650050163269,34.0,63136.0,120112.0,91616.0,91488.0,22196.0,7368.0
1.525166630744934,10.0,54832.0,98288.0,105072.0,85920.0,19316.0,7101.0
1.5266833305358887,12.0,52816.0,103056.0,85168.0,66640.0,29336.0,5942.0
1.5282000303268433,13.0,48352.0,82816.0,95472.0,60320.0,30552.0,4782.0
1.5297166109085083,6.0,53840.0,94096.0,93328.0,63888.0,21748.0,3769.0
1.531233310699463,33.0,41376.0,77648.0,82432.0,61680.0,18896.0,3917.0
1.5327999591827393,36.0,50464.0,79856.0,87792.0,54640.0,20124.0,4065.0
1.5343166589736938,10.0,36240.0,76080.0,89120.0,62112.0,19016.0,5145.0
1.5358333587646484,24.0,44992.0,74464.0,66656.0,47104.0,17912.0,6475.0
1.537350058555603,37.0,39200.0,72848.0,72928.0,59280.0,20772.0,5765.0
1.538866639137268,38.0,39152.0,66816.0,58816.0,31080.0,18720.0,1513.0
1.5403833389282227,35.0,23248.0,56080.0,59552.0,47440.0,16668.0,4570.0
1.5419000387191772,32.0,37952.0,55328.0,71168.0,33968.0,16132.0,5067.0
1.5434166193008423,13.0,26924.0,62592.0,47328.0,37568.0,11804.0,1420.0
1.5449333190917969,14.0,36272.0,51792.0,49552.0,37584.0,10328.0,504.0
1.5464500188827515,5.0,22092.0,42704.0,39328.0,36432.0,12760.0,1784.0
1.547966718673706,5.0,26968.0,47424.0,46736.0,29400.0,14084.0,1929.0
1.5495500564575195,37.0,14076.0,32592.0,37808.0,26392.0,7126.0,1314.0
1.5510666370391846,19.0,29632.0,28800.0,40224.0,16492.0,8928.0,3694.0
1.5525833368301392,0.0,17312.0,38480.0,34432.0,29648.0,7827.0,3373.0
1.5541000366210938,41.0,28424.0,41200.0,40224.0,21252.0,11184.0,53.0
1.5556166172027588,35.0,17572.0,21832.0,20608.0,21704.0,9396.0,1339.0
1.5571333169937134,28.0,15484.0,18540.0,21640.0,23612.0,7604.0,2161.0
1.558650016784668,0.0,18760.0,26176.0,24012.0,18044.0,8061.0,642.0
1.5601667165756226,36.0,11260.0,22812.0,12540.0,15620.0,6591.0,1937.0
1.5616832971572876,32.0,9760.0,22260.0,19220.0,13936.0,8356.0,755.0
1.5631999969482422,19.0,6255.0,23548.0,13816.0,11020.0,5550.0,1775.0
1.5647166967391968,17.0,11564.0,15264.0,15116.0,13820.0,7403.0,2211.0
1.5663000345230103,15.0,4943.0,14060.0,14500.0,7801.0,7790.0,30.0
1.5678166151046753,5.0,3927.0,12652.0,9932.0,7891.0,5812.0,1963.0
1.5693333148956299,21.0,6938.0,14280.0,15256.0,4045.0,6921.0,757.0
1.5708500146865845,36.0,7974.0,9808.0,15060.0,3048.0,3639.0,609.0
1.572366714477539,29.0,6456.0,8624.0,10228.0,2051.0,3374.0,1660.0
1.573883295059204,23.0,3456.0,10548.0,5649.0,4097.0,1589.0,1285.0
1.5753999948501587,47.0,2371.0,4998.0,8828.0,3424.0,993.0,910.0
1.5769166946411133,47.0,3286.0,9236.0,7800.0,2751.0,988.0,342.0
1.5784332752227783,46.0,1711.0,4815.0,3794.0,2375.0,1469.0,1348.0
1.579949975013733,18.0,874.0,5982.0,7034.0,3795.0,933.0,418.0
1.5814666748046875,30.0,4788.0,6510.0,7394.0,3172.0,1060.0,31.0
1.583050012588501,12.0,4292.0,8868.0,5306.0,2550.0,1187.0,26.0
1.5845667123794556,29.0,3411.0,7234.0,6865.0,3471.0,432.0,25.0
1.5860832929611206,42.0,3986.0,5599.0,5255.0,3081.0,223.0,32.0
1.5875999927520752,0.0,2268.0,1573.0,5263.0,2691.0,14.0,40.0
1.5891166925430298,33.0,1824.0,2447.0,4522.0,3533.0,184.0,10.0
1.5906333923339844,38.0,2810.0,3432.0,3337.0,2645.0,354.0,44.0
1.5921499729156494,27.0,1793.0,1433.0,4084.0,2827.0,667.0,36.0
1.593666672706604,28.0,2378.0,1669.0,5441.0,10.0,336.0,26.0
1.5951833724975586,10.0,2909.0,1905.0,5218.0,1533.0,5.0,16.0
1.5966999530792236,5.0,509.0,2164.0,2154.0,3024.0,11.0,42.0
1.5982166528701782,13.0,1775.0,2422.0,2826.0,2004.0,17.0,25.0
1.5997833013534546,5.0,1096.0,1780.0,2768.0,1552.0,11.0,8.0
1.6013166904449463,9.0,1934.0,1137.0,1403.0,997.0,546.0,7.0
1.6028333902359009,12.0,151.0,2037.0,37.0,2270.0,307.0,4.0
1.604349970817566,0.0,873.0,3358.0,1578.0,611.0,69.0,0.0
1.6058666706085205,17.0,360.0,4786.0,2014.0,2346.0,19.0,50.0
1.607383370399475,24.0,261.0,3797.0,1011.0,2579.0,33.0,39.0
1.6088999509811401,31.0,162.0,1028.0,8.0,140.0,46.0,29.0
1.6104166507720947,0.0,652.0,2562.0,2406.0,1884.0,864.0,44.0
1.6119333505630493,24.0,742.0,1584.0,1691.0,2146.0,450.0,13.0
1.613450050354004,55.0,831.0,511.0,2006.0,5.0,35.0,6.0
1.614966630935669,47.0,512.0,595.0,429.0,1793.0,5.0,23.0
1.6164833307266235,12.0,457.0,2801.0,34.0,42.0,227.0,47.0
1.618066668510437,19.0,401.0,2373.0,937.0,482.0,746.0,809.0
1.6195833683013916,25.0,598.0,3008.0,632.0,545.0,381.0,1073.0
1.6210999488830566,18.0,27.0,1643.0,327.0,297.0,15.0,937.0
1.6226166486740112,11.0,643.0,985.0,248.0,49.0,34.0,13.0
1.6241333484649658,13.0,371.0,1800.0,170.0,349.0,0.0,31.0
1.6256500482559204,15.0,941.0,1254.0,26.0,156.0,8.0,1127.0
1.6271666288375854,20.0,477.0,708.0,429.0,167.0,18.0,5.0
1.62868332862854,25.0,12.0,493.0,832.0,179.0,755.0,19.0
1.6302000284194946,5.0,1187.0,278.0,1116.0,61.0,469.0,37.0
1.6317166090011597,11.0,1877.0,695.0,30.0,848.0,182.0,40.0
1.6332333087921143,17.0,1795.0,1720.0,190.0,1047.0,361.0,269.0
1.6348166465759277,12.0,61.0,1575.0,351.0,665.0,681.0,142.0
1.6363333463668823,22.0,591.0,1484.0,194.0,1079.0,25.0,14.0
1.637850046157837,21.0,142.0,1393.0,37.0,959.0,35.0,13.0
1.639366626739502,21.0,693.0,1242.0,40.0,1512.0,812.0,24.0
1.6408833265304565,0.0,37.0,1008.0,43.0,1406.0,657.0,6.0
1.6424000263214111,3.0,631.0,774.0,1210.0,0.0,8.0,15.0
1.6439167261123657,5.0,1226.0,66.0,631.0,531.0,15.0,0.0
1.6454333066940308,29.0,634.0,216.0,52.0,86.0,70.0,5.0
1.6469500064849854,38.0,41.0,15.0,1390.0,0.0,32.0,10.0
1.64846670627594,25.0,985.0,578.0,583.0,676.0,31.0,0.0
1.649983286857605,33.0,45.0,796.0,22.0,318.0,32.0,13.0
1.651550054550171,41.0,41.0,1096.0,1261.0,474.0,35.0,7.0
1.653066635131836,38.0,946.0,875.0,939.0,630.0,21.0,22.0
1.6545833349227905,34.0,822.0,950.0,1685.0,319.0,6.0,24.0
1.6561000347137451,20.0,698.0,1025.0,742.0,7.0,7.0,27.0
1.6576166152954102,19.0,719.0,1154.0,16.0,24.0,7.0,27.0
1.6591333150863647,9.0,740.0,1075.0,50.0,7.0,325.0,19.0
1.6606500148773193,28.0,617.0,996.0,25.0,13.0,184.0,11.0
1.662166714668274,40.0,648.0,30.0,10.0,426.0,43.0,29.0
1.663683295249939,92.0,905.0,592.0,164.0,233.0,18.0,35.0
1.6651999950408936,57.0,5.0,1814.0,318.0,39.0,6.0,11.0
1.6667166948318481,23.0,78.0,1556.0,906.0,6.0,475.0,5.0
1.6683000326156616,20.0,22.0,721.0,811.0,21.0,545.0,10.0
1.6698166131973267,33.0,174.0,32.0,716.0,35.0,48.0,28.0
1.6713333129882812,29.0,104.0,21.0,2256.0,37.0,5.0,22.0
1.6728500127792358,25.0,35.0,39.0,2783.0,12.0,85.0,15.0
1.6743667125701904,7.0,22.0,42.0,25.0,9.0,20.0,25.0
1.6758832931518555,37.0,308.0,11.0,1097.0,24.0,14.0,56.0
1.67739999294281,12.0,160.0,213.0,5.0,7.0,270.0,151.0
1.6789166927337646,44.0,12.0,109.0,18.0,17.0,147.0,101.0
1.6804333925247192,7.0,41.0,5.0,780.0,27.0,24.0,52.0
1.6819499731063843,34.0,32.0,863.0,6.0,13.0,0.0,56.0
1.6834666728973389,29.0,9.0,704.0,1264.0,0.0,25.0,42.0
1.6850333213806152,25.0,18.0,0.0,876.0,52.0,30.0,42.0
1.6865500211715698,32.0,27.0,7.0,1651.0,532.0,12.0,40.0
1.6880667209625244,27.0,18.0,443.0,309.0,546.0,5.0,32.0
1.6895833015441895,23.0,35.0,247.0,731.0,686.0,8.0,23.0
1.691100001335144,23.0,27.0,51.0,689.0,336.0,11.0,5.0
1.6926167011260986,24.0,19.0,28.0,348.0,707.0,11.0,8.0
1.6941332817077637,12.0,0.0,5.0,7.0,701.0,11.0,11.0
1.6956499814987183,17.0,3.0,36.0,33.0,695.0,24.0,25.0
1.6971666812896729,20.0,6.0,1750.0,59.0,84.0,37.0,51.0
1.6986833810806274,24.0,637.0,2294.0,47.0,61.0,24.0,28.0
1.7001999616622925,21.0,821.0,29.0,35.0,27.0,11.0,5.0
1.701783299446106,25.0,211.0,799.0,45.0,0.0,26.0,42.0
1.7032999992370605,18.0,178.0,2186.0,927.0,0.0,19.0,19.0
1.7048166990280151,11.0,561.0,10.0,2073.0,14.0,30.0,26.0
1.7063332796096802,10.0,303.0,59.0,2117.0,17.0,18.0,33.0
1.7078499794006348,29.0,44.0,24.0,1536.0,19.0,23.0,22.0
1.7093666791915894,60.0,24.0,14.0,114.0,382.0,29.0,24.0
1.710883378982544,56.0,56.0,5.0,402.0,719.0,19.0,27.0
1.712399959564209,52.0,88.0,28.0,1426.0,701.0,35.0,5.0
1.7139166593551636,24.0,44.0,93.0,946.0,27.0,51.0,17.0
1.7154333591461182,19.0,0.0,49.0,22.0,419.0,376.0,37.0
1.7169500589370728,47.0,16.0,5.0,57.0,18.0,302.0,27.0
1.718500018119812,5.0,14.0,285.0,40.0,11.0,0.0,24.0
1.7200332880020142,39.0,13.0,564.0,30.0,47.0,24.0,29.0
1.7215499877929688,36.0,12.0,790.0,20.0,44.0,0.0,25.0
1.7230666875839233,11.0,1032.0,771.0,8.0,7.0,40.0,22.0
1.724583387374878,5.0,760.0,752.0,0.0,9.0,32.0,15.0
1.726099967956543,41.0,487.0,613.0,209.0,11.0,23.0,8.0
1.7276166677474976,5.0,34.0,37.0,110.0,63.0,13.0,0.0
1.7291333675384521,6.0,42.0,6.0,11.0,37.0,23.0,6.0
1.7306499481201172,18.0,38.0,8.0,380.0,11.0,11.0,12.0
1.7321666479110718,14.0,33.0,193.0,641.0,10.0,0.0,18.0
1.7336833477020264,23.0,38.0,379.0,595.0,23.0,0.0,19.0
1.735200047492981,31.0,149.0,393.0,549.0,27.0,0.0,9.0
1.7367833852767944,5.0,81.0,196.0,297.0,51.0,41.0,0.0
1.7382999658584595,5.0,13.0,0.0,44.0,287.0,32.0,8.0
1.739816665649414,32.0,35.0,5.0,10.0,523.0,24.0,4.0
1.7413333654403687,39.0,25.0,12.0,19.0,285.0,15.0,0.0
1.7428499460220337,46.0,33.0,20.0,37.0,46.0,23.0,12.0
1.7443666458129883,5.0,40.0,15.0,55.0,23.0,45.0,12.0
1.7458833456039429,7.0,30.0,11.0,37.0,0.0,28.0,30.0
1.7474000453948975,13.0,21.0,542.0,20.0,8.0,11.0,32.0
1.7489166259765625,5.0,27.0,512.0,825.0,168.0,14.0,16.0
1.750433325767517,21.0,26.0,481.0,453.0,92.0,17.0,0.0
1.7519500255584717,21.0,25.0,505.0,82.0,16.0,51.0,48.0
1.753516674041748,26.0,22.0,529.0,1072.0,22.0,54.0,49.0
1.7550333738327026,26.0,5.0,896.0,20.0,29.0,0.0,6.0
1.7565499544143677,27.0,13.0,859.0,20.0,27.0,57.0,37.0
1.7580666542053223,33.0,22.0,11.0,0.0,25.0,15.0,31.0
1.7595833539962769,18.0,26.0,833.0,18.0,23.0,11.0,8.0
1.7611000537872314,22.0,30.0,847.0,19.0,650.0,6.0,5.0
1.7626166343688965,27.0,29.0,6.0,20.0,695.0,0.0,5.0
1.764133334159851,12.0,29.0,31.0,17.0,31.0,0.0,5.0
1.7656500339508057,10.0,25.0,208.0,14.0,26.0,0.0,19.0
1.7671666145324707,7.0,24.0,126.0,6.0,5.0,63.0,22.0
1.7687000036239624,13.0,400.0,43.0,43.0,23.0,54.0,20.0
1.7702666521072388,15.0,213.0,36.0,45.0,5.0,45.0,15.0
1.7717833518981934,17.0,26.0,28.0,23.0,10.0,5.0,10.0
1.773300051689148,22.0,121.0,393.0,0.0,0.0,18.0,11.0
1.774816632270813,20.0,5.0,695.0,11.0,0.0,30.0,11.0
1.7763333320617676,18.0,15.0,665.0,23.0,10.0,26.0,25.0
1.7778500318527222,17.0,25.0,94.0,5.0,21.0,5.0,38.0
1.7793666124343872,17.0,14.0,1063.0,31.0,14.0,40.0,38.0
1.7808833122253418,57.0,468.0,990.0,57.0,21.0,10.0,11.0
1.7824000120162964,78.0,712.0,5.0,38.0,28.0,46.0,9.0
1.783916711807251,47.0,377.0,252.0,19.0,48.0,31.0,30.0
1.785433292388916,7.0,41.0,0.0,17.0,27.0,15.0,21.0
1.7869999408721924,37.0,29.0,3.0,20.0,5.0,28.0,20.0
1.788516640663147,27.0,65.0,5.0,23.0,19.0,17.0,28.0
1.7900333404541016,17.0,18.0,11.0,289.0,32.0,6.0,17.0
1.7915500402450562,11.0,607.0,27.0,556.0,267.0,41.0,19.0
1.7930666208267212,35.0,634.0,19.0,558.0,144.0,34.0,30.0
1.7945833206176758,33.0,36.0,10.0,703.0,22.0,37.0,31.0
1.7961000204086304,30.0,886.0,10.0,24.0,24.0,26.0,15.0
1.797616720199585,28.0,655.0,10.0,0.0,19.0,27.0,0.0
1.79913330078125,21.0,0.0,40.0,27.0,65.0,26.0,5.0
1.8006500005722046,25.0,26.0,34.0,68.0,70.0,26.0,35.0
1.8021667003631592,0.0,40.0,27.0,52.0,33.0,11.0,24.0
1.8037500381469727,28.0,20.0,0.0,35.0,24.0,14.0,12.0
1.8052666187286377,31.0,0.0,7.0,117.0,19.0,39.0,10.0
1.8067833185195923,32.0,11.0,38.0,61.0,32.0,38.0,29.0
1.8083000183105469,0.0,6.0,33.0,5.0,45.0,36.0,5.0
1.8098167181015015,19.0,0.0,28.0,10.0,53.0,48.0,5.0
1.8113332986831665,38.0,3.0,19.0,16.0,489.0,38.0,5.0
1.812849998474121,37.0,6.0,16.0,44.0,265.0,28.0,3.0
1.8143666982650757,34.0,47.0,24.0,73.0,40.0,17.0,0.0
1.8158832788467407,31.0,31.0,21.0,55.0,49.0,5.0,26.0
1.8173999786376953,56.0,16.0,18.0,37.0,10.0,43.0,16.0
1.81891667842865,50.0,86.0,51.0,64.0,35.0,42.0,5.0
1.8204833269119263,24.0,156.0,83.0,36.0,18.0,46.0,10.0
1.8220000267028809,25.0,84.0,615.0,10.0,14.0,25.0,37.0
1.823533296585083,28.0,12.0,325.0,12.0,11.0,10.0,34.0
1.8250333070755005,21.0,5.0,35.0,28.0,16.0,39.0,20.0
1.826550006866455,29.0,46.0,30.0,25.0,14.0,21.0,5.0
1.8280667066574097,12.0,42.0,248.0,6.0,20.0,7.0,24.0
1.8295832872390747,28.0,38.0,132.0,179.0,26.0,38.0,42.0
1.8310999870300293,42.0,44.0,17.0,128.0,38.0,33.0,35.0
1.832633376121521,28.0,22.0,6.0,78.0,37.0,0.0,27.0
1.8341333866119385,13.0,13.0,13.0,18.0,35.0,13.0,23.0
1.8356499671936035,0.0,42.0,20.0,0.0,47.0,23.0,24.0
1.8372166156768799,14.0,19.0,21.0,5.0,18.0,5.0,25.0
1.8387166261672974,29.0,265.0,54.0,19.0,15.0,20.0,11.0
1.840250015258789,21.0,139.0,31.0,32.0,12.0,23.0,23.0
1.8417667150497437,13.0,13.0,9.0,26.0,42.0,27.0,0.0
1.8432832956314087,14.0,43.0,12.0,21.0,29.0,48.0,0.0
1.8447999954223633,5.0,16.0,17.0,13.0,17.0,42.0,41.0
1.8463000059127808,5.0,10.0,23.0,5.0,24.0,17.0,29.0
1.847833275794983,14.0,10.0,16.0,21.0,18.0,19.0,36.0
1.8493499755859375,23.0,188.0,9.0,31.0,11.0,22.0,27.0
1.850866675376892,26.0,438.0,1156.0,41.0,7.0,12.0,27.0
1.8523833751678467,30.0,221.0,1516.0,27.0,0.0,28.0,27.0
1.8539166450500488,38.0,5.0,29.0,12.0,10.0,28.0,5.0
1.8554333448410034,8.0,35.0,45.0,26.0,19.0,5.0,19.0
1.856950044631958,12.0,0.0,35.0,40.0,85.0,20.0,23.0
1.8584833145141602,16.0,31.0,0.0,28.0,64.0,34.0,0.0
1.8600000143051147,0.0,47.0,0.0,15.0,5.0,23.0,16.0
1.8615167140960693,4.0,37.0,0.0,5.0,53.0,19.0,24.0
1.8630332946777344,7.0,25.0,10.0,32.0,30.0,14.0,32.0
1.864549994468689,8.0,5.0,18.0,17.0,7.0,0.0,40.0
1.8660666942596436,8.0,14.0,39.0,0.0,6.0,0.0,0.0
1.8675832748413086,19.0,16.0,30.0,6.0,5.0,0.0,17.0
1.8690999746322632,32.0,18.0,27.0,11.0,12.0,0.0,5.0
1.8706333637237549,52.0,23.0,24.0,0.0,28.0,0.0,26.0
1.87214994430542,49.0,29.0,29.0,782.0,28.0,3.0,16.0
1.8736666440963745,32.0,39.0,25.0,796.0,38.0,5.0,6.0
1.875183343887329,15.0,34.0,31.0,21.0,27.0,8.0,20.0
1.8767000436782837,21.0,29.0,27.0,40.0,16.0,10.0,6.0
1.8782166242599487,26.0,24.0,24.0,29.0,25.0,34.0,14.0
1.8797333240509033,42.0,32.0,24.0,29.0,22.0,20.0,10.0
1.881250023841858,33.0,39.0,24.0,30.0,19.0,6.0,5.0
1.8827667236328125,24.0,8.0,13.0,32.0,22.0,11.0,19.0
1.8842833042144775,38.0,16.0,15.0,18.0,24.0,18.0,23.0
1.8858000040054321,39.0,13.0,11.0,0.0,26.0,10.0,30.0
1.8873499631881714,29.0,11.0,6.0,13.0,303.0,12.0,26.0
1.8889000415802002,25.0,8.0,9.0,41.0,166.0,14.0,22.0
1.8904166221618652,22.0,5.0,11.0,26.0,28.0,27.0,16.0
1.8919333219528198,23.0,13.0,0.0,10.0,23.0,43.0,24.0
1.8934500217437744,23.0,21.0,763.0,17.0,10.0,33.0,13.0
1.894966721534729,18.0,35.0,578.0,10.0,26.0,23.0,5.0
1.896483302116394,12.0,28.0,303.0,17.0,11.0,41.0,31.0
1.8980000019073486,0.0,22.0,28.0,34.0,29.0,37.0,28.0
1.8995167016983032,15.0,33.0,47.0,43.0,25.0,32.0,5.0
1.9010332822799683,15.0,0.0,18.0,45.0,22.0,55.0,9.0
1.9025499820709229,16.0,44.0,13.0,47.0,33.0,0.0,7.0
1.9040666818618774,23.0,13.0,323.0,0.0,15.0,10.0,0.0
1.9056333303451538,25.0,9.0,164.0,35.0,30.0,10.0,17.0
1.9071500301361084,42.0,5.0,5.0,37.0,44.0,5.0,18.0
1.9086666107177734,29.0,3.0,30.0,39.0,7.0,8.0,20.0
1.910183310508728,15.0,0.0,13.0,8.0,23.0,11.0,23.0
1.9117000102996826,42.0,3.0,17.0,20.0,38.0,17.0,29.0
1.9132167100906372,52.0,1.0,32.0,21.0,44.0,23.0,31.0
1.9147332906723022,71.0,0.0,47.0,22.0,34.0,22.0,34.0
1.9162499904632568,0.0,24.0,517.0,0.0,23.0,12.0,36.0
1.9177666902542114,19.0,20.0,278.0,108.0,14.0,8.0,34.0
1.919283390045166,14.0,33.0,38.0,65.0,33.0,17.0,31.0
1.920799970626831,53.0,24.0,692.0,23.0,7.0,18.0,5.0
1.9223833084106445,44.0,16.0,35.0,7.0,37.0,19.0,29.0
1.9239000082015991,24.0,16.0,10.0,8.0,52.0,34.0,17.0
1.9254167079925537,44.0,21.0,41.0,42.0,35.0,17.0,5.0
1.9269332885742188,27.0,14.0,59.0,28.0,19.0,0.0,10.0
1.9284499883651733,17.0,7.0,49.0,14.0,11.0,10.0,18.0
1.929966688156128,71.0,12.0,42.0,7.0,13.0,17.0,25.0
1.9314833879470825,54.0,17.0,26.0,21.0,11.0,24.0,38.0
1.9329999685287476,29.0,14.0,9.0,13.0,16.0,10.0,29.0
1.9345166683197021,15.0,11.0,33.0,5.0,14.0,20.0,14.0
1.9360333681106567,6.0,13.0,0.0,11.0,12.0,24.0,0.0
1.9375499486923218,45.0,58.0,0.0,69.0,8.0,29.0,26.0
1.9391167163848877,32.0,61.0,17.0,57.0,11.0,19.0,18.0
1.9406332969665527,0.0,34.0,34.0,31.0,14.0,10.0,6.0
1.9421499967575073,21.0,166.0,33.0,51.0,17.0,24.0,18.0
1.943666696548462,53.0,90.0,32.0,31.0,11.0,12.0,53.0
1.945183277130127,70.0,14.0,33.0,26.0,5.0,0.0,54.0
1.9466999769210815,39.0,58.0,33.0,22.0,26.0,19.0,50.0
1.9482166767120361,68.0,43.0,13.0,19.0,18.0,7.0,14.0
1.9497333765029907,11.0,37.0,29.0,545.0,10.0,18.0,69.0
1.9512499570846558,11.0,6.0,10.0,580.0,21.0,7.0,12.0
1.9527666568756104,34.0,15.0,42.0,16.0,17.0,24.0,50.0
1.954283356666565,38.0,30.0,41.0,22.0,12.0,12.0,10.0
1.9558666944503784,10.0,45.0,40.0,17.0,12.0,0.0,23.0
1.9573832750320435,10.0,28.0,22.0,28.0,6.0,12.0,11.0
1.958899974822998,42.0,11.0,12.0,27.0,0.0,5.0,12.0
1.9604166746139526,11.0,18.0,8.0,27.0,27.0,10.0,18.0
1.9619333744049072,30.0,24.0,9.0,27.0,31.0,15.0,29.0
1.9634499549865723,26.0,77.0,9.0,27.0,0.0,16.0,27.0
1.9649666547775269,17.0,54.0,8.0,10.0,47.0,17.0,15.0
1.9664833545684814,5.0,31.0,0.0,36.0,23.0,24.0,19.0
1.968000054359436,33.0,30.0,31.0,20.0,33.0,0.0,23.0
1.969516634941101,29.0,18.0,28.0,20.0,15.0,23.0,21.0
1.9710333347320557,51.0,5.0,31.0,10.0,0.0,25.0,20.0
1.972599983215332,33.0,28.0,34.0,0.0,23.0,28.0,29.0
1.9741166830062866,52.0,10.0,13.0,12.0,17.0,23.0,30.0
1.9756333827972412,16.0,5.0,22.0,25.0,10.0,18.0,26.0
1.9771499633789062,7.0,12.0,23.0,58.0,14.0,10.0,22.0
1.9786666631698608,18.0,20.0,11.0,91.0,18.0,6.0,25.0
1.9801833629608154,7.0,23.0,0.0,66.0,26.0,8.0,31.0
1.9816999435424805,12.0,27.0,7.0,41.0,26.0,10.0,28.0
1.983216643333435,14.0,23.0,17.0,10.0,25.0,0.0,26.0
1.9847333431243896,17.0,19.0,9.0,0.0,23.0,25.0,16.0
1.9862500429153442,13.0,20.0,7.0,23.0,21.0,34.0,5.0
1.9877666234970093,10.0,16.0,5.0,25.0,22.0,18.0,33.0
1.9893499612808228,12.0,11.0,12.0,0.0,24.0,33.0,6.0
1.9908666610717773,14.0,17.0,20.0,6.0,12.0,19.0,32.0
1.992383360862732,17.0,26.0,31.0,33.0,13.0,5.0,20.0
1.993899941444397,19.0,0.0,21.0,20.0,20.0,35.0,44.0
1.9954166412353516,9.0,11.0,11.0,12.0,29.0,5.0,0.0
1.9969333410263062,0.0,22.0,17.0,5.0,40.0,8.0,19.0
1.9984500408172607,11.0,19.0,18.0,8.0,31.0,12.0,23.0
1.9999666213989258,6.0,17.0,43.0,10.0,47.0,15.0,8.0
2.00148344039917,0.0,25.0,49.0,5.0,62.0,13.0,7.0
2.003000020980835,5.0,7.0,54.0,0.0,64.0,10.0,5.0
2.0045166015625,7.0,30.0,5.0,0.0,66.0,0.0,5.0
2.0060665607452393,34.0,22.0,17.0,52.0,38.0,3.0,5.0
2.0076000690460205,42.0,25.0,27.0,58.0,19.0,6.0,33.0
2.0091166496276855,10.0,28.0,36.0,64.0,7.0,13.0,41.0
2.0106332302093506,23.0,31.0,0.0,6.0,18.0,13.0,5.0
2.0121500492095947,8.0,36.0,28.0,27.0,15.0,13.0,27.0
2.0136666297912598,7.0,38.0,22.0,54.0,13.0,6.0,31.0
2.015183448791504,5.0,29.0,14.0,29.0,75.0,6.0,27.0
2.016700029373169,22.0,0.0,6.0,11.0,38.0,5.0,5.0
2.018216609954834,16.0,48.0,35.0,15.0,0.0,32.0,7.0
2.019733428955078,10.0,0.0,30.0,10.0,40.0,33.0,14.0
2.021250009536743,32.0,5.0,15.0,5.0,9.0,22.0,21.0
2.022766590118408,24.0,8.0,44.0,23.0,190.0,30.0,17.0
2.0243499279022217,15.0,11.0,44.0,16.0,101.0,39.0,12.0
2.025866746902466,38.0,24.0,14.0,8.0,12.0,42.0,19.0
2.027383327484131,21.0,52.0,0.0,4.0,36.0,33.0,26.0
2.028899908065796,38.0,394.0,58.0,0.0,24.0,6.0,23.0
2.03041672706604,13.0,199.0,0.0,27.0,5.0,11.0,10.0
2.031933307647705,0.0,5.0,0.0,32.0,90.0,13.0,13.0
2.03344988822937,42.0,24.0,7.0,25.0,48.0,16.0,22.0
2.0349667072296143,34.0,5.0,3.0,19.0,6.0,41.0,31.0
2.0364832878112793,26.0,19.0,0.0,15.0,52.0,67.0,35.0
2.0380001068115234,19.0,33.0,3.0,23.0,36.0,52.0,28.0
2.0395166873931885,29.0,5.0,5.0,18.0,20.0,36.0,17.0
2.041083335876465,14.0,11.0,29.0,13.0,17.0,61.0,6.0
2.04259991645813,0.0,17.0,84.0,58.0,19.0,65.0,17.0
2.044116735458374,15.0,287.0,56.0,58.0,22.0,20.0,0.0
2.045633316040039,33.0,149.0,29.0,13.0,26.0,39.0,13.0
2.047149896621704,36.0,10.0,35.0,14.0,35.0,31.0,27.0
2.0486667156219482,43.0,429.0,14.0,14.0,5.0,22.0,14.0
2.0501832962036133,5.0,223.0,30.0,27.0,0.0,11.0,25.0
2.0517001152038574,0.0,18.0,50.0,25.0,5.0,21.0,0.0
2.0532166957855225,5.0,0.0,41.0,25.0,15.0,27.0,15.0
2.0547332763671875,23.0,25.0,32.0,26.0,25.0,34.0,13.0
2.0562667846679688,31.0,17.0,53.0,31.0,29.0,25.0,21.0
2.057833433151245,24.0,5.0,41.0,36.0,35.0,16.0,10.0
2.05935001373291,19.0,11.0,28.0,693.0,15.0,37.0,0.0
2.060866594314575,11.0,9.0,30.0,352.0,5.0,8.0,30.0
2.0623834133148193,21.0,6.0,284.0,10.0,6.0,18.0,20.0
2.0638999938964844,31.0,18.0,148.0,604.0,6.0,40.0,0.0
2.0654165744781494,31.0,29.0,12.0,9.0,29.0,38.0,42.0
2.0669333934783936,7.0,41.0,23.0,30.0,26.0,6.0,28.0
2.0684499740600586,28.0,54.0,29.0,614.0,10.0,11.0,14.0
2.0699665546417236,31.0,43.0,5.0,633.0,5.0,32.0,0.0
2.0714833736419678,26.0,16.0,8.0,39.0,20.0,0.0,31.0
2.072999954223633,21.0,24.0,10.0,36.0,21.0,26.0,16.0
2.074566602706909,6.0,33.0,8.0,43.0,6.0,5.0,0.0
2.0760834217071533,0.0,11.0,6.0,36.0,17.0,12.0,42.0
2.0776000022888184,32.0,18.0,9.0,22.0,36.0,19.0,17.0
2.0791165828704834,35.0,24.0,11.0,7.0,35.0,15.0,25.0
2.0806334018707275,10.0,31.0,15.0,0.0,0.0,11.0,5.0
2.0821499824523926,37.0,31.0,19.0,21.0,23.0,12.0,14.0
2.0836665630340576,0.0,32.0,21.0,7.0,30.0,35.0,28.0
2.0851833820343018,36.0,33.0,24.0,13.0,29.0,36.0,23.0
2.086699962615967,21.0,18.0,69.0,19.0,20.0,12.0,18.0
2.088216781616211,7.0,49.0,35.0,20.0,26.0,20.0,10.0
2.089733362197876,29.0,34.0,0.0,22.0,52.0,14.0,22.0
2.0913166999816895,21.0,20.0,7.0,21.0,65.0,12.0,31.0
2.0928332805633545,13.0,0.0,14.0,21.0,45.0,16.0,36.0
2.0943500995635986,5.0,0.0,18.0,38.0,25.0,19.0,24.0
2.0958666801452637,13.0,14.0,22.0,29.0,12.0,53.0,39.0
2.0973832607269287,21.0,29.0,15.0,21.0,0.0,32.0,23.0
2.098900079727173,28.0,27.0,8.0,24.0,0.0,11.0,28.0
2.100416660308838,14.0,26.0,13.0,28.0,0.0,5.0,0.0
2.102799892425537,0.0,13.0,19.0,5.0,19.0,5.0,0.0
2.1051833629608154,823.0,18.0,55.0,3.0,12.0,10.0,8.0
2.1075665950775146,639.0,23.0,65.0,0.0,5.0,14.0,7.0
2.1100165843963623,28.0,36.0,74.0,3.0,14.0,21.0,6.0
2.1124000549316406,30.0,47.0,17.0,5.0,5.0,13.0,5.0
2.11478328704834,17.0,42.0,8.0,559.0,667.0,5.0,34.0
2.117166757583618,48.0,37.0,0.0,282.0,519.0,24.0,171.0
2.1195499897003174,43.0,175.0,26.0,5.0,43.0,92.0,116.0
2.1219332218170166,32.0,312.0,21.0,2302.0,1195.0,161.0,61.0
2.124316692352295,20.0,230.0,15.0,3800.0,1029.0,81.0,41.0
2.1267499923706055,16.0,119.0,8.0,2128.0,947.0,0.0,8.0
2.1291332244873047,15.0,7.0,0.0,1491.0,721.0,266.0,26.0
2.131516695022583,14.0,13.0,12.0,1078.0,456.0,153.0,365.0
2.1338999271392822,33.0,85.0,12.0,275.0,1268.0,40.0,280.0
2.1362833976745605,29.0,5.0,1079.0,668.0,641.0,260.0,195.0
2.138683319091797,17.0,0.0,927.0,2848.0,13.0,1106.0,106.0
2.141066551208496,5.0,12.0,0.0,4563.0,1476.0,569.0,18.0
2.1435000896453857,12.0,25.0,1151.0,3120.0,1251.0,31.0,69.0
2.145883321762085,0.0,23.0,1564.0,2562.0,1027.0,393.0,29.0
2.148266553878784,50.0,22.0,1260.0,6114.0,1378.0,756.0,455.0
2.1506500244140625,44.0,0.0,955.0,5108.0,1233.0,43.0,881.0
2.1530332565307617,38.0,12.0,1210.0,3160.0,1087.0,312.0,730.0
2.15541672706604,33.0,29.0,1204.0,5231.0,989.0,581.0,746.0
2.1577999591827393,23.0,20.0,1199.0,3342.0,1081.0,39.0,50.0
2.160249948501587,11.0,31.0,23.0,6325.0,1173.0,28.0,46.0
2.1626334190368652,0.0,10.0,603.0,1525.0,958.0,17.0,36.0
2.1650166511535645,10.0,15.0,21.0,1638.0,743.0,31.0,25.0
2.1673998832702637,14.0,20.0,244.0,2572.0,18.0,23.0,123.0
2.169783353805542,18.0,33.0,468.0,2955.0,174.0,14.0,71.0
2.172166585922241,14.0,27.0,37.0,3339.0,1303.0,20.0,20.0
2.1745500564575195,11.0,22.0,5.0,2052.0,1060.0,189.0,16.0
2.176966667175293,11.0,10.0,3.0,2793.0,1099.0,358.0,484.0
2.179349899291992,28.0,38.0,0.0,2675.0,1171.0,473.0,953.0
2.1817333698272705,40.0,35.0,9.0,2879.0,1242.0,189.0,486.0
2.1841166019439697,34.0,31.0,13.0,3082.0,1234.0,406.0,19.0
2.186500072479248,27.0,21.0,22.0,3517.0,1226.0,456.0,16.0
2.1888833045959473,21.0,7.0,455.0,3968.0,1460.0,338.0,13.0
2.1912667751312256,39.0,12.0,386.0,4386.0,767.0,220.0,1204.0
2.193666696548462,45.0,18.0,316.0,2526.0,364.0,28.0,1694.0
2.196049928665161,397.0,19.0,370.0,2763.0,667.0,1432.0,1855.0
2.1984500885009766,201.0,19.0,1722.0,3001.0,1219.0,1103.0,1637.0
2.200833320617676,5.0,18.0,2056.0,3273.0,1072.0,38.0,1420.0
2.203216552734375,34.0,27.0,968.0,2150.0,925.0,1121.0,22.0
2.2056000232696533,30.0,28.0,1585.0,2522.0,675.0,6.0,18.0
2.2079832553863525,5.0,30.0,24.0,3408.0,2024.0,22.0,28.0
2.210383415222168,16.0,35.0,1236.0,2883.0,1528.0,11.0,31.0
2.212766647338867,26.0,39.0,23.0,1829.0,1032.0,18.0,35.0
2.2151501178741455,27.0,46.0,23.0,24.0,2534.0,24.0,5.0
2.217550039291382,29.0,44.0,14.0,1288.0,3043.0,18.0,190.0
2.219933271408081,28.0,13.0,36.0,1395.0,2185.0,11.0,111.0
2.2223167419433594,22.0,30.0,43.0,1502.0,12.0,42.0,33.0
2.2246999740600586,15.0,35.0,51.0,1040.0,1723.0,465.0,15.0
2.227099895477295,10.0,40.0,35.0,671.0,945.0,256.0,20.0
2.2295000553131104,5.0,29.0,19.0,301.0,23.0,46.0,24.0
2.2318832874298096,5.0,5.0,10.0,164.0,941.0,67.0,26.0
2.234266757965088,9.0,49.0,16.0,27.0,0.0,87.0,27.0
2.236649990081787,5.0,24.0,21.0,858.0,28.0,5.0,23.0
2.2390332221984863,0.0,35.0,12.0,878.0,467.0,30.0,19.0
2.2414166927337646,6.0,46.0,13.0,663.0,14.0,281.0,44.0
2.243816614151001,11.0,7.0,22.0,10.0,21.0,150.0,25.0
2.2462167739868164,882.0,5.0,22.0,0.0,12.0,19.0,6.0
2.2486000061035156,1754.0,7.0,22.0,11.0,56.0,5.0,10.0
2.250983238220215,1741.0,21.0,26.0,10.0,177.0,10.0,19.0
2.253366708755493,1811.0,608.0,5.0,9.0,97.0,15.0,28.0
2.2557499408721924,2703.0,713.0,23.0,7.0,18.0,21.0,24.0
2.2581334114074707,589.0,0.0,29.0,35.0,38.0,27.0,20.0
2.260550022125244,3614.0,543.0,5.0,32.0,42.0,21.0,32.0
2.2629332542419434,2487.0,15.0,37.0,29.0,29.0,16.0,5.0
2.2653167247772217,3748.0,19.0,6.0,34.0,45.0,18.0,39.0
2.267699956893921,961.0,52.0,34.0,38.0,8.0,7.0,25.0
2.270083427429199,3400.0,30.0,39.0,12.0,18.0,8.0,10.0
2.2724666595458984,3091.0,56.0,19.0,24.0,28.0,9.0,27.0
2.2748498916625977,3394.0,72.0,27.0,18.0,37.0,50.0,17.0
2.27726674079895,3457.0,52.0,17.0,12.0,47.0,45.0,7.0
2.2796499729156494,3521.0,31.0,45.0,11.0,64.0,0.0,17.0
2.2820334434509277,3988.0,45.0,26.0,10.0,35.0,45.0,20.0
2.284416675567627,4455.0,33.0,6.0,6.0,5.0,16.0,20.0
2.286799907684326,2376.0,56.0,24.0,7.0,35.0,16.0,21.0
2.2891833782196045,2680.0,28.0,42.0,38.0,5.0,0.0,5.0
2.2915666103363037,3946.0,0.0,38.0,46.0,17.0,5.0,18.0
2.293983221054077,3307.0,5.0,34.0,40.0,13.0,24.0,14.0
2.2963666915893555,3030.0,328.0,56.0,0.0,18.0,38.0,27.0
2.2987499237060547,253.0,175.0,40.0,21.0,31.0,19.0,38.0
2.301133394241333,2762.0,22.0,24.0,21.0,28.0,0.0,48.0
2.3035166263580322,2169.0,5.0,41.0,20.0,19.0,26.0,0.0
2.3059000968933105,2096.0,20.0,47.0,19.0,10.0,12.0,56.0
2.3082833290100098,3222.0,5.0,53.0,23.0,14.0,31.0,47.0
2.310699939727783,3122.0,17.0,29.0,28.0,37.0,8.0,31.0
2.3130834102630615,4245.0,12.0,47.0,50.0,64.0,14.0,7.0
2.3154666423797607,3719.0,7.0,11.0,58.0,59.0,36.0,20.0
2.317850112915039,3194.0,55.0,23.0,66.0,0.0,20.0,17.0
2.3202333450317383,1134.0,39.0,7.0,33.0,66.0,11.0,25.0
2.3226165771484375,2835.0,23.0,11.0,40.0,23.0,8.0,0.0
2.325000047683716,4867.0,25.0,14.0,37.0,22.0,21.0,31.0
2.3274166584014893,4087.0,27.0,11.0,33.0,5.0,25.0,17.0
2.3297998905181885,1750.0,109.0,7.0,22.0,22.0,5.0,20.0
2.332183361053467,63.0,77.0,17.0,50.0,19.0,3.0,25.0
2.334566593170166,1350.0,45.0,17.0,0.0,48.0,0.0,18.0
2.3369500637054443,1012.0,81.0,18.0,18.0,40.0,10.0,40.0
2.3393332958221436,68.0,81.0,27.0,35.0,24.0,23.0,43.0
2.341716766357422,2202.0,30.0,21.0,5.0,28.0,26.0,22.0
2.344116687774658,1109.0,69.0,16.0,59.0,47.0,29.0,17.0
2.3464999198913574,17.0,29.0,33.0,42.0,40.0,38.0,21.0
2.348900079727173,35.0,65.0,51.0,30.0,48.0,48.0,26.0
2.351283311843872,76.0,53.0,70.0,18.0,35.0,0.0,19.0
2.3536667823791504,404.0,40.0,57.0,14.0,21.0,31.0,11.0
2.3560500144958496,250.0,42.0,47.0,10.0,35.0,44.0,25.0
2.358433246612549,97.0,33.0,21.0,24.0,14.0,66.0,23.0
2.3608334064483643,1608.0,33.0,39.0,818.0,16.0,51.0,22.0
2.3632166385650635,1840.0,32.0,25.0,819.0,17.0,47.0,19.0
2.365600109100342,56.0,37.0,10.0,386.0,43.0,7.0,17.0
2.367983341217041,139.0,18.0,34.0,88.0,41.0,9.0,15.0
2.3703665733337402,1031.0,12.0,36.0,127.0,38.0,54.0,24.0
2.3727667331695557,592.0,18.0,35.0,192.0,53.0,42.0,33.0
2.375149965286255,55.0,124.0,34.0,141.0,49.0,26.0,28.0
2.377549886703491,637.0,79.0,32.0,90.0,45.0,38.0,25.0
2.3799333572387695,53.0,33.0,29.0,9.0,747.0,51.0,23.0
2.3823165893554688,22.0,74.0,29.0,17.0,404.0,41.0,30.0
2.384700059890747,261.0,26.0,33.0,25.0,61.0,33.0,37.0
2.3870832920074463,87.0,45.0,56.0,91.0,49.0,44.0,43.0
2.3894834518432617,55.0,47.0,40.0,80.0,20.0,44.0,32.0
2.391866683959961,6.0,46.0,25.0,69.0,30.0,44.0,39.0
2.3942666053771973,26.0,45.0,34.0,75.0,41.0,41.0,46.0
2.3966500759124756,46.0,48.0,43.0,57.0,18.0,37.0,43.0
2.399033308029175,51.0,51.0,53.0,55.0,12.0,45.0,41.0
2.401433229446411,56.0,33.0,44.0,5.0,19.0,43.0,22.0
2.4038166999816895,11.0,16.0,34.0,57.0,20.0,40.0,35.0
2.4061999320983887,44.0,24.0,25.0,67.0,21.0,44.0,30.0
2.408583402633667,26.0,10.0,19.0,49.0,24.0,49.0,28.0
2.4109833240509033,19.0,33.0,12.0,31.0,31.0,5.0,26.0
2.4133665561676025,24.0,29.0,26.0,18.0,29.0,43.0,67.0
2.415750026702881,30.0,26.0,17.0,40.0,28.0,26.0,66.0
2.41813325881958,35.0,25.0,35.0,44.0,383.0,43.0,65.0
2.4205167293548584,18.0,24.0,29.0,48.0,259.0,21.0,41.0
2.4228999614715576,0.0,56.0,23.0,43.0,135.0,43.0,27.0
2.425299882888794,55.0,89.0,11.0,38.0,60.0,0.0,14.0
2.4277000427246094,36.0,80.0,12.0,10.0,209.0,39.0,23.0
2.4300832748413086,17.0,51.0,13.0,36.0,7.0,31.0,33.0
2.432466745376587,59.0,23.0,15.0,10.0,0.0,40.0,29.0
2.434849977493286,44.0,24.0,18.0,19.0,0.0,36.0,25.0
2.4372334480285645,52.0,30.0,18.0,21.0,0.0,32.0,11.0
2.4396166801452637,59.0,28.0,19.0,25.0,0.0,34.0,21.0
2.441999912261963,495.0,42.0,16.0,29.0,8.0,27.0,31.0
2.4444167613983154,477.0,29.0,12.0,69.0,16.0,28.0,37.0
2.4467999935150146,13.0,16.0,164.0,45.0,29.0,30.0,10.0
2.449183225631714,264.0,5.0,89.0,21.0,29.0,20.0,27.0
2.451566696166992,5.0,33.0,13.0,17.0,30.0,29.0,25.0
2.4539499282836914,39.0,23.0,29.0,12.0,19.0,8.0,12.0
2.4563333988189697,89.0,12.0,14.0,16.0,9.0,10.0,28.0
2.458733320236206,11.0,6.0,0.0,12.0,14.0,0.0,22.0
2.4611499309539795,34.0,49.0,24.0,8.0,19.0,32.0,42.0
2.463533401489258,24.0,38.0,30.0,11.0,14.0,47.0,37.0
2.465916633605957,0.0,34.0,36.0,13.0,23.0,44.0,25.0
2.4683001041412354,25.0,29.0,43.0,11.0,37.0,39.0,36.0
2.4706833362579346,33.0,16.0,6.0,0.0,37.0,34.0,11.0
2.473066568374634,15.0,25.0,20.0,26.0,37.0,46.0,31.0
2.475450038909912,39.0,28.0,28.0,21.0,22.0,14.0,51.0
2.4778499603271484,47.0,55.0,22.0,15.0,5.0,19.0,32.0
2.4802334308624268,0.0,45.0,28.0,18.0,10.0,6.0,10.0
2.482633352279663,19.0,34.0,15.0,21.0,14.0,38.0,18.0
2.4850165843963623,18.0,22.0,20.0,16.0,10.0,37.0,0.0
2.4874000549316406,27.0,24.0,24.0,10.0,5.0,26.0,18.0
2.48978328704834,8.0,27.0,25.0,21.0,8.0,30.0,37.0
2.492166757583618,0.0,25.0,27.0,32.0,19.0,15.0,25.0
2.4945666790008545,29.0,20.0,0.0,36.0,18.0,16.0,12.0
2.4969499111175537,17.0,41.0,10.0,21.0,17.0,17.0,0.0
