,316.2099914550781,317.2099914550781,318.2099914550781,319.2099914550781,320.2099914550781,321.2099914550781,322.2099914550781
2.051500082015991,25.0,23.0,6.0,0.0,52.0,19.0,27.0
2.0530166625976562,22.0,47.0,1092.0,11.0,567.0,29.0,31.0
2.0545332431793213,0.0,51.0,70.0,35.0,48.0,577.0,7.0
2.0560500621795654,6.0,19.0,787.0,32.0,20.0,17.0,23.0
2.0575666427612305,15.0,49.0,38.0,31.0,10.0,27.0,38.0
2.0590832233428955,24.0,6.0,24.0,22.0,38.0,713.0,28.0
2.0606000423431396,12.0,30.0,761.0,12.0,14.0,0.0,27.0
2.0621166229248047,0.0,12.0,316.0,0.0,7.0,40.0,18.0
2.063633441925049,21.0,24.0,32.0,11.0,11.0,36.0,22.0
2.065150022506714,20.0,33.0,15.0,9.0,25.0,47.0,14.0
2.066666603088379,20.0,24.0,31.0,7.0,24.0,5.0,5.0
2.0682499408721924,38.0,6.0,46.0,7.0,24.0,25.0,20.0
2.0697667598724365,36.0,10.0,61.0,6.0,14.0,17.0,21.0
2.0712833404541016,16.0,30.0,55.0,48.0,1082.0,26.0,11.0
2.0727999210357666,51.0,0.0,5.0,39.0,922.0,39.0,26.0
2.0743167400360107,0.0,7.0,20.0,26.0,16.0,31.0,36.0
2.075833320617676,20.0,4.0,34.0,12.0,0.0,24.0,21.0
2.077349901199341,17.0,0.0,24.0,0.0,33.0,43.0,5.0
2.078866720199585,15.0,5.0,27.0,9.0,54.0,29.0,107.0
2.08038330078125,12.0,10.0,22.0,19.0,37.0,41.0,64.0
2.081899881362915,22.0,12.0,38.0,24.0,42.0,28.0,21.0
2.083416700363159,18.0,39.0,0.0,47.0,47.0,44.0,9.0
2.0849833488464355,15.0,26.0,44.0,46.0,16.0,26.0,10.0
2.0864999294281006,692.0,12.0,5.0,46.0,13.0,14.0,35.0
2.0880167484283447,562.0,29.0,21.0,26.0,10.0,7.0,47.0
2.0895333290100098,40.0,28.0,637.0,16.0,35.0,0.0,678.0
2.091049909591675,579.0,26.0,678.0,217.0,35.0,20.0,553.0
2.092566728591919,20.0,10.0,23.0,123.0,1314.0,18.0,24.0
2.094083309173584,45.0,15.0,16.0,29.0,1460.0,16.0,24.0
2.095599889755249,11.0,20.0,19.0,28.0,17.0,45.0,21.0
2.097116708755493,0.0,6.0,17.0,36.0,115.0,39.0,58.0
2.098633289337158,18.0,3.0,7.0,22.0,1375.0,33.0,61.0
2.1001665592193604,14.0,0.0,7.0,7.0,342.0,14.0,0.0
2.101733446121216,10.0,3.0,6.0,15.0,31.0,16.0,6.0
2.103250026702881,24.0,6.0,12.0,22.0,0.0,19.0,30.0
2.104766607284546,12.0,20.0,19.0,17.0,69.0,860.0,26.0
2.10628342628479,0.0,14.0,15.0,11.0,0.0,1140.0,14.0
2.107800006866455,9.0,8.0,10.0,11.0,22.0,66.0,45.0
2.10931658744812,19.0,15.0,28.0,10.0,26.0,87.0,25.0
2.1108334064483643,20.0,22.0,46.0,19.0,30.0,63.0,5.0
2.1123499870300293,5.0,39.0,31.0,9.0,22.0,12.0,19.0
2.1138665676116943,35.0,35.0,17.0,0.0,307.0,12.0,39.0
2.1153833866119385,31.0,26.0,20.0,21.0,592.0,11.0,33.0
2.1168999671936035,27.0,29.0,30.0,20.0,771.0,18.0,26.0
2.11846661567688,16.0,14.0,768.0,19.0,258.0,18.0,5.0
2.119983434677124,28.0,46.0,939.0,5.0,23.0,6.0,10.0
2.121500015258789,18.0,37.0,41.0,27.0,20.0,18.0,12.0
2.123016595840454,19.0,15.0,21.0,226.0,17.0,30.0,9.0
2.1245334148406982,20.0,26.0,0.0,426.0,0.0,1088.0,5.0
2.1260499954223633,19.0,38.0,22.0,233.0,28.0,893.0,8.0
2.1275665760040283,31.0,44.0,17.0,39.0,5.0,453.0,10.0
2.1290833950042725,0.0,50.0,12.0,18.0,1466.0,755.0,14.0
2.1305999755859375,92.0,15.0,23.0,32.0,1818.0,1520.0,17.0
2.1321165561676025,49.0,32.0,238.0,10.0,1351.0,1402.0,5.0
2.1336333751678467,6.0,15.0,237.0,81.0,11.0,774.0,20.0
2.13521671295166,22.0,20.0,125.0,151.0,2847.0,295.0,35.0
2.136733293533325,52.0,25.0,12.0,84.0,3528.0,599.0,34.0
2.1382501125335693,16.0,12.0,7.0,17.0,3255.0,903.0,32.0
2.1397666931152344,35.0,8.0,7.0,295.0,1697.0,26.0,32.0
2.1412832736968994,22.0,24.0,6.0,574.0,3580.0,77.0,31.0
2.1428000926971436,8.0,39.0,10.0,685.0,2364.0,1459.0,377.0
2.1443166732788086,4.0,40.0,14.0,797.0,1379.0,1196.0,588.0
2.1458332538604736,0.0,6.0,19.0,1090.0,4491.0,263.0,1072.0
2.1473500728607178,3.0,15.0,28.0,1019.0,3630.0,324.0,999.0
2.148866653442383,6.0,23.0,26.0,948.0,3207.0,385.0,37.0
2.150383234024048,0.0,19.0,25.0,885.0,1626.0,1010.0,16.0
2.151933431625366,25.0,16.0,268.0,785.0,1250.0,878.0,6.0
2.1534667015075684,24.0,36.0,157.0,629.0,270.0,746.0,24.0
2.1549832820892334,39.0,31.0,46.0,38.0,135.0,1412.0,329.0
2.1565001010894775,27.0,25.0,86.0,1018.0,0.0,1163.0,168.0
2.1580166816711426,59.0,44.0,38.0,7.0,1860.0,914.0,7.0
2.1595332622528076,57.0,39.0,27.0,7.0,3350.0,5.0,25.0
2.1610500812530518,54.0,14.0,17.0,2204.0,2501.0,934.0,52.0
2.162566661834717,11.0,30.0,7.0,2065.0,2581.0,385.0,236.0
2.164083242416382,14.0,43.0,21.0,946.0,2660.0,812.0,133.0
2.165600061416626,15.0,37.0,5.0,27.0,851.0,418.0,29.0
2.167116641998291,18.0,32.0,16.0,68.0,567.0,24.0,31.0
2.168633222579956,22.0,16.0,39.0,1137.0,284.0,1011.0,33.0
2.1702165603637695,14.0,0.0,25.0,487.0,2209.0,2178.0,29.0
2.1717333793640137,5.0,7.0,10.0,246.0,6019.0,3078.0,25.0
2.1732499599456787,8.0,31.0,12.0,5.0,4576.0,1977.0,10.0
2.174766778945923,17.0,25.0,15.0,447.0,889.0,2432.0,0.0
2.176283359527588,19.0,19.0,5.0,889.0,528.0,6.0,16.0
2.177799940109253,21.0,32.0,25.0,1065.0,301.0,961.0,8.0
2.179316759109497,22.0,24.0,22.0,471.0,3426.0,1051.0,0.0
2.180833339691162,23.0,39.0,23.0,437.0,3153.0,14.0,849.0
2.182349920272827,15.0,7.0,25.0,750.0,839.0,926.0,740.0
2.1838667392730713,6.0,25.0,21.0,378.0,3326.0,1767.0,631.0
2.1853833198547363,5.0,15.0,24.0,5.0,2602.0,998.0,16.0
2.18696665763855,27.0,10.0,33.0,246.0,486.0,968.0,75.0
2.188483238220215,21.0,14.0,0.0,571.0,4562.0,611.0,73.0
2.190000057220459,14.0,24.0,11.0,896.0,4859.0,39.0,0.0
2.191516637802124,7.0,0.0,12.0,684.0,2296.0,23.0,5.0
2.193033218383789,26.0,0.0,11.0,24.0,3210.0,22.0,10.0
2.194550037384033,36.0,8.0,33.0,909.0,865.0,1520.0,1118.0
2.1960666179656982,45.0,16.0,27.0,423.0,1278.0,1277.0,571.0
2.1975834369659424,45.0,15.0,21.0,5.0,2461.0,11.0,25.0
2.1991000175476074,29.0,15.0,24.0,12.0,1713.0,2705.0,742.0
2.2006165981292725,0.0,6.0,32.0,520.0,341.0,1837.0,5.0
2.2021334171295166,0.0,14.0,40.0,1027.0,1085.0,2691.0,59.0
2.20371675491333,11.0,22.0,10.0,655.0,1829.0,1434.0,763.0
2.205233335494995,22.0,31.0,42.0,762.0,1884.0,1543.0,28.0
2.20674991607666,19.0,31.0,88.0,117.0,1940.0,506.0,384.0
2.2082667350769043,16.0,16.0,47.0,17.0,1957.0,910.0,740.0
2.2097833156585693,22.0,14.0,5.0,7.0,1975.0,1315.0,458.0
2.2112998962402344,11.0,11.0,51.0,1181.0,1446.0,1159.0,26.0
2.2128167152404785,6.0,14.0,31.0,954.0,917.0,1013.0,45.0
2.2143332958221436,0.0,8.0,11.0,34.0,2007.0,1350.0,46.0
2.2158501148223877,18.0,17.0,35.0,880.0,2475.0,1687.0,48.0
2.2173666954040527,13.0,25.0,19.0,1218.0,2504.0,2242.0,17.0
2.2188832759857178,8.0,35.0,19.0,392.0,2533.0,444.0,28.0
2.220449924468994,5.0,45.0,20.0,286.0,2846.0,0.0,58.0
2.2219667434692383,12.0,36.0,27.0,10.0,22.0,1027.0,0.0
2.2234833240509033,9.0,5.0,0.0,15.0,559.0,1316.0,15.0
2.2249999046325684,5.0,712.0,0.0,0.0,1232.0,51.0,15.0
2.2265167236328125,47.0,829.0,0.0,13.0,452.0,724.0,15.0
2.2280333042144775,40.0,32.0,10.0,9.0,235.0,896.0,5.0
2.2295498847961426,5.0,571.0,50.0,5.0,18.0,938.0,17.0
2.2310667037963867,61.0,26.0,48.0,0.0,18.0,987.0,12.0
2.2325832843780518,29.0,23.0,47.0,5.0,19.0,32.0,5.0
2.234100103378296,18.0,14.0,38.0,21.0,243.0,44.0,10.0
2.235616683959961,22.0,24.0,40.0,19.0,468.0,10.0,14.0
2.2372000217437744,27.0,35.0,5.0,12.0,2223.0,0.0,10.0
2.2387166023254395,10.0,26.0,16.0,5.0,1975.0,31.0,73.0
2.2402334213256836,11.0,17.0,27.0,17.0,6.0,61.0,67.0
2.2417500019073486,11.0,31.0,11.0,17.0,324.0,78.0,60.0
2.2432665824890137,11.0,45.0,27.0,18.0,8.0,48.0,18.0
2.244783401489258,23.0,124.0,23.0,50.0,36.0,18.0,36.0
2.246299982070923,15.0,513.0,0.0,41.0,52.0,21.0,17.0
2.247816562652588,6.0,722.0,21.0,31.0,35.0,25.0,17.0
2.249333381652832,14.0,3100.0,41.0,19.0,19.0,48.0,5.0
2.250849962234497,6.0,2476.0,31.0,7.0,88.0,508.0,38.0
2.252366781234741,11.0,2505.0,5.0,41.0,387.0,893.0,47.0
2.2539334297180176,16.0,2418.0,10.0,36.0,369.0,700.0,55.0
2.2554500102996826,14.0,650.0,6.0,47.0,351.0,35.0,24.0
2.2569665908813477,10.0,1546.0,11.0,40.0,10.0,31.0,8.0
2.258483409881592,7.0,1765.0,6.0,30.0,36.0,20.0,5.0
2.259999990463257,17.0,1985.0,0.0,20.0,50.0,10.0,28.0
2.261516571044922,26.0,1862.0,13.0,12.0,32.0,5.0,31.0
2.263033390045166,16.0,1740.0,26.0,5.0,52.0,5.0,5.0
2.264549970626831,5.0,2517.0,20.0,12.0,6.0,20.0,40.0
2.266066551208496,10.0,2880.0,16.0,19.0,0.0,26.0,10.0
2.2676000595092773,15.0,4279.0,12.0,16.0,11.0,33.0,11.0
2.2690999507904053,19.0,3624.0,462.0,22.0,27.0,17.0,0.0
2.2706665992736816,17.0,1660.0,237.0,18.0,272.0,34.0,0.0
2.272200107574463,16.0,2999.0,11.0,14.0,139.0,32.0,8.0
2.273716688156128,13.0,3104.0,47.0,27.0,5.0,21.0,16.0
2.275233268737793,10.0,1818.0,44.0,23.0,0.0,33.0,18.0
2.276750087738037,0.0,2586.0,42.0,10.0,49.0,34.0,21.0
2.278266668319702,26.0,911.0,32.0,12.0,19.0,34.0,10.0
2.279783248901367,27.0,1948.0,44.0,15.0,14.0,47.0,27.0
2.2813000679016113,27.0,2612.0,56.0,17.0,38.0,52.0,27.0
2.2828166484832764,22.0,1964.0,17.0,26.0,36.0,32.0,28.0
2.2843332290649414,18.0,2743.0,12.0,33.0,17.0,11.0,6.0
2.2858500480651855,23.0,2519.0,98.0,17.0,0.0,6.0,34.0
2.2873666286468506,22.0,1588.0,52.0,0.0,15.0,10.0,5.0
2.288933277130127,22.0,2389.0,7.0,25.0,20.0,15.0,15.0
2.290450096130371,26.0,190.0,25.0,25.0,26.0,42.0,10.0
2.291966676712036,49.0,4204.0,44.0,25.0,22.0,39.0,63.0
2.293483257293701,36.0,3350.0,31.0,0.0,19.0,33.0,58.0
2.2950000762939453,24.0,1898.0,19.0,24.0,18.0,5.0,53.0
2.2965166568756104,25.0,1682.0,25.0,33.0,17.0,34.0,5.0
2.2980332374572754,16.0,1467.0,19.0,42.0,20.0,34.0,53.0
2.2995500564575195,0.0,2024.0,12.0,645.0,22.0,30.0,18.0
2.30281662940979,5.0,3467.0,6.0,546.0,46.0,28.0,23.0
2.3061165809631348,32.0,3507.0,18.0,448.0,41.0,5.0,29.0
2.3093667030334473,48.0,3231.0,11.0,62.0,16.0,17.0,15.0
2.3126332759857178,51.0,5244.0,16.0,16.0,54.0,28.0,0.0
2.3158833980560303,12.0,5308.0,20.0,10.0,22.0,10.0,37.0
2.3191332817077637,5.0,2974.0,865.0,21.0,14.0,20.0,7.0
2.3224332332611084,26.0,579.0,830.0,0.0,17.0,30.0,46.0
2.325683355331421,6.0,848.0,51.0,16.0,17.0,19.0,29.0
2.3289332389831543,29.0,1538.0,892.0,11.0,12.0,0.0,16.0
2.332183361053467,41.0,777.0,46.0,6.0,7.0,10.0,16.0
2.3354332447052,5.0,17.0,67.0,16.0,17.0,21.0,6.0
2.338733434677124,7.0,1598.0,86.0,25.0,15.0,38.0,0.0
2.3419833183288574,9.0,1595.0,19.0,27.0,12.0,34.0,0.0
2.34523344039917,15.0,92.0,17.0,29.0,18.0,30.0,0.0
2.3485000133514404,20.0,22.0,70.0,31.0,17.0,5.0,33.0
2.351749897003174,12.0,30.0,25.0,14.0,16.0,5.0,27.0
2.3550000190734863,5.0,106.0,5.0,0.0,15.0,5.0,0.0
2.358299970626831,39.0,62.0,18.0,64.0,24.0,22.0,16.0
2.3615500926971436,37.0,26.0,0.0,51.0,18.0,14.0,14.0
2.364799976348877,33.0,37.0,27.0,56.0,11.0,5.0,12.0
2.3680500984191895,31.0,49.0,16.0,10.0,523.0,5.0,21.0
2.371299982070923,29.0,30.0,5.0,46.0,785.0,20.0,14.0
2.3745999336242676,37.0,11.0,28.0,17.0,721.0,35.0,7.0
2.377866744995117,24.0,50.0,11.0,17.0,0.0,28.0,21.0
2.3811166286468506,10.0,24.0,30.0,17.0,27.0,12.0,16.0
2.384366750717163,8.0,19.0,35.0,14.0,30.0,29.0,64.0
2.3876166343688965,5.0,20.0,34.0,12.0,32.0,34.0,80.0
2.3909332752227783,23.0,22.0,10.0,10.0,25.0,38.0,28.0
2.394183397293091,26.0,5.0,5.0,15.0,18.0,36.0,31.0
2.397433280944824,29.0,28.0,43.0,6.0,0.0,47.0,41.0
2.4006834030151367,49.0,0.0,60.0,39.0,20.0,57.0,14.0
2.40393328666687,52.0,0.0,41.0,53.0,31.0,0.0,9.0
2.407233238220215,17.0,0.0,21.0,28.0,0.0,10.0,5.0
2.4104833602905273,26.0,27.0,0.0,32.0,49.0,48.0,30.0
2.4137332439422607,25.0,38.0,27.0,35.0,41.0,22.0,24.0
2.4169833660125732,15.0,14.0,11.0,22.0,47.0,6.0,19.0
2.4202332496643066,18.0,12.0,31.0,25.0,25.0,0.0,50.0
2.4235498905181885,21.0,14.0,31.0,0.0,34.0,35.0,48.0
2.426800012588501,32.0,16.0,12.0,0.0,21.0,33.0,45.0
2.4300498962402344,30.0,41.0,5.0,12.0,10.0,23.0,31.0
2.433300018310547,28.0,52.0,12.0,24.0,6.0,5.0,18.0
2.4365499019622803,16.0,29.0,34.0,21.0,9.0,17.0,46.0
2.4398000240325928,32.0,6.0,30.0,28.0,11.0,28.0,39.0
2.4431166648864746,19.0,20.0,57.0,24.0,11.0,14.0,50.0
2.446366548538208,6.0,29.0,573.0,20.0,30.0,21.0,31.0
2.4496166706085205,14.0,7.0,318.0,28.0,35.0,18.0,54.0
2.452866554260254,52.0,11.0,62.0,19.0,27.0,28.0,24.0
2.4561166763305664,49.0,15.0,14.0,25.0,12.0,24.0,48.0
2.459416627883911,19.0,10.0,5.0,18.0,39.0,21.0,43.0
2.4626667499542236,19.0,6.0,0.0,15.0,20.0,37.0,29.0
2.465916633605957,47.0,38.0,5.0,21.0,34.0,43.0,23.0
2.4691667556762695,0.0,33.0,38.0,0.0,0.0,5.0,10.0
2.472416639328003,12.0,28.0,32.0,32.0,26.0,24.0,30.0
2.4757332801818848,24.0,42.0,10.0,27.0,15.0,41.0,15.0
2.4789834022521973,29.0,20.0,15.0,65.0,21.0,31.0,33.0
2.4822332859039307,34.0,11.0,5.0,46.0,30.0,22.0,6.0
2.485483407974243,7.0,5.0,6.0,26.0,41.0,16.0,25.0
2.4887332916259766,34.0,17.0,7.0,37.0,0.0,0.0,33.0
2.492000102996826,16.0,28.0,6.0,28.0,17.0,25.0,38.0
2.4952499866485596,38.0,20.0,5.0,34.0,33.0,22.0,14.0
2.498500108718872,14.0,12.0,5.0,39.0,22.0,5.0,14.0
2.5017499923706055,18.0,25.0,15.0,5.0,10.0,12.0,7.0
2.505000114440918,23.0,0.0,10.0,5.0,9.0,19.0,0.0
2.5083167552948,44.0,0.0,5.0,18.0,8.0,9.0,20.0
2.511566638946533,36.0,0.0,16.0,31.0,11.0,0.0,9.0
2.5148167610168457,24.0,8.0,27.0,37.0,9.0,30.0,10.0
2.518066644668579,11.0,16.0,47.0,23.0,6.0,15.0,6.0
2.5213167667388916,11.0,28.0,38.0,0.0,16.0,0.0,32.0
2.524566650390625,26.0,31.0,19.0,10.0,8.0,19.0,46.0
2.5278666019439697,24.0,28.0,26.0,15.0,0.0,20.0,34.0
2.5311167240142822,22.0,25.0,19.0,19.0,9.0,21.0,11.0
2.5343666076660156,35.0,46.0,27.0,25.0,18.0,16.0,12.0
2.537616729736328,49.0,5.0,20.0,21.0,100.0,11.0,5.0
2.5408833026885986,0.0,24.0,12.0,17.0,85.0,28.0,5.0
2.5441832542419434,43.0,18.0,17.0,34.0,52.0,50.0,5.0
2.547433376312256,16.0,15.0,22.0,20.0,0.0,36.0,6.0
2.5506832599639893,6.0,12.0,25.0,6.0,97.0,23.0,11.0
2.5539333820343018,19.0,7.0,12.0,23.0,85.0,57.0,9.0
2.557183265686035,36.0,9.0,0.0,20.0,16.0,0.0,6.0
2.56048321723938,35.0,11.0,26.0,18.0,57.0,48.0,24.0
2.5637333393096924,35.0,16.0,20.0,0.0,12.0,27.0,26.0
2.566999912261963,14.0,20.0,14.0,5.0,5.0,41.0,39.0
2.5702500343322754,21.0,30.0,26.0,6.0,23.0,19.0,23.0
2.573499917984009,28.0,18.0,20.0,7.0,25.0,29.0,6.0
2.5767667293548584,14.0,7.0,17.0,18.0,5.0,48.0,23.0
2.580016613006592,0.0,29.0,31.0,26.0,15.0,32.0,0.0
2.5832667350769043,39.0,10.0,35.0,28.0,26.0,52.0,8.0
2.5865166187286377,26.0,46.0,16.0,15.0,16.0,36.0,17.0
2.58976674079895,24.0,28.0,31.0,20.0,25.0,16.0,25.0
2.593083381652832,22.0,11.0,23.0,29.0,7.0,35.0,12.0
2.5963332653045654,23.0,27.0,34.0,23.0,0.0,46.0,11.0
2.599583387374878,25.0,12.0,0.0,27.0,21.0,0.0,10.0
2.6028332710266113,32.0,29.0,10.0,21.0,5.0,23.0,16.0
2.606083393096924,12.0,5.0,27.0,31.0,18.0,66.0,14.0
2.6093666553497314,18.0,26.0,31.0,53.0,30.0,53.0,12.0
2.612649917602539,19.0,11.0,35.0,56.0,28.0,12.0,21.0
2.6159000396728516,20.0,11.0,10.0,20.0,26.0,20.0,13.0
2.619149923324585,10.0,0.0,11.0,33.0,6.0,12.0,5.0
2.6224000453948975,22.0,6.0,8.0,60.0,13.0,11.0,17.0
2.625649929046631,27.0,11.0,14.0,19.0,20.0,17.0,19.0
2.6289167404174805,15.0,32.0,11.0,14.0,16.0,23.0,12.0
2.632166624069214,0.0,38.0,20.0,5.0,17.0,0.0,14.0
2.6354167461395264,4.0,15.0,17.0,14.0,11.0,15.0,16.0
2.6386666297912598,7.0,24.0,14.0,7.0,6.0,35.0,42.0
2.6419167518615723,19.0,17.0,39.0,0.0,27.0,27.0,46.0
2.645233392715454,20.0,47.0,19.0,9.0,20.0,27.0,23.0
2.6484832763671875,21.0,31.0,0.0,19.0,12.0,27.0,24.0
2.6517333984375,20.0,16.0,19.0,20.0,16.0,18.0,26.0
2.6549832820892334,19.0,0.0,23.0,23.0,19.0,17.0,5.0
2.658233404159546,27.0,8.0,10.0,21.0,6.0,12.0,31.0
2.6615500450134277,29.0,16.0,8.0,20.0,15.0,7.0,0.0
2.664799928665161,30.0,16.0,5.0,12.0,23.0,7.0,0.0
2.6680500507354736,30.0,5.0,18.0,14.0,40.0,8.0,0.0
2.671299934387207,29.0,22.0,12.0,16.0,35.0,8.0,20.0
2.6745500564575195,29.0,24.0,6.0,15.0,29.0,7.0,16.0
2.67781662940979,12.0,15.0,12.0,15.0,31.0,7.0,26.0
2.6810667514801025,35.0,45.0,19.0,22.0,29.0,7.0,16.0
2.684316635131836,18.0,29.0,9.0,5.0,15.0,48.0,19.0
2.6875667572021484,0.0,12.0,0.0,16.0,20.0,44.0,31.0
2.690816640853882,27.0,39.0,14.0,20.0,12.0,25.0,22.0
2.6941332817077637,32.0,35.0,20.0,10.0,5.0,0.0,12.0
2.697383403778076,31.0,10.0,14.0,7.0,29.0,39.0,24.0
2.7006332874298096,10.0,0.0,18.0,9.0,32.0,5.0,15.0
2.703883409500122,11.0,51.0,22.0,11.0,33.0,11.0,23.0
2.7071332931518555,12.0,36.0,39.0,0.0,0.0,18.0,10.0
2.710383415222168,11.0,31.0,34.0,3.0,3.0,25.0,5.0
2.7136833667755127,10.0,25.0,29.0,5.0,5.0,0.0,11.0
2.716933250427246,0.0,12.0,0.0,10.0,5.0,44.0,16.0
2.7201833724975586,25.0,0.0,107.0,8.0,7.0,32.0,38.0
2.723433256149292,67.0,0.0,53.0,5.0,18.0,24.0,22.0
2.7267000675201416,42.0,38.0,0.0,26.0,27.0,10.0,5.0
2.7300000190734863,17.0,32.0,0.0,33.0,36.0,22.0,20.0
2.7332499027252197,0.0,44.0,0.0,26.0,5.0,23.0,35.0
2.7365000247955322,18.0,39.0,11.0,22.0,28.0,23.0,41.0
2.7397499084472656,0.0,34.0,16.0,19.0,28.0,8.0,50.0
2.743000030517578,81.0,24.0,21.0,12.0,28.0,5.0,59.0
2.746299982070923,57.0,21.0,20.0,5.0,15.0,6.0,5.0
2.7495665550231934,33.0,19.0,19.0,5.0,10.0,0.0,0.0
2.752816677093506,10.0,36.0,10.0,5.0,5.0,18.0,19.0
2.7560665607452393,32.0,31.0,0.0,7.0,5.0,27.0,12.0
2.7593166828155518,30.0,25.0,3.0,9.0,8.0,36.0,5.0
2.7626166343688965,27.0,5.0,6.0,12.0,10.0,0.0,27.0
2.765866756439209,16.0,603.0,6.0,9.0,73.0,50.0,24.0
2.7691166400909424,5.0,329.0,5.0,6.0,69.0,0.0,21.0
2.772366762161255,56.0,55.0,10.0,6.0,25.0,23.0,5.0
2.7756166458129883,62.0,34.0,14.0,24.0,58.0,37.0,10.0
2.778916597366333,27.0,14.0,17.0,42.0,18.0,52.0,16.0
2.7821667194366455,8.0,6.0,14.0,31.0,9.0,5.0,5.0
2.785416603088379,5.0,24.0,17.0,38.0,62.0,20.0,27.0
2.7886667251586914,11.0,12.0,21.0,17.0,27.0,69.0,20.0
2.791933298110962,39.0,0.0,18.0,24.0,31.0,0.0,14.0
2.7951834201812744,27.0,21.0,15.0,23.0,33.0,5.0,36.0
2.798466682434082,16.0,42.0,5.0,28.0,24.0,17.0,43.0
2.8017165660858154,15.0,52.0,23.0,44.0,30.0,11.0,14.0
2.804966688156128,12.0,31.0,25.0,59.0,36.0,19.0,49.0
2.8082165718078613,9.0,17.0,28.0,57.0,21.0,22.0,11.0
2.811466693878174,45.0,35.0,29.0,52.0,5.0,26.0,16.0
2.8147666454315186,36.0,21.0,28.0,47.0,10.0,12.0,19.0
2.818016767501831,43.0,7.0,28.0,0.0,16.0,56.0,22.0
2.8212666511535645,50.0,61.0,5.0,18.0,27.0,64.0,24.0
2.824516773223877,28.0,115.0,12.0,14.0,25.0,44.0,0.0
2.8277666568756104,5.0,1046.0,35.0,22.0,32.0,16.0,27.0
2.831083297729492,28.0,820.0,92.0,22.0,55.0,7.0,17.0
2.8343334197998047,32.0,30.0,49.0,22.0,33.0,23.0,42.0
2.837583303451538,36.0,17.0,5.0,33.0,11.0,19.0,29.0
2.8408334255218506,25.0,361.0,10.0,29.0,18.0,16.0,33.0
2.844083309173584,14.0,31.0,16.0,25.0,371.0,25.0,32.0
2.8473832607269287,7.0,46.0,10.0,6.0,194.0,14.0,30.0
2.850633382797241,0.0,30.0,5.0,31.0,18.0,14.0,25.0
2.8538832664489746,59.0,0.0,15.0,55.0,19.0,5.0,20.0
2.857133388519287,919.0,11.0,15.0,52.0,26.0,28.0,7.0
2.8603999614715576,1089.0,11.0,16.0,0.0,27.0,17.0,7.0
2.8636999130249023,198.0,23.0,26.0,33.0,27.0,5.0,6.0
2.866950035095215,35.0,35.0,37.0,46.0,26.0,18.0,11.0
2.8701999187469482,12.0,31.0,30.0,29.0,0.0,17.0,17.0
2.8734500408172607,20.0,35.0,22.0,36.0,23.0,16.0,22.0
2.876699924468994,22.0,19.0,0.0,10.0,11.0,14.0,17.0
2.879983425140381,19.0,12.0,30.0,16.0,0.0,0.0,12.0
2.8832666873931885,962.0,27.0,19.0,35.0,7.0,13.0,7.0
2.886516571044922,837.0,0.0,28.0,37.0,31.0,13.0,10.0
2.8897666931152344,24.0,5.0,32.0,17.0,30.0,12.0,14.0
2.8930165767669678,20.0,10.0,36.0,18.0,29.0,33.0,16.0
2.8962666988372803,23.0,10.0,32.0,7.0,16.0,37.0,16.0
2.899533271789551,11.0,10.0,35.0,7.0,52.0,5.0,42.0
2.9027833938598633,0.0,5.0,26.0,7.0,53.0,0.0,37.0
2.9060332775115967,12.0,0.0,5.0,6.0,27.0,40.0,33.0
2.909283399581909,25.0,5.0,21.0,6.0,34.0,22.0,5.0
2.9125332832336426,36.0,10.0,36.0,6.0,57.0,16.0,7.0
2.9158499240875244,35.0,26.0,20.0,11.0,40.0,47.0,11.0
2.919100046157837,33.0,24.0,36.0,11.0,23.0,72.0,16.0
2.9223499298095703,27.0,17.0,27.0,10.0,16.0,39.0,8.0
2.925600051879883,42.0,30.0,18.0,8.0,72.0,6.0,0.0
2.928849935531616,43.0,43.0,34.0,5.0,49.0,8.0,16.0
2.932166576385498,43.0,35.0,35.0,12.0,27.0,20.0,18.0
2.9354166984558105,24.0,10.0,36.0,16.0,5.0,21.0,21.0
2.938666582107544,27.0,21.0,51.0,20.0,0.0,14.0,18.0
2.9419167041778564,31.0,28.0,10.0,11.0,8.0,7.0,16.0
2.94516658782959,31.0,0.0,55.0,21.0,12.0,21.0,21.0
2.9484500885009766,30.0,26.0,25.0,15.0,17.0,18.0,17.0
2.95169997215271,20.0,25.0,13.0,8.0,19.0,16.0,24.0
2.9549500942230225,14.0,24.0,16.0,12.0,5.0,23.0,25.0
2.958199977874756,5.0,28.0,0.0,17.0,5.0,10.0,26.0
2.9614500999450684,19.0,23.0,5.0,19.0,5.0,0.0,16.0
2.964750051498413,25.0,19.0,14.0,25.0,24.0,25.0,16.0
2.9680166244506836,17.0,6.0,26.0,26.0,35.0,17.0,17.0
2.971266746520996,19.0,0.0,22.0,28.0,43.0,34.0,12.0
2.9745166301727295,34.0,5.0,12.0,12.0,35.0,35.0,22.0
2.977766752243042,39.0,5.0,23.0,19.0,28.0,5.0,16.0
2.9810166358947754,43.0,5.0,26.0,25.0,7.0,30.0,10.0
2.984299898147583,5.0,5.0,12.0,5.0,18.0,49.0,34.0
2.9875500202178955,31.0,0.0,7.0,16.0,28.0,5.0,28.0
2.990799903869629,17.0,8.0,232.0,24.0,29.0,5.0,21.0
2.9940500259399414,26.0,17.0,125.0,28.0,0.0,22.0,21.0
