,317.1099853515625,318.1099853515625,319.1099853515625,320.1099853515625,321.1099853515625,322.1099853515625,323.1099853515625
0.6015166640281677,46.0,5.0,29.0,22.0,44.0,21.0,33.0
0.6030333042144775,22.0,17.0,12.0,31.0,14.0,35.0,25.0
0.6045500040054321,5.0,54.0,21.0,33.0,14.0,124.0,6.0
0.6060666441917419,0.0,48.0,8.0,35.0,11.0,9.0,6.0
0.6075833439826965,4.0,19.0,14.0,34.0,23.0,31.0,7.0
0.6090999841690063,9.0,0.0,20.0,34.0,26.0,69.0,8.0
0.6106166839599609,12.0,22.0,14.0,20.0,30.0,15.0,10.0
0.6121333241462708,11.0,0.0,10.0,38.0,15.0,42.0,0.0
0.6136500239372253,10.0,24.0,0.0,16.0,9.0,11.0,18.0
0.6151666641235352,18.0,0.0,35.0,0.0,18.0,7.0,13.0
0.616683304309845,9.0,26.0,35.0,8.0,13.0,5.0,24.0
0.6182666420936584,0.0,24.0,35.0,28.0,8.0,6.0,22.0
0.619783341884613,11.0,20.0,13.0,22.0,9.0,6.0,20.0
0.6212999820709229,31.0,19.0,12.0,16.0,19.0,6.0,19.0
0.6228166818618774,26.0,27.0,12.0,12.0,15.0,5.0,0.0
0.6243333220481873,21.0,44.0,14.0,8.0,10.0,12.0,0.0
0.6258500218391418,12.0,60.0,16.0,18.0,13.0,22.0,0.0
0.6273666620254517,8.0,0.0,15.0,28.0,5.0,27.0,0.0
0.6288833618164062,5.0,0.0,15.0,22.0,10.0,32.0,12.0
0.6304000020027161,1084.0,14.0,5.0,21.0,11.0,0.0,6.0
0.6319166421890259,1400.0,11.0,12.0,16.0,33.0,19.0,0.0
0.6334333419799805,40.0,0.0,0.0,22.0,20.0,24.0,5.0
0.635016679763794,22.0,19.0,6.0,27.0,8.0,30.0,11.0
0.6365333199501038,0.0,5.0,10.0,19.0,0.0,7.0,15.0
0.6380500197410583,6.0,6.0,0.0,11.0,5.0,6.0,19.0
0.6395666599273682,21.0,14.0,0.0,12.0,10.0,5.0,30.0
0.6410833597183228,36.0,34.0,5.0,12.0,8.0,14.0,37.0
0.6425999999046326,24.0,47.0,10.0,12.0,6.0,24.0,45.0
0.6441166400909424,0.0,26.0,17.0,34.0,6.0,12.0,35.0
0.645633339881897,10.0,46.0,18.0,33.0,0.0,0.0,46.0
0.6471499800682068,6.0,21.0,19.0,0.0,8.0,5.0,5.0
0.6486666798591614,12.0,0.0,17.0,26.0,17.0,39.0,5.0
0.6501833200454712,0.0,0.0,16.0,30.0,29.0,44.0,39.0
0.6517500281333923,5.0,0.0,11.0,6.0,28.0,25.0,13.0
0.6532666683197021,16.0,0.0,5.0,8.0,18.0,26.0,14.0
0.654783308506012,5.0,35.0,0.0,29.0,35.0,5.0,14.0
0.6563000082969666,16.0,45.0,2.0,33.0,17.0,9.0,5.0
0.6578333377838135,27.0,24.0,5.0,26.0,19.0,21.0,20.0
0.6593499779701233,20.0,5.0,12.0,21.0,12.0,0.0,11.0
0.6608499884605408,17.0,7.0,15.0,16.0,5.0,0.0,5.0
0.6623666882514954,16.0,7.0,14.0,5.0,11.0,0.0,0.0
0.6638833284378052,16.0,11.0,17.0,9.0,9.0,21.0,9.0
0.6654000282287598,13.0,16.0,0.0,14.0,11.0,25.0,30.0
0.6669166684150696,18.0,13.0,11.0,7.0,14.0,30.0,30.0
0.6685000061988831,0.0,11.0,22.0,0.0,44.0,8.0,0.0
0.6700166463851929,13.0,16.0,14.0,6.0,49.0,15.0,0.0
0.6715333461761475,5.0,6.0,6.0,12.0,11.0,23.0,38.0
0.6730499863624573,19.0,9.0,5.0,8.0,0.0,27.0,12.0
0.6745666861534119,19.0,12.0,16.0,5.0,10.0,32.0,36.0
0.6760833263397217,12.0,6.0,13.0,11.0,18.0,16.0,26.0
0.6776000261306763,11.0,0.0,10.0,17.0,11.0,22.0,8.0
0.6791166663169861,11.0,33.0,14.0,23.0,5.0,28.0,20.0
0.6806333065032959,6.0,37.0,14.0,26.0,22.0,5.0,33.0
0.6821500062942505,0.0,25.0,15.0,24.0,10.0,10.0,0.0
0.6836666464805603,0.0,0.0,9.0,23.0,8.0,5.0,9.0
0.6852499842643738,0.0,13.0,12.0,13.0,14.0,24.0,7.0
0.6867666840553284,0.0,17.0,16.0,0.0,5.0,15.0,5.0
0.6882833242416382,15.0,30.0,15.0,24.0,2.0,6.0,2.0
0.6898000240325928,7.0,21.0,15.0,0.0,0.0,0.0,0.0
0.6913166642189026,0.0,12.0,15.0,15.0,19.0,0.0,2.0
0.6928333044052124,24.0,12.0,38.0,21.0,32.0,0.0,5.0
0.694350004196167,20.0,13.0,64.0,53.0,26.0,5.0,22.0
0.6958666443824768,0.0,14.0,32.0,55.0,24.0,10.0,17.0
0.6973833441734314,20.0,10.0,0.0,57.0,22.0,12.0,12.0
0.6988999843597412,28.0,6.0,0.0,0.0,11.0,14.0,18.0
0.7004166841506958,21.0,20.0,25.0,20.0,6.0,14.0,12.0
0.7019666433334351,14.0,10.0,20.0,40.0,22.0,14.0,11.0
0.703499972820282,19.0,0.0,40.0,23.0,14.0,16.0,10.0
0.7050166726112366,14.0,5.0,22.0,46.0,6.0,18.0,14.0
0.7065333127975464,10.0,0.0,8.0,7.0,12.0,32.0,19.0
0.708050012588501,21.0,0.0,5.0,14.0,15.0,18.0,20.0
0.7095666527748108,0.0,0.0,0.0,15.0,14.0,5.0,31.0
0.7110833525657654,5.0,5.0,6.0,0.0,15.0,14.0,24.0
0.7126166820526123,18.0,5.0,19.0,15.0,24.0,5.0,17.0
0.7141166925430298,17.0,5.0,21.0,18.0,25.0,8.0,0.0
0.7156500220298767,16.0,10.0,6.0,22.0,22.0,11.0,29.0
0.7171499729156494,11.0,10.0,11.0,22.0,16.0,8.0,12.0
0.718666672706604,13.0,10.0,16.0,24.0,10.0,5.0,36.0
0.7202500104904175,16.0,8.0,23.0,26.0,5.0,17.0,35.0
0.7217666506767273,17.0,7.0,27.0,20.0,0.0,19.0,22.0
0.7232833504676819,11.0,20.0,0.0,15.0,4.0,6.0,40.0
0.7247999906539917,5.0,17.0,30.0,10.0,2.0,10.0,30.0
0.7263166904449463,19.0,15.0,35.0,6.0,0.0,0.0,21.0
0.7278333306312561,40.0,21.0,0.0,10.0,3.0,14.0,45.0
0.7293499708175659,33.0,5.0,6.0,6.0,6.0,20.0,28.0
0.7308666706085205,10.0,54.0,8.0,5.0,14.0,0.0,12.0
0.7323833107948303,35.0,39.0,12.0,5.0,12.0,15.0,43.0
0.7339000105857849,21.0,24.0,29.0,7.0,25.0,30.0,6.0
0.7354166507720947,31.0,44.0,25.0,10.0,30.0,0.0,34.0
0.7369999885559082,5.0,13.0,24.0,60.0,35.0,0.0,37.0
0.7385166883468628,39.0,27.0,29.0,35.0,5.0,22.0,6.0
0.7400333285331726,45.0,19.0,28.0,11.0,19.0,26.0,32.0
0.7415500283241272,0.0,12.0,24.0,56.0,14.0,27.0,12.0
0.743066668510437,6.0,21.0,17.0,20.0,40.0,23.0,15.0
0.7445833086967468,8.0,15.0,10.0,5.0,24.0,26.0,18.0
0.7461000084877014,6.0,9.0,15.0,15.0,8.0,10.0,20.0
0.7476166486740112,0.0,6.0,21.0,5.0,20.0,31.0,28.0
0.7491333484649658,5.0,5.0,32.0,6.0,12.0,0.0,35.0
0.7506499886512756,10.0,6.0,22.0,5.0,6.0,3.0,5.0
0.7521666884422302,10.0,7.0,13.0,0.0,0.0,6.0,48.0
0.7537500262260437,18.0,7.0,12.0,0.0,15.0,0.0,21.0
0.7552666664123535,11.0,7.0,11.0,11.0,30.0,0.0,55.0
0.7567833065986633,5.0,17.0,8.0,23.0,28.0,0.0,17.0
0.7583000063896179,11.0,23.0,5.0,31.0,39.0,22.0,8.0
0.7598166465759277,0.0,21.0,25.0,30.0,0.0,23.0,27.0
0.7613333463668823,21.0,20.0,15.0,30.0,0.0,7.0,34.0
0.7628499865531921,41.0,12.0,6.0,12.0,38.0,3.0,13.0
0.7643666863441467,20.0,25.0,7.0,5.0,35.0,0.0,5.0
0.7658833265304565,0.0,16.0,5.0,6.0,22.0,9.0,30.0
0.7674000263214111,39.0,24.0,8.0,7.0,18.0,0.0,34.0
0.768916666507721,0.0,7.0,7.0,10.0,38.0,5.0,19.0
0.7705000042915344,34.0,12.0,5.0,13.0,5.0,11.0,5.0
0.7720166444778442,37.0,17.0,7.0,16.0,20.0,32.0,22.0
0.7735333442687988,0.0,0.0,0.0,0.0,16.0,60.0,25.0
0.7750499844551086,53.0,7.0,5.0,0.0,13.0,32.0,13.0
0.7765666842460632,16.0,6.0,8.0,13.0,23.0,5.0,26.0
0.778083324432373,5.0,0.0,12.0,11.0,5.0,30.0,34.0
0.7796000242233276,30.0,0.0,6.0,10.0,0.0,41.0,21.0
0.7811166644096375,5.0,10.0,0.0,16.0,45.0,23.0,21.0
0.7826333045959473,0.0,20.0,16.0,80.0,46.0,5.0,21.0
0.7841500043869019,21.0,33.0,5.0,51.0,27.0,8.0,18.0
0.7856666445732117,5.0,39.0,2358.0,22.0,510.0,5.0,15.0
0.7872166633605957,25.0,2417.0,11128.0,11780.0,10136.0,5461.0,1136.0
0.7887333035469055,26.0,21688.0,47584.0,64848.0,36960.0,15640.0,4802.0
0.7902500033378601,29.0,59712.0,152768.0,161856.0,131520.0,66192.0,17468.0
0.7917666435241699,11.0,110960.0,285504.0,331840.0,246912.0,101808.0,28988.0
0.7932833433151245,38.0,235008.0,419712.0,515200.0,362944.0,153472.0,41760.0
0.7947999835014343,63.0,297664.0,600320.0,705536.0,467712.0,213568.0,58832.0
0.7963166832923889,88.0,331392.0,767488.0,842752.0,631296.0,232512.0,71584.0
0.7978333234786987,65.0,420352.0,951552.0,942080.0,668416.0,253056.0,67696.0
0.7993500232696533,53.0,440448.0,896512.0,1002496.0,663040.0,305152.0,79888.0
0.8008666634559631,41.0,520320.0,1088768.0,1116160.0,759040.0,306048.0,78208.0
0.802383303642273,113.0,508608.0,1036800.0,1153536.0,754176.0,317632.0,65184.0
0.8039166927337646,129.0,519744.0,1009152.0,1160960.0,798976.0,318400.0,86544.0
0.8054500222206116,77.0,515136.0,1025792.0,1179648.0,791552.0,311744.0,90000.0
0.8069499731063843,91.0,511488.0,1045760.0,1189888.0,783872.0,305088.0,68080.0
0.8084666728973389,109.0,507840.0,1065728.0,1225216.0,796672.0,295936.0,90912.0
0.8100000023841858,48.0,505216.0,1054976.0,1088768.0,809472.0,286720.0,69792.0
0.8115166425704956,144.0,502592.0,1031424.0,1103616.0,742400.0,285120.0,78144.0
0.8130333423614502,100.0,506304.0,1009920.0,1030400.0,705792.0,283520.0,77568.0
0.81454998254776,122.0,467136.0,942848.0,996096.0,648704.0,272896.0,56736.0
0.8160666823387146,144.0,441792.0,907776.0,871424.0,592128.0,236608.0,55376.0
0.8175666928291321,109.0,415040.0,775936.0,833280.0,599296.0,233408.0,61360.0
0.819100022315979,142.0,357056.0,724992.0,827904.0,533760.0,225984.0,57696.0
0.8206333518028259,77.0,350656.0,628992.0,740352.0,503616.0,183936.0,38784.0
0.8221499919891357,73.0,315520.0,599808.0,668160.0,457024.0,183872.0,43312.0
0.8236666917800903,68.0,262208.0,477312.0,609024.0,382784.0,168576.0,31444.0
0.8251833319664001,62.0,217600.0,514240.0,495296.0,360320.0,136576.0,32800.0
0.82669997215271,32.0,232256.0,409280.0,491456.0,335872.0,137088.0,37520.0
0.8282166719436646,37.0,210944.0,423296.0,439104.0,277184.0,98032.0,27856.0
0.8297333121299744,47.0,201280.0,355456.0,397056.0,284352.0,104736.0,29652.0
0.831250011920929,56.0,179392.0,322048.0,320192.0,267392.0,108176.0,25364.0
0.8327666521072388,51.0,177344.0,349760.0,359424.0,216704.0,94160.0,16752.0
0.8342833518981934,46.0,142528.0,313152.0,354560.0,221440.0,85136.0,23636.0
0.8357999920845032,39.0,152064.0,332288.0,306816.0,184832.0,76672.0,25080.0
0.8373833298683167,45.0,150720.0,293248.0,294528.0,214336.0,85312.0,23964.0
0.8389000296592712,51.0,113280.0,280512.0,290368.0,213056.0,78512.0,16244.0
0.840416669845581,68.0,114304.0,245568.0,301760.0,192128.0,92944.0,21288.0
0.8419333100318909,61.0,120624.0,270336.0,296320.0,196480.0,87472.0,20776.0
0.8434500098228455,54.0,121920.0,274816.0,287232.0,216000.0,77808.0,20956.0
0.8449666500091553,59.0,123232.0,247552.0,277120.0,184256.0,63488.0,11292.0
0.8464833498001099,60.0,126896.0,220672.0,278592.0,174976.0,86272.0,14976.0
0.8479999899864197,61.0,130560.0,249280.0,247040.0,179776.0,75664.0,22176.0
0.8495166897773743,16.0,133440.0,235904.0,282048.0,181760.0,62336.0,22508.0
0.8510333299636841,40.0,135872.0,257664.0,274944.0,173376.0,78112.0,18772.0
0.8525500297546387,64.0,106016.0,235904.0,252800.0,171520.0,68656.0,22692.0
0.854116678237915,55.0,112848.0,240256.0,243392.0,170944.0,69200.0,14692.0
0.8556333184242249,75.0,125792.0,238016.0,277952.0,165760.0,60112.0,16208.0
0.8571500182151794,38.0,121024.0,225152.0,240192.0,165312.0,62640.0,16476.0
0.8586666584014893,80.0,92880.0,203584.0,233152.0,169792.0,53344.0,8704.0
0.8601833581924438,53.0,82560.0,214336.0,227584.0,170944.0,55328.0,15412.0
0.8616999983787537,11.0,132736.0,198592.0,218752.0,169088.0,55360.0,11040.0
0.8632166385650635,40.0,102912.0,195712.0,209600.0,126496.0,55408.0,13040.0
0.8647500276565552,27.0,95840.0,220160.0,211200.0,165376.0,55296.0,9404.0
0.8662499785423279,17.0,102688.0,183680.0,212736.0,129680.0,52736.0,12864.0
0.8677666783332825,47.0,98144.0,178496.0,196608.0,120080.0,49056.0,16324.0
0.8692833185195923,19.0,93952.0,180864.0,199360.0,136640.0,57072.0,15260.0
0.8708500266075134,27.0,100336.0,180224.0,196800.0,134080.0,46816.0,8784.0
0.8723833560943604,26.0,85072.0,179584.0,194304.0,133632.0,51568.0,12148.0
0.8738999962806702,26.0,69200.0,165504.0,201920.0,129168.0,45872.0,11836.0
0.8754166960716248,25.0,67904.0,156288.0,180224.0,134976.0,46016.0,12728.0
0.8769333362579346,24.0,76208.0,166080.0,167680.0,113936.0,48928.0,13616.0
0.8784499764442444,45.0,71456.0,140928.0,175552.0,121120.0,44272.0,13664.0
0.879966676235199,53.0,69728.0,158144.0,173312.0,130096.0,34912.0,14352.0
0.8814833164215088,62.0,76880.0,129552.0,153856.0,86400.0,45888.0,7556.0
0.8830000162124634,44.0,71312.0,146304.0,145152.0,102416.0,41616.0,13164.0
0.8845166563987732,69.0,76736.0,149696.0,170624.0,112128.0,40784.0,14588.0
0.8860333561897278,18.0,70144.0,138688.0,138112.0,91088.0,30840.0,13448.0
0.8875499963760376,46.0,68400.0,116224.0,130496.0,104736.0,49024.0,8560.0
0.8891333341598511,73.0,66656.0,141376.0,140160.0,97824.0,52160.0,5882.0
0.8906499743461609,17.0,71264.0,123776.0,123392.0,88832.0,33104.0,10184.0
0.8921666741371155,38.0,70416.0,112160.0,123680.0,111488.0,36400.0,11120.0
0.8936833143234253,12.0,69568.0,119104.0,123968.0,98144.0,44816.0,10032.0
0.8952000141143799,25.0,67680.0,116336.0,136896.0,85152.0,39728.0,10956.0
0.8967166543006897,38.0,51632.0,121184.0,132480.0,87168.0,35136.0,11996.0
0.8982333540916443,43.0,54064.0,119856.0,128048.0,92240.0,31924.0,13036.0
0.8997499942779541,27.0,65888.0,118544.0,128176.0,81136.0,31280.0,14468.0
0.9012666940689087,44.0,64720.0,120288.0,128320.0,81264.0,30636.0,14104.0
0.9027833342552185,20.0,58192.0,108032.0,129664.0,84432.0,33216.0,7492.0
0.9042999744415283,59.0,58656.0,112992.0,111872.0,87584.0,36272.0,7785.0
0.9058666825294495,65.0,54240.0,102096.0,136704.0,74256.0,35920.0,7684.0
0.9073833227157593,29.0,65952.0,116800.0,129040.0,79920.0,37024.0,7581.0
0.9089000225067139,18.0,40784.0,112176.0,121232.0,87136.0,34288.0,6961.0
0.9104166626930237,54.0,57840.0,114016.0,128192.0,77696.0,31308.0,6340.0
0.9119333624839783,12.0,60144.0,115840.0,121056.0,82576.0,30972.0,7483.0
0.9134500026702881,56.0,54368.0,113088.0,120320.0,76544.0,30884.0,3991.0
0.9149666428565979,6.0,51456.0,110336.0,118512.0,80752.0,30796.0,8436.0
0.9164833426475525,48.0,53120.0,108736.0,119776.0,84960.0,27420.0,10032.0
0.9179999828338623,39.0,51376.0,111008.0,122528.0,82160.0,40192.0,7449.0
0.9195166826248169,29.0,55264.0,113296.0,125264.0,87536.0,37872.0,5312.0
0.9210333228111267,23.0,58016.0,115744.0,144384.0,96288.0,32116.0,9620.0
0.9225833415985107,22.0,48208.0,121008.0,145408.0,65552.0,41360.0,8492.0
0.9240999817848206,22.0,59376.0,119968.0,132224.0,79120.0,21548.0,6788.0
0.9256166815757751,24.0,47440.0,118928.0,125744.0,77568.0,36752.0,8920.0
0.927133321762085,27.0,47104.0,112800.0,112112.0,81264.0,40000.0,8132.0
0.9286500215530396,5.0,61712.0,113616.0,116192.0,78432.0,36304.0,4384.0
0.9301666617393494,2.0,45072.0,104512.0,120272.0,82928.0,31640.0,13328.0
0.931683361530304,0.0,58496.0,94688.0,121744.0,82640.0,31196.0,10404.0
0.9332000017166138,10.0,55296.0,96208.0,123232.0,82368.0,38496.0,10484.0
0.9347166419029236,12.0,60512.0,98624.0,109760.0,87648.0,33472.0,9904.0
0.9362333416938782,13.0,56640.0,103920.0,121008.0,68496.0,28452.0,3813.0
0.937749981880188,20.0,56832.0,118592.0,119408.0,84720.0,32648.0,8182.0
0.9393333196640015,29.0,56752.0,116944.0,132288.0,87088.0,37072.0,10624.0
0.940850019454956,33.0,56672.0,120192.0,128352.0,89472.0,36976.0,9352.0
0.9423666596412659,36.0,58448.0,109264.0,124416.0,86960.0,40032.0,7979.0
0.9438833594322205,33.0,60224.0,122496.0,132416.0,83280.0,38448.0,7604.0
0.9453999996185303,30.0,54768.0,119744.0,122896.0,79600.0,40608.0,10560.0
0.9469166398048401,45.0,49312.0,115520.0,113984.0,89680.0,36064.0,10032.0
0.9484333395957947,47.0,56768.0,106160.0,136896.0,76640.0,39872.0,8078.0
0.9499499797821045,12.0,52784.0,105728.0,144832.0,81008.0,41824.0,5052.0
0.9514666795730591,7.0,58688.0,118736.0,103888.0,96624.0,45376.0,9208.0
0.9529833197593689,57.0,64576.0,122512.0,136320.0,99136.0,32928.0,12672.0
0.9545000195503235,31.0,72080.0,134208.0,139072.0,82352.0,38128.0,10440.0
0.956083357334137,51.0,78032.0,134080.0,129312.0,99136.0,36032.0,10412.0
0.9575999975204468,38.0,49488.0,133376.0,136768.0,88528.0,35216.0,9036.0
0.9591166377067566,24.0,53376.0,121072.0,148096.0,83712.0,37744.0,7661.0
0.9606333374977112,33.0,56832.0,120336.0,155392.0,91040.0,38192.0,6544.0
0.962149977684021,40.0,74576.0,119600.0,145408.0,98592.0,34496.0,5427.0
0.9636666774749756,34.0,69024.0,121984.0,157056.0,92960.0,34640.0,8860.0
0.9651833176612854,13.0,62720.0,124368.0,138240.0,87344.0,34784.0,14716.0
0.96670001745224,12.0,68768.0,134848.0,168320.0,95600.0,36144.0,13208.0
0.9682166576385498,12.0,71728.0,139008.0,171072.0,92448.0,37488.0,14712.0
0.9697333574295044,13.0,71072.0,130096.0,144192.0,89280.0,41120.0,8956.0
0.9712499976158142,23.0,70400.0,132096.0,149696.0,105904.0,40064.0,11796.0
0.9728166460990906,30.0,64256.0,134144.0,143808.0,113376.0,39008.0,12784.0
0.9743333458900452,38.0,55024.0,148224.0,132096.0,101504.0,43712.0,6628.0
0.975849986076355,25.0,79680.0,146304.0,130720.0,94784.0,28556.0,13136.0
0.9773666858673096,24.0,70832.0,133184.0,140864.0,87040.0,51136.0,9384.0
0.9789000153541565,30.0,74896.0,150272.0,151040.0,103776.0,44176.0,11816.0
0.980400025844574,25.0,75136.0,149440.0,153664.0,123088.0,53248.0,10996.0
0.9819166660308838,33.0,78896.0,142016.0,154112.0,112384.0,46640.0,10176.0
0.9834333062171936,48.0,76240.0,134656.0,156096.0,108592.0,50736.0,6571.0
0.9849500060081482,40.0,73856.0,133696.0,158016.0,101136.0,47616.0,13508.0
0.986466646194458,32.0,69744.0,133632.0,160512.0,107312.0,57456.0,11116.0
0.9879833459854126,41.0,61072.0,133568.0,162944.0,108672.0,55200.0,9508.0
0.9895666837692261,34.0,54944.0,143360.0,141312.0,110032.0,47776.0,13064.0
0.9910833239555359,28.0,74672.0,145856.0,144384.0,122272.0,53520.0,6619.0
0.9926000237464905,37.0,79808.0,145536.0,157824.0,84304.0,51616.0,11540.0
0.9941166639328003,44.0,71600.0,153984.0,159488.0,126336.0,49696.0,11240.0
0.9956333041191101,12.0,72256.0,154240.0,158144.0,126544.0,42432.0,10792.0
0.9971500039100647,32.0,72928.0,144576.0,158400.0,134080.0,44048.0,11620.0
0.9986666440963745,23.0,69728.0,134912.0,169088.0,126816.0,49984.0,11088.0
1.000183343887329,37.0,79424.0,146880.0,166336.0,117984.0,48256.0,17972.0
1.0017000436782837,25.0,78400.0,158848.0,173312.0,101120.0,34768.0,19436.0
1.0032166242599487,54.0,63136.0,159872.0,160192.0,119248.0,52432.0,9564.0
1.0047333240509033,53.0,71824.0,167104.0,179968.0,119104.0,48944.0,11276.0
1.0062999725341797,16.0,75824.0,156992.0,180032.0,118960.0,58800.0,10444.0
1.0078333616256714,14.0,93984.0,167296.0,186816.0,135424.0,53504.0,8488.0
1.0093499422073364,21.0,94400.0,167616.0,180672.0,134080.0,60080.0,11204.0
1.010866641998291,24.0,94768.0,168000.0,210496.0,135808.0,63712.0,14284.0
1.0123833417892456,27.0,86496.0,164096.0,206848.0,136384.0,40816.0,14696.0
1.0139000415802002,47.0,96512.0,160256.0,188224.0,129488.0,53264.0,13968.0
1.0154166221618652,29.0,80016.0,164096.0,217920.0,122576.0,53456.0,10880.0
1.0169333219528198,11.0,85184.0,170560.0,199616.0,120496.0,48768.0,11444.0
1.0184500217437744,65.0,95392.0,177024.0,214336.0,132544.0,52224.0,12096.0
1.019966721534729,267.0,93392.0,182272.0,192192.0,136896.0,53152.0,12752.0
1.021483302116394,154.0,83392.0,174144.0,193856.0,145152.0,51376.0,12636.0
1.0230000019073486,42.0,93856.0,178304.0,199168.0,135104.0,53904.0,12520.0
1.024583339691162,27.0,89440.0,184576.0,171840.0,127088.0,52544.0,15256.0
1.0261000394821167,103.0,100800.0,182528.0,216960.0,134464.0,51680.0,16940.0
1.0276166200637817,56.0,99792.0,180544.0,216320.0,138432.0,50800.0,15236.0
1.0291333198547363,19.0,84384.0,201472.0,233024.0,134976.0,53808.0,18312.0
1.030650019645691,15.0,85952.0,210624.0,203648.0,131584.0,48864.0,15168.0
1.0321667194366455,29.0,87520.0,194752.0,223808.0,132224.0,55008.0,12028.0
1.0336833000183105,31.0,88624.0,199680.0,222272.0,132800.0,55744.0,13400.0
1.0351999998092651,33.0,90208.0,212672.0,226816.0,141504.0,56464.0,16628.0
1.0367166996002197,88.0,91792.0,206080.0,208256.0,150272.0,55744.0,15396.0
1.0382332801818848,89.0,107600.0,207360.0,232960.0,164352.0,53344.0,14164.0
1.0397499799728394,78.0,104000.0,196672.0,229760.0,162560.0,64304.0,12512.0
1.0413166284561157,0.0,111888.0,197440.0,250944.0,157184.0,68736.0,14060.0
1.0428333282470703,56.0,108224.0,208832.0,244416.0,170624.0,50704.0,15232.0
1.044350028038025,28.0,113712.0,209472.0,227584.0,149056.0,65008.0,16728.0
1.04586660861969,5.0,115472.0,222720.0,246400.0,151232.0,86528.0,15644.0
1.0473999977111816,24.0,110416.0,216896.0,243008.0,138624.0,74416.0,14560.0
1.0489000082015991,26.0,121312.0,230272.0,243328.0,172928.0,61072.0,16240.0
1.0504167079925537,21.0,132224.0,238336.0,256832.0,167744.0,68432.0,13172.0
1.0519332885742188,16.0,127616.0,244800.0,249408.0,165120.0,62992.0,10108.0
1.0534499883651733,67.0,125168.0,251264.0,241984.0,175936.0,82544.0,18492.0
1.054966688156128,60.0,124352.0,228224.0,261568.0,186752.0,78368.0,20580.0
1.05649995803833,40.0,108112.0,259840.0,283584.0,193984.0,84448.0,19752.0
1.058066725730896,71.0,96368.0,219712.0,275456.0,169024.0,66672.0,15656.0
1.059583306312561,76.0,129936.0,239680.0,264000.0,165632.0,65344.0,16328.0
1.0611000061035156,51.0,118512.0,241600.0,289024.0,188160.0,74544.0,18224.0
1.0626167058944702,36.0,138624.0,243520.0,259392.0,188160.0,83344.0,17084.0
1.0641332864761353,18.0,149248.0,245568.0,277248.0,188224.0,91056.0,17972.0
1.0656499862670898,23.0,146048.0,269568.0,278976.0,190656.0,89584.0,18860.0
1.0671666860580444,30.0,140672.0,281152.0,309632.0,193152.0,79568.0,14868.0
1.068683385848999,37.0,130368.0,285568.0,316864.0,205056.0,85840.0,10872.0
1.070199966430664,40.0,154816.0,294784.0,286336.0,198720.0,76640.0,15528.0
1.0717166662216187,41.0,121296.0,252864.0,278016.0,192320.0,75008.0,20180.0
1.0732333660125732,49.0,150464.0,273088.0,338944.0,202560.0,83024.0,18288.0
1.0748167037963867,49.0,125120.0,296192.0,348864.0,212800.0,83808.0,17760.0
1.0763332843780518,49.0,134848.0,298304.0,332224.0,224320.0,86640.0,16360.0
1.0778499841690063,16.0,141568.0,293248.0,317312.0,224832.0,88496.0,17656.0
1.079366683959961,71.0,145536.0,288128.0,318336.0,223680.0,90368.0,18956.0
1.0808833837509155,58.0,148288.0,323264.0,324928.0,219520.0,93168.0,19608.0
1.0823999643325806,48.0,149696.0,334208.0,325760.0,215360.0,93952.0,21404.0
1.0839166641235352,56.0,148544.0,320064.0,326656.0,240320.0,94752.0,22040.0
1.0854333639144897,55.0,156352.0,324160.0,317888.0,245120.0,77472.0,18808.0
1.0869499444961548,54.0,156672.0,335680.0,309184.0,245184.0,87408.0,22592.0
1.0884666442871094,34.0,134784.0,320192.0,349120.0,239168.0,100192.0,21504.0
1.089983344078064,81.0,140992.0,307648.0,340480.0,233088.0,95488.0,18808.0
1.0915499925613403,57.0,168192.0,310144.0,376064.0,227328.0,97152.0,19844.0
1.093083381652832,32.0,168960.0,294784.0,360448.0,221568.0,101088.0,23196.0
1.094599962234497,64.0,164096.0,316288.0,379136.0,209664.0,99728.0,26544.0
1.0960999727249146,80.0,157824.0,332928.0,373632.0,267392.0,98176.0,30864.0
1.0976166725158691,59.0,146304.0,327616.0,333760.0,259520.0,96288.0,30424.0
1.0991333723068237,38.0,167360.0,331136.0,359360.0,269312.0,92704.0,27096.0
1.1006499528884888,62.0,171136.0,327104.0,334528.0,231936.0,105216.0,28016.0
1.1021666526794434,20.0,182592.0,323072.0,342528.0,286080.0,102912.0,27172.0
1.103683352470398,49.0,186624.0,330816.0,350592.0,274176.0,107280.0,26328.0
1.1052000522613525,45.0,156416.0,337600.0,385088.0,254336.0,106560.0,19708.0
1.1067166328430176,28.0,193408.0,351168.0,394176.0,279552.0,109872.0,25776.0
1.108299970626831,36.0,182976.0,353728.0,397376.0,262016.0,102912.0,25072.0
1.1098166704177856,44.0,180864.0,387456.0,394752.0,254656.0,125200.0,31764.0
1.1113333702087402,59.0,183296.0,375744.0,392128.0,252032.0,127424.0,29584.0
1.1128499507904053,45.0,185664.0,371328.0,394368.0,271936.0,103616.0,27404.0
1.1143666505813599,30.0,181184.0,334528.0,365696.0,272064.0,118848.0,26520.0
1.1158833503723145,79.0,176704.0,376576.0,394816.0,292928.0,111616.0,25632.0
1.117400050163269,86.0,167488.0,376128.0,419136.0,284224.0,111920.0,28084.0
1.118916630744934,104.0,196736.0,373120.0,417472.0,287360.0,128480.0,28384.0
1.1204333305358887,129.0,191488.0,366080.0,411072.0,289088.0,131968.0,30800.0
1.1219500303268433,39.0,203840.0,364096.0,417920.0,298432.0,115408.0,23392.0
1.1234666109085083,16.0,188864.0,367232.0,424832.0,256064.0,115152.0,33536.0
1.125016689300537,52.0,195648.0,370368.0,421568.0,289664.0,113744.0,31168.0
1.1265666484832764,45.0,195904.0,385856.0,423296.0,292864.0,113856.0,35408.0
1.128083348274231,38.0,196160.0,389376.0,439808.0,281792.0,113600.0,27448.0
1.1296000480651855,109.0,209536.0,392896.0,438400.0,286080.0,113360.0,35328.0
1.1311166286468506,99.0,174976.0,380992.0,436992.0,290432.0,113472.0,28600.0
1.1326333284378052,59.0,216320.0,385472.0,419584.0,303168.0,113600.0,31400.0
1.1341500282287598,73.0,200384.0,404864.0,424000.0,306048.0,111584.0,34208.0
1.1356666088104248,71.0,195456.0,429888.0,428352.0,316928.0,109568.0,33152.0
1.1371833086013794,49.0,214848.0,423744.0,421056.0,309504.0,111024.0,34960.0
1.138700008392334,34.0,205568.0,371200.0,450112.0,302016.0,126720.0,38560.0
1.1402167081832886,66.0,225664.0,462912.0,451328.0,313856.0,129296.0,28160.0
1.1417332887649536,73.0,212352.0,420160.0,438272.0,276416.0,136384.0,37536.0
1.1433000564575195,52.0,194176.0,406016.0,438464.0,322432.0,132160.0,34880.0
1.1448166370391846,59.0,213568.0,422784.0,440512.0,315456.0,116992.0,30520.0
1.1463333368301392,24.0,215680.0,411648.0,442560.0,321344.0,122864.0,36352.0
1.1478500366210938,78.0,217728.0,418432.0,463360.0,326848.0,129424.0,33392.0
1.1493666172027588,34.0,221504.0,425216.0,467200.0,302912.0,135104.0,30424.0
1.1509000062942505,59.0,229568.0,425152.0,471040.0,324544.0,129744.0,30932.0
1.152400016784668,91.0,201152.0,423552.0,482304.0,332096.0,139456.0,31124.0
1.1539167165756226,69.0,211456.0,408256.0,477440.0,307968.0,118352.0,33568.0
1.1554499864578247,46.0,227264.0,443392.0,488576.0,337024.0,137728.0,33392.0
1.1569499969482422,107.0,233664.0,390208.0,445568.0,308096.0,133568.0,33216.0
1.1584666967391968,122.0,225024.0,470272.0,439872.0,339968.0,140736.0,27864.0
1.1600500345230103,43.0,214144.0,437568.0,481280.0,320768.0,122928.0,28848.0
1.1615666151046753,74.0,211072.0,425216.0,459392.0,329152.0,141056.0,30000.0
1.1630833148956299,68.0,221440.0,484608.0,448448.0,325888.0,113792.0,31152.0
1.1646000146865845,92.0,221184.0,453760.0,459264.0,327104.0,135104.0,26588.0
1.166116714477539,67.0,206848.0,430656.0,470144.0,326464.0,147200.0,30404.0
1.167633295059204,41.0,216256.0,430016.0,475456.0,277632.0,125584.0,30392.0
1.1691499948501587,84.0,225728.0,451648.0,479232.0,318080.0,136128.0,30380.0
1.1706666946411133,102.0,218048.0,451776.0,483008.0,324480.0,133952.0,31280.0
1.1721832752227783,86.0,217984.0,451904.0,486784.0,318272.0,134784.0,32180.0
1.173699975013733,70.0,217920.0,454976.0,493632.0,312128.0,121232.0,31092.0
1.1752166748046875,60.0,225280.0,420160.0,500544.0,314944.0,139648.0,30004.0
1.176800012588501,49.0,229440.0,474368.0,498816.0,317824.0,139456.0,30888.0
1.1783167123794556,64.0,233408.0,476288.0,535040.0,313088.0,137024.0,38544.0
1.1798332929611206,78.0,220224.0,442240.0,528384.0,308352.0,138496.0,39088.0
1.1813499927520752,91.0,238976.0,436608.0,505024.0,346944.0,130992.0,35568.0
1.1828666925430298,28.0,245568.0,445888.0,536576.0,359808.0,128544.0,33008.0
1.1843833923339844,59.0,233920.0,436736.0,497024.0,326016.0,135936.0,33808.0
1.1858999729156494,86.0,232064.0,430592.0,512448.0,344768.0,114608.0,37360.0
1.187416672706604,102.0,207616.0,424448.0,536064.0,370304.0,122288.0,36976.0
1.1889333724975586,63.0,231808.0,441984.0,499520.0,334848.0,129968.0,31240.0
1.1904499530792236,64.0,229184.0,438720.0,487872.0,342400.0,130368.0,36400.0
1.1919666528701782,89.0,225472.0,438720.0,491136.0,340480.0,130784.0,32124.0
1.1935333013534546,81.0,225536.0,452096.0,488448.0,300224.0,138688.0,37744.0
1.1950500011444092,78.0,228352.0,465472.0,485824.0,351296.0,133952.0,38048.0
1.1965833902359009,70.0,227392.0,460416.0,483264.0,324032.0,129280.0,37616.0
1.1980832815170288,80.0,226496.0,455360.0,493760.0,360832.0,131840.0,37184.0
1.1995999813079834,90.0,218880.0,461504.0,504256.0,348736.0,134464.0,32260.0
1.201116681098938,63.0,219904.0,503040.0,501184.0,361472.0,130672.0,32912.0
1.2026333808898926,103.0,220992.0,516992.0,519616.0,357312.0,110000.0,34032.0
1.2041499614715576,74.0,205440.0,459840.0,526336.0,338048.0,159104.0,34944.0
1.2056666612625122,44.0,215488.0,439232.0,518080.0,346880.0,155584.0,35856.0
1.2071833610534668,85.0,224960.0,477312.0,463168.0,318528.0,116592.0,36480.0
1.2086999416351318,95.0,219904.0,468800.0,461696.0,333120.0,164224.0,32912.0
1.2102832794189453,125.0,227200.0,464064.0,495872.0,354176.0,165632.0,35296.0
1.2117999792099,96.0,223104.0,465856.0,492416.0,355136.0,152000.0,37696.0
1.2133166790008545,59.0,237760.0,446144.0,488960.0,330048.0,121824.0,38096.0
1.214833378791809,99.0,241408.0,454464.0,486336.0,330752.0,130000.0,38512.0
1.2163499593734741,56.0,232768.0,462720.0,511296.0,369408.0,134976.0,24844.0
1.2178666591644287,87.0,235520.0,413824.0,505920.0,351936.0,130592.0,38352.0
1.2193833589553833,68.0,227264.0,462720.0,503744.0,356416.0,126224.0,41952.0
1.220900058746338,49.0,224896.0,486336.0,497280.0,348800.0,129792.0,42512.0
1.222416639328003,12.0,230080.0,429632.0,490880.0,340096.0,133376.0,31744.0
1.2239333391189575,90.0,220288.0,439424.0,504768.0,350336.0,132672.0,38272.0
1.225450038909912,92.0,207424.0,481088.0,497152.0,305280.0,132032.0,42560.0
1.2270333766937256,108.0,193280.0,439424.0,505920.0,326720.0,120992.0,32168.0
1.2285499572753906,99.0,236352.0,443584.0,481408.0,331456.0,133632.0,38432.0
1.2300666570663452,48.0,227456.0,468288.0,498752.0,351616.0,132032.0,48640.0
1.2315833568572998,58.0,240832.0,481344.0,513472.0,343104.0,130368.0,48944.0
1.2331000566482544,65.0,212096.0,406656.0,464320.0,324864.0,135552.0,33008.0
1.2346166372299194,57.0,212608.0,412864.0,462080.0,330624.0,145472.0,35440.0
1.236133337020874,48.0,229056.0,468352.0,508288.0,332800.0,144576.0,43712.0
1.2376500368118286,75.0,215232.0,435712.0,507520.0,300736.0,141824.0,35440.0
1.2391666173934937,66.0,222208.0,446592.0,521088.0,324032.0,139072.0,35584.0
1.2406833171844482,57.0,206912.0,433152.0,480512.0,347392.0,128912.0,28288.0
1.2422000169754028,63.0,222464.0,432704.0,477568.0,318016.0,127280.0,33488.0
1.243749976158142,49.0,224128.0,432256.0,480960.0,326656.0,120192.0,27844.0
1.245300054550171,35.0,198656.0,447296.0,474944.0,328640.0,122720.0,32068.0
1.246816635131836,49.0,235648.0,440832.0,484608.0,330624.0,117728.0,36288.0
1.2483333349227905,64.0,227456.0,434368.0,499456.0,324288.0,129056.0,37968.0
1.2498500347137451,66.0,227520.0,438016.0,505344.0,318016.0,131712.0,41168.0
1.2513666152954102,70.0,198592.0,441600.0,463104.0,325312.0,129152.0,31484.0
1.2528833150863647,74.0,220544.0,417984.0,500928.0,321280.0,126624.0,25672.0
1.2544000148773193,80.0,227008.0,428224.0,447104.0,319168.0,124000.0,32992.0
1.255916714668274,74.0,229184.0,423104.0,484160.0,317120.0,142400.0,30280.0
1.257433295249939,68.0,235776.0,417920.0,445312.0,349248.0,140928.0,36032.0
1.2589499950408936,39.0,226112.0,422272.0,495296.0,339136.0,136704.0,33232.0
1.2604666948318481,57.0,216384.0,426624.0,473344.0,328960.0,123520.0,25800.0
1.2620333433151245,75.0,220736.0,462592.0,456256.0,352448.0,114480.0,38576.0
1.263550043106079,43.0,231552.0,463680.0,473984.0,333696.0,122320.0,38496.0
1.2650666236877441,63.0,224704.0,419904.0,479616.0,339392.0,138944.0,29380.0
1.2665833234786987,29.0,218752.0,393920.0,478784.0,316736.0,140608.0,34768.0
1.2681167125701904,37.0,225408.0,458304.0,516096.0,314304.0,142336.0,36608.0
1.269616723060608,39.0,220864.0,416320.0,528128.0,311872.0,132992.0,32008.0
1.271133303642273,73.0,216320.0,483840.0,530688.0,314112.0,160064.0,33120.0
1.2726500034332275,107.0,216512.0,438912.0,496896.0,316352.0,153664.0,25000.0
1.2741667032241821,98.0,240768.0,439488.0,505280.0,347776.0,134848.0,31996.0
1.2756832838058472,90.0,232256.0,471040.0,516800.0,379904.0,147968.0,31600.0
1.2771999835968018,35.0,223744.0,477888.0,505792.0,368448.0,154432.0,31204.0
1.2787833213806152,64.0,237952.0,444032.0,494848.0,348160.0,140160.0,30840.0
1.2803000211715698,79.0,208192.0,437952.0,507712.0,376896.0,138304.0,30476.0
1.2818167209625244,95.0,225024.0,431808.0,520640.0,350080.0,142976.0,33488.0
1.2833333015441895,88.0,235712.0,473536.0,523584.0,377024.0,137216.0,36496.0
1.284850001335144,68.0,223808.0,501440.0,546816.0,352448.0,139840.0,35328.0
1.2863667011260986,75.0,241536.0,485312.0,555520.0,395584.0,143936.0,24564.0
1.2878832817077637,34.0,264256.0,505408.0,564224.0,409280.0,142464.0,42160.0
1.2893999814987183,54.0,256512.0,506560.0,529152.0,365184.0,140928.0,42160.0
1.2909166812896729,61.0,266560.0,507776.0,556288.0,376000.0,173440.0,55008.0
1.2924333810806274,76.0,246528.0,486080.0,539136.0,391296.0,171776.0,41904.0
1.2939499616622925,87.0,257152.0,491520.0,555264.0,378944.0,170752.0,24296.0
1.295533299446106,84.0,256832.0,496960.0,571392.0,366592.0,173632.0,41744.0
1.2970499992370605,71.0,258816.0,555776.0,593152.0,402240.0,171456.0,48320.0
1.2985666990280151,68.0,278144.0,559104.0,580096.0,422528.0,172416.0,50416.0
1.3000832796096802,65.0,279872.0,517120.0,558848.0,434240.0,173696.0,47664.0
1.3015999794006348,81.0,300032.0,521728.0,603648.0,410304.0,154880.0,47840.0
1.3031166791915894,75.0,299392.0,567552.0,630016.0,413184.0,173184.0,48016.0
1.304633378982544,68.0,301760.0,613376.0,655104.0,404352.0,183744.0,47472.0
1.306149959564209,82.0,279808.0,598784.0,612352.0,395520.0,178688.0,30372.0
1.3076666593551636,95.0,307200.0,581376.0,612608.0,414592.0,174528.0,58832.0
1.3091833591461182,117.0,308160.0,641792.0,659200.0,433600.0,170368.0,53584.0
1.3107000589370728,115.0,334720.0,622592.0,634624.0,430272.0,179072.0,41104.0
1.3122667074203491,112.0,319296.0,649216.0,686080.0,458816.0,169088.0,45168.0
1.3137832880020142,74.0,333888.0,599296.0,659968.0,457472.0,184128.0,42448.0
1.3152999877929688,60.0,285312.0,607232.0,633856.0,456064.0,197504.0,41424.0
1.3168166875839233,86.0,326272.0,675840.0,654848.0,452032.0,158336.0,41104.0
1.3183499574661255,91.0,336576.0,659712.0,674560.0,477632.0,164800.0,42320.0
1.319849967956543,97.0,325440.0,663040.0,694272.0,506304.0,205248.0,43552.0
1.3213833570480347,67.0,316800.0,651520.0,715776.0,521984.0,210432.0,55184.0
1.3228833675384521,119.0,289664.0,688384.0,727296.0,437760.0,201344.0,54288.0
1.3243999481201172,134.0,327168.0,685312.0,752640.0,527616.0,196672.0,44528.0
1.3259333372116089,167.0,338944.0,655360.0,741120.0,503872.0,186688.0,44800.0
1.3274500370025635,89.0,322432.0,686848.0,729600.0,520192.0,201920.0,59056.0
1.3289833068847656,147.0,325824.0,653312.0,705792.0,478400.0,205248.0,57824.0
1.3305000066757202,112.0,343488.0,666368.0,739328.0,494016.0,206208.0,58800.0
1.3320167064666748,159.0,369728.0,679424.0,782848.0,535552.0,207168.0,66272.0
1.3335332870483398,94.0,355968.0,778496.0,774656.0,571648.0,210880.0,64416.0
1.3350499868392944,108.0,346112.0,764928.0,784384.0,572928.0,222720.0,57152.0
1.336566686630249,146.0,362752.0,710656.0,755712.0,552192.0,225088.0,51648.0
1.3380833864212036,143.0,363840.0,745472.0,779008.0,559360.0,226496.0,56896.0
1.3395999670028687,105.0,353472.0,729344.0,722432.0,561408.0,211776.0,53344.0
1.3411166667938232,82.0,343104.0,732672.0,830976.0,563456.0,228928.0,50608.0
1.3426333665847778,105.0,362880.0,747776.0,865536.0,570368.0,229440.0,61312.0
1.3441499471664429,76.0,381376.0,741888.0,832768.0,577024.0,230016.0,68336.0
1.3457332849502563,107.0,402368.0,736000.0,839168.0,575744.0,252800.0,63840.0
1.347249984741211,117.0,315072.0,749568.0,854784.0,574976.0,248128.0,66496.0
1.3487666845321655,128.0,392064.0,762880.0,831232.0,574464.0,251456.0,50272.0
1.3502833843231201,142.0,394176.0,719872.0,854528.0,585472.0,249536.0,60800.0
1.3517999649047852,116.0,410752.0,797952.0,872192.0,558336.0,231744.0,66720.0
1.3533166646957397,90.0,414784.0,776192.0,875520.0,577792.0,219776.0,64880.0
1.3548333644866943,96.0,390976.0,861440.0,861440.0,601600.0,269824.0,68160.0
1.3563499450683594,47.0,361920.0,844288.0,910080.0,628736.0,260032.0,75632.0
1.357866644859314,45.0,442112.0,876288.0,904960.0,629760.0,240000.0,80480.0
1.3593833446502686,43.0,416832.0,830976.0,899840.0,619776.0,255936.0,58064.0
1.3609000444412231,95.0,441856.0,878592.0,951808.0,597760.0,257472.0,54656.0
1.3624833822250366,115.0,412160.0,845568.0,969984.0,643328.0,258944.0,68448.0
1.3639999628067017,136.0,414016.0,896256.0,922624.0,647424.0,263424.0,50288.0
1.3655166625976562,120.0,415872.0,873216.0,951296.0,605952.0,267264.0,69968.0
1.3670333623886108,122.0,412736.0,866560.0,988928.0,684800.0,274688.0,63328.0
1.3685499429702759,121.0,409600.0,843264.0,939264.0,682240.0,282112.0,64528.0
1.3700666427612305,121.0,447488.0,892416.0,947968.0,658944.0,276352.0,66672.0
1.371583342552185,124.0,451904.0,831744.0,956672.0,656128.0,246592.0,70848.0
1.3731000423431396,127.0,444032.0,886016.0,940544.0,676864.0,274560.0,65824.0
1.3746166229248047,103.0,445184.0,859136.0,924416.0,605440.0,277504.0,60800.0
1.3761333227157593,134.0,446400.0,882944.0,955648.0,694272.0,261568.0,68976.0
1.3776500225067139,130.0,435328.0,906496.0,986880.0,685568.0,269952.0,63152.0
1.3791999816894531,99.0,456448.0,911104.0,998144.0,652032.0,272448.0,60016.0
1.3807333707809448,68.0,414784.0,934912.0,1023488.0,672256.0,289024.0,67920.0
1.3822499513626099,87.0,448640.0,937728.0,1048832.0,714496.0,300096.0,68928.0
1.3837666511535645,106.0,446336.0,969472.0,1024256.0,744704.0,299328.0,68192.0
1.385283350944519,119.0,444032.0,963584.0,1056512.0,722432.0,281536.0,67456.0
1.3868000507354736,108.0,467136.0,957440.0,1089024.0,747008.0,308096.0,71536.0
1.3883166313171387,194.0,490304.0,1016832.0,1103360.0,774912.0,297728.0,72768.0
1.3898333311080933,182.0,494592.0,1020160.0,1114880.0,762880.0,311360.0,74000.0
1.391366720199585,179.0,498944.0,975872.0,1067008.0,764160.0,300864.0,81440.0
1.392866611480713,149.0,522496.0,1066240.0,1137920.0,765184.0,302912.0,75456.0
1.3943833112716675,119.0,526080.0,1125376.0,1161728.0,783104.0,304896.0,69472.0
1.395900011062622,130.0,486336.0,1081344.0,1206016.0,809728.0,313664.0,66528.0
1.3974833488464355,125.0,543232.0,1154560.0,1228544.0,795392.0,316736.0,93008.0
1.3990000486373901,121.0,565248.0,1157888.0,1155328.0,809216.0,319360.0,97936.0
1.4005166292190552,147.0,603648.0,1187840.0,1257984.0,830976.0,321984.0,77248.0
1.4020333290100098,173.0,558592.0,1172224.0,1290752.0,915968.0,340864.0,90080.0
1.4035500288009644,157.0,574720.0,1156608.0,1323776.0,909056.0,359680.0,84992.0
1.4050666093826294,141.0,586752.0,1175296.0,1287168.0,903936.0,373248.0,100480.0
1.406583309173584,127.0,548864.0,1197824.0,1347840.0,936192.0,389440.0,95792.0
1.4081000089645386,126.0,579840.0,1193472.0,1353472.0,934144.0,381952.0,91088.0
1.4096167087554932,145.0,620288.0,1243904.0,1329152.0,920576.0,383360.0,87840.0
1.4111332893371582,164.0,624640.0,1288192.0,1304576.0,923136.0,343104.0,97376.0
1.4126499891281128,167.0,650496.0,1315328.0,1369088.0,919552.0,354496.0,97680.0
1.4142333269119263,170.0,596992.0,1255680.0,1374208.0,915968.0,335552.0,80416.0
1.4157500267028809,93.0,624384.0,1303808.0,1386240.0,912896.0,343104.0,100944.0
1.417266607284546,176.0,630784.0,1278976.0,1312512.0,876544.0,350720.0,96064.0
1.4187833070755005,260.0,636928.0,1289216.0,1373696.0,922624.0,364352.0,91184.0
1.420300006866455,201.0,622592.0,1285376.0,1356032.0,940544.0,378048.0,107504.0
1.4218167066574097,182.0,611840.0,1195008.0,1340672.0,958464.0,386752.0,109904.0
1.4233332872390747,252.0,585984.0,1261056.0,1331968.0,905472.0,387904.0,102544.0
1.4248499870300293,122.0,590592.0,1344512.0,1362944.0,967680.0,387392.0,100080.0
1.4263666868209839,250.0,595200.0,1287168.0,1356288.0,929280.0,386816.0,95328.0
1.4278833866119385,106.0,631040.0,1294080.0,1349888.0,982016.0,350080.0,101472.0
1.4293999671936035,218.0,625920.0,1163520.0,1420288.0,940032.0,404224.0,99952.0
1.4309666156768799,100.0,621056.0,1277184.0,1382144.0,969984.0,407936.0,118064.0
1.4324833154678345,242.0,613376.0,1257216.0,1344000.0,965632.0,380224.0,112688.0
1.434000015258789,147.0,617984.0,1300736.0,1445120.0,939520.0,393664.0,89552.0
1.4355167150497437,259.0,622592.0,1294848.0,1444096.0,913408.0,396352.0,77232.0
1.4370332956314087,276.0,658432.0,1260288.0,1447168.0,960256.0,411136.0,118544.0
1.4385499954223633,293.0,641024.0,1265152.0,1395712.0,960768.0,411456.0,87152.0
1.4400666952133179,282.0,623872.0,1267200.0,1451264.0,979200.0,395328.0,95776.0
1.441583275794983,272.0,664064.0,1269504.0,1453056.0,923136.0,435072.0,110128.0
1.4430999755859375,167.0,673536.0,1365248.0,1469696.0,974080.0,363392.0,117680.0
1.444616675376892,193.0,724480.0,1355008.0,1435648.0,937984.0,360960.0,90736.0
1.4461333751678467,86.0,696320.0,1308928.0,1454336.0,1030144.0,441280.0,95440.0
1.4477167129516602,166.0,655104.0,1262848.0,1498880.0,1020672.0,375040.0,102720.0
1.4492332935333252,187.0,646912.0,1333760.0,1498112.0,1018880.0,429888.0,97168.0
1.4507499933242798,218.0,717568.0,1344000.0,1518080.0,1006336.0,367232.0,91616.0
1.4522666931152344,190.0,731136.0,1354240.0,1524480.0,1008128.0,398848.0,103248.0
1.453783392906189,181.0,662272.0,1351936.0,1512448.0,980224.0,368512.0,105280.0
1.455299973487854,130.0,700416.0,1349632.0,1500672.0,956160.0,364288.0,107328.0
1.4568166732788086,233.0,685056.0,1335040.0,1495552.0,968704.0,371136.0,100416.0
1.4583333730697632,215.0,626944.0,1320448.0,1422080.0,981248.0,378048.0,93024.0
1.4598499536514282,172.0,703488.0,1276928.0,1470720.0,972800.0,383424.0,82368.0
1.4613666534423828,171.0,671488.0,1233664.0,1393408.0,964352.0,388800.0,88544.0
1.4628833532333374,169.0,657920.0,1263104.0,1438208.0,952064.0,392832.0,96816.0
1.4644666910171509,111.0,612864.0,1276160.0,1404416.0,941312.0,378432.0,99648.0
1.4659833908081055,175.0,634368.0,1289472.0,1299200.0,930560.0,394496.0,94512.0
1.4674999713897705,193.0,569600.0,1270272.0,1342720.0,946688.0,408192.0,103184.0
1.469016671180725,211.0,611840.0,1273600.0,1350144.0,947200.0,371712.0,80704.0
1.4705333709716797,137.0,654080.0,1281280.0,1332736.0,947968.0,374464.0,97760.0
1.4720499515533447,133.0,582912.0,1203968.0,1309440.0,862208.0,381568.0,90992.0
1.4735666513442993,128.0,580096.0,1186560.0,1308416.0,839936.0,368320.0,90384.0
1.475083351135254,128.0,626944.0,1134848.0,1299456.0,907008.0,348992.0,97920.0
1.4766000509262085,129.0,554496.0,1061376.0,1233920.0,875776.0,352960.0,89344.0
1.4781166315078735,100.0,544768.0,1165824.0,1252608.0,858112.0,357184.0,96000.0
1.4796333312988281,122.0,559872.0,1111552.0,1147392.0,782848.0,330368.0,88848.0
1.4812166690826416,135.0,546816.0,1097216.0,1213696.0,822528.0,331840.0,77568.0
1.4827333688735962,148.0,567296.0,1048832.0,1164288.0,754944.0,331072.0,90256.0
1.4842499494552612,141.0,531968.0,1052928.0,1162496.0,764416.0,332992.0,72464.0
1.4857666492462158,133.0,470848.0,1054976.0,1145344.0,797696.0,315328.0,78768.0
1.4872833490371704,126.0,502976.0,951552.0,1062656.0,781056.0,337664.0,70736.0
1.488800048828125,142.0,504448.0,984576.0,1030400.0,731392.0,324032.0,76656.0
1.49031662940979,211.0,433856.0,872704.0,994816.0,690944.0,261312.0,67776.0
1.4918333292007446,198.0,466112.0,1007104.0,1093120.0,718336.0,288192.0,80176.0
1.4933500289916992,157.0,410496.0,912896.0,976128.0,715264.0,275840.0,66928.0
1.4948666095733643,153.0,447360.0,920320.0,901888.0,689664.0,249984.0,70272.0
1.4963833093643188,65.0,429440.0,885248.0,921088.0,635136.0,219776.0,56768.0
1.4979333877563477,164.0,401408.0,770048.0,888320.0,626432.0,261760.0,74080.0
1.4994666576385498,178.0,418880.0,795136.0,883968.0,562176.0,243456.0,66064.0
1.5009833574295044,182.0,393344.0,811520.0,832512.0,548352.0,226432.0,49120.0
1.502500057220459,184.0,378816.0,755968.0,788224.0,525824.0,208512.0,44624.0
1.504016637802124,137.0,335424.0,657920.0,761088.0,497280.0,208512.0,51248.0
1.5055333375930786,141.0,335232.0,647168.0,714496.0,493376.0,175232.0,44048.0
1.5070666074752808,58.0,289152.0,636672.0,672512.0,452608.0,178880.0,49616.0
1.5085666179656982,113.0,321344.0,591872.0,663040.0,449600.0,197120.0,39728.0
1.5100833177566528,154.0,299712.0,541440.0,616960.0,398720.0,161728.0,44496.0
1.5116000175476074,166.0,283072.0,535808.0,589568.0,382784.0,168832.0,34176.0
1.513116717338562,179.0,280064.0,541184.0,566528.0,398720.0,160384.0,38496.0
1.514633297920227,75.0,264960.0,460224.0,479744.0,374464.0,134208.0,39408.0
1.5162166357040405,105.0,232960.0,438720.0,439680.0,308800.0,129296.0,33840.0
1.5177333354949951,134.0,214208.0,444416.0,461248.0,292672.0,127616.0,29104.0
1.5192500352859497,128.0,199616.0,396160.0,419072.0,286976.0,114832.0,26668.0
1.5207666158676147,140.0,177216.0,375488.0,354240.0,254912.0,103392.0,29124.0
1.5222833156585693,35.0,166912.0,336640.0,390912.0,240128.0,96912.0,34960.0
1.523800015449524,70.0,166656.0,267584.0,324992.0,223232.0,81792.0,17268.0
1.5253167152404785,92.0,156288.0,320896.0,316864.0,229568.0,60976.0,20880.0
1.5268332958221436,83.0,131584.0,232640.0,267200.0,183808.0,87024.0,17060.0
1.5283499956130981,63.0,119216.0,222272.0,265792.0,196032.0,64192.0,14980.0
1.5298666954040527,128.0,107584.0,207680.0,238208.0,142208.0,50336.0,14336.0
1.5313832759857178,102.0,111632.0,193280.0,199808.0,148992.0,64560.0,13700.0
1.5329666137695312,76.0,78352.0,209664.0,199232.0,130304.0,56992.0,6849.0
1.5344833135604858,88.0,79888.0,175552.0,180864.0,110032.0,45856.0,13864.0
1.5360000133514404,74.0,69664.0,154112.0,163712.0,115776.0,33264.0,10568.0
1.537516713142395,82.0,78512.0,131136.0,149824.0,111328.0,33712.0,10008.0
1.53903329372406,60.0,55648.0,131136.0,154368.0,84128.0,36208.0,5981.0
1.5405499935150146,54.0,65296.0,126096.0,122304.0,84560.0,31408.0,6270.0
1.5420666933059692,47.0,52432.0,107328.0,115024.0,68064.0,30240.0,8900.0
1.5435832738876343,54.0,45552.0,88688.0,92304.0,78016.0,34928.0,7175.0
1.5450999736785889,51.0,42304.0,69344.0,83040.0,68512.0,25172.0,6579.0
1.5466166734695435,48.0,39200.0,83024.0,76096.0,68544.0,31012.0,4335.0
1.548133373260498,34.0,33008.0,81200.0,99392.0,69152.0,20564.0,5999.0
1.5497000217437744,19.0,32240.0,73888.0,61776.0,60880.0,22936.0,5623.0
1.551216721534729,118.0,29360.0,79840.0,67472.0,45248.0,20156.0,6732.0
1.552733302116394,130.0,34720.0,68768.0,70416.0,42576.0,7406.0,5820.0
1.5542500019073486,57.0,22004.0,50416.0,69632.0,48400.0,16988.0,3390.0
1.5557833909988403,53.0,23472.0,60864.0,56176.0,39632.0,18648.0,3788.0
1.5572832822799683,37.0,23716.0,49472.0,61888.0,42640.0,14276.0,1998.0
1.55881667137146,55.0,24948.0,43776.0,47968.0,39200.0,10604.0,3160.0
1.5603166818618774,74.0,18052.0,40464.0,41744.0,31220.0,10040.0,4321.0
1.561833381652832,342.0,23172.0,48256.0,47264.0,30240.0,12860.0,3787.0
1.5633666515350342,210.0,26624.0,35648.0,32096.0,29948.0,11060.0,1156.0
1.5648666620254517,78.0,16096.0,36192.0,40192.0,24384.0,10928.0,1019.0
1.5664499998092651,45.0,18532.0,35712.0,41600.0,31624.0,10612.0,2294.0
1.5679666996002197,52.0,14256.0,34224.0,34448.0,26636.0,13572.0,4654.0
1.5694832801818848,40.0,18776.0,38224.0,35376.0,27128.0,11668.0,3787.0
1.5709999799728394,53.0,17332.0,24808.0,36432.0,27092.0,9760.0,1788.0
1.572516679763794,37.0,17244.0,25408.0,38272.0,20244.0,12732.0,1863.0
1.5740333795547485,57.0,17792.0,41376.0,31260.0,17776.0,8828.0,2478.0
1.5755499601364136,8.0,17728.0,33904.0,31140.0,17868.0,6589.0,3093.0
1.5770666599273682,48.0,17664.0,26132.0,27904.0,18780.0,9204.0,135.0
1.5785833597183228,42.0,18156.0,25184.0,25164.0,21012.0,5851.0,2172.0
1.5801000595092773,30.0,8468.0,22208.0,26668.0,22080.0,6539.0,2014.0
1.5816166400909424,20.0,15100.0,24352.0,29176.0,22008.0,4194.0,966.0
1.5831999778747559,35.0,14148.0,24944.0,31684.0,19984.0,1849.0,894.0
1.5847166776657104,38.0,14760.0,25536.0,31812.0,15088.0,7248.0,1770.0
1.586233377456665,38.0,15376.0,21352.0,29072.0,16444.0,6249.0,1000.0
1.58774995803833,22.0,8027.0,26236.0,28708.0,13404.0,7859.0,231.0
1.5892666578292847,12.0,14480.0,27052.0,25212.0,17152.0,3857.0,931.0
1.5907833576202393,34.0,11548.0,27860.0,20160.0,18780.0,6398.0,1542.0
1.5923000574111938,40.0,9700.0,19248.0,22588.0,6533.0,7186.0,43.0
1.5938166379928589,47.0,15796.0,17228.0,23512.0,22184.0,8264.0,2608.0
1.5953333377838135,27.0,11580.0,21196.0,19584.0,8804.0,4097.0,3779.0
1.596850037574768,0.0,15772.0,20432.0,20884.0,13640.0,2357.0,65.0
1.598366618156433,41.0,8134.0,13248.0,26800.0,16884.0,2969.0,841.0
1.599933385848999,40.0,4079.0,14384.0,8252.0,13080.0,3068.0,33.0
1.601449966430664,37.0,7194.0,16368.0,18944.0,13824.0,5748.0,1641.0
1.6029833555221558,40.0,7197.0,16608.0,20644.0,9716.0,6280.0,1882.0
1.6044833660125732,25.0,7825.0,16848.0,15352.0,9960.0,6853.0,1069.0
1.6059999465942383,22.0,7007.0,20756.0,20104.0,10900.0,2781.0,643.0
1.6075166463851929,22.0,6189.0,18668.0,13812.0,10828.0,6602.0,2791.0
1.6090500354766846,22.0,6759.0,16584.0,13324.0,10760.0,3891.0,2992.0
1.610550045967102,84.0,7957.0,21320.0,15500.0,11120.0,4808.0,1531.0
1.612066626548767,50.0,9524.0,14964.0,16076.0,11484.0,3148.0,2423.0
1.6135833263397217,16.0,9908.0,15152.0,17000.0,8196.0,3871.0,608.0
1.6151000261306763,54.0,3586.0,12152.0,16548.0,8736.0,4595.0,1656.0
1.6166666746139526,38.0,7088.0,18128.0,16100.0,11864.0,3454.0,448.0
1.6181999444961548,67.0,6451.0,17284.0,10920.0,10408.0,2313.0,688.0
1.6197166442871094,25.0,5299.0,16792.0,10252.0,5997.0,2099.0,51.0
1.621233344078064,60.0,4887.0,13676.0,12924.0,9076.0,4641.0,41.0
1.6227500438690186,39.0,6381.0,10560.0,12436.0,8284.0,5327.0,1016.0
1.6242666244506836,5.0,7175.0,7380.0,11952.0,7644.0,4169.0,1013.0
1.6257833242416382,23.0,6692.0,14464.0,9268.0,6994.0,6444.0,659.0
1.6273000240325928,18.0,4164.0,8712.0,14180.0,7249.0,1168.0,305.0
1.6288167238235474,32.0,6702.0,8720.0,9548.0,7503.0,4675.0,424.0
1.6303333044052124,24.0,6171.0,7904.0,15300.0,6666.0,2518.0,543.0
1.631850004196167,25.0,5639.0,15700.0,13524.0,9388.0,1163.0,857.0
1.6333667039871216,11.0,6898.0,13984.0,11752.0,13528.0,4544.0,1063.0
1.634950041770935,30.0,4248.0,12488.0,11276.0,13932.0,4313.0,1154.0
1.6364666223526,63.0,5529.0,14536.0,13724.0,9996.0,2528.0,2210.0
1.6379833221435547,50.0,5735.0,12508.0,9536.0,8724.0,3474.0,1780.0
1.6395000219345093,29.0,4354.0,9744.0,7852.0,9204.0,2561.0,1350.0
1.6410167217254639,32.0,6164.0,15580.0,13264.0,8304.0,1970.0,1937.0
1.642533302307129,35.0,5660.0,13380.0,7518.0,4402.0,1379.0,2927.0
1.6440500020980835,32.0,5156.0,17324.0,12272.0,6476.0,3477.0,53.0
1.645566701889038,29.0,3403.0,8512.0,11364.0,4516.0,3305.0,1514.0
1.6470832824707031,17.0,4953.0,13852.0,7253.0,4654.0,2854.0,914.0
1.6485999822616577,40.0,2772.0,13396.0,14436.0,6491.0,3029.0,1761.0
1.6501166820526123,42.0,3377.0,13456.0,11852.0,8476.0,3205.0,19.0
1.6517000198364258,24.0,3309.0,6902.0,6031.0,8018.0,1578.0,1827.0
1.6532167196273804,5.0,5478.0,12200.0,9848.0,10624.0,3398.0,38.0
1.6547333002090454,54.0,4531.0,11532.0,9184.0,3920.0,1817.0,1402.0
1.65625,11.0,3585.0,8856.0,9252.0,4548.0,1789.0,223.0
1.6577666997909546,8.0,4364.0,8888.0,9324.0,7481.0,1761.0,461.0
1.6592832803726196,6.0,5164.0,6596.0,8456.0,8380.0,2082.0,461.0
1.6607999801635742,53.0,5964.0,5494.0,11408.0,4402.0,2678.0,461.0
1.6623166799545288,47.0,5023.0,6890.0,9992.0,9192.0,2894.0,899.0
1.6638333797454834,42.0,4082.0,8288.0,8572.0,5828.0,3110.0,922.0
1.6653499603271484,38.0,4789.0,8704.0,11428.0,7771.0,498.0,944.0
1.666866660118103,52.0,635.0,9404.0,6719.0,6716.0,3038.0,1432.0
1.6684499979019165,42.0,6829.0,8900.0,7358.0,3748.0,4166.0,49.0
1.669966697692871,33.0,6237.0,8480.0,6839.0,11700.0,4063.0,1316.0
1.6714832782745361,49.0,2964.0,8061.0,10732.0,10680.0,2696.0,810.0
1.6729999780654907,57.0,474.0,7869.0,9744.0,10420.0,4139.0,515.0
1.6745166778564453,70.0,4349.0,8428.0,10812.0,8736.0,2287.0,1356.0
1.6760333776474,10.0,5382.0,8984.0,6217.0,3497.0,3836.0,38.0
1.677549958229065,42.0,4071.0,9144.0,5806.0,10828.0,821.0,73.0
1.6790666580200195,18.0,3903.0,8752.0,5659.0,9260.0,1471.0,56.0
1.6805833578109741,30.0,5237.0,8023.0,5513.0,4807.0,4128.0,787.0
1.6821000576019287,42.0,568.0,7295.0,6155.0,7222.0,1688.0,758.0
1.6836166381835938,37.0,7041.0,7012.0,6797.0,9492.0,2830.0,1141.0
1.6851999759674072,31.0,2106.0,8029.0,6575.0,4049.0,2004.0,19.0
1.6867166757583618,20.0,3279.0,5157.0,4862.0,8284.0,1482.0,28.0
1.6882333755493164,20.0,6881.0,11028.0,10812.0,6329.0,979.0,628.0
1.6897499561309814,20.0,2650.0,10436.0,9620.0,8892.0,1410.0,318.0
1.691266655921936,48.0,3887.0,7760.0,8596.0,7134.0,1102.0,8.0
1.6927833557128906,47.0,1295.0,5457.0,5458.0,6527.0,795.0,23.0
1.6943000555038452,23.0,2899.0,6051.0,11624.0,9072.0,1096.0,50.0
1.6958166360855103,35.0,5655.0,7019.0,9960.0,5516.0,831.0,76.0
1.6973333358764648,30.0,4554.0,7988.0,4938.0,7277.0,567.0,189.0
1.6988500356674194,33.0,3452.0,7074.0,10044.0,4915.0,679.0,301.0
1.7003666162490845,35.0,4692.0,6159.0,6044.0,2592.0,791.0,157.0
1.701949954032898,39.0,2774.0,5478.0,6676.0,4569.0,1089.0,13.0
1.7034666538238525,14.0,4887.0,4982.0,7349.0,2630.0,1873.0,30.0
1.7049833536148071,51.0,5913.0,4487.0,5965.0,3977.0,1746.0,46.0
1.7065000534057617,30.0,5628.0,6291.0,4581.0,4676.0,1580.0,26.0
1.7080166339874268,24.0,3744.0,6871.0,4796.0,5083.0,1546.0,5.0
1.7095333337783813,17.0,3550.0,5276.0,5010.0,3425.0,4118.0,203.0
1.711050033569336,39.0,2771.0,4831.0,2605.0,4100.0,4963.0,401.0
1.712566614151001,52.0,2551.0,7913.0,2917.0,3655.0,712.0,366.0
1.7140833139419556,39.0,2330.0,6248.0,3229.0,3210.0,1852.0,99.0
1.7156000137329102,24.0,2425.0,4584.0,5909.0,3097.0,1658.0,73.0
1.7171167135238647,38.0,2519.0,1272.0,11076.0,3326.0,1988.0,47.0
1.7186833620071411,29.0,1985.0,6023.0,9760.0,3555.0,2132.0,51.0
1.7201999425888062,0.0,1450.0,4312.0,6400.0,4299.0,599.0,54.0
1.7217166423797607,43.0,1211.0,6492.0,4777.0,5042.0,1492.0,0.0
1.7232333421707153,25.0,972.0,6624.0,5292.0,4544.0,1323.0,31.0
1.72475004196167,7.0,1007.0,4291.0,3434.0,5590.0,1303.0,62.0
1.726266622543335,14.0,3189.0,6980.0,3717.0,6450.0,1114.0,35.0
1.7277833223342896,22.0,2408.0,5498.0,4001.0,7313.0,926.0,1315.0
1.7293000221252441,13.0,1627.0,4017.0,8832.0,3745.0,1423.0,1006.0
1.7308167219161987,5.0,1966.0,4853.0,7539.0,2747.0,1920.0,891.0
1.7323333024978638,11.0,2261.0,3131.0,5077.0,4319.0,35.0,26.0
1.7338500022888184,11.0,2556.0,3281.0,6096.0,5545.0,3815.0,39.0
1.7354166507720947,10.0,3048.0,4943.0,4770.0,7074.0,2832.0,14.0
1.7369500398635864,38.0,2933.0,7116.0,5693.0,7369.0,769.0,22.0
1.7384666204452515,28.0,2817.0,9076.0,6617.0,3929.0,2132.0,89.0
1.739983320236206,19.0,2769.0,8620.0,8276.0,2762.0,1423.0,68.0
1.7415000200271606,7.0,579.0,5431.0,9172.0,3612.0,377.0,47.0
1.7430167198181152,7.0,1284.0,1230.0,8296.0,2502.0,1109.0,24.0
1.7445333003997803,30.0,2951.0,6213.0,6512.0,3129.0,1342.0,32.0
1.7460500001907349,33.0,3513.0,6310.0,6328.0,5655.0,1699.0,32.0
1.7475666999816895,26.0,2048.0,4886.0,9016.0,6263.0,1992.0,11.0
1.7490832805633545,25.0,2062.0,6982.0,4888.0,6385.0,2286.0,29.0
1.750599980354309,25.0,511.0,6823.0,6303.0,3763.0,119.0,19.0
1.7521166801452637,38.0,1878.0,6665.0,8748.0,2914.0,2345.0,10.0
1.7537000179290771,29.0,3040.0,3245.0,6786.0,5533.0,2472.0,5.0
1.7552167177200317,20.0,5087.0,5646.0,4538.0,3045.0,1220.0,220.0
1.7567332983016968,20.0,3583.0,2188.0,3037.0,1646.0,1722.0,112.0
1.7582499980926514,16.0,6359.0,3308.0,4371.0,4493.0,2092.0,5.0
1.759766697883606,11.0,5599.0,4428.0,6869.0,644.0,2390.0,26.0
1.761283278465271,44.0,4023.0,5408.0,5642.0,3331.0,924.0,23.0
1.7627999782562256,78.0,2941.0,4230.0,4414.0,4623.0,555.0,21.0
1.7643166780471802,63.0,2953.0,3052.0,4605.0,2307.0,632.0,19.0
1.7658333778381348,23.0,2319.0,3684.0,5825.0,3285.0,335.0,9.0
1.7673499584197998,45.0,2322.0,3988.0,5457.0,4115.0,433.0,0.0
1.7688666582107544,22.0,2139.0,4292.0,5169.0,3146.0,1174.0,33.0
1.7704333066940308,22.0,2372.0,2472.0,4396.0,2177.0,1915.0,177.0
1.7719500064849854,25.0,2605.0,3399.0,5768.0,2524.0,2689.0,94.0
1.77346670627594,26.0,128.0,3775.0,3902.0,2754.0,27.0,11.0
1.774983286857605,23.0,1095.0,4151.0,5879.0,2984.0,558.0,24.0
1.7764999866485596,20.0,3114.0,4950.0,6308.0,1917.0,1797.0,38.0
1.7780166864395142,12.0,1931.0,4800.0,6736.0,850.0,17.0,37.0
1.7795333862304688,30.0,1296.0,4478.0,3862.0,1506.0,2427.0,13.0
1.7810499668121338,0.0,1439.0,3228.0,5344.0,3067.0,2702.0,23.0
1.7825666666030884,27.0,2121.0,3374.0,1360.0,2997.0,2477.0,5.0
1.78410005569458,25.0,1279.0,4541.0,3130.0,2927.0,475.0,17.0
1.785599946975708,43.0,914.0,3980.0,9388.0,3239.0,1546.0,43.0
1.7871832847595215,32.0,1767.0,3418.0,7314.0,3551.0,1298.0,35.0
1.788699984550476,21.0,1697.0,4278.0,4249.0,2222.0,958.0,27.0
1.7902166843414307,18.0,1627.0,2516.0,5170.0,894.0,619.0,5.0
1.7917333841323853,16.0,658.0,2942.0,8352.0,3669.0,24.0,30.0
1.7932499647140503,18.0,2557.0,3368.0,3542.0,2324.0,811.0,56.0
1.7947666645050049,20.0,2553.0,2761.0,874.0,3054.0,39.0,443.0
1.7962833642959595,20.0,1222.0,2916.0,7032.0,1753.0,471.0,251.0
1.7977999448776245,21.0,1529.0,4171.0,3469.0,956.0,2307.0,59.0
1.799316644668579,18.0,2669.0,4085.0,5928.0,159.0,1932.0,39.0
1.8008333444595337,16.0,1155.0,4049.0,5950.0,2342.0,1980.0,19.0
1.8023500442504883,6.0,1787.0,629.0,2340.0,790.0,49.0,33.0
1.8039333820343018,28.0,1533.0,5004.0,2831.0,1379.0,1559.0,23.0
1.8054499626159668,23.0,777.0,4599.0,4265.0,1967.0,573.0,904.0
1.8069666624069214,15.0,1199.0,6093.0,5962.0,3065.0,19.0,1036.0
1.808483362197876,7.0,1621.0,4956.0,6042.0,2334.0,1165.0,40.0
1.8100166320800781,18.0,1322.0,4205.0,4580.0,3183.0,1017.0,794.0
1.8115333318710327,0.0,1022.0,4777.0,7291.0,2968.0,90.0,1284.0
1.8130333423614502,17.0,1586.0,3796.0,6278.0,2752.0,1093.0,93.0
1.8145666122436523,15.0,3229.0,1028.0,1304.0,3642.0,1391.0,17.0
1.816083312034607,14.0,2775.0,4454.0,2848.0,3777.0,701.0,1813.0
1.8176000118255615,30.0,1960.0,2760.0,6249.0,3398.0,1802.0,925.0
1.819100022315979,47.0,1543.0,3079.0,1348.0,3299.0,2187.0,448.0
1.8206833600997925,54.0,808.0,4358.0,2677.0,3027.0,807.0,638.0
1.8221999406814575,25.0,1260.0,5900.0,6205.0,2755.0,1244.0,16.0
1.8237333297729492,14.0,2163.0,4902.0,2563.0,479.0,1054.0,348.0
1.8252500295639038,20.0,91.0,5274.0,4390.0,1901.0,955.0,192.0
1.8267500400543213,29.0,1883.0,5646.0,5684.0,3165.0,0.0,37.0
1.8282833099365234,17.0,2457.0,2340.0,3958.0,3591.0,1297.0,16.0
1.829800009727478,15.0,2677.0,4627.0,4036.0,1811.0,1430.0,38.0
1.8313167095184326,13.0,2040.0,3416.0,3512.0,1785.0,826.0,29.0
1.8328332901000977,10.0,1255.0,2873.0,4573.0,502.0,1719.0,39.0
1.8343499898910522,39.0,2784.0,2330.0,2375.0,2836.0,24.0,40.0
1.8358666896820068,40.0,2624.0,2120.0,2979.0,2442.0,1256.0,64.0
1.837416648864746,42.0,1401.0,1911.0,4538.0,2433.0,969.0,487.0
1.8389333486557007,29.0,3520.0,2503.0,4068.0,3540.0,1051.0,1020.0
1.8404500484466553,14.0,2302.0,1777.0,4809.0,3861.0,749.0,533.0
1.8419500589370728,13.0,2436.0,1051.0,5189.0,3937.0,674.0,46.0
1.843483328819275,5.0,1323.0,1778.0,1970.0,4012.0,46.0,59.0
1.8450000286102295,19.0,198.0,2505.0,4012.0,3383.0,562.0,618.0
1.8465166091918945,21.0,1410.0,4674.0,3871.0,2753.0,1077.0,8.0
1.8480333089828491,24.0,2431.0,4829.0,2787.0,2806.0,1164.0,19.0
1.8495500087738037,29.0,1781.0,4888.0,2180.0,2820.0,1250.0,37.0
1.8510667085647583,34.0,2427.0,4628.0,1016.0,2835.0,911.0,51.0
1.8525832891464233,16.0,1411.0,4368.0,2685.0,2588.0,17.0,51.0
1.854116678237915,21.0,1774.0,4070.0,3404.0,2341.0,266.0,10.0
1.8556333780288696,27.0,1456.0,3005.0,4123.0,84.0,765.0,584.0
1.8571499586105347,40.0,1137.0,2944.0,2701.0,3234.0,876.0,1098.0
1.8586666584014893,45.0,479.0,3296.0,1279.0,1588.0,1013.0,907.0
1.8601833581924438,23.0,1918.0,3649.0,5173.0,3328.0,1416.0,396.0
1.8617000579833984,28.0,1905.0,2007.0,2916.0,3513.0,2263.0,718.0
1.8632166385650635,29.0,2084.0,3003.0,3072.0,3250.0,2179.0,5.0
1.864733338356018,21.0,1590.0,4556.0,4044.0,3565.0,703.0,0.0
1.8662500381469727,66.0,1095.0,3595.0,2870.0,3881.0,793.0,544.0
1.8677666187286377,54.0,305.0,3415.0,1697.0,3947.0,1374.0,18.0
1.8692833185195923,43.0,1877.0,3216.0,4629.0,1042.0,1955.0,25.0
1.8708666563034058,27.0,2030.0,2398.0,3222.0,449.0,1639.0,0.0
1.8723833560943604,30.0,2182.0,1580.0,3253.0,2478.0,1323.0,500.0
1.873900055885315,41.0,1905.0,2742.0,2227.0,2325.0,272.0,256.0
1.87541663646698,37.0,1627.0,2013.0,2062.0,2242.0,12.0,13.0
1.8769333362579346,18.0,1596.0,1283.0,2386.0,2524.0,65.0,58.0
1.8784500360488892,27.0,1566.0,1721.0,2886.0,2806.0,35.0,30.0
1.8799666166305542,21.0,1097.0,2159.0,3080.0,743.0,6.0,15.0
1.8814833164215088,19.0,629.0,1515.0,2921.0,2697.0,1666.0,0.0
1.8830000162124634,17.0,508.0,871.0,2763.0,1273.0,1286.0,35.0
1.884516716003418,0.0,1123.0,742.0,2937.0,2907.0,907.0,30.0
1.886033296585083,10.0,1162.0,1295.0,3112.0,1130.0,772.0,26.0
1.8875833749771118,21.0,456.0,1586.0,869.0,586.0,1293.0,30.0
1.889116644859314,29.0,671.0,1876.0,1621.0,43.0,185.0,34.0
1.8906500339508057,25.0,1315.0,5233.0,4459.0,3457.0,12.0,28.0
1.8921500444412231,20.0,762.0,5915.0,3903.0,4448.0,1474.0,23.0
1.8936666250228882,31.0,1550.0,2488.0,2543.0,1892.0,20.0,34.0
1.8951833248138428,20.0,1345.0,4580.0,4377.0,59.0,926.0,34.0
1.8967000246047974,10.0,32.0,1993.0,4072.0,4013.0,1489.0,396.0
1.898216724395752,11.0,516.0,3437.0,2104.0,841.0,1608.0,616.0
1.899749994277954,13.0,1885.0,3024.0,2092.0,847.0,29.0,344.0
1.9012500047683716,48.0,1513.0,2516.0,2457.0,863.0,1102.0,455.0
1.9027667045593262,50.0,1642.0,782.0,2041.0,879.0,725.0,13.0
1.9042832851409912,36.0,1361.0,3270.0,1894.0,1376.0,441.0,7.0
1.9058666229248047,45.0,2074.0,377.0,1193.0,1874.0,40.0,13.0
1.9073833227157593,53.0,2788.0,2483.0,896.0,1790.0,566.0,460.0
1.9089000225067139,20.0,35.0,1902.0,599.0,1707.0,196.0,545.0
1.9104167222976685,7.0,1929.0,1556.0,1987.0,1966.0,33.0,26.0
1.9119333028793335,26.0,2682.0,472.0,1859.0,2224.0,853.0,35.0
1.913450002670288,0.0,1625.0,1839.0,2539.0,2616.0,439.0,22.0
1.9149667024612427,3.0,848.0,1107.0,2911.0,51.0,25.0,22.0
1.9164832830429077,6.0,338.0,1575.0,3284.0,2369.0,1078.0,22.0
1.9179999828338623,11.0,570.0,2044.0,2661.0,3217.0,43.0,7.0
1.919516682624817,16.0,801.0,2830.0,3407.0,2106.0,34.0,606.0
1.9210333824157715,19.0,1274.0,2227.0,5096.0,3157.0,25.0,501.0
1.9226000308990479,39.0,1514.0,1623.0,865.0,2874.0,679.0,26.0
1.924116611480713,31.0,33.0,1673.0,571.0,2592.0,735.0,418.0
1.9256333112716675,24.0,2170.0,2050.0,3349.0,2983.0,229.0,0.0
1.927150011062622,25.0,918.0,921.0,3118.0,1680.0,659.0,23.0
1.9286667108535767,31.0,353.0,3534.0,1615.0,2834.0,45.0,22.0
1.9301832914352417,32.0,1051.0,3016.0,3669.0,609.0,33.0,32.0
1.9316999912261963,28.0,762.0,2499.0,3374.0,226.0,478.0,31.0
1.9332166910171509,20.0,474.0,2793.0,1914.0,1335.0,923.0,30.0
1.9347333908081055,5.0,671.0,2450.0,1129.0,695.0,1082.0,18.0
1.9362499713897705,28.0,868.0,793.0,1078.0,55.0,606.0,5.0
1.9377833604812622,6.0,809.0,3470.0,313.0,1778.0,6.0,15.0
1.9393500089645386,24.0,750.0,2781.0,825.0,1811.0,1316.0,12.0
1.9408667087554932,17.0,1304.0,2092.0,1337.0,988.0,0.0,10.0
1.9423832893371582,10.0,1419.0,4184.0,3730.0,781.0,1592.0,5.0
1.9438999891281128,14.0,1533.0,3694.0,3088.0,574.0,16.0,7.0
1.9454166889190674,19.0,2316.0,3004.0,2446.0,1000.0,83.0,7.0
1.946933388710022,33.0,182.0,2234.0,744.0,1425.0,1209.0,7.0
1.948449969291687,25.0,813.0,2189.0,2423.0,1861.0,720.0,8.0
1.9499666690826416,17.0,764.0,2144.0,1352.0,2297.0,1386.0,39.0
1.9514833688735962,31.0,2229.0,2296.0,844.0,1950.0,1401.0,42.0
1.9529999494552612,15.0,2321.0,2448.0,336.0,1604.0,1416.0,851.0
1.9545166492462158,0.0,838.0,1425.0,817.0,822.0,1538.0,711.0
1.9560832977294922,22.0,1614.0,1570.0,1460.0,1974.0,1661.0,656.0
1.9575999975204468,15.0,1012.0,4820.0,2104.0,858.0,1695.0,37.0
1.9591166973114014,26.0,1914.0,5659.0,2057.0,2163.0,1312.0,21.0
1.9606499671936035,28.0,283.0,3517.0,2380.0,1824.0,928.0,5.0
1.962149977684021,5.0,109.0,612.0,17.0,1486.0,1005.0,38.0
1.9636666774749756,6.0,2301.0,4506.0,640.0,25.0,29.0,9.0
1.9651833772659302,28.0,1143.0,1748.0,677.0,2324.0,26.0,5.0
1.9666999578475952,14.0,1780.0,951.0,2012.0,22.0,0.0,10.0
1.9682166576385498,13.0,1532.0,5104.0,3347.0,2133.0,19.0,5.0
1.9697333574295044,12.0,827.0,2149.0,3610.0,810.0,25.0,14.0
1.971250057220459,29.0,1665.0,2151.0,549.0,1455.0,22.0,23.0
1.972833275794983,47.0,844.0,3668.0,5187.0,2048.0,19.0,20.0
1.9743499755859375,42.0,1544.0,1328.0,3433.0,1550.0,16.0,18.0
1.975866675376892,41.0,14.0,3540.0,55.0,1052.0,14.0,5.0
1.9773833751678467,40.0,44.0,3296.0,3343.0,1478.0,550.0,132.0
1.9788999557495117,14.0,1149.0,939.0,3385.0,493.0,288.0,90.0
1.9804166555404663,59.0,842.0,2634.0,2918.0,522.0,26.0,49.0
1.981933355331421,5.0,32.0,3140.0,2084.0,1268.0,5.0,522.0
1.9834500551223755,16.0,618.0,2607.0,3846.0,2534.0,21.0,410.0
1.9849666357040405,0.0,1204.0,3084.0,426.0,2922.0,105.0,5.0
1.9864833354949951,0.0,32.0,2097.0,4550.0,916.0,894.0,19.0
1.9880000352859497,0.0,368.0,530.0,2094.0,1298.0,475.0,33.0
1.9895833730697632,10.0,705.0,588.0,394.0,2034.0,56.0,23.0
1.9910999536514282,20.0,349.0,2842.0,3982.0,2919.0,592.0,13.0
1.9926166534423828,15.0,183.0,1661.0,798.0,2258.0,427.0,10.0
1.9941333532333374,10.0,17.0,1912.0,2731.0,2041.0,760.0,7.0
1.995650053024292,48.0,327.0,2783.0,1327.0,1823.0,874.0,11.0
1.997166633605957,59.0,637.0,3146.0,3901.0,2302.0,26.0,18.0
1.9986833333969116,5.0,677.0,2057.0,2559.0,324.0,449.0,25.0
2.000200033187866,57.0,718.0,898.0,1216.0,983.0,872.0,18.0
2.0017166137695312,17.0,676.0,2588.0,2812.0,625.0,308.0,11.0
2.0032334327697754,24.0,634.0,3543.0,2924.0,1151.0,389.0,11.0
2.0047500133514404,11.0,1153.0,3965.0,1574.0,719.0,470.0,11.0
2.0062999725341797,19.0,1059.0,1284.0,1801.0,2535.0,620.0,16.0
2.007833242416382,11.0,966.0,2504.0,2029.0,2384.0,771.0,21.0
2.009350061416626,6.0,747.0,4030.0,1254.0,2240.0,48.0,31.0
2.010866641998291,48.0,527.0,345.0,6.0,2096.0,615.0,29.0
2.012383222579956,35.0,1725.0,3187.0,1092.0,347.0,475.0,27.0
2.0139000415802,22.0,1876.0,4492.0,918.0,417.0,336.0,21.0
2.0154166221618652,44.0,30.0,2175.0,744.0,1549.0,1220.0,15.0
2.0169334411621094,24.0,783.0,4013.0,1423.0,12.0,1475.0,10.0
2.0184500217437744,53.0,1443.0,478.0,1051.0,1612.0,798.0,347.0
2.0199832916259766,5.0,665.0,2097.0,679.0,1746.0,1035.0,685.0
2.0214834213256836,12.0,1173.0,525.0,831.0,2552.0,18.0,357.0
2.0230166912078857,16.0,1029.0,3064.0,984.0,729.0,560.0,28.0
2.024549961090088,23.0,35.0,1875.0,53.0,1259.0,938.0,482.0
2.026066780090332,28.0,261.0,2969.0,1105.0,1856.0,48.0,350.0
2.027583360671997,33.0,2070.0,2228.0,2156.0,568.0,660.0,217.0
2.029099941253662,8.0,1563.0,1010.0,1850.0,2853.0,417.0,29.0
2.0306167602539062,42.0,344.0,2553.0,2133.0,3086.0,1075.0,11.0
2.0321333408355713,45.0,557.0,1109.0,1957.0,2717.0,657.0,46.0
2.0336499214172363,26.0,799.0,622.0,1781.0,916.0,238.0,23.0
2.0351667404174805,16.0,285.0,3194.0,1422.0,1918.0,38.0,354.0
2.0366833209991455,0.0,762.0,2092.0,1063.0,2074.0,163.0,192.0
2.0381999015808105,37.0,636.0,990.0,1047.0,2229.0,30.0,30.0
2.0397167205810547,38.0,509.0,468.0,657.0,1405.0,25.0,18.0
2.041300058364868,23.0,823.0,3042.0,1429.0,2183.0,21.0,133.0
2.042816638946533,13.0,1137.0,3480.0,2202.0,1638.0,158.0,9.0
2.0443332195281982,28.0,1158.0,975.0,1896.0,685.0,83.0,6.0
2.0458500385284424,18.0,43.0,13.0,1720.0,614.0,8.0,5.0
2.0473666191101074,5.0,1695.0,2667.0,1424.0,1620.0,28.0,10.0
2.0488834381103516,23.0,1103.0,2081.0,1327.0,1741.0,48.0,15.0
2.0504000186920166,33.0,511.0,1495.0,1230.0,1420.0,592.0,10.0
2.0519165992736816,30.0,897.0,914.0,2145.0,1100.0,304.0,6.0
2.053433418273926,41.0,1653.0,1085.0,2901.0,1715.0,17.0,11.0
2.054949998855591,52.0,1361.0,1256.0,2534.0,639.0,78.0,5.0
2.056466579437256,52.0,961.0,1229.0,2078.0,1217.0,18.0,19.0
2.0580499172210693,23.0,11.0,1202.0,1291.0,1796.0,45.0,27.0
2.0595667362213135,0.0,1993.0,1155.0,447.0,1062.0,73.0,63.0
2.0610833168029785,47.0,732.0,1109.0,2470.0,1099.0,25.0,54.0
2.0625998973846436,53.0,520.0,562.0,1844.0,1616.0,51.0,46.0
2.0641167163848877,48.0,636.0,16.0,2178.0,1577.0,39.0,75.0
2.0656332969665527,24.0,643.0,448.0,2511.0,1539.0,26.0,26.0
2.067150115966797,0.0,650.0,880.0,722.0,1025.0,51.0,18.0
2.068666696548462,27.0,514.0,2225.0,3001.0,1477.0,205.0,17.0
2.070183277130127,63.0,23.0,1747.0,2087.0,1929.0,360.0,21.0
2.071700096130371,63.0,27.0,1529.0,1833.0,1744.0,190.0,22.0
2.073216676712036,17.0,31.0,1311.0,2953.0,1559.0,21.0,23.0
2.0748000144958496,12.0,38.0,567.0,1653.0,1580.0,0.0,15.0
2.0762999057769775,17.0,45.0,1301.0,1654.0,663.0,750.0,30.0
2.0778167247772217,5.0,28.0,2748.0,2703.0,1926.0,1006.0,27.0
2.0793333053588867,26.0,12.0,2345.0,1611.0,544.0,757.0,10.0
2.0808498859405518,27.0,11.0,1643.0,1238.0,651.0,507.0,10.0
2.082366704940796,28.0,10.0,2005.0,864.0,759.0,555.0,51.0
2.083883285522461,15.0,278.0,2368.0,1223.0,2747.0,603.0,66.0
2.085400104522705,24.0,158.0,1948.0,2189.0,2811.0,67.0,39.0
2.08691668510437,32.0,38.0,2789.0,1916.0,13.0,532.0,26.0
2.088433265686035,13.0,166.0,3487.0,1859.0,1758.0,23.0,12.0
2.0899500846862793,0.0,294.0,3663.0,1801.0,2583.0,543.0,65.0
2.0915334224700928,23.0,174.0,3871.0,117.0,10.0,1018.0,138.0
2.093050003051758,22.0,53.0,1238.0,3522.0,15.0,983.0,75.0
2.094566583633423,21.0,251.0,1566.0,2359.0,772.0,948.0,11.0
2.096083402633667,23.0,129.0,1307.0,3326.0,573.0,8.0,9.0
2.097599983215332,27.0,6.0,53.0,1063.0,1603.0,616.0,7.0
2.099116563796997,32.0,270.0,1150.0,1596.0,3236.0,25.0,6.0
2.1015000343322754,28.0,535.0,260.0,1235.0,2817.0,0.0,6.0
2.1038832664489746,28.0,515.0,1578.0,3772.0,2398.0,733.0,27.0
2.106266736984253,27.0,495.0,1061.0,4255.0,3574.0,1248.0,45.0
2.1087167263031006,23.0,1158.0,4433.0,4254.0,3619.0,720.0,62.0
2.1110999584198,19.0,890.0,4974.0,7184.0,3144.0,1275.0,759.0
2.113483428955078,19.0,622.0,3828.0,8013.0,2557.0,1171.0,3132.0
2.1158666610717773,19.0,1013.0,1536.0,9452.0,4018.0,1066.0,2590.0
2.1182498931884766,673.0,22.0,5204.0,7846.0,6868.0,2183.0,2047.0
2.120633363723755,349.0,350.0,4172.0,7434.0,16104.0,2312.0,1802.0
2.123016595840454,26.0,678.0,3141.0,7023.0,14196.0,2339.0,3075.0
2.1254665851593018,0.0,352.0,3827.0,12396.0,11752.0,3111.0,4522.0
2.12785005569458,7.0,26.0,3486.0,13872.0,14476.0,2693.0,3814.0
2.1302332878112793,17.0,31.0,4065.0,13268.0,10880.0,2276.0,4868.0
2.1326167583465576,28.0,36.0,3165.0,17552.0,13464.0,2723.0,4667.0
2.134999990463257,27.0,30.0,2264.0,16828.0,11556.0,3169.0,4467.0
2.137383222579956,26.0,26.0,2878.0,16296.0,9644.0,4394.0,2481.0
2.1397666931152344,643.0,837.0,3491.0,13408.0,10472.0,3980.0,5100.0
2.142199993133545,1113.0,929.0,1643.0,21036.0,13284.0,513.0,2773.0
2.144583225250244,1215.0,1022.0,91.0,22020.0,6506.0,4938.0,6458.0
2.1469666957855225,25.0,779.0,3624.0,14108.0,14948.0,2606.0,6880.0
2.1493499279022217,526.0,536.0,3820.0,16796.0,14652.0,3932.0,1541.0
2.1517333984375,1028.0,1111.0,4015.0,12660.0,14196.0,1703.0,2471.0
2.154116630554199,527.0,1685.0,4573.0,17000.0,12296.0,1064.0,4523.0
2.1565001010894775,26.0,1626.0,2542.0,15084.0,8828.0,425.0,7326.0
2.158950090408325,5.0,1567.0,6769.0,13168.0,10216.0,1666.0,6483.0
2.1613333225250244,427.0,8.0,8620.0,19680.0,10472.0,3864.0,3342.0
2.1637165546417236,320.0,604.0,2006.0,17152.0,10264.0,3881.0,8180.0
2.166100025177002,213.0,1199.0,2836.0,19688.0,10056.0,998.0,6352.0
2.168483257293701,52.0,933.0,5606.0,16224.0,11496.0,2914.0,3092.0
2.1708667278289795,17.0,666.0,6284.0,19296.0,12936.0,2527.0,6814.0
2.1732499599456787,631.0,1271.0,4765.0,19388.0,11856.0,2141.0,6148.0
2.175666570663452,1326.0,1204.0,4299.0,20044.0,10776.0,2477.0,3999.0
2.1780834197998047,1599.0,1137.0,2937.0,16396.0,14384.0,2812.0,7890.0
2.180466651916504,1492.0,877.0,1574.0,16356.0,15824.0,5600.0,4421.0
2.182849884033203,1653.0,616.0,3960.0,16312.0,10144.0,6121.0,2896.0
2.1852333545684814,1813.0,732.0,606.0,17828.0,17944.0,2943.0,3854.0
2.1876165866851807,814.0,1462.0,4879.0,19484.0,8972.0,5122.0,5468.0
2.190000057220459,2310.0,1380.0,2042.0,21140.0,14624.0,369.0,5394.0
2.192383289337158,14.0,1299.0,5606.0,13524.0,13320.0,4843.0,4399.0
2.1947999000549316,652.0,0.0,1494.0,18440.0,11984.0,4332.0,6298.0
2.19718337059021,33.0,1807.0,5071.0,15072.0,11692.0,2269.0,5600.0
2.199566602706909,1115.0,1916.0,4528.0,21756.0,11396.0,2373.0,5305.0
2.2019500732421875,1777.0,1674.0,3809.0,19456.0,9560.0,1747.0,4270.0
2.2043333053588867,1097.0,1290.0,3293.0,13076.0,11092.0,2220.0,6072.0
2.206716775894165,567.0,29.0,2777.0,14052.0,4278.0,2758.0,2490.0
2.2091000080108643,37.0,34.0,4184.0,10460.0,9452.0,2441.0,3339.0
2.2115166187286377,1065.0,2329.0,2936.0,14808.0,9432.0,2123.0,3639.0
2.213900089263916,128.0,1706.0,2293.0,14684.0,9412.0,1793.0,3458.0
2.2162833213806152,1236.0,26.0,1650.0,14316.0,11648.0,2702.0,2388.0
2.2186665534973145,42.0,1033.0,2705.0,19436.0,13880.0,2219.0,2239.0
2.2210500240325928,1841.0,461.0,991.0,18568.0,13516.0,1736.0,2335.0
2.223433256149292,1604.0,644.0,859.0,13040.0,8412.0,2606.0,2430.0
2.2258167266845703,267.0,642.0,727.0,14904.0,10296.0,698.0,7004.0
2.2282333374023438,510.0,639.0,5325.0,16672.0,10384.0,3998.0,7171.0
2.230616569519043,1027.0,673.0,4482.0,16352.0,10472.0,2745.0,4282.0
2.2330000400543213,19.0,706.0,3513.0,17716.0,9672.0,2880.0,3972.0
2.2353832721710205,286.0,0.0,3142.0,16996.0,5873.0,3009.0,8067.0
2.237766742706299,552.0,387.0,5049.0,11136.0,7947.0,3137.0,2981.0
2.240149974822998,318.0,526.0,2305.0,9716.0,10584.0,1579.0,5106.0
2.2425334453582764,756.0,665.0,3958.0,12676.0,9760.0,20.0,1435.0
2.24495005607605,620.0,0.0,2492.0,10676.0,8508.0,1509.0,4399.0
2.247333288192749,484.0,252.0,1906.0,9972.0,5133.0,2220.0,1510.0
2.2497167587280273,2053.0,504.0,4247.0,9272.0,3208.0,1171.0,3388.0
2.2520999908447266,1239.0,21.0,857.0,12308.0,6707.0,689.0,747.0
2.254483222961426,424.0,238.0,3742.0,4128.0,7798.0,29.0,560.0
2.256866693496704,801.0,454.0,1718.0,4623.0,4510.0,249.0,495.0
2.2592499256134033,1178.0,428.0,3099.0,7297.0,6334.0,469.0,537.0
2.261666774749756,1035.0,402.0,793.0,7872.0,8580.0,279.0,579.0
2.264050006866455,892.0,774.0,251.0,8448.0,7026.0,89.0,622.0
2.2664332389831543,1416.0,835.0,209.0,4472.0,1486.0,477.0,665.0
2.2688167095184326,1940.0,895.0,1809.0,4554.0,1434.0,864.0,332.0
2.271199941635132,1813.0,1976.0,1867.0,3468.0,2802.0,1237.0,0.0
2.27358341217041,1686.0,1970.0,1926.0,3086.0,3019.0,1610.0,252.0
2.2759666442871094,2066.0,1517.0,1305.0,924.0,3733.0,13.0,503.0
2.278383255004883,1904.0,479.0,34.0,1425.0,455.0,55.0,39.0
2.280766725540161,2559.0,1376.0,987.0,148.0,824.0,7.0,42.0
2.2831499576568604,3215.0,9.0,1940.0,1762.0,1483.0,322.0,44.0
2.2855334281921387,210.0,15.0,757.0,1808.0,1439.0,637.0,25.0
2.287916660308838,3347.0,290.0,152.0,1809.0,22.0,332.0,16.0
2.290299892425537,4471.0,24.0,357.0,1585.0,897.0,27.0,35.0
2.2926833629608154,3738.0,1702.0,562.0,1390.0,912.0,5.0,38.0
2.295099973678589,3835.0,1777.0,65.0,1195.0,1072.0,295.0,32.0
2.297483444213867,601.0,561.0,688.0,877.0,1232.0,26.0,27.0
2.2998666763305664,283.0,215.0,1249.0,559.0,654.0,30.0,39.0
2.3022499084472656,57.0,755.0,822.0,1482.0,75.0,34.0,51.0
2.304633378982544,878.0,806.0,438.0,1118.0,1353.0,41.0,59.0
2.307016611099243,495.0,45.0,54.0,28.0,289.0,51.0,36.0
2.3094000816345215,112.0,43.0,478.0,814.0,80.0,75.0,39.0
2.311816692352295,205.0,874.0,97.0,973.0,388.0,66.0,84.0
2.314199924468994,298.0,685.0,161.0,1884.0,243.0,57.0,104.0
2.3165833950042725,1137.0,497.0,686.0,1437.0,98.0,12.0,95.0
2.3189666271209717,1271.0,83.0,704.0,759.0,318.0,43.0,43.0
2.32135009765625,1300.0,113.0,722.0,82.0,651.0,74.0,128.0
2.323733329772949,342.0,144.0,97.0,185.0,595.0,133.0,28.0
2.3261165618896484,159.0,76.0,848.0,851.0,169.0,89.0,72.0
2.328533411026001,162.0,91.0,115.0,84.0,80.0,44.0,61.0
2.3309166431427,278.0,101.0,84.0,1092.0,75.0,127.0,59.0
2.3333001136779785,226.0,111.0,52.0,1264.0,70.0,66.0,91.0
2.3356833457946777,226.0,216.0,104.0,715.0,121.0,63.0,77.0
2.338066577911377,226.0,202.0,155.0,44.0,127.0,103.0,64.0
2.3404500484466553,221.0,187.0,527.0,708.0,133.0,143.0,56.0
2.3428332805633545,216.0,182.0,898.0,937.0,139.0,136.0,58.0
2.345249891281128,656.0,436.0,512.0,581.0,146.0,128.0,59.0
2.3476333618164062,481.0,288.0,125.0,355.0,117.0,102.0,67.0
2.3500165939331055,305.0,140.0,140.0,128.0,88.0,137.0,75.0
2.352400064468384,257.0,226.0,156.0,73.0,164.0,125.0,76.0
2.354783296585083,208.0,185.0,140.0,124.0,122.0,119.0,114.0
2.3571667671203613,204.0,512.0,164.0,176.0,79.0,107.0,111.0
2.3595499992370605,281.0,772.0,479.0,187.0,137.0,94.0,113.0
2.361966609954834,258.0,1032.0,318.0,198.0,177.0,86.0,95.0
2.3643500804901123,216.0,180.0,156.0,173.0,173.0,104.0,71.0
2.3667333126068115,193.0,54.0,143.0,147.0,170.0,122.0,96.0
2.36911678314209,1616.0,774.0,172.0,197.0,129.0,112.0,89.0
2.371500015258789,1264.0,339.0,158.0,246.0,87.0,51.0,82.0
2.3738832473754883,256.0,180.0,206.0,224.0,955.0,103.0,112.0
2.3762667179107666,190.0,112.0,198.0,202.0,1302.0,103.0,63.0
2.37868332862854,860.0,177.0,81.0,426.0,628.0,119.0,153.0
2.3810665607452393,264.0,157.0,89.0,280.0,873.0,149.0,122.0
2.3834500312805176,687.0,138.0,117.0,135.0,120.0,136.0,92.0
2.385833263397217,193.0,119.0,1156.0,146.0,78.0,122.0,123.0
2.388216733932495,206.0,198.0,731.0,142.0,111.0,157.0,109.0
2.3905999660491943,220.0,277.0,306.0,121.0,143.0,165.0,104.0
2.3929834365844727,515.0,686.0,627.0,99.0,129.0,173.0,112.0
2.395400047302246,435.0,408.0,948.0,270.0,116.0,137.0,99.0
2.3977832794189453,229.0,130.0,879.0,192.0,78.0,100.0,93.0
2.4001667499542236,247.0,898.0,893.0,114.0,148.0,175.0,88.0
2.402549982070923,135.0,93.0,111.0,1156.0,151.0,151.0,93.0
2.404933214187622,224.0,1116.0,139.0,657.0,71.0,99.0,99.0
2.4073166847229004,198.0,270.0,167.0,159.0,88.0,167.0,45.0
2.4096999168395996,171.0,132.0,713.0,91.0,116.0,77.0,54.0
2.412116765975952,206.0,186.0,428.0,120.0,145.0,113.0,85.0
2.4144999980926514,235.0,102.0,142.0,149.0,145.0,94.0,93.0
2.4168832302093506,265.0,183.0,853.0,141.0,439.0,97.0,83.0
2.419266700744629,272.0,72.0,1710.0,140.0,259.0,88.0,86.0
2.421649932861328,142.0,109.0,1259.0,126.0,79.0,79.0,88.0
2.4240334033966064,152.0,145.0,808.0,148.0,99.0,73.0,147.0
2.4264166355133057,122.0,123.0,114.0,170.0,120.0,71.0,135.0
2.428833246231079,146.0,101.0,115.0,121.0,304.0,68.0,77.0
2.4312167167663574,171.0,116.0,354.0,72.0,188.0,80.0,90.0
2.4335999488830566,156.0,131.0,91.0,76.0,73.0,84.0,72.0
2.435983419418335,152.0,74.0,244.0,85.0,85.0,88.0,69.0
2.438366651535034,154.0,17.0,64.0,488.0,97.0,103.0,55.0
2.4407498836517334,155.0,58.0,79.0,891.0,64.0,54.0,64.0
2.4431333541870117,142.0,53.0,760.0,1182.0,32.0,234.0,16.0
2.445549964904785,108.0,48.0,401.0,628.0,53.0,173.0,26.0
2.4479334354400635,46.0,61.0,42.0,751.0,62.0,113.0,36.0
2.4503166675567627,46.0,74.0,74.0,128.0,70.0,51.0,81.0
2.452699899673462,40.0,940.0,90.0,50.0,80.0,61.0,69.0
2.4550833702087402,68.0,859.0,36.0,46.0,89.0,67.0,25.0
2.4574666023254395,96.0,779.0,36.0,42.0,351.0,57.0,7.0
2.4598500728607178,84.0,943.0,32.0,114.0,194.0,47.0,64.0
2.462266683578491,69.0,62.0,29.0,80.0,37.0,15.0,32.0
2.4646499156951904,54.0,88.0,996.0,47.0,370.0,218.0,85.0
2.4670333862304688,69.0,313.0,727.0,329.0,65.0,420.0,51.0
2.469416618347168,29.0,350.0,457.0,611.0,31.0,539.0,64.0
2.4718000888824463,68.0,388.0,32.0,1150.0,30.0,29.0,43.0
2.4741833209991455,47.0,67.0,1100.0,865.0,800.0,491.0,25.0
2.4765665531158447,36.0,84.0,1077.0,991.0,690.0,124.0,5.0
2.4789834022521973,61.0,1259.0,27.0,1118.0,603.0,69.0,22.0
2.4813666343688965,79.0,1822.0,667.0,1014.0,838.0,11.0,43.0
2.483750104904175,18.0,1005.0,66.0,1245.0,16.0,27.0,48.0
2.486133337020874,50.0,44.0,336.0,12.0,22.0,44.0,23.0
2.4885165691375732,83.0,48.0,580.0,289.0,682.0,18.0,45.0
2.4909000396728516,43.0,1168.0,61.0,567.0,703.0,13.0,37.0
2.493283271789551,52.0,789.0,255.0,232.0,724.0,39.0,23.0
2.495699882507324,70.0,410.0,152.0,763.0,840.0,25.0,25.0
