,335.2099914550781,336.2099914550781,337.2099914550781,338.2099914550781,339.2099914550781,340.2099914550781,341.2099914550781,342.2099914550781,343.2099914550781,344.2099914550781,345.2099914550781
5.702383518218994,798.0,39.0,918.0,18.0,5.0,36.0,18.0,17.0,34.0,5.0,38.0
5.704766750335693,7.0,0.0,11.0,1233.0,0.0,34.0,15.0,799.0,11.0,47.0,19.0
5.707149982452393,0.0,30.0,17.0,6.0,59.0,30.0,19.0,22.0,15.0,28.0,35.0
5.709533214569092,498.0,13.0,106.0,594.0,12.0,41.0,13.0,12.0,35.0,27.0,691.0
5.711916446685791,10.0,204.0,58.0,30.0,36.0,47.0,0.0,46.0,15.0,28.0,360.0
5.714300155639648,36.0,122.0,11.0,705.0,32.0,41.0,14.0,30.0,0.0,10.0,29.0
5.716683387756348,11.0,39.0,12.0,20.0,5.0,35.0,28.0,15.0,9.0,35.0,21.0
5.719133377075195,34.0,360.0,8.0,15.0,24.0,28.0,24.0,20.0,10.0,18.0,29.0
5.7215166091918945,15.0,330.0,5.0,11.0,12.0,21.0,20.0,13.0,11.0,25.0,36.0
5.723899841308594,26.0,13.0,21.0,0.0,23.0,37.0,13.0,11.0,0.0,7.0,10.0
5.726283550262451,471.0,18.0,23.0,35.0,39.0,6.0,12.0,10.0,38.0,5.0,7.0
5.72866678237915,1560.0,24.0,25.0,53.0,35.0,21.0,5.0,26.0,34.0,0.0,18.0
5.73105001449585,1549.0,29.0,0.0,37.0,31.0,0.0,15.0,13.0,30.0,12.0,16.0
5.733433246612549,13.0,30.0,0.0,40.0,5.0,11.0,26.0,0.0,29.0,25.0,15.0
5.735866546630859,488.0,39.0,20.0,21.0,34.0,0.0,28.0,20.0,28.0,49.0,0.0
5.738249778747559,37.0,47.0,13.0,10.0,29.0,19.0,13.0,25.0,25.0,36.0,15.0
5.740633487701416,10.0,6.0,6.0,15.0,24.0,15.0,14.0,8.0,22.0,24.0,11.0
5.743016719818115,17.0,12.0,5.0,15.0,27.0,10.0,10.0,5.0,12.0,30.0,10.0
5.7453999519348145,52.0,0.0,5.0,0.0,36.0,5.0,5.0,30.0,0.0,15.0,5.0
5.747783184051514,62.0,48.0,36.0,5.0,24.0,2.0,0.0,20.0,6.0,14.0,9.0
5.750166893005371,73.0,32.0,23.0,11.0,12.0,0.0,15.0,10.0,12.0,5.0,13.0
5.752616882324219,5.0,16.0,10.0,15.0,31.0,8.0,10.0,28.0,7.0,23.0,9.0
5.755000114440918,30.0,34.0,5.0,14.0,26.0,17.0,5.0,12.0,6.0,26.0,5.0
5.757383346557617,15.0,8.0,20.0,29.0,15.0,8.0,16.0,15.0,18.0,29.0,20.0
5.759766578674316,0.0,10.0,35.0,28.0,7.0,0.0,17.0,12.0,21.0,29.0,21.0
5.762149810791016,15.0,13.0,34.0,38.0,0.0,7.0,19.0,10.0,0.0,30.0,10.0
5.764533519744873,30.0,11.0,33.0,31.0,5.0,8.0,16.0,5.0,6.0,27.0,14.0
5.766916751861572,70.0,14.0,15.0,25.0,10.0,10.0,13.0,2.0,14.0,26.0,19.0
5.76936674118042,37.0,5.0,50.0,18.0,10.0,7.0,0.0,0.0,17.0,8.0,28.0
5.771749973297119,5.0,5.0,5.0,12.0,24.0,8.0,14.0,5.0,11.0,13.0,30.0
5.774133205413818,28.0,5.0,21.0,21.0,12.0,10.0,7.0,5.0,5.0,0.0,32.0
5.776516437530518,28.0,35.0,28.0,12.0,0.0,6.0,0.0,5.0,21.0,5.0,22.0
5.778900146484375,28.0,23.0,27.0,15.0,0.0,5.0,23.0,6.0,10.0,10.0,10.0
5.781283378601074,6.0,11.0,0.0,10.0,5.0,5.0,19.0,7.0,0.0,27.0,41.0
5.783666610717773,16.0,11.0,14.0,5.0,14.0,19.0,16.0,6.0,10.0,35.0,5.0
5.786099910736084,22.0,27.0,21.0,5.0,29.0,21.0,22.0,6.0,14.0,35.0,2.0
5.788483142852783,29.0,52.0,28.0,12.0,20.0,24.0,19.0,19.0,19.0,20.0,0.0
5.790866851806641,31.0,52.0,14.0,19.0,12.0,15.0,17.0,10.0,535.0,738.0,11.0
5.793266773223877,41.0,27.0,0.0,34.0,0.0,7.0,21.0,0.0,467.0,606.0,9.0
5.795633316040039,50.0,24.0,6.0,44.0,8.0,21.0,26.0,34.0,18.0,21.0,5.0
5.798016548156738,13.0,20.0,3.0,0.0,16.0,7.0,22.0,40.0,54.0,5.0,9.0
5.8003997802734375,42.0,8.0,0.0,5.0,22.0,9.0,19.0,17.0,15.0,9.0,13.0
5.802849769592285,25.0,19.0,10.0,39.0,10.0,12.0,0.0,7.0,21.0,12.0,11.0
5.805233478546143,8.0,1062.0,5.0,0.0,28.0,5.0,14.0,0.0,26.0,15.0,10.0
5.807616710662842,17.0,1135.0,0.0,5.0,34.0,10.0,13.0,0.0,17.0,0.0,16.0
5.809999942779541,311.0,2382.0,93.0,5.0,32.0,17.0,12.0,0.0,10.0,13.0,5.0
5.81238317489624,166.0,2289.0,54.0,5.0,22.0,20.0,15.0,0.0,6.0,31.0,20.0
5.814766883850098,20.0,10.0,15.0,8.0,38.0,201.0,21.0,2.0,10.0,32.0,24.0
5.817150115966797,16.0,699.0,11.0,11.0,0.0,106.0,27.0,5.0,15.0,24.0,10.0
5.8196001052856445,16.0,844.0,24.0,15.0,10.0,11.0,0.0,6.0,12.0,5.0,8.0
5.821983337402344,25.0,990.0,27.0,19.0,15.0,38.0,21.0,8.0,10.0,11.0,7.0
5.824366569519043,34.0,16.0,13.0,5.0,26.0,126.0,42.0,10.0,23.0,33.0,5.0
5.826749801635742,449.0,1166.0,0.0,0.0,18.0,72.0,49.0,13.0,37.0,34.0,7.0
5.8291335105896,224.0,0.0,20.0,21.0,38.0,18.0,56.0,18.0,42.0,16.0,10.0
5.831516742706299,0.0,386.0,24.0,6.0,39.0,25.0,37.0,15.0,48.0,25.0,10.0
5.833899974822998,245.0,21.0,15.0,15.0,39.0,12.0,5.0,12.0,47.0,5.0,7.0
5.836333274841309,133.0,29.0,7.0,20.0,30.0,24.0,0.0,10.0,46.0,5.0,5.0
5.838716506958008,20.0,8.0,20.0,25.0,14.0,5.0,12.0,8.0,5.0,5.0,8.0
5.841100215911865,15.0,25.0,17.0,23.0,6.0,19.0,15.0,6.0,5.0,5.0,12.0
5.8434834480285645,10.0,17.0,25.0,26.0,14.0,20.0,10.0,0.0,0.0,21.0,21.0
5.845866680145264,7.0,9.0,10.0,29.0,7.0,34.0,6.0,5.0,6.0,37.0,29.0
5.848249912261963,5.0,19.0,10.0,24.0,0.0,36.0,8.0,3.0,13.0,45.0,34.0
5.850633144378662,53.0,17.0,27.0,18.0,11.0,39.0,12.0,0.0,205.0,32.0,21.0
5.85308313369751,34.0,15.0,16.0,8.0,6.0,19.0,11.0,24.0,112.0,37.0,24.0
5.855466842651367,16.0,36.0,184.0,23.0,21.0,46.0,5.0,25.0,20.0,43.0,28.0
5.857850074768066,10.0,58.0,107.0,21.0,21.0,27.0,40.0,5.0,19.0,19.0,32.0
5.860233306884766,29.0,38.0,29.0,15.0,20.0,16.0,66.0,52.0,37.0,0.0,18.0
5.862616539001465,24.0,18.0,25.0,10.0,5.0,8.0,49.0,38.0,405.0,0.0,5.0
5.864999771118164,21.0,28.0,20.0,5.0,0.0,23.0,32.0,7.0,2212.0,0.0,24.0
5.8673834800720215,19.0,21.0,8.0,0.0,29.0,21.0,49.0,5.0,1661.0,10.0,0.0
5.869816780090332,30.0,47.0,25.0,18.0,27.0,19.0,34.0,331.0,10.0,7.0,15.0
5.872216701507568,41.0,52.0,12.0,12.0,26.0,16.0,18.0,165.0,18.0,5.0,18.0
5.874599933624268,38.0,57.0,0.0,6.0,6.0,13.0,5.0,0.0,10.0,166.0,21.0
5.876983165740967,34.0,8.0,0.0,15.0,11.0,9.0,33.0,26.0,5.0,94.0,0.0
5.879366874694824,35.0,23.0,8.0,22.0,11.0,5.0,41.0,53.0,5.0,23.0,0.0
5.881750106811523,20.0,25.0,6.0,28.0,5.0,6.0,25.0,745.0,0.0,7.0,0.0
5.884133338928223,6.0,20.0,5.0,23.0,16.0,5.0,10.0,2647.0,20.0,28.0,0.0
5.886516571044922,5.0,28.0,5.0,19.0,27.0,7.0,5.0,4087.0,22.0,298.0,0.0
5.888949871063232,14.0,26.0,5.0,32.0,23.0,57.0,10.0,3345.0,20.0,568.0,26.0
5.891333103179932,5.0,24.0,2.0,0.0,0.0,31.0,11.0,593.0,830.0,648.0,25.0
5.893716812133789,39.0,15.0,0.0,10.0,21.0,5.0,12.0,5943.0,813.0,282.0,15.0
5.896100044250488,38.0,14.0,10.0,21.0,29.0,18.0,5.0,5746.0,507.0,12.0,6.0
5.8984832763671875,26.0,13.0,5.0,5.0,11.0,42.0,12.0,4012.0,544.0,16.0,10.0
5.900866508483887,0.0,17.0,0.0,2.0,11.0,55.0,28.0,3011.0,581.0,35.0,15.0
5.903250217437744,17.0,16.0,12.0,0.0,13.0,5.0,16.0,4908.0,22.0,17.0,20.0
5.905700206756592,35.0,8.0,12.0,3.0,5.0,23.0,5.0,2803.0,22.0,13.0,14.0
5.908083438873291,5.0,0.0,12.0,7.0,14.0,39.0,22.0,1922.0,866.0,9.0,8.0
5.91046667098999,13.0,7.0,16.0,1116.0,34.0,567.0,18.0,1895.0,687.0,37.0,0.0
5.9128499031066895,22.0,11.0,20.0,862.0,67.0,670.0,17.0,824.0,507.0,22.0,32.0
5.915233135223389,11.0,15.0,2274.0,3651.0,1470.0,3356.0,16.0,2047.0,261.0,7.0,34.0
5.917616844177246,0.0,2807.0,5490.0,4809.0,2873.0,5104.0,2363.0,2080.0,15.0,6.0,384.0
5.920000076293945,0.0,4243.0,9360.0,10084.0,6247.0,6540.0,3719.0,2113.0,2598.0,5.0,735.0
5.922450065612793,7.0,9196.0,18764.0,20260.0,20240.0,10764.0,14252.0,8964.0,6052.0,541.0,1016.0
5.924833297729492,33.0,24692.0,44544.0,38912.0,32492.0,28228.0,27576.0,9152.0,6146.0,2611.0,1297.0
5.927216529846191,34.0,32960.0,73168.0,69840.0,60416.0,54464.0,38096.0,22848.0,14308.0,9412.0,1140.0
5.929599761962891,14.0,54192.0,121968.0,102144.0,108048.0,81616.0,60528.0,39392.0,27104.0,9896.0,2048.0
5.931983470916748,35.0,96528.0,195840.0,185536.0,184320.0,120832.0,101024.0,55936.0,26976.0,13212.0,2985.0
5.934366703033447,27.0,139968.0,290240.0,279488.0,235648.0,181824.0,151616.0,88256.0,58512.0,15200.0,3922.0
5.9367499351501465,0.0,213632.0,408256.0,351424.0,341248.0,246400.0,203520.0,125520.0,54896.0,27464.0,10660.0
5.939183235168457,41.0,256192.0,536064.0,492608.0,441600.0,369856.0,278720.0,141056.0,81616.0,43456.0,11116.0
5.941583156585693,45.0,380864.0,722944.0,584192.0,532992.0,453376.0,327680.0,165568.0,82352.0,44160.0,12272.0
5.943966865539551,40.0,417280.0,804352.0,736512.0,637184.0,519936.0,384448.0,208384.0,113216.0,40416.0,14840.0
5.946333408355713,294.0,487552.0,963328.0,867328.0,748544.0,588288.0,421504.0,242880.0,135168.0,52944.0,19168.0
5.948716640472412,207.0,557824.0,1069568.0,1029120.0,853248.0,694784.0,518848.0,236224.0,134144.0,61136.0,25784.0
5.951099872589111,121.0,653312.0,1241344.0,1134080.0,959744.0,700928.0,528128.0,300736.0,149760.0,59168.0,22536.0
5.9534831047058105,93.0,681216.0,1194240.0,1180672.0,932608.0,775936.0,583168.0,319808.0,148544.0,60976.0,28680.0
5.955933570861816,81.0,702976.0,1419264.0,1281024.0,1052416.0,850432.0,597504.0,291136.0,168448.0,68960.0,24056.0
5.958316802978516,73.0,797440.0,1463552.0,1232128.0,1025536.0,862464.0,574720.0,301952.0,165440.0,71008.0,27204.0
5.960700035095215,80.0,761600.0,1427456.0,1346560.0,1108480.0,843520.0,624128.0,328192.0,165312.0,64240.0,24080.0
5.963083267211914,37.0,782592.0,1474048.0,1340928.0,1095680.0,816128.0,609536.0,313280.0,165184.0,64080.0,23360.0
5.965466499328613,118.0,742400.0,1357824.0,1274112.0,1067520.0,842240.0,589312.0,293824.0,160064.0,63920.0,22640.0
5.967850208282471,97.0,776704.0,1324544.0,1244672.0,1039616.0,846592.0,571136.0,316160.0,162112.0,61472.0,22296.0
5.97023344039917,75.0,735488.0,1361920.0,1234176.0,1016320.0,819712.0,551168.0,290752.0,131456.0,62608.0,24872.0
5.972683429718018,110.0,767744.0,1384448.0,1186816.0,989952.0,778752.0,579328.0,301568.0,122400.0,60176.0,19128.0
5.975066661834717,110.0,697344.0,1224192.0,1062144.0,934656.0,719104.0,503104.0,280128.0,141568.0,68752.0,22760.0
5.977449893951416,111.0,711424.0,1318400.0,1147136.0,933632.0,695808.0,479232.0,233856.0,130432.0,47872.0,21512.0
5.979833126068115,88.0,644608.0,1201664.0,1105408.0,889856.0,688384.0,497664.0,231936.0,137152.0,53344.0,22716.0
5.982216835021973,65.0,624384.0,1165312.0,1012480.0,812544.0,678400.0,475328.0,199424.0,104880.0,55600.0,15152.0
5.984600067138672,96.0,604416.0,1060352.0,996352.0,837632.0,623872.0,436544.0,211392.0,121792.0,47120.0,12260.0
5.986983299255371,103.0,561408.0,1027840.0,915712.0,769280.0,625664.0,436928.0,225472.0,111344.0,48800.0,16432.0
5.989433288574219,113.0,568320.0,1032448.0,932352.0,724992.0,583936.0,389888.0,212672.0,94304.0,38896.0,14112.0
5.991816520690918,123.0,507072.0,930048.0,843264.0,698112.0,562944.0,386944.0,199936.0,110928.0,40544.0,11796.0
5.994200229644775,96.0,481664.0,885760.0,837888.0,702208.0,513216.0,356416.0,200384.0,100672.0,38912.0,13404.0
5.996583461761475,68.0,476864.0,896000.0,754432.0,664832.0,500736.0,378048.0,184640.0,98960.0,42640.0,13128.0
5.998966693878174,164.0,471040.0,869376.0,815872.0,710656.0,481920.0,359680.0,179776.0,97280.0,32928.0,14460.0
6.001349925994873,142.0,488128.0,862976.0,803328.0,655104.0,501504.0,368896.0,178560.0,93808.0,31404.0,15792.0
6.003733158111572,119.0,459584.0,803328.0,796416.0,662528.0,463680.0,362560.0,177344.0,101840.0,50128.0,15996.0
6.006166458129883,111.0,467328.0,854272.0,741120.0,615168.0,503488.0,330816.0,176128.0,99504.0,53296.0,16200.0
6.00855016708374,103.0,477824.0,872960.0,748288.0,623616.0,468096.0,343680.0,182976.0,102880.0,48672.0,12852.0
6.0109333992004395,39.0,427136.0,767488.0,674560.0,601856.0,462080.0,325824.0,163712.0,104816.0,37824.0,12376.0
6.013316631317139,76.0,511552.0,821760.0,727552.0,614656.0,456128.0,318016.0,168704.0,98368.0,37088.0,15148.0
6.015716552734375,56.0,401856.0,824064.0,743680.0,605952.0,451904.0,337664.0,167232.0,75216.0,25324.0,13948.0
6.018083095550537,36.0,404992.0,798720.0,710656.0,547840.0,475712.0,319360.0,162176.0,84672.0,32508.0,12748.0
6.0204668045043945,121.0,394432.0,711936.0,659200.0,570368.0,483200.0,313792.0,145216.0,94176.0,29580.0,9980.0
6.022883415222168,103.0,383744.0,694784.0,639744.0,520768.0,399680.0,317120.0,129408.0,78144.0,31420.0,15368.0
6.025266647338867,85.0,408000.0,680192.0,580864.0,549632.0,387712.0,259776.0,129488.0,61984.0,32300.0,15568.0
6.027649879455566,97.0,392640.0,612864.0,562432.0,461760.0,361536.0,288512.0,134272.0,80416.0,31936.0,10808.0
6.030033111572266,65.0,314176.0,591360.0,534272.0,441472.0,370880.0,262080.0,115744.0,64016.0,25164.0,4584.0
6.032416820526123,241.0,265600.0,583936.0,535552.0,422848.0,337728.0,240576.0,106192.0,53904.0,20060.0,9160.0
6.034800052642822,153.0,308288.0,498944.0,439872.0,361472.0,299776.0,228416.0,107184.0,56784.0,22772.0,10900.0
6.0371832847595215,64.0,270784.0,449344.0,434112.0,312128.0,256832.0,159680.0,104208.0,44144.0,24364.0,6356.0
6.039633274078369,23.0,227136.0,414848.0,407168.0,320704.0,255744.0,181120.0,77744.0,47504.0,20112.0,5007.0
6.042016506195068,63.0,181824.0,389440.0,338944.0,290112.0,210112.0,156352.0,81152.0,36416.0,15452.0,2820.0
6.044400215148926,104.0,170048.0,357952.0,280640.0,223296.0,196672.0,136128.0,80096.0,34192.0,13384.0,5960.0
6.046783447265625,88.0,145728.0,283584.0,276672.0,222272.0,157952.0,101888.0,52576.0,30112.0,5188.0,8468.0
6.049166679382324,72.0,136320.0,245184.0,227840.0,191872.0,143488.0,80480.0,62416.0,30184.0,7442.0,6333.0
6.051549911499023,61.0,116080.0,213888.0,194304.0,153920.0,102000.0,93600.0,41312.0,17432.0,3138.0,4074.0
6.053933143615723,50.0,98272.0,176960.0,151808.0,127744.0,97952.0,67008.0,41616.0,13692.0,7899.0,4498.0
6.056366443634033,46.0,73568.0,148736.0,131776.0,120304.0,79888.0,56576.0,32244.0,8832.0,7276.0,1029.0
6.058750152587891,811.0,59536.0,106336.0,103168.0,88848.0,64912.0,48336.0,25248.0,16156.0,4477.0,1521.0
6.06113338470459,435.0,49808.0,110736.0,73552.0,81376.0,61184.0,39584.0,14844.0,7978.0,4897.0,3461.0
6.063533306121826,58.0,45696.0,84128.0,73472.0,57552.0,41296.0,29488.0,20828.0,11424.0,5402.0,74.0
6.065899848937988,34.0,44640.0,68880.0,79120.0,59216.0,41136.0,34288.0,15452.0,4841.0,124.0,31.0
6.068283557891846,10.0,33792.0,53312.0,52464.0,47616.0,36272.0,21084.0,9132.0,6511.0,617.0,2060.0
6.070666790008545,21.0,30112.0,60464.0,50256.0,38192.0,27624.0,14128.0,10528.0,2855.0,4439.0,383.0
6.073083400726318,45.0,19144.0,46816.0,34848.0,30784.0,25844.0,16104.0,9656.0,2482.0,2139.0,2850.0
6.075466632843018,550.0,27472.0,36400.0,22192.0,32204.0,20308.0,12908.0,8135.0,446.0,3515.0,2418.0
6.077849864959717,304.0,20788.0,44544.0,24872.0,16164.0,20884.0,12976.0,7727.0,2813.0,1541.0,1893.0
6.080233097076416,59.0,14316.0,19608.0,21072.0,20588.0,13824.0,8308.0,3935.0,2371.0,1227.0,76.0
6.082616806030273,466.0,20216.0,21844.0,21488.0,19500.0,15624.0,5951.0,4384.0,1986.0,3388.0,646.0
6.085000038146973,282.0,9920.0,12936.0,21900.0,14836.0,13760.0,11232.0,1397.0,1582.0,2230.0,1412.0
6.087399959564209,98.0,16424.0,19928.0,19424.0,17508.0,12396.0,7484.0,1215.0,1177.0,489.0,61.0
6.089816570281982,516.0,12136.0,23476.0,19144.0,16932.0,11508.0,9036.0,3265.0,1326.0,1264.0,41.0
6.092199802398682,130.0,9120.0,19072.0,13412.0,11844.0,10892.0,7818.0,4092.0,846.0,931.0,20.0
6.094583511352539,27.0,10272.0,20792.0,16584.0,11776.0,10012.0,5038.0,4725.0,2616.0,1587.0,117.0
6.096966743469238,30.0,10936.0,16932.0,21376.0,9328.0,9116.0,6147.0,4487.0,2966.0,23.0,213.0
6.0993499755859375,27.0,9068.0,17956.0,14348.0,10260.0,7814.0,3543.0,4378.0,2381.0,467.0,109.0
6.101733207702637,27.0,5927.0,12472.0,15480.0,14392.0,5920.0,5282.0,2631.0,2093.0,29.0,5.0
6.104116439819336,36.0,7486.0,17164.0,13592.0,5868.0,4026.0,4844.0,2600.0,1626.0,328.0,29.0
6.1065168380737305,31.0,4228.0,16664.0,13492.0,9832.0,6431.0,4267.0,2202.0,15.0,627.0,6.0
6.108916759490967,27.0,4617.0,13864.0,8736.0,8300.0,4565.0,3690.0,1069.0,1893.0,26.0,18.0
6.111299991607666,32.0,5006.0,11892.0,12884.0,6296.0,7469.0,6087.0,1746.0,576.0,428.0,17.0
6.113683223724365,0.0,4142.0,8308.0,12184.0,8412.0,6886.0,6220.0,2489.0,1607.0,829.0,31.0
6.1160664558410645,9.0,4767.0,8139.0,12312.0,9728.0,6594.0,3842.0,2817.0,1813.0,426.0,42.0
6.118450164794922,44.0,5392.0,4424.0,9896.0,6051.0,2314.0,2209.0,3010.0,5.0,22.0,28.0
6.120833396911621,24.0,4995.0,10604.0,11932.0,3192.0,4170.0,2568.0,910.0,1001.0,28.0,14.0
6.123233318328857,46.0,4598.0,5571.0,12128.0,4010.0,2105.0,931.0,2908.0,1003.0,1101.0,48.0
6.125616550445557,68.0,3267.0,9104.0,8106.0,4890.0,3742.0,3699.0,2198.0,892.0,564.0,13.0
6.127999782562256,36.0,3777.0,9496.0,7004.0,4817.0,5138.0,2170.0,1732.0,781.0,28.0,58.0
6.130383491516113,5.0,3789.0,9604.0,7456.0,4744.0,3880.0,640.0,4079.0,14.0,552.0,49.0
6.1327667236328125,18.0,3886.0,9452.0,4457.0,4842.0,2622.0,3219.0,3321.0,260.0,789.0,43.0
6.135149955749512,19.0,3982.0,9300.0,7852.0,4809.0,1225.0,3213.0,278.0,505.0,401.0,37.0
6.137533187866211,20.0,3170.0,5918.0,5277.0,4775.0,5137.0,2284.0,621.0,34.0,12.0,40.0
6.1399664878845215,20.0,2357.0,5858.0,6312.0,1886.0,3411.0,3955.0,1492.0,31.0,937.0,378.0
6.142366886138916,32.0,2157.0,2863.0,5302.0,4582.0,5078.0,1415.0,1367.0,530.0,21.0,684.0
6.144750118255615,0.0,1653.0,4612.0,2498.0,5694.0,5606.0,3151.0,476.0,35.0,41.0,609.0
6.1471333503723145,11.0,1149.0,5138.0,5635.0,6834.0,3191.0,606.0,823.0,488.0,18.0,45.0
6.149516582489014,13.0,1434.0,2872.0,7057.0,2490.0,2175.0,2014.0,1170.0,3252.0,440.0,10.0
6.151899814605713,6.0,1718.0,8456.0,7191.0,2563.0,3437.0,3437.0,321.0,2641.0,236.0,21.0
6.15428352355957,10.0,1735.0,8260.0,5686.0,6178.0,2931.0,69.0,1346.0,1153.0,32.0,32.0
6.1566667556762695,5.0,1753.0,5842.0,1209.0,2995.0,791.0,1461.0,40.0,198.0,5.0,0.0
6.159116744995117,0.0,2085.0,4992.0,3253.0,1088.0,1839.0,1301.0,956.0,2654.0,7.0,5.0
6.161499977111816,21.0,357.0,3767.0,8856.0,3394.0,4157.0,1925.0,29.0,2091.0,5.0,20.0
6.163883209228516,46.0,3005.0,4669.0,8712.0,932.0,5255.0,5.0,39.0,43.0,176.0,27.0
6.166266441345215,34.0,866.0,5571.0,3029.0,344.0,6292.0,1020.0,957.0,18.0,88.0,28.0
6.168650150299072,12.0,3149.0,3557.0,3366.0,1965.0,415.0,1549.0,1040.0,437.0,0.0,28.0
6.1710333824157715,17.0,4408.0,3889.0,2062.0,1230.0,2700.0,725.0,488.0,227.0,43.0,52.0
6.173416614532471,0.0,4286.0,2256.0,4263.0,4785.0,2518.0,2235.0,137.0,17.0,25.0,32.0
6.175849914550781,20.0,2910.0,2802.0,4949.0,4733.0,788.0,1683.0,733.0,30.0,7.0,13.0
6.1782331466674805,19.0,1860.0,885.0,5705.0,2360.0,2455.0,1131.0,541.0,43.0,48.0,5.0
6.180616855621338,16.0,1702.0,4878.0,4434.0,4725.0,3340.0,1308.0,348.0,40.0,10.0,25.0
6.183000087738037,14.0,2981.0,5213.0,6085.0,4243.0,2347.0,1485.0,24.0,51.0,6.0,20.0
6.185383319854736,5.0,967.0,4010.0,2806.0,2277.0,1295.0,4045.0,688.0,28.0,5.0,28.0
6.1877665519714355,15.0,3576.0,772.0,1433.0,987.0,915.0,2862.0,69.0,5.0,17.0,21.0
6.190149784088135,26.0,937.0,239.0,3297.0,3371.0,4818.0,1678.0,42.0,21.0,14.0,20.0
6.192599773406982,18.0,1988.0,1902.0,1203.0,1143.0,5175.0,1669.0,31.0,17.0,11.0,19.0
6.19498348236084,11.0,4369.0,1591.0,1494.0,2556.0,7.0,2404.0,1099.0,13.0,231.0,19.0
6.197366714477539,24.0,2869.0,1280.0,3586.0,2208.0,2797.0,1423.0,1145.0,29.0,133.0,18.0
