,319.2099914550781,320.2099914550781,321.2099914550781,322.2099914550781,323.2099914550781,324.2099914550781,325.2099914550781
4.50178337097168,920.0,125.0,201.0,100.0,221.0,165.0,103.0
4.504383563995361,191.0,226.0,237.0,174.0,325.0,211.0,155.0
4.50748348236084,1017.0,164.0,299.0,74.0,122.0,96.0,139.0
4.51051664352417,118.0,190.0,126.0,157.0,154.0,68.0,112.0
4.5135498046875,137.0,217.0,208.0,92.0,105.0,148.0,126.0
4.516583442687988,195.0,64.0,94.0,146.0,145.0,63.0,122.0
4.519616603851318,128.0,79.0,126.0,73.0,75.0,87.0,115.0
4.522716522216797,111.0,94.0,106.0,143.0,100.0,106.0,109.0
4.525750160217285,114.0,134.0,76.0,119.0,76.0,108.0,67.0
4.528783321380615,117.0,133.0,46.0,99.0,135.0,110.0,102.0
4.531816482543945,213.0,131.0,57.0,78.0,143.0,88.0,95.0
4.534850120544434,211.0,419.0,68.0,85.0,90.0,80.0,88.0
4.537883281707764,159.0,241.0,120.0,91.0,95.0,47.0,55.0
4.540983200073242,155.0,63.0,143.0,42.0,74.0,83.0,97.0
4.544033527374268,152.0,146.0,124.0,99.0,69.0,19.0,126.0
4.547066688537598,131.0,158.0,91.0,75.0,60.0,79.0,83.0
4.550099849700928,178.0,169.0,72.0,48.0,51.0,119.0,39.0
4.553133487701416,66.0,132.0,103.0,109.0,47.0,84.0,82.0
4.556166648864746,78.0,124.0,95.0,66.0,43.0,144.0,111.0
4.55923318862915,79.0,100.0,48.0,45.0,114.0,107.0,72.0
4.562266826629639,80.0,75.0,56.0,25.0,84.0,69.0,70.0
4.565299987792969,84.0,77.0,77.0,79.0,53.0,116.0,55.0
4.568333148956299,42.0,31.0,60.0,74.0,73.0,44.0,69.0
4.571366786956787,47.0,66.0,67.0,68.0,89.0,69.0,84.0
4.574433326721191,59.0,33.0,74.0,43.0,57.0,61.0,42.0
4.5774664878845215,34.0,40.0,122.0,59.0,67.0,64.0,51.0
4.58050012588501,28.0,10.0,115.0,43.0,63.0,68.0,68.0
4.58353328704834,51.0,109.0,102.0,68.0,59.0,60.0,70.0
4.58656644821167,35.0,114.0,202.0,13.0,58.0,53.0,33.0
4.589600086212158,29.0,115.0,123.0,26.0,49.0,33.0,53.0
4.5926666259765625,63.0,75.0,44.0,38.0,15.0,45.0,11.0
4.595699787139893,444.0,35.0,7.0,23.0,10.0,41.0,27.0
4.598733425140381,499.0,47.0,58.0,58.0,6.0,37.0,42.0
4.601766586303711,26.0,58.0,54.0,68.0,53.0,29.0,57.0
4.604800224304199,19.0,36.0,49.0,68.0,42.0,21.0,48.0
4.6078667640686035,333.0,43.0,27.0,16.0,31.0,19.0,47.0
4.610899925231934,56.0,27.0,58.0,27.0,19.0,18.0,54.0
4.613933563232422,29.0,549.0,80.0,273.0,19.0,24.0,34.0
4.616966724395752,336.0,659.0,102.0,136.0,32.0,29.0,34.0
4.619999885559082,71.0,36.0,33.0,0.0,39.0,28.0,6.0
4.62303352355957,59.0,60.0,12.0,24.0,39.0,27.0,16.0
4.626100063323975,13.0,74.0,31.0,36.0,39.0,23.0,27.0
4.629133224487305,34.0,67.0,407.0,19.0,25.0,20.0,38.0
4.632166862487793,80.0,26.0,279.0,6.0,36.0,29.0,30.0
4.635200023651123,525.0,62.0,151.0,23.0,9.0,38.0,7.0
4.638233184814453,285.0,44.0,104.0,18.0,23.0,8.0,51.0
4.641300201416016,44.0,30.0,0.0,19.0,46.0,34.0,13.0
4.644333362579346,37.0,17.0,16.0,21.0,34.0,29.0,6.0
4.647366523742676,59.0,20.0,63.0,41.0,48.0,25.0,35.0
4.650400161743164,36.0,38.0,37.0,776.0,15.0,41.0,40.0
4.653433322906494,35.0,56.0,1197.0,1050.0,28.0,57.0,20.0
4.656466484069824,21.0,476.0,1649.0,1425.0,226.0,1524.0,970.0
4.659533500671387,25.0,1202.0,1242.0,2517.0,425.0,1652.0,632.0
4.662566661834717,0.0,2105.0,13224.0,11956.0,8018.0,5796.0,294.0
4.665599822998047,46.0,13612.0,31104.0,28868.0,26116.0,12856.0,8129.0
4.668633460998535,31.0,18144.0,58400.0,82144.0,60288.0,30604.0,6562.0
4.671666622161865,16.0,58368.0,105552.0,115264.0,84160.0,56912.0,16244.0
4.6747331619262695,23.0,78784.0,224896.0,228096.0,158272.0,78208.0,39120.0
4.677766799926758,22.0,137664.0,339264.0,400384.0,244544.0,160320.0,49472.0
4.680799961090088,21.0,188160.0,518976.0,522304.0,356992.0,219264.0,53968.0
4.683833122253418,54.0,246144.0,604672.0,686336.0,454080.0,261696.0,88240.0
4.686866760253906,337.0,314752.0,816640.0,869632.0,605440.0,332288.0,107904.0
4.689899921417236,620.0,417088.0,1027072.0,1036544.0,678144.0,409600.0,131968.0
4.692966461181641,357.0,453952.0,1172992.0,1179904.0,817920.0,421184.0,129392.0
4.696000099182129,94.0,471232.0,1180672.0,1176576.0,812544.0,496064.0,136640.0
4.699033260345459,466.0,565760.0,1396992.0,1298176.0,855552.0,494016.0,136704.0
4.702066898345947,510.0,539392.0,1293568.0,1342208.0,914176.0,513664.0,136704.0
4.705100059509277,781.0,565760.0,1398784.0,1355008.0,925952.0,478464.0,127488.0
4.708166599273682,424.0,555264.0,1268480.0,1342720.0,901632.0,507776.0,135552.0
4.71120023727417,66.0,540928.0,1241600.0,1355264.0,879872.0,460992.0,143616.0
4.7142333984375,146.0,506304.0,1198848.0,1179136.0,800000.0,475968.0,121664.0
4.71726655960083,111.0,480000.0,1209088.0,1164800.0,764672.0,401920.0,140096.0
4.720300197601318,35.0,436544.0,1058816.0,1122816.0,721152.0,397632.0,125200.0
4.723333358764648,285.0,424896.0,984320.0,1059328.0,633344.0,415296.0,114528.0
4.726399898529053,150.0,416192.0,896000.0,923136.0,646656.0,363264.0,97472.0
4.729433536529541,16.0,368128.0,846592.0,872960.0,575744.0,293440.0,99616.0
4.732466697692871,71.0,375360.0,895488.0,804096.0,553472.0,318400.0,92704.0
4.735499858856201,94.0,344064.0,790528.0,829184.0,487360.0,302848.0,98480.0
4.7385334968566895,771.0,332736.0,773632.0,810496.0,532224.0,267904.0,76032.0
4.741600036621094,433.0,330880.0,755968.0,779264.0,524288.0,290432.0,89024.0
4.744633197784424,96.0,324416.0,676864.0,728576.0,507072.0,287616.0,82576.0
4.747666835784912,111.0,300992.0,695040.0,694784.0,536064.0,290496.0,78640.0
4.750699996948242,36.0,321856.0,731904.0,746240.0,439616.0,235904.0,68848.0
4.753733158111572,159.0,303040.0,712704.0,699136.0,463616.0,271616.0,80672.0
4.7567667961120605,281.0,283520.0,676608.0,666880.0,471616.0,257856.0,71408.0
4.759833335876465,180.0,271808.0,654592.0,677888.0,445696.0,259072.0,74096.0
4.762866497039795,79.0,263616.0,665088.0,620544.0,416320.0,229888.0,63344.0
4.765900135040283,55.0,267584.0,591616.0,591360.0,411008.0,244800.0,74624.0
4.768933296203613,48.0,199296.0,536320.0,610304.0,388416.0,228160.0,52528.0
4.771966457366943,51.0,203200.0,496320.0,529408.0,342400.0,178688.0,55408.0
4.775033473968506,55.0,180416.0,462720.0,451776.0,345792.0,170816.0,57728.0
4.778066635131836,64.0,184064.0,456448.0,416576.0,253184.0,154112.0,42992.0
4.781099796295166,59.0,175296.0,353856.0,363456.0,209664.0,129024.0,45360.0
4.784133434295654,54.0,119504.0,290304.0,287360.0,191872.0,105968.0,27668.0
4.787166595458984,65.0,119232.0,250048.0,261952.0,177792.0,88560.0,24888.0
4.790200233459473,76.0,90720.0,202624.0,193216.0,144192.0,80384.0,30628.0
4.793266773223877,41.0,76432.0,196352.0,153472.0,93312.0,46096.0,21108.0
4.796299934387207,6.0,55888.0,135296.0,124192.0,80896.0,48528.0,10080.0
4.799333095550537,44.0,37600.0,105008.0,102832.0,74576.0,40336.0,10124.0
4.801516532897949,95.0,45440.0,89488.0,93664.0,73936.0,30604.0,11684.0
4.803033351898193,1112.0,37024.0,84032.0,83120.0,65184.0,29756.0,8162.0
4.8045501708984375,899.0,38608.0,67232.0,77136.0,53808.0,26820.0,7180.0
4.806049823760986,51.0,23608.0,62704.0,66352.0,47232.0,19724.0,3392.0
4.807600021362305,696.0,30040.0,57184.0,52976.0,34176.0,18948.0,4261.0
4.809116840362549,79.0,22404.0,46928.0,50496.0,43936.0,16668.0,5130.0
4.810633182525635,49.0,16520.0,45216.0,46048.0,34576.0,15416.0,4820.0
4.812150001525879,19.0,12276.0,38128.0,40336.0,37152.0,10692.0,4511.0
4.813666820526123,27.0,7227.0,43616.0,41808.0,24720.0,11516.0,1048.0
4.815183162689209,36.0,19328.0,37920.0,38976.0,24368.0,13848.0,5108.0
4.816699981689453,35.0,17372.0,34432.0,38544.0,21552.0,11840.0,3839.0
4.818216800689697,41.0,11680.0,31380.0,25016.0,23536.0,9592.0,4356.0
4.819733142852783,46.0,16032.0,24984.0,27928.0,16788.0,9944.0,895.0
4.821249961853027,37.0,7112.0,16632.0,23336.0,14812.0,8216.0,1607.0
4.8227667808532715,27.0,10140.0,21936.0,29140.0,12416.0,6708.0,3219.0
4.824349880218506,21.0,7168.0,29400.0,23472.0,15088.0,5701.0,3985.0
4.82586669921875,14.0,7676.0,24600.0,24208.0,13932.0,9192.0,3411.0
4.827383518218994,36.0,3871.0,15912.0,23228.0,12776.0,7813.0,959.0
4.82889986038208,29.0,7329.0,14828.0,17008.0,14600.0,4852.0,2521.0
4.830416679382324,35.0,1860.0,16592.0,14796.0,10580.0,7327.0,1567.0
4.831933498382568,41.0,3576.0,17628.0,14516.0,9276.0,8772.0,2614.0
4.833449840545654,43.0,3996.0,18556.0,12456.0,12568.0,7816.0,1566.0
4.834966659545898,33.0,7618.0,15852.0,20088.0,10744.0,6199.0,3170.0
4.836483478546143,43.0,7684.0,17844.0,18436.0,8920.0,8752.0,65.0
4.8379998207092285,40.0,7188.0,11136.0,17264.0,12592.0,3275.0,274.0
4.839516639709473,36.0,4951.0,14388.0,12316.0,9332.0,6506.0,332.0
4.841083526611328,48.0,6102.0,12672.0,14676.0,5881.0,2568.0,173.0
4.842599868774414,21.0,4518.0,7023.0,15180.0,7465.0,3051.0,15.0
4.844116687774658,64.0,5294.0,9104.0,12700.0,5559.0,2951.0,705.0
4.845633506774902,57.0,5902.0,10628.0,10672.0,2864.0,4661.0,1396.0
4.847149848937988,51.0,4821.0,12128.0,13032.0,5338.0,5939.0,1964.0
4.8486833572387695,57.0,3739.0,11504.0,7587.0,4245.0,4820.0,975.0
4.850183486938477,24.0,2565.0,11012.0,7801.0,5739.0,3776.0,2339.0
4.8516998291015625,33.0,2501.0,9016.0,12276.0,2718.0,5570.0,1713.0
4.853216648101807,0.0,2436.0,10192.0,10916.0,2000.0,3071.0,2317.0
4.854733467102051,5.0,3656.0,10100.0,9560.0,7075.0,5887.0,543.0
4.856249809265137,51.0,3592.0,10008.0,10024.0,6245.0,7506.0,1643.0
4.857800006866455,29.0,4502.0,10780.0,10488.0,8496.0,1053.0,67.0
4.859316825866699,8.0,5412.0,6867.0,9028.0,7923.0,4838.0,1138.0
4.860833168029785,76.0,4123.0,9412.0,7551.0,5017.0,4128.0,651.0
4.862349987030029,61.0,2834.0,9876.0,7803.0,7539.0,4145.0,1587.0
4.863866806030273,32.0,1174.0,7257.0,7852.0,5339.0,1127.0,649.0
4.865383148193359,52.0,1467.0,10472.0,7901.0,3138.0,4015.0,880.0
4.8668999671936035,53.0,1314.0,4913.0,7176.0,3289.0,2952.0,457.0
4.868416786193848,52.0,1161.0,9992.0,6450.0,4936.0,2908.0,3659.0
4.869933128356934,33.0,110.0,10400.0,6838.0,4280.0,1636.0,2969.0
4.871449947357178,65.0,1030.0,6877.0,7225.0,3624.0,2862.0,705.0
4.872966766357422,20.0,1949.0,5602.0,7288.0,3903.0,2814.0,2083.0
4.874533176422119,23.0,2421.0,6736.0,7350.0,4181.0,921.0,48.0
4.8760666847229,67.0,1792.0,8068.0,5568.0,3468.0,1589.0,2005.0
4.8775835037231445,57.0,1692.0,7359.0,6708.0,2756.0,2257.0,929.0
4.8790998458862305,47.0,2022.0,6650.0,7847.0,4143.0,1864.0,355.0
4.880616664886475,33.0,1834.0,7471.0,7787.0,4858.0,3782.0,1636.0
4.882133483886719,19.0,1647.0,10248.0,7140.0,5573.0,3656.0,15.0
4.883649826049805,46.0,1816.0,9436.0,6493.0,4291.0,3492.0,1493.0
4.885166645050049,54.0,2379.0,8620.0,5126.0,4458.0,644.0,1183.0
4.886683464050293,48.0,2942.0,8131.0,8147.0,4625.0,1934.0,1127.0
4.888199806213379,54.0,442.0,8356.0,3924.0,4693.0,2688.0,1039.0
4.889716625213623,59.0,3011.0,8186.0,5885.0,4761.0,3898.0,950.0
4.891233444213867,46.0,3525.0,4516.0,7846.0,3211.0,4728.0,0.0
4.892816543579102,42.0,2400.0,5509.0,7426.0,4245.0,4290.0,535.0
4.894333362579346,39.0,3348.0,4397.0,3024.0,3908.0,1172.0,1070.0
4.89585018157959,36.0,1864.0,7877.0,4454.0,3571.0,3092.0,699.0
4.897366523742676,26.0,2485.0,7848.0,5884.0,1701.0,1718.0,20.0
4.89888334274292,17.0,2129.0,6026.0,4277.0,3897.0,3708.0,1656.0
4.900400161743164,7.0,1605.0,4203.0,2669.0,2996.0,1945.0,2231.0
4.90191650390625,24.0,2220.0,9236.0,3550.0,2889.0,0.0,121.0
4.903433322906494,23.0,3138.0,3033.0,4430.0,7271.0,2580.0,2328.0
4.904950141906738,23.0,4055.0,5573.0,3099.0,7595.0,2104.0,11.0
4.906466484069824,27.0,4165.0,6542.0,4401.0,5320.0,2206.0,1191.0
4.907983303070068,32.0,2733.0,6925.0,3362.0,4438.0,2338.0,7.0
4.909566879272461,14.0,3567.0,2742.0,2955.0,1995.0,1976.0,1304.0
4.911083221435547,28.0,2184.0,5491.0,6732.0,5146.0,2258.0,551.0
4.912600040435791,39.0,2396.0,3293.0,6397.0,5632.0,2540.0,1718.0
4.914116859436035,49.0,1854.0,3018.0,6471.0,2161.0,2603.0,1743.0
4.915633201599121,19.0,29.0,1808.0,6836.0,4787.0,398.0,16.0
4.917150020599365,18.0,1506.0,2342.0,5525.0,3396.0,1392.0,793.0
4.918666839599609,17.0,3558.0,2875.0,3902.0,959.0,1516.0,1140.0
4.920183181762695,17.0,3757.0,4410.0,5559.0,5777.0,1784.0,810.0
4.9217000007629395,18.0,2742.0,3836.0,5856.0,1750.0,2111.0,220.0
4.923216819763184,20.0,4316.0,3262.0,4363.0,1933.0,2439.0,264.0
4.9247331619262695,22.0,837.0,5627.0,3022.0,1528.0,2050.0,22.0
4.926300048828125,24.0,1352.0,5042.0,2992.0,1281.0,2154.0,46.0
4.927816867828369,9.0,5581.0,3610.0,3688.0,1164.0,1520.0,18.0
4.929333209991455,25.0,3444.0,867.0,1146.0,1047.0,1502.0,16.0
4.930866718292236,42.0,23.0,1910.0,4090.0,3195.0,1485.0,14.0
4.932366847991943,56.0,4992.0,4584.0,3901.0,3202.0,1488.0,485.0
4.933883190155029,35.0,1849.0,5215.0,2523.0,4377.0,607.0,252.0
4.935400009155273,29.0,1110.0,3629.0,3568.0,1221.0,664.0,20.0
4.936916828155518,24.0,1540.0,6121.0,4613.0,4083.0,722.0,30.0
4.9384331703186035,41.0,8.0,5296.0,3265.0,1867.0,394.0,34.0
4.939949989318848,117.0,1989.0,6291.0,1917.0,2942.0,66.0,197.0
4.941466808319092,75.0,63.0,1227.0,4332.0,2028.0,645.0,105.0
4.943049907684326,33.0,1027.0,1671.0,4614.0,2894.0,745.0,13.0
4.94456672668457,16.0,1026.0,2161.0,2594.0,2382.0,1620.0,18.0
4.9460835456848145,0.0,1025.0,2794.0,4063.0,1870.0,1165.0,24.0
4.9475998878479,34.0,1371.0,3428.0,1395.0,1775.0,709.0,12.0
4.9491167068481445,34.0,1718.0,3003.0,2322.0,1681.0,1054.0,0.0
4.950633525848389,35.0,511.0,2579.0,2804.0,1894.0,1398.0,9.0
4.952149868011475,16.0,1236.0,2947.0,3286.0,2107.0,1301.0,18.0
4.953666687011719,44.0,1010.0,3316.0,3521.0,497.0,932.0,5.0
4.955183506011963,36.0,784.0,3593.0,3928.0,4620.0,40.0,1052.0
4.956699848175049,28.0,396.0,769.0,4335.0,4053.0,467.0,1140.0
4.958216667175293,167.0,8.0,3249.0,2190.0,2924.0,895.0,767.0
4.959799766540527,192.0,562.0,1336.0,4269.0,1299.0,1011.0,19.0
4.9613165855407715,99.0,1116.0,2968.0,2233.0,2937.0,512.0,1652.0
4.962833404541016,7.0,928.0,2342.0,1254.0,390.0,12.0,36.0
4.96435022354126,7.0,740.0,1716.0,2920.0,1917.0,290.0,30.0
4.965866565704346,33.0,860.0,2377.0,2970.0,3641.0,568.0,21.0
4.96738338470459,27.0,979.0,2140.0,3686.0,4602.0,461.0,25.0
4.968900203704834,49.0,1024.0,2465.0,2741.0,581.0,586.0,29.0
4.97041654586792,36.0,1745.0,2791.0,1796.0,2112.0,957.0,12.0
4.971933364868164,23.0,2116.0,2759.0,1412.0,1796.0,488.0,14.0
4.973450183868408,12.0,1466.0,2727.0,1166.0,1202.0,19.0,16.0
4.974966526031494,563.0,816.0,2187.0,920.0,1052.0,638.0,911.0
4.97653341293335,564.0,7.0,3242.0,324.0,1059.0,1513.0,1126.0
4.978050231933594,41.0,1951.0,2649.0,3008.0,1066.0,1867.0,31.0
4.97956657409668,13.0,41.0,2056.0,2773.0,34.0,1613.0,1236.0
4.981083393096924,48.0,58.0,1359.0,4670.0,546.0,523.0,559.0
4.982600212097168,17.0,16.0,2333.0,2521.0,1408.0,1605.0,934.0
4.984116554260254,17.0,57.0,1451.0,2594.0,1431.0,1949.0,759.0
4.985633373260498,18.0,48.0,1931.0,1726.0,1454.0,359.0,56.0
4.987150192260742,21.0,40.0,1974.0,3270.0,906.0,10.0,292.0
4.988666534423828,24.0,152.0,2152.0,1174.0,916.0,422.0,63.0
4.990183353424072,25.0,265.0,1747.0,1327.0,551.0,692.0,41.0
4.991700172424316,27.0,142.0,2373.0,905.0,973.0,962.0,20.0
4.993266582489014,27.0,19.0,676.0,2226.0,1395.0,499.0,31.0
4.994800090789795,31.0,20.0,38.0,2623.0,719.0,37.0,42.0
4.996316432952881,31.0,584.0,743.0,0.0,43.0,7.0,36.0
4.997833251953125,32.0,307.0,2187.0,2214.0,669.0,509.0,43.0
