,325.2099914550781,326.2099914550781,327.2099914550781,328.2099914550781,329.2099914550781,330.2099914550781,331.2099914550781,332.2099914550781
2.3020999431610107,36.0,25.0,42.0,67.0,20.0,96.0,29.0,70.0
2.3045332431793213,68.0,71.0,88.0,70.0,12.0,36.0,25.0,19.0
2.307783365249634,5.0,23.0,18.0,38.0,13.0,29.0,23.0,27.0
2.311033248901367,27.0,25.0,42.0,31.0,10.0,0.0,17.0,35.0
2.3142833709716797,30.0,17.0,12.0,19.0,22.0,11.0,12.0,26.0
2.317533254623413,24.0,16.0,24.0,17.0,30.0,5.0,20.0,5.0
2.320833444595337,17.0,15.0,36.0,18.0,25.0,0.0,10.0,18.0
2.3241000175476074,14.0,15.0,20.0,19.0,32.0,46.0,0.0,26.0
2.327349901199341,14.0,13.0,22.0,13.0,31.0,37.0,11.0,35.0
2.3306167125701904,13.0,0.0,24.0,7.0,31.0,10.0,10.0,44.0
2.333866596221924,169.0,31.0,29.0,21.0,6.0,27.0,10.0,40.0
2.3371167182922363,110.0,22.0,5.0,8.0,31.0,27.0,11.0,8.0
2.340416669845581,52.0,21.0,27.0,11.0,54.0,27.0,12.0,0.0
2.3436665534973145,13.0,20.0,15.0,13.0,58.0,20.0,0.0,11.0
2.346916675567627,26.0,10.0,33.0,18.0,38.0,30.0,30.0,22.0
2.3501665592193604,10.0,13.0,0.0,23.0,10.0,27.0,46.0,27.0
2.353416681289673,25.0,10.0,19.0,5.0,50.0,28.0,35.0,21.0
2.3567333221435547,20.0,18.0,33.0,28.0,49.0,22.0,24.0,20.0
2.359983444213867,15.0,22.0,25.0,12.0,25.0,37.0,29.0,18.0
2.3632333278656006,10.0,19.0,21.0,5.0,10.0,27.0,34.0,16.0
2.366483449935913,25.0,17.0,26.0,56.0,45.0,18.0,51.0,5.0
2.3697333335876465,24.0,15.0,30.0,66.0,14.0,31.0,41.0,10.0
2.373033285140991,22.0,22.0,12.0,0.0,682.0,20.0,31.0,8.0
2.3762834072113037,29.0,481.0,1384.0,56.0,1371.0,993.0,33.0,6.0
2.379533290863037,12.0,1481.0,1159.0,648.0,1175.0,829.0,24.0,32.0
2.3827834129333496,18.0,1498.0,933.0,583.0,978.0,391.0,18.0,311.0
2.386033296585083,24.0,1763.0,5575.0,2575.0,2258.0,507.0,681.0,1180.0
2.389349937438965,21.0,2430.0,7177.0,6105.0,2054.0,1281.0,2169.0,1043.0
2.3926000595092773,19.0,2270.0,7160.0,8516.0,2976.0,2054.0,2844.0,1315.0
2.3958499431610107,18.0,6713.0,11140.0,7229.0,3898.0,2108.0,2101.0,1006.0
2.3991000652313232,0.0,9952.0,16280.0,12344.0,7196.0,5497.0,2279.0,935.0
2.4023499488830566,10.0,11344.0,21420.0,14696.0,9872.0,6538.0,2457.0,863.0
2.4056334495544434,22.0,14160.0,25196.0,17048.0,12548.0,7579.0,7236.0,1699.0
2.408916711807251,6.0,21460.0,34800.0,22452.0,15752.0,10612.0,9568.0,2534.0
2.4121665954589844,25.0,30772.0,45456.0,21376.0,23108.0,11804.0,9076.0,4020.0
2.415416717529297,27.0,30628.0,50000.0,24420.0,30236.0,17132.0,11848.0,5506.0
2.4186666011810303,33.0,40224.0,71408.0,27464.0,33456.0,14992.0,15108.0,4785.0
2.4219167232513428,11.0,44048.0,79360.0,32292.0,36432.0,25220.0,15860.0,7167.0
2.4251832962036133,0.0,50416.0,86192.0,54144.0,35776.0,22724.0,17252.0,9548.0
2.428433418273926,7.0,59792.0,91456.0,69744.0,43776.0,23248.0,18480.0,11600.0
2.431683301925659,15.0,64576.0,96704.0,65968.0,48864.0,37248.0,20256.0,17200.0
2.4349334239959717,5.0,63920.0,116592.0,70608.0,53952.0,40272.0,18748.0,16664.0
2.438183307647705,12.0,60576.0,138880.0,75328.0,51872.0,29344.0,26552.0,16844.0
2.441499948501587,19.0,57232.0,133056.0,87232.0,49808.0,32464.0,22504.0,17024.0
2.4447500705718994,10.0,64720.0,119040.0,88400.0,47664.0,22552.0,18460.0,12812.0
2.447999954223633,23.0,65248.0,145152.0,63504.0,56960.0,39936.0,27776.0,18156.0
2.4512500762939453,29.0,69168.0,124288.0,94016.0,51104.0,43840.0,21284.0,13720.0
2.4544999599456787,29.0,69376.0,112944.0,79824.0,45232.0,39040.0,20896.0,19376.0
2.4578166007995605,24.0,69600.0,118912.0,76176.0,52304.0,36256.0,23440.0,18996.0
2.461066722869873,20.0,61024.0,114832.0,68720.0,43152.0,35344.0,25984.0,10356.0
2.4643166065216064,21.0,54976.0,126144.0,80544.0,41312.0,35520.0,27392.0,10736.0
2.467566728591919,31.0,67360.0,91360.0,76544.0,39456.0,33632.0,16900.0,16028.0
2.4708166122436523,36.0,45248.0,94896.0,55856.0,32380.0,31028.0,14376.0,12452.0
2.474116563796997,35.0,54848.0,87104.0,43376.0,31952.0,23292.0,18120.0,5483.0
2.4773666858673096,10.0,44736.0,84224.0,61728.0,38704.0,22616.0,11496.0,11536.0
2.480616569519043,19.0,35312.0,58880.0,34432.0,32668.0,13864.0,17972.0,9100.0
2.4838666915893555,16.0,32944.0,58992.0,33008.0,23660.0,16560.0,14160.0,5113.0
2.487116575241089,13.0,32212.0,49568.0,24328.0,14320.0,19428.0,8004.0,1820.0
2.4904332160949707,17.0,19868.0,44000.0,33824.0,15880.0,7428.0,8576.0,4118.0
2.493683338165283,0.0,14956.0,29760.0,23328.0,14644.0,6158.0,7383.0,1934.0
2.4969332218170166,34.0,11312.0,30944.0,12944.0,10228.0,4895.0,4707.0,1160.0
2.500183343887329,29.0,5296.0,13576.0,9812.0,7195.0,6092.0,4596.0,3510.0
2.5034332275390625,40.0,10364.0,13220.0,10132.0,6987.0,5771.0,2604.0,800.0
2.506683349609375,24.0,7759.0,5363.0,4856.0,7879.0,1473.0,2853.0,1561.0
2.509999990463257,0.0,2720.0,8284.0,2295.0,2910.0,2832.0,1808.0,39.0
2.5132501125335693,23.0,5371.0,5405.0,4284.0,4939.0,1031.0,739.0,67.0
2.5164999961853027,22.0,1802.0,6450.0,3258.0,2106.0,607.0,3350.0,492.0
2.5197501182556152,21.0,2561.0,4358.0,3255.0,3188.0,321.0,482.0,266.0
2.5230000019073486,17.0,3574.0,2698.0,5177.0,2486.0,34.0,27.0,40.0
2.5263166427612305,22.0,2279.0,2228.0,724.0,50.0,25.0,42.0,41.0
2.529566764831543,11.0,1007.0,3421.0,805.0,1948.0,16.0,23.0,27.0
2.5328166484832764,18.0,1716.0,1344.0,19.0,2032.0,794.0,5.0,33.0
2.536066770553589,14.0,1948.0,10.0,1185.0,1210.0,1203.0,10.0,32.0
2.5393166542053223,10.0,985.0,1883.0,542.0,24.0,1020.0,52.0,31.0
2.54259991645813,37.0,1105.0,1060.0,2044.0,25.0,837.0,50.0,5.0
2.5458500385284424,23.0,417.0,1246.0,1488.0,1148.0,749.0,36.0,27.0
2.549099922180176,10.0,820.0,898.0,955.0,211.0,320.0,22.0,24.0
2.5523500442504883,20.0,829.0,550.0,406.0,1702.0,39.0,15.0,22.0
2.5555999279022217,15.0,839.0,1077.0,960.0,1655.0,0.0,39.0,48.0
2.5589001178741455,10.0,607.0,1382.0,1061.0,824.0,10.0,30.0,27.0
2.562150001525879,36.0,1447.0,1287.0,1162.0,833.0,5.0,22.0,6.0
2.5653998851776123,29.0,753.0,49.0,589.0,1191.0,13.0,36.0,20.0
2.568650007247925,14.0,58.0,2110.0,17.0,0.0,20.0,5.0,675.0
2.571899890899658,27.0,24.0,1053.0,1405.0,558.0,598.0,24.0,552.0
2.575216770172119,16.0,641.0,23.0,1408.0,105.0,338.0,31.0,26.0
2.5784666538238525,5.0,650.0,15.0,1711.0,337.0,78.0,37.0,33.0
2.581716775894165,25.0,658.0,39.0,658.0,181.0,10.0,30.0,23.0
2.5849666595458984,27.0,697.0,64.0,86.0,25.0,13.0,26.0,5.0
2.588216781616211,13.0,43.0,64.0,64.0,6.0,25.0,21.0,47.0
2.5914666652679443,52.0,30.0,63.0,519.0,25.0,33.0,30.0,24.0
2.594783306121826,63.0,18.0,7.0,74.0,562.0,37.0,22.0,0.0
2.5980334281921387,46.0,143.0,24.0,58.0,1029.0,41.0,14.0,19.0
2.601283311843872,25.0,268.0,36.0,43.0,768.0,37.0,25.0,31.0
2.6045334339141846,26.0,156.0,47.0,911.0,773.0,33.0,43.0,42.0
2.607783317565918,27.0,45.0,54.0,1214.0,25.0,27.0,35.0,25.0
2.6110999584198,25.0,10.0,1303.0,804.0,15.0,21.0,5.0,10.0
2.6143500804901123,23.0,74.0,1425.0,43.0,481.0,21.0,22.0,17.0
2.6175999641418457,16.0,1101.0,13.0,29.0,269.0,22.0,28.0,25.0
2.620850086212158,5.0,554.0,43.0,23.0,57.0,33.0,23.0,23.0
2.6240999698638916,17.0,6.0,37.0,20.0,15.0,61.0,18.0,21.0
2.6274166107177734,28.0,6.0,57.0,17.0,63.0,46.0,20.0,40.0
2.630666732788086,32.0,31.0,10.0,31.0,37.0,30.0,38.0,58.0
2.6339166164398193,34.0,32.0,12.0,44.0,70.0,34.0,41.0,37.0
2.637166738510132,24.0,32.0,9.0,33.0,48.0,26.0,51.0,16.0
2.6404166221618652,15.0,846.0,6.0,21.0,25.0,31.0,60.0,33.0
2.64371657371521,20.0,433.0,40.0,22.0,45.0,30.0,20.0,29.0
2.6469666957855225,16.0,21.0,23.0,30.0,222.0,10.0,27.0,30.0
2.650216579437256,15.0,1125.0,5.0,68.0,117.0,12.0,35.0,32.0
2.6534667015075684,47.0,465.0,17.0,39.0,11.0,16.0,23.0,29.0
2.6567165851593018,53.0,1221.0,30.0,10.0,28.0,13.0,11.0,27.0
2.6600332260131836,31.0,425.0,32.0,32.0,33.0,10.0,27.0,37.0
2.663283348083496,5.0,37.0,35.0,50.0,44.0,10.0,18.0,35.0
2.6665332317352295,63.0,41.0,25.0,0.0,5.0,7.0,9.0,38.0
2.669783353805542,36.0,48.0,37.0,21.0,30.0,5.0,16.0,28.0
2.6730332374572754,10.0,28.0,32.0,42.0,20.0,15.0,8.0,28.0
2.676283359527588,5.0,31.0,27.0,20.0,31.0,32.0,0.0,0.0
2.6796000003814697,0.0,33.0,24.0,13.0,29.0,38.0,47.0,48.0
2.682849884033203,0.0,32.0,21.0,50.0,17.0,44.0,28.0,32.0
2.6861000061035156,31.0,46.0,796.0,61.0,16.0,0.0,8.0,55.0
2.689349889755249,37.0,30.0,753.0,59.0,15.0,19.0,15.0,15.0
2.6926000118255615,47.0,15.0,0.0,57.0,14.0,14.0,26.0,11.0
2.695866584777832,5.0,23.0,23.0,5.0,13.0,0.0,36.0,33.0
2.6991167068481445,16.0,15.0,19.0,13.0,27.0,7.0,39.0,31.0
2.702366590499878,13.0,21.0,11.0,22.0,43.0,13.0,26.0,28.0
2.7056167125701904,10.0,27.0,391.0,5.0,59.0,21.0,84.0,12.0
2.708866596221924,10.0,32.0,204.0,24.0,41.0,13.0,143.0,10.0
2.7121832370758057,24.0,10.0,17.0,20.0,22.0,5.0,86.0,44.0
2.715433359146118,26.0,15.0,480.0,15.0,21.0,5.0,30.0,33.0
2.7186832427978516,34.0,17.0,28.0,10.0,21.0,25.0,21.0,39.0
2.721933364868164,21.0,6.0,362.0,5.0,20.0,31.0,17.0,27.0
2.7251832485198975,35.0,542.0,15.0,10.0,15.0,14.0,12.0,25.0
2.7284998893737793,25.0,315.0,27.0,16.0,10.0,33.0,29.0,16.0
2.731750011444092,17.0,88.0,34.0,31.0,15.0,12.0,23.0,6.0
2.734999895095825,29.0,56.0,48.0,24.0,21.0,11.0,18.0,18.0
2.7382500171661377,55.0,24.0,55.0,18.0,19.0,6.0,5.0,5.0
2.741499900817871,35.0,10.0,58.0,15.0,17.0,0.0,5.0,10.0
2.744800090789795,15.0,33.0,489.0,36.0,16.0,18.0,5.0,20.0
2.7480499744415283,32.0,26.0,381.0,79.0,14.0,12.0,10.0,16.0
2.751316785812378,23.0,5.0,10.0,77.0,0.0,15.0,21.0,13.0
2.7545666694641113,11.0,37.0,10.0,96.0,15.0,36.0,191.0,15.0
2.7578165531158447,19.0,5.0,57.0,21.0,15.0,28.0,110.0,18.0
2.7610833644866943,23.0,6.0,11.0,53.0,15.0,20.0,28.0,31.0
2.7643332481384277,11.0,10.0,40.0,11.0,64.0,17.0,38.0,31.0
2.7675833702087402,0.0,7.0,22.0,8.0,395.0,15.0,20.0,36.0
2.7708332538604736,0.0,5.0,22.0,5.0,462.0,17.0,20.0,41.0
2.774083375930786,16.0,7.0,23.0,21.0,10.0,20.0,41.0,42.0
2.7773332595825195,58.0,10.0,31.0,37.0,17.0,10.0,13.0,36.0
2.7806499004364014,52.0,18.0,38.0,30.0,38.0,0.0,14.0,18.0
2.783900022506714,33.0,24.0,40.0,34.0,10.0,10.0,24.0,0.0
2.7871499061584473,24.0,29.0,29.0,918.0,15.0,19.0,19.0,21.0
2.7904000282287598,25.0,25.0,41.0,763.0,21.0,26.0,13.0,21.0
2.793649911880493,30.0,22.0,18.0,13.0,542.0,15.0,30.0,22.0
2.796966552734375,32.0,32.0,16.0,43.0,578.0,5.0,10.0,35.0
2.8002166748046875,24.0,38.0,15.0,34.0,10.0,15.0,33.0,66.0
2.803466558456421,16.0,44.0,18.0,17.0,572.0,25.0,591.0,97.0
2.8067166805267334,59.0,29.0,22.0,142.0,30.0,19.0,452.0,534.0
2.809966564178467,48.0,34.0,21.0,103.0,625.0,13.0,889.0,272.0
2.8132834434509277,53.0,10.0,20.0,63.0,1215.0,11.0,939.0,10.0
2.816533327102661,21.0,10.0,13.0,53.0,1557.0,17.0,603.0,25.0
2.8197834491729736,10.0,16.0,6.0,10.0,1378.0,27.0,336.0,41.0
2.823033332824707,29.0,17.0,23.0,35.0,512.0,37.0,69.0,986.0
2.8262832164764404,23.0,18.0,21.0,60.0,770.0,29.0,1941.0,1246.0
2.8295834064483643,20.0,22.0,20.0,30.0,996.0,21.0,2184.0,646.0
2.8328332901000977,17.0,37.0,11.0,0.0,1223.0,735.0,3354.0,46.0
2.83608341217041,19.0,41.0,25.0,60.0,1729.0,393.0,6907.0,1344.0
2.8393332958221436,0.0,19.0,39.0,78.0,1425.0,50.0,14520.0,445.0
2.842583417892456,11.0,24.0,36.0,66.0,1121.0,577.0,11536.0,229.0
2.845900058746338,34.0,9.0,37.0,53.0,1867.0,301.0,13404.0,13.0
2.8491499423980713,37.0,5.0,42.0,44.0,1561.0,25.0,24256.0,263.0
2.852400064468384,27.0,29.0,21.0,41.0,1254.0,5.0,28564.0,514.0
2.855649948120117,17.0,21.0,22.0,24.0,658.0,16.0,28188.0,2433.0
2.8589000701904297,23.0,118.0,12.0,0.0,62.0,28.0,32896.0,2475.0
2.862149953842163,0.0,78.0,18.0,26.0,1429.0,39.0,41408.0,2518.0
2.865466594696045,16.0,39.0,5.0,27.0,1560.0,36.0,49536.0,3551.0
2.8687167167663574,10.0,14.0,34.0,41.0,526.0,32.0,41136.0,4281.0
2.871966600418091,5.0,19.0,22.0,65.0,1109.0,25.0,49360.0,4379.0
2.8752167224884033,6.0,5.0,10.0,337.0,1691.0,29.0,59904.0,4993.0
2.8784666061401367,10.0,26.0,0.0,189.0,851.0,29.0,57072.0,8952.0
2.8817665576934814,5.0,35.0,10.0,41.0,28.0,31.0,66448.0,8844.0
2.885016679763794,30.0,43.0,16.0,41.0,14.0,27.0,61904.0,5192.0
2.8882665634155273,27.0,50.0,22.0,41.0,52.0,21.0,55728.0,6114.0
2.89151668548584,22.0,11.0,15.0,20.0,821.0,7.0,64992.0,4509.0
2.8947665691375732,24.0,5.0,20.0,0.0,993.0,16.0,41552.0,2885.0
2.898083448410034,20.0,12.0,24.0,533.0,10.0,6.0,30212.0,2266.0
2.9013333320617676,20.0,8.0,26.0,293.0,15.0,15.0,36848.0,3014.0
2.904583215713501,14.0,5.0,29.0,54.0,431.0,24.0,28676.0,3271.0
2.9078333377838135,8.0,21.0,30.0,34.0,10.0,29.0,30432.0,2040.0
2.911083221435547,10.0,23.0,8.0,14.0,75.0,33.0,17204.0,2526.0
2.914400100708008,12.0,24.0,31.0,42.0,5.0,31.0,20912.0,202.0
2.917649984359741,19.0,21.0,5.0,0.0,0.0,16.0,11696.0,3186.0
2.9209001064300537,26.0,18.0,16.0,29.0,19.0,27.0,5877.0,41.0
2.924149990081787,13.0,10.0,28.0,58.0,20.0,14.0,5294.0,22.0
2.9274001121520996,0.0,5.0,46.0,61.0,27.0,10.0,4005.0,21.0
2.9307000637054443,2.0,19.0,42.0,69.0,20.0,21.0,2743.0,21.0
2.9339499473571777,5.0,45.0,12.0,15.0,13.0,19.0,5491.0,20.0
2.9372000694274902,32.0,30.0,41.0,10.0,33.0,18.0,1593.0,25.0
2.9404499530792236,60.0,14.0,42.0,42.0,30.0,21.0,853.0,26.0
2.943700075149536,42.0,11.0,56.0,35.0,28.0,25.0,2015.0,34.0
2.9469499588012695,29.0,15.0,70.0,38.0,23.0,34.0,1315.0,20.0
2.9502665996551514,23.0,15.0,44.0,10.0,27.0,28.0,325.0,5.0
2.953516721725464,32.0,15.0,17.0,19.0,21.0,22.0,5.0,12.0
2.9567666053771973,22.0,10.0,0.0,27.0,15.0,23.0,24.0,19.0
2.9600167274475098,9.0,6.0,55.0,30.0,10.0,15.0,18.0,18.0
2.963266611099243,25.0,10.0,0.0,5.0,28.0,7.0,53.0,6.0
2.966583251953125,30.0,10.0,30.0,11.0,24.0,22.0,30.0,35.0
2.9698333740234375,17.0,16.0,10.0,21.0,20.0,40.0,7.0,28.0
2.973083257675171,0.0,22.0,9.0,31.0,31.0,27.0,21.0,20.0
2.9763333797454834,24.0,20.0,27.0,45.0,22.0,14.0,24.0,20.0
2.979583263397217,22.0,20.0,26.0,59.0,12.0,5.0,22.0,28.0
2.9828999042510986,40.0,15.0,17.0,10.0,19.0,16.0,20.0,36.0
2.986150026321411,22.0,167.0,16.0,28.0,15.0,28.0,258.0,29.0
2.9893999099731445,17.0,106.0,17.0,39.0,21.0,20.0,134.0,22.0
2.992650032043457,36.0,46.0,17.0,19.0,10.0,5.0,11.0,19.0
2.9958999156951904,16.0,42.0,62.0,24.0,28.0,21.0,222.0,16.0
