,335.2099914550781,336.2099914550781,337.2099914550781,338.2099914550781,339.2099914550781,340.2099914550781,341.2099914550781,342.2099914550781,343.2099914550781,344.2099914550781,345.2099914550781
5.702383518218994,10.0,29.0,27.0,49.0,26.0,23.0,75.0,16.0,42.0,29.0,10.0
5.704766750335693,13.0,48.0,30.0,5.0,31.0,56.0,22.0,22.0,9.0,5.0,32.0
5.707149982452393,56.0,23.0,21.0,34.0,32.0,100.0,32.0,39.0,133.0,13.0,58.0
5.709533214569092,0.0,48.0,13.0,14.0,50.0,39.0,23.0,0.0,5.0,22.0,34.0
5.711916446685791,45.0,52.0,14.0,10.0,27.0,68.0,20.0,35.0,36.0,20.0,0.0
5.714300155639648,10.0,32.0,14.0,0.0,5.0,112.0,18.0,5.0,40.0,16.0,26.0
5.716683387756348,14.0,13.0,7.0,0.0,11.0,31.0,6.0,28.0,15.0,13.0,15.0
5.719133377075195,32.0,27.0,0.0,0.0,11.0,16.0,22.0,50.0,18.0,13.0,7.0
5.7215166091918945,15.0,11.0,31.0,9.0,37.0,32.0,28.0,33.0,20.0,19.0,10.0
5.723899841308594,29.0,15.0,23.0,18.0,40.0,12.0,36.0,43.0,21.0,0.0,8.0
5.726283550262451,37.0,19.0,14.0,15.0,5.0,0.0,35.0,41.0,22.0,20.0,5.0
5.7286834716796875,41.0,18.0,40.0,23.0,35.0,14.0,0.0,24.0,25.0,362.0,21.0
5.73105001449585,43.0,5.0,44.0,31.0,34.0,13.0,26.0,5.0,22.0,376.0,13.0
5.733433246612549,41.0,18.0,48.0,5.0,33.0,11.0,29.0,5.0,20.0,11.0,6.0
5.7358832359313965,38.0,28.0,30.0,15.0,15.0,17.0,43.0,8.0,26.0,7.0,14.0
5.738266468048096,31.0,17.0,11.0,5.0,14.0,23.0,20.0,10.0,33.0,29.0,10.0
5.74066686630249,19.0,5.0,61.0,39.0,16.0,22.0,5.0,15.0,32.0,5.0,13.0
5.743033409118652,24.0,36.0,28.0,30.0,36.0,11.0,24.0,17.0,19.0,5.0,16.0
5.745433330535889,5.0,40.0,27.0,22.0,18.0,0.0,34.0,19.0,27.0,39.0,7.0
5.747799873352051,11.0,20.0,6.0,14.0,0.0,3.0,22.0,17.0,5.0,56.0,25.0
5.75018310546875,16.0,37.0,3.0,20.0,42.0,5.0,10.0,15.0,0.0,33.0,12.0
5.752600193023682,0.0,34.0,0.0,13.0,33.0,12.0,20.0,5.0,0.0,17.0,0.0
5.754983425140381,20.0,33.0,14.0,10.0,24.0,19.0,29.0,19.0,0.0,61.0,3.0
5.75736665725708,19.0,23.0,65.0,31.0,67.0,57.0,0.0,15.0,6.0,5.0,5.0
5.759749889373779,18.0,28.0,44.0,35.0,52.0,69.0,11.0,16.0,12.0,50.0,56.0
5.7621331214904785,18.0,34.0,23.0,5.0,36.0,5.0,23.0,16.0,26.0,30.0,54.0
5.764516830444336,13.0,13.0,11.0,18.0,15.0,13.0,17.0,27.0,19.0,25.0,45.0
5.766900062561035,22.0,31.0,45.0,31.0,42.0,19.0,11.0,38.0,12.0,24.0,23.0
5.769350051879883,0.0,24.0,19.0,15.0,0.0,25.0,37.0,43.0,5.0,0.0,40.0
5.771733283996582,24.0,27.0,39.0,7.0,21.0,26.0,39.0,12.0,16.0,24.0,21.0
5.774116516113281,5.0,31.0,9.0,10.0,47.0,27.0,19.0,5.0,28.0,26.0,16.0
5.776500225067139,31.0,20.0,5.0,8.0,42.0,10.0,8.0,8.0,48.0,28.0,31.0
5.778883457183838,39.0,0.0,25.0,5.0,19.0,0.0,34.0,10.0,35.0,25.0,5.0
5.781266689300537,22.0,41.0,7.0,5.0,27.0,9.0,5.0,13.0,35.0,21.0,14.0
5.783649921417236,5.0,81.0,5.0,10.0,34.0,18.0,23.0,19.0,27.0,18.0,12.0
5.786083221435547,24.0,57.0,8.0,15.0,14.0,21.0,33.0,14.0,11.0,56.0,10.0
5.788466453552246,31.0,33.0,6.0,33.0,12.0,5.0,44.0,9.0,12.0,31.0,20.0
5.7908501625061035,12.0,12.0,5.0,32.0,8.0,15.0,5.0,53.0,26.0,5.0,15.0
5.793233394622803,11.0,12.0,30.0,55.0,14.0,17.0,17.0,54.0,39.0,23.0,10.0
5.795616626739502,22.0,24.0,33.0,43.0,19.0,19.0,10.0,53.0,44.0,22.0,23.0
5.797999858856201,33.0,32.0,36.0,28.0,33.0,17.0,12.0,22.0,49.0,18.0,18.0
5.800383567810059,27.0,26.0,48.0,15.0,28.0,5.0,20.0,7.0,21.0,14.0,13.0
5.802833557128906,18.0,20.0,37.0,23.0,23.0,45.0,6.0,19.0,13.0,10.0,20.0
5.8052167892456055,30.0,37.0,26.0,14.0,24.0,53.0,24.0,31.0,6.0,12.0,15.0
5.807600021362305,15.0,13.0,21.0,6.0,26.0,12.0,13.0,46.0,13.0,19.0,11.0
5.809983253479004,10.0,11.0,6.0,31.0,7.0,13.0,28.0,42.0,5.0,9.0,5.0
5.812366485595703,25.0,35.0,12.0,25.0,14.0,42.0,24.0,35.0,25.0,0.0,17.0
5.8147501945495605,19.0,5.0,18.0,23.0,0.0,22.0,21.0,27.0,72.0,19.0,8.0
5.81713342666626,12.0,5.0,17.0,28.0,13.0,36.0,49.0,23.0,65.0,10.0,0.0
5.81956672668457,0.0,25.0,5.0,20.0,10.0,15.0,30.0,19.0,17.0,20.0,6.0
5.8219499588012695,8.0,31.0,22.0,10.0,45.0,5.0,10.0,15.0,10.0,17.0,12.0
5.824333190917969,16.0,11.0,29.0,15.0,51.0,37.0,28.0,19.0,15.0,26.0,9.0
5.826716899871826,0.0,5.0,34.0,24.0,71.0,15.0,10.0,22.0,16.0,35.0,14.0
5.829100131988525,6.0,11.0,0.0,32.0,15.0,12.0,17.0,6.0,21.0,38.0,0.0
5.831483364105225,11.0,17.0,37.0,33.0,24.0,8.0,24.0,5.0,25.0,40.0,14.0
5.833866596221924,10.0,28.0,24.0,34.0,43.0,20.0,41.0,28.0,31.0,5.0,33.0
5.8363165855407715,5.0,28.0,0.0,17.0,5.0,18.0,38.0,49.0,27.0,12.0,24.0
5.838699817657471,12.0,30.0,10.0,15.0,28.0,15.0,34.0,28.0,24.0,11.0,40.0
5.841083526611328,20.0,32.0,27.0,10.0,50.0,27.0,23.0,7.0,31.0,10.0,26.0
5.843466758728027,27.0,25.0,10.0,23.0,42.0,39.0,0.0,34.0,32.0,11.0,41.0
5.845849990844727,22.0,26.0,29.0,38.0,35.0,32.0,38.0,26.0,34.0,11.0,7.0
5.848233222961426,21.0,24.0,5.0,37.0,53.0,26.0,31.0,18.0,20.0,34.0,37.0
5.850616455078125,17.0,32.0,38.0,22.0,95.0,35.0,46.0,5.0,5.0,36.0,20.0
5.853050231933594,24.0,31.0,0.0,13.0,92.0,24.0,10.0,0.0,45.0,26.0,0.0
5.855433464050293,15.0,30.0,23.0,5.0,59.0,42.0,37.0,0.0,106.0,20.0,24.0
5.857816696166992,22.0,18.0,32.0,11.0,41.0,10.0,12.0,5.0,85.0,43.0,22.0
5.860199928283691,29.0,5.0,7.0,8.0,0.0,0.0,37.0,18.0,64.0,30.0,21.0
5.862583160400391,7.0,24.0,24.0,8.0,54.0,11.0,29.0,30.0,632.0,18.0,15.0
5.864966869354248,34.0,38.0,22.0,8.0,41.0,22.0,0.0,21.0,887.0,48.0,15.0
5.867350101470947,0.0,28.0,10.0,0.0,10.0,30.0,17.0,0.0,1142.0,34.0,14.0
5.869800090789795,19.0,30.0,5.0,4.0,8.0,43.0,20.0,6.0,887.0,30.0,15.0
5.872183322906494,9.0,27.0,10.0,7.0,11.0,29.0,585.0,12.0,633.0,27.0,14.0
5.874566555023193,0.0,35.0,10.0,37.0,14.0,14.0,818.0,15.0,851.0,0.0,12.0
5.876949787139893,15.0,44.0,10.0,44.0,34.0,10.0,433.0,21.0,1070.0,22.0,10.0
5.87933349609375,44.0,40.0,22.0,36.0,34.0,15.0,37.0,41.0,1069.0,39.0,7.0
5.881716728210449,59.0,35.0,18.0,38.0,0.0,11.0,1595.0,41.0,750.0,10.0,6.0
5.884099960327148,9.0,24.0,14.0,37.0,25.0,16.0,1169.0,23.0,432.0,12.0,5.0
5.886516571044922,14.0,5.0,24.0,10.0,28.0,21.0,617.0,30.0,686.0,35.0,10.0
5.888916492462158,48.0,24.0,23.0,27.0,31.0,43.0,728.0,30.0,816.0,31.0,15.0
5.891300201416016,12.0,34.0,22.0,17.0,33.0,35.0,1447.0,8.0,946.0,25.0,12.0
5.893683433532715,52.0,22.0,22.0,37.0,12.0,28.0,18.0,19.0,702.0,20.0,9.0
5.896066665649414,19.0,9.0,5.0,28.0,27.0,42.0,522.0,29.0,457.0,15.0,10.0
5.898449897766113,10.0,10.0,17.0,23.0,41.0,37.0,814.0,14.0,1722.0,10.0,10.0
5.9008331298828125,23.0,14.0,15.0,35.0,38.0,32.0,562.0,0.0,1393.0,22.0,18.0
5.90321683883667,18.0,50.0,13.0,47.0,34.0,12.0,296.0,881.0,15.0,25.0,12.0
5.905666828155518,5.0,30.0,17.0,55.0,27.0,16.0,310.0,2045.0,228.0,38.0,5.0
5.908050060272217,39.0,11.0,18.0,39.0,18.0,21.0,324.0,1765.0,535.0,498.0,13.0
5.910433292388916,42.0,5.0,11.0,20.0,5.0,18.0,511.0,1907.0,0.0,544.0,8.0
5.912816524505615,59.0,47.0,5.0,24.0,42.0,14.0,698.0,2810.0,26.0,12.0,4.0
5.915200233459473,43.0,56.0,8.0,19.0,33.0,0.0,356.0,3712.0,53.0,55.0,0.0
5.917583465576172,29.0,22.0,11.0,26.0,44.0,15.0,14.0,4176.0,574.0,25.0,6.0
5.919966697692871,20.0,25.0,48.0,6.0,16.0,0.0,957.0,2755.0,290.0,49.0,18.0
5.922399997711182,14.0,25.0,57.0,5.0,44.0,7.0,20.0,1923.0,6.0,30.0,31.0
5.924783229827881,0.0,10.0,28.0,23.0,20.0,0.0,19.0,1019.0,12.0,10.0,20.0
5.92716646194458,44.0,27.0,17.0,11.0,26.0,22.0,10.0,2485.0,10.0,42.0,32.0
5.9295501708984375,54.0,31.0,68.0,0.0,0.0,19.0,14.0,995.0,10.0,8.0,12.0
5.931933403015137,59.0,20.0,5.0,54.0,15.0,15.0,13.0,2793.0,10.0,40.0,12.0
5.934333324432373,23.0,8.0,6.0,31.0,28.0,11.0,12.0,1429.0,67.0,10.0,25.0
5.936699867248535,14.0,7.0,10.0,9.0,18.0,0.0,14.0,713.0,44.0,28.0,29.0
5.939149856567383,0.0,5.0,23.0,33.0,129.0,6.0,61.0,515.0,21.0,18.0,21.0
5.94153356552124,13.0,26.0,23.0,12.0,72.0,11.0,49.0,888.0,5.0,17.0,16.0
5.9439167976379395,14.0,29.0,23.0,23.0,14.0,13.0,22.0,460.0,19.0,18.0,12.0
5.946300029754639,5.0,18.0,38.0,23.0,46.0,15.0,27.0,31.0,0.0,23.0,19.0
5.948683261871338,44.0,11.0,19.0,24.0,24.0,10.0,32.0,1313.0,13.0,29.0,16.0
5.951066493988037,30.0,5.0,0.0,18.0,22.0,28.0,19.0,706.0,26.0,5.0,14.0
5.9534502029418945,17.0,9.0,28.0,12.0,20.0,29.0,5.0,254.0,25.0,9.0,15.0
5.955883502960205,9.0,13.0,29.0,30.0,21.0,24.0,3.0,32.0,25.0,26.0,17.0
5.958266735076904,10.0,85.0,47.0,0.0,22.0,19.0,0.0,6.0,26.0,12.0,19.0
5.9606499671936035,22.0,157.0,32.0,23.0,13.0,35.0,0.0,10.0,27.0,0.0,5.0
5.963033199310303,26.0,400.0,17.0,288.0,5.0,868.0,0.0,32.0,10.0,3.0,5.0
5.965416431427002,5.0,203.0,680.0,886.0,864.0,956.0,1553.0,404.0,8.0,5.0,9.0
5.967800140380859,5.0,5.0,2942.0,1484.0,2493.0,1044.0,2677.0,1270.0,557.0,42.0,13.0
5.970183372497559,13.0,651.0,2189.0,5125.0,6961.0,2226.0,4129.0,2115.0,1105.0,77.0,67.0
5.972633361816406,0.0,1298.0,5856.0,8050.0,6160.0,5369.0,3673.0,2959.0,1124.0,112.0,48.0
5.9750165939331055,49.0,7223.0,12592.0,9992.0,7756.0,7836.0,8588.0,4527.0,5301.0,225.0,29.0
5.977399826049805,38.0,5936.0,23904.0,11848.0,23416.0,15948.0,11636.0,6506.0,7653.0,2974.0,69.0
5.979783535003662,23.0,11972.0,32264.0,36736.0,36560.0,35472.0,27616.0,13692.0,10448.0,6505.0,759.0
5.982166767120361,6.0,30152.0,59744.0,42912.0,38848.0,31616.0,28964.0,14688.0,6828.0,6866.0,1317.0
5.9845499992370605,26.0,38880.0,70016.0,59264.0,51728.0,46816.0,34480.0,22336.0,12496.0,3282.0,1668.0
5.98693323135376,46.0,48656.0,89856.0,79520.0,85120.0,70784.0,45456.0,20144.0,17820.0,6267.0,2020.0
5.98936653137207,57.0,70544.0,132608.0,108320.0,96080.0,77632.0,58144.0,28356.0,19568.0,9284.0,1989.0
5.9917497634887695,26.0,88720.0,138496.0,136320.0,118192.0,89504.0,54304.0,42272.0,20792.0,7456.0,1456.0
5.994133472442627,16.0,103488.0,164032.0,159424.0,152704.0,115040.0,97680.0,38464.0,17892.0,8592.0,7539.0
5.996516704559326,41.0,112048.0,174464.0,183808.0,149184.0,127056.0,88224.0,41712.0,19404.0,9732.0,6703.0
5.998899936676025,32.0,132736.0,218496.0,180160.0,136192.0,117312.0,102560.0,42912.0,26128.0,7742.0,3429.0
6.001283168792725,24.0,134912.0,197568.0,194560.0,175552.0,139648.0,91632.0,44112.0,30488.0,11152.0,3477.0
6.003666877746582,5.0,116032.0,225344.0,182016.0,164992.0,159616.0,100640.0,46640.0,31412.0,11232.0,6700.0
6.00611686706543,15.0,128496.0,224448.0,180928.0,148672.0,151168.0,89536.0,44272.0,18016.0,8652.0,4298.0
6.008500099182129,15.0,132992.0,222400.0,179904.0,174272.0,127984.0,90384.0,41920.0,22792.0,10944.0,488.0
6.010883331298828,14.0,143296.0,209088.0,183808.0,146944.0,118928.0,77392.0,41728.0,17116.0,11416.0,4540.0
6.013266563415527,7.0,111440.0,171264.0,171392.0,125664.0,111856.0,64976.0,47728.0,22740.0,5875.0,4857.0
6.015649795532227,0.0,96384.0,148288.0,165696.0,126800.0,86576.0,69216.0,29680.0,22388.0,10076.0,1046.0
6.018033504486084,4.0,84784.0,133696.0,138112.0,101408.0,79968.0,69504.0,29672.0,7405.0,5057.0,743.0
6.020416736602783,8.0,80128.0,111216.0,104704.0,99600.0,74816.0,53904.0,23196.0,11176.0,6068.0,1381.0
6.022850036621094,37.0,46624.0,92016.0,98624.0,78976.0,47136.0,30284.0,22168.0,12760.0,5802.0,659.0
6.025233268737793,30.0,74336.0,84896.0,78304.0,70208.0,36544.0,22004.0,11384.0,9640.0,3774.0,15.0
6.027616500854492,74.0,41088.0,65056.0,54096.0,55152.0,42688.0,24044.0,13492.0,5815.0,2985.0,900.0
6.03000020980835,62.0,28940.0,65328.0,50400.0,37296.0,25296.0,16452.0,14052.0,5061.0,1714.0,1296.0
6.032383441925049,51.0,26688.0,40304.0,42880.0,33616.0,22544.0,10748.0,4359.0,1866.0,697.0,24.0
6.034766674041748,69.0,20472.0,30092.0,29584.0,24288.0,18892.0,9548.0,5533.0,2610.0,955.0,915.0
6.037149906158447,27.0,15372.0,17812.0,19044.0,16332.0,13396.0,6837.0,5373.0,3144.0,2362.0,770.0
6.039599895477295,53.0,9428.0,15484.0,19032.0,12552.0,4232.0,3994.0,4307.0,844.0,2780.0,31.0
6.041983127593994,44.0,5417.0,14428.0,11172.0,5364.0,8292.0,5062.0,171.0,2094.0,1000.0,13.0
6.044366836547852,63.0,4283.0,7223.0,14492.0,7535.0,6005.0,6249.0,3029.0,26.0,1350.0,672.0
6.046750068664551,27.0,5553.0,11264.0,3531.0,5453.0,4138.0,4097.0,903.0,178.0,12.0,14.0
6.04913330078125,8.0,1131.0,4836.0,9996.0,5622.0,3066.0,876.0,19.0,2749.0,24.0,41.0
6.051516532897949,0.0,2065.0,7740.0,8864.0,932.0,5025.0,4374.0,20.0,151.0,10.0,62.0
6.053899765014648,52.0,1111.0,6273.0,3972.0,3453.0,4700.0,159.0,249.0,19.0,12.0,44.0
6.056333541870117,49.0,1733.0,2985.0,6754.0,1258.0,3459.0,1536.0,679.0,12.0,13.0,25.0
6.058716773986816,18.0,2354.0,3354.0,1602.0,2721.0,1960.0,1884.0,346.0,14.0,19.0,5.0
6.061100006103516,37.0,1241.0,3438.0,614.0,3011.0,3395.0,784.0,13.0,15.0,25.0,32.0
6.063483238220215,67.0,1223.0,1671.0,2114.0,1289.0,653.0,1903.0,285.0,22.0,0.0,5.0
6.065866470336914,49.0,1205.0,2566.0,690.0,2794.0,1271.0,718.0,557.0,22.0,0.0,28.0
6.068266868591309,16.0,1141.0,4252.0,846.0,1514.0,2681.0,466.0,285.0,22.0,23.0,0.0
6.070633411407471,24.0,1265.0,4230.0,2285.0,2585.0,1107.0,1122.0,13.0,32.0,21.0,27.0
6.073066711425781,23.0,1854.0,2438.0,4222.0,1667.0,1005.0,747.0,15.0,410.0,20.0,28.0
6.075466632843018,23.0,2444.0,760.0,3425.0,1690.0,1137.0,1805.0,18.0,213.0,19.0,30.0
6.077849864959717,19.0,5.0,2717.0,1850.0,1553.0,2490.0,1381.0,47.0,15.0,16.0,23.0
6.080233097076416,20.0,731.0,2897.0,804.0,915.0,1520.0,451.0,42.0,5.0,14.0,13.0
6.082616806030273,21.0,419.0,2880.0,1843.0,749.0,551.0,22.0,0.0,6.0,7.0,18.0
6.085000038146973,14.0,23.0,1662.0,767.0,543.0,726.0,1787.0,24.0,96.0,0.0,48.0
6.087383270263672,7.0,563.0,1455.0,828.0,2028.0,5.0,41.0,806.0,48.0,8.0,40.0
6.089766502380371,8.0,968.0,1119.0,890.0,2095.0,689.0,1491.0,994.0,0.0,9.0,21.0
6.092199802398682,8.0,1372.0,1323.0,1518.0,15.0,18.0,61.0,636.0,8.0,9.0,23.0
6.094583511352539,28.0,639.0,767.0,759.0,2722.0,11.0,27.0,24.0,5.0,11.0,6.0
6.096966743469238,27.0,28.0,1978.0,0.0,1775.0,1876.0,22.0,358.0,13.0,15.0,27.0
6.0993499755859375,10.0,1252.0,2319.0,1274.0,25.0,1997.0,69.0,10.0,19.0,19.0,11.0
6.101733207702637,6.0,422.0,1715.0,504.0,1749.0,377.0,44.0,71.0,24.0,18.0,25.0
6.104133129119873,27.0,326.0,2696.0,43.0,1926.0,1204.0,19.0,131.0,15.0,18.0,29.0
6.106500148773193,53.0,1545.0,791.0,24.0,566.0,386.0,366.0,19.0,15.0,18.0,34.0
6.108950138092041,40.0,14.0,27.0,670.0,45.0,13.0,200.0,20.0,10.0,18.0,10.0
6.11133337020874,30.0,96.0,39.0,352.0,49.0,678.0,34.0,22.0,5.0,5.0,6.0
6.1137166023254395,21.0,1117.0,448.0,34.0,610.0,205.0,498.0,26.0,10.0,26.0,15.0
6.116099834442139,19.0,42.0,85.0,10.0,376.0,112.0,22.0,30.0,15.0,29.0,13.0
6.118483543395996,19.0,86.0,32.0,14.0,11.0,22.0,54.0,28.0,20.0,32.0,10.0
6.120866775512695,22.0,0.0,34.0,1574.0,22.0,28.0,5.0,10.0,24.0,34.0,19.0
6.1232500076293945,24.0,11.0,31.0,1646.0,33.0,34.0,182.0,6.0,89.0,5.0,28.0
6.125683307647705,32.0,100.0,28.0,524.0,294.0,251.0,106.0,19.0,77.0,241.0,30.0
6.128066539764404,24.0,38.0,34.0,26.0,170.0,154.0,30.0,13.0,64.0,146.0,32.0
6.1304497718811035,15.0,227.0,17.0,1064.0,45.0,57.0,23.0,7.0,12.0,52.0,35.0
6.132833480834961,23.0,416.0,0.0,16.0,68.0,94.0,15.0,14.0,14.0,31.0,23.0
6.13521671295166,5.0,524.0,743.0,45.0,49.0,18.0,95.0,22.0,22.0,25.0,5.0
6.137599945068359,8.0,48.0,626.0,35.0,31.0,16.0,174.0,22.0,14.0,14.0,19.0
6.139983177185059,11.0,28.0,890.0,29.0,29.0,15.0,90.0,6.0,7.0,0.0,19.0
6.142433166503906,5.0,25.0,44.0,24.0,28.0,0.0,5.0,126.0,12.0,18.0,41.0
6.144816875457764,15.0,50.0,39.0,442.0,51.0,25.0,25.0,115.0,16.0,21.0,50.0
6.147200107574463,16.0,30.0,479.0,224.0,37.0,659.0,44.0,31.0,5.0,24.0,6.0
6.149583339691162,17.0,24.0,20.0,5.0,22.0,343.0,31.0,16.0,23.0,14.0,20.0
6.151966571807861,20.0,34.0,18.0,20.0,22.0,28.0,21.0,21.0,41.0,5.0,49.0
6.1543498039245605,24.0,31.0,22.0,35.0,23.0,57.0,10.0,39.0,29.0,26.0,22.0
6.156733512878418,0.0,22.0,26.0,279.0,151.0,8.0,0.0,25.0,18.0,0.0,20.0
6.1591668128967285,6.0,42.0,24.0,146.0,78.0,40.0,14.0,10.0,0.0,656.0,18.0
6.161550045013428,11.0,12.0,788.0,13.0,5.0,44.0,12.0,33.0,5.0,336.0,12.0
6.163933277130127,9.0,10.0,742.0,18.0,283.0,48.0,10.0,30.0,53.0,15.0,22.0
6.166316509246826,14.0,43.0,39.0,9.0,160.0,41.0,33.0,28.0,101.0,767.0,23.0
6.168700218200684,27.0,18.0,149.0,14.0,36.0,11.0,30.0,39.0,58.0,72.0,11.0
6.171083450317383,16.0,15.0,20.0,19.0,30.0,42.0,28.0,37.0,14.0,49.0,0.0
6.173466682434082,5.0,0.0,42.0,42.0,8.0,19.0,0.0,36.0,21.0,27.0,21.0
6.17591667175293,5.0,22.0,43.0,40.0,10.0,15.0,11.0,44.0,19.0,19.0,11.0
6.178299903869629,8.0,16.0,43.0,38.0,12.0,11.0,22.0,22.0,40.0,34.0,24.0
6.180683135986328,16.0,18.0,41.0,259.0,49.0,31.0,80.0,0.0,61.0,47.0,21.0
6.1830668449401855,24.0,18.0,10.0,143.0,27.0,37.0,43.0,15.0,50.0,45.0,28.0
6.185450077056885,21.0,5.0,31.0,27.0,5.0,15.0,5.0,30.0,49.0,20.0,27.0
6.187833309173584,25.0,3.0,51.0,0.0,11.0,47.0,13.0,5.0,6.0,52.0,27.0
6.190216541290283,19.0,0.0,8.0,8.0,0.0,7.0,21.0,5.0,50.0,41.0,35.0
6.192649841308594,10.0,25.0,41.0,5.0,5.0,21.0,32.0,28.0,50.0,0.0,0.0
6.195033550262451,19.0,25.0,5.0,17.0,12.0,35.0,486.0,10.0,5.0,17.0,5.0
6.19741678237915,11.0,26.0,15.0,29.0,19.0,46.0,439.0,11.0,49.0,36.0,9.0
