,351.2099914550781,352.2099914550781,353.2099914550781,354.2099914550781,355.2099914550781,356.2099914550781,357.2099914550781,358.2099914550781,359.2099914550781,360.2099914550781,361.2099914550781
3.902383327484131,0.0,5.0,571.0,27.0,10.0,5.0,10.0,40.0,10.0,11.0,0.0
3.90476655960083,13.0,24.0,36.0,0.0,10.0,5.0,567.0,21.0,763.0,40.0,45.0
3.9071500301361084,31.0,44.0,0.0,0.0,33.0,10.0,16.0,31.0,18.0,0.0,40.0
3.9095332622528076,25.0,23.0,58.0,20.0,32.0,10.0,8.0,0.0,14.0,50.0,39.0
3.911916732788086,19.0,29.0,16.0,29.0,35.0,10.0,33.0,13.0,5.0,18.0,39.0
3.914299964904785,11.0,20.0,40.0,32.0,27.0,27.0,19.0,48.0,34.0,62.0,39.0
3.9166834354400635,40.0,30.0,40.0,16.0,5.0,24.0,17.0,32.0,52.0,22.0,9.0
3.919133424758911,37.0,7.0,5.0,38.0,10.0,39.0,34.0,16.0,33.0,0.0,0.0
3.9215166568756104,40.0,17.0,22.0,10.0,40.0,41.0,42.0,34.0,30.0,32.0,21.0
3.9238998889923096,0.0,0.0,22.0,31.0,44.0,49.0,29.0,49.0,7.0,30.0,5.0
3.926283359527588,21.0,29.0,19.0,5.0,19.0,28.0,16.0,421.0,29.0,5.0,30.0
3.928683280944824,35.0,20.0,26.0,27.0,29.0,25.0,0.0,443.0,15.0,22.0,24.0
3.9310500621795654,0.0,15.0,19.0,13.0,20.0,41.0,11.0,464.0,38.0,39.0,18.0
3.9334332942962646,35.0,35.0,13.0,0.0,13.0,45.0,10.0,372.0,48.0,19.0,0.0
3.935849905014038,16.0,0.0,0.0,18.0,6.0,23.0,0.0,280.0,13.0,7.0,0.0
3.9382333755493164,19.0,0.0,14.0,30.0,3.0,0.0,5.0,50.0,7.0,0.0,6.0
3.9406166076660156,27.0,3.0,5.0,42.0,0.0,9.0,7.0,37.0,0.0,13.0,530.0
3.943000078201294,35.0,5.0,15.0,21.0,0.0,18.0,8.0,6.0,0.0,11.0,267.0
3.945383310317993,40.0,35.0,13.0,20.0,38.0,34.0,7.0,5.0,0.0,30.0,5.0
3.9477667808532715,30.0,52.0,10.0,42.0,34.0,26.0,5.0,599.0,0.0,33.0,454.0
3.9501500129699707,13.0,32.0,31.0,0.0,13.0,11.0,15.0,309.0,0.0,27.0,488.0
3.9525833129882812,12.0,11.0,31.0,5.0,21.0,20.0,25.0,18.0,30.0,20.0,521.0
3.9549667835235596,17.0,25.0,19.0,13.0,28.0,19.0,20.0,40.0,30.0,10.0,12.0
3.957366704940796,21.0,38.0,0.0,12.0,11.0,15.0,15.0,52.0,43.0,0.0,865.0
3.959733247756958,29.0,38.0,56.0,17.0,12.0,10.0,10.0,50.0,32.0,0.0,1081.0
3.9621167182922363,36.0,12.0,38.0,19.0,12.0,5.0,5.0,22.0,17.0,3.0,544.0
3.9644999504089355,0.0,19.0,70.0,20.0,43.0,0.0,8.0,61.0,52.0,5.0,2151.0
3.966883420944214,0.0,28.0,19.0,10.0,35.0,7.0,11.0,43.0,35.0,13.0,2869.0
3.9693334102630615,46.0,34.0,57.0,0.0,28.0,14.0,28.0,0.0,54.0,20.0,14.0
3.9717166423797607,18.0,5.0,46.0,21.0,0.0,37.0,19.0,10.0,27.0,33.0,1126.0
3.974100112915039,5.0,12.0,15.0,10.0,38.0,38.0,10.0,10.0,0.0,29.0,1197.0
3.9764833450317383,7.0,20.0,18.0,18.0,43.0,40.0,31.0,9.0,5.0,25.0,60.0
3.9788665771484375,20.0,9.0,0.0,26.0,60.0,19.0,19.0,8.0,9.0,28.0,0.0
3.981250047683716,0.0,12.0,35.0,16.0,24.0,10.0,9.0,7.0,16.0,32.0,19.0
3.983633279800415,12.0,11.0,37.0,18.0,41.0,20.0,17.0,11.0,11.0,16.0,12.0
3.9860832691192627,7.0,10.0,29.0,17.0,27.0,30.0,17.0,15.0,6.0,0.0,33.0
3.988466739654541,27.0,46.0,34.0,27.0,0.0,24.0,16.0,22.0,18.0,5.0,20.0
3.9908499717712402,32.0,48.0,39.0,5.0,5.0,17.0,26.0,33.0,22.0,0.0,7.0
3.9932498931884766,16.0,31.0,18.0,21.0,33.0,33.0,31.0,0.0,16.0,33.0,12.0
3.9956166744232178,5.0,12.0,32.0,0.0,36.0,7.0,24.0,8.0,0.0,55.0,16.0
3.997999906539917,11.0,5.0,26.0,32.0,18.0,15.0,22.0,34.0,19.0,37.0,6.0
4.000383377075195,31.0,0.0,0.0,17.0,22.0,24.0,20.0,68.0,33.0,5.0,0.0
4.002799987792969,28.0,10.0,8.0,6.0,26.0,34.0,0.0,42.0,38.0,27.0,23.0
4.005183219909668,25.0,30.0,32.0,25.0,5.0,21.0,17.0,15.0,19.0,48.0,17.0
4.007566452026367,0.0,26.0,50.0,0.0,5.0,8.0,0.0,20.0,0.0,31.0,10.0
4.009950160980225,19.0,21.0,36.0,5.0,5.0,7.0,23.0,39.0,46.0,49.0,26.0
4.012333393096924,14.0,31.0,0.0,8.0,6.0,5.0,33.0,10.0,0.0,35.0,26.0
4.014716625213623,10.0,29.0,12.0,10.0,12.0,11.0,11.0,6.0,45.0,56.0,27.0
4.017099857330322,5.0,5.0,30.0,5.0,17.0,16.0,11.0,0.0,33.0,13.0,37.0
4.01954984664917,20.0,15.0,18.0,10.0,19.0,16.0,29.0,10.0,7.0,0.0,47.0
4.021933555603027,36.0,26.0,20.0,9.0,20.0,16.0,17.0,13.0,0.0,10.0,50.0
4.024316787719727,40.0,0.0,21.0,8.0,15.0,5.0,12.0,15.0,37.0,20.0,14.0
4.026700019836426,19.0,24.0,20.0,10.0,13.0,10.0,6.0,15.0,0.0,18.0,58.0
4.029083251953125,31.0,12.0,0.0,14.0,11.0,23.0,11.0,28.0,17.0,9.0,5.0
4.031466484069824,6.0,15.0,17.0,15.0,12.0,18.0,19.0,27.0,35.0,0.0,35.0
4.033850193023682,0.0,21.0,24.0,16.0,12.0,14.0,19.0,27.0,35.0,50.0,33.0
4.036283493041992,12.0,25.0,7.0,24.0,13.0,5.0,15.0,29.0,35.0,37.0,23.0
4.0386834144592285,37.0,33.0,0.0,12.0,29.0,14.0,0.0,34.0,13.0,0.0,13.0
4.041066646575928,31.0,8.0,5.0,0.0,17.0,6.0,5.0,40.0,17.0,33.0,27.0
4.04343318939209,24.0,30.0,5.0,34.0,5.0,8.0,63.0,10.0,21.0,21.0,0.0
4.045816898345947,28.0,33.0,5.0,20.0,11.0,9.0,51.0,33.0,6.0,0.0,6.0
4.0482001304626465,30.0,24.0,15.0,6.0,8.0,30.0,19.0,48.0,0.0,44.0,22.0
4.050583362579346,6.0,0.0,24.0,29.0,5.0,35.0,22.0,8.0,24.0,27.0,11.0
4.053033351898193,9.0,26.0,18.0,29.0,16.0,46.0,5.0,18.0,31.0,36.0,0.0
4.055416584014893,12.0,28.0,5.0,11.0,17.0,9.0,11.0,12.0,39.0,0.0,32.0
4.057799816131592,27.0,31.0,22.0,8.0,18.0,11.0,6.0,15.0,44.0,5.0,22.0
4.060183525085449,31.0,0.0,39.0,5.0,14.0,5.0,9.0,21.0,14.0,38.0,12.0
4.062566757202148,8.0,15.0,35.0,3.0,18.0,8.0,12.0,5.0,20.0,7.0,22.0
4.064949989318848,0.0,0.0,31.0,0.0,16.0,11.0,5.0,10.0,26.0,9.0,24.0
4.067333221435547,28.0,13.0,21.0,0.0,6.0,6.0,15.0,15.0,20.0,11.0,25.0
4.06974983215332,11.0,5.0,25.0,0.0,7.0,0.0,7.0,0.0,14.0,6.0,5.0
4.072133541107178,36.0,13.0,27.0,0.0,13.0,9.0,0.0,24.0,8.0,5.0,12.0
4.074516773223877,15.0,20.0,10.0,0.0,9.0,18.0,109.0,18.0,27.0,0.0,19.0
4.076900005340576,20.0,31.0,19.0,13.0,5.0,13.0,105.0,29.0,5.0,3.0,0.0
4.079283237457275,14.0,24.0,29.0,26.0,17.0,8.0,7.0,25.0,37.0,5.0,28.0
4.081666469573975,10.0,24.0,11.0,31.0,14.0,7.0,10.0,20.0,21.0,14.0,14.0
4.084050178527832,5.0,15.0,18.0,26.0,10.0,16.0,27.0,21.0,5.0,11.0,0.0
4.08650016784668,20.0,16.0,26.0,21.0,10.0,12.0,6.0,21.0,17.0,8.0,35.0
4.088883399963379,0.0,16.0,16.0,29.0,178.0,28.0,5.0,0.0,14.0,0.0,17.0
4.091266632080078,9.0,17.0,6.0,36.0,346.0,23.0,14.0,20.0,26.0,25.0,0.0
4.093649864196777,17.0,17.0,23.0,21.0,645.0,17.0,16.0,54.0,33.0,18.0,17.0
4.096033096313477,15.0,814.0,1994.0,7.0,945.0,1109.0,17.0,585.0,41.0,25.0,9.0
4.098416805267334,8.0,1699.0,2707.0,3508.0,3541.0,1591.0,5.0,739.0,49.0,483.0,0.0
4.100800037384033,0.0,2806.0,7239.0,5351.0,5548.0,7004.0,4240.0,892.0,1221.0,639.0,11.0
4.103250026702881,55.0,6696.0,9108.0,7567.0,7876.0,8336.0,11032.0,5811.0,1451.0,27.0,21.0
4.10563325881958,64.0,11068.0,16652.0,32368.0,21924.0,13640.0,8284.0,7396.0,3119.0,1208.0,86.0
4.108016490936279,25.0,17148.0,23328.0,35744.0,25140.0,24260.0,17364.0,6972.0,4788.0,2985.0,562.0
4.110400199890137,25.0,30848.0,49584.0,37936.0,40352.0,40160.0,17140.0,15320.0,9544.0,5615.0,1038.0
4.112783432006836,0.0,44448.0,60240.0,66208.0,47088.0,56304.0,41904.0,20836.0,11076.0,5695.0,672.0
4.115166664123535,0.0,52640.0,104352.0,76160.0,78000.0,58768.0,39056.0,21652.0,18564.0,2452.0,306.0
4.117549896240234,19.0,75552.0,112032.0,117072.0,100496.0,77744.0,58560.0,29352.0,14468.0,9360.0,1294.0
4.119983196258545,26.0,87376.0,141248.0,135360.0,119872.0,95056.0,74256.0,33760.0,17204.0,10092.0,2471.0
4.122383117675781,25.0,81808.0,165568.0,140224.0,150912.0,109872.0,83088.0,51920.0,28480.0,12744.0,1848.0
4.124766826629639,15.0,102320.0,185664.0,181696.0,139200.0,120992.0,87856.0,56992.0,33376.0,12868.0,3270.0
4.127150058746338,6.0,132224.0,180032.0,181888.0,174080.0,132224.0,83568.0,57616.0,34384.0,10812.0,2729.0
4.129533290863037,16.0,142208.0,209408.0,204800.0,155072.0,122912.0,83056.0,50832.0,20580.0,10704.0,2188.0
4.131916522979736,10.0,153664.0,204736.0,172160.0,157248.0,127408.0,82544.0,58368.0,24204.0,10116.0,4330.0
4.134300231933594,5.0,117344.0,200128.0,179712.0,156992.0,121152.0,91728.0,53264.0,23624.0,9932.0,4034.0
4.13670015335083,15.0,151808.0,186816.0,186560.0,136384.0,114880.0,92336.0,40768.0,21888.0,12116.0,3738.0
4.139100074768066,31.0,135232.0,179200.0,172288.0,144768.0,118160.0,73488.0,34880.0,22152.0,7010.0,2096.0
4.141483306884766,30.0,114192.0,167104.0,148992.0,120784.0,92016.0,68592.0,38608.0,20988.0,7522.0,2258.0
4.143866539001465,29.0,81712.0,155904.0,142528.0,129520.0,68576.0,53872.0,24160.0,10880.0,5908.0,1117.0
4.146249771118164,39.0,79584.0,141248.0,122704.0,78736.0,61856.0,42128.0,17992.0,15176.0,7327.0,389.0
4.1486334800720215,42.0,70752.0,107040.0,81120.0,79824.0,55472.0,42400.0,22680.0,12552.0,5392.0,870.0
4.151016712188721,46.0,56368.0,88240.0,53296.0,58768.0,60192.0,21440.0,14344.0,6949.0,2765.0,560.0
4.15339994430542,41.0,41984.0,64864.0,56640.0,42992.0,39408.0,28544.0,13868.0,6345.0,3017.0,648.0
4.155849933624268,36.0,36352.0,58848.0,57664.0,32864.0,27672.0,23432.0,10800.0,8376.0,1009.0,815.0
4.158233165740967,24.0,32544.0,42832.0,30032.0,24528.0,29916.0,10152.0,2614.0,6496.0,1041.0,1467.0
4.160616874694824,12.0,24900.0,23804.0,30144.0,22796.0,16340.0,7734.0,2478.0,1522.0,478.0,752.0
4.163000106811523,21.0,11312.0,31408.0,25584.0,14924.0,8884.0,12084.0,5152.0,3688.0,28.0,38.0
4.165383338928223,31.0,10472.0,13084.0,10288.0,11316.0,7198.0,3897.0,3142.0,2285.0,20.0,30.0
4.167766571044922,35.0,8848.0,10060.0,7711.0,10308.0,9524.0,1745.0,1697.0,867.0,12.0,382.0
4.170149803161621,16.0,5855.0,10544.0,11708.0,4575.0,5399.0,2933.0,2193.0,19.0,198.0,5.0
4.172599792480469,13.0,4361.0,6650.0,6741.0,4038.0,2843.0,1280.0,491.0,1119.0,108.0,23.0
4.174983501434326,29.0,8864.0,6310.0,7010.0,4538.0,3337.0,1474.0,153.0,609.0,18.0,46.0
4.177366733551025,52.0,4712.0,5793.0,760.0,1729.0,3038.0,1668.0,535.0,924.0,19.0,17.0
4.179749965667725,41.0,2430.0,4607.0,1583.0,2906.0,2363.0,426.0,278.0,870.0,44.0,11.0
4.182133197784424,0.0,2051.0,2224.0,2784.0,580.0,1878.0,1281.0,20.0,13.0,90.0,16.0
4.184516429901123,0.0,1871.0,3977.0,2612.0,2957.0,1289.0,2136.0,75.0,24.0,59.0,20.0
4.1869001388549805,44.0,842.0,2970.0,2440.0,4000.0,3796.0,763.0,49.0,43.0,29.0,10.0
4.189350128173828,0.0,1956.0,3795.0,669.0,121.0,3090.0,34.0,23.0,30.0,35.0,0.0
4.191733360290527,10.0,1466.0,501.0,1816.0,3342.0,2438.0,2813.0,16.0,35.0,41.0,12.0
4.194116592407227,5.0,977.0,1100.0,3556.0,1242.0,1961.0,2139.0,10.0,41.0,5.0,11.0
4.196499824523926,26.0,804.0,2728.0,3601.0,3191.0,1959.0,26.0,21.0,23.0,42.0,10.0
4.198883533477783,30.0,444.0,658.0,879.0,2448.0,1120.0,812.0,16.0,52.0,6.0,27.0
4.201266765594482,10.0,746.0,649.0,3552.0,5.0,1668.0,778.0,10.0,5.0,5.0,16.0
4.203649997711182,0.0,1048.0,640.0,1990.0,1685.0,2216.0,5.0,591.0,5.0,35.0,5.0
4.206066608428955,12.0,1467.0,326.0,1374.0,1936.0,5.0,797.0,678.0,8.0,17.0,7.0
4.208449840545654,6.0,1519.0,12.0,1370.0,10.0,1444.0,688.0,967.0,6.0,0.0,21.0
4.210833549499512,0.0,41.0,784.0,1747.0,236.0,26.0,29.0,621.0,5.0,4.0,26.0
4.213216781616211,10.0,1689.0,904.0,1309.0,898.0,27.0,1176.0,839.0,5.0,8.0,28.0
4.21560001373291,5.0,34.0,1024.0,50.0,102.0,136.0,1332.0,16.0,59.0,311.0,15.0
4.217983245849609,0.0,41.0,709.0,857.0,38.0,83.0,1487.0,18.0,60.0,615.0,18.0
4.220366477966309,3.0,37.0,393.0,1263.0,434.0,30.0,17.0,27.0,0.0,449.0,26.0
4.222816467285156,6.0,12.0,796.0,1514.0,831.0,562.0,10.0,17.0,23.0,48.0,12.0
4.225200176239014,17.0,11.0,1622.0,2275.0,1111.0,531.0,338.0,7.0,22.0,5.0,30.0
4.227583408355713,17.0,10.0,2009.0,2078.0,1391.0,663.0,172.0,18.0,21.0,23.0,14.0
4.229966640472412,19.0,26.0,1135.0,767.0,6.0,44.0,5.0,29.0,15.0,5.0,18.0
4.232349872589111,20.0,24.0,29.0,843.0,19.0,22.0,37.0,26.0,12.0,15.0,20.0
4.2347331047058105,5.0,23.0,1884.0,849.0,208.0,34.0,36.0,25.0,9.0,26.0,23.0
4.237116813659668,8.0,22.0,838.0,333.0,142.0,32.0,31.0,25.0,8.0,5.0,14.0
4.2395501136779785,15.0,21.0,5.0,922.0,29.0,31.0,62.0,5.0,6.0,7.0,5.0
4.241933345794678,21.0,309.0,1072.0,0.0,10.0,17.0,39.0,13.0,12.0,0.0,31.0
4.244316577911377,20.0,162.0,30.0,29.0,41.0,18.0,15.0,21.0,26.0,9.0,23.0
4.246699810028076,13.0,15.0,464.0,15.0,26.0,10.0,6.0,15.0,25.0,12.0,15.0
4.249083518981934,5.0,0.0,242.0,10.0,10.0,14.0,418.0,1483.0,15.0,15.0,35.0
4.251466751098633,14.0,5.0,19.0,5.0,0.0,5.0,212.0,1268.0,5.0,14.0,37.0
4.253849983215332,15.0,20.0,27.0,8.0,737.0,25.0,6.0,0.0,37.0,12.0,26.0
4.25629997253418,13.0,22.0,22.0,11.0,700.0,41.0,33.0,404.0,30.0,24.0,15.0
4.258699893951416,10.0,24.0,17.0,33.0,94.0,31.0,8.0,20.0,10.0,31.0,37.0
4.261066436767578,12.0,26.0,17.0,28.0,895.0,15.0,10.0,24.0,11.0,25.0,17.0
4.2634501457214355,0.0,26.0,17.0,24.0,1204.0,0.0,15.0,624.0,12.0,7.0,39.0
4.265833377838135,7.0,36.0,0.0,20.0,1098.0,6.0,13.0,319.0,16.0,20.0,13.0
4.268216609954834,14.0,32.0,8.0,17.0,533.0,11.0,10.0,0.0,19.0,28.0,17.0
4.270599842071533,46.0,29.0,16.0,22.0,26.0,11.0,909.0,28.0,23.0,18.0,25.0
4.273016452789307,46.0,5.0,18.0,27.0,7.0,10.0,905.0,41.0,5.0,8.0,32.0
4.275400161743164,15.0,24.0,20.0,28.0,12.0,21.0,21.0,11.0,5.0,12.0,5.0
4.277783393859863,37.0,162.0,35.0,56.0,11.0,32.0,7.0,434.0,20.0,5.0,18.0
4.2801666259765625,12.0,87.0,63.0,44.0,12.0,45.0,726.0,224.0,30.0,10.0,31.0
4.282549858093262,0.0,12.0,39.0,32.0,536.0,26.0,120.0,14.0,39.0,15.0,0.0
4.284933567047119,39.0,30.0,14.0,23.0,1060.0,6.0,26.0,50.0,7.0,17.0,80.0
4.287316799163818,40.0,6.0,7.0,7.0,538.0,17.0,17.0,20.0,15.0,19.0,42.0
4.289766788482666,0.0,469.0,0.0,10.0,15.0,5.0,23.0,334.0,10.0,7.0,5.0
4.292150020599365,36.0,239.0,3.0,13.0,144.0,8.0,16.0,184.0,44.0,23.0,31.0
4.2945332527160645,11.0,10.0,5.0,17.0,803.0,10.0,10.0,34.0,30.0,19.0,9.0
4.296916484832764,46.0,48.0,5.0,22.0,1083.0,34.0,258.0,32.0,16.0,16.0,17.0
