,275.1099853515625,276.1099853515625,277.1099853515625,278.1099853515625,279.1099853515625
1.9010833501815796,9.0,30.0,5.0,15.0,16.0
1.902166724205017,15.0,51.0,18.0,26.0,71.0
1.903249979019165,11.0,76.0,55.0,34.0,5.0
1.9043333530426025,5.0,50.0,10.0,20.0,12.0
1.9054166078567505,10.0,25.0,10.0,5.0,19.0
1.906499981880188,15.0,0.0,21.0,24.0,16.0
1.9075833559036255,13.0,21.0,5.0,0.0,15.0
1.9086666107177734,9.0,33.0,32.0,6.0,14.0
1.909749984741211,5.0,26.0,20.0,3.0,10.0
1.9108333587646484,0.0,26.0,9.0,0.0,5.0
1.9119166135787964,6.0,5.0,18.0,34.0,12.0
1.9129999876022339,11.0,13.0,0.0,31.0,19.0
1.9140833616256714,12.0,23.0,0.0,33.0,13.0
1.9151666164398193,32.0,11.0,0.0,0.0,6.0
1.9162499904632568,26.0,24.0,6.0,40.0,16.0
1.9174000024795532,34.0,46.0,14.0,45.0,55.0
1.9184833765029907,21.0,49.0,23.0,15.0,47.0
1.9195666313171387,17.0,18.0,16.0,38.0,50.0
1.9206500053405762,6.0,15.0,10.0,41.0,10.0
1.9217333793640137,14.0,10.0,17.0,44.0,0.0
1.9228166341781616,21.0,5.0,21.0,47.0,3.0
1.9239000082015991,0.0,6.0,25.0,12.0,5.0
1.9249833822250366,27.0,16.0,15.0,14.0,7.0
1.9260666370391846,28.0,23.0,13.0,20.0,8.0
1.927150011062622,13.0,30.0,25.0,5.0,30.0
1.9282333850860596,9.0,25.0,17.0,21.0,20.0
1.9293166399002075,5.0,17.0,10.0,10.0,10.0
1.930400013923645,11.0,21.0,23.0,24.0,12.0
1.9314833879470825,16.0,10.0,17.0,36.0,23.0
1.9325666427612305,27.0,6.0,10.0,26.0,27.0
1.933650016784668,23.0,13.0,17.0,15.0,28.0
1.9347833395004272,18.0,9.0,12.0,46.0,32.0
1.9358667135238647,26.0,5.0,7.0,6.0,14.0
1.9369499683380127,16.0,5.0,7.0,11.0,20.0
1.9380333423614502,23.0,5.0,13.0,60.0,26.0
1.9391167163848877,30.0,26.0,7.0,38.0,16.0
1.9401999711990356,12.0,17.0,0.0,18.0,6.0
1.9412833452224731,11.0,7.0,15.0,26.0,20.0
1.9423667192459106,10.0,17.0,8.0,21.0,28.0
1.9434499740600586,5.0,14.0,0.0,19.0,36.0
1.944533348083496,0.0,10.0,0.0,41.0,18.0
1.9456167221069336,12.0,5.0,12.0,32.0,26.0
1.9466999769210815,6.0,23.0,24.0,23.0,6.0
1.947783350944519,0.0,36.0,25.0,12.0,8.0
1.9488667249679565,0.0,27.0,0.0,23.0,10.0
1.9499499797821045,24.0,18.0,29.0,19.0,10.0
1.9510833024978638,23.0,9.0,10.0,32.0,42.0
1.9521833658218384,0.0,0.0,16.0,38.0,43.0
1.9532666206359863,23.0,23.0,12.0,5.0,16.0
1.9543499946594238,62.0,12.0,8.0,19.0,15.0
1.9554333686828613,68.0,21.0,13.0,7.0,54.0
1.9565166234970093,11.0,15.0,17.0,23.0,5.0
1.9575999975204468,16.0,9.0,15.0,28.0,15.0
1.9586833715438843,16.0,5.0,13.0,14.0,18.0
1.9597666263580322,18.0,0.0,9.0,17.0,21.0
1.9608500003814697,16.0,6.0,5.0,14.0,22.0
1.9619333744049072,14.0,13.0,10.0,10.0,23.0
1.9630166292190552,20.0,10.0,10.0,12.0,6.0
1.9641000032424927,27.0,6.0,14.0,14.0,0.0
1.9651833772659302,23.0,10.0,18.0,35.0,7.0
1.9662666320800781,18.0,10.0,27.0,38.0,14.0
1.9673500061035156,25.0,0.0,21.0,0.0,18.0
1.968483328819275,5.0,5.0,14.0,49.0,21.0
1.9695667028427124,18.0,5.0,8.0,13.0,5.0
1.9706499576568604,15.0,5.0,20.0,0.0,12.0
1.9717333316802979,6.0,10.0,6.0,24.0,19.0
1.9728167057037354,3.0,9.0,20.0,25.0,9.0
1.9738999605178833,0.0,8.0,12.0,10.0,22.0
1.9749833345413208,9.0,10.0,21.0,12.0,22.0
1.9760667085647583,10.0,26.0,30.0,19.0,23.0
1.9771499633789062,11.0,46.0,5.0,24.0,18.0
1.9782333374023438,17.0,55.0,11.0,17.0,13.0
1.9793167114257812,24.0,13.0,8.0,25.0,29.0
1.9803999662399292,25.0,38.0,21.0,30.0,0.0
1.9814833402633667,27.0,13.0,31.0,33.0,8.0
1.9825667142868042,30.0,21.0,40.0,22.0,7.0
1.9836499691009521,16.0,17.0,6.0,21.0,25.0
1.9847333431243896,40.0,10.0,37.0,20.0,28.0
1.985883355140686,5.0,0.0,0.0,0.0,32.0
1.986966609954834,26.0,12.0,29.0,15.0,26.0
1.9880499839782715,46.0,18.0,33.0,18.0,42.0
1.989133358001709,5.0,25.0,28.0,20.0,12.0
1.990216612815857,39.0,34.0,25.0,19.0,19.0
1.9912999868392944,45.0,28.0,18.0,21.0,36.0
1.992383360862732,36.0,7.0,32.0,20.0,23.0
1.9934666156768799,28.0,13.0,18.0,19.0,8.0
1.9945499897003174,19.0,26.0,5.0,53.0,0.0
1.9956333637237549,28.0,16.0,20.0,47.0,3.0
1.9967166185379028,19.0,25.0,28.0,0.0,6.0
1.9977999925613403,10.0,34.0,0.0,12.0,19.0
1.9988833665847778,15.0,19.0,6.0,36.0,10.0
1.9999666213989258,25.0,5.0,20.0,27.0,0.0
2.0010499954223633,25.0,3.0,35.0,18.0,18.0
2.00219988822937,26.0,0.0,21.0,26.0,14.0
2.0032832622528076,13.0,10.0,16.0,19.0,10.0
2.004366636276245,0.0,19.0,10.0,5.0,5.0
2.0054500102996826,35.0,18.0,31.0,23.0,10.0
2.00653338432312,21.0,10.0,31.0,40.0,14.0
2.0076167583465576,20.0,5.0,32.0,23.0,37.0
2.008699893951416,10.0,30.0,5.0,5.0,36.0
2.0097832679748535,5.0,32.0,23.0,30.0,27.0
2.010866641998291,0.0,35.0,12.0,55.0,10.0
2.0119500160217285,6.0,19.0,30.0,48.0,39.0
2.013033390045166,12.0,35.0,28.0,63.0,12.0
2.0141167640686035,20.0,45.0,20.0,6.0,47.0
2.015199899673462,12.0,0.0,13.0,44.0,35.0
2.0162832736968994,37.0,8.0,5.0,15.0,23.0
2.017366647720337,27.0,6.0,27.0,5.0,5.0
2.0184500217437744,17.0,51.0,39.0,26.0,17.0
2.019583225250244,24.0,57.0,29.0,15.0,14.0
2.0206665992736816,25.0,0.0,21.0,29.0,10.0
2.021749973297119,18.0,35.0,33.0,19.0,0.0
2.0228333473205566,12.0,0.0,44.0,34.0,5.0
2.023916721343994,5.0,36.0,35.0,41.0,11.0
2.0250000953674316,8.0,15.0,26.0,10.0,9.0
2.02608323097229,10.0,5.0,8.0,10.0,7.0
2.0271666049957275,27.0,17.0,24.0,15.0,34.0
2.028249979019165,23.0,28.0,7.0,23.0,31.0
2.0293333530426025,17.0,20.0,30.0,14.0,28.0
2.03041672706604,11.0,12.0,27.0,5.0,65.0
2.0315001010894775,18.0,0.0,14.0,0.0,44.0
2.032583236694336,5.0,10.0,6.0,27.0,24.0
2.0336666107177734,44.0,8.0,0.0,31.0,12.0
2.034749984741211,47.0,6.0,12.0,35.0,0.0
2.0358834266662598,25.0,11.0,18.0,0.0,0.0
2.0369832515716553,18.0,11.0,24.0,5.0,0.0
2.0380666255950928,0.0,10.0,42.0,10.0,5.0
2.0391499996185303,37.0,41.0,38.0,15.0,24.0
2.0402333736419678,19.0,66.0,19.0,20.0,34.0
2.0413167476654053,21.0,61.0,0.0,10.0,38.0
2.0423998832702637,23.0,29.0,25.0,0.0,0.0
2.043483257293701,5.0,43.0,0.0,10.0,34.0
2.0445666313171387,8.0,13.0,33.0,19.0,24.0
2.045650005340576,10.0,7.0,18.0,27.0,6.0
2.0467333793640137,11.0,16.0,43.0,11.0,0.0
2.047816753387451,12.0,13.0,6.0,7.0,28.0
2.0488998889923096,10.0,10.0,19.0,10.0,32.0
2.049983263015747,21.0,39.0,18.0,13.0,19.0
2.0510666370391846,18.0,29.0,16.0,13.0,21.0
2.052150011062622,14.0,19.0,14.0,18.0,28.0
2.053283214569092,7.0,27.0,12.0,15.0,39.0
2.0543665885925293,0.0,38.0,18.0,12.0,43.0
2.055449962615967,6.0,139.0,9.0,10.0,51.0
2.0565333366394043,6.0,86.0,0.0,8.0,39.0
2.057616710662842,5.0,33.0,5.0,23.0,6.0
2.0587000846862793,7.0,15.0,8.0,26.0,43.0
2.0597832202911377,13.0,37.0,10.0,17.0,28.0
2.060866594314575,19.0,448.0,28.0,11.0,9.0
2.0619499683380127,24.0,227.0,25.0,11.0,32.0
2.06303334236145,5.0,6.0,24.0,39.0,38.0
2.0641167163848877,14.0,20.0,26.0,22.0,34.0
2.0652167797088623,8.0,37.0,24.0,5.0,16.0
2.0662832260131836,20.0,9.0,21.0,60.0,31.0
2.067366600036621,10.0,15.0,0.0,49.0,5.0
2.0684499740600586,0.0,13.0,30.0,25.0,13.0
2.069533348083496,25.0,11.0,0.0,0.0,7.0
2.070683240890503,0.0,28.0,17.0,20.0,0.0
2.0717666149139404,11.0,21.0,27.0,23.0,14.0
2.072849988937378,0.0,15.0,24.0,10.0,29.0
2.0739333629608154,10.0,12.0,45.0,16.0,37.0
2.075016736984253,8.0,10.0,493.0,17.0,21.0
2.0761001110076904,5.0,11.0,585.0,17.0,25.0
2.077183246612549,20.0,9.0,26.0,20.0,21.0
2.0782666206359863,23.0,5.0,20.0,23.0,17.0
2.079349994659424,25.0,0.0,31.0,43.0,16.0
2.0804333686828613,23.0,388.0,24.0,40.0,13.0
2.081516742706299,20.0,208.0,5.0,85.0,10.0
2.0826001167297363,18.0,28.0,10.0,73.0,31.0
2.0836832523345947,5.0,39.0,14.0,42.0,15.0
2.0847666263580322,13.0,43.0,36.0,21.0,0.0
2.0858500003814697,20.0,38.0,40.0,29.0,19.0
2.0869998931884766,13.0,47.0,5.0,44.0,10.0
2.088083267211914,24.0,31.0,16.0,10.0,15.0
2.0891666412353516,14.0,18.0,45.0,5.0,29.0
2.090250015258789,5.0,31.0,29.0,6.0,27.0
2.0913333892822266,18.0,27.0,13.0,25.0,26.0
2.092416763305664,6.0,37.0,29.0,34.0,17.0
2.0934998989105225,21.0,8.0,36.0,48.0,15.0
2.09458327293396,20.0,13.0,5.0,28.0,23.0
2.0956666469573975,18.0,17.0,17.0,5.0,17.0
2.096750020980835,15.0,18.0,46.0,0.0,12.0
2.0978333950042725,11.0,18.0,14.0,0.0,0.0
2.09891676902771,0.0,16.0,5.0,6.0,11.0
2.0999999046325684,19.0,0.0,3.0,3.0,6.0
2.101083278656006,0.0,410.0,0.0,0.0,0.0
2.1021666526794434,0.0,207.0,7.0,8.0,15.0
2.103250026702881,12.0,5.0,13.0,16.0,31.0
2.1043832302093506,25.0,543.0,1068.0,773.0,964.0
2.105466604232788,26.0,1082.0,1502.0,735.0,1042.0
2.1065499782562256,27.0,2621.0,764.0,24.0,665.0
2.107633352279663,12.0,4339.0,26.0,1021.0,48.0
2.1087167263031006,32.0,5183.0,437.0,51.0,359.0
2.109800100326538,14.0,3480.0,3005.0,787.0,1305.0
2.1108832359313965,13.0,6201.0,5787.0,283.0,2434.0
2.111966609954834,11.0,8196.0,5300.0,13.0,2353.0
2.1130499839782715,0.0,12588.0,8284.0,21.0,2271.0
2.114133358001709,0.0,13644.0,12556.0,32.0,5458.0
2.1152167320251465,0.0,16516.0,16372.0,1159.0,5835.0
2.116300106048584,31.0,18148.0,21668.0,1423.0,11928.0
2.1173832416534424,22.0,27584.0,22144.0,1687.0,13932.0
2.11846661567688,13.0,35360.0,22580.0,3779.0,10744.0
2.1195499897003174,29.0,40976.0,23196.0,3574.0,14324.0
2.120683431625366,28.0,47424.0,30188.0,3152.0,14664.0
2.1217832565307617,27.0,60176.0,35008.0,2730.0,21532.0
2.122866630554199,8.0,79664.0,55056.0,8940.0,22548.0
2.1239500045776367,37.0,95600.0,66016.0,7692.0,27016.0
2.125033378601074,13.0,87744.0,58624.0,11800.0,30116.0
2.1261167526245117,23.0,117408.0,80144.0,11584.0,35072.0
2.12719988822937,6.0,110512.0,82464.0,11416.0,32680.0
2.1282832622528076,11.0,138496.0,97840.0,10816.0,48704.0
2.129366636276245,20.0,176064.0,121296.0,11352.0,46944.0
2.1304500102996826,17.0,162944.0,121744.0,11888.0,58256.0
2.13153338432312,14.0,192640.0,140992.0,15644.0,65584.0
2.1326167583465576,20.0,213632.0,129504.0,19400.0,67920.0
2.133699893951416,26.0,230720.0,179136.0,26108.0,74880.0
2.1347832679748535,22.0,262528.0,185664.0,30168.0,74880.0
2.135866641998291,18.0,271168.0,189120.0,25824.0,74896.0
2.1369500160217285,19.0,271552.0,151616.0,29776.0,76480.0
2.1380832195281982,27.0,286336.0,203904.0,33728.0,78080.0
2.1391665935516357,21.0,301056.0,219200.0,34400.0,89600.0
2.1402499675750732,15.0,319424.0,212800.0,39088.0,101120.0
2.1413333415985107,55.0,366272.0,221248.0,36480.0,99536.0
2.1424167156219482,49.0,352128.0,229568.0,35984.0,87888.0
2.1435000896453857,42.0,334784.0,237888.0,37728.0,109824.0
2.144583225250244,67.0,377536.0,244928.0,39104.0,116208.0
2.1456665992736816,64.0,376448.0,221312.0,39024.0,105776.0
2.146749973297119,15.0,336512.0,236224.0,38944.0,98672.0
2.1478333473205566,73.0,362944.0,254080.0,36384.0,119584.0
2.148916721343994,62.0,327552.0,223872.0,33824.0,103504.0
2.1500000953674316,32.0,334912.0,221248.0,30896.0,108208.0
2.15108323097229,101.0,342208.0,239232.0,31932.0,100368.0
2.1521666049957275,70.0,329728.0,239104.0,32056.0,85952.0
2.153249979019165,38.0,347328.0,189376.0,31768.0,88352.0
2.1543333530426025,94.0,337472.0,212416.0,31476.0,95104.0
2.1554832458496094,101.0,327616.0,197888.0,31680.0,92288.0
2.156566619873047,73.0,297536.0,189632.0,27008.0,89456.0
2.1576499938964844,63.0,285696.0,207552.0,30060.0,86320.0
2.158733367919922,54.0,306496.0,198272.0,27208.0,71888.0
2.1598167419433594,50.0,278656.0,188992.0,28336.0,74576.0
2.160900115966797,39.0,302208.0,177408.0,29468.0,73680.0
2.1619832515716553,35.0,279040.0,193600.0,30892.0,72768.0
2.1630666255950928,32.0,265856.0,168704.0,24832.0,71728.0
2.1641499996185303,65.0,239104.0,183168.0,25684.0,71728.0
2.1652333736419678,41.0,240128.0,163072.0,22008.0,71744.0
2.1663167476654053,18.0,265536.0,165888.0,21188.0,68368.0
2.1673998832702637,39.0,213760.0,169920.0,27328.0,66784.0
2.168483257293701,16.0,231616.0,149312.0,25348.0,74432.0
2.1695666313171387,52.0,245760.0,148928.0,23368.0,70944.0
2.170650005340576,63.0,245248.0,155968.0,21828.0,67456.0
2.171799898147583,34.0,206720.0,155200.0,23892.0,77696.0
2.1728832721710205,35.0,235328.0,158720.0,21884.0,72704.0
2.173966646194458,37.0,239744.0,157632.0,21612.0,47408.0
2.1750500202178955,41.0,220352.0,156544.0,24180.0,72368.0
2.176133394241333,37.0,219328.0,162240.0,23004.0,64080.0
2.1772167682647705,34.0,216768.0,142144.0,21828.0,58560.0
2.178299903869629,32.0,223232.0,153984.0,17032.0,67984.0
2.1793832778930664,31.0,198720.0,154048.0,21660.0,66704.0
2.180466651916504,27.0,237696.0,133824.0,20020.0,65408.0
2.1815500259399414,23.0,233856.0,138368.0,26660.0,67280.0
2.182633399963379,23.0,225408.0,142976.0,26856.0,68272.0
2.1837167739868164,25.0,242944.0,149184.0,20192.0,72464.0
2.184799909591675,27.0,254976.0,154304.0,27444.0,68128.0
2.1858832836151123,18.0,249216.0,153664.0,31280.0,63792.0
2.18696665763855,40.0,245824.0,158656.0,28056.0,77104.0
2.1880500316619873,45.0,254272.0,165184.0,25048.0,75632.0
2.189183235168457,14.0,253312.0,163648.0,27648.0,72928.0
2.1902666091918945,24.0,264960.0,162176.0,30252.0,85408.0
2.191349983215332,34.0,276608.0,167744.0,30628.0,89488.0
2.1924333572387695,28.0,277696.0,173312.0,31004.0,84256.0
2.193516731262207,21.0,278848.0,174016.0,19324.0,75824.0
2.1946001052856445,53.0,276352.0,174720.0,29468.0,71440.0
2.195683240890503,45.0,273792.0,195520.0,27048.0,93920.0
2.1967666149139404,37.0,281152.0,214592.0,29724.0,93280.0
2.197849988937378,54.0,288576.0,223360.0,25092.0,82096.0
2.1989333629608154,70.0,289344.0,210176.0,23304.0,88416.0
2.200016736984253,62.0,290176.0,223616.0,33856.0,86144.0
2.2011001110076904,53.0,290880.0,216512.0,30036.0,80000.0
2.202183246612549,94.0,291584.0,226240.0,33248.0,73872.0
2.2032666206359863,83.0,304000.0,189632.0,29276.0,111440.0
2.204349994659424,74.0,294208.0,218816.0,25304.0,105184.0
2.2054834365844727,62.0,284480.0,220928.0,23928.0,93056.0
2.206583261489868,51.0,282304.0,165952.0,21416.0,84256.0
2.2076666355133057,38.0,301376.0,188224.0,30872.0,92192.0
2.208750009536743,32.0,301824.0,208704.0,31708.0,79904.0
2.2098333835601807,48.0,302272.0,216896.0,25244.0,86944.0
2.210916757583618,47.0,262080.0,193536.0,25520.0,86336.0
2.2119998931884766,64.0,281856.0,187520.0,34784.0,82912.0
2.213083267211914,66.0,268608.0,170240.0,33040.0,76304.0
2.2141666412353516,75.0,298112.0,184896.0,29724.0,69824.0
2.215250015258789,37.0,243072.0,186688.0,30520.0,62464.0
2.2163333892822266,35.0,234112.0,156352.0,27416.0,66624.0
2.217416763305664,81.0,225792.0,161856.0,24112.0,66832.0
2.2184998989105225,63.0,228288.0,153152.0,19912.0,67056.0
2.21958327293396,45.0,230848.0,143360.0,19940.0,60256.0
2.2206666469573975,70.0,184384.0,144768.0,22424.0,55120.0
2.221750020980835,57.0,235776.0,123648.0,23788.0,58048.0
2.2228832244873047,45.0,216384.0,118224.0,12924.0,56608.0
2.223966598510742,25.0,184896.0,113712.0,17336.0,43232.0
2.2250499725341797,33.0,157952.0,121136.0,13672.0,36304.0
2.226133346557617,10.0,167424.0,95360.0,12532.0,40576.0
2.2272167205810547,24.0,157696.0,122816.0,11384.0,40864.0
2.2283167839050293,38.0,136448.0,91792.0,10240.0,33024.0
2.2293832302093506,47.0,130336.0,80240.0,11368.0,29240.0
2.230466604232788,40.0,114736.0,89376.0,9008.0,32180.0
2.2315499782562256,33.0,88736.0,69648.0,8284.0,35744.0
2.232633352279663,47.0,94544.0,58064.0,9140.0,35280.0
2.2337167263031006,47.0,95200.0,66688.0,10000.0,35008.0
2.234800100326538,38.0,95360.0,51232.0,9644.0,24784.0
2.2358832359313965,7.0,77456.0,45088.0,8748.0,29196.0
2.236966609954834,6.0,64256.0,47616.0,6404.0,21516.0
2.2380499839782715,40.0,69152.0,41616.0,7027.0,11236.0
2.239133358001709,51.0,53840.0,43680.0,3944.0,12996.0
2.240283250808716,60.0,61584.0,26736.0,6237.0,12748.0
2.2413666248321533,5.0,47600.0,35776.0,3458.0,12584.0
2.242449998855591,28.0,40848.0,21144.0,2000.0,11960.0
2.2435333728790283,41.0,42032.0,22676.0,83.0,10172.0
2.244616746902466,53.0,35152.0,24192.0,3861.0,8052.0
2.245699882507324,46.0,15160.0,18048.0,2541.0,7685.0
2.2467832565307617,62.0,27928.0,17200.0,3797.0,9432.0
2.247866630554199,47.0,25772.0,15732.0,2154.0,6107.0
2.2489500045776367,31.0,21692.0,16556.0,3766.0,6337.0
2.250033378601074,39.0,21700.0,16948.0,2163.0,6720.0
2.2511167526245117,163.0,17816.0,11752.0,1210.0,1969.0
2.25219988822937,95.0,24400.0,11052.0,5.0,3077.0
2.2532832622528076,28.0,17032.0,14028.0,2276.0,3129.0
2.254366636276245,28.0,11820.0,5650.0,0.0,2900.0
2.2554500102996826,50.0,13964.0,11300.0,1308.0,2633.0
2.2565999031066895,15.0,12284.0,11868.0,795.0,5120.0
2.257683277130127,23.0,10264.0,10296.0,369.0,4578.0
2.2587666511535645,15.0,14916.0,7497.0,29.0,1809.0
2.259850025177002,5.0,10116.0,4016.0,422.0,2813.0
2.2609333992004395,18.0,6566.0,4531.0,581.0,1764.0
2.262016773223877,31.0,11840.0,8392.0,741.0,2778.0
2.2630999088287354,27.0,11920.0,7548.0,757.0,2222.0
2.264183282852173,24.0,6738.0,7124.0,623.0,2863.0
2.2652666568756104,25.0,7120.0,8091.0,673.0,2881.0
2.266350030899048,26.0,3163.0,6598.0,1067.0,2899.0
2.2674334049224854,30.0,6624.0,1761.0,1253.0,2325.0
2.268516778945923,35.0,10792.0,7006.0,290.0,3782.0
2.2695999145507812,25.0,9740.0,6423.0,1538.0,4950.0
2.2706832885742188,14.0,8576.0,7476.0,1063.0,478.0
2.2717666625976562,8.0,4599.0,1621.0,469.0,2208.0
2.2728500366210938,0.0,6498.0,5244.0,9.0,4484.0
2.2739999294281006,15.0,5755.0,4198.0,243.0,1747.0
2.275083303451538,16.0,5868.0,3897.0,477.0,30.0
2.2761666774749756,50.0,5982.0,5321.0,357.0,1894.0
2.277250051498413,56.0,5238.0,5316.0,194.0,1266.0
2.2783334255218506,28.0,4493.0,4511.0,32.0,1808.0
2.279416561126709,25.0,3902.0,6145.0,20.0,1915.0
2.2804999351501465,26.0,4530.0,2406.0,59.0,2022.0
2.281583309173584,23.0,4534.0,3933.0,120.0,1371.0
2.2826666831970215,0.0,4538.0,3241.0,75.0,719.0
2.283750057220459,38.0,5016.0,1178.0,30.0,66.0
2.2848334312438965,37.0,5494.0,1578.0,11.0,884.0
2.285916566848755,17.0,1165.0,1978.0,18.0,1703.0
2.2869999408721924,18.0,5163.0,2567.0,169.0,1534.0
2.28808331489563,32.0,5342.0,2198.0,319.0,1366.0
2.2891666889190674,46.0,2909.0,1829.0,488.0,41.0
2.290283441543579,45.0,2724.0,1419.0,658.0,19.0
2.2913832664489746,42.0,3271.0,1010.0,29.0,27.0
2.292466640472412,39.0,3642.0,955.0,16.0,570.0
2.2935667037963867,40.0,4014.0,414.0,168.0,842.0
2.294633388519287,42.0,3416.0,437.0,5.0,1083.0
2.2957167625427246,45.0,2817.0,70.0,3.0,549.0
2.296799898147583,31.0,3504.0,1602.0,0.0,15.0
2.2978832721710205,16.0,3008.0,1265.0,0.0,53.0
2.298966646194458,10.0,2513.0,927.0,12.0,11.0
2.3000500202178955,16.0,3149.0,1005.0,25.0,2236.0
2.301133394241333,22.0,3785.0,1083.0,33.0,1870.0
2.3022167682647705,28.0,1480.0,548.0,23.0,2167.0
2.303299903869629,22.0,3496.0,2415.0,466.0,1030.0
2.3043832778930664,16.0,1985.0,2518.0,246.0,697.0
2.305483341217041,28.0,2381.0,1847.0,27.0,2568.0
2.3065500259399414,25.0,1875.0,1116.0,0.0,24.0
2.3076999187469482,20.0,1898.0,1313.0,0.0,384.0
2.3087832927703857,15.0,1308.0,1898.0,0.0,12.0
2.3098666667938232,19.0,718.0,206.0,8.0,593.0
2.3109500408172607,24.0,1881.0,1717.0,16.0,1173.0
2.3120334148406982,26.0,3815.0,331.0,13.0,1002.0
2.3131165504455566,33.0,3415.0,2987.0,20.0,758.0
2.314199924468994,35.0,2608.0,3075.0,28.0,621.0
2.3152832984924316,28.0,3883.0,1020.0,30.0,323.0
2.316366672515869,0.0,641.0,1440.0,18.0,26.0
2.3174500465393066,4.0,21.0,1155.0,6.0,203.0
2.318533420562744,8.0,2262.0,41.0,26.0,381.0
2.3196165561676025,30.0,1965.0,967.0,24.0,1566.0
2.32069993019104,31.0,1257.0,29.0,17.0,1688.0
2.3217833042144775,28.0,952.0,50.0,10.0,1213.0
2.322866678237915,27.0,1632.0,366.0,15.0,30.0
2.3239667415618896,33.0,830.0,276.0,19.0,51.0
2.325066566467285,39.0,29.0,186.0,16.0,1405.0
2.3261499404907227,30.0,938.0,582.0,13.0,693.0
2.32723331451416,21.0,17.0,299.0,25.0,792.0
2.3283166885375977,25.0,1162.0,15.0,18.0,529.0
2.329400062561035,23.0,7.0,421.0,11.0,487.0
2.3304834365844727,21.0,1314.0,635.0,17.0,35.0
2.331566572189331,13.0,685.0,532.0,23.0,751.0
2.3326499462127686,21.0,56.0,427.0,803.0,309.0
2.333733320236206,30.0,1985.0,228.0,777.0,744.0
2.3348166942596436,21.0,1538.0,29.0,35.0,518.0
2.335900068283081,13.0,1091.0,1834.0,24.0,292.0
2.3369834423065186,13.0,846.0,936.0,12.0,5.0
2.338066577911377,13.0,20.0,39.0,18.0,12.0
2.3391499519348145,15.0,1281.0,451.0,17.0,18.0
2.340233325958252,17.0,983.0,48.0,13.0,15.0
2.341383218765259,21.0,508.0,677.0,7.0,455.0
2.3424665927886963,25.0,32.0,678.0,0.0,235.0
2.343549966812134,11.0,1111.0,680.0,3.0,15.0
2.3446333408355713,9.0,742.0,863.0,5.0,60.0
2.345716714859009,7.0,1046.0,1150.0,40.0,342.0
2.3468000888824463,11.0,1351.0,924.0,23.0,185.0
2.3478832244873047,16.0,651.0,698.0,6.0,28.0
2.348966598510742,21.0,1442.0,36.0,50.0,508.0
2.3500499725341797,17.0,2037.0,83.0,570.0,652.0
2.351133346557617,13.0,21.0,455.0,528.0,39.0
2.3522167205810547,5.0,1489.0,31.0,486.0,14.0
2.353300094604492,6.0,455.0,20.0,26.0,565.0
2.3543832302093506,13.0,724.0,1056.0,47.0,27.0
2.355466604232788,19.0,994.0,1821.0,5.0,46.0
2.3565499782562256,26.0,305.0,1056.0,11.0,15.0
2.357633352279663,17.0,38.0,729.0,29.0,37.0
2.35878324508667,21.0,796.0,2036.0,28.0,58.0
2.3598666191101074,25.0,1858.0,761.0,29.0,10.0
2.360949993133545,36.0,1549.0,0.0,11.0,27.0
2.3620333671569824,0.0,10.0,255.0,15.0,48.0
2.36311674118042,19.0,1665.0,145.0,37.0,45.0
2.3642001152038574,26.0,917.0,36.0,43.0,42.0
2.365283250808716,7.0,1303.0,208.0,49.0,32.0
2.3663666248321533,10.0,1543.0,111.0,5.0,23.0
2.367449998855591,9.0,694.0,13.0,16.0,33.0
2.3685333728790283,7.0,1930.0,5.0,38.0,23.0
2.369616746902466,28.0,1923.0,188.0,29.0,39.0
2.370699882507324,48.0,1746.0,107.0,20.0,55.0
2.3717832565307617,50.0,88.0,25.0,38.0,30.0
2.372866630554199,30.0,1222.0,26.0,24.0,5.0
2.3739500045776367,42.0,43.0,20.0,9.0,45.0
2.3750998973846436,0.0,124.0,364.0,5.0,31.0
2.376183271408081,14.0,1070.0,182.0,8.0,22.0
2.3772666454315186,29.0,1037.0,0.0,10.0,6.0
2.378350019454956,38.0,16.0,254.0,10.0,6.0
2.3794333934783936,28.0,6.0,0.0,10.0,8.0
2.380516767501831,0.0,134.0,381.0,11.0,10.0
2.3815999031066895,5.0,72.0,762.0,14.0,27.0
2.382683277130127,16.0,10.0,1177.0,17.0,43.0
2.3837666511535645,45.0,323.0,676.0,18.0,36.0
2.384850025177002,34.0,167.0,1252.0,23.0,30.0
2.3859333992004395,39.0,10.0,15.0,27.0,44.0
2.387016773223877,45.0,208.0,20.0,31.0,27.0
2.3880999088287354,33.0,112.0,792.0,18.0,27.0
2.389183282852173,25.0,16.0,301.0,5.0,10.0
2.3902666568756104,0.0,11.0,12.0,18.0,13.0
2.391366720199585,42.0,5.0,517.0,38.0,18.0
2.3924667835235596,18.0,770.0,277.0,61.0,49.0
2.393549919128418,12.0,1391.0,37.0,84.0,30.0
2.3946332931518555,0.0,711.0,82.0,45.0,10.0
2.395716667175293,6.0,31.0,70.0,5.0,20.0
2.3968000411987305,13.0,444.0,58.0,48.0,21.0
2.397883415222168,9.0,23.0,49.0,17.0,405.0
2.3989665508270264,15.0,241.0,39.0,27.0,634.0
2.400049924850464,31.0,459.0,49.0,21.0,1058.0
2.4011332988739014,21.0,320.0,58.0,16.0,1486.0
2.402216672897339,11.0,634.0,0.0,0.0,1116.0
2.4033000469207764,14.0,664.0,10.0,23.0,49.0
2.404383420944214,16.0,695.0,310.0,12.0,16.0
2.4054665565490723,15.0,18.0,172.0,0.0,35.0
2.4065499305725098,55.0,25.0,33.0,5.0,18.0
2.4076333045959473,48.0,32.0,496.0,26.0,60.0
2.408783435821533,16.0,200.0,1379.0,21.0,53.0
2.4098665714263916,54.0,611.0,1020.0,5.0,5.0
2.410949945449829,7.0,1022.0,845.0,7.0,63.0
2.4120333194732666,40.0,1021.0,749.0,31.0,34.0
2.413116693496704,30.0,2344.0,44.0,33.0,5.0
2.4142000675201416,29.0,2220.0,32.0,12.0,29.0
2.415283441543579,19.0,592.0,32.0,19.0,1749.0
2.4163665771484375,5.0,1428.0,33.0,10.0,1313.0
2.417449951171875,5.0,845.0,31.0,0.0,484.0
2.4185333251953125,31.0,883.0,286.0,10.0,0.0
2.41961669921875,24.0,1602.0,179.0,18.0,25.0
2.4207000732421875,32.0,929.0,72.0,27.0,15.0
2.421783447265625,19.0,653.0,25.0,26.0,11.0
2.4228665828704834,28.0,376.0,6.0,22.0,5.0
2.423949956893921,16.0,732.0,665.0,18.0,10.0
2.4250333309173584,19.0,27.0,809.0,17.0,0.0
2.4261832237243652,23.0,8.0,746.0,15.0,11.0
2.4272665977478027,24.0,41.0,590.0,5.0,21.0
2.4283499717712402,15.0,5.0,10.0,30.0,31.0
2.4294333457946777,7.0,465.0,10.0,59.0,14.0
2.4305167198181152,10.0,448.0,23.0,43.0,32.0
2.4316000938415527,14.0,433.0,27.0,5.0,19.0
2.432683229446411,18.0,418.0,45.0,19.0,24.0
2.4337666034698486,23.0,786.0,37.0,10.0,28.0
2.434849977493286,28.0,2073.0,30.0,16.0,29.0
2.4359333515167236,22.0,2077.0,429.0,10.0,45.0
2.437016725540161,16.0,1664.0,220.0,14.0,521.0
2.4381000995635986,0.0,1046.0,11.0,7.0,711.0
2.439183235168457,6.0,70.0,6.0,24.0,868.0
2.4402666091918945,20.0,672.0,0.0,47.0,33.0
2.441349983215332,37.0,629.0,53.0,47.0,24.0
2.442483425140381,27.0,26.0,32.0,35.0,7.0
2.4435832500457764,54.0,673.0,11.0,16.0,18.0
2.444666624069214,0.0,10.0,15.0,14.0,143.0
2.4457499980926514,26.0,686.0,19.0,10.0,74.0
2.446833372116089,23.0,359.0,65.0,12.0,5.0
2.4479167461395264,7.0,32.0,39.0,15.0,19.0
2.4489998817443848,25.0,50.0,13.0,5.0,25.0
2.4500832557678223,50.0,395.0,1743.0,18.0,25.0
2.4511666297912598,57.0,207.0,1733.0,12.0,25.0
2.4522500038146973,58.0,19.0,8.0,6.0,5.0
2.4533333778381348,19.0,10.0,540.0,25.0,9.0
2.4544167518615723,25.0,899.0,42.0,54.0,26.0
2.4554998874664307,45.0,826.0,25.0,58.0,0.0
2.456583261489868,31.0,753.0,100.0,16.0,30.0
2.4576666355133057,20.0,328.0,56.0,41.0,0.0
2.458750009536743,48.0,1139.0,12.0,24.0,7.0
2.45989990234375,19.0,16.0,26.0,17.0,14.0
2.4609832763671875,36.0,23.0,20.0,52.0,7.0
2.462066650390625,49.0,719.0,34.0,5.0,0.0
2.4631500244140625,10.0,757.0,48.0,27.0,14.0
2.4642333984375,13.0,795.0,32.0,43.0,1206.0
2.4653167724609375,6.0,9.0,16.0,24.0,971.0
2.466399908065796,0.0,14.0,30.0,48.0,616.0
2.4674832820892334,6.0,15.0,24.0,24.0,98.0
2.468566656112671,12.0,21.0,17.0,0.0,20.0
2.4696500301361084,47.0,1101.0,59.0,14.0,6.0
2.470733404159546,52.0,1383.0,982.0,24.0,12.0
2.4718167781829834,54.0,965.0,503.0,31.0,18.0
2.472899913787842,11.0,505.0,24.0,30.0,17.0
2.4739832878112793,6.0,1102.0,10.0,30.0,16.0
2.475066661834717,5.0,5.0,24.0,26.0,14.0
2.4761667251586914,27.0,620.0,5.0,32.0,41.0
2.477266550064087,31.0,42.0,5.0,19.0,44.0
2.4783499240875244,18.0,24.0,25.0,11.0,0.0
2.479433298110962,12.0,17.0,23.0,25.0,15.0
2.4805166721343994,0.0,10.0,20.0,15.0,263.0
2.481600046157837,0.0,62.0,0.0,5.0,511.0
2.4826834201812744,0.0,115.0,8.0,12.0,264.0
2.48378324508667,40.0,199.0,16.0,21.0,16.0
2.4848666191101074,20.0,284.0,13.0,30.0,6.0
2.485949993133545,0.0,324.0,10.0,60.0,23.0
2.4870166778564453,60.0,18.0,14.0,36.0,5.0
2.48811674118042,38.0,13.0,17.0,12.0,13.0
2.4891834259033203,15.0,25.0,24.0,14.0,33.0
2.4902665615081787,27.0,37.0,30.0,16.0,32.0
2.491349935531616,14.0,40.0,33.0,0.0,5.0
2.492449998855591,23.0,44.0,36.0,9.0,10.0
2.4935667514801025,17.0,155.0,6.0,18.0,34.0
2.494633436203003,12.0,265.0,500.0,21.0,30.0
2.4957332611083984,66.0,881.0,577.0,5.0,26.0
2.496816635131836,56.0,742.0,19.0,5.0,21.0
2.4979000091552734,6.0,19.0,385.0,18.0,24.0
2.498983383178711,39.0,19.0,26.0,0.0,27.0
