,319.2099914550781,320.2099914550781,321.2099914550781,322.2099914550781,323.2099914550781,324.2099914550781,325.2099914550781
4.5017499923706055,231.0,128.0,183.0,125.0,1232.0,143.0,138.0
4.504350185394287,266.0,187.0,160.0,151.0,134.0,130.0,142.0
4.507400035858154,213.0,181.0,124.0,178.0,86.0,128.0,76.0
4.510433197021484,184.0,161.0,190.0,189.0,165.0,159.0,145.0
4.513466835021973,222.0,141.0,169.0,202.0,130.0,157.0,146.0
4.516499996185303,147.0,206.0,126.0,155.0,152.0,153.0,55.0
4.519533157348633,252.0,190.0,153.0,115.0,73.0,139.0,168.0
4.5226335525512695,245.0,155.0,126.0,144.0,96.0,72.0,85.0
4.5256667137146,198.0,109.0,99.0,80.0,59.0,108.0,90.0
4.52869987487793,136.0,81.0,89.0,120.0,77.0,107.0,110.0
4.531733512878418,152.0,102.0,80.0,137.0,95.0,118.0,89.0
4.534766674041748,146.0,123.0,110.0,96.0,112.0,97.0,54.0
4.537799835205078,140.0,138.0,139.0,93.0,106.0,35.0,66.0
4.540900230407715,60.0,103.0,120.0,90.0,75.0,32.0,46.0
4.543933391571045,70.0,159.0,96.0,65.0,59.0,47.0,26.0
4.546966552734375,79.0,108.0,74.0,80.0,26.0,47.0,35.0
4.550000190734863,41.0,58.0,45.0,39.0,45.0,47.0,51.0
4.553033351898193,482.0,53.0,46.0,53.0,64.0,30.0,41.0
4.556133270263672,274.0,48.0,40.0,57.0,52.0,63.0,40.0
4.559166431427002,65.0,53.0,46.0,33.0,52.0,62.0,40.0
4.56220006942749,73.0,58.0,66.0,16.0,68.0,61.0,10.0
4.56523323059082,75.0,107.0,51.0,41.0,114.0,61.0,46.0
4.568266868591309,27.0,89.0,37.0,62.0,107.0,12.0,110.0
4.571300029754639,54.0,71.0,31.0,77.0,73.0,31.0,76.0
4.574399948120117,53.0,20.0,57.0,63.0,38.0,66.0,42.0
4.577433109283447,53.0,48.0,12.0,50.0,42.0,6.0,30.0
4.5804667472839355,52.0,75.0,54.0,40.0,43.0,34.0,45.0
4.583499908447266,57.0,27.0,35.0,22.0,41.0,44.0,34.0
4.586533546447754,0.0,71.0,17.0,28.0,40.0,41.0,23.0
4.589566707611084,23.0,45.0,60.0,30.0,27.0,25.0,25.0
4.592633247375488,46.0,705.0,43.0,32.0,14.0,70.0,37.0
4.595666885375977,22.0,782.0,30.0,7.0,95.0,78.0,31.0
4.598700046539307,45.0,64.0,51.0,6.0,77.0,56.0,25.0
4.601733207702637,38.0,44.0,54.0,6.0,24.0,34.0,41.0
4.604766845703125,31.0,33.0,38.0,23.0,23.0,41.0,43.0
4.607833385467529,41.0,35.0,51.0,20.0,35.0,31.0,7.0
4.610866546630859,37.0,0.0,51.0,17.0,74.0,37.0,49.0
4.613900184631348,34.0,33.0,51.0,29.0,50.0,30.0,5.0
4.616933345794678,32.0,29.0,50.0,41.0,27.0,10.0,18.0
4.619966506958008,31.0,24.0,68.0,56.0,28.0,64.0,18.0
4.623000144958496,41.0,360.0,21.0,39.0,31.0,55.0,19.0
4.6260666847229,36.0,191.0,12.0,22.0,34.0,63.0,20.0
4.6290998458862305,31.0,21.0,39.0,29.0,37.0,24.0,29.0
4.632133483886719,0.0,37.0,20.0,39.0,10.0,18.0,38.0
4.635166645050049,40.0,35.0,0.0,19.0,17.0,56.0,34.0
4.638199806213379,39.0,24.0,23.0,36.0,23.0,46.0,31.0
4.641266822814941,38.0,16.0,46.0,49.0,18.0,36.0,17.0
4.6442999839782715,35.0,23.0,51.0,32.0,14.0,5.0,14.0
4.647333145141602,31.0,36.0,51.0,43.0,10.0,31.0,26.0
4.65036678314209,16.0,236.0,38.0,31.0,14.0,29.0,19.0
4.65339994430542,10.0,133.0,33.0,5.0,18.0,27.0,21.0
4.65643310546875,7.0,30.0,29.0,23.0,22.0,21.0,23.0
4.6595001220703125,30.0,40.0,13.0,26.0,26.0,15.0,33.0
4.662533283233643,30.0,46.0,42.0,29.0,29.0,62.0,25.0
4.665566444396973,30.0,29.0,38.0,19.0,17.0,54.0,16.0
4.668600082397461,0.0,65.0,34.0,30.0,33.0,10.0,48.0
4.671633243560791,7.0,47.0,473.0,41.0,44.0,909.0,259.0
4.674699783325195,14.0,28.0,2126.0,2135.0,1744.0,956.0,1223.0
4.677733421325684,42.0,5.0,3055.0,3612.0,3823.0,4485.0,907.0
4.680766582489014,34.0,4980.0,7952.0,15168.0,11212.0,4506.0,592.0
4.683800220489502,27.0,5931.0,20212.0,27040.0,19004.0,12524.0,4238.0
4.686833381652832,32.0,20924.0,52304.0,53312.0,54496.0,19216.0,6799.0
4.689866542816162,37.0,21796.0,91584.0,96176.0,58096.0,49264.0,10368.0
4.692933559417725,39.0,58320.0,169280.0,182848.0,123216.0,59824.0,24668.0
4.695966720581055,36.0,91696.0,221440.0,266752.0,179392.0,125904.0,31572.0
4.698999881744385,33.0,151936.0,401600.0,413632.0,283328.0,170368.0,45872.0
4.702033519744873,59.0,193024.0,542976.0,575488.0,383040.0,228736.0,76096.0
4.705066680908203,52.0,295552.0,679424.0,669184.0,474432.0,276736.0,62960.0
4.708133220672607,46.0,367616.0,838912.0,864256.0,584704.0,320064.0,105232.0
4.711166858673096,56.0,362688.0,1045760.0,1067776.0,750592.0,399552.0,121104.0
4.714200019836426,49.0,451904.0,1179136.0,1145600.0,784640.0,466816.0,139840.0
4.717233180999756,43.0,500224.0,1204992.0,1185792.0,884224.0,457984.0,133440.0
4.720266819000244,42.0,556800.0,1359872.0,1340928.0,954880.0,496000.0,124672.0
4.723299980163574,41.0,582912.0,1309952.0,1289984.0,953344.0,429568.0,141376.0
4.7263665199279785,72.0,587008.0,1268224.0,1279744.0,886784.0,508864.0,148608.0
4.729400157928467,103.0,559104.0,1240320.0,1262848.0,902656.0,468224.0,113152.0
4.732433319091797,138.0,520128.0,1191168.0,1248256.0,867840.0,465600.0,143488.0
4.735466480255127,496.0,465984.0,1107968.0,1114624.0,798720.0,416896.0,140864.0
4.738500118255615,493.0,446208.0,1061632.0,1084672.0,703488.0,372096.0,114992.0
4.7415666580200195,574.0,411584.0,978176.0,970496.0,672512.0,374592.0,87040.0
4.74459981918335,656.0,369280.0,933888.0,865280.0,539904.0,294464.0,89664.0
4.747633457183838,80.0,303168.0,785664.0,757760.0,547584.0,321280.0,90112.0
4.750666618347168,457.0,275328.0,600832.0,627200.0,436160.0,232000.0,83552.0
4.753699779510498,454.0,243648.0,580864.0,552704.0,339840.0,173312.0,56416.0
4.756733417510986,81.0,212480.0,441600.0,474752.0,273152.0,143104.0,44496.0
4.759799957275391,42.0,134912.0,359872.0,361280.0,235200.0,120128.0,32012.0
4.762833118438721,129.0,108096.0,259840.0,265280.0,180224.0,101952.0,23848.0
4.765866756439209,31.0,86368.0,208832.0,188672.0,127520.0,62352.0,14480.0
4.768899917602539,74.0,67600.0,168832.0,160192.0,114640.0,53472.0,15232.0
4.771933555603027,45.0,46208.0,124624.0,115024.0,85552.0,37856.0,9384.0
4.775000095367432,86.0,34816.0,112320.0,95136.0,59248.0,27096.0,4442.0
4.778033256530762,128.0,23716.0,83664.0,64624.0,43280.0,22876.0,5914.0
4.78106689453125,80.0,17128.0,51552.0,40368.0,29268.0,25000.0,4493.0
4.78410005569458,33.0,16120.0,41344.0,40256.0,23440.0,16528.0,5092.0
4.78713321685791,30.0,13956.0,26940.0,25508.0,22420.0,13496.0,1954.0
4.790166854858398,13.0,9624.0,25852.0,29540.0,21484.0,10508.0,5466.0
4.793233394622803,44.0,11140.0,28320.0,32220.0,17132.0,11112.0,2407.0
4.796266555786133,30.0,9868.0,21396.0,21372.0,11928.0,8716.0,874.0
4.799300193786621,46.0,8464.0,17964.0,23064.0,15668.0,9428.0,5923.0
4.80168342590332,44.0,9380.0,22504.0,13264.0,15432.0,10144.0,1525.0
4.803199768066406,27.0,7241.0,13468.0,18724.0,8196.0,9276.0,3051.0
4.80471658706665,35.0,5689.0,22832.0,15132.0,9964.0,5309.0,3103.0
4.8062334060668945,15.0,6172.0,18040.0,18808.0,12100.0,5457.0,1863.0
4.807766437530518,5.0,5462.0,20624.0,19168.0,9324.0,3807.0,1812.0
4.809283256530762,21.0,5152.0,19232.0,13108.0,10416.0,4472.0,1761.0
4.810800075531006,38.0,4842.0,11376.0,10168.0,11504.0,5137.0,1827.0
4.81231689453125,31.0,8884.0,25176.0,14144.0,12380.0,5074.0,630.0
4.813833236694336,24.0,8540.0,16984.0,11576.0,8700.0,5012.0,1074.0
4.81535005569458,25.0,4702.0,13108.0,11812.0,11004.0,5073.0,2241.0
4.816866874694824,24.0,6120.0,13060.0,10368.0,7403.0,5135.0,163.0
4.81838321685791,24.0,6476.0,14392.0,17576.0,7086.0,4705.0,2423.0
4.819900035858154,24.0,4997.0,17100.0,18584.0,11740.0,5378.0,1719.0
4.821416854858398,35.0,4979.0,18596.0,12820.0,9704.0,2800.0,1015.0
4.822933197021484,47.0,4961.0,15756.0,13572.0,9512.0,3739.0,51.0
4.824516773223877,38.0,4465.0,13332.0,11688.0,7487.0,2269.0,40.0
4.826033115386963,30.0,4165.0,7221.0,12784.0,7329.0,2547.0,29.0
4.827549934387207,29.0,2491.0,6768.0,13792.0,7899.0,2825.0,1334.0
4.829066753387451,28.0,3225.0,13040.0,13148.0,2322.0,3294.0,923.0
4.830583095550537,70.0,3959.0,10064.0,8404.0,2879.0,3763.0,512.0
4.832099914550781,43.0,4295.0,15312.0,7649.0,6302.0,2155.0,639.0
4.833616733551025,16.0,1483.0,13276.0,12788.0,5731.0,548.0,767.0
4.8351335525512695,21.0,5326.0,7919.0,5846.0,4341.0,2832.0,670.0
4.8366498947143555,257.0,1515.0,8488.0,13220.0,2951.0,1845.0,46.0
4.8381667137146,157.0,1657.0,4281.0,7684.0,6335.0,1950.0,187.0
4.839683532714844,57.0,6231.0,10372.0,7472.0,6034.0,2055.0,327.0
4.841266632080078,12.0,2963.0,5217.0,9820.0,6841.0,4235.0,189.0
4.842766761779785,90.0,4215.0,7127.0,9812.0,5499.0,4639.0,52.0
4.844283103942871,31.0,5720.0,8400.0,8616.0,3193.0,4652.0,5.0
4.845799922943115,29.0,3723.0,7038.0,5320.0,5716.0,2815.0,568.0
4.847316741943359,48.0,1763.0,2944.0,6514.0,1133.0,1512.0,352.0
4.848849773406982,42.0,3163.0,5070.0,7820.0,2457.0,1632.0,135.0
4.8503499031066895,29.0,1909.0,5961.0,5901.0,4277.0,1310.0,20.0
4.851866722106934,21.0,3094.0,4932.0,5268.0,6856.0,1317.0,309.0
4.853383541107178,27.0,2064.0,6505.0,2436.0,5957.0,1324.0,34.0
4.854916572570801,29.0,3102.0,4242.0,4107.0,4927.0,35.0,25.0
4.856433391571045,29.0,1654.0,4708.0,4514.0,4123.0,2517.0,214.0
4.857999801635742,28.0,59.0,4034.0,5666.0,2717.0,1672.0,134.0
4.859516620635986,42.0,314.0,4400.0,4448.0,3028.0,3083.0,54.0
4.8610334396362305,58.0,1686.0,4209.0,3230.0,3037.0,1446.0,36.0
4.862549781799316,74.0,1639.0,4018.0,4480.0,3046.0,1028.0,44.0
4.8640666007995605,61.0,1592.0,1982.0,5730.0,2351.0,1802.0,27.0
4.865583419799805,51.0,1334.0,2377.0,328.0,1904.0,326.0,17.0
4.867099761962891,48.0,1365.0,1352.0,5876.0,3318.0,365.0,19.0
4.868616580963135,44.0,1672.0,1279.0,1166.0,1961.0,405.0,193.0
4.870133399963379,35.0,1335.0,1205.0,4210.0,1672.0,49.0,367.0
4.871650218963623,10.0,998.0,1804.0,2323.0,2251.0,85.0,319.0
4.873166561126709,25.0,1562.0,2403.0,1762.0,2830.0,66.0,21.0
4.8747334480285645,21.0,894.0,4692.0,1981.0,2943.0,46.0,34.0
4.8762664794921875,45.0,1189.0,3735.0,1689.0,3712.0,17.0,26.0
4.877783298492432,41.0,1484.0,2778.0,1396.0,1502.0,1092.0,49.0
4.879300117492676,37.0,2725.0,3552.0,907.0,1364.0,1187.0,29.0
4.880816459655762,6.0,2738.0,4055.0,1366.0,855.0,1282.0,9.0
4.882333278656006,22.0,2431.0,2358.0,1826.0,1293.0,2020.0,831.0
4.88385009765625,14.0,23.0,3848.0,2402.0,1732.0,195.0,679.0
4.885366439819336,21.0,2665.0,5133.0,2233.0,2906.0,5.0,0.0
4.88688325881958,18.0,1801.0,5698.0,3139.0,2952.0,1182.0,503.0
4.888400077819824,29.0,1203.0,6547.0,2910.0,2967.0,1637.0,1006.0
4.889916896820068,26.0,1578.0,3314.0,2681.0,932.0,1128.0,88.0
4.891433238983154,28.0,1953.0,4046.0,3502.0,2268.0,1791.0,78.0
4.89300012588501,30.0,1771.0,2871.0,4323.0,928.0,830.0,584.0
4.894516468048096,50.0,1589.0,3945.0,4146.0,899.0,56.0,1487.0
4.89603328704834,43.0,1635.0,4195.0,3110.0,4083.0,205.0,1332.0
4.897550106048584,37.0,2930.0,3974.0,3832.0,3130.0,355.0,35.0
4.89906644821167,37.0,168.0,4766.0,5078.0,4687.0,504.0,28.0
4.900583267211914,63.0,2337.0,5558.0,6324.0,5596.0,653.0,644.0
4.902100086212158,1017.0,1865.0,6304.0,5271.0,4942.0,823.0,34.0
4.903616428375244,1167.0,3189.0,3742.0,6827.0,4097.0,3523.0,388.0
4.905133247375488,503.0,3331.0,4924.0,4502.0,7283.0,3642.0,205.0
4.906650066375732,52.0,3473.0,6107.0,3883.0,7687.0,2482.0,22.0
4.908166885375977,35.0,3756.0,4339.0,3508.0,6012.0,2880.0,38.0
4.909749984741211,52.0,4039.0,7731.0,4382.0,555.0,4518.0,53.0
4.911266803741455,53.0,1191.0,6635.0,4802.0,7989.0,938.0,46.0
4.912783145904541,55.0,1680.0,7155.0,5070.0,3453.0,3283.0,24.0
4.914299964904785,34.0,1423.0,4683.0,4964.0,4543.0,4859.0,16.0
4.915816783905029,15.0,4416.0,7599.0,2586.0,5813.0,1313.0,32.0
4.917333126068115,57.0,4061.0,9932.0,7260.0,4649.0,15.0,48.0
4.918849945068359,0.0,2677.0,8077.0,6356.0,3746.0,2530.0,286.0
4.9203667640686035,15.0,1081.0,6555.0,8189.0,2570.0,2013.0,523.0
4.921899795532227,28.0,1904.0,8760.0,4445.0,3572.0,1496.0,855.0
4.923416614532471,48.0,2770.0,8177.0,1062.0,2985.0,2088.0,1187.0
4.924916744232178,52.0,2570.0,7593.0,5619.0,3479.0,1221.0,27.0
4.926499843597412,67.0,1101.0,3029.0,6965.0,3223.0,1000.0,852.0
4.928016662597656,59.0,2382.0,3074.0,2832.0,2967.0,780.0,33.0
4.9295334815979,58.0,3903.0,2620.0,5637.0,2392.0,1073.0,96.0
4.931049823760986,57.0,3867.0,2638.0,4512.0,1818.0,1367.0,378.0
4.9325666427612305,26.0,1702.0,2656.0,1931.0,2921.0,1281.0,34.0
4.934083461761475,15.0,2319.0,2633.0,1757.0,2734.0,665.0,31.0
4.9355998039245605,17.0,2740.0,3427.0,2792.0,2969.0,830.0,188.0
4.937133312225342,0.0,667.0,2863.0,3484.0,3063.0,1135.0,104.0
4.938650131225586,24.0,527.0,2300.0,4177.0,3126.0,805.0,20.0
4.940166473388672,47.0,801.0,3169.0,3415.0,3188.0,1278.0,16.0
4.941683292388916,561.0,635.0,3382.0,2653.0,2076.0,1202.0,12.0
4.943216800689697,588.0,470.0,3333.0,4062.0,3848.0,1126.0,16.0
4.94474983215332,15.0,872.0,937.0,4197.0,28.0,852.0,21.0
4.946249961853027,57.0,61.0,2752.0,36.0,1785.0,1056.0,28.0
4.947783470153809,14.0,364.0,1801.0,3039.0,1409.0,531.0,35.0
4.9492998123168945,76.0,668.0,4026.0,811.0,2447.0,5.0,25.0
4.950816631317139,79.0,217.0,3215.0,1538.0,2005.0,0.0,16.0
4.952333450317383,20.0,43.0,5700.0,1676.0,851.0,894.0,12.0
4.953849792480469,0.0,45.0,4909.0,1813.0,2270.0,722.0,24.0
4.955366611480713,36.0,48.0,2509.0,1440.0,1810.0,551.0,37.0
4.956883430480957,26.0,33.0,2962.0,1066.0,664.0,31.0,40.0
4.958399772644043,26.0,40.0,2496.0,956.0,1826.0,76.0,46.0
4.959933280944824,25.0,36.0,586.0,1726.0,756.0,695.0,51.0
4.961450099945068,23.0,574.0,1955.0,1295.0,1098.0,911.0,30.0
4.962966442108154,28.0,296.0,2205.0,864.0,2112.0,105.0,54.0
4.964483261108398,34.0,19.0,1632.0,2080.0,484.0,72.0,56.0
4.96601676940918,50.0,37.0,1015.0,35.0,1109.0,0.0,59.0
4.967516899108887,37.0,51.0,38.0,1525.0,2405.0,35.0,41.0
4.969033241271973,24.0,40.0,2399.0,2947.0,2109.0,69.0,0.0
4.970550060272217,47.0,30.0,1431.0,76.0,2807.0,50.0,17.0
4.972083568572998,48.0,41.0,2226.0,901.0,20.0,31.0,11.0
4.973583221435547,19.0,27.0,180.0,2612.0,658.0,208.0,19.0
4.975116729736328,22.0,30.0,104.0,908.0,1714.0,115.0,27.0
4.976650238037109,24.0,34.0,29.0,446.0,975.0,23.0,23.0
4.978166580200195,29.0,30.0,396.0,861.0,1605.0,39.0,20.0
4.9796833992004395,28.0,26.0,317.0,379.0,687.0,69.0,52.0
4.981200218200684,21.0,316.0,238.0,12.0,763.0,23.0,62.0
4.9827165603637695,32.0,166.0,858.0,639.0,22.0,55.0,41.0
4.984233379364014,30.0,16.0,984.0,1266.0,52.0,37.0,25.0
4.985750198364258,29.0,52.0,68.0,2422.0,62.0,392.0,38.0
4.987266540527344,42.0,1837.0,2224.0,1753.0,73.0,3299.0,32.0
4.988783359527588,0.0,1437.0,1949.0,1730.0,34.0,3477.0,25.0
4.990300178527832,5.0,673.0,15.0,996.0,26.0,0.0,280.0
4.991816520690918,52.0,62.0,1083.0,508.0,17.0,948.0,157.0
4.9934000968933105,31.0,70.0,148.0,5.0,31.0,443.0,33.0
4.9949164390563965,30.0,467.0,58.0,37.0,21.0,251.0,55.0
4.996433258056641,45.0,240.0,1955.0,1764.0,10.0,59.0,77.0
4.997950077056885,49.0,14.0,1290.0,1300.0,20.0,733.0,39.0
