,335.2099914550781,336.2099914550781,337.2099914550781,338.2099914550781,339.2099914550781,340.2099914550781,341.2099914550781,342.2099914550781,343.2099914550781,344.2099914550781,345.2099914550781
5.702383518218994,15.0,211.0,14.0,20.0,5.0,10.0,51.0,32.0,212.0,43.0,34.0
5.704766750335693,1093.0,5.0,40.0,20.0,0.0,7.0,34.0,5.0,29.0,34.0,24.0
5.707149982452393,22.0,41.0,61.0,24.0,29.0,53.0,11.0,5.0,33.0,1113.0,60.0
5.709533214569092,5.0,76.0,0.0,21.0,33.0,0.0,27.0,18.0,80.0,32.0,32.0
5.711916446685791,34.0,10.0,23.0,12.0,8.0,20.0,43.0,35.0,48.0,15.0,10.0
5.714300155639648,33.0,37.0,45.0,36.0,17.0,20.0,12.0,36.0,41.0,55.0,49.0
5.716683387756348,31.0,64.0,18.0,402.0,22.0,33.0,12.0,0.0,45.0,36.0,52.0
5.719133377075195,29.0,1140.0,30.0,943.0,5.0,37.0,5.0,21.0,17.0,25.0,16.0
5.7215166091918945,26.0,1337.0,45.0,668.0,33.0,19.0,17.0,40.0,36.0,47.0,38.0
5.723899841308594,13.0,65.0,35.0,34.0,32.0,49.0,5.0,13.0,34.0,0.0,8.0
5.726283550262451,0.0,62.0,28.0,25.0,31.0,28.0,50.0,17.0,20.0,23.0,31.0
5.72866678237915,31.0,42.0,19.0,23.0,10.0,7.0,46.0,18.0,6.0,5.0,21.0
5.73105001449585,28.0,31.0,15.0,46.0,18.0,38.0,18.0,19.0,10.0,7.0,15.0
5.733433246612549,16.0,19.0,22.0,44.0,14.0,35.0,30.0,14.0,33.0,8.0,34.0
5.7358832359313965,47.0,21.0,29.0,41.0,11.0,19.0,22.0,10.0,41.0,9.0,12.0
5.738266468048096,51.0,17.0,17.0,26.0,7.0,29.0,13.0,12.0,44.0,10.0,18.0
5.740650177001953,56.0,14.0,5.0,24.0,8.0,26.0,8.0,18.0,32.0,45.0,34.0
5.743033409118652,12.0,19.0,44.0,35.0,8.0,22.0,14.0,5.0,18.0,51.0,16.0
5.745416641235352,27.0,24.0,37.0,14.0,18.0,48.0,20.0,10.0,6.0,11.0,35.0
5.747799873352051,18.0,12.0,30.0,33.0,28.0,50.0,28.0,15.0,27.0,19.0,5.0
5.75018310546875,220.0,0.0,19.0,31.0,25.0,48.0,0.0,13.0,47.0,35.0,17.0
5.752633571624756,121.0,30.0,30.0,28.0,15.0,15.0,8.0,10.0,24.0,28.0,0.0
5.755016803741455,22.0,21.0,6.0,39.0,6.0,41.0,10.0,24.0,0.0,40.0,22.0
5.757400035858154,31.0,16.0,0.0,41.0,15.0,47.0,19.0,35.0,6.0,41.0,29.0
5.7597832679748535,15.0,10.0,16.0,0.0,24.0,52.0,12.0,46.0,24.0,35.0,33.0
5.762166500091553,11.0,15.0,17.0,49.0,33.0,5.0,5.0,31.0,5.0,5.0,36.0
5.76455020904541,27.0,12.0,12.0,51.0,20.0,15.0,27.0,15.0,9.0,10.0,15.0
5.766933441162109,24.0,24.0,22.0,36.0,6.0,32.0,19.0,23.0,13.0,38.0,30.0
5.76936674118042,22.0,27.0,33.0,38.0,5.0,21.0,0.0,12.0,29.0,28.0,15.0
5.771749973297119,691.0,30.0,34.0,41.0,30.0,33.0,21.0,0.0,29.0,17.0,0.0
5.774133205413818,732.0,20.0,26.0,53.0,33.0,12.0,0.0,31.0,18.0,27.0,24.0
5.776516437530518,20.0,5.0,18.0,21.0,21.0,12.0,17.0,35.0,22.0,24.0,20.0
5.778900146484375,17.0,14.0,30.0,42.0,15.0,17.0,19.0,11.0,10.0,32.0,12.0
5.781300067901611,25.0,23.0,41.0,36.0,10.0,21.0,14.0,52.0,13.0,29.0,5.0
5.783666610717773,21.0,5.0,23.0,27.0,5.0,24.0,12.0,26.0,17.0,38.0,22.0
5.786116600036621,13.0,26.0,5.0,18.0,21.0,26.0,10.0,0.0,10.0,37.0,0.0
5.78849983215332,5.0,30.0,68.0,16.0,23.0,25.0,5.0,15.0,41.0,36.0,16.0
5.790883541107178,16.0,37.0,70.0,15.0,14.0,19.0,29.0,14.0,38.0,37.0,8.0
5.793266773223877,10.0,43.0,6.0,17.0,17.0,14.0,23.0,13.0,29.0,14.0,0.0
5.795650005340576,29.0,10.0,6.0,20.0,22.0,38.0,17.0,5.0,14.0,10.0,10.0
5.798033237457275,47.0,45.0,35.0,33.0,9.0,31.0,20.0,15.0,35.0,5.0,5.0
5.800416469573975,1282.0,44.0,43.0,22.0,35.0,24.0,16.0,15.0,26.0,701.0,0.0
5.802866458892822,1592.0,42.0,18.0,11.0,30.0,24.0,11.0,16.0,22.0,701.0,36.0
5.80525016784668,22.0,5.0,34.0,17.0,11.0,32.0,19.0,23.0,28.0,22.0,564.0
5.807633399963379,20.0,22.0,51.0,26.0,24.0,39.0,0.0,29.0,35.0,20.0,292.0
5.810016632080078,444.0,16.0,33.0,25.0,36.0,5.0,22.0,34.0,15.0,398.0,19.0
5.812399864196777,868.0,10.0,5.0,27.0,8.0,0.0,32.0,21.0,14.0,210.0,10.0
5.814783096313477,564.0,20.0,15.0,30.0,13.0,26.0,39.0,40.0,13.0,21.0,36.0
5.817166805267334,1667.0,10.0,10.0,10.0,18.0,11.0,19.0,5.0,21.0,29.0,39.0
5.8196001052856445,1448.0,15.0,5.0,30.0,23.0,19.0,32.0,52.0,17.0,18.0,44.0
5.821983337402344,5.0,5.0,13.0,26.0,17.0,26.0,31.0,22.0,12.0,0.0,7.0
5.824366569519043,570.0,692.0,22.0,11.0,11.0,32.0,29.0,17.0,25.0,21.0,11.0
5.826749801635742,633.0,992.0,19.0,21.0,29.0,20.0,18.0,13.0,5.0,14.0,15.0
5.8291335105896,28.0,1080.0,16.0,17.0,25.0,0.0,7.0,9.0,0.0,6.0,7.0
5.831516742706299,32.0,22.0,33.0,12.0,11.0,45.0,10.0,5.0,25.0,28.0,0.0
5.833899974822998,28.0,28.0,31.0,7.0,6.0,12.0,12.0,34.0,31.0,27.0,0.0
5.836349964141846,316.0,21.0,28.0,40.0,5.0,35.0,14.0,28.0,5.0,26.0,0.0
5.838733196258545,603.0,511.0,48.0,56.0,8.0,41.0,0.0,26.0,15.0,15.0,87.0
5.841116428375244,423.0,267.0,39.0,48.0,12.0,39.0,5.0,42.0,12.0,40.0,53.0
5.843500137329102,243.0,22.0,30.0,18.0,22.0,37.0,20.0,16.0,14.0,65.0,18.0
5.845883369445801,29.0,45.0,29.0,38.0,18.0,30.0,34.0,23.0,16.0,71.0,41.0
5.8482666015625,39.0,15.0,25.0,5.0,14.0,38.0,25.0,30.0,16.0,32.0,28.0
5.850649833679199,43.0,22.0,20.0,31.0,11.0,17.0,5.0,30.0,15.0,18.0,16.0
5.853099822998047,28.0,26.0,15.0,46.0,27.0,20.0,5.0,29.0,23.0,0.0,18.0
5.855483531951904,30.0,11.0,18.0,42.0,49.0,45.0,17.0,32.0,31.0,5.0,21.0
5.8578667640686035,31.0,13.0,15.0,27.0,54.0,50.0,18.0,35.0,53.0,7.0,21.0
5.860249996185303,5.0,14.0,26.0,0.0,35.0,24.0,10.0,23.0,75.0,10.0,38.0
5.862633228302002,20.0,25.0,29.0,20.0,32.0,6.0,23.0,13.0,51.0,10.0,49.0
5.865016460418701,13.0,17.0,31.0,35.0,29.0,33.0,21.0,18.0,28.0,15.0,60.0
5.867400169372559,12.0,10.0,39.0,29.0,17.0,5.0,11.0,23.0,35.0,14.0,22.0
5.869816780090332,11.0,30.0,5.0,13.0,5.0,33.0,20.0,22.0,10.0,13.0,17.0
5.872216701507568,26.0,59.0,5.0,9.0,6.0,38.0,17.0,20.0,29.0,9.0,12.0
5.874599933624268,25.0,45.0,6.0,5.0,47.0,55.0,15.0,337.0,21.0,5.0,212.0
5.876999855041504,24.0,15.0,8.0,43.0,36.0,14.0,17.0,205.0,17.0,18.0,111.0
5.879383563995361,46.0,26.0,10.0,34.0,25.0,41.0,26.0,72.0,13.0,48.0,11.0
5.881750106811523,43.0,38.0,7.0,25.0,5.0,38.0,29.0,318.0,392.0,37.0,21.0
5.884133338928223,18.0,21.0,5.0,5.0,5.0,35.0,31.0,1407.0,771.0,30.0,23.0
5.886533260345459,18.0,18.0,21.0,46.0,5.0,37.0,5.0,1400.0,409.0,20.0,7.0
5.888933181762695,18.0,15.0,37.0,15.0,5.0,45.0,22.0,874.0,46.0,10.0,22.0
5.891316890716553,31.0,0.0,21.0,5.0,5.0,14.0,44.0,1333.0,1287.0,5.0,20.0
5.893700122833252,29.0,5.0,5.0,5.0,15.0,35.0,0.0,1793.0,881.0,5.0,17.0
5.896083354949951,26.0,16.0,27.0,40.0,25.0,27.0,0.0,1784.0,1336.0,15.0,5.0
5.89846658706665,27.0,5.0,35.0,57.0,29.0,5.0,12.0,1499.0,851.0,28.0,29.0
5.90084981918335,31.0,8.0,25.0,40.0,5.0,7.0,0.0,1214.0,1043.0,32.0,55.0
5.903233528137207,34.0,0.0,15.0,50.0,5.0,11.0,18.0,1831.0,1439.0,36.0,174.0
5.905683517456055,16.0,5.0,25.0,33.0,6.0,16.0,42.0,2448.0,1175.0,18.0,99.0
5.908066749572754,22.0,11.0,35.0,16.0,28.0,20.0,36.0,33.0,49.0,0.0,23.0
5.910449981689453,24.0,5.0,24.0,39.0,28.0,10.0,52.0,644.0,1648.0,22.0,21.0
5.912833213806152,72.0,36.0,13.0,13.0,21.0,0.0,19.0,2684.0,45.0,20.0,12.0
5.915216445922852,76.0,36.0,473.0,10.0,46.0,21.0,58.0,1264.0,37.0,17.0,17.0
5.917600154876709,42.0,27.0,243.0,208.0,804.0,131.0,10.0,410.0,54.0,26.0,22.0
5.919983386993408,48.0,37.0,12.0,406.0,905.0,845.0,1042.0,702.0,5.0,34.0,25.0
5.922433376312256,53.0,5.0,948.0,1631.0,561.0,865.0,1535.0,102.0,10.0,31.0,27.0
5.924816608428955,26.0,2886.0,2593.0,5144.0,810.0,1774.0,1449.0,4100.0,153.0,27.0,42.0
5.927199840545654,35.0,3618.0,6603.0,6121.0,5514.0,2684.0,6069.0,3277.0,296.0,683.0,32.0
5.929583549499512,32.0,5698.0,10680.0,8392.0,8840.0,13080.0,5902.0,5710.0,1116.0,632.0,21.0
5.931966781616211,26.0,10524.0,27216.0,14712.0,21684.0,10540.0,9408.0,9560.0,4962.0,2871.0,515.0
5.93435001373291,14.0,27316.0,36352.0,38464.0,32928.0,26196.0,22140.0,13112.0,8580.0,2225.0,1008.0
5.936733245849609,42.0,32128.0,66112.0,52640.0,60912.0,45216.0,35808.0,25188.0,12212.0,4382.0,1009.0
5.93916654586792,42.0,61232.0,96480.0,98400.0,87456.0,62704.0,61936.0,36816.0,16560.0,5534.0,1010.0
5.941549777984619,42.0,88800.0,172224.0,148096.0,130016.0,117008.0,82288.0,62368.0,21256.0,6686.0,3436.0
5.943933486938477,43.0,108704.0,223936.0,225600.0,183808.0,148352.0,106208.0,64144.0,40560.0,17916.0,8085.0
5.946316719055176,44.0,156736.0,295808.0,278528.0,234880.0,210048.0,148288.0,77952.0,40416.0,20040.0,10404.0
5.948716640472412,41.0,208512.0,398144.0,419584.0,332224.0,261696.0,196096.0,110976.0,57776.0,29628.0,12624.0
5.951083183288574,37.0,278976.0,462016.0,439168.0,358080.0,317888.0,218176.0,111168.0,77056.0,22320.0,7823.0
5.953466892242432,53.0,319296.0,578560.0,538880.0,436352.0,376448.0,259520.0,140288.0,76080.0,30060.0,13744.0
5.955916881561279,68.0,362496.0,684288.0,602112.0,561408.0,391616.0,324160.0,185344.0,92032.0,36096.0,12772.0
5.9583001136779785,77.0,429696.0,790784.0,706304.0,572928.0,450176.0,366016.0,180352.0,96608.0,45472.0,22584.0
5.960683345794678,74.0,453056.0,761088.0,744960.0,696064.0,543232.0,383872.0,199680.0,106528.0,44736.0,22876.0
5.963066577911377,66.0,517504.0,957440.0,794880.0,714240.0,525312.0,388608.0,198784.0,122560.0,44256.0,22224.0
5.965449810028076,57.0,491136.0,943360.0,879360.0,761088.0,566272.0,435648.0,214080.0,128720.0,55872.0,10772.0
5.967833518981934,62.0,548096.0,1105408.0,925696.0,787712.0,618752.0,466432.0,214720.0,133632.0,61648.0,23252.0
5.970216751098633,92.0,581632.0,1042688.0,980992.0,761344.0,636672.0,437824.0,246208.0,110144.0,55968.0,17124.0
5.9726667404174805,121.0,583168.0,1109760.0,963328.0,822272.0,668416.0,459904.0,249600.0,137152.0,54784.0,10636.0
5.97504997253418,96.0,604928.0,1143040.0,984576.0,834560.0,640256.0,459840.0,248768.0,127632.0,57152.0,16656.0
5.977433204650879,70.0,594432.0,1080576.0,974592.0,803072.0,623360.0,482688.0,238272.0,134016.0,52368.0,20636.0
5.979816436767578,44.0,593152.0,1078016.0,995584.0,803584.0,652288.0,470080.0,256960.0,124256.0,51312.0,15208.0
5.9822001457214355,192.0,591616.0,1017088.0,984320.0,829696.0,688384.0,457472.0,237184.0,136384.0,60736.0,16996.0
5.984583377838135,128.0,562688.0,1033984.0,976384.0,809472.0,578304.0,424192.0,228032.0,133568.0,47360.0,16644.0
5.986966609954834,64.0,599296.0,1080064.0,1003776.0,784640.0,610304.0,408960.0,211264.0,120720.0,50976.0,13988.0
5.989416599273682,43.0,549120.0,1059584.0,957952.0,802304.0,647680.0,414656.0,213440.0,105344.0,49504.0,16344.0
5.991799831390381,66.0,582400.0,1053952.0,963328.0,736256.0,603648.0,428992.0,214976.0,122368.0,54768.0,18700.0
5.994183540344238,120.0,488064.0,1026048.0,889856.0,753920.0,586240.0,403648.0,216512.0,111280.0,40944.0,17904.0
5.9965667724609375,104.0,539136.0,1038080.0,956160.0,741888.0,601856.0,401536.0,215296.0,124720.0,44240.0,19444.0
5.998950004577637,87.0,509312.0,1050112.0,860672.0,741120.0,587776.0,413952.0,214080.0,113376.0,51472.0,12008.0
6.001333236694336,103.0,543232.0,1008896.0,907520.0,736768.0,597760.0,420032.0,200640.0,130112.0,52528.0,21464.0
6.003716468811035,34.0,532992.0,1025280.0,902400.0,689408.0,552192.0,367552.0,176000.0,101584.0,35568.0,26064.0
6.006166458129883,86.0,508928.0,971776.0,873472.0,748800.0,542208.0,393472.0,193216.0,105568.0,50400.0,18288.0
6.00855016708374,144.0,519424.0,937216.0,832512.0,759808.0,583168.0,372032.0,188608.0,94976.0,46000.0,13964.0
6.010916709899902,165.0,446592.0,874496.0,769280.0,646144.0,505792.0,358208.0,190144.0,112160.0,36448.0,15104.0
6.013299942016602,118.0,460800.0,808704.0,717056.0,635392.0,453568.0,339008.0,179392.0,86080.0,42800.0,17256.0
6.015683174133301,71.0,435072.0,792320.0,680960.0,578560.0,437952.0,321216.0,158848.0,94720.0,29504.0,13944.0
6.018066883087158,64.0,432512.0,779520.0,662784.0,501952.0,394880.0,314688.0,153600.0,98272.0,30784.0,13188.0
6.0204668045043945,83.0,366720.0,724992.0,589056.0,534272.0,386624.0,294848.0,148672.0,59760.0,25724.0,11408.0
6.022900104522705,81.0,352000.0,579584.0,504576.0,453248.0,352512.0,272768.0,118176.0,68032.0,32880.0,9352.0
6.025283336639404,34.0,299968.0,565248.0,532480.0,407040.0,297536.0,234880.0,112448.0,51424.0,20168.0,8368.0
6.0276665687561035,119.0,260096.0,499200.0,430336.0,373568.0,294016.0,183552.0,96064.0,50592.0,22088.0,4531.0
6.030049800872803,19.0,234368.0,429184.0,395328.0,314240.0,225216.0,163136.0,95904.0,43904.0,18504.0,7253.0
6.03243350982666,42.0,193984.0,345216.0,366848.0,263488.0,206208.0,150720.0,67072.0,36656.0,16920.0,5724.0
6.034816741943359,65.0,174976.0,326528.0,264320.0,225472.0,162880.0,116880.0,72304.0,24852.0,7040.0,6478.0
6.037199974060059,94.0,147200.0,244096.0,245632.0,175552.0,123984.0,100624.0,53328.0,26396.0,16644.0,3677.0
6.039649963378906,79.0,129440.0,203712.0,177472.0,150080.0,118880.0,82928.0,39088.0,23076.0,12540.0,2255.0
6.0420331954956055,64.0,86976.0,159424.0,162432.0,127760.0,84224.0,62096.0,35440.0,22860.0,6305.0,2802.0
6.044416904449463,56.0,72832.0,119040.0,117424.0,98224.0,70000.0,43056.0,21076.0,12752.0,2511.0,79.0
6.046800136566162,44.0,67680.0,106304.0,89056.0,74352.0,48496.0,36416.0,22692.0,8968.0,4735.0,2336.0
6.049183368682861,45.0,51424.0,91584.0,72304.0,68064.0,49312.0,22288.0,14984.0,8728.0,2462.0,2459.0
6.0515666007995605,50.0,31304.0,81968.0,64880.0,51728.0,28932.0,35760.0,13792.0,7535.0,6326.0,1705.0
6.05394983291626,32.0,27884.0,53824.0,55744.0,41968.0,21472.0,24300.0,6785.0,5487.0,4878.0,2375.0
6.056399822235107,13.0,19164.0,50784.0,53024.0,37504.0,33040.0,19672.0,17624.0,2822.0,2200.0,923.0
6.058783531188965,67.0,15544.0,39536.0,37408.0,29276.0,17540.0,18604.0,7115.0,4118.0,4317.0,34.0
6.061166763305664,53.0,14272.0,38016.0,32688.0,30828.0,9804.0,14308.0,8784.0,3625.0,877.0,275.0
6.063549995422363,40.0,23284.0,30924.0,17572.0,18388.0,17748.0,10112.0,7286.0,1292.0,1768.0,54.0
6.0659332275390625,43.0,20492.0,27372.0,24964.0,20480.0,9368.0,12812.0,4773.0,2179.0,599.0,1272.0
6.068316459655762,52.0,17168.0,26904.0,13308.0,16440.0,7157.0,12956.0,5105.0,3473.0,1408.0,644.0
6.070700168609619,60.0,7903.0,24620.0,22928.0,9812.0,14724.0,7571.0,6997.0,2685.0,765.0,17.0
6.073116779327393,10.0,11096.0,18960.0,14056.0,15652.0,11312.0,6936.0,3165.0,2929.0,744.0,86.0
6.075533390045166,91.0,10240.0,9812.0,17080.0,14844.0,12624.0,6874.0,4614.0,3173.0,25.0,26.0
6.077916622161865,84.0,5351.0,13496.0,16248.0,10032.0,8364.0,4748.0,6188.0,861.0,29.0,28.0
6.0802998542785645,76.0,5394.0,18608.0,17200.0,14740.0,9496.0,3472.0,3006.0,1286.0,16.0,141.0
6.082683563232422,45.0,6500.0,13232.0,7727.0,5745.0,6715.0,8060.0,2259.0,1625.0,16.0,91.0
6.085066795349121,11.0,5488.0,16456.0,17280.0,8856.0,8896.0,3120.0,3648.0,702.0,33.0,41.0
6.08745002746582,13.0,4477.0,10448.0,12024.0,12096.0,7386.0,6672.0,983.0,1284.0,36.0,24.0
6.0898332595825195,14.0,4247.0,11644.0,13492.0,7210.0,5633.0,2833.0,3399.0,1867.0,39.0,47.0
6.09226655960083,22.0,3705.0,9032.0,10544.0,8476.0,5973.0,4503.0,2451.0,1631.0,41.0,5.0
6.094649791717529,20.0,5369.0,7890.0,4531.0,7178.0,5899.0,4460.0,4358.0,1833.0,42.0,38.0
6.097033500671387,19.0,6508.0,8101.0,8324.0,6582.0,5826.0,2464.0,2930.0,69.0,232.0,31.0
6.099416732788086,37.0,6508.0,9864.0,3641.0,4601.0,2084.0,5306.0,2034.0,541.0,123.0,32.0
6.101799964904785,38.0,2841.0,4061.0,9404.0,4726.0,6061.0,3806.0,627.0,1884.0,13.0,33.0
6.104183197021484,45.0,5282.0,8956.0,2040.0,7968.0,4572.0,2306.0,30.0,986.0,49.0,33.0
6.106583118438721,34.0,6231.0,7217.0,5967.0,8744.0,3456.0,4242.0,0.0,419.0,85.0,35.0
6.1090168952941895,39.0,2789.0,4631.0,6291.0,5203.0,2663.0,4272.0,1600.0,15.0,23.0,36.0
6.111400127410889,21.0,60.0,8189.0,7799.0,3437.0,4107.0,2169.0,1321.0,953.0,24.0,25.0
6.113783359527588,23.0,1430.0,5959.0,4617.0,9524.0,4373.0,1748.0,915.0,50.0,25.0,22.0
6.116166591644287,25.0,1684.0,6000.0,6751.0,2629.0,4396.0,2689.0,510.0,199.0,35.0,28.0
6.118549823760986,20.0,1937.0,5246.0,2878.0,3938.0,4420.0,2120.0,880.0,348.0,23.0,35.0
6.120933532714844,14.0,2204.0,4646.0,3432.0,1294.0,4021.0,1570.0,446.0,192.0,11.0,5.0
6.123316764831543,20.0,2472.0,6976.0,2420.0,2262.0,3671.0,561.0,11.0,35.0,40.0,52.0
6.125766754150391,26.0,2593.0,3626.0,3135.0,3994.0,3322.0,949.0,29.0,59.0,98.0,68.0
6.12814998626709,33.0,1461.0,5660.0,3850.0,2568.0,1772.0,940.0,1676.0,16.0,364.0,84.0
6.130533218383789,39.0,236.0,4327.0,3023.0,2571.0,3301.0,1280.0,1893.0,31.0,202.0,10.0
6.132916450500488,30.0,741.0,3722.0,2195.0,2531.0,2951.0,1267.0,467.0,1327.0,40.0,45.0
6.135300159454346,20.0,1245.0,6382.0,3234.0,4526.0,2600.0,1254.0,1432.0,1399.0,244.0,52.0
6.137683391571045,22.0,1741.0,3097.0,1533.0,4848.0,1671.0,1120.0,1413.0,1875.0,449.0,62.0
6.140066623687744,24.0,2237.0,4748.0,3251.0,4520.0,741.0,985.0,1394.0,26.0,590.0,72.0
6.142516613006592,26.0,67.0,3771.0,3583.0,3203.0,2902.0,1310.0,18.0,978.0,35.0,25.0
6.144899845123291,27.0,1716.0,4414.0,3915.0,2030.0,380.0,1635.0,1389.0,318.0,40.0,12.0
6.147283554077148,31.0,1630.0,5949.0,2160.0,241.0,921.0,1522.0,377.0,656.0,59.0,43.0
6.149666786193848,35.0,1544.0,2050.0,3206.0,2673.0,1758.0,1119.0,513.0,330.0,436.0,32.0
6.152050018310547,10.0,2989.0,5496.0,5280.0,2675.0,1144.0,715.0,27.0,5.0,373.0,24.0
6.154433250427246,39.0,2960.0,3519.0,634.0,2990.0,78.0,47.0,209.0,222.0,310.0,30.0
6.156816482543945,59.0,1932.0,2307.0,3541.0,2066.0,762.0,173.0,561.0,35.0,251.0,6.0
6.159249782562256,38.0,2081.0,3658.0,4575.0,1815.0,1447.0,721.0,24.0,38.0,50.0,29.0
6.161633491516113,27.0,1433.0,3865.0,3400.0,2488.0,2933.0,909.0,0.0,77.0,46.0,37.0
6.1640167236328125,16.0,1534.0,4072.0,2452.0,2012.0,2705.0,707.0,96.0,68.0,26.0,41.0
6.166416645050049,44.0,1635.0,1111.0,3588.0,1340.0,2477.0,505.0,27.0,59.0,15.0,0.0
6.168783187866211,41.0,1360.0,1211.0,3033.0,777.0,458.0,909.0,24.0,15.0,17.0,26.0
6.171166896820068,34.0,1084.0,2999.0,2145.0,1194.0,1022.0,1312.0,12.0,355.0,17.0,27.0
6.173550128936768,49.0,2368.0,216.0,2089.0,2074.0,2597.0,1373.0,35.0,183.0,34.0,12.0
6.176000118255615,25.0,2599.0,928.0,22.0,2226.0,2320.0,1433.0,57.0,11.0,50.0,48.0
6.1783833503723145,0.0,2863.0,1640.0,1794.0,2299.0,1587.0,179.0,40.0,17.0,25.0,38.0
6.180766582489014,0.0,716.0,1150.0,2941.0,2372.0,3370.0,680.0,22.0,30.0,0.0,10.0
6.183149814605713,0.0,698.0,1733.0,3562.0,1944.0,800.0,952.0,36.0,27.0,7.0,5.0
6.18553352355957,10.0,974.0,3133.0,1125.0,1234.0,3715.0,347.0,21.0,13.0,13.0,31.0
6.1879167556762695,20.0,1398.0,4532.0,2101.0,2388.0,719.0,1191.0,140.0,27.0,11.0,31.0
6.190299987792969,17.0,5.0,4538.0,1028.0,2695.0,909.0,701.0,258.0,10.0,10.0,37.0
6.192749977111816,13.0,1331.0,4576.0,3135.0,2827.0,547.0,705.0,815.0,32.0,16.0,31.0
6.195133209228516,22.0,1864.0,1271.0,3775.0,1252.0,1284.0,677.0,759.0,24.0,22.0,24.0
6.197516441345215,0.0,1168.0,2889.0,1017.0,900.0,1614.0,2330.0,414.0,16.0,37.0,6.0
