,374.2099914550781,375.2099914550781,376.2099914550781,377.2099914550781,378.2099914550781,379.2099914550781,380.2099914550781,381.2099914550781,382.2099914550781,383.2099914550781,384.2099914550781,385.2099914550781,386.2099914550781
5.9028167724609375,49.0,23.0,15.0,5.0,8.0,7.0,10.0,5.0,14.0,43.0,10.0,0.0,0.0
5.905633449554443,37.0,34.0,45.0,31.0,26.0,0.0,21.0,0.0,48.0,20.0,20.0,40.0,5.0
5.908450126647949,6.0,0.0,11.0,15.0,71.0,56.0,5.0,0.0,11.0,58.0,7.0,21.0,32.0
5.911266803741455,21.0,5.0,0.0,0.0,60.0,24.0,11.0,0.0,21.0,0.0,24.0,18.0,22.0
5.914083480834961,36.0,33.0,14.0,0.0,10.0,41.0,17.0,0.0,13.0,14.0,25.0,10.0,12.0
5.916900157928467,5.0,10.0,32.0,26.0,21.0,66.0,33.0,0.0,25.0,28.0,28.0,5.0,25.0
5.919783115386963,11.0,16.0,16.0,39.0,0.0,24.0,27.0,5.0,6.0,5.0,31.0,0.0,18.0
5.922599792480469,16.0,5.0,0.0,28.0,38.0,28.0,20.0,5.0,18.0,15.0,28.0,15.0,9.0
5.925416469573975,18.0,12.0,13.0,26.0,44.0,16.0,12.0,5.0,5.0,20.0,26.0,10.0,0.0
5.9282331466674805,0.0,9.0,11.0,15.0,17.0,11.0,8.0,10.0,16.0,26.0,11.0,8.0,5.0
5.931049823760986,6.0,5.0,8.0,35.0,0.0,6.0,0.0,5.0,12.0,9.0,26.0,22.0,36.0
5.933866500854492,11.0,3.0,0.0,29.0,0.0,12.0,7.0,0.0,9.0,19.0,17.0,25.0,47.0
5.9367499351501465,15.0,0.0,14.0,23.0,24.0,0.0,13.0,44.0,5.0,25.0,22.0,28.0,23.0
5.939566612243652,29.0,0.0,28.0,18.0,5.0,5.0,20.0,45.0,0.0,15.0,0.0,11.0,15.0
5.942383289337158,43.0,8.0,17.0,10.0,0.0,15.0,20.0,34.0,3.0,29.0,25.0,14.0,8.0
5.945199966430664,47.0,15.0,6.0,16.0,25.0,25.0,18.0,33.0,5.0,20.0,19.0,17.0,14.0
5.94801664352417,30.0,34.0,36.0,21.0,0.0,35.0,17.0,33.0,38.0,11.0,17.0,18.0,20.0
5.950833320617676,12.0,39.0,19.0,29.0,14.0,26.0,15.0,17.0,38.0,17.0,15.0,17.0,17.0
5.95371675491333,55.0,0.0,11.0,36.0,28.0,17.0,13.0,42.0,21.0,16.0,43.0,15.0,13.0
5.956533432006836,23.0,49.0,0.0,0.0,26.0,26.0,10.0,39.0,18.0,19.0,40.0,16.0,10.0
5.959350109100342,21.0,57.0,6.0,31.0,26.0,10.0,5.0,16.0,17.0,26.0,5.0,16.0,26.0
5.962166786193848,75.0,8.0,12.0,19.0,0.0,53.0,12.0,23.0,9.0,22.0,32.0,13.0,31.0
5.9649834632873535,62.0,9.0,5.0,6.0,14.0,58.0,10.0,0.0,11.0,18.0,50.0,10.0,5.0
5.967800140380859,22.0,82.0,0.0,37.0,16.0,62.0,7.0,41.0,19.0,24.0,20.0,0.0,21.0
5.970666885375977,28.0,62.0,793.0,18.0,17.0,38.0,12.0,25.0,17.0,24.0,8.0,13.0,8.0
5.973483562469482,60.0,54.0,396.0,0.0,11.0,13.0,16.0,8.0,14.0,5.0,10.0,26.0,0.0
5.97629976272583,41.0,15.0,0.0,28.0,10.0,45.0,39.0,18.0,20.0,10.0,8.0,20.0,25.0
5.979133129119873,25.0,41.0,0.0,37.0,0.0,48.0,29.0,29.0,30.0,28.0,5.0,20.0,5.0
5.981949806213379,27.0,19.0,0.0,10.0,19.0,19.0,18.0,7.0,29.0,18.0,9.0,19.0,11.0
5.984749794006348,26.0,0.0,16.0,34.0,842.0,29.0,10.0,27.0,28.0,17.0,12.0,20.0,25.0
5.987633228302002,29.0,17.0,15.0,29.0,1581.0,39.0,25.0,29.0,32.0,10.0,0.0,20.0,15.0
5.990449905395508,32.0,24.0,8.0,11.0,1106.0,32.0,0.0,6.0,25.0,19.0,15.0,35.0,15.0
5.993266582489014,16.0,30.0,0.0,18.0,17.0,28.0,36.0,15.0,22.0,12.0,16.0,31.0,850.0
5.9960832595825195,0.0,19.0,14.0,25.0,15.0,41.0,19.0,10.0,19.0,28.0,17.0,27.0,425.0
5.998899936676025,34.0,16.0,10.0,15.0,0.0,37.0,29.0,5.0,22.0,43.0,36.0,14.0,0.0
6.001716613769531,34.0,11.0,6.0,5.0,14.0,22.0,648.0,5.0,25.0,30.0,31.0,21.0,755.0
6.0046000480651855,10.0,20.0,11.0,16.0,44.0,42.0,342.0,12.0,21.0,17.0,26.0,9.0,806.0
6.007416725158691,35.0,51.0,15.0,0.0,34.0,12.0,35.0,10.0,18.0,19.0,33.0,32.0,36.0
6.010233402252197,35.0,51.0,13.0,35.0,16.0,47.0,18.0,12.0,21.0,25.0,33.0,43.0,11.0
6.013050079345703,49.0,40.0,70.0,44.0,20.0,32.0,10.0,24.0,13.0,31.0,34.0,55.0,5.0
6.015866756439209,0.0,21.0,51.0,6.0,24.0,17.0,13.0,37.0,5.0,46.0,20.0,38.0,19.0
6.018683433532715,16.0,19.0,33.0,19.0,15.0,18.0,23.0,51.0,21.0,0.0,11.0,36.0,34.0
6.021550178527832,25.0,48.0,60.0,32.0,7.0,20.0,24.0,38.0,25.0,7.0,23.0,11.0,22.0
6.024366855621338,5.0,31.0,33.0,18.0,5.0,17.0,25.0,20.0,11.0,60.0,33.0,11.0,10.0
6.027183532714844,5.0,34.0,6.0,11.0,45.0,11.0,19.0,15.0,16.0,21.0,16.0,11.0,13.0
6.03000020980835,5.0,34.0,68.0,32.0,54.0,5.0,48.0,5.0,13.0,45.0,0.0,12.0,49.0
6.0328168869018555,9.0,11.0,0.0,16.0,5.0,15.0,53.0,14.0,16.0,0.0,11.0,13.0,35.0
6.035633563995361,12.0,13.0,11.0,0.0,17.0,25.0,11.0,24.0,19.0,22.0,36.0,19.0,21.0
6.038516521453857,10.0,14.0,9.0,13.0,30.0,25.0,5.0,16.0,30.0,18.0,36.0,26.0,31.0
6.041333198547363,10.0,15.0,7.0,17.0,11.0,26.0,38.0,30.0,15.0,25.0,36.0,23.0,28.0
6.044149875640869,28.0,10.0,6.0,11.0,0.0,11.0,32.0,36.0,0.0,63.0,11.0,20.0,26.0
6.046966552734375,27.0,5.0,5.0,5.0,44.0,18.0,67.0,43.0,15.0,46.0,40.0,7.0,24.0
6.049783229827881,26.0,0.0,39.0,63.0,81.0,12.0,47.0,11.0,12.0,29.0,0.0,24.0,23.0
6.052599906921387,18.0,5.0,35.0,40.0,52.0,6.0,41.0,18.0,8.0,0.0,19.0,34.0,23.0
6.055466651916504,23.0,8.0,32.0,16.0,23.0,0.0,13.0,15.0,25.0,20.0,35.0,44.0,34.0
6.05828332901001,31.0,10.0,16.0,5.0,11.0,0.0,6.0,11.0,20.0,11.0,5.0,45.0,25.0
6.061100006103516,38.0,33.0,6.0,47.0,7.0,0.0,6.0,8.0,13.0,8.0,46.0,5.0,15.0
6.0639166831970215,46.0,35.0,0.0,10.0,20.0,16.0,5.0,5.0,5.0,86.0,38.0,49.0,31.0
6.066733360290527,0.0,29.0,5.0,9.0,37.0,11.0,0.0,11.0,24.0,108.0,33.0,30.0,18.0
6.069550037384033,22.0,18.0,11.0,14.0,39.0,6.0,0.0,17.0,7.0,16.0,36.0,5.0,5.0
6.0724334716796875,0.0,13.0,16.0,10.0,30.0,21.0,35.0,24.0,8.0,16.0,0.0,5.0,17.0
6.075250148773193,13.0,16.0,10.0,5.0,20.0,27.0,32.0,14.0,31.0,15.0,49.0,6.0,20.0
6.078066825866699,11.0,12.0,11.0,14.0,28.0,37.0,11.0,5.0,18.0,11.0,16.0,43.0,29.0
6.080883502960205,14.0,8.0,13.0,23.0,20.0,40.0,20.0,3.0,32.0,18.0,54.0,36.0,26.0
6.083700180053711,32.0,12.0,25.0,542.0,13.0,0.0,0.0,0.0,24.0,14.0,24.0,6.0,6.0
6.086516857147217,28.0,15.0,24.0,640.0,13.0,360.0,25.0,27.0,10.0,6.0,16.0,18.0,28.0
6.089399814605713,14.0,19.0,66.0,12.0,12.0,280.0,26.0,26.0,0.0,17.0,8.0,16.0,13.0
6.092216491699219,27.0,962.0,35.0,10.0,5.0,48.0,117.0,18.0,31.0,18.0,53.0,16.0,20.0
6.095033168792725,24.0,1348.0,5.0,0.0,10.0,0.0,70.0,10.0,36.0,5.0,48.0,12.0,28.0
6.0978498458862305,20.0,645.0,16.0,367.0,402.0,51.0,23.0,40.0,9.0,21.0,14.0,7.0,0.0
6.100666522979736,27.0,642.0,39.0,837.0,206.0,751.0,244.0,929.0,48.0,27.0,24.0,24.0,27.0
6.103483200073242,34.0,2507.0,600.0,1308.0,10.0,691.0,465.0,1191.0,5.0,10.0,26.0,12.0,13.0
6.106349945068359,0.0,2007.0,2752.0,916.0,1903.0,2501.0,768.0,1157.0,8.0,36.0,10.0,0.0,0.0
6.109166622161865,53.0,2698.0,2983.0,1375.0,1579.0,1918.0,1072.0,958.0,11.0,29.0,16.0,0.0,18.0
6.111983299255371,35.0,4140.0,0.0,1385.0,1572.0,611.0,607.0,722.0,8.0,34.0,23.0,5.0,19.0
6.114799976348877,17.0,5708.0,3902.0,1395.0,1566.0,3708.0,142.0,591.0,5.0,55.0,24.0,10.0,5.0
6.117616653442383,10.0,5442.0,5106.0,998.0,2049.0,2634.0,2926.0,1531.0,154.0,165.0,26.0,10.0,32.0
6.120433330535889,20.0,5175.0,3900.0,600.0,2531.0,976.0,3252.0,1163.0,85.0,97.0,34.0,5.0,30.0
6.123316764831543,33.0,5537.0,5001.0,2201.0,1332.0,3194.0,1915.0,795.0,15.0,30.0,43.0,5.0,5.0
6.126133441925049,44.0,5733.0,3127.0,2301.0,133.0,2738.0,2073.0,767.0,31.0,39.0,29.0,5.0,7.0
6.128950119018555,30.0,5929.0,2899.0,2401.0,4068.0,2502.0,2232.0,740.0,298.0,15.0,15.0,16.0,4.0
6.1317667961120605,7.0,5825.0,3878.0,1325.0,3063.0,1531.0,18.0,815.0,565.0,0.0,6.0,8.0,0.0
6.134583473205566,4.0,5722.0,3059.0,248.0,1688.0,3346.0,1150.0,835.0,741.0,831.0,69.0,0.0,5.0
6.137400150299072,0.0,3476.0,37.0,1225.0,31.0,712.0,925.0,13.0,0.0,428.0,510.0,5.0,11.0
6.1402668952941895,14.0,0.0,1222.0,1122.0,280.0,2671.0,1360.0,42.0,29.0,26.0,511.0,10.0,17.0
6.143083095550537,23.0,2132.0,1771.0,1018.0,19.0,718.0,1271.0,938.0,9.0,6.0,10.0,0.0,9.0
6.145899772644043,18.0,0.0,30.0,975.0,24.0,40.0,454.0,0.0,729.0,30.0,17.0,7.0,0.0
6.148733139038086,14.0,671.0,232.0,20.0,28.0,65.0,0.0,75.0,662.0,38.0,6.0,13.0,5.0
6.151533126831055,32.0,557.0,435.0,1026.0,18.0,29.0,6.0,230.0,19.0,46.0,3.0,11.0,15.0
6.1543498039245605,26.0,24.0,590.0,1319.0,8.0,5.0,6.0,5.0,23.0,5.0,0.0,17.0,26.0
6.157233238220215,19.0,17.0,6.0,46.0,260.0,28.0,5.0,30.0,27.0,11.0,13.0,27.0,15.0
6.160049915313721,14.0,5.0,34.0,11.0,511.0,24.0,10.0,54.0,43.0,19.0,12.0,48.0,5.0
6.162866592407227,12.0,207.0,31.0,20.0,527.0,10.0,16.0,43.0,0.0,16.0,11.0,38.0,35.0
6.165683269500732,26.0,118.0,0.0,0.0,34.0,5.0,23.0,33.0,25.0,0.0,0.0,54.0,33.0
6.168499946594238,23.0,30.0,0.0,12.0,48.0,0.0,30.0,0.0,0.0,18.0,19.0,30.0,31.0
6.171316623687744,20.0,0.0,24.0,12.0,18.0,11.0,25.0,25.0,20.0,17.0,17.0,49.0,6.0
6.174200057983398,19.0,11.0,19.0,11.0,19.0,11.0,19.0,10.0,19.0,15.0,15.0,50.0,48.0
6.177016735076904,17.0,16.0,16.0,24.0,19.0,10.0,36.0,22.0,17.0,28.0,13.0,33.0,39.0
6.17983341217041,15.0,29.0,12.0,14.0,24.0,16.0,44.0,21.0,17.0,29.0,21.0,21.0,26.0
6.182650089263916,17.0,29.0,26.0,5.0,29.0,21.0,35.0,0.0,25.0,31.0,23.0,39.0,34.0
6.185466766357422,15.0,30.0,29.0,5.0,33.0,27.0,33.0,36.0,20.0,28.0,24.0,44.0,16.0
6.188283443450928,12.0,31.0,17.0,5.0,5.0,19.0,18.0,41.0,15.0,25.0,25.0,49.0,12.0
6.191150188446045,5.0,6.0,46.0,5.0,17.0,19.0,14.0,0.0,0.0,0.0,11.0,10.0,8.0
6.193966865539551,14.0,19.0,348.0,8.0,39.0,10.0,21.0,17.0,7.0,45.0,0.0,16.0,12.0
6.196783542633057,0.0,6.0,191.0,10.0,17.0,13.0,19.0,10.0,13.0,29.0,25.0,11.0,15.0
6.1996002197265625,15.0,30.0,34.0,10.0,27.0,16.0,27.0,27.0,5.0,18.0,0.0,16.0,18.0
6.202416896820068,12.0,32.0,26.0,0.0,16.0,11.0,22.0,29.0,10.0,11.0,10.0,20.0,20.0
6.205233097076416,16.0,19.0,17.0,29.0,5.0,5.0,17.0,22.0,10.0,7.0,29.0,20.0,34.0
6.20811653137207,17.0,7.0,28.0,40.0,19.0,10.0,29.0,15.0,33.0,5.0,47.0,19.0,33.0
6.210933208465576,14.0,23.0,39.0,52.0,10.0,21.0,21.0,10.0,33.0,0.0,57.0,17.0,13.0
6.213749885559082,28.0,5.0,8.0,33.0,19.0,32.0,12.0,5.0,33.0,26.0,37.0,14.0,23.0
6.216566562652588,23.0,6.0,12.0,5.0,15.0,29.0,26.0,16.0,33.0,13.0,16.0,10.0,32.0
6.219383239746094,17.0,7.0,25.0,40.0,10.0,5.0,10.0,21.0,32.0,0.0,21.0,11.0,19.0
6.2221999168396,11.0,0.0,24.0,32.0,10.0,24.0,0.0,17.0,11.0,28.0,19.0,11.0,20.0
6.225083351135254,54.0,6.0,14.0,15.0,8.0,5.0,27.0,12.0,14.0,0.0,5.0,10.0,9.0
6.22790002822876,27.0,50.0,26.0,0.0,6.0,17.0,12.0,0.0,35.0,14.0,14.0,10.0,0.0
6.230716705322266,0.0,42.0,32.0,0.0,10.0,29.0,24.0,63.0,5.0,5.0,6.0,11.0,13.0
6.2335333824157715,29.0,58.0,5.0,13.0,5.0,34.0,12.0,50.0,15.0,26.0,0.0,12.0,7.0
6.236350059509277,10.0,49.0,15.0,26.0,6.0,42.0,15.0,26.0,25.0,27.0,34.0,37.0,4.0
6.239166736602783,19.0,48.0,14.0,18.0,6.0,11.0,18.0,19.0,15.0,24.0,27.0,24.0,0.0
6.2420501708984375,10.0,6.0,12.0,10.0,28.0,45.0,9.0,16.0,5.0,21.0,16.0,11.0,39.0
6.244850158691406,16.0,58.0,5.0,30.0,22.0,16.0,0.0,7.0,30.0,21.0,13.0,39.0,37.0
6.247666835784912,21.0,23.0,17.0,27.0,16.0,11.0,6.0,21.0,0.0,20.0,10.0,11.0,0.0
6.250483512878418,0.0,24.0,36.0,25.0,31.0,5.0,0.0,5.0,29.0,191.0,6.0,14.0,12.0
6.253300189971924,10.0,20.0,21.0,17.0,16.0,5.0,32.0,27.0,23.0,123.0,41.0,5.0,41.0
6.256133556365967,19.0,32.0,5.0,10.0,20.0,5.0,33.0,0.0,16.0,54.0,29.0,5.0,24.0
6.258966445922852,45.0,29.0,0.0,26.0,35.0,0.0,35.0,19.0,15.0,69.0,16.0,21.0,6.0
6.261783123016357,31.0,26.0,6.0,29.0,28.0,14.0,36.0,15.0,32.0,110.0,20.0,28.0,0.0
6.264599800109863,17.0,23.0,12.0,6.0,32.0,12.0,37.0,17.0,0.0,5.0,19.0,14.0,12.0
6.267416477203369,26.0,19.0,505.0,42.0,36.0,19.0,8.0,9.0,0.0,0.0,31.0,26.0,13.0
6.270233154296875,25.0,13.0,252.0,32.0,10.0,12.0,28.0,0.0,5.0,30.0,21.0,9.0,10.0
6.273099899291992,16.0,22.0,0.0,20.0,12.0,5.0,10.0,0.0,8.0,31.0,11.0,13.0,14.0
6.275933265686035,6.0,23.0,38.0,14.0,12.0,9.0,7.0,15.0,10.0,27.0,34.0,16.0,40.0
6.278749942779541,33.0,25.0,80.0,8.0,14.0,12.0,28.0,16.0,20.0,36.0,35.0,19.0,47.0
6.281566619873047,16.0,37.0,46.0,13.0,15.0,6.0,15.0,14.0,30.0,39.0,41.0,17.0,33.0
6.284383296966553,0.0,39.0,10.0,20.0,16.0,16.0,0.0,15.0,49.0,5.0,49.0,15.0,17.0
6.287199974060059,7.0,43.0,33.0,13.0,0.0,11.0,11.0,31.0,44.0,16.0,57.0,11.0,36.0
6.290066719055176,14.0,18.0,23.0,6.0,26.0,5.0,6.0,29.0,16.0,27.0,7.0,7.0,20.0
6.292900085449219,5.0,44.0,45.0,14.0,43.0,0.0,0.0,28.0,12.0,19.0,87.0,23.0,34.0
6.295716762542725,7.0,12.0,52.0,23.0,44.0,10.0,18.0,25.0,14.0,11.0,54.0,0.0,5.0
