,317.1099853515625,318.1099853515625,319.1099853515625,320.1099853515625,321.1099853515625,322.1099853515625,323.1099853515625
0.6015166640281677,83.0,20.0,35.0,25.0,17.0,16.0,15.0
0.6030333042144775,32.0,0.0,15.0,5.0,10.0,24.0,30.0
0.6045500040054321,5.0,10.0,23.0,33.0,23.0,5.0,24.0
0.6060666441917419,31.0,17.0,5.0,42.0,20.0,18.0,38.0
0.6075833439826965,15.0,26.0,5.0,31.0,16.0,32.0,10.0
0.6090999841690063,18.0,30.0,24.0,22.0,11.0,0.0,35.0
0.6106166839599609,15.0,10.0,15.0,10.0,28.0,12.0,26.0
0.6121333241462708,42.0,20.0,15.0,11.0,73.0,39.0,5.0
0.6136500239372253,47.0,37.0,25.0,0.0,73.0,20.0,50.0
0.6151666641235352,25.0,36.0,34.0,8.0,6.0,0.0,49.0
0.616683304309845,30.0,24.0,41.0,16.0,29.0,24.0,9.0
0.6182666420936584,16.0,23.0,20.0,0.0,17.0,25.0,10.0
0.619783341884613,10.0,20.0,22.0,5.0,11.0,24.0,21.0
0.6212999820709229,5.0,14.0,21.0,26.0,5.0,20.0,91.0
0.6228166818618774,2.0,7.0,29.0,20.0,15.0,19.0,71.0
0.6243333220481873,0.0,6.0,28.0,12.0,5.0,24.0,5.0
0.6258500218391418,12.0,5.0,27.0,5.0,10.0,23.0,38.0
0.6273666620254517,209.0,10.0,18.0,15.0,19.0,22.0,30.0
0.6288833618164062,104.0,17.0,30.0,22.0,18.0,22.0,10.0
0.6304000020027161,0.0,24.0,44.0,18.0,27.0,21.0,15.0
0.6319166421890259,30.0,27.0,39.0,0.0,18.0,20.0,27.0
0.6334333419799805,47.0,19.0,22.0,13.0,10.0,18.0,42.0
0.635016679763794,254.0,11.0,5.0,21.0,24.0,18.0,26.0
0.6365333199501038,140.0,29.0,19.0,28.0,37.0,17.0,10.0
0.6380500197410583,26.0,24.0,34.0,17.0,44.0,18.0,5.0
0.6395666599273682,22.0,5.0,0.0,5.0,21.0,27.0,13.0
0.6410833597183228,5.0,11.0,31.0,27.0,26.0,16.0,23.0
0.6425999999046326,24.0,17.0,16.0,22.0,5.0,6.0,23.0
0.6441166400909424,23.0,28.0,24.0,35.0,18.0,11.0,23.0
0.645633339881897,22.0,26.0,5.0,39.0,11.0,17.0,15.0
0.6471499800682068,16.0,24.0,17.0,0.0,5.0,22.0,32.0
0.6486666798591614,18.0,22.0,28.0,42.0,38.0,16.0,25.0
0.6501833200454712,31.0,25.0,18.0,30.0,35.0,10.0,19.0
0.6517666578292847,37.0,29.0,21.0,26.0,20.0,18.0,9.0
0.6532833576202393,44.0,17.0,19.0,17.0,23.0,8.0,14.0
0.6547999978065491,15.0,5.0,17.0,29.0,26.0,20.0,25.0
0.6563166379928589,20.0,0.0,0.0,22.0,30.0,26.0,19.0
0.6578333377838135,25.0,0.0,0.0,24.0,31.0,32.0,10.0
0.6593499779701233,22.0,0.0,0.0,21.0,0.0,24.0,23.0
0.6608666777610779,19.0,30.0,3.0,18.0,5.0,25.0,14.0
0.6623833179473877,21.0,22.0,1.0,18.0,26.0,20.0,12.0
0.6639000177383423,15.0,14.0,0.0,18.0,10.0,15.0,10.0
0.6654166579246521,10.0,23.0,5.0,15.0,40.0,17.0,10.0
0.6669333577156067,22.0,23.0,36.0,18.0,54.0,11.0,0.0
0.6685000061988831,52.0,14.0,29.0,11.0,0.0,5.0,5.0
0.6700166463851929,43.0,5.0,11.0,23.0,10.0,5.0,10.0
0.6715333461761475,34.0,7.0,17.0,25.0,33.0,5.0,15.0
0.6730499863624573,46.0,10.0,20.0,26.0,17.0,2.0,36.0
0.6745666861534119,36.0,5.0,15.0,15.0,0.0,0.0,32.0
0.6760833263397217,26.0,0.0,11.0,11.0,13.0,8.0,38.0
0.6776000261306763,5.0,8.0,21.0,7.0,34.0,16.0,10.0
0.6791166663169861,18.0,20.0,21.0,20.0,46.0,21.0,59.0
0.680649995803833,11.0,24.0,20.0,15.0,45.0,20.0,47.0
0.6821500062942505,24.0,49.0,15.0,7.0,43.0,30.0,32.0
0.6836666464805603,36.0,44.0,19.0,0.0,41.0,0.0,25.0
0.6852166652679443,34.0,32.0,36.0,11.0,35.0,14.0,10.0
0.6867333054542542,30.0,22.0,33.0,0.0,28.0,33.0,11.0
0.6882500052452087,26.0,20.0,29.0,15.0,0.0,18.0,5.0
0.6897666454315186,35.0,16.0,21.0,6.0,522.0,43.0,18.0
0.6912833452224731,44.0,30.0,12.0,17.0,633.0,0.0,14.0
0.692799985408783,45.0,0.0,21.0,17.0,15.0,24.0,11.0
0.6943166851997375,6.0,21.0,21.0,18.0,49.0,7.0,14.0
0.6958333253860474,35.0,0.0,21.0,40.0,40.0,28.0,18.0
0.697350025177002,0.0,5.0,25.0,28.0,16.0,28.0,29.0
0.6988666653633118,21.0,17.0,23.0,16.0,22.0,24.0,17.0
0.7003833055496216,6.0,12.0,21.0,22.0,5.0,23.0,5.0
0.7019666433334351,29.0,15.0,16.0,29.0,12.0,23.0,23.0
0.7034833431243896,22.0,22.0,19.0,0.0,29.0,22.0,10.0
0.7049999833106995,15.0,26.0,15.0,20.0,24.0,0.0,29.0
0.706516683101654,32.0,20.0,10.0,23.0,0.0,6.0,37.0
0.7080333232879639,5.0,39.0,20.0,28.0,25.0,14.0,44.0
0.7095500230789185,9.0,22.0,10.0,32.0,34.0,5.0,6.0
0.7110666632652283,36.0,5.0,0.0,32.0,20.0,30.0,34.0
0.7125833630561829,44.0,25.0,5.0,43.0,6.0,26.0,32.0
0.7141000032424927,9.0,20.0,11.0,10.0,23.0,13.0,35.0
0.7156166434288025,13.0,6.0,15.0,19.0,12.0,0.0,20.0
0.7171333432197571,36.0,50.0,5.0,0.0,33.0,5.0,11.0
0.7186833620071411,10.0,42.0,7.0,16.0,26.0,5.0,15.0
0.7202333211898804,20.0,28.0,10.0,52.0,19.0,5.0,31.0
0.7217333316802979,30.0,16.0,6.0,38.0,29.0,0.0,25.0
0.7232499718666077,21.0,17.0,10.0,8.0,28.0,25.0,5.0
0.7247666716575623,12.0,30.0,34.0,37.0,26.0,19.0,37.0
0.7262833118438721,10.0,17.0,40.0,37.0,24.0,12.0,12.0
0.7278000116348267,20.0,0.0,39.0,38.0,24.0,5.0,5.0
0.7293166518211365,5.0,27.0,9.0,44.0,24.0,10.0,18.0
0.7308333516120911,27.0,36.0,13.0,47.0,54.0,8.0,32.0
0.7323499917984009,0.0,32.0,17.0,18.0,51.0,7.0,35.0
0.7338666915893555,34.0,32.0,17.0,20.0,24.0,13.0,46.0
0.7353833317756653,22.0,6.0,20.0,42.0,38.0,20.0,5.0
0.7369666695594788,11.0,5.0,23.0,17.0,5.0,17.0,65.0
0.7384833097457886,24.0,0.0,18.0,11.0,41.0,15.0,11.0
0.7400000095367432,45.0,11.0,14.0,25.0,29.0,15.0,10.0
0.741516649723053,44.0,10.0,10.0,39.0,5.0,5.0,18.0
0.7430333495140076,81.0,10.0,10.0,27.0,17.0,8.0,28.0
0.7445499897003174,45.0,24.0,10.0,14.0,29.0,9.0,35.0
0.746066689491272,10.0,25.0,29.0,0.0,30.0,10.0,41.0
0.7475833296775818,25.0,15.0,33.0,24.0,55.0,31.0,11.0
0.7491000294685364,10.0,19.0,24.0,17.0,53.0,33.0,15.0
0.7506166696548462,19.0,12.0,5.0,10.0,37.0,16.0,22.0
0.752133309841156,12.0,5.0,24.0,15.0,10.0,13.0,15.0
0.7537166476249695,7.0,15.0,5.0,21.0,21.0,10.0,16.0
0.7552333474159241,11.0,18.0,21.0,17.0,5.0,15.0,18.0
0.7567499876022339,16.0,32.0,17.0,29.0,5.0,15.0,6.0
0.7582666873931885,8.0,24.0,14.0,148.0,5.0,14.0,8.0
0.7597833275794983,0.0,15.0,5.0,105.0,14.0,40.0,10.0
0.7613000273704529,5.0,62.0,9.0,61.0,25.0,48.0,18.0
0.7628166675567627,14.0,49.0,13.0,24.0,57.0,30.0,19.0
0.7643333077430725,23.0,12.0,5.0,33.0,47.0,0.0,5.0
0.7658500075340271,30.0,28.0,5.0,42.0,21.0,51.0,5.0
0.7673666477203369,40.0,13.0,5.0,48.0,18.0,0.0,6.0
0.7688833475112915,0.0,24.0,14.0,215.0,38.0,21.0,5.0
0.7704499959945679,20.0,5.0,24.0,118.0,18.0,42.0,5.0
0.7719833254814148,13.0,34.0,17.0,21.0,32.0,20.0,5.0
0.7734833359718323,16.0,22.0,9.0,14.0,10.0,50.0,6.0
0.7749999761581421,20.0,23.0,22.0,22.0,5.0,31.0,10.0
0.7765166759490967,15.0,10.0,16.0,25.0,24.0,37.0,10.0
0.7780333161354065,10.0,12.0,10.0,20.0,10.0,19.0,10.0
0.7795500159263611,10.0,15.0,11.0,37.0,64.0,34.0,0.0
0.7810666561126709,11.0,14.0,13.0,34.0,65.0,0.0,24.0
0.7825999855995178,0.0,14.0,15.0,14.0,12.0,36.0,18.0
0.7840999960899353,12.0,13.0,6.0,33.0,64.0,46.0,12.0
0.7856166958808899,16.0,11.0,16.0,25.0,25.0,31.0,5.0
0.7871999740600586,19.0,10.0,26.0,12.0,10.0,15.0,11.0
0.7887166738510132,22.0,38.0,19.0,1959.0,19.0,32.0,16.0
0.790233314037323,9.0,2310.0,9696.0,8512.0,6436.0,7359.0,10.0
0.7917500138282776,40.0,12968.0,52464.0,72576.0,47856.0,20520.0,2948.0
0.7932666540145874,32.0,63856.0,138048.0,227968.0,138880.0,60544.0,19044.0
0.794783353805542,24.0,158208.0,388288.0,406336.0,325824.0,134272.0,39184.0
0.7962999939918518,46.0,284480.0,592640.0,668160.0,457344.0,190976.0,52912.0
0.7978166937828064,41.0,406720.0,809728.0,889088.0,622080.0,276224.0,74864.0
0.7993333339691162,76.0,458688.0,958464.0,1050112.0,788992.0,312192.0,73088.0
0.800849974155426,56.0,579072.0,1217792.0,1222656.0,923648.0,387840.0,83360.0
0.8023666739463806,36.0,646144.0,1263616.0,1380352.0,926208.0,417792.0,106864.0
0.8039500117301941,51.0,728320.0,1446912.0,1621760.0,1113088.0,433408.0,109328.0
0.8054666519165039,66.0,797696.0,1564672.0,1657088.0,1119488.0,457088.0,126128.0
0.8069833517074585,100.0,846336.0,1700864.0,1727232.0,1234688.0,468608.0,107744.0
0.8084999918937683,133.0,862208.0,1836800.0,1750784.0,1317376.0,480192.0,145088.0
0.8100166916847229,186.0,856832.0,1772032.0,1774336.0,1321728.0,510848.0,148096.0
0.8115333318710327,211.0,851456.0,1857792.0,1843712.0,1233408.0,538624.0,150336.0
0.8130499720573425,236.0,857600.0,1778688.0,1847808.0,1269504.0,558848.0,146240.0
0.8145666718482971,186.0,829696.0,1663488.0,1793024.0,1326848.0,473664.0,107840.0
0.8160833120346069,135.0,859392.0,1630464.0,1867520.0,1222656.0,505408.0,114512.0
0.8176000118255615,203.0,780544.0,1551104.0,1769728.0,1189120.0,450432.0,117408.0
0.8191166520118713,213.0,725504.0,1505024.0,1601280.0,1129472.0,478976.0,111680.0
0.8206833600997925,148.0,755456.0,1465600.0,1592832.0,1086464.0,456640.0,105968.0
0.8222000002861023,138.0,738560.0,1418752.0,1470464.0,1028608.0,455488.0,106624.0
0.8237333297729492,128.0,658688.0,1294080.0,1431808.0,980480.0,384576.0,85056.0
0.8252333402633667,80.0,690176.0,1309184.0,1386752.0,868352.0,418560.0,88160.0
0.8267499804496765,159.0,558080.0,1199616.0,1269504.0,883712.0,336640.0,87584.0
0.8282666802406311,259.0,550144.0,1185024.0,1146368.0,773376.0,349952.0,78400.0
0.8297833204269409,215.0,516032.0,1011200.0,1101056.0,703744.0,269824.0,73168.0
0.8313000202178955,172.0,434688.0,940544.0,965888.0,643072.0,301376.0,62192.0
0.8328166604042053,144.0,439424.0,857856.0,867584.0,578816.0,227392.0,52928.0
0.8343333601951599,273.0,360448.0,785664.0,760320.0,503296.0,218880.0,45136.0
0.8358500003814697,86.0,325632.0,641280.0,692736.0,451840.0,187776.0,43264.0
0.8374166488647461,144.0,259584.0,557824.0,608000.0,436352.0,132928.0,45184.0
0.838949978351593,75.0,249472.0,475904.0,522496.0,369088.0,145856.0,34560.0
0.8404666781425476,221.0,232064.0,410624.0,432384.0,245888.0,98960.0,33536.0
0.8419833183288574,145.0,204800.0,341952.0,389376.0,258304.0,91808.0,26640.0
0.843500018119812,68.0,166592.0,305344.0,304768.0,211648.0,93056.0,15176.0
0.8450166583061218,65.0,130032.0,268608.0,287680.0,198592.0,70176.0,16436.0
0.8465333580970764,38.0,114448.0,258432.0,221312.0,159424.0,71216.0,20076.0
0.8480499982833862,65.0,98864.0,232896.0,211712.0,153216.0,65520.0,11000.0
0.849566638469696,57.0,110128.0,206784.0,194624.0,150592.0,49040.0,13948.0
0.8510833382606506,49.0,83136.0,167680.0,210112.0,122448.0,56768.0,10028.0
0.8525999784469604,21.0,68256.0,160896.0,161408.0,100896.0,39856.0,8212.0
0.854116678237915,73.0,57600.0,142144.0,160320.0,101360.0,50528.0,14096.0
0.8557000160217285,42.0,72992.0,134272.0,161152.0,110784.0,32712.0,8736.0
0.8572166562080383,46.0,66528.0,127024.0,144576.0,99712.0,38480.0,8324.0
0.8587333559989929,51.0,72048.0,112976.0,119376.0,91504.0,42368.0,7047.0
0.8602499961853027,37.0,63584.0,111888.0,139840.0,91712.0,30760.0,5401.0
0.8617666959762573,21.0,55040.0,118880.0,104864.0,90448.0,24052.0,8684.0
0.8632833361625671,6.0,58672.0,108080.0,109808.0,74864.0,30568.0,9408.0
0.864799976348877,98.0,47760.0,106672.0,92736.0,76384.0,32720.0,5362.0
0.8663166761398315,82.0,48080.0,105264.0,99760.0,72080.0,22996.0,5147.0
0.8678333163261414,72.0,44544.0,104304.0,86640.0,58848.0,34640.0,5443.0
0.869350016117096,32.0,40976.0,84912.0,83504.0,49520.0,30460.0,4573.0
0.8708666563034058,65.0,48800.0,82256.0,90816.0,57552.0,18108.0,4975.0
0.8724333047866821,57.0,48288.0,83536.0,87840.0,62112.0,19844.0,6546.0
0.8739500045776367,7.0,35664.0,81600.0,84848.0,55792.0,24104.0,8116.0
0.8754666447639465,55.0,31072.0,78192.0,83328.0,56016.0,19808.0,2626.0
0.8769833445549011,35.0,32376.0,73936.0,78928.0,58064.0,18288.0,7649.0
0.8784999847412109,50.0,27244.0,77168.0,60144.0,58336.0,18124.0,5582.0
0.8800166845321655,47.0,31792.0,77616.0,81968.0,44944.0,17944.0,5506.0
0.8815333247184753,43.0,36336.0,58112.0,62560.0,51952.0,17276.0,4809.0
0.8830500245094299,16.0,23776.0,67696.0,73328.0,43696.0,21564.0,6140.0
0.8845666646957397,44.0,29692.0,66000.0,58544.0,54336.0,20604.0,4340.0
0.8860833048820496,46.0,17192.0,49408.0,68000.0,48192.0,17004.0,4176.0
0.8876166939735413,72.0,30044.0,52112.0,64160.0,41936.0,17480.0,3873.0
0.8891833424568176,56.0,31252.0,58832.0,69616.0,34720.0,18000.0,4655.0
0.8906999826431274,53.0,24680.0,54560.0,67936.0,42928.0,15860.0,4433.0
0.892216682434082,15.0,23508.0,50304.0,61840.0,44272.0,21876.0,5104.0
0.8937333226203918,32.0,26464.0,51024.0,62528.0,45632.0,11164.0,5411.0
0.8952500224113464,34.0,26744.0,57232.0,63760.0,45184.0,17516.0,4059.0
0.8967666625976562,35.0,27300.0,54176.0,53984.0,48544.0,14612.0,4106.0
0.8982833623886108,51.0,27856.0,55056.0,54704.0,45312.0,16472.0,6492.0
0.8998000025749207,60.0,22652.0,43984.0,55424.0,42064.0,13680.0,2091.0
0.9013166427612305,55.0,27516.0,63184.0,54128.0,35680.0,14432.0,5664.0
0.9028333425521851,29.0,25072.0,59296.0,54192.0,36064.0,18912.0,1968.0
0.9043499827384949,36.0,21488.0,58528.0,40272.0,34816.0,17376.0,2071.0
0.9059333205223083,27.0,23344.0,43888.0,51776.0,30252.0,18480.0,2212.0
0.9074500203132629,17.0,25196.0,42992.0,49264.0,36576.0,10500.0,3050.0
0.9089666604995728,16.0,19812.0,37984.0,45120.0,37216.0,11524.0,2384.0
0.9104833602905273,19.0,20476.0,49056.0,55056.0,37840.0,10536.0,1718.0
0.9120000004768372,21.0,27420.0,56928.0,54992.0,35440.0,10620.0,1659.0
0.913516640663147,22.0,23200.0,52944.0,56064.0,39024.0,11572.0,3197.0
0.9150333404541016,18.0,21900.0,45552.0,58624.0,29428.0,12232.0,3571.0
0.9165499806404114,15.0,23080.0,55088.0,47792.0,37392.0,12640.0,4220.0
0.918066680431366,19.0,23784.0,32336.0,51232.0,42848.0,13048.0,3995.0
0.9195833206176758,23.0,22892.0,43248.0,49136.0,42672.0,11496.0,2770.0
0.9211166501045227,65.0,24540.0,41856.0,47552.0,42048.0,15520.0,1545.0
0.9226833581924438,54.0,24492.0,43216.0,43888.0,41584.0,15652.0,2200.0
0.9241999983787537,55.0,24444.0,44880.0,42096.0,34640.0,15064.0,1876.0
0.9257166385650635,50.0,28572.0,44656.0,48144.0,36960.0,13124.0,3511.0
0.9272333383560181,25.0,18944.0,44432.0,49808.0,36480.0,9924.0,3999.0
0.928766667842865,48.0,21092.0,44224.0,55712.0,36848.0,10496.0,3819.0
0.9302833080291748,33.0,14924.0,40992.0,38208.0,36560.0,8640.0,3845.0
0.9318000078201294,18.0,22360.0,36672.0,44464.0,36272.0,10464.0,4023.0
0.9333000183105469,8.0,28576.0,39952.0,50720.0,25812.0,10792.0,1474.0
0.9348333477973938,33.0,26056.0,39808.0,50608.0,33504.0,14848.0,2198.0
0.9363499879837036,33.0,27572.0,39664.0,44576.0,31968.0,14300.0,2922.0
0.9378499984741211,35.0,20960.0,47472.0,41680.0,31124.0,13748.0,2434.0
0.9394333362579346,25.0,22396.0,49600.0,45296.0,30284.0,14084.0,1946.0
0.9409499764442444,15.0,22956.0,50576.0,48912.0,33568.0,14416.0,3372.0
0.9424833059310913,13.0,23552.0,37856.0,43712.0,33328.0,13312.0,3164.0
0.9440000057220459,29.0,17516.0,48800.0,38496.0,33088.0,12204.0,4593.0
0.9455166459083557,27.0,20276.0,40960.0,51616.0,25920.0,10832.0,4143.0
0.9470333456993103,20.0,23032.0,44240.0,39744.0,35248.0,8352.0,5909.0
0.9485499858856201,41.0,22128.0,48912.0,49824.0,34672.0,9160.0,2067.0
0.9500666856765747,30.0,14012.0,40704.0,44368.0,40208.0,10908.0,5618.0
0.9515833258628845,18.0,17656.0,41392.0,52080.0,32664.0,11688.0,5539.0
0.9531000256538391,29.0,21704.0,50784.0,48208.0,28600.0,11740.0,6661.0
0.9546166658401489,29.0,23000.0,45152.0,44336.0,24532.0,11796.0,5800.0
0.9561499953269958,27.0,21616.0,46032.0,45504.0,27824.0,13880.0,3581.0
0.9576666951179504,25.0,20228.0,57184.0,45696.0,26888.0,15968.0,3575.0
0.9591833353042603,48.0,21860.0,36464.0,45888.0,25956.0,7702.0,3872.0
0.9606999754905701,50.0,21068.0,39280.0,44144.0,23352.0,9536.0,4884.0
0.9622166752815247,34.0,20280.0,43856.0,42384.0,30120.0,9124.0,5104.0
0.9637333154678345,39.0,24416.0,45120.0,50016.0,31480.0,10796.0,3991.0
0.9652500152587891,43.0,17316.0,46384.0,48640.0,32848.0,10088.0,2311.0
0.9667666554450989,40.0,16744.0,45424.0,45072.0,27600.0,9384.0,1944.0
0.9682833552360535,54.0,28480.0,44464.0,44128.0,23712.0,13908.0,1578.0
0.9697999954223633,44.0,26224.0,45584.0,37040.0,32132.0,14752.0,2092.0
0.9713166952133179,33.0,23760.0,45888.0,50032.0,28148.0,15600.0,2605.0
0.9728833436965942,39.0,22784.0,46176.0,51744.0,28348.0,15476.0,2959.0
0.9744166731834412,19.0,21808.0,45568.0,47344.0,28544.0,14696.0,1879.0
0.975933313369751,27.0,21924.0,40960.0,42944.0,33344.0,13916.0,2397.0
0.9774500131607056,30.0,20868.0,53360.0,56832.0,34064.0,13296.0,2104.0
0.9789666533470154,33.0,27880.0,54048.0,59952.0,34784.0,12672.0,3046.0
0.98048335313797,13.0,29096.0,52560.0,56848.0,27328.0,13548.0,4165.0
0.9819999933242798,43.0,22208.0,50992.0,47312.0,31384.0,11432.0,4783.0
0.9835166931152344,17.0,27232.0,44368.0,50800.0,39296.0,12900.0,4597.0
0.9850333333015442,37.0,32816.0,40480.0,55376.0,34688.0,14924.0,1662.0
0.986549973487854,20.0,29012.0,31296.0,40352.0,32960.0,16948.0,3235.0
0.9880666732788086,16.0,25564.0,52128.0,57280.0,39792.0,21608.0,5599.0
0.9895833134651184,11.0,19896.0,47840.0,59184.0,34240.0,7807.0,4393.0
0.9911666512489319,46.0,24096.0,37664.0,42144.0,39040.0,13212.0,3187.0
0.9926833510398865,45.0,23248.0,53984.0,45920.0,33472.0,10600.0,3640.0
0.9941999912261963,65.0,33472.0,33584.0,57312.0,39152.0,14100.0,2972.0
0.9957166910171509,22.0,31852.0,46720.0,41552.0,36448.0,14352.0,2303.0
0.9972333312034607,36.0,24536.0,48928.0,49552.0,40848.0,14576.0,3338.0
0.9987499713897705,17.0,24656.0,44608.0,50864.0,33632.0,16872.0,3538.0
1.000266671180725,24.0,20876.0,41808.0,51232.0,30588.0,16236.0,1787.0
1.0017833709716797,30.0,23164.0,49648.0,51136.0,33392.0,15600.0,4131.0
1.0032999515533447,37.0,25448.0,47568.0,52432.0,30288.0,17352.0,4528.0
1.0048166513442993,39.0,22028.0,46896.0,53728.0,40192.0,14312.0,1258.0
1.006333351135254,41.0,21604.0,44560.0,53440.0,44912.0,11268.0,2264.0
1.0079166889190674,42.0,21200.0,42224.0,46032.0,20288.0,9756.0,4238.0
1.009433388710022,63.0,20796.0,43040.0,46928.0,30508.0,12740.0,4140.0
1.010949969291687,62.0,30380.0,52880.0,51024.0,30972.0,12244.0,1554.0
1.0124666690826416,38.0,31828.0,52816.0,55136.0,33600.0,11748.0,3570.0
1.0139833688735962,15.0,29144.0,58048.0,60064.0,28604.0,12176.0,4215.0
1.0154999494552612,28.0,31412.0,38016.0,56128.0,35760.0,12604.0,4022.0
1.0170166492462158,42.0,23264.0,47824.0,59552.0,39280.0,12560.0,3722.0
1.0185333490371704,36.0,27124.0,53152.0,58384.0,44016.0,12512.0,3422.0
1.020050048828125,20.0,19460.0,49728.0,57200.0,35184.0,9644.0,4322.0
1.02156662940979,40.0,20692.0,36832.0,49632.0,39232.0,12324.0,3225.0
1.0230833292007446,30.0,25128.0,45568.0,67200.0,39056.0,15320.0,378.0
1.024649977684021,21.0,29672.0,49120.0,66336.0,48832.0,16064.0,3438.0
1.0261666774749756,18.0,28652.0,45264.0,58720.0,23852.0,13164.0,2857.0
1.0276833772659302,22.0,19360.0,50032.0,60464.0,31168.0,12628.0,4353.0
1.0291999578475952,26.0,24540.0,49536.0,63568.0,36624.0,21852.0,3918.0
1.030733346939087,30.0,30028.0,49040.0,61760.0,30688.0,21648.0,3483.0
1.0322333574295044,5.0,25800.0,54672.0,65648.0,39824.0,16444.0,3853.0
1.033750057220459,48.0,25276.0,52592.0,55216.0,37808.0,12264.0,3029.0
1.0352833271026611,31.0,25928.0,50528.0,61376.0,37008.0,20012.0,3849.0
1.0367833375930786,29.0,26004.0,52512.0,59056.0,38960.0,9636.0,4669.0
1.0383000373840332,23.0,26084.0,54480.0,59840.0,37792.0,14260.0,2022.0
1.0398333072662354,17.0,19480.0,44912.0,60624.0,39008.0,18884.0,2361.0
1.0413999557495117,34.0,20104.0,51472.0,58176.0,34096.0,18656.0,4686.0
1.0429166555404663,12.0,26460.0,65664.0,50560.0,32944.0,16568.0,3928.0
1.044433355331421,36.0,26588.0,60256.0,49264.0,34192.0,19608.0,3474.0
1.0459500551223755,20.0,30224.0,66416.0,54224.0,40576.0,13700.0,3952.0
1.0474666357040405,18.0,27688.0,45840.0,62944.0,47872.0,16588.0,4430.0
1.0489833354949951,17.0,26816.0,69504.0,70512.0,45952.0,16420.0,6485.0
1.0505000352859497,63.0,27816.0,66000.0,66512.0,42656.0,16248.0,6486.0
1.0520166158676147,53.0,34016.0,55632.0,72960.0,40640.0,15320.0,4090.0
1.0535333156585693,37.0,33280.0,61840.0,57840.0,46416.0,14392.0,4734.0
1.055050015449524,35.0,35296.0,67808.0,61024.0,40896.0,20252.0,4264.0
1.0565667152404785,33.0,34544.0,70992.0,63136.0,35328.0,20748.0,3794.0
1.058150053024292,34.0,33808.0,55680.0,64288.0,43760.0,19720.0,5541.0
1.059666633605957,35.0,28048.0,54480.0,61776.0,37984.0,17208.0,2407.0
1.0611833333969116,53.0,26072.0,52000.0,64304.0,41152.0,14656.0,5833.0
1.0627000331878662,52.0,24732.0,60592.0,64224.0,44752.0,17872.0,4544.0
1.0642166137695312,42.0,18688.0,72736.0,64144.0,42224.0,13048.0,3254.0
1.0657333135604858,48.0,31728.0,67040.0,63024.0,39680.0,18096.0,5867.0
1.0672500133514404,42.0,30688.0,67120.0,61920.0,46320.0,19936.0,1807.0
1.068766713142395,32.0,22664.0,71440.0,66944.0,40736.0,18852.0,5078.0
1.07028329372406,32.0,36128.0,55744.0,72560.0,43664.0,21884.0,5671.0
1.0717999935150146,28.0,30136.0,68480.0,81568.0,46576.0,21572.0,4336.0
1.0733166933059692,23.0,29892.0,78832.0,76992.0,56064.0,20608.0,1574.0
1.0749000310897827,25.0,32928.0,51008.0,85904.0,56752.0,21132.0,6757.0
1.0764166116714478,27.0,31896.0,69280.0,83952.0,53744.0,18600.0,6227.0
1.0779333114624023,28.0,32180.0,89248.0,62896.0,53472.0,16068.0,7179.0
1.0794333219528198,29.0,28488.0,73856.0,57776.0,40096.0,16052.0,2604.0
1.0809500217437744,41.0,29256.0,74848.0,76272.0,48576.0,20560.0,5117.0
1.0824832916259766,5.0,25168.0,64624.0,70720.0,47744.0,20992.0,6502.0
1.0839999914169312,70.0,21076.0,76000.0,65152.0,39744.0,19072.0,3830.0
1.0855166912078857,60.0,44848.0,58848.0,90880.0,46832.0,19360.0,7886.0
1.0870333909988403,58.0,40032.0,70944.0,87008.0,51856.0,19648.0,5394.0
1.0885332822799683,17.0,37232.0,65968.0,80560.0,59904.0,16620.0,2903.0
1.0900499820709229,5.0,42176.0,64944.0,73584.0,58016.0,20948.0,6192.0
1.0916166305541992,36.0,39904.0,69424.0,81104.0,44656.0,18380.0,4479.0
1.093150019645691,37.0,41984.0,69584.0,73776.0,66560.0,20148.0,2320.0
1.0946667194366455,38.0,42032.0,69744.0,66464.0,44256.0,24312.0,3949.0
1.0961833000183105,39.0,42368.0,83984.0,84016.0,64560.0,22560.0,5578.0
1.0976999998092651,54.0,39696.0,84160.0,78368.0,62064.0,20812.0,8025.0
1.0992166996002197,70.0,38560.0,77664.0,81088.0,57568.0,23932.0,7634.0
1.1007332801818848,15.0,34592.0,87696.0,84720.0,53264.0,24112.0,6102.0
1.1022499799728394,37.0,30628.0,75360.0,88352.0,55664.0,18228.0,9232.0
1.103766679763794,37.0,39616.0,81248.0,74336.0,45712.0,25856.0,4185.0
1.1052833795547485,31.0,39904.0,84112.0,84272.0,62320.0,15008.0,5131.0
1.1067999601364136,29.0,41136.0,79328.0,81392.0,57952.0,27292.0,3388.0
1.1083166599273682,44.0,31192.0,83888.0,78528.0,62640.0,25140.0,7787.0
1.1098999977111816,13.0,38448.0,87840.0,85088.0,53184.0,27452.0,6650.0
1.1114166975021362,41.0,33440.0,73264.0,82624.0,54272.0,21908.0,5513.0
1.1129332780838013,22.0,45920.0,78992.0,77232.0,53856.0,20712.0,7013.0
1.1144499778747559,42.0,41856.0,68944.0,88000.0,53456.0,24004.0,6042.0
1.1159666776657104,52.0,50032.0,86384.0,87808.0,64000.0,24192.0,5072.0
1.117483377456665,59.0,48752.0,82880.0,96256.0,65008.0,22552.0,1720.0
1.11899995803833,24.0,53440.0,88128.0,93552.0,53728.0,22732.0,8932.0
1.1205166578292847,29.0,41984.0,90048.0,74768.0,62896.0,22912.0,5612.0
1.1220333576202393,63.0,55728.0,85040.0,97728.0,60160.0,22036.0,4325.0
1.1235500574111938,43.0,50752.0,91568.0,94112.0,62016.0,24488.0,2075.0
1.1250666379928589,32.0,42480.0,72848.0,87824.0,63872.0,26944.0,2625.0
1.1266332864761353,30.0,46448.0,75552.0,90352.0,58752.0,17628.0,3176.0
1.1281499862670898,32.0,31224.0,90240.0,96608.0,54960.0,26488.0,4497.0
1.1296833753585815,29.0,44080.0,80256.0,93968.0,60432.0,25496.0,5819.0
1.131183385848999,5.0,37952.0,92080.0,91952.0,57632.0,28904.0,6258.0
1.132699966430664,11.0,52944.0,83216.0,95184.0,63024.0,24252.0,5627.0
1.1342166662216187,13.0,48160.0,84752.0,87568.0,62080.0,23152.0,4996.0
1.1357333660125732,15.0,36672.0,85232.0,93872.0,64352.0,26056.0,4481.0
1.1372499465942383,18.0,51120.0,74960.0,92912.0,64256.0,28964.0,6138.0
1.1387666463851929,22.0,38960.0,85216.0,96240.0,64160.0,27088.0,5142.0
1.1402833461761475,23.0,42640.0,74480.0,94368.0,65520.0,29296.0,4147.0
1.141800045967102,23.0,46560.0,92752.0,92512.0,66880.0,31504.0,3361.0
1.1433833837509155,21.0,46432.0,101808.0,94752.0,72528.0,19680.0,2575.0
1.1448999643325806,25.0,42144.0,102720.0,92080.0,75072.0,33520.0,8316.0
1.1464166641235352,29.0,43712.0,103312.0,94576.0,72032.0,30924.0,7670.0
1.1479333639144897,32.0,45280.0,80848.0,97088.0,62864.0,25336.0,4623.0
1.1494499444961548,34.0,40048.0,94128.0,104192.0,56192.0,22880.0,4815.0
1.1509666442871094,8.0,53120.0,104960.0,82528.0,78240.0,30500.0,6251.0
1.152483344078064,16.0,54000.0,89904.0,100736.0,73344.0,30188.0,5409.0
1.1540000438690186,50.0,51216.0,91248.0,96080.0,65072.0,25532.0,4566.0
1.1555166244506836,36.0,52784.0,92592.0,116480.0,67088.0,25392.0,4098.0
1.1570333242416382,21.0,54352.0,87840.0,105216.0,66112.0,25248.0,4731.0
1.1585500240325928,34.0,46272.0,83072.0,98512.0,83024.0,35392.0,5363.0
1.1601333618164062,23.0,42528.0,86304.0,96128.0,84576.0,33024.0,8708.0
1.1616499423980713,29.0,52496.0,85056.0,93744.0,74448.0,27276.0,7710.0
1.1631666421890259,31.0,52704.0,83792.0,102784.0,72032.0,23148.0,3514.0
1.1646833419799805,33.0,51072.0,92256.0,108368.0,61936.0,33168.0,4949.0
1.166200041770935,19.0,45568.0,100704.0,86656.0,69968.0,30008.0,5443.0
1.1677166223526,23.0,49472.0,99616.0,95456.0,72544.0,32472.0,5784.0
1.1692333221435547,27.0,53376.0,102480.0,115840.0,70800.0,25248.0,6124.0
1.1707500219345093,10.0,50496.0,94864.0,109520.0,71056.0,19840.0,8348.0
1.1722667217254639,19.0,41632.0,91264.0,90368.0,68688.0,24556.0,8097.0
1.173783302307129,28.0,51312.0,107584.0,97840.0,72688.0,25564.0,7845.0
1.1753000020980835,8.0,61056.0,105776.0,103424.0,79344.0,31592.0,6435.0
1.1768666505813599,33.0,62960.0,103984.0,108992.0,83168.0,31052.0,5024.0
1.1783833503723145,33.0,56736.0,103552.0,113456.0,62224.0,30516.0,5133.0
1.1799166202545166,33.0,52416.0,92416.0,108704.0,79824.0,30800.0,5241.0
1.181416630744934,35.0,45632.0,78752.0,107280.0,77536.0,31088.0,4102.0
1.1829333305358887,36.0,44144.0,108416.0,112752.0,64096.0,27828.0,9652.0
1.1844500303268433,46.0,53936.0,97952.0,113824.0,70608.0,30360.0,9196.0
1.1859666109085083,46.0,40928.0,87472.0,114880.0,77120.0,32896.0,6778.0
1.187483310699463,34.0,45648.0,101840.0,115440.0,78448.0,28160.0,10960.0
1.1890166997909546,37.0,50352.0,111680.0,116000.0,77696.0,34928.0,8992.0
1.190516710281372,35.0,51360.0,126656.0,118992.0,76944.0,33888.0,4878.0
1.192033290863037,65.0,55664.0,120896.0,121984.0,80672.0,36016.0,3551.0
1.1936166286468506,75.0,57280.0,103792.0,118496.0,84384.0,38640.0,7914.0
1.1951333284378052,16.0,51792.0,109408.0,115008.0,87712.0,39824.0,4805.0
1.1966500282287598,48.0,59536.0,108064.0,114672.0,73872.0,26240.0,8820.0
1.1981666088104248,17.0,50384.0,108672.0,116304.0,81040.0,37520.0,6183.0
1.1996833086013794,30.0,47712.0,113120.0,110560.0,74656.0,39520.0,4525.0
1.201200008392334,42.0,43472.0,115984.0,104816.0,69552.0,35840.0,6931.0
1.2027167081832886,37.0,60720.0,118848.0,113184.0,73456.0,25928.0,8940.0
1.2042332887649536,24.0,63568.0,112560.0,121552.0,77376.0,39136.0,8157.0
1.2057499885559082,44.0,60368.0,114544.0,124048.0,75312.0,32848.0,6440.0
1.2072666883468628,40.0,57472.0,116096.0,132864.0,64016.0,29372.0,11628.0
1.2087833881378174,48.0,68592.0,117648.0,128784.0,83952.0,31772.0,10932.0
1.2103500366210938,0.0,51808.0,114064.0,124704.0,84416.0,33232.0,9224.0
1.211883306503296,42.0,54992.0,110480.0,124624.0,98288.0,32928.0,9596.0
1.2134000062942505,40.0,60528.0,116832.0,126320.0,82464.0,27764.0,6765.0
1.214916706085205,37.0,61728.0,111952.0,118752.0,86384.0,37536.0,10352.0
1.2164332866668701,34.0,62912.0,107072.0,109424.0,86544.0,22228.0,8167.0
1.2179499864578247,50.0,49872.0,105520.0,119056.0,91968.0,33328.0,9676.0
1.2194666862487793,5.0,65872.0,109120.0,129776.0,92352.0,36976.0,6469.0
1.2209833860397339,30.0,69184.0,112704.0,131072.0,96160.0,27012.0,7653.0
1.222499966621399,5.0,50448.0,115088.0,134016.0,79120.0,30356.0,8836.0
1.2240166664123535,19.0,71760.0,117472.0,134464.0,84128.0,35760.0,8612.0
1.225533366203308,51.0,57776.0,129920.0,134912.0,91952.0,46992.0,8388.0
1.2270499467849731,52.0,61344.0,134464.0,136576.0,96128.0,45248.0,9776.0
1.228616714477539,30.0,57584.0,111648.0,137856.0,81984.0,43328.0,10116.0
1.230133295059204,49.0,55504.0,122832.0,136960.0,93984.0,32628.0,6280.0
1.2316499948501587,57.0,53424.0,137152.0,136128.0,99952.0,43616.0,5622.0
1.2331666946411133,64.0,66176.0,114576.0,137536.0,94032.0,29320.0,5947.0
1.2346832752227783,27.0,65008.0,131648.0,142336.0,77760.0,31584.0,6273.0
1.236199975013733,25.0,45408.0,111120.0,129600.0,92848.0,41808.0,8074.0
1.2377166748046875,39.0,55312.0,124352.0,120064.0,88704.0,27016.0,9876.0
1.239233374595642,30.0,58560.0,116000.0,121120.0,83584.0,28824.0,14484.0
1.2407499551773071,21.0,61808.0,124416.0,125088.0,92448.0,39808.0,14704.0
1.2422666549682617,65.0,58384.0,119440.0,118240.0,81856.0,35328.0,9240.0
1.2437833547592163,79.0,54960.0,114464.0,138624.0,78432.0,43632.0,4461.0
1.2453666925430298,31.0,62640.0,126112.0,137472.0,95888.0,34800.0,12340.0
1.2468833923339844,102.0,54768.0,115040.0,134784.0,82720.0,33536.0,8988.0
1.2483999729156494,75.0,69952.0,110736.0,128496.0,88384.0,37648.0,7121.0
1.249916672706604,118.0,59520.0,130240.0,126912.0,97856.0,36880.0,10724.0
1.2514333724975586,39.0,49104.0,107184.0,126240.0,86800.0,33200.0,9356.0
1.2529499530792236,27.0,69040.0,137280.0,138432.0,94112.0,35088.0,8408.0
1.2544666528701782,7.0,62144.0,139264.0,143232.0,101408.0,36976.0,10948.0
1.2559833526611328,42.0,56496.0,128624.0,134592.0,101728.0,43744.0,6497.0
1.2575000524520874,36.0,63424.0,126848.0,140928.0,95968.0,41200.0,12604.0
1.2590166330337524,31.0,54960.0,130784.0,147264.0,90208.0,37552.0,13816.0
1.260533332824707,63.0,55552.0,135616.0,127824.0,82112.0,33904.0,10172.0
1.2621166706085205,54.0,69792.0,117472.0,144192.0,92256.0,37520.0,7619.0
1.263633370399475,45.0,69104.0,146688.0,141248.0,88576.0,34448.0,6030.0
1.2651499509811401,17.0,64224.0,141696.0,141824.0,84912.0,36336.0,11128.0
1.2666666507720947,13.0,56880.0,134976.0,142464.0,103536.0,38240.0,9084.0
1.2681833505630493,78.0,57040.0,117088.0,140096.0,106992.0,43744.0,7509.0
1.269700050354004,75.0,65216.0,110560.0,137792.0,114160.0,44272.0,13368.0
1.271216630935669,47.0,66416.0,124496.0,139584.0,101184.0,36976.0,12028.0
1.2727333307266235,47.0,60416.0,132480.0,141376.0,97664.0,36000.0,8006.0
1.2742500305175781,54.0,54416.0,134656.0,130384.0,106672.0,41392.0,7524.0
1.2757666110992432,51.0,71728.0,144192.0,131968.0,109472.0,35968.0,8324.0
1.2772833108901978,48.0,72848.0,137088.0,155072.0,103280.0,41888.0,8050.0
1.2788499593734741,6.0,74464.0,144064.0,161984.0,108240.0,28124.0,7776.0
1.2803666591644287,15.0,78736.0,129248.0,137984.0,97056.0,44608.0,5758.0
1.2819000482559204,25.0,57232.0,126112.0,145280.0,91744.0,43712.0,7375.0
1.2834166288375854,31.0,63776.0,132096.0,153984.0,85776.0,51312.0,10836.0
1.28493332862854,37.0,66448.0,121744.0,148224.0,108208.0,51536.0,11176.0
1.2864333391189575,31.0,70144.0,132288.0,148864.0,117920.0,54384.0,10888.0
1.287950038909912,24.0,73840.0,142784.0,158528.0,115856.0,37776.0,8912.0
1.2894666194915771,17.0,70288.0,135360.0,121136.0,99472.0,49712.0,9652.0
1.2909833192825317,29.0,66736.0,145792.0,156352.0,107200.0,43168.0,13896.0
1.2925000190734863,27.0,74976.0,153024.0,165184.0,100896.0,46544.0,13352.0
1.294016718864441,26.0,65504.0,153536.0,159232.0,108704.0,48928.0,12812.0
1.2956000566482544,22.0,73200.0,152256.0,167936.0,116192.0,43152.0,13108.0
1.2971166372299194,26.0,79936.0,146176.0,174016.0,113104.0,50000.0,13408.0
1.298633337020874,30.0,79200.0,155968.0,169408.0,114960.0,42528.0,8916.0
1.3001500368118286,39.0,76784.0,165760.0,164736.0,117840.0,41440.0,9948.0
1.3016666173934937,30.0,77312.0,158848.0,178048.0,120736.0,40368.0,13540.0
1.3031833171844482,21.0,77840.0,151936.0,172224.0,120416.0,45104.0,15832.0
1.3047000169754028,24.0,73808.0,179968.0,166400.0,118592.0,56880.0,17284.0
1.3062167167663574,81.0,90752.0,196352.0,191744.0,116784.0,57760.0,16788.0
1.3077332973480225,56.0,97472.0,189440.0,184384.0,123216.0,64208.0,16600.0
1.309249997138977,31.0,83584.0,197056.0,189760.0,129648.0,54240.0,14164.0
1.3107666969299316,44.0,107648.0,184064.0,214464.0,149312.0,57728.0,9924.0
1.3123500347137451,49.0,107104.0,188096.0,209344.0,141824.0,61216.0,16044.0
1.3138666152954102,54.0,78400.0,190400.0,195264.0,136384.0,58816.0,12424.0
1.3153833150863647,17.0,100800.0,195008.0,197888.0,152384.0,56400.0,16768.0
1.3169000148773193,89.0,98800.0,180224.0,200512.0,169792.0,54704.0,18496.0
1.318416714668274,76.0,99296.0,202944.0,218432.0,175424.0,52992.0,13128.0
1.319933295249939,78.0,95808.0,191104.0,236352.0,155648.0,65792.0,17740.0
1.3214499950408936,78.0,95680.0,220352.0,230592.0,166080.0,69808.0,20196.0
1.3229666948318481,28.0,95552.0,240832.0,236608.0,171520.0,67760.0,16456.0
1.3244832754135132,105.0,109456.0,222720.0,242624.0,197632.0,66016.0,16844.0
1.3259999752044678,47.0,116192.0,205696.0,241344.0,186304.0,67936.0,17236.0
1.3275166749954224,42.0,121008.0,255744.0,256000.0,173184.0,69856.0,18044.0
1.3290666341781616,36.0,126672.0,268096.0,256000.0,177088.0,67920.0,18852.0
1.3306167125701904,59.0,119232.0,255808.0,256000.0,181056.0,66000.0,18688.0
1.3321332931518555,59.0,120512.0,264768.0,309952.0,184064.0,75312.0,16616.0
1.33364999294281,46.0,121792.0,257600.0,306624.0,187072.0,72880.0,19516.0
1.3351666927337646,43.0,125840.0,254720.0,315968.0,202688.0,70720.0,16260.0
1.3366833925247192,48.0,129888.0,306368.0,302912.0,218368.0,73872.0,22064.0
1.3381999731063843,47.0,138432.0,312640.0,292160.0,223872.0,77024.0,22152.0
1.3397166728973389,46.0,145408.0,284480.0,295040.0,224384.0,81504.0,22236.0
1.3412333726882935,52.0,160128.0,310528.0,304448.0,219392.0,85984.0,25636.0
1.3427499532699585,58.0,155136.0,313088.0,313792.0,204608.0,91152.0,25320.0
1.344266653060913,48.0,150080.0,275072.0,326144.0,250752.0,96320.0,28260.0
1.3457833528518677,38.0,161152.0,295360.0,361024.0,249984.0,100304.0,14216.0
1.347350001335144,28.0,171072.0,315584.0,368960.0,227456.0,102752.0,22480.0
1.3488667011260986,19.0,166720.0,323136.0,345408.0,254912.0,94176.0,23484.0
1.3503832817077637,76.0,173952.0,317824.0,345280.0,252736.0,93344.0,30576.0
1.3518999814987183,68.0,152128.0,312896.0,336128.0,241600.0,86896.0,26944.0
1.35343337059021,21.0,166336.0,308032.0,353536.0,257984.0,94576.0,21220.0
1.3549333810806274,47.0,164096.0,333376.0,381696.0,259200.0,119136.0,26576.0
1.3564499616622925,74.0,161664.0,372480.0,377024.0,260480.0,116080.0,30756.0
1.357966661453247,82.0,159232.0,367488.0,396160.0,262400.0,108368.0,28376.0
1.3594833612442017,90.0,171840.0,375744.0,382464.0,264320.0,118608.0,28592.0
1.3609999418258667,78.0,184448.0,346752.0,399424.0,276352.0,114576.0,20784.0
1.3625166416168213,66.0,183488.0,397312.0,408576.0,278656.0,111056.0,24680.0
1.3640999794006348,23.0,184512.0,404864.0,417152.0,281024.0,107552.0,28580.0
1.3656166791915894,50.0,203840.0,409024.0,445760.0,275200.0,113184.0,29816.0
1.367133378982544,78.0,203200.0,409728.0,439552.0,284992.0,118816.0,27480.0
1.368649959564209,82.0,202560.0,406528.0,416512.0,268608.0,116432.0,25140.0
1.3701666593551636,85.0,204224.0,410496.0,494976.0,308992.0,114048.0,30452.0
1.3716833591461182,70.0,205952.0,414464.0,476352.0,332096.0,117376.0,29100.0
1.3732000589370728,79.0,242368.0,412736.0,474944.0,319104.0,140672.0,27752.0
1.3747166395187378,111.0,244800.0,411008.0,483072.0,320000.0,155840.0,28588.0
1.3762333393096924,517.0,244416.0,452864.0,491136.0,331904.0,145024.0,30764.0
1.377750039100647,286.0,229120.0,444032.0,451520.0,335424.0,124832.0,41616.0
1.379266619682312,56.0,240192.0,432512.0,524288.0,367552.0,133312.0,38208.0
1.380833387374878,227.0,217280.0,432128.0,530688.0,358848.0,143616.0,27260.0
1.382349967956543,38.0,239552.0,431744.0,495296.0,344640.0,137408.0,38352.0
1.3838666677474976,91.0,240896.0,460608.0,507776.0,357440.0,144256.0,33600.0
1.3853833675384521,121.0,263616.0,465856.0,537856.0,346368.0,144384.0,37328.0
1.3868999481201172,114.0,255808.0,487872.0,532480.0,355776.0,144512.0,37600.0
1.3884166479110718,70.0,246016.0,499584.0,524288.0,347584.0,141632.0,35872.0
1.3899333477020264,111.0,250176.0,505280.0,515968.0,381312.0,138688.0,34144.0
1.391450047492981,77.0,251840.0,544768.0,596992.0,394560.0,154880.0,37280.0
1.392966628074646,84.0,253568.0,543744.0,590848.0,398400.0,152384.0,40416.0
1.3944833278656006,91.0,255104.0,506496.0,557568.0,389696.0,168064.0,39760.0
1.3960000276565552,70.0,273280.0,531456.0,612608.0,378432.0,156160.0,39104.0
1.3975499868392944,48.0,270592.0,528640.0,609024.0,408192.0,160768.0,40768.0
1.399066686630249,93.0,275584.0,535296.0,601088.0,402240.0,153472.0,41664.0
1.4005833864212036,48.0,278208.0,541696.0,578560.0,400896.0,162048.0,42544.0
1.4020999670028687,118.0,276416.0,578048.0,599808.0,425856.0,164032.0,43792.0
1.4036166667938232,112.0,274624.0,590848.0,640256.0,421312.0,175168.0,42720.0
1.4051333665847778,47.0,314048.0,610048.0,640256.0,416768.0,168064.0,41632.0
1.4066499471664429,60.0,309184.0,602368.0,702464.0,469824.0,161664.0,52432.0
1.4081666469573975,120.0,308224.0,621824.0,679936.0,459072.0,155200.0,49456.0
1.409683346748352,89.0,317120.0,630784.0,716544.0,458176.0,186880.0,46496.0
1.4112000465393066,138.0,337280.0,639488.0,683776.0,467392.0,191488.0,55056.0
1.4127166271209717,57.0,341824.0,632576.0,709376.0,476608.0,174464.0,40464.0
1.4142999649047852,90.0,331200.0,625408.0,720128.0,515776.0,197632.0,55712.0
1.4158166646957397,56.0,313664.0,678656.0,691968.0,510464.0,199872.0,49072.0
1.4173333644866943,48.0,335232.0,721664.0,718336.0,518976.0,207488.0,48896.0
1.4188499450683594,58.0,350144.0,758272.0,744448.0,575488.0,212416.0,53184.0
1.420366644859314,68.0,345088.0,761600.0,788480.0,611328.0,230208.0,47264.0
1.4218833446502686,79.0,373824.0,777472.0,842496.0,565760.0,237888.0,56688.0
1.4234000444412231,89.0,366400.0,774656.0,861952.0,579328.0,219456.0,53568.0
1.4249166250228882,105.0,387520.0,772096.0,881664.0,542464.0,258752.0,55328.0
1.4264333248138428,97.0,420992.0,804352.0,931328.0,604672.0,249216.0,57104.0
1.4279500246047974,138.0,407936.0,814080.0,944128.0,647680.0,229312.0,57712.0
1.429466724395752,149.0,394880.0,823552.0,937472.0,617984.0,240832.0,61616.0
1.4310499429702759,86.0,403840.0,803072.0,917760.0,616704.0,253120.0,65520.0
1.4325666427612305,104.0,412864.0,839680.0,890112.0,631808.0,288768.0,68448.0
1.434083342552185,122.0,416320.0,875520.0,922112.0,629248.0,302272.0,71376.0
1.4356000423431396,77.0,419712.0,913152.0,954368.0,626432.0,260928.0,74096.0
1.4371166229248047,121.0,423296.0,890880.0,948224.0,641280.0,276288.0,73184.0
1.4386333227157593,166.0,426944.0,868608.0,942080.0,659712.0,283456.0,73728.0
1.4401500225067139,149.0,459008.0,879872.0,994048.0,678144.0,257664.0,74272.0
1.4416667222976685,131.0,502592.0,961280.0,1095936.0,693760.0,287616.0,74480.0
1.4431833028793335,107.0,502400.0,972032.0,1078528.0,718080.0,288768.0,66816.0
1.444700002670288,181.0,468288.0,926208.0,1021696.0,742400.0,289920.0,64336.0
1.4462167024612427,170.0,490816.0,966144.0,1145344.0,771072.0,309632.0,61856.0
1.4478000402450562,194.0,486656.0,1006080.0,1092864.0,755200.0,306496.0,66784.0
1.4493166208267212,189.0,482560.0,1009664.0,1104640.0,720128.0,271232.0,91696.0
1.4508333206176758,168.0,485952.0,1009152.0,1056256.0,732160.0,300416.0,96880.0
1.4523500204086304,181.0,487552.0,1008640.0,1051648.0,738560.0,280064.0,80576.0
1.453866720199585,109.0,489216.0,1014016.0,1051904.0,744960.0,282176.0,86848.0
1.45538330078125,147.0,542208.0,1014528.0,1052160.0,726528.0,284288.0,70176.0
1.4569000005722046,131.0,528384.0,1015040.0,1097984.0,720640.0,304448.0,73648.0
1.4584167003631592,114.0,524544.0,1025024.0,1094912.0,715008.0,316672.0,94144.0
1.4599332809448242,158.0,549888.0,1025280.0,1092096.0,722432.0,328256.0,92080.0
1.4614499807357788,202.0,512384.0,1039872.0,1080320.0,730112.0,306112.0,69936.0
1.4629666805267334,178.0,504128.0,1054464.0,1142272.0,742144.0,335808.0,84192.0
1.4645166397094727,135.0,562944.0,1052416.0,1184768.0,754176.0,293184.0,70944.0
1.4660500288009644,91.0,545280.0,1050368.0,1195776.0,772864.0,328896.0,90048.0
1.4675666093826294,212.0,550400.0,1081088.0,1180416.0,794368.0,306304.0,79264.0
1.469083309173584,161.0,496384.0,1112064.0,1185280.0,815872.0,336576.0,84224.0
1.4706000089645386,178.0,561152.0,1139968.0,1190400.0,858368.0,325440.0,92640.0
1.4721167087554932,189.0,555008.0,1115392.0,1253376.0,839168.0,326272.0,85424.0
1.4736332893371582,144.0,551424.0,1035520.0,1236224.0,819968.0,327232.0,80208.0
1.4751499891281128,298.0,549120.0,1139200.0,1271808.0,854528.0,328192.0,74976.0
1.4766833782196045,227.0,555008.0,1111552.0,1242368.0,840448.0,334080.0,94912.0
1.478183388710022,156.0,525824.0,1125888.0,1212672.0,826624.0,340032.0,96672.0
1.479699969291687,102.0,565760.0,1206784.0,1263872.0,897792.0,336960.0,74368.0
1.4812166690826416,234.0,558336.0,1193984.0,1218304.0,892160.0,333888.0,90368.0
1.482800006866455,199.0,543744.0,1186560.0,1197312.0,836096.0,336320.0,89072.0
1.4843167066574097,164.0,562432.0,1179648.0,1227776.0,867328.0,329984.0,87696.0
1.4858332872390747,197.0,569344.0,1155072.0,1263872.0,851200.0,334848.0,79504.0
1.4873499870300293,230.0,559104.0,1097728.0,1275648.0,869888.0,339712.0,75296.0
1.4888666868209839,223.0,566784.0,1109760.0,1243648.0,794880.0,352896.0,78400.0
1.4903833866119385,70.0,532480.0,1090816.0,1238784.0,804608.0,348736.0,81504.0
1.4918999671936035,121.0,519744.0,1124608.0,1268736.0,803072.0,344576.0,90464.0
1.493416666984558,138.0,474176.0,1044736.0,1171968.0,819200.0,326144.0,95600.0
1.4949333667755127,176.0,547072.0,1077248.0,1178624.0,755456.0,318080.0,87520.0
1.4964499473571777,167.0,543488.0,1065216.0,1231104.0,766976.0,321216.0,81520.0
1.4979666471481323,173.0,530688.0,1066496.0,1210624.0,812032.0,317760.0,85456.0
1.4995499849319458,178.0,510208.0,1031680.0,1106432.0,775680.0,313152.0,61936.0
1.5010666847229004,177.0,509376.0,1037312.0,1102336.0,751616.0,308544.0,79168.0
1.502583384513855,283.0,522752.0,1047296.0,1113856.0,761088.0,327872.0,77040.0
1.50409996509552,214.0,504064.0,1041152.0,1094656.0,744960.0,324416.0,82928.0
1.5056166648864746,144.0,474048.0,998144.0,1112064.0,708864.0,264640.0,58736.0
1.5071333646774292,134.0,493760.0,948480.0,1076480.0,708352.0,286912.0,77776.0
1.5086499452590942,62.0,453696.0,874496.0,942592.0,654336.0,263488.0,77360.0
1.5101666450500488,148.0,500352.0,874496.0,960512.0,654848.0,248576.0,63280.0
1.5116833448410034,180.0,404096.0,806144.0,883968.0,582144.0,250880.0,58032.0
1.513200044631958,165.0,401536.0,830720.0,890624.0,590080.0,251072.0,62608.0
1.514716625213623,87.0,403072.0,798976.0,880128.0,579328.0,223168.0,59536.0
1.5162999629974365,162.0,356736.0,741120.0,832512.0,577536.0,216512.0,58752.0
1.5178166627883911,113.0,362304.0,730368.0,764416.0,563712.0,206208.0,48992.0
1.5193333625793457,63.0,347520.0,642048.0,755968.0,500672.0,175488.0,50576.0
1.5208499431610107,168.0,324480.0,621568.0,710656.0,472896.0,170304.0,35168.0
1.5223666429519653,43.0,299968.0,657920.0,637696.0,466944.0,200320.0,43872.0
1.52388334274292,112.0,255424.0,556288.0,601088.0,437248.0,157696.0,50080.0
1.5254000425338745,77.0,252864.0,515456.0,579072.0,394112.0,159744.0,34784.0
1.5269166231155396,75.0,230592.0,454656.0,502656.0,346176.0,153216.0,33072.0
1.5284333229064941,76.0,238208.0,427584.0,504640.0,319168.0,129360.0,32784.0
1.5299500226974487,71.0,213696.0,427520.0,444288.0,328192.0,133760.0,38032.0
1.5314667224884033,96.0,195328.0,418176.0,409152.0,302080.0,121552.0,18096.0
1.5330333709716797,121.0,183872.0,370496.0,399168.0,255808.0,110736.0,38304.0
1.5345666408538818,136.0,146304.0,316672.0,357824.0,234304.0,93696.0,23556.0
1.5360666513442993,97.0,140224.0,278336.0,335360.0,193408.0,80336.0,28316.0
1.537583351135254,47.0,138240.0,282432.0,287168.0,212864.0,92112.0,25328.0
1.539116621017456,56.0,110768.0,234880.0,280960.0,164608.0,61440.0,15148.0
1.5406166315078735,65.0,110064.0,216832.0,227584.0,172096.0,55232.0,16908.0
1.5421333312988281,58.0,88448.0,209536.0,224192.0,156160.0,57792.0,17392.0
1.5436500310897827,66.0,77840.0,177280.0,196480.0,126000.0,49040.0,15924.0
1.5451666116714478,59.0,76032.0,176000.0,175744.0,130048.0,52112.0,14280.0
1.5466833114624023,53.0,77104.0,144832.0,164672.0,118672.0,42864.0,10956.0
1.548200011253357,40.0,66560.0,122528.0,149056.0,101280.0,40736.0,15764.0
1.5497833490371704,37.0,55888.0,132224.0,128480.0,92880.0,35616.0,8936.0
1.551300048828125,34.0,64816.0,128848.0,114928.0,75792.0,27388.0,11224.0
1.55281662940979,43.0,56368.0,95008.0,112480.0,73280.0,30388.0,9332.0
1.5543333292007446,51.0,55984.0,100368.0,96416.0,46848.0,27356.0,6384.0
1.5558500289916992,54.0,37552.0,72416.0,81808.0,58064.0,25072.0,9136.0
1.5573666095733643,58.0,42272.0,83120.0,78800.0,49536.0,25584.0,4826.0
1.5588833093643188,96.0,41872.0,79888.0,79632.0,49808.0,18448.0,4250.0
1.5604000091552734,101.0,38736.0,52576.0,76960.0,41584.0,26020.0,5733.0
1.561916708946228,50.0,24264.0,51184.0,57232.0,31772.0,25176.0,1399.0
1.563433289527893,31.0,29452.0,54976.0,58864.0,38336.0,14332.0,1750.0
1.5649499893188477,30.0,20256.0,48560.0,66032.0,40640.0,10880.0,6240.0
1.5665333271026611,72.0,22708.0,38000.0,65680.0,37536.0,11992.0,7796.0
1.5680500268936157,88.0,19372.0,46352.0,62432.0,32608.0,12400.0,5225.0
1.5695666074752808,58.0,22980.0,42096.0,47888.0,33824.0,12404.0,2912.0
1.5710833072662354,69.0,19108.0,40224.0,41248.0,25624.0,12404.0,1100.0
1.57260000705719,73.0,15236.0,35680.0,42496.0,21224.0,5590.0,2225.0
1.5741167068481445,22.0,16976.0,36384.0,34480.0,27564.0,11332.0,1367.0
1.5756332874298096,24.0,17988.0,35296.0,34688.0,13520.0,8792.0,510.0
1.5771499872207642,51.0,17372.0,29228.0,28868.0,16780.0,11320.0,2657.0
1.5786666870117188,44.0,17824.0,22872.0,30452.0,19992.0,11724.0,973.0
1.5801833868026733,42.0,12088.0,31640.0,29620.0,21932.0,6516.0,2103.0
1.5816999673843384,39.0,11676.0,27560.0,24144.0,22224.0,8260.0,1667.0
1.5832500457763672,17.0,12692.0,28012.0,30948.0,18292.0,7100.0,2307.0
1.5847833156585693,42.0,9424.0,28260.0,26956.0,21052.0,6891.0,2042.0
1.586316704750061,46.0,13072.0,26952.0,23008.0,14084.0,5463.0,1686.0
1.5878167152404785,22.0,8376.0,33152.0,23752.0,14316.0,3343.0,1330.0
1.5893332958221436,30.0,12540.0,20860.0,24496.0,15896.0,6138.0,2495.0
1.5908499956130981,38.0,10484.0,20748.0,23476.0,14880.0,7532.0,2307.0
1.5923666954040527,39.0,8480.0,22524.0,22456.0,15624.0,9552.0,1815.0
1.5938999652862549,40.0,8904.0,25276.0,24708.0,14688.0,6254.0,2785.0
1.5954166650772095,26.0,9328.0,12360.0,25232.0,12560.0,3680.0,895.0
1.596916675567627,30.0,11128.0,20672.0,20860.0,16040.0,6584.0,1149.0
1.5984333753585815,37.0,12544.0,18192.0,14628.0,13040.0,6973.0,1930.0
1.5999499559402466,34.0,6269.0,19016.0,14892.0,15620.0,5071.0,1634.0
1.60153329372406,31.0,8268.0,21712.0,19488.0,12236.0,6075.0,29.0
1.6030499935150146,41.0,8432.0,10972.0,16544.0,11208.0,4839.0,1231.0
1.6045666933059692,41.0,8600.0,16512.0,20528.0,10212.0,6583.0,62.0
1.6060832738876343,67.0,8916.0,19212.0,18608.0,9916.0,6069.0,1468.0
1.6075999736785889,61.0,9236.0,19936.0,16684.0,9620.0,4952.0,915.0
1.6091166734695435,54.0,8135.0,18324.0,16520.0,10268.0,4289.0,586.0
1.610633373260498,75.0,7035.0,18348.0,14220.0,10916.0,3626.0,256.0
1.612149953842163,38.0,6630.0,14712.0,13452.0,14468.0,3966.0,511.0
1.6136666536331177,58.0,8192.0,20192.0,18784.0,11888.0,3388.0,767.0
1.6151833534240723,35.0,8940.0,17100.0,17052.0,9308.0,2809.0,403.0
1.6167000532150269,62.0,9688.0,16472.0,20076.0,11540.0,4045.0,40.0
1.6182833909988403,35.0,6706.0,13536.0,18204.0,8964.0,2968.0,771.0
1.6197999715805054,20.0,6332.0,18828.0,14888.0,8620.0,4367.0,445.0
1.62131667137146,45.0,8057.0,16296.0,21660.0,8280.0,2871.0,118.0
1.6228333711624146,52.0,3691.0,16444.0,17952.0,8556.0,3546.0,1419.0
1.6243499517440796,31.0,4865.0,14388.0,18016.0,8836.0,4220.0,1639.0
1.6258666515350342,42.0,5032.0,11936.0,15648.0,13080.0,3071.0,1563.0
1.6273833513259888,52.0,7348.0,16048.0,11952.0,12644.0,1922.0,45.0
1.6289000511169434,48.0,5933.0,12740.0,16940.0,6329.0,4373.0,485.0
1.6304166316986084,42.0,4519.0,10256.0,13044.0,6225.0,3798.0,925.0
1.631933331489563,36.0,8488.0,11072.0,9796.0,11024.0,5459.0,815.0
1.6334500312805176,33.0,4388.0,11888.0,11800.0,8232.0,1889.0,743.0
1.635033369064331,29.0,4512.0,11724.0,10064.0,5440.0,4530.0,12.0
1.636549949645996,35.0,4585.0,10524.0,11160.0,8256.0,2942.0,63.0
1.6380666494369507,32.0,4658.0,9328.0,9044.0,8516.0,2277.0,691.0
1.6395833492279053,30.0,6088.0,8388.0,11680.0,7778.0,3649.0,1319.0
1.6411000490188599,36.0,5914.0,7449.0,12540.0,4271.0,3620.0,978.0
1.642616629600525,57.0,5740.0,14172.0,13400.0,10508.0,3712.0,659.0
1.6441333293914795,54.0,6010.0,14368.0,13316.0,6289.0,1696.0,401.0
1.645650029182434,21.0,2430.0,13012.0,9376.0,10256.0,2882.0,203.0
1.6471666097640991,85.0,5600.0,8416.0,14080.0,9160.0,2420.0,5.0
1.6486833095550537,76.0,3621.0,6408.0,11184.0,12568.0,1958.0,510.0
1.6502000093460083,40.0,6730.0,10948.0,10204.0,3710.0,1316.0,64.0
1.6517666578292847,35.0,3808.0,11104.0,5907.0,9176.0,673.0,1008.0
1.6532833576202393,58.0,2390.0,13340.0,6242.0,9500.0,3660.0,657.0
1.6548166275024414,51.0,2433.0,12112.0,6631.0,5443.0,3873.0,918.0
1.6563166379928589,43.0,4149.0,11560.0,7020.0,5581.0,1372.0,392.0
1.6578333377838135,53.0,1703.0,10248.0,7738.0,8928.0,2370.0,1557.0
1.659350037574768,10.0,5392.0,11908.0,8456.0,5934.0,1068.0,1024.0
1.660866618156433,40.0,4426.0,10516.0,11900.0,6345.0,2030.0,490.0
1.6623833179473877,37.0,2757.0,6343.0,11128.0,6597.0,3645.0,1309.0
1.6639000177383423,5.0,4521.0,9092.0,10356.0,6848.0,22.0,29.0
1.6654167175292969,28.0,1981.0,11036.0,6916.0,4980.0,19.0,120.0
1.666933298110962,52.0,2205.0,6106.0,10064.0,3111.0,1528.0,633.0
1.6684833765029907,5.0,4809.0,12608.0,3453.0,7593.0,1432.0,52.0
1.6699999570846558,52.0,2839.0,7592.0,9296.0,6858.0,1337.0,29.0
1.6715166568756104,39.0,2400.0,4126.0,9052.0,4543.0,2303.0,800.0
1.673033356666565,25.0,1960.0,9360.0,6433.0,3849.0,2171.0,21.0
1.6745500564575195,34.0,1707.0,6301.0,6724.0,7383.0,2971.0,26.0
1.6760666370391846,11.0,6476.0,5952.0,6435.0,4509.0,2254.0,70.0
1.6775833368301392,41.0,5788.0,3902.0,6146.0,6512.0,1204.0,542.0
1.6791000366210938,26.0,3626.0,5989.0,8248.0,6465.0,2511.0,646.0
1.6806166172027588,47.0,2948.0,4059.0,8488.0,4426.0,3356.0,592.0
1.6821333169937134,31.0,2270.0,7070.0,8728.0,6739.0,603.0,307.0
1.683650016784668,32.0,2908.0,9544.0,5766.0,4654.0,314.0,22.0
1.6852333545684814,33.0,2592.0,9704.0,10596.0,5036.0,25.0,203.0
1.686750054359436,22.0,2275.0,5028.0,10164.0,2491.0,622.0,115.0
1.688266634941101,39.0,4196.0,7383.0,7669.0,2583.0,1219.0,27.0
1.6897833347320557,19.0,3687.0,4527.0,6646.0,2675.0,1413.0,22.0
1.6913000345230103,5.0,2111.0,3938.0,6617.0,3707.0,995.0,17.0
1.6928166151046753,18.0,1482.0,4581.0,6381.0,7167.0,578.0,637.0
1.6943333148956299,56.0,3805.0,4685.0,6144.0,7154.0,4437.0,347.0
1.6958500146865845,44.0,4627.0,7954.0,7372.0,4282.0,5609.0,57.0
1.697366714477539,37.0,3307.0,8928.0,4743.0,4968.0,2467.0,50.0
1.698883295059204,10.0,3033.0,5401.0,5358.0,3663.0,1351.0,44.0
1.7003999948501587,45.0,2759.0,3071.0,5973.0,3324.0,2742.0,88.0
1.7019833326339722,41.0,1057.0,7936.0,6211.0,4063.0,2619.0,59.0
1.7035000324249268,23.0,2406.0,6772.0,5330.0,4863.0,1880.0,30.0
1.7050166130065918,35.0,2284.0,5978.0,3971.0,5663.0,1153.0,30.0
1.7065333127975464,26.0,394.0,7878.0,2612.0,4758.0,3443.0,13.0
1.708050012588501,12.0,1604.0,3190.0,5751.0,2810.0,2380.0,269.0
1.7095667123794556,0.0,2490.0,2339.0,6745.0,3500.0,1317.0,145.0
1.7110832929611206,15.0,3376.0,5310.0,8584.0,1774.0,2387.0,20.0
1.7125999927520752,29.0,2695.0,3287.0,6106.0,3649.0,3275.0,27.0
1.7141166925430298,74.0,1859.0,2770.0,3741.0,3611.0,2714.0,33.0
1.7156333923339844,62.0,3789.0,2254.0,5875.0,6459.0,2308.0,46.0
1.7171499729156494,16.0,3256.0,3149.0,7493.0,5212.0,3805.0,59.0
1.7187000513076782,62.0,2722.0,4045.0,6022.0,1054.0,738.0,438.0
1.7202333211898804,80.0,2613.0,4037.0,3009.0,5073.0,2777.0,407.0
1.721750020980835,55.0,4198.0,4029.0,1716.0,0.0,1492.0,376.0
1.7232667207717896,78.0,4205.0,3577.0,3719.0,3504.0,363.0,1869.0
1.7247833013534546,35.0,1782.0,5758.0,3393.0,2588.0,3185.0,1517.0
1.7263166904449463,21.0,2964.0,5592.0,3067.0,2650.0,2562.0,28.0
1.7278333902359009,69.0,4452.0,6989.0,3245.0,2713.0,2310.0,48.0
1.7293332815170288,16.0,2937.0,1209.0,3422.0,1261.0,36.0,27.0
1.7308499813079834,31.0,4966.0,1960.0,4312.0,3213.0,975.0,236.0
1.732366681098938,31.0,3490.0,5855.0,5201.0,2761.0,1596.0,508.0
1.7338833808898926,21.0,4358.0,4726.0,5425.0,2308.0,41.0,780.0
1.7353999614715576,24.0,3966.0,2879.0,5650.0,2505.0,1474.0,605.0
1.736983299255371,26.0,1433.0,6557.0,5663.0,2701.0,56.0,247.0
1.7384999990463257,27.0,2109.0,5714.0,3486.0,2176.0,3059.0,140.0
1.7400166988372803,38.0,1962.0,6670.0,5398.0,3475.0,2258.0,468.0
1.7415332794189453,28.0,1815.0,6198.0,3882.0,4208.0,895.0,796.0
1.7430499792099,18.0,1491.0,5727.0,2054.0,4941.0,2491.0,809.0
1.7445666790008545,39.0,1410.0,5432.0,4458.0,4598.0,3136.0,36.0
1.746083378791809,25.0,1329.0,6289.0,4367.0,4255.0,2296.0,861.0
1.7475999593734741,10.0,2345.0,6105.0,6312.0,827.0,1456.0,22.0
1.7491166591644287,33.0,2419.0,6108.0,4648.0,2576.0,267.0,43.0
1.7506333589553833,33.0,2493.0,2732.0,3362.0,1498.0,518.0,54.0
1.752150058746338,23.0,1454.0,2482.0,3387.0,2344.0,1288.0,56.0
1.7537332773208618,31.0,2661.0,2320.0,3119.0,3260.0,732.0,58.0
1.7552499771118164,54.0,1661.0,2157.0,4014.0,2694.0,1003.0,10.0
1.756766676902771,50.0,1445.0,3316.0,4909.0,4129.0,1275.0,20.0
1.7582833766937256,35.0,736.0,3109.0,5137.0,4215.0,990.0,10.0
1.7597999572753906,9.0,27.0,2901.0,5364.0,2457.0,704.0,48.0
1.7613166570663452,20.0,1194.0,4254.0,6687.0,945.0,923.0,1143.0
1.7628333568572998,30.0,567.0,3573.0,2700.0,5028.0,1141.0,877.0
1.7643500566482544,21.0,1516.0,2892.0,4647.0,2654.0,906.0,24.0
1.7658666372299194,11.0,1369.0,2525.0,1719.0,3264.0,671.0,24.0
1.767383337020874,22.0,3335.0,1692.0,3844.0,4883.0,978.0,15.0
1.7689000368118286,32.0,3190.0,2548.0,3447.0,3882.0,1285.0,53.0
1.770466685295105,32.0,2236.0,3404.0,2983.0,2882.0,899.0,46.0
1.7719833850860596,15.0,946.0,4341.0,2518.0,5383.0,513.0,39.0
1.7734999656677246,69.0,1033.0,3845.0,2566.0,3547.0,1087.0,43.0
1.7750166654586792,68.0,1396.0,3554.0,2615.0,2599.0,921.0,47.0
1.7765333652496338,5.0,1758.0,2891.0,2306.0,2822.0,18.0,20.0
1.7780499458312988,5.0,2125.0,3329.0,1997.0,2893.0,28.0,35.0
1.7795666456222534,45.0,1658.0,4149.0,3826.0,2965.0,900.0,1353.0
1.7811000347137451,48.0,1907.0,2312.0,3790.0,3568.0,1850.0,1641.0
1.7826000452041626,27.0,2936.0,2827.0,3803.0,1434.0,1622.0,659.0
1.7841166257858276,27.0,3966.0,3848.0,3817.0,3069.0,1507.0,330.0
1.7856333255767822,48.0,3202.0,3579.0,3445.0,597.0,42.0,0.0
1.7872166633605957,36.0,1228.0,3309.0,1666.0,2634.0,1329.0,535.0
1.7887333631515503,24.0,1031.0,3048.0,5630.0,3949.0,1924.0,42.0
1.7902499437332153,20.0,771.0,2787.0,4912.0,2510.0,1773.0,45.0
1.79176664352417,46.0,1061.0,3977.0,4934.0,1547.0,1136.0,47.0
1.7932833433151245,32.0,1351.0,4063.0,1395.0,1624.0,5.0,284.0
1.794800043106079,17.0,728.0,4148.0,3306.0,1412.0,1348.0,521.0
1.7963166236877441,38.0,104.0,1597.0,3586.0,927.0,1368.0,271.0
1.7978333234786987,45.0,1294.0,2975.0,4205.0,441.0,61.0,20.0
1.7993500232696533,38.0,1738.0,2655.0,3714.0,2602.0,81.0,53.0
1.800866723060608,32.0,483.0,2716.0,3223.0,2173.0,550.0,22.0
1.802383303642273,27.0,1016.0,3457.0,3026.0,3605.0,289.0,38.0
1.8039666414260864,22.0,2953.0,1646.0,3989.0,3430.0,28.0,27.0
1.805483341217041,59.0,2713.0,2769.0,2812.0,3256.0,13.0,36.0
1.8070000410079956,70.0,1573.0,3892.0,3864.0,2207.0,0.0,20.0
1.8085166215896606,28.0,21.0,2533.0,4916.0,1072.0,290.0,33.0
1.8100333213806152,5.0,836.0,2663.0,1813.0,867.0,268.0,34.0
1.8115500211715698,13.0,432.0,3306.0,1742.0,2001.0,246.0,27.0
1.8130667209625244,44.0,29.0,4068.0,2481.0,993.0,125.0,20.0
1.8145833015441895,63.0,491.0,347.0,2248.0,2888.0,5.0,29.0
1.816100001335144,39.0,953.0,4011.0,2015.0,2745.0,633.0,27.0
1.8176167011260986,26.0,742.0,4382.0,2216.0,2602.0,1008.0,38.0
1.8191332817077637,41.0,1656.0,4672.0,2607.0,2698.0,1383.0,10.0
1.8207166194915771,5.0,1756.0,3239.0,538.0,1652.0,1588.0,33.0
1.8222333192825317,10.0,890.0,3397.0,2507.0,606.0,1737.0,44.0
1.8237500190734863,39.0,772.0,3556.0,4766.0,2849.0,696.0,56.0
1.825266718864441,58.0,4637.0,3545.0,3224.0,3996.0,671.0,34.0
1.826783299446106,51.0,4577.0,5568.0,2655.0,2480.0,235.0,17.0
1.8282999992370605,44.0,1514.0,5387.0,5921.0,3874.0,422.0,23.0
1.8298166990280151,39.0,52.0,1817.0,5010.0,1845.0,609.0,1450.0
1.8313332796096802,10.0,992.0,897.0,2623.0,3422.0,821.0,1335.0
1.8328499794006348,50.0,2327.0,1852.0,3321.0,2082.0,1033.0,39.0
1.8343666791915894,45.0,2000.0,1609.0,4845.0,1412.0,839.0,0.0
1.835883378982544,33.0,1880.0,1052.0,5357.0,743.0,646.0,10.0
1.8374333381652832,40.0,70.0,2005.0,3971.0,1815.0,697.0,10.0
1.8389666080474854,30.0,2034.0,1509.0,2585.0,1475.0,1001.0,10.0
1.84048330783844,20.0,1274.0,1013.0,3755.0,2226.0,1075.0,10.0
1.8420000076293945,31.0,395.0,1878.0,832.0,2878.0,1150.0,10.0
1.8435167074203491,30.0,473.0,1115.0,3364.0,2797.0,448.0,8.0
1.8450332880020142,29.0,687.0,353.0,1382.0,2055.0,985.0,7.0
1.8465499877929688,30.0,901.0,3650.0,3776.0,806.0,1040.0,11.0
1.8480666875839233,30.0,821.0,2975.0,1819.0,3213.0,1094.0,575.0
1.849583387374878,31.0,17.0,2301.0,1919.0,2447.0,457.0,1138.0
1.851099967956543,31.0,862.0,4324.0,566.0,3018.0,8.0,872.0
1.8526166677474976,27.0,686.0,1730.0,1614.0,939.0,647.0,31.0
1.8541333675384521,0.0,510.0,1892.0,4025.0,1275.0,5.0,27.0
1.8557167053222656,49.0,630.0,2886.0,4309.0,1070.0,410.0,26.0
1.8572332859039307,35.0,750.0,4450.0,1914.0,1611.0,22.0,380.0
1.8587499856948853,20.0,398.0,4520.0,2679.0,1707.0,91.0,197.0
1.8602666854858398,40.0,47.0,2055.0,2797.0,1953.0,1173.0,15.0
1.8617833852767944,25.0,1888.0,5950.0,1705.0,479.0,591.0,10.0
1.8632999658584595,10.0,1935.0,2669.0,613.0,1738.0,10.0,37.0
1.864816665649414,8.0,1982.0,2126.0,4119.0,2159.0,1525.0,35.0
1.8663333654403687,7.0,793.0,3721.0,3127.0,2580.0,1559.0,621.0
1.8678499460220337,26.0,2121.0,3473.0,2761.0,910.0,445.0,687.0
1.8693666458129883,47.0,862.0,1856.0,2395.0,1393.0,866.0,753.0
1.8708833456039429,39.0,898.0,4166.0,3264.0,1429.0,7.0,44.0
1.8724666833877563,31.0,934.0,1753.0,4133.0,1465.0,1134.0,21.0
1.873983383178711,35.0,1303.0,849.0,1001.0,1105.0,1745.0,364.0
1.875499963760376,39.0,1673.0,1482.0,748.0,745.0,29.0,23.0
1.8770166635513306,45.0,2159.0,1732.0,2258.0,1216.0,1255.0,20.0
1.8785333633422852,36.0,28.0,1690.0,2075.0,1687.0,453.0,163.0
1.8800499439239502,27.0,232.0,1647.0,3474.0,1530.0,838.0,21.0
1.8815666437149048,31.0,1386.0,2117.0,2643.0,1978.0,1223.0,5.0
1.8830833435058594,34.0,987.0,2586.0,2456.0,1738.0,908.0,277.0
1.884600043296814,43.0,1280.0,2432.0,3613.0,1498.0,1090.0,149.0
1.886116623878479,45.0,1905.0,1511.0,3190.0,1607.0,1544.0,21.0
1.8876333236694336,22.0,2529.0,1462.0,2766.0,67.0,786.0,21.0
1.88919997215271,42.0,0.0,820.0,1648.0,1257.0,28.0,25.0
1.8907166719436646,23.0,872.0,178.0,3156.0,2447.0,46.0,225.0
1.8922333717346191,16.0,30.0,3098.0,556.0,1634.0,1253.0,358.0
1.8937499523162842,24.0,1054.0,3674.0,3724.0,2065.0,2590.0,491.0
1.8952833414077759,24.0,385.0,2542.0,3864.0,991.0,2417.0,45.0
1.8967833518981934,66.0,581.0,1476.0,2765.0,1891.0,458.0,96.0
1.898300051689148,78.0,304.0,1344.0,3059.0,2695.0,91.0,71.0
1.899816632270813,56.0,27.0,1757.0,3189.0,5.0,493.0,34.0
1.9013333320617676,96.0,899.0,1758.0,3319.0,470.0,686.0,14.0
1.9028500318527222,24.0,637.0,1759.0,2832.0,2296.0,357.0,283.0
1.9043833017349243,37.0,375.0,1535.0,2344.0,1962.0,29.0,553.0
1.9059499502182007,51.0,407.0,1580.0,4873.0,16.0,1064.0,285.0
1.9074666500091553,36.0,440.0,1735.0,5076.0,4095.0,1358.0,17.0
1.9089833498001099,7.0,1447.0,1891.0,6015.0,2396.0,0.0,17.0
1.9105000495910645,64.0,1418.0,2866.0,3195.0,4271.0,18.0,39.0
1.9120166301727295,58.0,2338.0,2861.0,1499.0,2410.0,35.0,20.0
1.913533329963684,73.0,57.0,2856.0,3958.0,1518.0,25.0,0.0
1.9150500297546387,35.0,1248.0,522.0,3449.0,2246.0,193.0,22.0
1.9165666103363037,26.0,1549.0,3187.0,2611.0,32.0,114.0,27.0
1.9180833101272583,15.0,217.0,814.0,3324.0,507.0,36.0,29.0
1.919600009918213,5.0,1234.0,1404.0,4712.0,981.0,417.0,31.0
1.9211167097091675,12.0,33.0,2766.0,553.0,2450.0,371.0,33.0
1.9226833581924438,20.0,106.0,1885.0,537.0,1494.0,325.0,10.0
1.9242000579833984,15.0,178.0,1005.0,3582.0,539.0,327.0,17.0
1.9257333278656006,10.0,23.0,670.0,1593.0,1317.0,329.0,17.0
1.9272500276565552,5.0,313.0,335.0,40.0,1948.0,385.0,47.0
1.9287500381469727,15.0,483.0,2361.0,203.0,92.0,442.0,77.0
1.9302666187286377,22.0,654.0,1997.0,2139.0,1361.0,242.0,63.0
1.9317833185195923,28.0,3072.0,3382.0,2124.0,2689.0,42.0,50.0
1.9333000183105469,5.0,2834.0,3214.0,1861.0,1435.0,551.0,31.0
1.9348167181015015,16.0,680.0,1299.0,1889.0,1283.0,289.0,41.0
1.9363332986831665,28.0,32.0,881.0,1916.0,1296.0,27.0,50.0
1.937849998474121,10.0,1885.0,2712.0,36.0,1296.0,43.0,37.0
1.9394333362579346,5.0,1340.0,2050.0,4299.0,1296.0,36.0,24.0
1.9409500360488892,22.0,425.0,2549.0,3796.0,154.0,20.0,43.0
1.9424666166305542,22.0,2690.0,1919.0,1125.0,1948.0,44.0,37.0
1.9439833164215088,28.0,113.0,2455.0,2209.0,2243.0,37.0,31.0
1.9455000162124634,28.0,29.0,2991.0,2055.0,1818.0,536.0,25.0
1.947016716003418,28.0,980.0,2164.0,2469.0,1394.0,585.0,10.0
1.948533296585083,27.0,29.0,1337.0,2434.0,18.0,22.0,44.0
1.9500499963760376,18.0,132.0,1576.0,2399.0,2156.0,27.0,36.0
1.9515666961669922,10.0,235.0,1596.0,681.0,2875.0,16.0,258.0
1.9530832767486572,7.0,131.0,1099.0,129.0,10.0,5.0,145.0
1.9545999765396118,5.0,27.0,3793.0,2088.0,1131.0,54.0,32.0
1.9561500549316406,10.0,239.0,4255.0,1747.0,706.0,1153.0,20.0
1.9576666355133057,16.0,451.0,3067.0,3181.0,40.0,666.0,23.0
1.9591833353042603,21.0,368.0,3120.0,1895.0,686.0,178.0,587.0
1.9607000350952148,18.0,284.0,2908.0,3087.0,1332.0,972.0,691.0
1.962233304977417,8.0,33.0,420.0,3469.0,2172.0,23.0,365.0
1.9637500047683716,0.0,1952.0,1070.0,1550.0,1827.0,1340.0,38.0
1.9652667045593262,8.0,1606.0,2534.0,4355.0,2257.0,1055.0,31.0
1.9667667150497437,16.0,29.0,761.0,772.0,776.0,2096.0,35.0
1.9682832956314087,42.0,333.0,1076.0,3216.0,2455.0,68.0,215.0
1.9697999954223633,42.0,5.0,556.0,2819.0,1590.0,1118.0,137.0
1.9713166952133179,34.0,39.0,36.0,534.0,1269.0,49.0,58.0
1.9728833436965942,19.0,1723.0,2027.0,1281.0,668.0,871.0,43.0
1.9743833541870117,10.0,1536.0,1286.0,3861.0,2281.0,1486.0,28.0
1.9759000539779663,33.0,672.0,546.0,2433.0,2039.0,181.0,21.0
1.9774333238601685,32.0,953.0,990.0,1703.0,2366.0,804.0,35.0
1.978933334350586,31.0,1143.0,1639.0,3589.0,1716.0,710.0,33.0
1.9804500341415405,39.0,286.0,1391.0,2161.0,1479.0,617.0,55.0
1.9819833040237427,5.0,19.0,1144.0,1551.0,1976.0,50.0,33.0
1.9835000038146973,5.0,910.0,1577.0,1600.0,310.0,1179.0,12.0
1.9850167036056519,5.0,1789.0,2011.0,1650.0,875.0,1413.0,27.0
1.9865167140960693,9.0,1566.0,1836.0,1671.0,1257.0,498.0,21.0
1.9880332946777344,21.0,89.0,1662.0,858.0,1744.0,40.0,15.0
1.9895833730697632,45.0,464.0,1107.0,45.0,1034.0,858.0,18.0
1.9910999536514282,61.0,856.0,1570.0,54.0,886.0,0.0,20.0
1.9926166534423828,48.0,18.0,1087.0,854.0,739.0,20.0,5.0
1.9941333532333374,20.0,1117.0,719.0,12.0,19.0,40.0,31.0
1.995650053024292,6.0,769.0,351.0,949.0,366.0,59.0,31.0
1.997166633605957,15.0,1053.0,2620.0,1139.0,646.0,36.0,31.0
1.9986833333969116,12.0,1038.0,1920.0,975.0,337.0,13.0,28.0
2.000200033187866,42.0,1022.0,1219.0,1637.0,28.0,520.0,25.0
2.0017166137695312,38.0,1553.0,2061.0,1521.0,861.0,274.0,15.0
2.0032334327697754,23.0,1334.0,461.0,1066.0,628.0,28.0,44.0
2.0047500133514404,49.0,1114.0,2459.0,4036.0,542.0,34.0,51.0
2.006316661834717,0.0,917.0,1836.0,3630.0,455.0,17.0,36.0
2.007849931716919,64.0,1784.0,1224.0,1837.0,548.0,10.0,24.0
2.009366750717163,81.0,1261.0,611.0,2464.0,640.0,19.0,47.0
2.010883331298828,45.0,738.0,1760.0,3238.0,784.0,28.0,28.0
2.012399911880493,57.0,383.0,519.0,50.0,65.0,1367.0,10.0
2.0139167308807373,47.0,28.0,1475.0,1764.0,487.0,1728.0,26.0
2.0154333114624023,25.0,640.0,2041.0,4120.0,909.0,699.0,0.0
2.0169498920440674,31.0,331.0,1269.0,1842.0,927.0,1217.0,27.0
2.0184667110443115,32.0,22.0,798.0,1793.0,945.0,26.0,26.0
2.0199832916259766,22.0,410.0,620.0,504.0,41.0,1255.0,25.0
2.0215001106262207,12.0,207.0,2051.0,1914.0,3375.0,513.0,10.0
2.0230166912078857,20.0,5.0,2000.0,1644.0,3740.0,10.0,6.0
2.024600028991699,20.0,17.0,1949.0,2426.0,877.0,16.0,31.0
2.0261166095733643,15.0,29.0,2476.0,793.0,1455.0,40.0,21.0
2.0276334285736084,7.0,31.0,28.0,1997.0,2518.0,38.0,10.0
2.0291500091552734,0.0,34.0,3134.0,1835.0,219.0,36.0,5.0
2.0306665897369385,14.0,505.0,2308.0,444.0,732.0,20.0,0.0
2.0321834087371826,27.0,1709.0,51.0,1129.0,10.0,0.0,0.0
2.0336999893188477,17.0,1528.0,2233.0,1813.0,4012.0,62.0,0.0
2.0352165699005127,7.0,13.0,3696.0,1730.0,5105.0,1676.0,5.0
2.036733388900757,45.0,1720.0,1263.0,1574.0,2208.0,1319.0,2.0
2.038249969482422,40.0,1700.0,3879.0,672.0,1019.0,33.0,0.0
2.039766550064087,31.0,1166.0,17.0,1046.0,4130.0,18.0,41.0
2.0413334369659424,22.0,1452.0,1115.0,1082.0,29.0,47.0,54.0
2.0428500175476074,53.0,1610.0,3122.0,1119.0,2691.0,26.0,13.0
2.0443665981292725,32.0,1767.0,1168.0,767.0,2960.0,13.0,12.0
2.0458834171295166,10.0,595.0,1910.0,415.0,0.0,17.0,11.0
2.0474166870117188,39.0,582.0,2417.0,716.0,40.0,21.0,17.0
2.0489165782928467,39.0,765.0,2163.0,1017.0,765.0,18.0,19.0
2.050433397293091,39.0,8.0,392.0,894.0,304.0,14.0,11.0
2.051949977874756,18.0,15.0,1036.0,770.0,530.0,5.0,41.0
2.053466558456421,8.0,31.0,45.0,1866.0,292.0,12.0,23.0
2.054983377456665,35.0,0.0,35.0,1904.0,54.0,19.0,5.0
2.05649995803833,14.0,306.0,24.0,2621.0,1300.0,14.0,53.0
2.0580832958221436,61.0,623.0,939.0,2875.0,663.0,10.0,19.0
2.0596001148223877,59.0,940.0,2094.0,3161.0,26.0,24.0,21.0
2.0611166954040527,35.0,774.0,1588.0,1852.0,481.0,37.0,19.0
2.0626332759857178,41.0,607.0,1398.0,1856.0,936.0,37.0,20.0
2.064150094985962,42.0,737.0,1537.0,3105.0,2073.0,37.0,41.0
2.065666675567627,6.0,25.0,2297.0,1074.0,1729.0,735.0,268.0
2.067183256149292,27.0,795.0,1734.0,11.0,1010.0,487.0,137.0
2.068700075149536,35.0,898.0,1170.0,1519.0,290.0,240.0,5.0
2.070216655731201,39.0,1001.0,1251.0,3779.0,2196.0,32.0,24.0
2.071733236312866,27.0,727.0,1335.0,3649.0,530.0,515.0,0.0
2.0732500553131104,14.0,851.0,1490.0,1662.0,2420.0,611.0,2.0
2.074833393096924,26.0,1086.0,1083.0,1398.0,11.0,18.0,5.0
2.076349973678589,27.0,43.0,677.0,951.0,1593.0,341.0,30.0
2.077866554260254,29.0,72.0,959.0,911.0,416.0,663.0,48.0
2.079383373260498,27.0,1219.0,731.0,1641.0,682.0,155.0,37.0
2.080899953842163,17.0,66.0,502.0,1560.0,18.0,514.0,27.0
2.0824167728424072,18.0,1427.0,1077.0,1578.0,1533.0,11.0,29.0
2.0839333534240723,18.0,42.0,51.0,1007.0,1860.0,13.0,22.0
2.0854499340057373,11.0,16.0,1278.0,793.0,2150.0,11.0,44.0
2.0869667530059814,8.0,15.0,1686.0,2118.0,1556.0,34.0,5.0
2.0884833335876465,17.0,12.0,2258.0,1713.0,812.0,24.0,11.0
2.0899999141693115,17.0,10.0,801.0,1307.0,854.0,14.0,18.0
2.091566562652588,17.0,782.0,1221.0,207.0,1493.0,18.0,10.0
2.093083381652832,15.0,981.0,2709.0,1402.0,764.0,22.0,33.0
2.094599962234497,16.0,504.0,8.0,1633.0,34.0,40.0,31.0
2.096116781234741,17.0,695.0,1064.0,520.0,16.0,43.0,24.0
2.0976333618164062,25.0,886.0,1579.0,1131.0,541.0,46.0,17.0
2.0991666316986084,33.0,1213.0,1441.0,1742.0,1066.0,27.0,16.0
2.1015501022338867,5.0,19.0,660.0,894.0,1508.0,84.0,23.0
2.103933334350586,27.0,805.0,1685.0,1561.0,887.0,888.0,31.0
2.106316566467285,25.0,74.0,1842.0,2781.0,1117.0,1049.0,0.0
2.1087167263031006,23.0,64.0,1583.0,3554.0,1347.0,814.0,32.0
2.1110999584198,20.0,54.0,1324.0,2205.0,1146.0,501.0,1298.0
2.113483428955078,17.0,460.0,1407.0,3569.0,2023.0,798.0,1219.0
2.1158666610717773,126.0,371.0,1591.0,3733.0,2900.0,1095.0,2141.0
2.1182498931884766,343.0,282.0,1427.0,3898.0,2535.0,1355.0,2017.0
2.120633363723755,179.0,625.0,1264.0,5138.0,2527.0,1121.0,1893.0
2.123016595840454,15.0,15.0,1200.0,7087.0,5409.0,887.0,1413.0
2.1254665851593018,103.0,910.0,482.0,9272.0,6223.0,13.0,1599.0
2.12785005569458,191.0,733.0,1239.0,9064.0,6169.0,475.0,1785.0
2.1302332878112793,189.0,545.0,3544.0,8856.0,6115.0,937.0,1836.0
2.1326167583465576,15.0,356.0,3821.0,8412.0,5637.0,474.0,2744.0
2.134999990463257,32.0,727.0,1224.0,7972.0,6540.0,10.0,4354.0
2.137383222579956,49.0,718.0,1727.0,14480.0,7443.0,4614.0,8948.0
2.1397666931152344,217.0,710.0,4903.0,13120.0,11840.0,6477.0,9020.0
2.142216682434082,108.0,660.0,3283.0,11764.0,15820.0,3576.0,6833.0
2.1445999145507812,0.0,812.0,5768.0,14404.0,12184.0,2571.0,4460.0
2.1469833850860596,20.0,225.0,584.0,13280.0,11628.0,2103.0,8029.0
2.149366617202759,39.0,185.0,4837.0,12160.0,11072.0,3732.0,8352.0
2.151750087738037,548.0,145.0,5785.0,14612.0,12692.0,4057.0,1446.0
2.1541333198547363,301.0,23.0,3508.0,17068.0,10432.0,3865.0,4375.0
2.1565165519714355,55.0,494.0,3136.0,17216.0,4226.0,4512.0,4544.0
2.1589667797088623,96.0,406.0,4452.0,19316.0,9524.0,3067.0,6999.0
2.1613500118255615,136.0,319.0,2832.0,12736.0,7491.0,3405.0,6278.0
2.1637332439422607,193.0,362.0,4162.0,17236.0,9460.0,3512.0,5558.0
2.166116714477539,250.0,406.0,4602.0,18552.0,8760.0,1828.0,2687.0
2.1684999465942383,770.0,434.0,1842.0,20276.0,11232.0,2480.0,6778.0
2.1708834171295166,1291.0,461.0,3198.0,20568.0,10624.0,1916.0,4616.0
2.173266649246216,752.0,643.0,4265.0,13848.0,10016.0,1352.0,4118.0
2.1756832599639893,212.0,707.0,3244.0,20956.0,2776.0,2158.0,5199.0
2.178100109100342,1632.0,992.0,2222.0,17136.0,14632.0,1641.0,3125.0
2.180483341217041,120.0,1076.0,4459.0,14484.0,7851.0,924.0,4667.0
2.1828665733337402,21.0,1159.0,2778.0,12116.0,13564.0,3705.0,6210.0
2.1852500438690186,680.0,71.0,2890.0,13340.0,12828.0,2062.0,2844.0
2.1876332759857178,15.0,27.0,3912.0,14560.0,10784.0,419.0,5906.0
2.190016746520996,283.0,1067.0,1816.0,14648.0,14084.0,1818.0,6608.0
2.1923999786376953,551.0,1796.0,1800.0,14640.0,6837.0,1394.0,5621.0
2.1948165893554688,751.0,1060.0,1784.0,14628.0,9180.0,971.0,7173.0
2.197200059890747,950.0,1255.0,1262.0,15280.0,12580.0,5449.0,7138.0
2.1995832920074463,516.0,768.0,741.0,15936.0,10672.0,4346.0,4053.0
2.2019667625427246,82.0,11.0,4365.0,14616.0,10380.0,2636.0,4184.0
2.204349994659424,423.0,465.0,3560.0,13300.0,9908.0,2360.0,5301.0
2.206733226776123,765.0,1880.0,3680.0,15844.0,8952.0,2401.0,4299.0
2.2091166973114014,427.0,2199.0,3228.0,17656.0,7996.0,3748.0,3297.0
2.211533308029175,356.0,1800.0,1547.0,22016.0,8820.0,4147.0,6237.0
2.213916778564453,198.0,1026.0,3097.0,20296.0,9740.0,4546.0,6974.0
2.2163000106811523,39.0,1698.0,1218.0,20160.0,10660.0,3539.0,6390.0
2.2186832427978516,126.0,1785.0,3010.0,14992.0,10000.0,3824.0,4949.0
2.22106671333313,213.0,2124.0,3130.0,19012.0,12952.0,3490.0,3536.0
2.223449945449829,212.0,20.0,919.0,13100.0,6874.0,18.0,4789.0
2.2258334159851074,211.0,310.0,2730.0,16808.0,6273.0,2294.0,3032.0
2.228250026702881,29.0,1364.0,3295.0,14344.0,4056.0,1137.0,3183.0
2.23063325881958,25.0,0.0,1996.0,10928.0,7246.0,1100.0,3597.0
2.2330167293548584,301.0,870.0,2572.0,8368.0,5391.0,2876.0,474.0
2.2353999614715576,165.0,1115.0,2260.0,8232.0,2536.0,3306.0,4222.0
2.237783432006836,29.0,644.0,483.0,8204.0,3691.0,2582.0,485.0
2.240166664123535,26.0,332.0,774.0,8496.0,4288.0,72.0,2629.0
2.2425498962402344,13.0,19.0,1873.0,8628.0,857.0,10.0,492.0
2.244966745376587,0.0,27.0,2305.0,9700.0,2960.0,2072.0,1188.0
2.247349977493286,878.0,35.0,2090.0,5338.0,1457.0,913.0,598.0
2.2497334480285645,786.0,11.0,1953.0,4726.0,2017.0,2356.0,21.0
2.2521166801452637,1854.0,270.0,1742.0,5770.0,1256.0,1725.0,58.0
2.254499912261963,1341.0,137.0,1294.0,3808.0,496.0,1787.0,94.0
2.256883382797241,564.0,5.0,20.0,3719.0,308.0,1462.0,17.0
2.2592666149139404,1714.0,17.0,1051.0,3270.0,1112.0,17.0,46.0
2.261683225631714,2301.0,30.0,213.0,5746.0,894.0,30.0,55.0
2.264066696166992,560.0,204.0,407.0,764.0,675.0,498.0,49.0
2.2664499282836914,642.0,379.0,820.0,1254.0,675.0,252.0,43.0
2.2688333988189697,32.0,511.0,713.0,463.0,674.0,6.0,43.0
2.271216630935669,1398.0,643.0,607.0,747.0,1218.0,24.0,42.0
2.2736001014709473,1458.0,343.0,18.0,1349.0,1072.0,20.0,20.0
2.2759833335876465,1517.0,43.0,24.0,1950.0,926.0,16.0,33.0
2.27839994430542,1747.0,10.0,31.0,1710.0,392.0,11.0,107.0
2.2807834148406982,1885.0,18.0,32.0,1578.0,10.0,16.0,95.0
2.2831666469573975,2022.0,513.0,1375.0,1507.0,491.0,12.0,83.0
2.285550117492676,1756.0,499.0,1072.0,1124.0,253.0,7.0,43.0
2.287933349609375,1490.0,1985.0,769.0,740.0,15.0,0.0,44.0
2.290316581726074,2858.0,2133.0,21.0,1001.0,653.0,594.0,41.0
2.2927000522613525,2235.0,25.0,759.0,2263.0,5.0,457.0,54.0
2.295116662979126,1612.0,491.0,765.0,2064.0,26.0,398.0,55.0
2.297499895095825,1472.0,42.0,1322.0,840.0,1818.0,338.0,55.0
2.2998833656311035,1270.0,23.0,19.0,2155.0,1845.0,33.0,12.0
2.3022665977478027,1203.0,24.0,1378.0,2025.0,1290.0,8.0,25.0
2.304650068283081,1487.0,26.0,1786.0,14.0,19.0,241.0,5.0
2.3070333003997803,1771.0,37.0,2194.0,539.0,615.0,295.0,9.0
2.3094167709350586,3153.0,47.0,902.0,70.0,291.0,26.0,13.0
2.311833381652832,2662.0,55.0,1417.0,725.0,179.0,394.0,17.0
2.3142166137695312,2441.0,62.0,1199.0,1380.0,68.0,208.0,20.0
2.3166000843048096,2864.0,1394.0,1563.0,1563.0,0.0,22.0,43.0
2.318983316421509,2392.0,1391.0,486.0,797.0,61.0,537.0,41.0
2.321366548538208,2566.0,946.0,298.0,32.0,122.0,22.0,39.0
2.3237500190734863,2032.0,135.0,987.0,816.0,72.0,72.0,27.0
2.3261332511901855,600.0,62.0,163.0,48.0,21.0,45.0,16.0
2.328550100326538,601.0,248.0,52.0,97.0,32.0,93.0,37.0
2.3309333324432373,507.0,178.0,900.0,73.0,63.0,75.0,37.0
2.3333165645599365,738.0,109.0,111.0,49.0,94.0,57.0,61.0
2.335700035095215,122.0,95.0,114.0,70.0,158.0,49.0,63.0
2.338083267211914,1015.0,57.0,292.0,143.0,221.0,76.0,56.0
2.3404667377471924,586.0,1146.0,179.0,138.0,168.0,103.0,50.0
2.3428499698638916,233.0,1119.0,87.0,132.0,104.0,93.0,67.0
2.345266580581665,173.0,161.0,305.0,145.0,118.0,83.0,94.0
2.3476500511169434,198.0,177.0,180.0,158.0,123.0,59.0,120.0
2.3500332832336426,223.0,145.0,131.0,111.0,76.0,36.0,118.0
2.352416753768921,224.0,98.0,110.0,64.0,153.0,92.0,47.0
2.35479998588562,238.0,143.0,119.0,615.0,111.0,140.0,87.0
2.3571832180023193,209.0,168.0,128.0,405.0,682.0,123.0,135.0
2.3595666885375977,179.0,192.0,154.0,195.0,936.0,108.0,73.0
2.361983299255371,298.0,172.0,172.0,168.0,1584.0,114.0,66.0
2.3643667697906494,255.0,151.0,190.0,141.0,1511.0,124.0,58.0
2.3667500019073486,212.0,913.0,172.0,533.0,867.0,133.0,73.0
2.369133234024048,173.0,1170.0,154.0,309.0,95.0,124.0,72.0
2.371516704559326,215.0,160.0,108.0,85.0,205.0,147.0,71.0
2.3738999366760254,175.0,233.0,158.0,70.0,75.0,175.0,73.0
2.3762834072113037,169.0,213.0,109.0,55.0,183.0,75.0,75.0
2.378700017929077,162.0,206.0,798.0,146.0,97.0,58.0,81.0
2.3810832500457764,188.0,229.0,950.0,139.0,83.0,41.0,103.0
2.3834667205810547,215.0,137.0,1101.0,103.0,69.0,67.0,162.0
2.385849952697754,234.0,142.0,133.0,84.0,86.0,94.0,121.0
2.3882334232330322,195.0,201.0,128.0,142.0,102.0,210.0,80.0
2.3906166553497314,155.0,152.0,463.0,64.0,136.0,168.0,122.0
2.3929998874664307,162.0,176.0,127.0,97.0,106.0,127.0,72.0
2.395416736602783,168.0,61.0,53.0,185.0,76.0,151.0,125.0
2.3977999687194824,124.0,232.0,100.0,188.0,90.0,121.0,158.0
2.4001834392547607,230.0,134.0,134.0,192.0,155.0,127.0,71.0
2.40256667137146,249.0,112.0,180.0,164.0,128.0,129.0,110.0
2.404949903488159,201.0,189.0,141.0,136.0,100.0,69.0,100.0
2.4073333740234375,155.0,170.0,103.0,71.0,375.0,114.0,112.0
2.4097166061401367,141.0,151.0,461.0,304.0,275.0,120.0,91.0
2.41213321685791,158.0,81.0,292.0,194.0,174.0,126.0,70.0
2.4145166873931885,176.0,119.0,123.0,83.0,311.0,74.0,55.0
2.4168999195098877,121.0,154.0,84.0,152.0,102.0,102.0,98.0
2.419283390045166,90.0,72.0,142.0,121.0,91.0,60.0,40.0
2.4216666221618652,79.0,112.0,65.0,91.0,59.0,54.0,62.0
2.4240500926971436,119.0,90.0,152.0,166.0,74.0,119.0,83.0
2.4264333248138428,83.0,339.0,324.0,85.0,90.0,80.0,44.0
2.428849935531616,62.0,206.0,190.0,36.0,38.0,65.0,86.0
2.4312334060668945,63.0,72.0,56.0,485.0,35.0,49.0,28.0
2.4336166381835938,36.0,76.0,63.0,934.0,43.0,37.0,104.0
2.436000108718872,71.0,80.0,69.0,476.0,51.0,72.0,87.0
2.4383833408355713,54.0,34.0,48.0,17.0,60.0,52.0,103.0
2.4407665729522705,36.0,39.0,38.0,84.0,72.0,32.0,39.0
2.443150043487549,53.0,43.0,38.0,226.0,84.0,42.0,40.0
2.4455666542053223,70.0,47.0,32.0,142.0,96.0,42.0,35.0
2.4479498863220215,81.0,50.0,38.0,57.0,12.0,42.0,43.0
2.4503333568573,6.0,81.0,43.0,260.0,39.0,41.0,54.0
2.452716588973999,86.0,694.0,423.0,463.0,65.0,40.0,59.0
2.4551000595092773,69.0,910.0,239.0,427.0,77.0,43.0,64.0
2.4574832916259766,0.0,11.0,56.0,55.0,88.0,43.0,79.0
2.459866762161255,25.0,1353.0,747.0,628.0,74.0,47.0,20.0
2.4622833728790283,53.0,36.0,695.0,29.0,33.0,51.0,5.0
2.4646666049957275,56.0,54.0,392.0,809.0,7.0,48.0,22.0
2.467050075531006,11.0,67.0,90.0,62.0,15.0,29.0,42.0
2.469433307647705,19.0,20.0,32.0,92.0,22.0,61.0,61.0
2.4718167781829834,20.0,56.0,46.0,1293.0,23.0,28.0,51.0
2.4742000102996826,10.0,1060.0,60.0,1174.0,24.0,56.0,40.0
2.476583242416382,33.0,540.0,59.0,2480.0,22.0,48.0,28.0
2.4790000915527344,30.0,19.0,569.0,1987.0,21.0,40.0,40.0
2.4813833236694336,27.0,1098.0,549.0,1422.0,36.0,33.0,48.0
2.483766555786133,34.0,806.0,37.0,606.0,51.0,46.0,55.0
2.486150026321411,45.0,48.0,28.0,663.0,107.0,58.0,10.0
2.4885332584381104,34.0,19.0,32.0,772.0,162.0,55.0,312.0
2.4909167289733887,22.0,567.0,46.0,17.0,103.0,14.0,184.0
2.493299961090088,22.0,34.0,36.0,21.0,43.0,57.0,55.0
2.4957165718078613,30.0,63.0,26.0,26.0,339.0,30.0,35.0
