,289.1099853515625,290.1099853515625,291.1099853515625,292.1099853515625,293.1099853515625,294.1099853515625
2.551300048828125,993.0,995.0,625.0,29.0,1284.0,288.0
2.5525999069213867,24.0,1876.0,1058.0,696.0,883.0,28.0
2.5539000034332275,13.0,1144.0,411.0,204.0,16.0,38.0
2.5552000999450684,43.0,10.0,1200.0,0.0,0.0,42.0
2.55649995803833,27.0,253.0,605.0,82.0,48.0,0.0
2.557800054550171,16.0,1378.0,10.0,421.0,45.0,87.0
2.5590999126434326,32.0,15.0,77.0,906.0,41.0,46.0
2.5604000091552734,31.0,507.0,710.0,835.0,34.0,5.0
2.5617001056671143,29.0,999.0,1577.0,764.0,36.0,0.0
2.562999963760376,27.0,503.0,2443.0,1315.0,39.0,5.0
2.564300060272217,31.0,6.0,2739.0,1867.0,38.0,11.0
2.5655999183654785,5.0,1035.0,1080.0,1709.0,38.0,351.0
2.5669000148773193,5.0,2345.0,2351.0,1010.0,215.0,181.0
2.5682666301727295,5.0,2821.0,548.0,1534.0,391.0,11.0
2.5695667266845703,14.0,2894.0,2921.0,2059.0,198.0,38.0
2.570866584777832,42.0,2047.0,2529.0,1583.0,5.0,168.0
2.572166681289673,47.0,1221.0,3692.0,1107.0,2125.0,904.0
2.5734667778015137,31.0,1737.0,2795.0,1354.0,1653.0,537.0
2.5747666358947754,15.0,1445.0,1343.0,1188.0,28.0,170.0
2.576066732406616,22.0,321.0,1774.0,1023.0,3156.0,386.0
2.577366590499878,29.0,1878.0,1764.0,1626.0,53.0,13.0
2.5786666870117188,5.0,1081.0,1754.0,2229.0,1068.0,44.0
2.5799667835235596,48.0,1755.0,1638.0,2537.0,629.0,53.0
2.5812666416168213,41.0,2003.0,1522.0,2622.0,1465.0,61.0
2.582566738128662,56.0,2178.0,2790.0,1261.0,1115.0,37.0
2.583866596221924,34.0,3468.0,2819.0,708.0,764.0,315.0
2.585216760635376,21.0,4070.0,2913.0,2110.0,700.0,162.0
2.586533308029175,31.0,873.0,1727.0,1849.0,679.0,9.0
2.5878167152404785,24.0,4247.0,3403.0,630.0,52.0,313.0
2.5891165733337402,17.0,3845.0,1796.0,1023.0,43.0,418.0
2.590416669845581,12.0,3429.0,3183.0,995.0,33.0,523.0
2.591716766357422,32.0,2185.0,1675.0,968.0,913.0,0.0
2.5930166244506836,0.0,4185.0,2345.0,2336.0,1202.0,54.0
2.5943167209625244,6.0,1701.0,3273.0,2509.0,1491.0,70.0
2.595616579055786,12.0,1474.0,3277.0,2190.0,1232.0,86.0
2.596916675567627,21.0,1247.0,3281.0,1397.0,1749.0,21.0
2.5982167720794678,23.0,1049.0,2795.0,1132.0,1582.0,385.0
2.5995333194732666,40.0,972.0,5490.0,912.0,1590.0,793.0
2.6008167266845703,41.0,1164.0,7006.0,692.0,1131.0,1267.0
2.6021833419799805,43.0,1425.0,722.0,2695.0,1328.0,657.0
2.6034834384918213,28.0,1363.0,4790.0,2305.0,888.0,46.0
2.604783296585083,33.0,1302.0,6118.0,1781.0,571.0,15.0
2.606083393096924,27.0,2793.0,3929.0,1257.0,872.0,916.0
2.6073832511901855,38.0,2861.0,6381.0,2360.0,837.0,521.0
2.6086833477020264,35.0,1540.0,3461.0,1725.0,801.0,24.0
2.609983444213867,32.0,2312.0,1459.0,1090.0,756.0,78.0
2.611283302307129,43.0,2705.0,2209.0,2333.0,381.0,49.0
2.6125833988189697,34.0,2447.0,1760.0,1436.0,6.0,21.0
2.6138832569122314,24.0,2538.0,2084.0,539.0,283.0,5.0
2.6151833534240723,26.0,2681.0,2408.0,272.0,559.0,10.0
2.616483449935913,24.0,614.0,2035.0,5.0,1050.0,43.0
2.617783308029175,28.0,2674.0,2164.0,585.0,940.0,32.0
2.619149923324585,32.0,3651.0,1801.0,653.0,829.0,21.0
2.620450019836426,34.0,143.0,2327.0,720.0,425.0,714.0
2.6217501163482666,36.0,3643.0,3054.0,1478.0,2476.0,1261.0
2.6230499744415283,8.0,1322.0,3462.0,1291.0,2084.0,735.0
2.624350070953369,18.0,1478.0,1486.0,1075.0,2122.0,1138.0
2.625649929046631,0.0,2597.0,1695.0,16.0,523.0,455.0
2.6269500255584717,12.0,1915.0,3234.0,2773.0,837.0,410.0
2.6282498836517334,6.0,1232.0,2921.0,2386.0,18.0,34.0
2.629549980163574,0.0,296.0,1584.0,1999.0,30.0,653.0
2.630850076675415,2.0,444.0,1204.0,489.0,925.0,1051.0
2.6321499347686768,5.0,1984.0,2362.0,1460.0,825.0,1523.0
2.6334500312805176,14.0,1889.0,1624.0,2092.0,725.0,799.0
2.6347498893737793,15.0,1482.0,887.0,715.0,947.0,1256.0
2.6361000537872314,17.0,1075.0,1135.0,702.0,850.0,409.0
2.637399911880493,19.0,2122.0,35.0,1138.0,51.0,1171.0
2.638700008392334,35.0,1386.0,1089.0,1634.0,1269.0,0.0
2.640000104904175,34.0,17.0,978.0,27.0,1886.0,1519.0
2.6412999629974365,29.0,355.0,868.0,968.0,1235.0,1050.0
2.6426000595092773,25.0,1109.0,447.0,1709.0,989.0,1425.0
2.643899917602539,11.0,817.0,26.0,628.0,1547.0,79.0
2.64520001411438,5.0,525.0,5.0,1832.0,2154.0,932.0
2.6465001106262207,9.0,917.0,658.0,960.0,12.0,1325.0
2.6477999687194824,14.0,37.0,1310.0,525.0,1728.0,586.0
2.6491000652313232,33.0,5.0,1044.0,11.0,34.0,26.0
2.650399923324585,27.0,886.0,779.0,1143.0,1329.0,10.0
2.651700019836426,22.0,456.0,1268.0,387.0,2953.0,34.0
2.653066635131836,21.0,27.0,17.0,1420.0,2706.0,43.0
2.6543667316436768,253.0,979.0,1346.0,502.0,800.0,43.0
2.6556665897369385,141.0,25.0,71.0,1173.0,1106.0,43.0
2.6569666862487793,30.0,52.0,24.0,141.0,31.0,40.0
2.65826678276062,5.0,45.0,1079.0,0.0,1570.0,37.0
2.659566640853882,682.0,33.0,994.0,553.0,701.0,19.0
2.6608667373657227,944.0,22.0,896.0,1540.0,388.0,44.0
2.6621665954589844,1205.0,47.0,40.0,1160.0,1265.0,17.0
2.663466691970825,1094.0,55.0,1104.0,0.0,912.0,298.0
2.664766550064087,983.0,38.0,22.0,794.0,1787.0,168.0
2.6660666465759277,1113.0,17.0,236.0,95.0,2153.0,38.0
2.6673667430877686,31.0,23.0,333.0,470.0,115.0,862.0
2.6686666011810303,818.0,30.0,37.0,588.0,454.0,441.0
2.6700332164764404,3132.0,263.0,480.0,678.0,7.0,20.0
2.6713333129882812,2493.0,135.0,7.0,16.0,349.0,84.0
2.672633409500122,760.0,7.0,359.0,27.0,691.0,47.0
2.673933267593384,2855.0,256.0,9.0,33.0,936.0,10.0
2.6752333641052246,501.0,91.0,0.0,186.0,1181.0,28.0
2.6765332221984863,1202.0,15.0,31.0,339.0,30.0,46.0
2.677833318710327,584.0,18.0,16.0,449.0,122.0,28.0
2.679133415222168,1095.0,36.0,0.0,559.0,527.0,10.0
2.6804332733154297,1402.0,35.0,23.0,6.0,263.0,15.0
2.6817333698272705,1433.0,35.0,32.0,37.0,0.0,174.0
2.6830332279205322,19.0,182.0,42.0,403.0,723.0,333.0
2.684333324432373,1087.0,104.0,5.0,215.0,36.0,367.0
2.685633420944214,206.0,26.0,1151.0,27.0,14.0,186.0
2.686983346939087,365.0,19.0,1029.0,412.0,251.0,5.0
2.6882834434509277,525.0,14.0,28.0,18.0,488.0,5.0
2.6895833015441895,1476.0,1216.0,34.0,73.0,882.0,22.0
2.6908833980560303,1356.0,620.0,27.0,42.0,542.0,0.0
2.692183256149292,1237.0,24.0,12.0,17.0,201.0,389.0
2.693483352661133,1487.0,432.0,59.0,10.0,613.0,778.0
2.6947834491729736,854.0,56.0,36.0,18.0,583.0,1150.0
2.6960833072662354,427.0,62.0,14.0,25.0,553.0,1245.0
2.697383403778076,0.0,234.0,19.0,23.0,887.0,472.0
2.698699951171875,1402.0,406.0,17.0,21.0,12.0,25.0
2.6999833583831787,1032.0,570.0,15.0,8.0,0.0,28.0
2.7012832164764404,661.0,735.0,26.0,31.0,33.0,13.0
2.7026000022888184,23.0,534.0,0.0,38.0,23.0,7.0
2.703916549682617,1010.0,1259.0,31.0,16.0,14.0,7.0
2.705216646194458,909.0,1171.0,12.0,40.0,820.0,93.0
2.706516742706299,807.0,18.0,22.0,6.0,432.0,750.0
2.7078166007995605,1656.0,150.0,32.0,20.0,44.0,389.0
2.7091166973114014,1358.0,438.0,10.0,19.0,525.0,27.0
2.710416555404663,1060.0,14.0,28.0,7.0,735.0,0.0
2.711716651916504,569.0,403.0,11.0,25.0,944.0,6.0
2.7130167484283447,476.0,20.0,13.0,14.0,7.0,33.0
2.7143166065216064,50.0,241.0,15.0,16.0,39.0,18.0
2.7156167030334473,1542.0,463.0,19.0,18.0,709.0,23.0
2.716916561126709,1970.0,245.0,15.0,9.0,28.0,76.0
2.71821665763855,27.0,27.0,12.0,0.0,45.0,58.0
2.719566583633423,19.0,468.0,34.0,19.0,720.0,40.0
2.720883369445801,1607.0,5.0,25.0,27.0,12.0,27.0
2.7221832275390625,29.0,555.0,17.0,18.0,16.0,14.0
2.7234833240509033,337.0,285.0,22.0,13.0,0.0,38.0
2.724783420562744,715.0,15.0,27.0,21.0,13.0,37.0
2.726083278656006,358.0,580.0,20.0,25.0,27.0,35.0
2.7273833751678467,0.0,35.0,14.0,19.0,38.0,8.0
2.7286832332611084,651.0,6.0,8.0,14.0,37.0,7.0
2.7300000190734863,3636.0,18.0,5.0,13.0,25.0,11.0
2.731300115585327,3493.0,1300.0,12.0,12.0,14.0,8.0
2.732599973678589,1765.0,1277.0,11.0,10.0,337.0,5.0
2.7338833808898926,46.0,0.0,10.0,5.0,280.0,10.0
2.7351999282836914,397.0,815.0,8.0,2.0,15.0,16.0
2.7365167140960693,1881.0,5.0,7.0,0.0,42.0,17.0
2.737833261489868,1710.0,462.0,13.0,0.0,17.0,33.0
2.739133358001709,2333.0,920.0,36.0,4.0,19.0,33.0
2.7404332160949707,6.0,1161.0,324.0,8.0,22.0,33.0
2.7417166233062744,672.0,1626.0,565.0,237.0,43.0,19.0
2.7430334091186523,13.0,1373.0,805.0,466.0,1068.0,5.0
2.744333267211914,963.0,28.0,529.0,1141.0,817.0,578.0
2.745633363723755,776.0,1412.0,253.0,2500.0,458.0,651.0
2.7469332218170166,589.0,1852.0,2255.0,2833.0,243.0,754.0
2.7482333183288574,216.0,879.0,2579.0,1131.0,29.0,857.0
2.7495334148406982,477.0,4020.0,7917.0,4888.0,2204.0,1719.0
2.75083327293396,738.0,13828.0,18212.0,8111.0,4379.0,1560.0
2.752133369445801,108.0,15184.0,15636.0,7852.0,3709.0,1835.0
2.7534499168395996,16.0,10408.0,25396.0,11452.0,11944.0,2110.0
2.7547500133514404,130.0,22496.0,26204.0,24716.0,21388.0,4357.0
2.7560501098632812,136.0,35040.0,46944.0,37216.0,29804.0,10192.0
2.757349967956543,142.0,40304.0,65664.0,40944.0,33216.0,9756.0
2.758650064468384,367.0,58960.0,82768.0,65024.0,52416.0,12716.0
2.7599499225616455,592.0,78096.0,104592.0,63792.0,48064.0,17544.0
2.7612500190734863,541.0,81872.0,150912.0,104640.0,62992.0,23064.0
2.762550115585327,490.0,123552.0,177216.0,133888.0,75904.0,21892.0
2.763849973678589,248.0,122960.0,213184.0,155072.0,101440.0,31772.0
2.7651500701904297,6.0,185152.0,260544.0,175872.0,113984.0,35024.0
2.7664666175842285,26.0,209856.0,334848.0,236224.0,173184.0,58096.0
2.7677500247955322,46.0,229312.0,384896.0,295872.0,174016.0,70848.0
2.769049882888794,10.0,303616.0,499520.0,313152.0,243968.0,79168.0
2.770383358001709,400.0,370112.0,506752.0,377408.0,257408.0,83488.0
2.7716832160949707,795.0,396736.0,611072.0,441792.0,280256.0,90528.0
2.7729833126068115,1789.0,453120.0,691200.0,484736.0,330496.0,102272.0
2.7742834091186523,1593.0,563456.0,826368.0,529152.0,332736.0,127280.0
2.775583267211914,56.0,559104.0,890112.0,567552.0,417536.0,140544.0
2.776883363723755,57.0,689664.0,988672.0,601344.0,424512.0,149888.0
2.7781832218170166,1051.0,741376.0,1115904.0,696320.0,466560.0,175232.0
2.7794833183288574,1284.0,774400.0,1116160.0,772096.0,510464.0,196224.0
2.7807834148406982,166.0,795392.0,1316096.0,800256.0,527616.0,207424.0
2.78208327293396,104.0,962816.0,1307904.0,960000.0,602880.0,205120.0
2.783383369445801,153.0,992512.0,1377024.0,958464.0,627968.0,210176.0
2.7846832275390625,263.0,1062144.0,1492992.0,1053184.0,718592.0,219072.0
2.7859833240509033,374.0,1081600.0,1547008.0,1112320.0,692224.0,216640.0
2.7873499393463135,247.0,1129728.0,1745664.0,1075968.0,728576.0,214272.0
2.7886500358581543,121.0,1227520.0,1638912.0,1162496.0,763136.0,233728.0
2.789949893951416,128.0,1265664.0,1840384.0,1220096.0,763648.0,248640.0
2.791249990463257,164.0,1260288.0,1839872.0,1217536.0,764160.0,282112.0
2.7925500869750977,173.0,1235712.0,2006272.0,1332736.0,854528.0,308224.0
2.7938499450683594,162.0,1364480.0,1980928.0,1368832.0,914176.0,292800.0
2.7951500415802,175.0,1516032.0,2041856.0,1355776.0,883968.0,291008.0
2.796449899673462,189.0,1503232.0,2134016.0,1383424.0,923648.0,289216.0
2.7977499961853027,231.0,1458176.0,2138112.0,1410816.0,941568.0,302272.0
2.7990500926971436,232.0,1360384.0,2163712.0,1443584.0,940288.0,298880.0
2.8003499507904053,216.0,1542656.0,2223104.0,1486848.0,939264.0,295488.0
2.801650047302246,200.0,1493760.0,2262016.0,1533184.0,992512.0,316672.0
2.802949905395508,247.0,1508608.0,2299904.0,1556736.0,980736.0,313664.0
2.804316759109497,190.0,1534720.0,2368512.0,1483264.0,993536.0,304320.0
2.805616617202759,266.0,1560576.0,2381824.0,1580288.0,976128.0,306432.0
2.8069167137145996,288.0,1562368.0,2379776.0,1597184.0,979456.0,308544.0
2.8082165718078613,137.0,1563904.0,2377728.0,1619200.0,982784.0,324544.0
2.809516668319702,187.0,1609984.0,2353152.0,1535232.0,1037568.0,327488.0
2.810816764831543,236.0,1677312.0,2328576.0,1593856.0,1027328.0,319616.0
2.8121166229248047,216.0,1669376.0,2434048.0,1532928.0,1010176.0,297856.0
2.8134167194366455,306.0,1681664.0,2471936.0,1557504.0,1075968.0,353472.0
2.8147165775299072,285.0,1595648.0,2479104.0,1582080.0,1062912.0,350400.0
2.816016674041748,264.0,1614592.0,2455552.0,1621248.0,1091072.0,351168.0
2.817316770553589,244.0,1600256.0,2277376.0,1477120.0,940544.0,324928.0
2.8186166286468506,225.0,1597440.0,2493440.0,1625856.0,982528.0,339072.0
2.8199167251586914,226.0,1594368.0,2273280.0,1499904.0,992512.0,326400.0
2.8212833404541016,152.0,1580800.0,2343936.0,1516288.0,986624.0,313664.0
2.8225834369659424,315.0,1613056.0,2280448.0,1483008.0,980992.0,325952.0
2.823883295059204,242.0,1581312.0,2282496.0,1518336.0,998400.0,320448.0
2.825183391571045,170.0,1549568.0,2283520.0,1481984.0,980736.0,290944.0
2.8264832496643066,804.0,1483264.0,2208768.0,1438208.0,962816.0,304448.0
2.8277833461761475,520.0,1610752.0,2241536.0,1427200.0,940032.0,295168.0
2.8290834426879883,236.0,1491456.0,2139136.0,1367296.0,905216.0,243904.0
2.83038330078125,402.0,1452544.0,2100224.0,1343744.0,864256.0,285568.0
2.831683397293091,254.0,1476864.0,2053376.0,1353984.0,883456.0,288000.0
2.8329832553863525,402.0,1550336.0,2164736.0,1339136.0,897024.0,273728.0
2.8342833518981934,240.0,1355520.0,1965568.0,1324288.0,823040.0,248960.0
2.835583448410034,170.0,1332992.0,2061568.0,1326080.0,925440.0,297152.0
2.836883306503296,250.0,1446400.0,1933312.0,1283328.0,836608.0,259264.0
2.838249921798706,741.0,1364992.0,2023168.0,1251328.0,806144.0,242496.0
2.839550018310547,446.0,1406464.0,1983232.0,1262848.0,825344.0,245312.0
2.8408501148223877,150.0,1389312.0,1965312.0,1260288.0,820224.0,244800.0
2.8421499729156494,256.0,1191680.0,1771008.0,1149440.0,744192.0,244288.0
2.8434500694274902,362.0,1290752.0,1839104.0,1173504.0,751872.0,258944.0
2.844749927520752,223.0,1293824.0,1914624.0,1221120.0,833536.0,251264.0
2.8460500240325928,270.0,1286656.0,1820928.0,1164800.0,756480.0,243584.0
2.8473498821258545,493.0,1179392.0,1731840.0,1157632.0,790016.0,252224.0
2.8486499786376953,580.0,1202176.0,1747456.0,1152256.0,756224.0,229056.0
2.849950075149536,217.0,1281024.0,1672960.0,1088256.0,741632.0,244224.0
2.851249933242798,206.0,1250816.0,1743872.0,1129984.0,743168.0,238912.0
2.8525500297546387,195.0,1123840.0,1691136.0,1100032.0,680448.0,217856.0
2.8538498878479004,191.0,1171200.0,1708032.0,1128448.0,726016.0,202112.0
2.8552167415618896,186.0,1085440.0,1587712.0,1010688.0,665088.0,216064.0
2.8565165996551514,188.0,1126144.0,1621504.0,1038848.0,643328.0,217920.0
2.857816696166992,198.0,1105920.0,1649152.0,1012224.0,648448.0,222272.0
2.859116554260254,208.0,1039616.0,1494528.0,990208.0,671744.0,199296.0
2.8604166507720947,746.0,1076480.0,1501184.0,985600.0,657920.0,177280.0
2.8617167472839355,624.0,1027584.0,1474816.0,985344.0,611840.0,198528.0
2.8630166053771973,502.0,993280.0,1504000.0,983552.0,597504.0,192000.0
2.864316701889038,685.0,947712.0,1391360.0,924160.0,604928.0,196736.0
2.8656165599823,256.0,985088.0,1435648.0,924416.0,601856.0,199616.0
2.8669166564941406,184.0,916480.0,1382144.0,804864.0,507712.0,182784.0
2.8682167530059814,144.0,890624.0,1364736.0,843776.0,532992.0,175552.0
2.869516611099243,179.0,868096.0,1209088.0,817152.0,520256.0,171328.0
2.870816707611084,215.0,810240.0,1260288.0,794624.0,502208.0,174016.0
2.872166633605957,207.0,797440.0,1173504.0,790784.0,507328.0,168832.0
2.873466730117798,145.0,783360.0,1119232.0,741120.0,425536.0,122752.0
2.8747665882110596,138.0,721152.0,1016320.0,653824.0,448832.0,131072.0
2.8760666847229004,214.0,707584.0,979200.0,608256.0,446912.0,135744.0
2.877366781234741,130.0,696320.0,987648.0,656640.0,390912.0,119984.0
2.878666639328003,150.0,597248.0,834304.0,563456.0,367424.0,124784.0
2.8799667358398438,170.0,613888.0,874752.0,529408.0,330624.0,126960.0
2.8812665939331055,152.0,545024.0,786944.0,518208.0,312064.0,105712.0
2.8825666904449463,120.0,513088.0,769792.0,472704.0,278784.0,91072.0
2.883866548538208,91.0,488256.0,707840.0,423552.0,287104.0,80256.0
2.885166645050049,121.0,433792.0,623872.0,390848.0,249280.0,103904.0
2.8864667415618896,115.0,398080.0,573440.0,349376.0,218176.0,74144.0
2.8877665996551514,109.0,336064.0,538624.0,335680.0,201792.0,74496.0
2.8891332149505615,111.0,321728.0,464128.0,275008.0,195776.0,64672.0
2.8904333114624023,113.0,287360.0,378560.0,276160.0,144064.0,61760.0
2.891733407974243,105.0,236864.0,340416.0,235392.0,159232.0,45152.0
2.893033266067505,84.0,225152.0,303168.0,189248.0,152448.0,49824.0
2.8943333625793457,63.0,194944.0,244096.0,149120.0,96864.0,24804.0
2.8956332206726074,80.0,141312.0,207680.0,151424.0,94160.0,27712.0
2.8969333171844482,96.0,127968.0,222656.0,123248.0,72640.0,30660.0
2.898233413696289,60.0,106416.0,171776.0,102752.0,52576.0,17772.0
2.899533271789551,100.0,95568.0,173312.0,93392.0,58672.0,15836.0
2.9008333683013916,74.0,75120.0,130512.0,68960.0,48928.0,17516.0
2.9021332263946533,27.0,77760.0,104240.0,70400.0,42448.0,17056.0
2.903433322906494,28.0,73632.0,90624.0,48096.0,35904.0,5881.0
2.904733419418335,28.0,61680.0,67904.0,34560.0,25756.0,10812.0
2.906100034713745,71.0,45696.0,51232.0,34272.0,23868.0,5021.0
2.907399892807007,128.0,35904.0,42144.0,32768.0,21776.0,4989.0
2.9086999893188477,111.0,31764.0,46848.0,24028.0,22304.0,4681.0
2.9100000858306885,93.0,26852.0,39792.0,32480.0,6940.0,2661.0
2.91129994392395,79.0,24808.0,34272.0,16556.0,12608.0,2730.0
2.912600040435791,6.0,24320.0,32768.0,23932.0,10328.0,5183.0
2.9138998985290527,44.0,21104.0,21316.0,18248.0,14240.0,1648.0
2.9151999950408936,51.0,18696.0,21280.0,9672.0,10484.0,4582.0
2.9165000915527344,57.0,15392.0,20180.0,13976.0,7616.0,1213.0
2.917799949645996,82.0,15808.0,16652.0,8208.0,4420.0,841.0
2.919100046157837,106.0,14064.0,18752.0,12616.0,6379.0,1453.0
2.9203999042510986,103.0,8320.0,16020.0,6113.0,5602.0,3092.0
2.9217000007629395,76.0,7997.0,16360.0,10692.0,5111.0,2679.0
2.9230499267578125,25.0,8524.0,13496.0,7729.0,5500.0,921.0
2.9243500232696533,39.0,8676.0,8376.0,7549.0,5889.0,52.0
2.925666570663452,39.0,5693.0,13760.0,6705.0,3081.0,2154.0
2.926949977874756,38.0,5470.0,6134.0,6197.0,3780.0,1405.0
2.9282500743865967,100.0,6395.0,12616.0,5689.0,6163.0,981.0
2.9295499324798584,108.0,5206.0,7428.0,6257.0,4210.0,606.0
2.930850028991699,79.0,6683.0,5351.0,4475.0,801.0,1408.0
2.932149887084961,12.0,4677.0,4304.0,6369.0,2542.0,1924.0
2.9334499835968018,31.0,6716.0,11760.0,1938.0,4220.0,11.0
2.9347500801086426,32.0,6541.0,11072.0,7472.0,3442.0,2107.0
2.9360499382019043,38.0,6365.0,10368.0,2552.0,65.0,44.0
2.937350034713745,39.0,1753.0,7111.0,5430.0,2394.0,1243.0
2.938666582107544,73.0,6179.0,9276.0,3566.0,1718.0,1631.0
2.940016746520996,421.0,6268.0,9972.0,5077.0,3233.0,846.0
2.941316604614258,230.0,3934.0,12220.0,2417.0,3562.0,751.0
2.9426167011260986,39.0,5555.0,5110.0,3280.0,2708.0,38.0
2.9439165592193604,35.0,7546.0,5876.0,4143.0,1977.0,524.0
2.945216655731201,94.0,8984.0,7726.0,3806.0,1246.0,48.0
2.946516752243042,23.0,1490.0,8126.0,3469.0,1623.0,68.0
2.9478166103363037,74.0,7365.0,7407.0,4630.0,2162.0,401.0
2.9491167068481445,65.0,5402.0,7645.0,7400.0,1890.0,734.0
2.9504165649414062,56.0,3899.0,2234.0,7626.0,2842.0,1197.0
2.951716661453247,39.0,5363.0,7113.0,1585.0,2552.0,1441.0
2.953016757965088,22.0,5007.0,7275.0,4865.0,2262.0,1685.0
2.9543166160583496,35.0,2002.0,6453.0,4178.0,1963.0,181.0
2.9556167125701904,48.0,3808.0,7093.0,3092.0,596.0,31.0
2.9569833278656006,26.0,4299.0,2404.0,5958.0,616.0,1227.0
2.9582834243774414,58.0,2826.0,6413.0,1868.0,637.0,1296.0
2.959583282470703,61.0,3808.0,4263.0,4194.0,2524.0,738.0
2.960883378982544,64.0,3206.0,8784.0,455.0,3639.0,94.0
2.9621832370758057,85.0,1078.0,6038.0,3808.0,3391.0,694.0
2.9634833335876465,61.0,4379.0,4373.0,3172.0,1140.0,24.0
2.9647834300994873,37.0,3528.0,5407.0,3172.0,3602.0,417.0
2.966083288192749,60.0,3987.0,4733.0,3002.0,2937.0,35.0
2.96738338470459,60.0,4857.0,4253.0,2832.0,2882.0,950.0
2.9686832427978516,61.0,2493.0,3986.0,2872.0,3101.0,1076.0
2.9699833393096924,26.0,3407.0,3719.0,2911.0,2841.0,1202.0
2.971283435821533,87.0,3757.0,3582.0,1859.0,366.0,170.0
2.972583293914795,21.0,4160.0,3444.0,2010.0,1726.0,1631.0
2.973933219909668,27.0,3548.0,3750.0,4182.0,819.0,35.0
2.975233316421509,33.0,2936.0,4056.0,3537.0,434.0,52.0
2.9765334129333496,38.0,2598.0,2511.0,1331.0,49.0,68.0
2.9778332710266113,43.0,2712.0,3326.0,2400.0,2119.0,45.0
2.979133367538452,8.0,2827.0,4140.0,3468.0,3210.0,67.0
2.980433225631714,34.0,1750.0,4652.0,2429.0,2462.0,88.0
2.9817333221435547,59.0,1584.0,3703.0,4163.0,1566.0,26.0
2.9830334186553955,20.0,2802.0,2754.0,3438.0,1901.0,740.0
2.9843332767486572,380.0,2460.0,4550.0,4171.0,1940.0,799.0
2.985633373260498,740.0,2211.0,3829.0,3856.0,1980.0,83.0
2.9869332313537598,880.0,1247.0,1675.0,1437.0,543.0,60.0
2.9882333278656006,47.0,4301.0,3163.0,5645.0,4398.0,38.0
2.9895334243774414,1123.0,3595.0,4085.0,1624.0,3371.0,476.0
2.9909000396728516,32.0,4197.0,3946.0,6637.0,1668.0,475.0
2.9921998977661133,69.0,3280.0,3837.0,4123.0,1771.0,65.0
2.993499994277954,49.0,2290.0,3728.0,1090.0,1953.0,353.0
2.994800090789795,21.0,4159.0,2911.0,2369.0,1384.0,641.0
2.9960999488830566,17.0,2701.0,4507.0,1586.0,2116.0,341.0
2.9974000453948975,1154.0,4559.0,3418.0,3082.0,2234.0,42.0
2.998699903488159,1207.0,3664.0,2330.0,2058.0,637.0,596.0
3.0,39.0,2501.0,3852.0,1035.0,1982.0,40.0
3.001300096511841,58.0,1633.0,3895.0,1224.0,1911.0,436.0
3.0025999546051025,25.0,2887.0,2686.0,1413.0,1840.0,1436.0
3.0039000511169434,31.0,3761.0,4897.0,990.0,3968.0,1244.0
3.005199909210205,37.0,3126.0,4830.0,566.0,3966.0,597.0
3.006500005722046,23.0,3772.0,3202.0,1702.0,3132.0,494.0
3.007866621017456,44.0,3630.0,3888.0,4970.0,1780.0,391.0
3.009166717529297,16.0,3487.0,4574.0,4403.0,3659.0,1406.0
3.0104665756225586,22.0,3393.0,4354.0,5690.0,509.0,706.0
3.0117666721343994,29.0,4491.0,4134.0,6393.0,3717.0,6.0
3.0130667686462402,74.0,2351.0,6566.0,2444.0,2819.0,152.0
3.014366626739502,69.0,4237.0,6655.0,3423.0,2433.0,61.0
3.0156667232513428,65.0,5415.0,5783.0,3078.0,1504.0,41.0
3.0169665813446045,38.0,6243.0,7477.0,3668.0,2357.0,22.0
3.0182666778564453,41.0,2372.0,5098.0,3112.0,2662.0,426.0
3.019566774368286,44.0,5179.0,4787.0,3460.0,2226.0,213.0
3.020866632461548,38.0,6035.0,4476.0,3809.0,2874.0,0.0
3.0221667289733887,31.0,4370.0,7667.0,4506.0,2769.0,15.0
3.0234665870666504,28.0,3988.0,9132.0,5204.0,1311.0,29.0
3.0248167514801025,25.0,4710.0,7602.0,5825.0,1733.0,152.0
3.0261166095733643,28.0,4139.0,6563.0,6140.0,2673.0,275.0
3.027416706085205,16.0,3567.0,6247.0,5330.0,2359.0,695.0
3.028716564178467,5.0,1768.0,9540.0,3432.0,1022.0,2164.0
3.0300166606903076,28.0,3802.0,9080.0,5110.0,2647.0,1933.0
3.0313167572021484,37.0,4055.0,10940.0,5715.0,2192.0,1766.0
3.03261661529541,19.0,4308.0,6354.0,5407.0,1737.0,362.0
3.033916711807251,19.0,3365.0,4253.0,2131.0,2279.0,551.0
3.0352165699005127,19.0,4323.0,11096.0,6494.0,2821.0,953.0
3.0365166664123535,18.0,2278.0,10056.0,7633.0,2688.0,218.0
3.0378167629241943,18.0,5414.0,9016.0,9196.0,931.0,109.0
3.039116621017456,20.0,5102.0,11352.0,3199.0,2378.0,1458.0
3.040416717529297,22.0,2112.0,5834.0,5382.0,1555.0,758.0
3.041783332824707,541.0,4673.0,3946.0,1826.0,36.0,58.0
3.043083429336548,417.0,5590.0,8129.0,6786.0,982.0,555.0
3.0443832874298096,29.0,4040.0,9096.0,4068.0,2502.0,581.0
3.0456833839416504,13.0,3683.0,9068.0,2412.0,1871.0,1415.0
3.046983242034912,39.0,4048.0,5177.0,5815.0,1239.0,1677.0
3.048283338546753,26.0,4412.0,7970.0,4422.0,381.0,3325.0
3.0495834350585938,14.0,3411.0,4931.0,6373.0,2936.0,2790.0
3.0508832931518555,10.0,2411.0,6979.0,1610.0,2042.0,2028.0
3.0521833896636963,6.0,3104.0,3054.0,5115.0,2874.0,18.0
3.053483247756958,23.0,3798.0,3920.0,3139.0,2412.0,53.0
3.054783344268799,39.0,4274.0,4787.0,2297.0,2337.0,6.0
3.0560834407806396,51.0,3764.0,5702.0,3740.0,748.0,13.0
3.0573832988739014,54.0,3253.0,5849.0,2900.0,338.0,20.0
3.0587499141693115,57.0,2851.0,8075.0,2060.0,1577.0,601.0
3.0600500106811523,16.0,2449.0,7454.0,2330.0,1080.0,1182.0
3.061350107192993,35.0,2575.0,7248.0,2601.0,584.0,764.0
3.062649965286255,55.0,2700.0,4545.0,56.0,2198.0,1033.0
3.0639500617980957,87.0,3110.0,5806.0,3465.0,1996.0,445.0
3.0652499198913574,46.0,3286.0,7966.0,4976.0,2301.0,0.0
3.0665500164031982,6.0,3463.0,6879.0,4972.0,1173.0,25.0
3.067850112915039,16.0,2848.0,5791.0,2192.0,45.0,55.0
3.069149971008301,26.0,2233.0,1649.0,1987.0,33.0,85.0
3.0704500675201416,21.0,5115.0,4916.0,4237.0,21.0,1642.0
3.0717499256134033,16.0,5703.0,4070.0,4322.0,1237.0,1684.0
3.073050022125244,14.0,5576.0,4569.0,5510.0,1076.0,44.0
3.074350118637085,13.0,2060.0,5069.0,3831.0,1667.0,1334.0
3.075700044631958,131.0,4676.0,5143.0,3548.0,1313.0,21.0
3.0769999027252197,71.0,2056.0,5218.0,3265.0,960.0,1213.0
3.0783166885375977,12.0,4170.0,5686.0,3425.0,1333.0,5.0
3.0796000957489014,25.0,2250.0,6154.0,3451.0,1157.0,0.0
3.080899953842163,376.0,3278.0,3371.0,2994.0,980.0,29.0
3.082200050354004,209.0,1383.0,5059.0,2538.0,2549.0,22.0
3.0834999084472656,42.0,5778.0,6600.0,2354.0,1894.0,27.0
3.0848000049591064,35.0,7708.0,4997.0,2171.0,1239.0,32.0
3.0861001014709473,28.0,4306.0,5123.0,1232.0,713.0,381.0
3.087416648864746,30.0,3855.0,5250.0,2570.0,3562.0,315.0
3.088716745376587,12.0,3845.0,3281.0,3908.0,3403.0,248.0
3.0900166034698486,22.0,2544.0,4267.0,3595.0,3888.0,803.0
3.0913000106811523,36.0,4872.0,3786.0,3374.0,1191.0,775.0
3.0926666259765625,13.0,1488.0,3304.0,2333.0,4254.0,748.0
3.0939667224884033,374.0,6648.0,3939.0,3329.0,1476.0,684.0
3.095266580581665,216.0,4496.0,4573.0,1916.0,2936.0,214.0
3.096566677093506,58.0,4472.0,4053.0,1742.0,2943.0,21.0
3.0978667736053467,59.0,2303.0,3534.0,3784.0,2471.0,487.0
3.0991666316986084,50.0,1472.0,4402.0,1682.0,4448.0,40.0
3.100466728210449,44.0,745.0,5271.0,1429.0,38.0,246.0
3.101766586303711,41.0,2555.0,1440.0,1919.0,1653.0,434.0
3.1030666828155518,38.0,1328.0,3210.0,1489.0,727.0,369.0
3.1043667793273926,29.0,957.0,5869.0,1059.0,1233.0,303.0
3.1056666374206543,21.0,585.0,6489.0,1380.0,1575.0,21.0
3.106966733932495,18.0,4169.0,9260.0,2472.0,1212.0,797.0
3.108266592025757,69.0,2834.0,1269.0,4834.0,1212.0,672.0
3.109633445739746,78.0,1499.0,2330.0,4268.0,1395.0,1260.0
3.110933303833008,86.0,2219.0,4318.0,5097.0,1578.0,36.0
3.1122334003448486,61.0,1541.0,4161.0,2984.0,2815.0,577.0
3.1135332584381104,17.0,2377.0,5473.0,2929.0,3106.0,360.0
3.114833354949951,74.0,2047.0,5204.0,4963.0,13.0,23.0
3.116133451461792,16.0,1367.0,4936.0,4139.0,474.0,14.0
3.1174333095550537,29.0,1686.0,4239.0,4802.0,1452.0,5.0
3.1187334060668945,39.0,2006.0,3235.0,0.0,1153.0,17.0
3.1200332641601562,28.0,3893.0,1695.0,603.0,820.0,28.0
3.121333360671997,17.0,3788.0,1799.0,1090.0,2376.0,31.0
3.122633218765259,33.0,3014.0,1903.0,29.0,2526.0,46.0
3.1239333152770996,44.0,290.0,879.0,450.0,11.0,73.0
3.1252334117889404,34.0,2360.0,1641.0,870.0,27.0,101.0
3.1265833377838135,25.0,315.0,839.0,17.0,1140.0,61.0
3.1278834342956543,18.0,967.0,36.0,52.0,28.0,22.0
3.129183292388916,16.0,53.0,27.0,167.0,105.0,33.0
3.130483388900757,14.0,71.0,45.0,94.0,29.0,19.0
3.1317832469940186,39.0,576.0,45.0,21.0,33.0,19.0
3.1330833435058594,36.0,640.0,1140.0,841.0,36.0,12.0
3.1343834400177,26.0,52.0,1163.0,649.0,13.0,27.0
3.135683298110962,51.0,6.0,49.0,38.0,22.0,23.0
3.1369833946228027,54.0,84.0,0.0,26.0,22.0,284.0
3.1382832527160645,11.0,22.0,464.0,28.0,19.0,142.0
3.1395833492279053,6.0,19.0,20.0,25.0,17.0,0.0
3.140883445739746,18.0,29.0,32.0,23.0,38.0,0.0
3.142183303833008,29.0,40.0,55.0,26.0,38.0,48.0
3.143549919128418,27.0,41.0,17.0,29.0,38.0,45.0
3.144850015640259,22.0,42.0,17.0,32.0,69.0,42.0
3.1461501121520996,23.0,46.0,21.0,38.0,434.0,34.0
3.1474499702453613,16.0,0.0,26.0,30.0,501.0,12.0
3.148750066757202,10.0,16.0,53.0,23.0,22.0,30.0
3.150049924850464,10.0,32.0,81.0,33.0,19.0,16.0
3.1513500213623047,34.0,33.0,68.0,43.0,57.0,35.0
3.1526501178741455,25.0,19.0,49.0,51.0,26.0,27.0
3.1539499759674072,17.0,5.0,30.0,13.0,55.0,18.0
3.155250072479248,22.0,13.0,0.0,11.0,6.0,25.0
3.1565499305725098,26.0,21.0,27.0,38.0,19.0,43.0
3.1578500270843506,38.0,14.0,39.0,48.0,21.0,43.0
3.1591498851776123,19.0,16.0,37.0,57.0,24.0,14.0
3.1605167388916016,0.0,19.0,34.0,33.0,23.0,25.0
3.1618165969848633,27.0,5.0,0.0,31.0,16.0,26.0
3.163116693496704,11.0,24.0,6.0,58.0,29.0,13.0
3.164416551589966,11.0,43.0,12.0,13.0,24.0,24.0
3.1657166481018066,16.0,46.0,33.0,47.0,18.0,19.0
3.1670167446136475,22.0,51.0,25.0,35.0,21.0,23.0
3.168316602706909,28.0,6.0,18.0,23.0,36.0,26.0
3.16961669921875,38.0,8.0,25.0,24.0,44.0,6.0
3.1709165573120117,42.0,10.0,32.0,0.0,51.0,6.0
3.1722166538238525,43.0,5.0,21.0,37.0,21.0,53.0
3.1735167503356934,11.0,0.0,10.0,18.0,39.0,44.0
3.174816608428955,12.0,20.0,48.0,0.0,31.0,35.0
3.176116704940796,32.0,26.0,32.0,30.0,24.0,48.0
3.177466630935669,35.0,38.0,16.0,19.0,18.0,5.0
3.1787667274475098,34.0,21.0,33.0,37.0,45.0,39.0
3.1800665855407715,19.0,25.0,50.0,25.0,41.0,29.0
3.1813666820526123,18.0,24.0,34.0,13.0,9.0,19.0
3.182666778564453,0.0,24.0,19.0,0.0,27.0,22.0
3.183966636657715,11.0,24.0,467.0,21.0,45.0,25.0
3.1852667331695557,17.0,26.0,820.0,10.0,10.0,42.0
3.1865665912628174,26.0,10.0,652.0,5.0,18.0,49.0
3.187866687774658,19.0,11.0,32.0,53.0,28.0,5.0
3.189166784286499,12.0,44.0,36.0,78.0,26.0,11.0
3.1904666423797607,14.0,37.0,48.0,60.0,15.0,36.0
3.1917667388916016,16.0,39.0,29.0,43.0,5.0,32.0
3.1930665969848633,16.0,41.0,821.0,27.0,73.0,29.0
3.1944334506988525,16.0,19.0,686.0,18.0,78.0,22.0
3.1957333087921143,22.0,13.0,552.0,57.0,83.0,58.0
3.197033405303955,22.0,8.0,46.0,5.0,32.0,73.0
3.198333263397217,17.0,23.0,35.0,21.0,47.0,54.0
