,486.2099914550781,487.2099914550781,488.2099914550781,489.2099914550781,490.2099914550781,491.2099914550781,492.2099914550781,493.2099914550781
5.101733207702637,12.0,41.0,19.0,13.0,39.0,26.0,25.0,37.0
5.103466510772705,5.0,21.0,29.0,11.0,0.0,23.0,9.0,0.0
5.105199813842773,25.0,5.0,31.0,23.0,41.0,5.0,22.0,15.0
5.106933116912842,18.0,34.0,0.0,17.0,46.0,8.0,19.0,34.0
5.108666896820068,12.0,34.0,11.0,10.0,56.0,15.0,18.0,22.0
5.110400199890137,11.0,16.0,15.0,23.0,0.0,10.0,16.0,10.0
5.112133502960205,17.0,28.0,7.0,19.0,20.0,6.0,29.0,6.0
5.113866806030273,13.0,5.0,0.0,15.0,27.0,31.0,32.0,17.0
5.115600109100342,10.0,27.0,29.0,24.0,0.0,27.0,35.0,5.0
5.1173834800720215,7.0,31.0,20.0,12.0,17.0,23.0,31.0,12.0
5.119133472442627,5.0,27.0,14.0,0.0,38.0,31.0,44.0,14.0
5.120850086212158,2.0,42.0,27.0,26.0,43.0,21.0,39.0,18.0
5.122583389282227,0.0,39.0,0.0,30.0,56.0,13.0,33.0,0.0
5.124316692352295,19.0,7.0,18.0,11.0,5.0,8.0,22.0,0.0
5.1260666847229,18.0,40.0,37.0,6.0,0.0,19.0,13.0,0.0
5.127783298492432,17.0,29.0,27.0,3.0,26.0,22.0,5.0,0.0
5.129533290863037,14.0,61.0,13.0,0.0,21.0,37.0,0.0,0.0
5.131249904632568,17.0,49.0,0.0,14.0,16.0,33.0,29.0,0.0
5.132983207702637,20.0,29.0,12.0,27.0,5.0,6.0,18.0,23.0
5.1347832679748535,18.0,51.0,9.0,19.0,13.0,18.0,6.0,11.0
5.136516571044922,16.0,15.0,5.0,24.0,20.0,14.0,0.0,0.0
5.13824987411499,20.0,13.0,18.0,30.0,17.0,11.0,15.0,17.0
5.139983177185059,19.0,26.0,15.0,28.0,13.0,15.0,0.0,18.0
5.141716480255127,14.0,24.0,12.0,25.0,9.0,19.0,5.0,19.0
5.143449783325195,10.0,34.0,13.0,16.0,5.0,0.0,19.0,10.0
5.145183563232422,5.0,22.0,5.0,113.0,38.0,20.0,0.0,22.0
5.14691686630249,15.0,29.0,5.0,236.0,35.0,15.0,35.0,20.0
5.148650169372559,15.0,30.0,12.0,126.0,31.0,33.0,46.0,11.0
5.150383472442627,15.0,17.0,12.0,17.0,21.0,37.0,34.0,22.0
5.152183532714844,19.0,5.0,13.0,14.0,11.0,40.0,0.0,26.0
5.153916835784912,18.0,13.0,24.0,50.0,18.0,14.0,25.0,29.0
5.1556501388549805,18.0,24.0,36.0,29.0,5.0,5.0,19.0,15.0
5.157383441925049,0.0,16.0,37.0,21.0,5.0,22.0,10.0,0.0
5.159116744995117,29.0,6.0,12.0,28.0,5.0,29.0,5.0,21.0
5.1608500480651855,0.0,22.0,7.0,23.0,5.0,22.0,29.0,5.0
5.162583351135254,28.0,28.0,10.0,18.0,5.0,31.0,17.0,9.0
5.164316654205322,5.0,12.0,13.0,10.0,20.0,39.0,5.0,13.0
5.166049957275391,0.0,20.0,17.0,0.0,37.0,12.0,25.0,12.0
5.167783260345459,14.0,24.0,28.0,0.0,28.0,0.0,32.0,12.0
5.169566631317139,6.0,0.0,30.0,12.0,8.0,5.0,37.0,12.0
5.171316623687744,5.0,5.0,33.0,23.0,5.0,5.0,22.0,15.0
5.173033237457275,12.0,32.0,15.0,16.0,2.0,5.0,5.0,19.0
5.174783229827881,5.0,20.0,19.0,8.0,0.0,5.0,45.0,14.0
5.176499843597412,36.0,27.0,11.0,0.0,8.0,8.0,17.0,10.0
5.1782331466674805,29.0,30.0,20.0,10.0,12.0,11.0,5.0,17.0
5.179966449737549,36.0,41.0,14.0,20.0,16.0,12.0,8.0,25.0
5.181716442108154,53.0,5.0,9.0,15.0,12.0,13.0,5.0,27.0
5.183433532714844,8.0,37.0,18.0,20.0,7.0,11.0,13.0,7.0
5.185233116149902,51.0,25.0,25.0,16.0,7.0,7.0,16.0,27.0
5.186966896057129,0.0,15.0,32.0,13.0,15.0,21.0,19.0,5.0
5.188700199127197,27.0,5.0,25.0,10.0,13.0,17.0,17.0,15.0
5.190433502197266,23.0,14.0,18.0,27.0,11.0,13.0,5.0,24.0
5.192166805267334,44.0,11.0,0.0,20.0,11.0,12.0,19.0,14.0
5.193900108337402,33.0,9.0,11.0,14.0,11.0,20.0,20.0,28.0
5.195633411407471,16.0,16.0,23.0,22.0,21.0,18.0,7.0,21.0
5.197366714477539,11.0,5.0,27.0,14.0,22.0,17.0,32.0,6.0
5.199100017547607,34.0,22.0,18.0,5.0,0.0,12.0,16.0,5.0
5.202633380889893,35.0,23.0,33.0,14.0,6.0,55.0,0.0,5.0
5.206099987030029,9.0,0.0,45.0,12.0,22.0,55.0,17.0,5.0
5.209566593170166,7.0,0.0,43.0,10.0,9.0,17.0,19.0,7.0
5.213033199310303,5.0,33.0,10.0,12.0,0.0,26.0,12.0,10.0
5.2164998054504395,11.0,34.0,14.0,12.0,20.0,21.0,5.0,16.0
5.220033168792725,18.0,34.0,18.0,13.0,24.0,25.0,2.0,43.0
5.223499774932861,33.0,0.0,22.0,14.0,15.0,22.0,0.0,59.0
5.226966857910156,42.0,24.0,18.0,9.0,36.0,19.0,37.0,64.0
5.230433464050293,39.0,21.0,14.0,5.0,30.0,27.0,34.0,33.0
5.23390007019043,24.0,25.0,27.0,5.0,22.0,24.0,34.0,12.0
5.237433433532715,15.0,30.0,22.0,5.0,15.0,21.0,10.0,48.0
5.240900039672852,22.0,7.0,17.0,15.0,13.0,14.0,8.0,36.0
5.244366645812988,22.0,36.0,12.0,25.0,14.0,7.0,66.0,39.0
5.247833251953125,21.0,11.0,13.0,33.0,16.0,5.0,56.0,29.0
5.251299858093262,34.0,27.0,15.0,41.0,13.0,31.0,12.0,0.0
5.254833221435547,5.0,18.0,15.0,10.0,10.0,29.0,15.0,27.0
5.258299827575684,28.0,5.0,15.0,23.0,0.0,34.0,25.0,14.0
5.26176643371582,9.0,5.0,0.0,26.0,7.0,18.0,5.0,13.0
5.265233516693115,35.0,16.0,21.0,28.0,7.0,25.0,18.0,5.0
5.268700122833252,17.0,16.0,18.0,24.0,7.0,31.0,34.0,6.0
5.272233486175537,6.0,17.0,5.0,7.0,6.0,15.0,17.0,8.0
5.275700092315674,11.0,10.0,0.0,7.0,5.0,0.0,0.0,12.0
5.2791666984558105,8.0,10.0,10.0,7.0,5.0,32.0,15.0,16.0
5.282633304595947,5.0,32.0,5.0,13.0,5.0,28.0,22.0,23.0
5.286099910736084,18.0,38.0,17.0,19.0,9.0,5.0,28.0,29.0
5.289633274078369,23.0,6.0,11.0,28.0,13.0,32.0,18.0,27.0
5.293099880218506,26.0,28.0,5.0,39.0,21.0,12.0,17.0,21.0
5.296566486358643,29.0,31.0,17.0,19.0,28.0,44.0,35.0,15.0
5.3000335693359375,8.0,21.0,8.0,0.0,31.0,36.0,873.0,13.0
5.303500175476074,28.0,20.0,0.0,15.0,24.0,28.0,448.0,11.0
5.307000160217285,44.0,19.0,13.0,11.0,17.0,5.0,24.0,13.0
5.310466766357422,33.0,16.0,53.0,18.0,10.0,36.0,15.0,12.0
5.313933372497559,0.0,14.0,34.0,14.0,30.0,9.0,17.0,12.0
5.317399978637695,21.0,17.0,15.0,7.0,21.0,23.0,17.0,13.0
5.320916652679443,16.0,11.0,33.0,0.0,15.0,31.0,18.0,18.0
5.32438325881958,23.0,5.0,51.0,18.0,28.0,103.0,5.0,23.0
5.327849864959717,26.0,8.0,40.0,28.0,33.0,138.0,20.0,20.0
5.3313164710998535,28.0,12.0,32.0,34.0,22.0,163.0,20.0,24.0
5.334783554077148,13.0,0.0,113.0,0.0,24.0,46.0,20.0,28.0
5.338316440582275,39.0,18.0,69.0,25.0,5.0,36.0,13.0,15.0
5.34178352355957,0.0,0.0,25.0,39.0,33.0,46.0,11.0,0.0
5.345250129699707,25.0,0.0,31.0,16.0,46.0,5.0,10.0,26.0
5.348716735839844,26.0,0.0,37.0,41.0,59.0,43.0,11.0,39.0
5.3521833419799805,31.0,0.0,9.0,9.0,43.0,36.0,16.0,41.0
5.355716705322266,36.0,5.0,5.0,7.0,10.0,45.0,21.0,34.0
5.359183311462402,31.0,2.0,19.0,5.0,5.0,5.0,18.0,16.0
5.362649917602539,25.0,0.0,33.0,14.0,29.0,7.0,15.0,33.0
5.366116523742676,11.0,29.0,40.0,7.0,27.0,35.0,20.0,17.0
5.3695831298828125,35.0,34.0,35.0,0.0,0.0,5.0,15.0,0.0
5.373116493225098,36.0,23.0,0.0,0.0,21.0,5.0,17.0,8.0
5.376583099365234,8.0,13.0,7.0,0.0,36.0,15.0,19.0,16.0
5.380050182342529,33.0,26.0,13.0,39.0,29.0,5.0,15.0,0.0
5.383516788482666,50.0,24.0,16.0,35.0,34.0,11.0,16.0,19.0
5.386983394622803,34.0,23.0,0.0,7.0,22.0,5.0,17.0,0.0
5.390500068664551,38.0,18.0,64.0,32.0,21.0,0.0,12.0,14.0
5.3939666748046875,42.0,28.0,64.0,31.0,53.0,5.0,20.0,28.0
5.397433280944824,34.0,38.0,65.0,64.0,72.0,37.0,29.0,35.0
5.400899887084961,53.0,80.0,75.0,51.0,60.0,45.0,67.0,64.0
5.404366493225098,154.0,115.0,86.0,64.0,49.0,53.0,73.0,75.0
5.407899856567383,139.0,105.0,137.0,909.0,39.0,19.0,60.0,36.0
5.4113664627075195,125.0,89.0,206.0,1002.0,88.0,63.0,50.0,89.0
5.4148335456848145,75.0,2617.0,1253.0,4082.0,2738.0,79.0,40.0,58.0
5.418300151824951,98.0,2514.0,2299.0,10284.0,4303.0,5826.0,2218.0,892.0
5.421766757965088,115.0,5652.0,10944.0,13664.0,9060.0,6994.0,5880.0,853.0
5.425300121307373,83.0,14404.0,28276.0,38896.0,23696.0,12492.0,7202.0,1086.0
5.42876672744751,162.0,23508.0,61040.0,52272.0,50896.0,32112.0,10664.0,1482.0
5.4322333335876465,142.0,39008.0,77904.0,112576.0,83056.0,45376.0,16440.0,3555.0
5.435699939727783,102.0,79392.0,125840.0,177664.0,118464.0,56208.0,28016.0,5629.0
5.439199924468994,119.0,66752.0,176704.0,219968.0,152576.0,108080.0,47712.0,10800.0
5.442699909210205,66.0,110320.0,222656.0,231680.0,174720.0,117328.0,55280.0,14304.0
5.446166515350342,65.0,132800.0,250944.0,268480.0,225152.0,138752.0,59216.0,15112.0
5.4496331214904785,63.0,138176.0,301760.0,332352.0,246656.0,125728.0,65200.0,15920.0
5.453100204467773,52.0,152832.0,322880.0,334592.0,251520.0,125568.0,61360.0,20688.0
5.456583499908447,41.0,151552.0,295040.0,321344.0,264192.0,147840.0,58912.0,26332.0
5.460050106048584,132.0,134976.0,291840.0,331264.0,248576.0,160896.0,52464.0,24120.0
5.463516712188721,131.0,141440.0,305856.0,294592.0,236096.0,163008.0,47056.0,30312.0
5.466983318328857,43.0,131840.0,308288.0,320704.0,217472.0,141120.0,48128.0,17544.0
5.470449924468994,48.0,135552.0,247168.0,288512.0,203648.0,134080.0,47840.0,21872.0
5.473983287811279,58.0,121600.0,257152.0,259136.0,188352.0,105968.0,49376.0,19080.0
5.477449893951416,74.0,90400.0,207680.0,233408.0,210624.0,108288.0,39184.0,12176.0
5.480916500091553,13.0,87600.0,205120.0,208256.0,158592.0,110720.0,41536.0,15420.0
5.4843831062316895,55.0,91232.0,198336.0,239744.0,162112.0,92608.0,47568.0,9284.0
5.487850189208984,53.0,94384.0,177984.0,213632.0,180096.0,96224.0,45728.0,12796.0
5.4913835525512695,43.0,86880.0,171648.0,201216.0,145856.0,80880.0,31368.0,12444.0
5.494850158691406,33.0,79376.0,179520.0,199616.0,143296.0,79632.0,35008.0,9772.0
5.498316764831543,53.0,85168.0,179712.0,193536.0,147840.0,81856.0,32328.0,9448.0
5.50178337097168,27.0,76544.0,179904.0,190592.0,140864.0,84352.0,33872.0,14760.0
5.505249977111816,51.0,77888.0,149376.0,186368.0,137408.0,87152.0,36720.0,16508.0
5.508783340454102,50.0,77584.0,170432.0,190144.0,136320.0,77712.0,36064.0,13992.0
5.512266635894775,49.0,73488.0,156160.0,162752.0,135296.0,84784.0,35424.0,6779.0
5.515733242034912,71.0,65152.0,170240.0,178240.0,143360.0,80064.0,39904.0,13376.0
5.519199848175049,24.0,73536.0,166336.0,175168.0,133056.0,80256.0,29916.0,15064.0
5.5226664543151855,72.0,76560.0,160320.0,162112.0,122720.0,67392.0,23160.0,9720.0
5.5261664390563965,73.0,69120.0,148288.0,167424.0,111472.0,82000.0,34368.0,8115.0
5.529633522033691,16.0,61696.0,151936.0,151552.0,112048.0,80752.0,35440.0,10572.0
5.533100128173828,65.0,74096.0,121952.0,150208.0,102272.0,55984.0,37408.0,7273.0
5.536566734313965,21.0,53136.0,129728.0,114256.0,115408.0,60816.0,21248.0,7421.0
5.540033340454102,32.0,58624.0,100784.0,129440.0,84256.0,53104.0,28432.0,7152.0
5.54355001449585,47.0,49632.0,90960.0,102272.0,75968.0,34448.0,12636.0,6692.0
5.547016620635986,98.0,33568.0,74928.0,75680.0,64544.0,36256.0,14360.0,6144.0
5.550483226776123,67.0,30612.0,54528.0,78736.0,42640.0,35216.0,11204.0,8900.0
5.55394983291626,35.0,24492.0,57856.0,38624.0,38992.0,19944.0,9448.0,309.0
5.557466506958008,78.0,17856.0,33552.0,40832.0,22548.0,18856.0,5450.0,820.0
5.560966491699219,74.0,13076.0,22316.0,26312.0,13856.0,10404.0,4821.0,316.0
5.5644330978393555,70.0,12572.0,22776.0,17400.0,15112.0,12232.0,3798.0,252.0
5.56790018081665,148.0,10208.0,11856.0,10024.0,8484.0,8392.0,3586.0,188.0
5.571366786956787,142.0,4358.0,8264.0,10044.0,9188.0,1452.0,1782.0,140.0
5.574850082397461,92.0,3597.0,10128.0,9256.0,8488.0,4967.0,78.0,92.0
5.578316688537598,129.0,125.0,9864.0,9624.0,4210.0,3985.0,1541.0,92.0
5.581783294677734,165.0,5288.0,5970.0,5162.0,5691.0,973.0,754.0,92.0
5.585249900817871,163.0,3059.0,7626.0,4017.0,2498.0,253.0,594.0,668.0
5.588716506958008,169.0,2079.0,5862.0,948.0,3407.0,3803.0,95.0,564.0
5.592249870300293,174.0,143.0,5057.0,2054.0,2606.0,3171.0,873.0,118.0
5.59571647644043,149.0,1933.0,4252.0,4787.0,2687.0,3636.0,479.0,62.0
