,344.2099914550781,345.2099914550781,346.2099914550781,347.2099914550781,348.2099914550781,349.2099914550781,350.2099914550781,351.2099914550781
2.3017499446868896,1390.0,17.0,17.0,20.0,28.0,26.0,5.0,0.0
2.303483247756958,5.0,10.0,26.0,10.0,31.0,8.0,28.0,604.0
2.3052165508270264,35.0,31.0,7.0,17.0,19.0,120.0,27.0,986.0
2.306950092315674,0.0,17.0,15.0,5.0,12.0,18.0,36.0,209.0
2.3087332248687744,13.0,23.0,23.0,11.0,5.0,59.0,0.0,13.0
2.310466766357422,22.0,21.0,11.0,16.0,18.0,32.0,16.0,33.0
2.3122000694274902,0.0,0.0,18.0,14.0,20.0,16.0,18.0,19.0
2.3139333724975586,19.0,23.0,21.0,12.0,18.0,39.0,5.0,11.0
2.315666675567627,0.0,15.0,25.0,45.0,13.0,5.0,5.0,6.0
2.3173999786376953,0.0,19.0,12.0,49.0,7.0,17.0,10.0,0.0
2.3191332817077637,0.0,17.0,15.0,22.0,25.0,30.0,10.0,20.0
2.320866584777832,30.0,15.0,17.0,5.0,23.0,8.0,10.0,10.0
2.3226165771484375,48.0,37.0,0.0,29.0,21.0,33.0,29.0,0.0
2.324399948120117,33.0,30.0,16.0,17.0,6.0,44.0,35.0,32.0
2.3261332511901855,15.0,23.0,16.0,0.0,20.0,34.0,20.0,38.0
2.327866554260254,44.0,17.0,41.0,3.0,10.0,25.0,25.0,5.0
2.3296000957489014,39.0,10.0,38.0,5.0,0.0,44.0,6.0,0.0
2.3313333988189697,12.0,36.0,5.0,3.0,17.0,38.0,3.0,41.0
2.333066701889038,5.0,18.0,29.0,0.0,0.0,29.0,0.0,23.0
2.3348000049591064,32.0,0.0,13.0,6.0,14.0,31.0,6.0,31.0
2.336533308029175,0.0,10.0,16.0,12.0,28.0,25.0,12.0,15.0
2.338266611099243,7.0,10.0,18.0,11.0,37.0,10.0,13.0,0.0
2.3399999141693115,11.0,18.0,12.0,10.0,40.0,28.0,23.0,5.0
2.341783285140991,5.0,17.0,9.0,32.0,39.0,26.0,34.0,25.0
2.3435165882110596,10.0,17.0,7.0,31.0,0.0,33.0,29.0,14.0
2.345249891281128,39.0,0.0,5.0,13.0,48.0,40.0,20.0,28.0
2.3469834327697754,44.0,25.0,5.0,35.0,65.0,6.0,14.0,21.0
2.3487167358398438,35.0,0.0,5.0,47.0,35.0,5.0,11.0,15.0
2.350450038909912,16.0,11.0,6.0,13.0,5.0,27.0,24.0,26.0
2.3521833419799805,0.0,5.0,7.0,28.0,0.0,16.0,15.0,5.0
2.353916645050049,39.0,8.0,28.0,39.0,14.0,5.0,5.0,14.0
2.355649948120117,0.0,11.0,31.0,5.0,28.0,0.0,15.0,10.0
2.3573832511901855,16.0,16.0,20.0,21.0,25.0,29.0,17.0,5.0
2.3591833114624023,18.0,16.0,19.0,19.0,22.0,31.0,21.0,5.0
2.3609166145324707,17.0,15.0,17.0,10.0,27.0,16.0,16.0,32.0
2.362649917602539,15.0,37.0,15.0,0.0,28.0,9.0,11.0,861.0
2.3643832206726074,13.0,33.0,20.0,26.0,29.0,14.0,15.0,433.0
2.366116762161255,10.0,25.0,17.0,11.0,29.0,18.0,20.0,5.0
2.3678500652313232,11.0,10.0,14.0,5.0,29.0,21.0,15.0,26.0
2.3695833683013916,11.0,12.0,19.0,6.0,13.0,0.0,9.0,5.0
2.37131667137146,21.0,13.0,23.0,5.0,5.0,5.0,5.0,0.0
2.3730499744415283,11.0,12.0,15.0,0.0,20.0,15.0,12.0,0.0
2.3747832775115967,0.0,11.0,7.0,13.0,35.0,8.0,18.0,0.0
2.3765666484832764,0.0,13.0,9.0,21.0,31.0,0.0,13.0,15.0
2.3782999515533447,16.0,19.0,10.0,25.0,0.0,15.0,7.0,17.0
2.380033254623413,12.0,25.0,38.0,31.0,10.0,12.0,4.0,18.0
2.3817665576934814,5.0,22.0,24.0,0.0,35.0,29.0,0.0,12.0
2.383500099182129,5.0,20.0,10.0,37.0,48.0,18.0,8.0,6.0
2.3852334022521973,9.0,12.0,34.0,7.0,18.0,9.0,4.0,3.0
2.3869667053222656,12.0,0.0,22.0,15.0,23.0,0.0,0.0,0.0
2.388700008392334,0.0,12.0,26.0,42.0,26.0,18.0,7.0,35.0
2.3904500007629395,12.0,13.0,6.0,50.0,6.0,28.0,14.0,17.0
2.392216682434082,23.0,0.0,9.0,34.0,0.0,64.0,20.0,0.0
2.3939499855041504,37.0,11.0,29.0,16.0,16.0,62.0,10.0,0.0
2.3956832885742188,34.0,0.0,37.0,17.0,0.0,7.0,0.0,21.0
2.397416591644287,32.0,3.0,21.0,32.0,34.0,12.0,32.0,5.0
2.3991498947143555,43.0,6.0,10.0,11.0,31.0,9.0,18.0,10.0
2.4019665718078613,42.0,6.0,26.0,0.0,43.0,0.0,0.0,16.0
2.404783248901367,9.0,5.0,18.0,5.0,5.0,15.0,31.0,22.0
2.407599925994873,55.0,5.0,5.0,15.0,6.0,0.0,13.0,20.0
2.410433292388916,22.0,31.0,18.0,9.0,5.0,3.0,15.0,16.0
2.413249969482422,0.0,25.0,5.0,7.0,7.0,6.0,26.0,32.0
2.416083335876465,11.0,43.0,37.0,5.0,9.0,11.0,0.0,6.0
2.4189000129699707,21.0,22.0,33.0,11.0,26.0,31.0,41.0,32.0
2.4217166900634766,17.0,45.0,29.0,17.0,18.0,15.0,38.0,35.0
2.4245333671569824,12.0,12.0,13.0,13.0,10.0,0.0,36.0,12.0
2.4274001121520996,31.0,30.0,20.0,15.0,17.0,29.0,31.0,13.0
2.4302165508270264,25.0,19.0,13.0,16.0,12.0,31.0,5.0,58.0
2.4330332279205322,18.0,14.0,6.0,8.0,6.0,0.0,34.0,47.0
2.435849905014038,23.0,30.0,20.0,0.0,14.0,27.0,9.0,55.0
2.438666582107544,29.0,32.0,29.0,7.0,16.0,18.0,25.0,36.0
2.44148325920105,11.0,31.0,32.0,26.0,16.0,39.0,6.0,50.0
2.444366693496704,8.0,20.0,7.0,27.0,5.0,5.0,46.0,63.0
2.44718337059021,5.0,10.0,18.0,36.0,6.0,32.0,57.0,222.0
2.450000047683716,21.0,37.0,13.0,17.0,23.0,0.0,29.0,119.0
2.4528167247772217,29.0,19.0,9.0,15.0,41.0,33.0,31.0,16.0
2.4556334018707275,33.0,10.0,5.0,12.0,30.0,7.0,38.0,274.0
2.4584500789642334,0.0,0.0,3.0,19.0,15.0,21.0,32.0,0.0
2.4613165855407715,0.0,30.0,0.0,27.0,0.0,27.0,11.0,11.0
2.4641332626342773,42.0,19.0,3.0,34.0,7.0,42.0,5.0,22.0
2.466949939727783,14.0,46.0,5.0,42.0,14.0,29.0,15.0,23.0
2.469783306121826,44.0,43.0,7.0,11.0,12.0,31.0,10.0,0.0
2.472599983215332,23.0,16.0,9.0,8.0,10.0,33.0,5.0,5.0
2.475416660308838,11.0,52.0,9.0,15.0,16.0,32.0,5.0,15.0
2.478283405303955,16.0,5.0,9.0,28.0,21.0,31.0,5.0,15.0
2.481100082397461,20.0,18.0,8.0,59.0,33.0,6.0,5.0,16.0
2.483916759490967,28.0,32.0,34.0,75.0,35.0,5.0,5.0,16.0
2.4867334365844727,5.0,12.0,29.0,0.0,0.0,21.0,22.0,16.0
2.4895501136779785,11.0,19.0,25.0,20.0,13.0,18.0,18.0,15.0
2.4923665523529053,11.0,12.0,18.0,12.0,5.0,22.0,13.0,14.0
2.4952332973480225,15.0,5.0,21.0,27.0,21.0,27.0,23.0,13.0
2.4980499744415283,31.0,18.0,16.0,6.0,39.0,5.0,22.0,11.0
2.500866651535034,24.0,25.0,5.0,3.0,47.0,32.0,21.0,9.0
2.503700017929077,17.0,22.0,28.0,0.0,18.0,22.0,5.0,7.0
2.506516695022583,11.0,19.0,32.0,4.0,28.0,0.0,5.0,5.0
2.509333372116089,20.0,19.0,16.0,7.0,53.0,19.0,5.0,10.0
2.512200117111206,13.0,18.0,0.0,18.0,29.0,11.0,17.0,20.0
2.515016555786133,5.0,9.0,8.0,12.0,28.0,6.0,12.0,20.0
2.5178332328796387,11.0,0.0,15.0,5.0,17.0,10.0,7.0,19.0
2.5206499099731445,5.0,21.0,17.0,8.0,15.0,6.0,43.0,18.0
2.5234665870666504,0.0,10.0,12.0,10.0,13.0,6.0,26.0,19.0
2.5262832641601562,9.0,5.0,8.0,15.0,10.0,5.0,8.0,19.0
2.5291500091552734,18.0,0.0,7.0,19.0,51.0,12.0,0.0,38.0
2.5319666862487793,23.0,23.0,6.0,32.0,64.0,13.0,33.0,34.0
2.534783363342285,11.0,15.0,15.0,28.0,45.0,14.0,19.0,30.0
2.537600040435791,15.0,6.0,25.0,25.0,27.0,16.0,5.0,47.0
2.540433406829834,19.0,18.0,23.0,10.0,12.0,17.0,11.0,13.0
2.54325008392334,5.0,16.0,20.0,34.0,17.0,10.0,8.0,12.0
2.546116590499878,20.0,21.0,37.0,12.0,26.0,21.0,5.0,28.0
2.548933267593384,28.0,10.0,32.0,34.0,5.0,32.0,0.0,22.0
2.5517499446868896,32.0,8.0,28.0,55.0,0.0,0.0,7.0,28.0
2.5545666217803955,37.0,6.0,0.0,55.0,0.0,31.0,6.0,33.0
2.5573832988739014,6.0,6.0,17.0,25.0,9.0,0.0,5.0,16.0
2.5601999759674072,15.0,9.0,35.0,32.0,11.0,11.0,6.0,36.0
2.5630834102630615,20.0,11.0,594.0,25.0,30.0,17.0,0.0,17.0
2.5659000873565674,16.0,18.0,1152.0,699.0,22.0,19.0,31.0,6.0
2.5687167644500732,19.0,40.0,2492.0,709.0,15.0,13.0,33.0,30.0
2.571533441543579,13.0,59.0,3832.0,720.0,14.0,10.0,5.0,5.0
2.574350118637085,6.0,46.0,3203.0,11.0,20.0,5.0,26.0,13.0
2.5771665573120117,17.0,33.0,2574.0,47.0,19.0,0.0,16.0,21.0
2.580033302307129,9.0,17.0,5363.0,9.0,18.0,13.0,7.0,10.0
2.5828499794006348,0.0,5.0,4808.0,19.0,16.0,11.0,9.0,0.0
2.5856666564941406,7.0,7.0,4253.0,30.0,16.0,9.0,10.0,26.0
2.5884833335876465,22.0,12.0,4764.0,13.0,18.0,12.0,5.0,25.0
2.5913000106811523,27.0,16.0,5161.0,17.0,10.0,28.0,15.0,12.0
2.5941333770751953,31.0,22.0,5558.0,20.0,0.0,28.0,15.0,8.0
2.5969998836517334,10.0,23.0,5259.0,13.0,0.0,29.0,14.0,4.0
2.5998165607452393,13.0,23.0,4959.0,5.0,0.0,20.0,10.0,0.0
2.602633237838745,18.0,20.0,3678.0,5.0,20.0,46.0,5.0,5.0
2.605449914932251,23.0,16.0,3578.0,710.0,23.0,39.0,22.0,5.0
2.608266592025757,22.0,18.0,5919.0,1541.0,20.0,33.0,29.0,5.0
2.6110832691192627,20.0,12.0,6508.0,1885.0,57.0,22.0,21.0,9.0
2.613966703414917,24.0,5.0,3447.0,654.0,42.0,12.0,20.0,12.0
2.616783380508423,29.0,13.0,3991.0,38.0,27.0,30.0,26.0,14.0
2.6196000576019287,36.0,21.0,2850.0,25.0,10.0,48.0,26.0,14.0
2.6224167346954346,43.0,27.0,4380.0,444.0,0.0,50.0,12.0,13.0
2.6252334117889404,50.0,35.0,1848.0,23.0,6.0,40.0,15.0,20.0
2.6280500888824463,23.0,31.0,1389.0,28.0,12.0,12.0,18.0,17.0
2.6309165954589844,19.0,18.0,5365.0,25.0,16.0,39.0,20.0,14.0
2.6337332725524902,6.0,5.0,1072.0,25.0,23.0,34.0,16.0,5.0
2.636549949645996,0.0,14.0,2165.0,25.0,31.0,30.0,18.0,8.0
2.639366626739502,8.0,22.0,1416.0,620.0,21.0,36.0,0.0,10.0
2.642183303833008,14.0,26.0,1113.0,347.0,11.0,53.0,32.0,16.0
2.6449999809265137,20.0,29.0,810.0,74.0,36.0,5.0,22.0,21.0
2.647883415222168,23.0,39.0,36.0,47.0,43.0,7.0,13.0,0.0
2.650700092315674,28.0,51.0,435.0,10.0,18.0,22.0,17.0,55.0
2.6535167694091797,33.0,60.0,0.0,0.0,15.0,11.0,86.0,43.0
2.6563334465026855,0.0,15.0,298.0,13.0,50.0,0.0,84.0,37.0
2.6591498851776123,30.0,70.0,13.0,27.0,32.0,50.0,17.0,11.0
2.661966562271118,22.0,0.0,50.0,55.0,53.0,460.0,32.0,15.0
2.6648499965667725,16.0,46.0,1078.0,661.0,36.0,871.0,48.0,20.0
2.6676666736602783,9.0,51.0,948.0,649.0,18.0,578.0,33.0,25.0
2.670483350753784,48.0,23.0,2218.0,1218.0,122.0,101.0,58.0,25.0
2.67330002784729,70.0,3293.0,3868.0,1898.0,2890.0,1851.0,847.0,25.0
2.676116704940796,84.0,3222.0,4071.0,8328.0,4356.0,2368.0,1436.0,33.0
2.6789333820343018,50.0,4690.0,5332.0,10032.0,7588.0,4109.0,2991.0,28.0
2.68179988861084,44.0,2342.0,13464.0,14208.0,9196.0,3829.0,2740.0,23.0
2.6846165657043457,33.0,8592.0,12416.0,18188.0,14668.0,10136.0,1451.0,157.0
2.6874332427978516,31.0,9020.0,13868.0,17032.0,20044.0,12288.0,2999.0,213.0
2.6902499198913574,12.0,12540.0,19100.0,21496.0,23996.0,14696.0,2733.0,270.0
2.6930832862854004,44.0,13676.0,32360.0,25960.0,33328.0,7247.0,2467.0,455.0
2.6958999633789062,36.0,11284.0,31468.0,36352.0,35040.0,11664.0,7688.0,639.0
2.698733329772949,39.0,10152.0,22636.0,52976.0,35280.0,18032.0,8376.0,1063.0
2.701550006866455,43.0,9024.0,41328.0,50112.0,30856.0,17768.0,2051.0,890.0
2.704366683959961,52.0,16404.0,39472.0,59024.0,27948.0,17500.0,11208.0,716.0
2.707183361053467,0.0,16620.0,30460.0,41984.0,33808.0,16940.0,14504.0,464.0
2.7100000381469727,14.0,17032.0,31700.0,45568.0,45680.0,16376.0,12392.0,1486.0
2.7128167152404785,43.0,15868.0,37872.0,54368.0,42160.0,20100.0,10500.0,1576.0
2.7156999111175537,20.0,16620.0,36016.0,47520.0,42784.0,19596.0,5413.0,158.0
2.7185165882110596,28.0,17288.0,32036.0,40672.0,43360.0,19092.0,4923.0,390.0
2.7213332653045654,35.0,17952.0,39008.0,60720.0,42384.0,22072.0,8296.0,474.0
2.7241499423980713,7.0,17272.0,39440.0,59216.0,42960.0,15832.0,7940.0,544.0
2.726966619491577,47.0,16488.0,47744.0,53648.0,43520.0,17728.0,7583.0,780.0
2.729783296585083,28.0,15708.0,44848.0,56384.0,39792.0,23924.0,6807.0,760.0
2.7326667308807373,23.0,17752.0,44352.0,49936.0,41936.0,25728.0,6097.0,739.0
2.735483407974243,5.0,19456.0,34560.0,47600.0,33616.0,20752.0,5387.0,1489.0
2.738300085067749,5.0,21160.0,37056.0,38496.0,39088.0,18136.0,5993.0,745.0
2.741116762161255,5.0,20104.0,37280.0,43344.0,35040.0,15796.0,5332.0,0.0
2.7439334392547607,12.0,16812.0,27244.0,35280.0,37392.0,17728.0,5533.0,667.0
2.7467501163482666,18.0,16608.0,24160.0,27892.0,24404.0,12032.0,3969.0,395.0
2.749633312225342,15.0,12464.0,24028.0,22724.0,19864.0,7928.0,1999.0,123.0
2.7524499893188477,12.0,7358.0,17632.0,12924.0,12856.0,4447.0,1210.0,20.0
2.7552666664123535,15.0,6271.0,15436.0,15412.0,9724.0,8596.0,3108.0,43.0
2.7580833435058594,5.0,2159.0,8620.0,11368.0,15056.0,8780.0,613.0,58.0
2.7609000205993652,15.0,2260.0,8648.0,8484.0,10112.0,5831.0,1519.0,36.0
2.763716697692871,25.0,1499.0,4363.0,8152.0,4663.0,2127.0,1688.0,14.0
2.7665998935699463,23.0,2182.0,4950.0,2501.0,2726.0,2149.0,582.0,21.0
2.769416570663452,18.0,261.0,1970.0,1925.0,2525.0,610.0,0.0,20.0
2.772233247756958,13.0,1404.0,2398.0,3957.0,4123.0,1624.0,5.0,19.0
2.775049924850464,5.0,711.0,3001.0,3836.0,790.0,1556.0,9.0,21.0
2.7778666019439697,44.0,17.0,888.0,2088.0,2002.0,819.0,12.0,22.0
2.7806832790374756,39.0,1843.0,1247.0,1499.0,325.0,194.0,14.0,5.0
2.7835500240325928,32.0,382.0,1338.0,2735.0,1581.0,1130.0,15.0,32.0
2.7863667011260986,36.0,418.0,1429.0,1231.0,680.0,29.0,14.0,6.0
2.7891833782196045,31.0,1664.0,303.0,2203.0,617.0,31.0,13.0,13.0
2.7920000553131104,26.0,759.0,161.0,26.0,47.0,34.0,34.0,37.0
2.7948334217071533,10.0,512.0,18.0,1925.0,561.0,8.0,37.0,10.0
2.797650098800659,14.0,959.0,429.0,16.0,603.0,20.0,16.0,47.0
2.8005166053771973,32.0,761.0,454.0,1052.0,10.0,33.0,23.0,36.0
2.803333282470703,33.0,1295.0,479.0,31.0,13.0,0.0,30.0,31.0
2.806149959564209,0.0,25.0,29.0,5.0,15.0,38.0,8.0,0.0
2.808966636657715,0.0,55.0,22.0,16.0,33.0,29.0,32.0,19.0
2.8117833137512207,43.0,335.0,15.0,28.0,16.0,19.0,23.0,18.0
2.8145999908447266,27.0,27.0,24.0,8.0,0.0,56.0,36.0,16.0
2.817483425140381,14.0,53.0,27.0,1007.0,33.0,548.0,21.0,20.0
2.8203001022338867,27.0,82.0,1026.0,520.0,323.0,282.0,47.0,20.0
2.8231167793273926,5.0,72.0,789.0,34.0,499.0,15.0,49.0,12.0
2.8259332180023193,5.0,61.0,22.0,46.0,813.0,14.0,10.0,20.0
2.828749895095825,5.0,27.0,81.0,30.0,439.0,22.0,46.0,6.0
2.831566572189331,17.0,35.0,10.0,14.0,65.0,26.0,54.0,16.0
2.8344333171844482,29.0,44.0,70.0,12.0,46.0,30.0,62.0,26.0
2.837249994277954,23.0,5.0,6.0,9.0,26.0,30.0,13.0,29.0
2.84006667137146,18.0,0.0,29.0,161.0,5.0,22.0,10.0,33.0
2.842883348464966,43.0,5.0,29.0,97.0,27.0,14.0,12.0,22.0
2.845716714859009,21.0,11.0,30.0,34.0,864.0,8.0,11.0,11.0
2.8485333919525146,0.0,14.0,20.0,29.0,439.0,0.0,10.0,19.0
2.8513998985290527,10.0,16.0,19.0,0.0,15.0,7.0,30.0,12.0
2.8542165756225586,20.0,13.0,14.0,16.0,205.0,20.0,34.0,5.0
2.8570332527160645,5.0,20.0,467.0,0.0,11.0,25.0,13.0,0.0
2.8598499298095703,17.0,16.0,248.0,585.0,0.0,12.0,9.0,5.0
2.862666606903076,20.0,11.0,29.0,623.0,22.0,32.0,11.0,5.0
2.865483283996582,22.0,0.0,433.0,5.0,18.0,31.0,10.0,5.0
2.868350028991699,23.0,0.0,11.0,491.0,14.0,31.0,5.0,0.0
2.871166706085205,23.0,15.0,47.0,9.0,12.0,33.0,0.0,0.0
2.873983383178711,44.0,11.0,16.0,5.0,10.0,44.0,3.0,14.0
2.876800060272217,27.0,7.0,20.0,5.0,11.0,35.0,5.0,20.0
2.8796167373657227,10.0,12.0,25.0,3.0,11.0,27.0,20.0,27.0
2.8824501037597656,18.0,9.0,0.0,0.0,15.0,37.0,413.0,0.0
2.8853166103363037,31.0,5.0,5.0,5.0,17.0,31.0,215.0,6.0
2.8881332874298096,26.0,16.0,50.0,13.0,19.0,18.0,17.0,27.0
2.8909499645233154,16.0,42.0,357.0,21.0,12.0,42.0,15.0,32.0
2.8937666416168213,31.0,42.0,208.0,19.0,5.0,5.0,32.0,28.0
2.896583318710327,38.0,41.0,59.0,17.0,5.0,26.0,5.0,30.0
2.899399995803833,42.0,41.0,15.0,16.0,5.0,46.0,17.0,38.0
2.90226674079895,21.0,41.0,5.0,20.0,198.0,26.0,36.0,15.0
2.905083417892456,48.0,20.0,38.0,15.0,390.0,37.0,5.0,31.0
2.907916784286499,6.0,0.0,19.0,22.0,505.0,37.0,12.0,21.0
2.910733222961426,23.0,17.0,37.0,0.0,265.0,38.0,45.0,31.0
2.9135499000549316,15.0,35.0,31.0,5.0,26.0,23.0,0.0,9.0
2.9163665771484375,8.0,34.0,26.0,5.0,15.0,0.0,48.0,31.0
2.9192333221435547,0.0,34.0,35.0,48.0,16.0,30.0,42.0,0.0
2.9220499992370605,34.0,10.0,30.0,35.0,10.0,348.0,8.0,28.0
2.9248666763305664,25.0,28.0,25.0,21.0,6.0,184.0,48.0,29.0
2.9276833534240723,40.0,26.0,35.0,28.0,14.0,20.0,18.0,31.0
2.930500030517578,40.0,36.0,43.0,311.0,35.0,61.0,16.0,15.0
2.933316707611084,41.0,98.0,51.0,594.0,55.0,49.0,30.0,17.0
2.936183214187622,47.0,78.0,87.0,503.0,511.0,59.0,43.0,7.0
2.939016580581665,53.0,58.0,85.0,32.0,270.0,5.0,41.0,40.0
2.941833257675171,58.0,101.0,51.0,39.0,30.0,45.0,39.0,38.0
2.9446499347686768,45.0,85.0,17.0,503.0,6.0,35.0,36.0,37.0
2.9474666118621826,33.0,74.0,56.0,65.0,157.0,0.0,33.0,21.0
2.9502832889556885,51.0,63.0,13.0,507.0,54.0,25.0,12.0,6.0
2.9531500339508057,79.0,51.0,34.0,22.0,61.0,49.0,71.0,14.0
2.9559667110443115,70.0,71.0,19.0,6.0,64.0,42.0,43.0,21.0
2.9587833881378174,80.0,100.0,202.0,99.0,42.0,59.0,15.0,16.0
2.9616000652313232,31.0,91.0,384.0,61.0,20.0,57.0,37.0,10.0
2.964416742324829,103.0,57.0,215.0,22.0,41.0,55.0,26.0,32.0
2.967233419418335,139.0,48.0,47.0,31.0,297.0,61.0,35.0,30.0
2.97011661529541,164.0,41.0,21.0,39.0,192.0,66.0,44.0,28.0
2.972933292388916,23.0,25.0,78.0,1097.0,88.0,38.0,55.0,26.0
2.975749969482422,63.0,31.0,13.0,942.0,61.0,45.0,62.0,23.0
2.9785666465759277,61.0,38.0,10.0,1238.0,62.0,38.0,69.0,42.0
2.9813833236694336,29.0,12.0,47.0,1213.0,36.0,33.0,25.0,31.0
2.9842000007629395,18.0,15.0,32.0,60.0,61.0,48.0,31.0,19.0
2.9870667457580566,63.0,53.0,31.0,658.0,41.0,38.0,21.0,21.0
2.9898834228515625,52.0,42.0,30.0,557.0,40.0,29.0,0.0,23.0
2.9927000999450684,45.0,19.0,25.0,48.0,39.0,26.0,15.0,30.0
2.995516777038574,42.0,51.0,38.0,16.0,70.0,23.0,33.0,37.0
