,580.6400146484375,581.6400146484375,582.6400146484375,583.6400146484375,584.6400146484375,585.6400146484375,586.6400146484375,587.6400146484375
3.701733350753784,14.0,54.0,39.0,15.0,31.0,77.0,51.0,11.0
3.7034666538238525,56.0,13.0,10.0,30.0,5.0,16.0,10.0,28.0
3.705199956893921,20.0,175.0,41.0,30.0,12.0,47.0,28.0,37.0
3.7069332599639893,15.0,15.0,15.0,46.0,30.0,10.0,21.0,29.0
3.7086665630340576,27.0,17.0,78.0,49.0,32.0,30.0,20.0,21.0
3.710400104522705,10.0,64.0,74.0,36.0,34.0,17.0,20.0,15.0
3.7121334075927734,9.0,12.0,32.0,18.0,26.0,34.0,20.0,20.0
3.713866710662842,8.0,5.0,52.0,31.0,18.0,36.0,15.0,24.0
3.71560001373291,11.0,10.0,24.0,41.0,42.0,28.0,5.0,5.0
3.717400074005127,14.0,13.0,44.0,40.0,49.0,42.0,5.0,15.0
3.7191333770751953,13.0,9.0,28.0,39.0,34.0,14.0,6.0,25.0
3.7208666801452637,12.0,5.0,12.0,34.0,44.0,10.0,12.0,36.0
3.722599983215332,20.0,12.0,26.0,61.0,30.0,42.0,22.0,39.0
3.7243332862854004,24.0,15.0,37.0,55.0,13.0,34.0,21.0,45.0
3.7260665893554688,29.0,45.0,22.0,49.0,13.0,27.0,20.0,26.0
3.727799892425537,19.0,43.0,21.0,14.0,16.0,28.0,31.0,28.0
3.7295334339141846,28.0,41.0,20.0,14.0,19.0,27.0,25.0,32.0
3.731266736984253,37.0,37.0,49.0,8.0,18.0,5.0,19.0,31.0
3.7330000400543213,0.0,22.0,46.0,16.0,12.0,30.0,0.0,22.0
3.734783411026001,10.0,11.0,21.0,18.0,18.0,0.0,8.0,40.0
3.7365334033966064,33.0,46.0,12.0,20.0,24.0,5.0,11.0,33.0
3.7382500171661377,35.0,48.0,16.0,17.0,34.0,15.0,21.0,26.0
3.740000009536743,36.0,13.0,41.0,24.0,24.0,13.0,27.0,28.0
3.7417166233062744,31.0,16.0,38.0,8.0,15.0,12.0,38.0,15.0
3.7434499263763428,46.0,5.0,5.0,25.0,33.0,5.0,50.0,10.0
3.745183229446411,57.0,19.0,30.0,0.0,28.0,13.0,36.0,23.0
3.7469167709350586,0.0,12.0,17.0,5.0,16.0,20.0,23.0,10.0
3.748650074005127,18.0,5.0,0.0,50.0,5.0,27.0,10.0,20.0
3.7503833770751953,12.0,55.0,11.0,37.0,36.0,18.0,5.0,15.0
3.752150058746338,17.0,42.0,17.0,10.0,37.0,29.0,13.0,10.0
3.7538833618164062,9.0,20.0,24.0,5.0,38.0,31.0,21.0,20.0
3.7556166648864746,0.0,75.0,19.0,21.0,38.0,30.0,22.0,46.0
3.757349967956543,7.0,51.0,15.0,19.0,31.0,12.0,5.0,32.0
3.7590832710266113,15.0,20.0,61.0,16.0,23.0,25.0,11.0,17.0
3.7608165740966797,18.0,5.0,60.0,30.0,34.0,10.0,8.0,27.0
3.762550115585327,11.0,63.0,30.0,24.0,35.0,27.0,5.0,23.0
3.7642834186553955,8.0,34.0,10.0,18.0,35.0,11.0,36.0,19.0
3.766016721725464,5.0,5.0,15.0,27.0,29.0,5.0,23.0,20.0
3.7678000926971436,25.0,27.0,18.0,21.0,32.0,28.0,10.0,29.0
3.769550085067749,20.0,33.0,57.0,31.0,7.0,19.0,5.0,29.0
3.7712833881378174,14.0,16.0,47.0,25.0,8.0,10.0,5.0,30.0
3.7730166912078857,10.0,20.0,26.0,31.0,5.0,5.0,5.0,39.0
3.774749994277954,34.0,34.0,6.0,48.0,30.0,19.0,5.0,38.0
3.7764832973480225,41.0,39.0,13.0,7.0,37.0,19.0,17.0,19.0
3.778216600418091,40.0,13.0,0.0,4.0,42.0,20.0,30.0,0.0
3.779949903488159,32.0,32.0,14.0,0.0,40.0,27.0,52.0,16.0
3.7816834449768066,16.0,23.0,27.0,7.0,32.0,39.0,41.0,14.0
3.783416748046875,11.0,16.0,35.0,15.0,23.0,43.0,34.0,11.0
3.7852165699005127,20.0,10.0,6.0,13.0,20.0,24.0,5.0,14.0
3.78695011138916,12.0,0.0,27.0,11.0,28.0,26.0,43.0,17.0
3.7886834144592285,5.0,52.0,12.0,22.0,41.0,28.0,22.0,11.0
3.790416717529297,5.0,60.0,23.0,22.0,49.0,30.0,15.0,5.0
3.7921500205993652,5.0,26.0,10.0,24.0,33.0,22.0,18.0,26.0
3.7938833236694336,23.0,60.0,19.0,18.0,18.0,23.0,14.0,19.0
3.795616626739502,25.0,12.0,16.0,40.0,59.0,11.0,10.0,11.0
3.7973499298095703,16.0,39.0,41.0,40.0,44.0,5.0,5.0,0.0
3.7990832328796387,24.0,36.0,40.0,15.0,27.0,11.0,10.0,21.0
3.800816774368286,32.0,20.0,16.0,33.0,0.0,16.0,10.0,345.0
3.8025999069213867,18.0,15.0,15.0,10.0,27.0,28.0,17.0,175.0
3.804333448410034,5.0,11.0,43.0,13.0,42.0,40.0,11.0,5.0
3.8060667514801025,8.0,10.0,29.0,5.0,27.0,45.0,5.0,28.0
3.807800054550171,10.0,13.0,24.0,22.0,12.0,36.0,0.0,22.0
3.8095333576202393,11.0,16.0,17.0,29.0,0.0,27.0,7.0,25.0
3.8112666606903076,33.0,30.0,21.0,36.0,14.0,17.0,15.0,51.0
3.812999963760376,36.0,30.0,25.0,13.0,28.0,10.0,17.0,44.0
3.8147332668304443,36.0,31.0,15.0,19.0,70.0,9.0,19.0,0.0
3.8164665699005127,18.0,20.0,5.0,7.0,41.0,10.0,0.0,46.0
3.818216562271118,38.0,11.0,5.0,5.0,11.0,43.0,11.0,10.0
3.819999933242798,26.0,21.0,18.0,55.0,10.0,37.0,22.0,5.0
3.821733236312866,6.0,29.0,23.0,43.0,25.0,36.0,37.0,0.0
3.8234667778015137,30.0,38.0,42.0,72.0,16.0,32.0,37.0,34.0
3.825200080871582,36.0,25.0,41.0,47.0,64.0,19.0,31.0,33.0
3.8269333839416504,9.0,5.0,39.0,25.0,50.0,30.0,28.0,28.0
3.8286666870117188,17.0,15.0,23.0,26.0,0.0,22.0,24.0,14.0
3.830399990081787,16.0,10.0,6.0,25.0,32.0,43.0,29.0,0.0
3.8321499824523926,16.0,14.0,34.0,40.0,71.0,64.0,25.0,17.0
3.833883285522461,14.0,19.0,21.0,6.0,5.0,73.0,20.0,13.0
3.8356499671936035,13.0,26.0,11.0,21.0,32.0,14.0,24.0,10.0
3.837383270263672,20.0,0.0,15.0,16.0,12.0,48.0,27.0,13.0
3.8391165733337402,25.0,0.0,16.0,10.0,8.0,17.0,13.0,15.0
3.8408501148223877,32.0,0.0,40.0,5.0,5.0,13.0,5.0,13.0
3.842583417892456,9.0,6.0,37.0,16.0,0.0,53.0,27.0,14.0
3.8443167209625244,30.0,6.0,19.0,16.0,21.0,19.0,22.0,15.0
3.8460500240325928,44.0,6.0,55.0,17.0,16.0,38.0,32.0,26.0
3.847783327102661,59.0,45.0,0.0,17.0,15.0,17.0,22.0,32.0
3.8495166301727295,43.0,37.0,44.0,16.0,14.0,17.0,20.0,37.0
3.851249933242798,56.0,39.0,63.0,15.0,13.0,12.0,10.0,5.0
3.8530499935150146,33.0,32.0,26.0,21.0,15.0,27.0,15.0,19.0
3.854783296585083,21.0,32.0,18.0,27.0,0.0,64.0,21.0,31.0
3.8565165996551514,5.0,34.0,25.0,5.0,20.0,39.0,26.0,5.0
3.8582499027252197,7.0,29.0,23.0,7.0,17.0,15.0,31.0,26.0
3.859983444213867,20.0,24.0,11.0,10.0,29.0,34.0,10.0,25.0
3.8617167472839355,20.0,13.0,7.0,24.0,15.0,34.0,12.0,23.0
3.863450050354004,0.0,10.0,45.0,39.0,22.0,6.0,14.0,14.0
3.8651833534240723,10.0,11.0,34.0,38.0,33.0,33.0,16.0,5.0
3.8669166564941406,18.0,13.0,23.0,27.0,27.0,22.0,17.0,16.0
3.868649959564209,5.0,32.0,27.0,33.0,21.0,16.0,18.0,18.0
3.8703999519348145,0.0,34.0,36.0,39.0,17.0,19.0,16.0,25.0
3.872133255004883,0.0,38.0,38.0,9.0,13.0,21.0,13.0,32.0
3.873866558074951,50.0,17.0,33.0,25.0,5.0,15.0,21.0,22.0
3.8756000995635986,41.0,16.0,27.0,6.0,16.0,0.0,29.0,12.0
3.877333402633667,15.0,27.0,20.0,29.0,26.0,15.0,33.0,10.0
3.8790667057037354,30.0,22.0,23.0,36.0,31.0,43.0,36.0,19.0
3.8808000087738037,26.0,18.0,15.0,17.0,35.0,39.0,21.0,28.0
3.882533311843872,10.0,32.0,25.0,120.0,13.0,10.0,14.0,22.0
3.8842666149139404,5.0,46.0,24.0,74.0,5.0,31.0,30.0,11.0
3.8860666751861572,10.0,45.0,24.0,28.0,28.0,34.0,5.0,55.0
3.8877999782562256,59.0,43.0,16.0,71.0,37.0,37.0,31.0,66.0
3.889533281326294,48.0,29.0,5.0,10.0,47.0,13.0,38.0,25.0
3.8912665843963623,10.0,14.0,5.0,42.0,55.0,0.0,45.0,5.0
3.8929998874664307,23.0,16.0,15.0,5.0,16.0,26.0,39.0,33.0
3.894733428955078,28.0,5.0,6.0,24.0,18.0,30.0,26.0,37.0
3.8964667320251465,34.0,20.0,5.0,56.0,12.0,21.0,57.0,35.0
3.898200035095215,41.0,19.0,23.0,55.0,11.0,24.0,13.0,33.0
3.899933338165283,5.0,10.0,17.0,62.0,11.0,27.0,44.0,40.0
3.9016666412353516,27.0,0.0,13.0,83.0,36.0,11.0,5.0,57.0
3.9034500122070312,32.0,5.0,12.0,16.0,33.0,21.0,0.0,11.0
3.9051833152770996,19.0,11.0,0.0,26.0,39.0,31.0,32.0,22.0
3.906916618347168,26.0,18.0,17.0,61.0,30.0,0.0,5.0,29.0
3.9086666107177734,32.0,25.0,33.0,14.0,25.0,33.0,16.0,10.0
3.9103832244873047,5.0,24.0,42.0,30.0,5.0,38.0,18.0,16.0
3.91213321685791,8.0,20.0,20.0,39.0,5.0,21.0,20.0,28.0
3.9138500690460205,20.0,20.0,32.0,53.0,24.0,5.0,15.0,28.0
3.915583372116089,10.0,19.0,15.0,36.0,0.0,31.0,10.0,27.0
3.9173166751861572,10.0,38.0,14.0,18.0,7.0,5.0,5.0,10.0
3.9190666675567627,13.0,65.0,6.0,30.0,7.0,14.0,0.0,7.0
3.9208500385284424,9.0,77.0,12.0,50.0,6.0,39.0,0.0,5.0
3.9225833415985107,5.0,10.0,13.0,0.0,16.0,23.0,46.0,38.0
3.924316644668579,17.0,15.0,14.0,32.0,16.0,10.0,35.0,21.0
3.9260499477386475,11.0,31.0,10.0,5.0,16.0,11.0,17.0,5.0
3.927783250808716,46.0,20.0,5.0,13.0,20.0,14.0,20.0,15.0
3.929516553878784,40.0,10.0,864.0,107.0,43.0,18.0,30.0,49.0
3.9312500953674316,11.0,1149.0,435.0,1143.0,30.0,23.0,41.0,38.0
3.9329833984375,26.0,1096.0,7.0,960.0,18.0,28.0,41.0,27.0
3.9347167015075684,41.0,611.0,381.0,11.0,198.0,34.0,26.0,13.0
3.9364500045776367,331.0,5310.0,754.0,99.0,944.0,10.0,11.0,26.0
3.9382500648498535,621.0,6746.0,1542.0,187.0,1886.0,721.0,104.0,19.0
3.939983367919922,602.0,4209.0,2454.0,2003.0,2535.0,581.0,810.0,13.0
3.9417166709899902,2517.0,6233.0,3366.0,3818.0,2106.0,12.0,841.0,34.0
3.9434499740600586,5979.0,5841.0,4886.0,5002.0,1678.0,1769.0,1191.0,24.0
3.945183277130127,7047.0,8158.0,8740.0,3727.0,3703.0,1350.0,784.0,15.0
3.9469165802001953,7068.0,10476.0,6649.0,6715.0,5935.0,930.0,1205.0,250.0
3.9486498832702637,2435.0,16628.0,4559.0,6991.0,5259.0,1481.0,971.0,486.0
3.950383424758911,5097.0,15364.0,8400.0,13068.0,5331.0,3865.0,737.0,676.0
3.9521167278289795,5919.0,18520.0,8352.0,11156.0,5403.0,3219.0,1900.0,530.0
3.953900098800659,6741.0,17412.0,8304.0,10048.0,5034.0,2572.0,2576.0,286.0
3.9556334018707275,7571.0,18664.0,10408.0,18068.0,4664.0,2416.0,30.0,42.0
3.957366704940796,8404.0,20888.0,12512.0,15936.0,13892.0,2260.0,3035.0,2219.0
3.9591000080108643,7948.0,23112.0,19036.0,14592.0,12916.0,1884.0,2709.0,1942.0
3.9608333110809326,6628.0,20900.0,17112.0,14216.0,11196.0,3448.0,2383.0,2086.0
3.962583303451538,13700.0,21216.0,18988.0,14484.0,13180.0,5606.0,2102.0,1304.0
3.9642999172210693,14600.0,21536.0,16020.0,14752.0,15160.0,5461.0,1822.0,492.0
3.9660332202911377,10408.0,24360.0,13052.0,13436.0,6203.0,6322.0,3720.0,552.0
3.967766761779785,9748.0,26276.0,15984.0,12124.0,10732.0,4509.0,4059.0,38.0
3.9695000648498535,16112.0,19116.0,17424.0,16980.0,17032.0,3087.0,2310.0,630.0
3.971299886703491,10848.0,23852.0,15884.0,18460.0,9804.0,3953.0,3770.0,27.0
3.9730334281921387,8704.0,13192.0,14816.0,8672.0,15228.0,4694.0,825.0,40.0
3.974766731262207,15712.0,22424.0,15272.0,14656.0,7723.0,4655.0,1818.0,321.0
3.9765000343322754,8740.0,20720.0,18056.0,13132.0,9272.0,4616.0,4003.0,176.0
3.9782333374023438,7440.0,15044.0,16224.0,7592.0,10656.0,5521.0,422.0,31.0
3.979966640472412,15020.0,18952.0,14392.0,9532.0,10892.0,3527.0,4489.0,24.0
3.9816999435424805,10052.0,17028.0,13496.0,12244.0,10308.0,6044.0,2446.0,18.0
3.983433246612549,8988.0,14988.0,15340.0,12228.0,8820.0,3324.0,1288.0,40.0
3.985166549682617,4359.0,18824.0,8560.0,10892.0,7384.0,3134.0,525.0,61.0
3.9869000911712646,2833.0,16540.0,14720.0,10836.0,8018.0,2098.0,3175.0,33.0
3.9886999130249023,5875.0,18400.0,12060.0,9244.0,6860.0,1345.0,2119.0,5.0
3.9904332160949707,8588.0,12292.0,10168.0,11568.0,3463.0,3326.0,29.0,2514.0
3.992166757583618,6443.0,15416.0,8057.0,9232.0,5201.0,2050.0,2621.0,1901.0
3.9939000606536865,4297.0,12164.0,8328.0,11228.0,6863.0,1656.0,2391.0,194.0
3.995633363723755,6496.0,7795.0,7525.0,9184.0,5243.0,1318.0,23.0,24.0
3.9973666667938232,7338.0,9736.0,6495.0,7294.0,6401.0,328.0,39.0,57.0
3.9990999698638916,7177.0,10260.0,10220.0,5510.0,7558.0,1987.0,1801.0,0.0
4.000833511352539,3220.0,6265.0,9424.0,5131.0,1948.0,3005.0,5.0,23.0
4.002566814422607,3613.0,6344.0,5457.0,1424.0,4449.0,1902.0,42.0,44.0
4.004300117492676,5785.0,3277.0,4583.0,1743.0,3813.0,1610.0,81.0,37.0
4.0060834884643555,2371.0,3551.0,6877.0,3532.0,4283.0,1194.0,48.0,30.0
4.007833480834961,2420.0,4048.0,2954.0,2715.0,1713.0,402.0,40.0,11.0
4.009550094604492,2398.0,1421.0,4547.0,1899.0,1035.0,820.0,690.0,35.0
4.0112833976745605,2328.0,2769.0,3929.0,1430.0,2408.0,683.0,355.0,34.0
4.013016700744629,2258.0,4118.0,1849.0,2250.0,45.0,609.0,20.0,32.0
4.014750003814697,2147.0,2667.0,2522.0,1677.0,2865.0,5.0,515.0,26.0
4.016483306884766,2035.0,3122.0,1113.0,2387.0,1643.0,560.0,262.0,17.0
4.018216609954834,1361.0,1261.0,2024.0,2291.0,473.0,25.0,10.0,27.0
4.019949913024902,658.0,4860.0,2437.0,2196.0,1870.0,20.0,0.0,39.0
4.021749973297119,2500.0,4528.0,1559.0,1668.0,817.0,16.0,446.0,6.0
4.0234832763671875,1575.0,2174.0,1244.0,2640.0,6.0,21.0,388.0,34.0
4.025216579437256,1775.0,1977.0,731.0,2724.0,381.0,19.0,20.0,19.0
4.026949882507324,88.0,1235.0,430.0,721.0,0.0,17.0,11.0,30.0
4.028683185577393,33.0,1790.0,15.0,15.0,12.0,17.0,43.0,30.0
4.030416488647461,64.0,788.0,73.0,966.0,24.0,17.0,34.0,29.0
4.032149791717529,70.0,47.0,1133.0,11.0,450.0,31.0,25.0,27.0
4.033883571624756,40.0,299.0,1142.0,751.0,242.0,20.0,12.0,25.0
4.035616874694824,10.0,357.0,32.0,6.0,34.0,10.0,40.0,43.0
4.037350177764893,48.0,531.0,1337.0,370.0,33.0,24.0,5.0,45.0
4.039150238037109,32.0,14.0,203.0,45.0,31.0,20.0,37.0,32.0
4.040883541107178,10.0,24.0,11.0,34.0,20.0,16.0,27.0,55.0
4.042616844177246,13.0,10.0,13.0,22.0,10.0,30.0,17.0,24.0
4.0443501472473145,17.0,10.0,36.0,49.0,10.0,28.0,37.0,26.0
4.046083450317383,28.0,10.0,34.0,56.0,20.0,52.0,46.0,5.0
4.047816753387451,20.0,46.0,32.0,10.0,31.0,40.0,51.0,36.0
4.0495500564575195,11.0,31.0,32.0,20.0,27.0,27.0,42.0,24.0
4.051283359527588,26.0,16.0,14.0,48.0,27.0,17.0,22.0,17.0
4.053016662597656,41.0,15.0,21.0,28.0,26.0,25.0,24.0,10.0
4.054749965667725,36.0,20.0,29.0,43.0,24.0,15.0,34.0,29.0
4.056533336639404,35.0,19.0,25.0,40.0,37.0,5.0,55.0,12.0
4.058266639709473,15.0,18.0,21.0,10.0,38.0,31.0,31.0,19.0
4.059999942779541,18.0,32.0,30.0,21.0,39.0,20.0,7.0,25.0
4.061733245849609,16.0,24.0,31.0,28.0,8.0,39.0,10.0,5.0
4.063466548919678,13.0,15.0,46.0,33.0,34.0,13.0,0.0,20.0
4.065216541290283,27.0,20.0,61.0,39.0,22.0,11.0,14.0,15.0
4.0669331550598145,36.0,23.0,44.0,12.0,15.0,21.0,10.0,21.0
4.06868314743042,23.0,27.0,27.0,35.0,12.0,24.0,24.0,23.0
4.070400238037109,11.0,25.0,0.0,15.0,10.0,27.0,22.0,26.0
4.072133541107178,39.0,46.0,26.0,22.0,36.0,16.0,20.0,26.0
4.073933124542236,36.0,32.0,19.0,29.0,23.0,33.0,15.0,25.0
4.075666904449463,16.0,17.0,5.0,15.0,10.0,50.0,10.0,15.0
4.077400207519531,34.0,23.0,24.0,10.0,8.0,33.0,17.0,12.0
4.0791335105896,20.0,16.0,15.0,16.0,11.0,16.0,16.0,22.0
4.080866813659668,11.0,14.0,56.0,8.0,15.0,28.0,15.0,25.0
4.082600116729736,33.0,11.0,38.0,25.0,13.0,12.0,21.0,35.0
4.084333419799805,14.0,25.0,19.0,22.0,11.0,65.0,26.0,29.0
4.08608341217041,5.0,0.0,11.0,20.0,881.0,54.0,6.0,22.0
4.087800025939941,57.0,25.0,17.0,54.0,758.0,37.0,27.0,16.0
4.089600086212158,37.0,15.0,21.0,52.0,5.0,20.0,14.0,9.0
4.091333389282227,17.0,32.0,25.0,51.0,74.0,48.0,15.0,6.0
4.093066692352295,68.0,24.0,23.0,17.0,5.0,29.0,15.0,3.0
4.094799995422363,25.0,16.0,21.0,5.0,83.0,46.0,13.0,0.0
4.096533298492432,20.0,15.0,21.0,31.0,0.0,11.0,12.0,2.0
4.0982666015625,25.0,11.0,32.0,18.0,18.0,0.0,18.0,5.0
4.099999904632568,20.0,13.0,42.0,24.0,36.0,20.0,30.0,37.0
4.101733207702637,34.0,15.0,60.0,30.0,5.0,18.0,30.0,41.0
4.103466510772705,36.0,14.0,64.0,20.0,42.0,19.0,22.0,38.0
4.105199813842773,10.0,7.0,40.0,0.0,23.0,19.0,8.0,34.0
4.10699987411499,47.0,21.0,18.0,12.0,32.0,20.0,40.0,53.0
4.108733177185059,32.0,24.0,33.0,24.0,15.0,32.0,6.0,10.0
4.110466480255127,16.0,27.0,0.0,28.0,30.0,44.0,35.0,6.0
4.112199783325195,22.0,24.0,22.0,19.0,46.0,37.0,33.0,20.0
4.113933563232422,0.0,24.0,34.0,10.0,5.0,32.0,11.0,34.0
4.11566686630249,11.0,25.0,27.0,16.0,38.0,15.0,66.0,33.0
4.117400169372559,22.0,15.0,57.0,7.0,21.0,36.0,51.0,19.0
4.119133472442627,5.0,21.0,101.0,21.0,5.0,34.0,10.0,5.0
4.120866775512695,31.0,27.0,88.0,30.0,45.0,20.0,39.0,6.0
4.122600078582764,57.0,14.0,22.0,36.0,36.0,29.0,49.0,10.0
4.124383449554443,52.0,0.0,67.0,48.0,26.0,25.0,28.0,10.0
4.126116752624512,21.0,11.0,70.0,38.0,22.0,20.0,24.0,11.0
4.127866744995117,15.0,20.0,25.0,28.0,14.0,16.0,10.0,17.0
4.129583358764648,49.0,22.0,32.0,42.0,6.0,11.0,6.0,22.0
4.131333351135254,22.0,16.0,22.0,33.0,25.0,20.0,3.0,19.0
4.133049964904785,20.0,10.0,5.0,25.0,20.0,16.0,0.0,15.0
4.1347832679748535,18.0,5.0,37.0,16.0,29.0,11.0,15.0,14.0
4.136516571044922,11.0,15.0,10.0,22.0,30.0,12.0,11.0,13.0
4.138266563415527,5.0,10.0,29.0,28.0,40.0,13.0,6.0,43.0
4.139983177185059,23.0,21.0,42.0,19.0,37.0,13.0,16.0,37.0
4.141783237457275,40.0,14.0,20.0,12.0,26.0,13.0,16.0,19.0
4.143516540527344,43.0,7.0,21.0,24.0,16.0,15.0,24.0,26.0
4.145249843597412,13.0,10.0,42.0,39.0,5.0,7.0,36.0,19.0
4.1469831466674805,31.0,27.0,36.0,36.0,31.0,0.0,21.0,12.0
4.148716449737549,35.0,29.0,15.0,44.0,30.0,15.0,6.0,19.0
4.150450229644775,15.0,18.0,39.0,27.0,33.0,17.0,36.0,12.0
4.152183532714844,45.0,7.0,57.0,0.0,5.0,19.0,26.0,5.0
4.153916835784912,19.0,11.0,41.0,16.0,17.0,29.0,35.0,10.0
4.1556501388549805,30.0,15.0,37.0,19.0,36.0,39.0,28.0,15.0
4.157450199127197,29.0,15.0,32.0,0.0,62.0,34.0,32.0,5.0
4.159183502197266,11.0,14.0,32.0,10.0,42.0,39.0,0.0,22.0
4.160916805267334,33.0,13.0,5.0,25.0,21.0,32.0,16.0,23.0
4.162650108337402,19.0,12.0,21.0,32.0,29.0,24.0,8.0,24.0
4.164383411407471,5.0,9.0,14.0,17.0,10.0,31.0,0.0,40.0
4.166116714477539,18.0,6.0,32.0,5.0,34.0,51.0,18.0,48.0
4.167850017547607,18.0,21.0,38.0,21.0,28.0,49.0,18.0,8.0
4.169583320617676,18.0,23.0,49.0,31.0,40.0,30.0,18.0,12.0
4.171316623687744,18.0,36.0,32.0,35.0,10.0,11.0,0.0,58.0
4.1730499267578125,8.0,26.0,5.0,19.0,10.0,15.0,45.0,33.0
4.174833297729492,25.0,50.0,54.0,27.0,11.0,0.0,37.0,21.0
4.1765666007995605,23.0,44.0,24.0,10.0,5.0,0.0,24.0,34.0
4.178299903869629,21.0,30.0,38.0,28.0,9.0,0.0,35.0,14.0
4.180033206939697,21.0,25.0,14.0,5.0,7.0,19.0,39.0,31.0
4.181766510009766,45.0,28.0,5.0,16.0,5.0,16.0,22.0,21.0
4.183499813079834,53.0,34.0,23.0,29.0,8.0,17.0,36.0,27.0
4.185233116149902,61.0,10.0,24.0,5.0,12.0,15.0,61.0,34.0
4.186966896057129,59.0,35.0,19.0,0.0,27.0,10.0,54.0,32.0
4.188700199127197,30.0,36.0,23.0,17.0,36.0,5.0,52.0,7.0
4.190433502197266,10.0,38.0,26.0,11.0,26.0,9.0,52.0,15.0
4.192233562469482,11.0,34.0,25.0,41.0,15.0,13.0,27.0,15.0
4.193966865539551,22.0,29.0,24.0,48.0,28.0,0.0,10.0,24.0
4.195700168609619,23.0,23.0,49.0,33.0,26.0,41.0,14.0,18.0
4.1974334716796875,24.0,34.0,29.0,37.0,23.0,47.0,20.0,5.0
