,580.6400146484375,581.6400146484375,582.6400146484375,583.6400146484375,584.6400146484375,585.6400146484375,586.6400146484375,587.6400146484375
3.701733350753784,12.0,12.0,21.0,5.0,5.0,5.0,37.0,22.0
3.7034666538238525,57.0,34.0,15.0,27.0,6.0,21.0,30.0,16.0
3.705199956893921,0.0,5.0,55.0,32.0,34.0,11.0,31.0,21.0
3.7069332599639893,56.0,8.0,9.0,23.0,43.0,0.0,26.0,15.0
3.7086665630340576,35.0,10.0,13.0,15.0,17.0,0.0,20.0,20.0
3.710400104522705,64.0,42.0,22.0,18.0,29.0,8.0,10.0,22.0
3.7121334075927734,38.0,21.0,15.0,11.0,35.0,15.0,13.0,25.0
3.713866710662842,7.0,0.0,7.0,8.0,28.0,18.0,0.0,39.0
3.71560001373291,0.0,41.0,17.0,15.0,30.0,21.0,17.0,32.0
3.71738338470459,23.0,0.0,47.0,30.0,23.0,23.0,13.0,25.0
3.719116687774658,5.0,32.0,45.0,31.0,5.0,27.0,19.0,5.0
3.7208499908447266,7.0,14.0,10.0,37.0,5.0,0.0,17.0,10.0
3.722583293914795,32.0,8.0,27.0,39.0,19.0,19.0,12.0,5.0
3.7243165969848633,31.0,14.0,23.0,25.0,34.0,15.0,7.0,5.0
3.7260499000549316,7.0,15.0,15.0,10.0,23.0,15.0,16.0,0.0
3.727783441543579,5.0,8.0,11.0,8.0,22.0,15.0,26.0,8.0
3.7295167446136475,25.0,0.0,15.0,5.0,13.0,10.0,19.0,5.0
3.731250047683716,10.0,3.0,20.0,5.0,15.0,5.0,13.0,20.0
3.732983350753784,9.0,5.0,25.0,5.0,6.0,14.0,15.0,29.0
3.734783411026001,12.0,9.0,23.0,27.0,0.0,11.0,16.0,21.0
3.7365167140960693,5.0,28.0,22.0,42.0,11.0,15.0,8.0,14.0
3.7382500171661377,21.0,32.0,20.0,35.0,13.0,13.0,14.0,5.0
3.739983320236206,31.0,21.0,23.0,22.0,15.0,0.0,20.0,25.0
3.7417166233062744,26.0,11.0,39.0,11.0,15.0,28.0,22.0,13.0
3.7434499263763428,5.0,5.0,0.0,19.0,27.0,18.0,25.0,22.0
3.745183229446411,34.0,16.0,19.0,27.0,24.0,22.0,32.0,14.0
3.7469167709350586,35.0,5.0,12.0,14.0,21.0,27.0,5.0,10.0
3.748650074005127,36.0,0.0,38.0,0.0,14.0,25.0,8.0,5.0
3.7503833770751953,19.0,17.0,38.0,21.0,7.0,22.0,10.0,20.0
3.752166748046875,27.0,31.0,0.0,31.0,10.0,44.0,19.0,25.0
3.7539000511169434,25.0,45.0,18.0,15.0,14.0,45.0,28.0,29.0
3.7556333541870117,22.0,47.0,28.0,5.0,17.0,17.0,35.0,25.0
3.75736665725708,11.0,22.0,10.0,31.0,14.0,5.0,25.0,15.0
3.7590999603271484,0.0,0.0,30.0,26.0,11.0,36.0,44.0,17.0
3.760833263397217,0.0,5.0,36.0,17.0,19.0,17.0,48.0,27.0
3.762566566467285,0.0,13.0,18.0,27.0,13.0,5.0,16.0,10.0
3.7643001079559326,15.0,10.0,42.0,25.0,6.0,45.0,52.0,23.0
3.766033411026001,30.0,6.0,5.0,23.0,14.0,26.0,44.0,15.0
3.7677667140960693,30.0,12.0,40.0,10.0,15.0,6.0,6.0,7.0
3.769566774368286,14.0,0.0,17.0,13.0,16.0,11.0,19.0,30.0
3.7713000774383545,8.0,10.0,5.0,15.0,23.0,27.0,0.0,29.0
3.773033380508423,25.0,29.0,93.0,30.0,14.0,13.0,23.0,29.0
3.774766683578491,31.0,32.0,75.0,34.0,5.0,0.0,15.0,12.0
3.7764999866485596,38.0,38.0,44.0,38.0,7.0,22.0,22.0,5.0
3.778233289718628,40.0,5.0,14.0,12.0,7.0,22.0,25.0,34.0
3.7799665927886963,6.0,25.0,49.0,49.0,5.0,7.0,27.0,14.0
3.7816998958587646,0.0,5.0,10.0,37.0,7.0,13.0,25.0,35.0
3.783433437347412,56.0,31.0,33.0,19.0,31.0,11.0,43.0,15.0
3.7852165699005127,44.0,5.0,0.0,22.0,15.0,5.0,44.0,20.0
3.78695011138916,18.0,20.0,20.0,42.0,0.0,13.0,22.0,20.0
3.7886834144592285,15.0,35.0,10.0,5.0,5.0,5.0,58.0,15.0
3.790416717529297,18.0,11.0,0.0,23.0,66.0,9.0,29.0,10.0
3.7921500205993652,18.0,0.0,3.0,29.0,58.0,12.0,0.0,16.0
3.7938833236694336,18.0,25.0,5.0,18.0,10.0,13.0,41.0,11.0
3.795616626739502,5.0,21.0,17.0,9.0,23.0,9.0,25.0,6.0
3.7973499298095703,9.0,17.0,14.0,0.0,31.0,5.0,14.0,10.0
3.7990832328796387,18.0,14.0,15.0,5.0,5.0,10.0,29.0,14.0
3.800816774368286,34.0,10.0,25.0,44.0,0.0,5.0,28.0,17.0
3.802616596221924,26.0,22.0,23.0,43.0,3.0,7.0,19.0,13.0
3.804349899291992,12.0,11.0,12.0,34.0,5.0,13.0,21.0,8.0
3.8060834407806396,21.0,0.0,0.0,5.0,35.0,15.0,22.0,22.0
3.807816743850708,28.0,22.0,10.0,30.0,28.0,0.0,10.0,20.0
3.8095500469207764,26.0,32.0,20.0,36.0,20.0,3.0,21.0,18.0
3.8112833499908447,0.0,15.0,18.0,10.0,16.0,5.0,12.0,10.0
3.813016653060913,37.0,25.0,15.0,21.0,11.0,8.0,28.0,26.0
3.8147499561309814,14.0,26.0,5.0,18.0,16.0,10.0,18.0,6.0
3.81648325920105,15.0,6.0,10.0,0.0,21.0,14.0,7.0,11.0
3.818216562271118,15.0,17.0,5.0,7.0,6.0,11.0,15.0,15.0
3.820016622543335,15.0,19.0,0.0,17.0,13.0,8.0,15.0,15.0
3.8217499256134033,14.0,41.0,41.0,28.0,33.0,7.0,13.0,21.0
3.8234832286834717,26.0,20.0,36.0,35.0,52.0,5.0,10.0,13.0
3.825216770172119,23.0,0.0,33.0,35.0,63.0,19.0,6.0,5.0
3.8269500732421875,20.0,26.0,40.0,0.0,42.0,24.0,20.0,0.0
3.828683376312256,9.0,61.0,12.0,3.0,49.0,29.0,16.0,8.0
3.830416679382324,19.0,39.0,30.0,5.0,29.0,5.0,12.0,5.0
3.8321499824523926,22.0,17.0,50.0,5.0,5.0,11.0,15.0,3.0
3.833883285522461,25.0,27.0,52.0,51.0,6.0,16.0,17.0,0.0
3.8356165885925293,17.0,0.0,0.0,67.0,12.0,26.0,15.0,19.0
3.837399959564209,32.0,5.0,16.0,36.0,15.0,21.0,12.0,34.0
3.8391332626342773,38.0,11.0,28.0,30.0,12.0,17.0,18.0,29.0
3.8408665657043457,7.0,0.0,17.0,23.0,13.0,25.0,14.0,7.0
3.842600107192993,22.0,22.0,17.0,0.0,15.0,33.0,10.0,29.0
3.8443334102630615,27.0,11.0,35.0,39.0,14.0,0.0,36.0,33.0
3.84606671333313,23.0,0.0,8.0,54.0,13.0,5.0,31.0,37.0
3.8478000164031982,19.0,23.0,10.0,10.0,11.0,43.0,32.0,26.0
3.8495333194732666,5.0,18.0,12.0,7.0,15.0,5.0,31.0,5.0
3.851266622543335,9.0,24.0,24.0,11.0,14.0,15.0,5.0,5.0
3.8530666828155518,12.0,30.0,12.0,5.0,12.0,38.0,0.0,5.0
3.85479998588562,15.0,0.0,0.0,10.0,13.0,33.0,5.0,11.0
3.8565332889556885,46.0,6.0,3.0,6.0,13.0,15.0,3.0,10.0
3.858266592025757,54.0,0.0,5.0,18.0,5.0,5.0,0.0,21.0
3.859999895095825,45.0,3.0,6.0,12.0,7.0,10.0,12.0,33.0
3.8617334365844727,7.0,5.0,6.0,6.0,10.0,5.0,25.0,33.0
3.863466739654541,19.0,9.0,7.0,18.0,11.0,6.0,27.0,5.0
3.8652000427246094,0.0,13.0,8.0,0.0,11.0,22.0,6.0,13.0
3.8669333457946777,10.0,18.0,18.0,21.0,33.0,39.0,11.0,12.0
3.868666648864746,19.0,19.0,15.0,5.0,25.0,50.0,16.0,12.0
3.870450019836426,10.0,5.0,12.0,10.0,17.0,16.0,5.0,13.0
3.872183322906494,0.0,11.0,25.0,0.0,27.0,54.0,13.0,12.0
3.8739166259765625,9.0,19.0,15.0,5.0,10.0,38.0,7.0,11.0
3.875649929046631,32.0,17.0,5.0,33.0,0.0,22.0,7.0,10.0
3.877383232116699,25.0,15.0,13.0,41.0,22.0,23.0,6.0,33.0
3.8791167736053467,23.0,14.0,20.0,20.0,12.0,23.0,12.0,19.0
3.880850076675415,5.0,13.0,31.0,32.0,7.0,21.0,6.0,5.0
3.8825833797454834,8.0,23.0,42.0,5.0,20.0,19.0,0.0,22.0
3.8843166828155518,10.0,28.0,0.0,0.0,18.0,17.0,0.0,26.0
3.8860666751861572,11.0,37.0,11.0,30.0,9.0,23.0,0.0,29.0
3.887850046157837,12.0,35.0,43.0,7.0,0.0,17.0,7.0,5.0
3.8895833492279053,5.0,18.0,0.0,9.0,43.0,11.0,13.0,11.0
3.8913166522979736,10.0,10.0,26.0,0.0,35.0,25.0,26.0,10.0
3.893049955368042,12.0,0.0,8.0,25.0,18.0,30.0,27.0,8.0
3.8947832584381104,18.0,0.0,5.0,18.0,27.0,21.0,20.0,23.0
3.8965165615081787,23.0,14.0,20.0,12.0,17.0,13.0,38.0,38.0
3.898250102996826,29.0,15.0,21.0,10.0,21.0,25.0,6.0,43.0
3.8999834060668945,28.0,15.0,22.0,0.0,31.0,30.0,20.0,31.0
3.901716709136963,27.0,16.0,23.0,0.0,12.0,0.0,20.0,18.0
3.9034500122070312,26.0,17.0,17.0,13.0,25.0,5.0,11.0,5.0
3.905233383178711,33.0,40.0,10.0,17.0,37.0,0.0,19.0,54.0
3.9069666862487793,40.0,45.0,11.0,21.0,31.0,28.0,25.0,35.0
3.9086999893188477,9.0,17.0,11.0,11.0,5.0,28.0,31.0,15.0
3.910433292388916,13.0,17.0,11.0,5.0,13.0,22.0,19.0,15.0
3.9121665954589844,35.0,5.0,12.0,23.0,21.0,30.0,30.0,41.0
3.9138998985290527,5.0,3.0,13.0,20.0,0.0,38.0,0.0,38.0
3.9156334400177,15.0,0.0,10.0,24.0,6.0,0.0,26.0,32.0
3.9173667430877686,31.0,5.0,6.0,28.0,12.0,42.0,25.0,37.0
3.919100046157837,39.0,30.0,6.0,31.0,15.0,22.0,23.0,14.0
3.9209001064300537,12.0,25.0,5.0,0.0,18.0,5.0,28.0,12.0
3.922633409500122,30.0,19.0,3.0,46.0,23.0,17.0,31.0,15.0
3.9243667125701904,26.0,24.0,0.0,43.0,18.0,32.0,11.0,10.0
3.926100015640259,40.0,29.0,11.0,0.0,12.0,27.0,29.0,5.0
3.927833318710327,31.0,34.0,5.0,39.0,26.0,5.0,35.0,10.0
3.9295666217803955,25.0,16.0,0.0,5.0,39.0,23.0,16.0,15.0
3.931299924850464,36.0,5.0,5.0,25.0,30.0,42.0,39.0,19.0
3.9330332279205322,0.0,23.0,39.0,23.0,20.0,45.0,7.0,5.0
3.9347667694091797,0.0,10.0,42.0,0.0,25.0,15.0,21.0,17.0
3.936500072479248,0.0,23.0,22.0,6.0,5.0,38.0,35.0,14.0
3.9382834434509277,0.0,46.0,9.0,12.0,5.0,0.0,23.0,19.0
3.940016746520996,0.0,47.0,0.0,17.0,0.0,21.0,7.0,32.0
3.9417500495910645,14.0,17.0,11.0,21.0,12.0,48.0,5.0,24.0
3.943483352661133,16.0,23.0,8.0,17.0,15.0,23.0,16.0,15.0
3.945216655731201,21.0,29.0,5.0,12.0,18.0,41.0,0.0,32.0
3.9469499588012695,391.0,965.0,27.0,17.0,20.0,34.0,19.0,11.0
3.948683261871338,198.0,2308.0,21.0,21.0,25.0,27.0,28.0,22.0
3.9504165649414062,5.0,1967.0,16.0,1497.0,418.0,20.0,29.0,30.0
3.9521501064300537,3.0,1761.0,348.0,1530.0,226.0,13.0,10.0,36.0
3.953883409500122,0.0,2284.0,588.0,11.0,35.0,1056.0,39.0,24.0
3.9556832313537598,922.0,931.0,1113.0,708.0,275.0,538.0,34.0,12.0
3.9574167728424072,1283.0,841.0,1020.0,1741.0,515.0,19.0,29.0,19.0
3.9591500759124756,423.0,2413.0,2803.0,796.0,262.0,253.0,0.0,10.0
3.960883378982544,210.0,1729.0,3067.0,972.0,8.0,632.0,3.0,37.0
3.9626166820526123,133.0,1912.0,3720.0,1148.0,857.0,667.0,5.0,63.0
3.9643499851226807,761.0,2095.0,1567.0,2032.0,605.0,595.0,25.0,46.0
3.966083288192749,398.0,3891.0,3602.0,2195.0,352.0,13.0,12.0,47.0
3.9678165912628174,35.0,4433.0,1645.0,2357.0,1673.0,432.0,0.0,21.0
3.9695498943328857,684.0,2676.0,3824.0,1285.0,1388.0,510.0,0.0,13.0
3.971283435821533,13.0,4157.0,2947.0,1368.0,15.0,588.0,17.0,5.0
3.973066568374634,1017.0,4532.0,2070.0,1316.0,365.0,306.0,22.0,8.0
3.9748001098632812,964.0,4926.0,2252.0,1621.0,715.0,23.0,28.0,11.0
3.9765334129333496,912.0,1494.0,1909.0,1925.0,80.0,309.0,14.0,7.0
3.978266716003418,1690.0,5242.0,1567.0,3548.0,1318.0,157.0,25.0,17.0
3.9800000190734863,2053.0,3498.0,1705.0,3231.0,1357.0,6.0,36.0,18.0
3.9817333221435547,2384.0,6402.0,1843.0,936.0,1395.0,36.0,0.0,23.0
3.98348331451416,1775.0,2516.0,1988.0,2446.0,1753.0,66.0,0.0,28.0
3.9851999282836914,959.0,2510.0,652.0,47.0,36.0,36.0,18.0,25.0
3.986949920654297,1661.0,498.0,1527.0,39.0,1295.0,5.0,15.0,21.0
3.9887332916259766,78.0,1761.0,501.0,249.0,884.0,28.0,11.0,0.0
3.990466594696045,22.0,3024.0,842.0,147.0,1130.0,26.0,0.0,5.0
3.9921998977661133,481.0,2817.0,305.0,45.0,782.0,23.0,3.0,14.0
3.9939334392547607,380.0,410.0,1337.0,299.0,326.0,34.0,5.0,14.0
3.995666742324829,279.0,965.0,673.0,150.0,805.0,30.0,10.0,11.0
3.9974000453948975,1689.0,1973.0,10.0,0.0,1035.0,26.0,17.0,8.0
3.999133348464966,849.0,177.0,946.0,439.0,920.0,32.0,16.0,5.0
4.000866889953613,9.0,891.0,31.0,615.0,0.0,38.0,14.0,37.0
4.002600193023682,304.0,1864.0,785.0,790.0,1231.0,20.0,15.0,35.0
4.00433349609375,890.0,16.0,982.0,625.0,1711.0,6.0,16.0,34.0
4.00611686706543,1081.0,1130.0,823.0,460.0,0.0,13.0,20.0,37.0
4.007850170135498,26.0,1684.0,8.0,1087.0,479.0,12.0,23.0,41.0
4.009583473205566,37.0,2185.0,5.0,23.0,826.0,10.0,47.0,20.0
4.011316776275635,22.0,1292.0,0.0,1038.0,827.0,6.0,69.0,21.0
4.013050079345703,22.0,1302.0,5.0,53.0,23.0,12.0,83.0,0.0
4.0147833824157715,0.0,33.0,10.0,292.0,934.0,22.0,77.0,15.0
4.01651668548584,10.0,830.0,5.0,531.0,31.0,33.0,58.0,18.0
4.018249988555908,19.0,608.0,0.0,32.0,20.0,25.0,15.0,21.0
4.019983291625977,26.0,26.0,23.0,0.0,10.0,36.0,90.0,13.0
4.021716594696045,29.0,6.0,25.0,10.0,5.0,34.0,11.0,21.0
4.023516654968262,24.0,25.0,27.0,34.0,17.0,32.0,0.0,20.0
4.02524995803833,18.0,44.0,30.0,31.0,30.0,35.0,25.0,0.0
4.026983261108398,23.0,49.0,879.0,27.0,22.0,10.0,15.0,11.0
4.028716564178467,29.0,38.0,448.0,27.0,14.0,19.0,16.0,82.0
4.030449867248535,8.0,27.0,17.0,12.0,25.0,30.0,16.0,65.0
4.0321831703186035,11.0,5.0,39.0,17.0,36.0,40.0,15.0,36.0
4.033916473388672,37.0,27.0,22.0,17.0,37.0,30.0,14.0,7.0
4.03564977645874,30.0,31.0,6.0,17.0,38.0,47.0,0.0,10.0
4.037383556365967,23.0,23.0,40.0,14.0,42.0,12.0,5.0,12.0
4.039116859436035,5.0,0.0,20.0,10.0,5.0,0.0,10.0,5.0
4.040900230407715,0.0,23.0,0.0,5.0,30.0,32.0,43.0,33.0
4.042633533477783,19.0,5.0,10.0,3.0,6.0,33.0,45.0,27.0
4.044366836547852,17.0,18.0,13.0,0.0,27.0,36.0,10.0,14.0
4.04610013961792,39.0,31.0,37.0,8.0,18.0,23.0,19.0,8.0
4.047833442687988,27.0,13.0,29.0,16.0,9.0,22.0,0.0,13.0
4.049566745758057,10.0,0.0,22.0,15.0,6.0,21.0,17.0,13.0
4.051300048828125,14.0,33.0,17.0,14.0,33.0,33.0,72.0,13.0
4.053033351898193,17.0,0.0,47.0,11.0,53.0,0.0,83.0,9.0
4.054766654968262,15.0,6.0,46.0,5.0,37.0,13.0,8.0,31.0
4.0565667152404785,18.0,11.0,11.0,8.0,18.0,26.0,0.0,29.0
4.058300018310547,21.0,22.0,15.0,10.0,21.0,21.0,12.0,34.0
4.060033321380615,18.0,17.0,47.0,11.0,23.0,11.0,17.0,28.0
4.061766624450684,15.0,25.0,31.0,16.0,26.0,13.0,21.0,22.0
4.063499927520752,5.0,29.0,15.0,21.0,22.0,15.0,12.0,12.0
4.06523323059082,5.0,51.0,30.0,20.0,20.0,7.0,20.0,11.0
4.066966533660889,5.0,46.0,6.0,19.0,18.0,0.0,12.0,10.0
4.068699836730957,23.0,23.0,17.0,18.0,12.0,14.0,9.0,11.0
4.070433139801025,28.0,0.0,26.0,23.0,22.0,29.0,5.0,12.0
4.072166442871094,6.0,5.0,41.0,0.0,0.0,36.0,9.0,20.0
4.073949813842773,10.0,5.0,30.0,6.0,11.0,47.0,13.0,18.0
4.075683116912842,26.0,5.0,17.0,6.0,27.0,38.0,12.0,31.0
4.077416896820068,26.0,5.0,18.0,6.0,31.0,29.0,10.0,27.0
4.079150199890137,26.0,14.0,10.0,5.0,40.0,35.0,11.0,10.0
4.080883502960205,0.0,17.0,7.0,0.0,11.0,0.0,22.0,0.0
4.082616806030273,5.0,19.0,6.0,5.0,26.0,5.0,14.0,20.0
4.084350109100342,5.0,16.0,5.0,22.0,34.0,0.0,5.0,41.0
4.08608341217041,21.0,19.0,27.0,17.0,11.0,12.0,57.0,39.0
4.0878167152404785,22.0,16.0,22.0,11.0,12.0,8.0,47.0,35.0
4.089550018310547,19.0,8.0,0.0,12.0,17.0,5.0,0.0,0.0
4.091350078582764,15.0,0.0,0.0,12.0,26.0,31.0,38.0,0.0
4.093083381652832,7.0,16.0,0.0,15.0,0.0,25.0,30.0,37.0
4.0948166847229,13.0,21.0,5.0,25.0,28.0,11.0,22.0,14.0
4.096549987792969,18.0,31.0,12.0,36.0,44.0,34.0,38.0,22.0
4.098283290863037,32.0,22.0,18.0,33.0,6.0,15.0,17.0,22.0
4.1000165939331055,27.0,14.0,21.0,16.0,10.0,10.0,17.0,22.0
4.101749897003174,22.0,10.0,11.0,0.0,12.0,9.0,16.0,25.0
4.103483200073242,12.0,19.0,41.0,0.0,16.0,10.0,17.0,28.0
4.1052165031433105,21.0,16.0,28.0,21.0,19.0,10.0,17.0,10.0
4.106949806213379,26.0,13.0,15.0,18.0,18.0,10.0,21.0,55.0
4.108733177185059,30.0,21.0,29.0,26.0,7.0,34.0,26.0,28.0
4.110466480255127,11.0,5.0,17.0,29.0,23.0,37.0,23.0,0.0
4.112199783325195,17.0,6.0,0.0,33.0,5.0,28.0,20.0,55.0
4.113933563232422,22.0,6.0,6.0,17.0,31.0,18.0,29.0,18.0
4.11566686630249,31.0,6.0,13.0,0.0,14.0,13.0,38.0,11.0
4.117400169372559,64.0,5.0,19.0,17.0,12.0,25.0,7.0,5.0
4.119133472442627,54.0,11.0,12.0,28.0,11.0,5.0,36.0,11.0
4.120866775512695,17.0,16.0,6.0,5.0,14.0,8.0,5.0,16.0
4.122600078582764,11.0,14.0,0.0,38.0,17.0,37.0,27.0,11.0
4.1244001388549805,28.0,12.0,23.0,35.0,18.0,45.0,49.0,5.0
4.126133441925049,5.0,0.0,21.0,32.0,18.0,31.0,47.0,12.0
4.127866744995117,17.0,5.0,18.0,0.0,33.0,25.0,31.0,9.0
4.1296000480651855,17.0,9.0,17.0,14.0,0.0,27.0,27.0,6.0
4.131333351135254,18.0,0.0,16.0,26.0,13.0,25.0,12.0,15.0
4.133066654205322,19.0,5.0,8.0,0.0,32.0,27.0,18.0,25.0
4.134799957275391,10.0,16.0,15.0,8.0,21.0,30.0,15.0,31.0
4.136533260345459,0.0,17.0,23.0,6.0,30.0,11.0,18.0,22.0
4.138266563415527,20.0,25.0,18.0,35.0,35.0,21.0,36.0,18.0
4.139999866485596,22.0,32.0,12.0,28.0,22.0,31.0,32.0,13.0
4.141783237457275,30.0,23.0,6.0,22.0,22.0,31.0,28.0,39.0
4.143516540527344,17.0,15.0,22.0,41.0,0.0,0.0,33.0,27.0
4.145249843597412,5.0,12.0,38.0,12.0,29.0,0.0,15.0,14.0
4.1469831466674805,31.0,26.0,19.0,5.0,42.0,0.0,17.0,39.0
4.148716449737549,26.0,30.0,0.0,8.0,5.0,10.0,19.0,52.0
4.150450229644775,21.0,33.0,27.0,18.0,23.0,8.0,38.0,0.0
4.152183532714844,22.0,28.0,34.0,22.0,5.0,20.0,27.0,37.0
4.153916835784912,22.0,23.0,32.0,6.0,10.0,10.0,15.0,53.0
4.155666828155518,17.0,19.0,0.0,9.0,15.0,0.0,19.0,5.0
4.157383441925049,12.0,12.0,52.0,12.0,5.0,20.0,20.0,40.0
4.159183502197266,10.0,5.0,36.0,5.0,14.0,28.0,21.0,27.0
4.160916805267334,7.0,0.0,18.0,14.0,18.0,35.0,16.0,48.0
4.162650108337402,4.0,46.0,10.0,21.0,11.0,31.0,10.0,6.0
4.164383411407471,0.0,59.0,28.0,24.0,25.0,28.0,8.0,5.0
4.166116714477539,23.0,16.0,31.0,27.0,5.0,11.0,5.0,16.0
4.167850017547607,18.0,33.0,32.0,0.0,14.0,36.0,0.0,12.0
4.169583320617676,12.0,22.0,30.0,41.0,22.0,5.0,0.0,27.0
4.171316623687744,14.0,8.0,33.0,10.0,25.0,17.0,35.0,27.0
4.1730499267578125,12.0,15.0,36.0,9.0,28.0,25.0,41.0,39.0
4.174783229827881,10.0,28.0,13.0,22.0,30.0,17.0,49.0,39.0
4.1765666007995605,8.0,18.0,7.0,22.0,32.0,10.0,23.0,18.0
4.178299903869629,7.0,15.0,0.0,26.0,14.0,0.0,9.0,10.0
4.180033206939697,11.0,5.0,7.0,23.0,25.0,15.0,0.0,5.0
4.181766510009766,11.0,12.0,17.0,20.0,26.0,13.0,0.0,6.0
4.183499813079834,11.0,9.0,20.0,21.0,49.0,10.0,5.0,6.0
4.185233116149902,0.0,5.0,23.0,21.0,59.0,14.0,3.0,27.0
4.186966896057129,10.0,22.0,0.0,21.0,17.0,17.0,0.0,35.0
4.188700199127197,28.0,18.0,28.0,18.0,19.0,22.0,17.0,18.0
4.190433502197266,19.0,9.0,14.0,12.0,0.0,46.0,16.0,21.0
4.192233562469482,12.0,29.0,12.0,11.0,28.0,35.0,14.0,23.0
4.193966865539551,5.0,11.0,11.0,10.0,25.0,23.0,10.0,18.0
4.195700168609619,25.0,0.0,6.0,12.0,25.0,41.0,5.0,8.0
4.1974334716796875,12.0,19.0,0.0,19.0,10.0,10.0,5.0,35.0
