,344.2099914550781,345.2099914550781,346.2099914550781,347.2099914550781,348.2099914550781,349.2099914550781,350.2099914550781,351.2099914550781
2.3017332553863525,0.0,24.0,90.0,44.0,5.0,16.0,45.0,6.0
2.303466558456421,45.0,5.0,30.0,5.0,10.0,35.0,0.0,21.0
2.3052000999450684,27.0,34.0,48.0,10.0,46.0,70.0,20.0,184.0
2.306999921798706,10.0,12.0,6.0,15.0,5.0,37.0,5.0,90.0
2.3087332248687744,42.0,35.0,59.0,15.0,18.0,17.0,12.0,24.0
2.310466766357422,17.0,23.0,14.0,47.0,43.0,0.0,20.0,36.0
2.3122000694274902,25.0,5.0,69.0,41.0,28.0,20.0,13.0,22.0
2.3139333724975586,5.0,17.0,56.0,34.0,32.0,15.0,7.0,30.0
2.315666675567627,16.0,28.0,20.0,5.0,5.0,10.0,0.0,39.0
2.3173999786376953,5.0,11.0,15.0,23.0,30.0,20.0,11.0,28.0
2.3191332817077637,18.0,19.0,31.0,24.0,15.0,23.0,21.0,19.0
2.320866584777832,29.0,21.0,27.0,0.0,0.0,26.0,16.0,16.0
2.3225998878479004,31.0,23.0,22.0,23.0,18.0,28.0,10.0,24.0
2.32438325881958,19.0,12.0,13.0,25.0,25.0,19.0,0.0,22.0
2.3261165618896484,18.0,10.0,16.0,20.0,34.0,10.0,8.0,21.0
2.327850103378296,13.0,25.0,19.0,29.0,28.0,15.0,17.0,26.0
2.3295834064483643,21.0,21.0,20.0,31.0,31.0,17.0,17.0,13.0
2.3313167095184326,22.0,30.0,21.0,6.0,40.0,20.0,25.0,0.0
2.333050012588501,25.0,17.0,28.0,22.0,35.0,20.0,23.0,5.0
2.3347833156585693,26.0,18.0,33.0,15.0,30.0,21.0,21.0,12.0
2.3365166187286377,19.0,18.0,29.0,27.0,22.0,6.0,28.0,5.0
2.338249921798706,15.0,15.0,22.0,40.0,35.0,5.0,30.0,6.0
2.3399832248687744,10.0,841.0,14.0,0.0,5.0,10.0,28.0,7.0
2.341783285140991,5.0,446.0,11.0,24.0,11.0,40.0,26.0,8.0
2.3435165882110596,13.0,52.0,28.0,37.0,16.0,51.0,5.0,10.0
2.345249891281128,11.0,53.0,65.0,5.0,13.0,31.0,15.0,13.0
2.3469834327697754,10.0,69.0,38.0,8.0,10.0,10.0,26.0,15.0
2.3487167358398438,0.0,44.0,12.0,45.0,5.0,36.0,25.0,23.0
2.350450038909912,20.0,27.0,13.0,12.0,7.0,17.0,0.0,18.0
2.3521833419799805,39.0,52.0,27.0,30.0,8.0,8.0,30.0,13.0
2.353916645050049,46.0,5.0,74.0,48.0,6.0,0.0,20.0,11.0
2.355649948120117,26.0,5.0,64.0,41.0,29.0,36.0,17.0,5.0
2.357433319091797,27.0,11.0,75.0,39.0,30.0,37.0,15.0,14.0
2.3591833114624023,13.0,11.0,28.0,41.0,10.0,33.0,5.0,13.0
2.3609166145324707,10.0,10.0,20.0,23.0,24.0,15.0,15.0,18.0
2.362649917602539,19.0,10.0,11.0,33.0,27.0,0.0,29.0,0.0
2.3643832206726074,28.0,11.0,5.0,37.0,29.0,42.0,51.0,33.0
2.366116762161255,29.0,18.0,8.0,11.0,23.0,35.0,40.0,42.0
2.3678500652313232,30.0,24.0,11.0,13.0,17.0,5.0,7.0,37.0
2.3695833683013916,27.0,37.0,17.0,15.0,22.0,40.0,30.0,61.0
2.37131667137146,25.0,33.0,16.0,17.0,27.0,43.0,16.0,0.0
2.3730499744415283,13.0,11.0,15.0,15.0,29.0,49.0,26.0,29.0
2.374850034713745,45.0,49.0,26.0,15.0,30.0,21.0,24.0,16.0
2.3765833377838135,37.0,16.0,21.0,29.0,16.0,24.0,15.0,40.0
2.378316640853882,21.0,28.0,16.0,26.0,10.0,20.0,9.0,20.0
2.38004994392395,30.0,10.0,19.0,32.0,17.0,43.0,21.0,23.0
2.3817832469940186,17.0,17.0,22.0,10.0,17.0,32.0,10.0,25.0
2.383516550064087,30.0,10.0,53.0,33.0,17.0,20.0,51.0,5.0
2.3852500915527344,38.0,23.0,59.0,15.0,17.0,12.0,60.0,36.0
2.3869833946228027,40.0,16.0,10.0,15.0,24.0,11.0,32.0,25.0
2.388716697692871,11.0,10.0,46.0,18.0,28.0,11.0,10.0,15.0
2.3904500007629395,63.0,15.0,5.0,39.0,24.0,21.0,51.0,5.0
2.3922500610351562,46.0,32.0,23.0,24.0,5.0,32.0,26.0,35.0
2.3939833641052246,36.0,49.0,44.0,10.0,7.0,37.0,53.0,41.0
2.395716667175293,34.0,36.0,32.0,45.0,60.0,29.0,15.0,62.0
2.3974499702453613,20.0,27.0,20.0,20.0,33.0,10.0,10.0,47.0
2.3991832733154297,25.0,50.0,20.0,16.0,5.0,17.0,42.0,5.0
2.4019999504089355,17.0,34.0,21.0,12.0,34.0,41.0,0.0,19.0
2.4048166275024414,12.0,18.0,34.0,16.0,50.0,41.0,2.0,32.0
2.4076333045959473,7.0,28.0,27.0,21.0,23.0,42.0,5.0,15.0
2.4105167388916016,8.0,35.0,20.0,21.0,10.0,30.0,10.0,7.0
2.4133334159851074,15.0,24.0,21.0,22.0,23.0,17.0,15.0,0.0
2.4161500930786133,27.0,20.0,16.0,27.0,28.0,26.0,17.0,8.0
2.418966770172119,42.0,16.0,18.0,7.0,24.0,60.0,20.0,16.0
2.421783447265625,57.0,24.0,14.0,33.0,20.0,42.0,21.0,31.0
2.4245998859405518,36.0,177.0,10.0,13.0,32.0,23.0,23.0,32.0
2.427466630935669,15.0,114.0,30.0,14.0,29.0,36.0,31.0,34.0
2.430283308029175,0.0,51.0,51.0,611.0,25.0,10.0,24.0,10.0
2.4330999851226807,22.0,212.0,26.0,505.0,26.0,32.0,18.0,0.0
2.4359166622161865,44.0,16.0,0.0,398.0,28.0,33.0,24.0,11.0
2.4387333393096924,62.0,49.0,46.0,10.0,27.0,24.0,29.0,57.0
2.4415500164031982,50.0,15.0,29.0,26.0,26.0,27.0,7.0,45.0
2.4444334506988525,38.0,168.0,5.0,312.0,21.0,21.0,11.0,33.0
2.4472498893737793,42.0,321.0,42.0,165.0,16.0,30.0,6.0,43.0
2.450066566467285,0.0,173.0,6.0,19.0,26.0,33.0,3.0,5.0
2.452883243560791,39.0,25.0,24.0,11.0,37.0,49.0,0.0,10.0
2.455699920654297,22.0,30.0,9.0,13.0,59.0,6.0,17.0,20.0
2.4585165977478027,38.0,30.0,57.0,17.0,46.0,0.0,8.0,9.0
2.461366653442383,10.0,26.0,34.0,22.0,10.0,15.0,0.0,12.0
2.4641833305358887,43.0,22.0,11.0,0.0,34.0,11.0,2.0,20.0
2.4670000076293945,39.0,35.0,11.0,44.0,30.0,7.0,5.0,10.0
2.4698166847229004,24.0,30.0,23.0,36.0,23.0,17.0,5.0,16.0
2.4726333618164062,24.0,26.0,16.0,33.0,6.0,13.0,5.0,6.0
2.475450038909912,24.0,32.0,10.0,57.0,27.0,9.0,12.0,58.0
2.4783167839050293,15.0,1003.0,0.0,59.0,15.0,12.0,17.0,63.0
2.481133222579956,10.0,970.0,5.0,26.0,35.0,26.0,38.0,36.0
2.483949899673462,17.0,29.0,0.0,21.0,36.0,18.0,19.0,53.0
2.4867665767669678,25.0,10.0,25.0,16.0,28.0,10.0,0.0,34.0
2.4895832538604736,0.0,21.0,26.0,8.0,7.0,32.0,62.0,15.0
2.4923999309539795,0.0,35.0,0.0,0.0,26.0,34.0,41.0,18.0
2.495283365249634,0.0,31.0,37.0,3.0,33.0,20.0,15.0,21.0
2.4981000423431396,5.0,36.0,26.0,6.0,11.0,21.0,42.0,12.0
2.5009167194366455,40.0,18.0,23.0,3.0,28.0,10.0,34.0,12.0
2.5037333965301514,39.0,0.0,88.0,0.0,29.0,30.0,36.0,12.0
2.5065500736236572,37.0,48.0,49.0,12.0,29.0,23.0,43.0,11.0
2.509366750717163,10.0,27.0,10.0,24.0,12.0,11.0,35.0,10.0
2.5122499465942383,32.0,13.0,29.0,14.0,10.0,0.0,28.0,5.0
2.515066623687744,43.0,40.0,51.0,5.0,17.0,14.0,13.0,0.0
2.51788330078125,32.0,23.0,237.0,2.0,17.0,27.0,17.0,48.0
2.520699977874756,31.0,6.0,125.0,0.0,27.0,21.0,5.0,24.0
2.5235166549682617,29.0,13.0,13.0,5.0,40.0,14.0,36.0,0.0
2.5263333320617676,19.0,7.0,47.0,6.0,30.0,25.0,28.0,17.0
2.529216766357422,9.0,0.0,5.0,6.0,21.0,49.0,21.0,5.0
2.5320334434509277,19.0,17.0,32.0,11.0,18.0,39.0,15.0,22.0
2.5348498821258545,29.0,17.0,36.0,10.0,19.0,28.0,32.0,23.0
2.5376665592193604,24.0,16.0,890.0,5.0,19.0,42.0,17.0,24.0
2.540483236312866,18.0,19.0,1082.0,0.0,18.0,32.0,0.0,12.0
2.543299913406372,27.0,22.0,23.0,16.0,24.0,19.0,14.0,17.0
2.5461666584014893,11.0,17.0,15.0,17.0,10.0,5.0,9.0,22.0
2.548983335494995,5.0,12.0,5.0,10.0,42.0,5.0,17.0,10.0
2.551800012588501,10.0,19.0,629.0,26.0,295.0,5.0,26.0,20.0
2.554616689682007,14.0,19.0,594.0,16.0,170.0,629.0,423.0,13.0
2.5574333667755127,19.0,19.0,239.0,5.0,45.0,681.0,330.0,30.0
2.5602500438690186,22.0,16.0,10.0,7.0,34.0,24.0,10.0,25.0
2.5631332397460938,18.0,30.0,2146.0,10.0,638.0,31.0,31.0,21.0
2.5659499168395996,13.0,0.0,2248.0,25.0,517.0,38.0,45.0,13.0
2.5687665939331055,14.0,5.0,2674.0,623.0,26.0,91.0,59.0,21.0
2.5715832710266113,15.0,5.0,1894.0,725.0,25.0,67.0,20.0,42.0
2.574399948120117,10.0,5.0,4330.0,827.0,35.0,43.0,33.0,466.0
2.577216625213623,5.0,7.0,4416.0,14.0,36.0,749.0,37.0,287.0
2.5801000595092773,0.0,10.0,4502.0,11.0,13.0,596.0,38.0,109.0
2.582916736602783,5.0,20.0,5304.0,61.0,14.0,12.0,18.0,5.0
2.585733413696289,0.0,30.0,6105.0,46.0,15.0,470.0,32.0,40.0
2.588550090789795,4.0,30.0,3238.0,271.0,31.0,608.0,40.0,33.0
2.591366767883301,2.0,15.0,3847.0,348.0,2084.0,746.0,0.0,14.0
2.5941834449768066,0.0,33.0,5837.0,424.0,1795.0,773.0,26.0,5.0
2.5970499515533447,19.0,40.0,5273.0,1530.0,10.0,371.0,53.0,25.0
2.5998666286468506,9.0,8.0,4710.0,783.0,931.0,210.0,602.0,45.0
2.6026833057403564,0.0,52.0,6886.0,37.0,2050.0,49.0,1150.0,169.0
2.6054999828338623,14.0,7.0,3019.0,15.0,603.0,184.0,1001.0,87.0
2.608316659927368,61.0,17.0,7324.0,1025.0,815.0,319.0,22.0,5.0
2.611133337020874,45.0,5.0,6082.0,418.0,19.0,30.0,229.0,22.0
2.6140167713165283,28.0,11.0,4839.0,967.0,12.0,255.0,15.0,51.0
2.616833448410034,16.0,16.0,1769.0,308.0,5.0,19.0,16.0,81.0
2.619649887084961,13.0,17.0,3061.0,1150.0,9.0,28.0,18.0,60.0
2.622466564178467,10.0,23.0,1771.0,874.0,25.0,41.0,0.0,41.0
2.6252832412719727,23.0,28.0,3071.0,598.0,12.0,36.0,14.0,21.0
2.6280999183654785,26.0,28.0,1906.0,43.0,0.0,5.0,27.0,49.0
2.630983352661133,12.0,29.0,2196.0,22.0,18.0,30.0,30.0,20.0
2.6338000297546387,20.0,28.0,2487.0,0.0,36.0,31.0,32.0,22.0
2.6366167068481445,28.0,40.0,2037.0,13.0,47.0,33.0,34.0,10.0
2.6394333839416504,53.0,39.0,610.0,1126.0,57.0,54.0,36.0,26.0
2.6422500610351562,54.0,37.0,43.0,1409.0,38.0,60.0,6.0,41.0
2.645066738128662,54.0,41.0,869.0,58.0,18.0,10.0,52.0,33.0
2.6479499340057373,64.0,37.0,1148.0,1336.0,618.0,543.0,28.0,25.0
2.650766611099243,31.0,33.0,1943.0,49.0,873.0,295.0,28.0,37.0
2.653583288192749,88.0,14.0,2302.0,22.0,1129.0,46.0,34.0,48.0
2.656399965286255,66.0,21.0,1349.0,4898.0,3234.0,451.0,39.0,59.0
2.6592166423797607,44.0,550.0,7458.0,6034.0,3786.0,886.0,998.0,66.0
2.6620333194732666,37.0,3923.0,9268.0,9228.0,11552.0,1322.0,1817.0,56.0
2.664900064468384,92.0,5411.0,19588.0,18148.0,16996.0,7323.0,4089.0,75.0
2.6677167415618896,82.0,5135.0,21480.0,26420.0,21512.0,6376.0,5417.0,17.0
2.6705334186553955,13.0,4858.0,35696.0,42880.0,26028.0,16952.0,9092.0,22.0
2.6733500957489014,28.0,15216.0,55616.0,57008.0,34272.0,27172.0,10640.0,26.0
2.6761667728424072,45.0,21984.0,61504.0,69392.0,50816.0,34192.0,11808.0,1607.0
2.678983449935913,35.0,31216.0,73584.0,114080.0,88592.0,34848.0,14696.0,1776.0
2.6818666458129883,23.0,25300.0,93712.0,116048.0,102464.0,46656.0,19372.0,1944.0
2.684683322906494,14.0,46320.0,123344.0,140416.0,110576.0,53424.0,23324.0,4334.0
2.6875,5.0,57296.0,131776.0,151872.0,136448.0,55664.0,24624.0,5842.0
2.690316677093506,27.0,56928.0,138752.0,171840.0,157696.0,66096.0,23080.0,4629.0
2.6931333541870117,27.0,63184.0,153280.0,204928.0,157376.0,76512.0,17864.0,2962.0
2.6959500312805176,27.0,68144.0,167232.0,196736.0,150208.0,74624.0,32464.0,3761.0
2.6988332271575928,56.0,68272.0,182912.0,212416.0,176320.0,95360.0,31092.0,4198.0
2.7016499042510986,62.0,70720.0,168832.0,221504.0,206464.0,97136.0,36176.0,5473.0
2.7044665813446045,68.0,76592.0,195392.0,243520.0,192128.0,101376.0,32688.0,4860.0
2.7072832584381104,42.0,82448.0,185280.0,266240.0,208128.0,102304.0,30968.0,5639.0
2.710099935531616,28.0,83200.0,197696.0,274496.0,201024.0,92800.0,29244.0,8041.0
2.712916612625122,35.0,86576.0,195904.0,256896.0,193856.0,98384.0,25964.0,2135.0
2.7158000469207764,0.0,90368.0,200256.0,256256.0,200256.0,106960.0,29376.0,5979.0
2.7186167240142822,48.0,92720.0,204608.0,267904.0,182976.0,99520.0,32784.0,4251.0
2.721433401107788,64.0,91648.0,205952.0,258048.0,194048.0,89712.0,28704.0,7162.0
2.724250078201294,17.0,90560.0,207296.0,248128.0,205120.0,94000.0,24628.0,8448.0
2.7270667552948,34.0,86144.0,191744.0,223360.0,194880.0,98288.0,32584.0,7327.0
2.7298834323883057,81.0,76656.0,180672.0,241472.0,188032.0,90304.0,35056.0,3344.0
2.732766628265381,55.0,66032.0,191872.0,229632.0,176704.0,88032.0,26644.0,5511.0
2.7355833053588867,29.0,68416.0,145216.0,214720.0,170816.0,73408.0,21940.0,3916.0
2.7383999824523926,75.0,66032.0,130832.0,187456.0,146112.0,70800.0,25180.0,4846.0
2.7412166595458984,38.0,62272.0,137856.0,147968.0,115568.0,74624.0,31672.0,5102.0
2.7440333366394043,44.0,56544.0,99232.0,172736.0,124256.0,51728.0,15648.0,3117.0
2.74685001373291,49.0,43648.0,117712.0,139264.0,97328.0,55552.0,15360.0,5243.0
2.7497167587280273,36.0,44128.0,110240.0,106688.0,92464.0,36032.0,13196.0,3755.0
2.752533435821533,0.0,31608.0,80272.0,87040.0,73056.0,38832.0,12080.0,1094.0
2.755350112915039,23.0,32104.0,64992.0,91040.0,52976.0,34144.0,11476.0,2865.0
2.758166551589966,0.0,20968.0,52800.0,56320.0,65536.0,25288.0,11152.0,2497.0
2.7609832286834717,20.0,21320.0,40528.0,50864.0,40208.0,20180.0,6469.0,778.0
2.7637999057769775,40.0,18952.0,31960.0,45792.0,35680.0,15128.0,3743.0,0.0
2.766683340072632,42.0,13884.0,22264.0,39376.0,20836.0,14916.0,4933.0,197.0
2.7695000171661377,44.0,8113.0,21480.0,28612.0,18132.0,14804.0,2178.0,703.0
2.7723166942596436,17.0,7254.0,14984.0,19504.0,20320.0,7433.0,715.0,270.0
2.7751333713531494,11.0,7056.0,12296.0,14368.0,14568.0,8127.0,973.0,17.0
2.7779500484466553,5.0,11232.0,11384.0,11712.0,8644.0,7890.0,1137.0,21.0
2.780766725540161,20.0,1504.0,3591.0,14596.0,10160.0,3366.0,1480.0,25.0
2.7836499214172363,5.0,2699.0,7308.0,4881.0,12472.0,4950.0,2582.0,28.0
2.786466598510742,24.0,1812.0,12108.0,14252.0,7989.0,3212.0,2167.0,26.0
2.789283275604248,43.0,1858.0,5578.0,6939.0,3266.0,4260.0,214.0,23.0
2.792099952697754,41.0,2190.0,5471.0,2328.0,4119.0,810.0,37.0,5.0
2.7949166297912598,20.0,408.0,2749.0,4073.0,2582.0,3745.0,2529.0,0.0
2.7977333068847656,57.0,1906.0,3213.0,709.0,2758.0,570.0,1031.0,34.0
2.80061674118042,42.0,706.0,1511.0,1217.0,2641.0,1863.0,600.0,33.0
2.803450107574463,20.0,1270.0,1034.0,3618.0,1075.0,1767.0,1260.0,32.0
2.8062667846679688,29.0,561.0,2892.0,5474.0,1179.0,17.0,39.0,27.0
2.8090832233428955,22.0,1143.0,2714.0,4536.0,2076.0,10.0,314.0,23.0
2.8118999004364014,15.0,966.0,1951.0,4913.0,1305.0,1119.0,37.0,10.0
2.8147165775299072,10.0,33.0,20.0,2906.0,1271.0,574.0,15.0,10.0
2.81754994392395,38.0,1697.0,960.0,1347.0,304.0,54.0,15.0,33.0
2.820383310317993,37.0,975.0,1899.0,2298.0,3006.0,1590.0,15.0,51.0
2.823199987411499,36.0,22.0,1843.0,738.0,3397.0,810.0,39.0,68.0
2.826016664505005,17.0,21.0,0.0,1252.0,2793.0,29.0,27.0,10.0
2.8288333415985107,15.0,20.0,588.0,44.0,28.0,20.0,15.0,5.0
2.8316500186920166,10.0,0.0,451.0,570.0,3011.0,690.0,11.0,0.0
2.8344833850860596,5.0,5.0,10.0,300.0,29.0,31.0,8.0,21.0
2.8373000621795654,10.0,10.0,118.0,1889.0,63.0,49.0,31.0,42.0
2.8401167392730713,10.0,14.0,76.0,1647.0,953.0,66.0,53.0,44.0
2.842933416366577,10.0,20.0,33.0,2313.0,41.0,19.0,32.0,51.0
2.845750093460083,5.0,20.0,211.0,1209.0,6.0,5.0,10.0,51.0
2.848566770553589,7.0,20.0,388.0,2081.0,426.0,25.0,17.0,45.0
2.851449966430664,20.0,16.0,1023.0,921.0,399.0,45.0,24.0,39.0
2.85426664352417,34.0,12.0,793.0,2265.0,373.0,42.0,50.0,12.0
2.857083320617676,43.0,20.0,562.0,19.0,34.0,39.0,53.0,7.0
2.8598999977111816,0.0,20.0,1442.0,3676.0,450.0,34.0,19.0,41.0
2.8627166748046875,32.0,20.0,104.0,2191.0,617.0,28.0,1127.0,31.0
2.8655333518981934,46.0,448.0,472.0,1813.0,784.0,22.0,813.0,21.0
2.8684165477752686,34.0,227.0,696.0,600.0,612.0,26.0,500.0,20.0
2.8712332248687744,20.0,5.0,572.0,1224.0,440.0,29.0,30.0,17.0
2.8740499019622803,31.0,45.0,448.0,1165.0,1129.0,665.0,40.0,15.0
2.876866579055786,23.0,32.0,890.0,1105.0,1413.0,783.0,24.0,20.0
2.879683256149292,17.0,18.0,702.0,27.0,1697.0,428.0,7.0,24.0
2.882499933242798,11.0,16.0,514.0,1829.0,1804.0,73.0,10.0,26.0
2.885383367538452,25.0,13.0,989.0,1647.0,1910.0,14.0,13.0,28.0
2.888200044631958,21.0,10.0,1227.0,953.0,1845.0,291.0,8.0,22.0
2.891016721725464,17.0,14.0,1172.0,17.0,1779.0,176.0,26.0,15.0
2.8938333988189697,13.0,429.0,1116.0,822.0,2674.0,60.0,43.0,37.0
2.8966500759124756,10.0,669.0,54.0,785.0,15.0,148.0,824.0,37.0
2.8994667530059814,9.0,1129.0,1840.0,27.0,1460.0,380.0,444.0,22.0
2.9023165702819824,19.0,996.0,1929.0,822.0,3015.0,697.0,64.0,5.0
2.9051332473754883,46.0,25.0,2059.0,816.0,2663.0,1015.0,33.0,31.0
2.907949924468994,50.0,23.0,1415.0,474.0,1170.0,942.0,21.0,32.0
2.9107666015625,59.0,1040.0,635.0,132.0,2026.0,47.0,22.0,625.0
2.913583278656006,68.0,357.0,121.0,477.0,2185.0,1223.0,77.0,486.0
2.916433334350586,87.0,67.0,17.0,787.0,663.0,1683.0,1760.0,431.0
2.919283390045166,106.0,47.0,118.0,432.0,461.0,55.0,1384.0,375.0
2.922100067138672,122.0,82.0,691.0,77.0,34.0,1859.0,970.0,645.0
2.9249167442321777,223.0,74.0,635.0,1218.0,256.0,67.0,672.0,59.0
2.9277334213256836,220.0,75.0,98.0,762.0,478.0,51.0,140.0,58.0
2.9305500984191895,265.0,76.0,229.0,1250.0,279.0,69.0,759.0,47.0
2.9333999156951904,196.0,104.0,129.0,159.0,79.0,67.0,926.0,83.0
2.9362499713897705,207.0,132.0,409.0,361.0,629.0,386.0,651.0,374.0
2.9390666484832764,239.0,135.0,268.0,564.0,1178.0,705.0,376.0,394.0
2.9418833255767822,272.0,139.0,127.0,1193.0,1320.0,1007.0,67.0,414.0
2.944700002670288,286.0,130.0,149.0,658.0,192.0,962.0,1313.0,148.0
2.947516679763794,299.0,136.0,141.0,122.0,1952.0,189.0,1387.0,190.0
2.950350046157837,256.0,183.0,192.0,1500.0,2216.0,165.0,465.0,127.0
2.9531667232513428,298.0,230.0,167.0,109.0,517.0,1096.0,123.0,140.0
2.9559834003448486,271.0,194.0,142.0,151.0,80.0,105.0,89.0,156.0
2.9588000774383545,245.0,232.0,116.0,1365.0,509.0,103.0,104.0,171.0
2.9616167545318604,370.0,668.0,90.0,85.0,160.0,65.0,119.0,106.0
2.964433431625366,371.0,425.0,118.0,667.0,225.0,101.0,248.0,89.0
2.9673166275024414,219.0,183.0,127.0,142.0,143.0,136.0,189.0,104.0
2.9701333045959473,178.0,146.0,136.0,200.0,62.0,162.0,129.0,98.0
2.972949981689453,184.0,135.0,99.0,649.0,169.0,112.0,408.0,92.0
2.975766658782959,304.0,146.0,156.0,361.0,112.0,111.0,255.0,105.0
2.978583335876465,298.0,108.0,167.0,598.0,145.0,108.0,102.0,118.0
2.9814000129699707,201.0,69.0,85.0,835.0,145.0,100.0,77.0,104.0
2.984283447265625,185.0,108.0,377.0,472.0,145.0,92.0,105.0,90.0
2.9870998859405518,105.0,110.0,486.0,109.0,97.0,182.0,103.0,61.0
2.9899165630340576,158.0,90.0,655.0,93.0,91.0,373.0,100.0,32.0
2.9927332401275635,212.0,69.0,825.0,617.0,84.0,241.0,46.0,60.0
2.9955499172210693,136.0,87.0,448.0,536.0,256.0,108.0,307.0,106.0
