,301.2099914550781,302.2099914550781,303.2099914550781,304.2099914550781,305.2099914550781,306.2099914550781,307.2099914550781,308.2099914550781
5.201733112335205,54.0,23.0,5.0,23.0,27.0,0.0,55.0,351.0
5.203466892242432,13.0,5.0,852.0,22.0,21.0,18.0,18.0,29.0
5.2052001953125,17.0,564.0,773.0,33.0,6.0,44.0,28.0,87.0
5.206933498382568,28.0,30.0,531.0,22.0,13.0,30.0,0.0,15.0
5.208666801452637,39.0,18.0,694.0,11.0,30.0,27.0,36.0,35.0
5.210400104522705,38.0,44.0,857.0,34.0,22.0,36.0,0.0,55.0
5.212133407592773,38.0,5.0,2084.0,0.0,14.0,27.0,40.0,0.0
5.213866710662842,19.0,57.0,1915.0,5.0,8.0,18.0,52.0,15.0
5.21560001373291,15.0,24.0,1746.0,5.0,4.0,52.0,0.0,13.0
5.21738338470459,27.0,51.0,1806.0,5.0,0.0,41.0,15.0,36.0
5.219116687774658,39.0,21.0,1866.0,5.0,27.0,46.0,40.0,49.0
5.220849990844727,38.0,12.0,1372.0,29.0,30.0,52.0,21.0,53.0
5.222583293914795,37.0,22.0,1735.0,52.0,19.0,53.0,44.0,57.0
5.224316596984863,18.0,14.0,1907.0,663.0,16.0,12.0,51.0,5.0
5.226049900054932,0.0,6.0,1341.0,671.0,17.0,5.0,32.0,0.0
5.227783203125,13.0,13.0,836.0,48.0,17.0,5.0,10.0,34.0
5.229516506195068,15.0,12.0,960.0,22.0,17.0,5.0,17.0,5.0
5.231249809265137,17.0,10.0,1085.0,5.0,16.0,21.0,0.0,11.0
5.232983112335205,17.0,15.0,1379.0,18.0,26.0,27.0,0.0,8.0
5.234783172607422,17.0,13.0,20.0,32.0,5.0,50.0,20.0,0.0
5.23651647567749,16.0,10.0,923.0,22.0,33.0,54.0,10.0,21.0
5.238249778747559,27.0,8.0,25.0,13.0,0.0,34.0,0.0,15.0
5.239983558654785,20.0,5.0,10.0,5.0,21.0,13.0,34.0,15.0
5.2417168617248535,12.0,19.0,24.0,11.0,23.0,0.0,22.0,13.0
5.243450164794922,10.0,27.0,19.0,13.0,25.0,10.0,11.0,10.0
5.24518346786499,17.0,35.0,13.0,17.0,27.0,8.0,37.0,0.0
5.246916770935059,18.0,20.0,25.0,15.0,5.0,34.0,19.0,3.0
5.248650074005127,19.0,6.0,37.0,29.0,23.0,28.0,30.0,5.0
5.250383377075195,5.0,8.0,42.0,20.0,29.0,27.0,0.0,14.0
5.252166748046875,5.0,10.0,41.0,12.0,23.0,27.0,6.0,21.0
5.253900051116943,56.0,5.0,40.0,0.0,16.0,28.0,30.0,29.0
5.255633354187012,47.0,10.0,12.0,12.0,24.0,31.0,40.0,5.0
5.257383346557617,51.0,11.0,26.0,18.0,10.0,23.0,37.0,32.0
5.259099960327148,24.0,12.0,28.0,28.0,0.0,16.0,5.0,29.0
5.260833263397217,30.0,0.0,30.0,13.0,22.0,27.0,34.0,34.0
5.262566566467285,38.0,4.0,13.0,19.0,30.0,12.0,54.0,0.0
5.2642998695373535,12.0,7.0,29.0,24.0,38.0,31.0,45.0,13.0
5.266033172607422,9.0,21.0,23.0,21.0,13.0,16.0,11.0,24.0
5.26776647567749,28.0,20.0,7.0,16.0,5.0,35.0,19.0,10.0
5.269566535949707,8.0,19.0,28.0,11.0,43.0,19.0,22.0,71.0
5.271299839019775,4.0,60.0,20.0,14.0,0.0,40.0,25.0,67.0
5.273033142089844,0.0,49.0,13.0,16.0,18.0,10.0,19.0,5.0
5.274766445159912,4.0,38.0,17.0,12.0,28.0,19.0,19.0,14.0
5.276500225067139,7.0,154.0,21.0,11.0,13.0,12.0,19.0,10.0
5.278233528137207,12.0,90.0,30.0,11.0,21.0,41.0,18.0,14.0
5.279966831207275,10.0,26.0,31.0,7.0,18.0,43.0,15.0,18.0
5.281700134277344,7.0,0.0,32.0,22.0,15.0,48.0,13.0,17.0
5.283433437347412,29.0,58.0,31.0,18.0,22.0,24.0,11.0,15.0
5.285216808319092,26.0,28.0,30.0,14.0,21.0,5.0,33.0,16.0
5.28695011138916,48.0,28.0,11.0,21.0,20.0,14.0,40.0,17.0
5.2886834144592285,86.0,29.0,24.0,12.0,14.0,10.0,38.0,16.0
5.290416717529297,51.0,21.0,0.0,17.0,29.0,18.0,10.0,14.0
5.292150020599365,16.0,14.0,13.0,18.0,39.0,19.0,43.0,0.0
5.293883323669434,25.0,0.0,0.0,22.0,31.0,19.0,38.0,42.0
5.295616626739502,0.0,5.0,54.0,32.0,22.0,11.0,48.0,21.0
5.29734992980957,31.0,12.0,41.0,0.0,0.0,11.0,5.0,0.0
5.299083232879639,45.0,19.0,0.0,43.0,29.0,41.0,0.0,46.0
5.300816535949707,37.0,50.0,12.0,7.0,5.0,33.0,38.0,35.0
5.302616596221924,12.0,81.0,9.0,52.0,13.0,24.0,0.0,0.0
5.304349899291992,18.0,56.0,7.0,18.0,21.0,55.0,45.0,11.0
5.3060832023620605,12.0,31.0,4.0,5.0,28.0,5.0,27.0,40.0
5.307816505432129,6.0,12.0,0.0,5.0,28.0,51.0,16.0,23.0
5.309549808502197,10.0,64.0,14.0,14.0,28.0,42.0,14.0,6.0
5.311283111572266,0.0,17.0,15.0,22.0,0.0,18.0,12.0,15.0
5.313016891479492,21.0,19.0,28.0,22.0,41.0,13.0,16.0,15.0
5.3147501945495605,43.0,55.0,30.0,29.0,25.0,9.0,20.0,22.0
5.316483497619629,38.0,5.0,10.0,35.0,13.0,21.0,5.0,16.0
5.318216800689697,5.0,26.0,15.0,10.0,12.0,26.0,17.0,9.0
5.320000171661377,13.0,0.0,19.0,21.0,0.0,30.0,29.0,23.0
5.321733474731445,21.0,35.0,12.0,12.0,8.0,25.0,5.0,14.0
5.323466777801514,19.0,61.0,5.0,13.0,15.0,12.0,12.0,0.0
5.325200080871582,16.0,75.0,474.0,11.0,16.0,42.0,9.0,16.0
5.32693338394165,24.0,36.0,255.0,10.0,17.0,5.0,5.0,11.0
5.328666687011719,33.0,21.0,37.0,16.0,11.0,44.0,17.0,12.0
5.330399990081787,30.0,7.0,382.0,5.0,5.0,11.0,30.0,16.0
5.3321332931518555,5.0,0.0,107.0,12.0,12.0,23.0,23.0,19.0
5.333866596221924,11.0,0.0,70.0,0.0,33.0,45.0,11.0,5.0
5.335599899291992,54.0,0.0,12.0,28.0,21.0,5.0,5.0,10.0
5.337399959564209,37.0,0.0,48.0,27.0,10.0,25.0,16.0,14.0
5.339133262634277,19.0,5.0,25.0,44.0,11.0,32.0,15.0,5.0
5.340866565704346,8.0,11.0,0.0,5.0,14.0,35.0,10.0,29.0
5.342599868774414,30.0,16.0,0.0,43.0,17.0,22.0,10.0,32.0
5.344333171844482,29.0,16.0,0.0,36.0,34.0,10.0,23.0,11.0
5.346066474914551,29.0,16.0,23.0,0.0,22.0,28.0,31.0,0.0
5.347799777984619,0.0,47.0,15.0,19.0,10.0,22.0,39.0,5.0
5.349533557891846,8.0,37.0,6.0,38.0,10.0,10.0,21.0,11.0
5.351266860961914,8.0,28.0,15.0,36.0,9.0,53.0,18.0,17.0
5.353050231933594,7.0,14.0,17.0,26.0,12.0,47.0,5.0,21.0
5.354783535003662,19.0,0.0,0.0,16.0,9.0,18.0,23.0,30.0
5.3565168380737305,15.0,0.0,23.0,34.0,5.0,18.0,20.0,54.0
5.358250141143799,10.0,0.0,0.0,5.0,15.0,37.0,16.0,53.0
5.359983444213867,234.0,6.0,43.0,32.0,15.0,26.0,25.0,18.0
5.3617167472839355,123.0,3.0,37.0,5.0,15.0,15.0,24.0,38.0
5.363450050354004,11.0,0.0,11.0,33.0,0.0,46.0,22.0,58.0
5.365183353424072,310.0,5.0,15.0,61.0,22.0,12.0,17.0,73.0
5.366916656494141,729.0,0.0,8.0,49.0,0.0,23.0,11.0,0.0
5.368666648864746,385.0,12.0,0.0,5.0,0.0,0.0,29.0,29.0
5.370450019836426,41.0,23.0,30.0,8.0,5.0,0.0,22.0,27.0
5.372183322906494,59.0,33.0,23.0,32.0,21.0,0.0,15.0,14.0
5.3739166259765625,56.0,12.0,25.0,47.0,38.0,5.0,10.0,22.0
5.375649929046631,33.0,23.0,14.0,50.0,41.0,46.0,24.0,0.0
5.377383232116699,34.0,10.0,18.0,53.0,13.0,35.0,15.0,27.0
5.379116535186768,28.0,24.0,12.0,48.0,10.0,19.0,5.0,18.0
5.380849838256836,21.0,15.0,5.0,5.0,16.0,7.0,8.0,19.0
5.382583141326904,25.0,5.0,12.0,32.0,17.0,5.0,16.0,39.0
5.384316444396973,20.0,6.0,52.0,14.0,17.0,7.0,23.0,34.0
5.386050224304199,10.0,3.0,65.0,37.0,0.0,12.0,16.0,29.0
5.387833118438721,0.0,0.0,0.0,18.0,6.0,16.0,17.0,39.0
5.389566898345947,39.0,25.0,18.0,40.0,11.0,25.0,18.0,6.0
5.391300201416016,43.0,39.0,26.0,10.0,5.0,22.0,26.0,25.0
5.393033504486084,48.0,50.0,20.0,5.0,10.0,5.0,26.0,27.0
5.394766807556152,435.0,7.0,33.0,18.0,8.0,29.0,16.0,23.0
5.396500110626221,248.0,33.0,10.0,29.0,6.0,16.0,56.0,11.0
5.398233413696289,61.0,53.0,0.0,21.0,12.0,11.0,50.0,34.0
5.399966716766357,21.0,28.0,0.0,5.0,17.0,12.0,29.0,39.0
5.401700019836426,5.0,48.0,11.0,3.0,17.0,10.0,38.0,18.0
5.403433322906494,10.0,55.0,6.0,0.0,37.0,7.0,41.0,12.0
5.405233383178711,5.0,50.0,0.0,5.0,21.0,12.0,0.0,12.0
5.406966686248779,24.0,40.0,21.0,11.0,5.0,12.0,23.0,9.0
5.408699989318848,23.0,14.0,46.0,11.0,36.0,12.0,34.0,6.0
5.410433292388916,22.0,5.0,34.0,10.0,5.0,38.0,39.0,14.0
5.412166595458984,0.0,38.0,0.0,5.0,13.0,37.0,23.0,7.0
5.413899898529053,0.0,23.0,0.0,20.0,20.0,0.0,32.0,0.0
5.415633201599121,0.0,33.0,44.0,10.0,13.0,16.0,10.0,41.0
5.4173665046691895,5.0,25.0,39.0,0.0,16.0,52.0,11.0,24.0
5.419099807739258,12.0,18.0,31.0,29.0,19.0,22.0,44.0,8.0
5.4208831787109375,19.0,38.0,44.0,25.0,10.0,7.0,42.0,40.0
5.422616481781006,11.0,19.0,43.0,12.0,52.0,32.0,16.0,6.0
5.424349784851074,5.0,45.0,32.0,6.0,48.0,52.0,11.0,14.0
5.426083564758301,21.0,47.0,8.0,0.0,9.0,50.0,5.0,10.0
5.427816867828369,27.0,20.0,5.0,43.0,10.0,37.0,24.0,6.0
5.4295501708984375,16.0,23.0,30.0,27.0,35.0,23.0,27.0,5.0
5.431283473968506,22.0,25.0,18.0,10.0,36.0,34.0,30.0,3.0
5.433016777038574,21.0,13.0,30.0,0.0,50.0,9.0,0.0,0.0
5.434750080108643,20.0,0.0,19.0,62.0,497.0,300.0,19.0,5.0
5.436483383178711,28.0,424.0,628.0,124.0,1903.0,590.0,297.0,10.0
5.4382500648498535,39.0,1467.0,1237.0,8612.0,3594.0,1000.0,576.0,15.0
5.439983367919922,5.0,3404.0,7574.0,8508.0,4819.0,3583.0,2269.0,13.0
5.44171667098999,22.0,6875.0,13992.0,17468.0,10676.0,6708.0,1774.0,10.0
5.443449974060059,42.0,6123.0,16524.0,17448.0,13616.0,10300.0,4483.0,17.0
5.445183277130127,53.0,7913.0,22788.0,30800.0,18544.0,17568.0,8332.0,1032.0
5.446916580200195,0.0,13892.0,34128.0,33008.0,36256.0,19448.0,10196.0,2019.0
5.448649883270264,19.0,28692.0,53712.0,63216.0,46368.0,21648.0,8796.0,1782.0
5.450383186340332,27.0,35760.0,67232.0,79616.0,56816.0,40704.0,17484.0,1545.0
5.4521164894104,22.0,36272.0,81024.0,103200.0,101328.0,44048.0,25468.0,2086.0
5.453849792480469,17.0,49840.0,100640.0,129232.0,116304.0,66768.0,27716.0,2627.0
5.4556498527526855,14.0,71536.0,140736.0,167168.0,125536.0,69264.0,25156.0,6882.0
5.457383155822754,11.0,72528.0,139264.0,181120.0,178240.0,72640.0,30472.0,7848.0
5.459116458892822,46.0,95552.0,206656.0,230784.0,176704.0,95728.0,40736.0,10256.0
5.460849761962891,54.0,113968.0,226496.0,248128.0,197440.0,122016.0,48176.0,9792.0
5.462583541870117,31.0,102912.0,221120.0,292480.0,241088.0,127856.0,52640.0,7776.0
5.4643168449401855,7.0,118688.0,278208.0,319232.0,244224.0,131968.0,54320.0,10228.0
5.466050148010254,103.0,132928.0,277248.0,326720.0,253888.0,121008.0,37584.0,12684.0
5.467783451080322,74.0,133248.0,282496.0,301952.0,240000.0,144448.0,55904.0,11660.0
5.469516754150391,45.0,135040.0,280320.0,294208.0,242624.0,163456.0,56368.0,10640.0
5.471283435821533,97.0,135616.0,255872.0,286464.0,245248.0,150144.0,45792.0,12368.0
5.473033428192139,56.0,136192.0,248128.0,287936.0,204864.0,139264.0,55120.0,11988.0
5.474766731262207,15.0,123872.0,249664.0,289344.0,235392.0,147776.0,55696.0,11612.0
5.476500034332275,66.0,133952.0,248256.0,276416.0,233920.0,134720.0,54864.0,7564.0
5.478233337402344,58.0,144000.0,246848.0,263424.0,219264.0,121456.0,62384.0,8175.0
5.479983329772949,18.0,135360.0,254784.0,268160.0,198272.0,114016.0,31664.0,11068.0
5.4816999435424805,22.0,113200.0,240512.0,225920.0,205248.0,112288.0,40416.0,2813.0
5.483433246612549,26.0,105536.0,190912.0,234624.0,188096.0,108704.0,31276.0,9892.0
5.485166549682617,30.0,104288.0,209728.0,185600.0,182848.0,71776.0,31704.0,2930.0
5.4868998527526855,33.0,82608.0,176128.0,179776.0,162176.0,83808.0,31468.0,6505.0
5.488699913024902,16.0,69888.0,165184.0,160192.0,138496.0,70864.0,25296.0,3801.0
5.490433216094971,45.0,62288.0,132224.0,158272.0,117056.0,64464.0,18640.0,6423.0
5.492166519165039,74.0,64384.0,112368.0,135360.0,108464.0,56144.0,20788.0,5091.0
5.493899822235107,56.0,47872.0,96304.0,109520.0,93664.0,42576.0,20120.0,1652.0
5.495633125305176,31.0,52048.0,95120.0,97376.0,79872.0,40896.0,13180.0,2752.0
5.497366428375244,5.0,48016.0,72400.0,92848.0,64960.0,43472.0,21176.0,1536.0
5.499100208282471,12.0,43520.0,62816.0,71680.0,51728.0,22656.0,12912.0,2493.0
5.500833511352539,16.0,29412.0,56576.0,60256.0,59440.0,27484.0,6768.0,1795.0
5.502566814422607,20.0,29828.0,49584.0,44704.0,28284.0,23780.0,4734.0,1960.0
5.504300117492676,0.0,24220.0,46048.0,61728.0,28360.0,20388.0,9444.0,2036.0
5.5060834884643555,12.0,17552.0,39696.0,33952.0,31692.0,10448.0,6125.0,2112.0
5.507833480834961,58.0,18528.0,32784.0,41664.0,32264.0,18424.0,3842.0,2313.0
5.509550094604492,29.0,13988.0,21068.0,24988.0,21188.0,10836.0,8268.0,777.0
5.5112833976745605,0.0,10428.0,19904.0,24296.0,18084.0,6308.0,3611.0,3245.0
5.513016700744629,59.0,12004.0,19292.0,21588.0,18208.0,10948.0,4227.0,10.0
5.514750003814697,21.0,8156.0,13260.0,15220.0,17428.0,10892.0,3087.0,527.0
5.516483306884766,10.0,10028.0,11732.0,21712.0,9740.0,14344.0,1807.0,30.0
5.518233299255371,20.0,8200.0,11512.0,8288.0,12428.0,3732.0,2622.0,30.0
5.519949913024902,0.0,4458.0,14264.0,22292.0,11076.0,8416.0,2842.0,20.0
5.521683216094971,3.0,2828.0,13708.0,14240.0,11156.0,6743.0,261.0,10.0
5.5234832763671875,5.0,4904.0,13148.0,12380.0,11240.0,7736.0,1173.0,15.0
5.525216579437256,22.0,2997.0,8472.0,12068.0,9096.0,8720.0,1038.0,12.0
5.526949882507324,23.0,3502.0,5694.0,10128.0,6948.0,5415.0,1193.0,8.0
5.528683185577393,24.0,3554.0,13256.0,11396.0,8276.0,1861.0,1079.0,18.0
5.530416488647461,21.0,597.0,8552.0,9440.0,7155.0,4849.0,965.0,27.0
5.532149791717529,18.0,4522.0,3998.0,8780.0,6927.0,1935.0,1269.0,33.0
5.533883571624756,15.0,5248.0,7202.0,8117.0,5654.0,500.0,1572.0,39.0
5.535616874694824,11.0,3088.0,9132.0,9396.0,6378.0,2852.0,1840.0,20.0
5.537350177764893,437.0,2060.0,2911.0,8268.0,7102.0,1445.0,2108.0,37.0
5.539116859436035,235.0,3395.0,11000.0,7490.0,3788.0,37.0,227.0,0.0
5.540866851806641,33.0,2992.0,8038.0,8856.0,6507.0,3031.0,1639.0,46.0
5.542600154876709,513.0,1443.0,6674.0,6085.0,5798.0,3032.0,2103.0,830.0
5.544333457946777,24.0,2137.0,7859.0,3825.0,1112.0,1988.0,531.0,436.0
5.546066761016846,33.0,1859.0,2365.0,2224.0,5309.0,1949.0,939.0,42.0
5.547800064086914,23.0,1580.0,3393.0,6151.0,2880.0,2504.0,368.0,24.0
5.549533367156982,23.0,2102.0,3802.0,3739.0,3610.0,663.0,1210.0,24.0
5.551266670227051,37.0,1191.0,550.0,7579.0,643.0,1942.0,24.0,24.0
5.552999973297119,36.0,281.0,4882.0,4034.0,3419.0,682.0,8.0,25.0
5.5547332763671875,36.0,145.0,2473.0,6149.0,2769.0,1244.0,299.0,27.0
5.556533336639404,23.0,10.0,3493.0,2945.0,4908.0,2162.0,45.0,21.0
5.558266639709473,31.0,1505.0,1119.0,2986.0,3714.0,11.0,14.0,0.0
5.559999942779541,11.0,1165.0,2185.0,5044.0,2162.0,630.0,14.0,19.0
5.561733245849609,27.0,493.0,2005.0,1566.0,1652.0,1017.0,14.0,5.0
5.563466548919678,21.0,998.0,1968.0,2415.0,2048.0,1167.0,167.0,5.0
5.565199851989746,5.0,1572.0,2073.0,2628.0,582.0,18.0,97.0,5.0
5.5669331550598145,8.0,173.0,1943.0,1260.0,2389.0,403.0,28.0,5.0
5.568666458129883,11.0,628.0,1812.0,2116.0,7.0,15.0,34.0,3.0
5.570400238037109,8.0,10.0,1602.0,2583.0,1746.0,16.0,40.0,0.0
5.572133541107178,5.0,11.0,1393.0,3298.0,37.0,16.0,14.0,3.0
5.573916435241699,9.0,12.0,1076.0,685.0,1109.0,31.0,20.0,5.0
5.575650215148926,13.0,455.0,1958.0,3008.0,1102.0,46.0,27.0,16.0
5.577383518218994,44.0,371.0,1403.0,1902.0,1429.0,26.0,385.0,21.0
5.5791168212890625,35.0,28.0,848.0,796.0,387.0,5.0,209.0,14.0
5.580850124359131,27.0,12.0,969.0,994.0,2638.0,687.0,34.0,9.0
5.582583427429199,16.0,251.0,479.0,1191.0,1336.0,359.0,748.0,27.0
5.584316730499268,28.0,577.0,30.0,1935.0,34.0,32.0,689.0,20.0
5.586050033569336,17.0,903.0,0.0,2022.0,1310.0,856.0,8.0,12.0
5.587783336639404,7.0,469.0,1382.0,2109.0,2484.0,10.0,38.0,31.0
5.589516639709473,11.0,34.0,2294.0,588.0,1837.0,15.0,11.0,26.0
5.5913166999816895,15.0,1714.0,1890.0,783.0,2392.0,19.0,94.0,21.0
5.593050003051758,14.0,2235.0,2093.0,1742.0,2882.0,454.0,118.0,5.0
5.594783306121826,12.0,747.0,2295.0,2627.0,3372.0,889.0,141.0,26.0
5.5965166091918945,16.0,49.0,3084.0,3410.0,6236.0,1923.0,459.0,13.0
5.598249912261963,13.0,1914.0,9656.0,7958.0,7746.0,3363.0,735.0,0.0
5.599983215332031,10.0,2892.0,9092.0,16076.0,8476.0,8380.0,1012.0,835.0
5.6017165184021,14.0,6343.0,7136.0,17808.0,21884.0,10324.0,5895.0,794.0
5.603449821472168,25.0,7558.0,28676.0,36384.0,29276.0,20736.0,5819.0,754.0
5.605183124542236,25.0,12548.0,44016.0,43904.0,51312.0,25764.0,8416.0,2360.0
5.606949806213379,52.0,23128.0,47584.0,71584.0,45872.0,32444.0,13920.0,2817.0
5.608699798583984,48.0,34368.0,63008.0,103136.0,82304.0,43472.0,18260.0,3274.0
5.610433101654053,18.0,47488.0,108608.0,131328.0,103200.0,67680.0,18544.0,6569.0
5.612166881561279,38.0,62880.0,122304.0,178368.0,143744.0,98016.0,32784.0,6526.0
5.613900184631348,10.0,70992.0,179456.0,222848.0,167488.0,91504.0,30456.0,8125.0
5.615633487701416,25.0,103664.0,229312.0,303424.0,247488.0,134592.0,50624.0,11380.0
5.617366790771484,38.0,110736.0,229440.0,342720.0,273216.0,167616.0,52032.0,10096.0
5.619100093841553,51.0,165440.0,300352.0,443136.0,351744.0,201664.0,60336.0,11904.0
5.620833396911621,49.0,157952.0,355520.0,438848.0,373888.0,198592.0,60080.0,11852.0
5.6225666999816895,48.0,194112.0,386048.0,539904.0,482688.0,242432.0,71584.0,11800.0
5.624366760253906,45.0,222080.0,443968.0,583936.0,446784.0,275136.0,93376.0,14924.0
5.626100063323975,47.0,233920.0,467008.0,590336.0,494848.0,273472.0,90096.0,18048.0
5.627833366394043,50.0,238656.0,477376.0,722944.0,551168.0,269184.0,85616.0,17136.0
5.629566669464111,60.0,227136.0,547840.0,731136.0,569856.0,274240.0,101424.0,13904.0
5.63129997253418,127.0,238080.0,527104.0,716288.0,537600.0,279296.0,101744.0,14000.0
5.633033275604248,91.0,245760.0,501888.0,691200.0,574720.0,287872.0,98784.0,14096.0
5.634766578674316,54.0,261120.0,516352.0,705024.0,541184.0,296512.0,92016.0,16356.0
5.636499881744385,34.0,258304.0,498368.0,681472.0,567296.0,295616.0,86112.0,18028.0
5.638233184814453,49.0,255488.0,505664.0,683776.0,523968.0,289280.0,99872.0,19700.0
5.6399664878845215,63.0,265856.0,513024.0,643328.0,506176.0,286336.0,93296.0,21040.0
5.641766548156738,72.0,228224.0,471104.0,620288.0,490496.0,254208.0,92640.0,18896.0
5.643499851226807,81.0,222464.0,419392.0,538368.0,457600.0,250880.0,89696.0,10336.0
5.645233154296875,99.0,185856.0,405440.0,476736.0,401984.0,199680.0,76032.0,14220.0
5.646966457366943,118.0,194304.0,378752.0,426624.0,388992.0,175680.0,66704.0,12592.0
5.64870023727417,29.0,176128.0,353344.0,438592.0,336960.0,183744.0,66304.0,12512.0
5.650433540344238,64.0,154880.0,300160.0,383808.0,293824.0,162944.0,51584.0,12436.0
5.652166843414307,70.0,124880.0,263488.0,328320.0,285888.0,146176.0,46736.0,7873.0
5.653900146484375,89.0,121072.0,206336.0,274048.0,246080.0,111840.0,47120.0,8038.0
5.655633449554443,92.0,91168.0,187840.0,246272.0,191424.0,106944.0,35872.0,3221.0
5.657366752624512,66.0,74864.0,184640.0,245632.0,169600.0,83776.0,29356.0,8636.0
5.659150123596191,41.0,73552.0,143552.0,201408.0,148224.0,77984.0,13196.0,5359.0
5.66088342666626,54.0,49440.0,116960.0,150976.0,105120.0,59248.0,24504.0,3538.0
5.662616729736328,31.0,51552.0,108992.0,134592.0,99664.0,49616.0,18328.0,4338.0
5.6643500328063965,31.0,43152.0,90304.0,97568.0,83280.0,38480.0,11340.0,1193.0
5.666083335876465,61.0,29024.0,62304.0,102080.0,64304.0,35232.0,11088.0,3566.0
5.667816638946533,54.0,22492.0,56064.0,74720.0,54736.0,23980.0,7174.0,1229.0
5.669549942016602,13.0,32268.0,44752.0,57024.0,51072.0,29976.0,9696.0,45.0
5.67128324508667,24.0,15048.0,33920.0,35376.0,31792.0,20720.0,7078.0,55.0
5.673016548156738,35.0,19280.0,34240.0,39824.0,34160.0,20016.0,2343.0,361.0
5.674799919128418,28.0,10276.0,22580.0,31792.0,21888.0,9536.0,600.0,203.0
5.676549911499023,20.0,12156.0,22740.0,24800.0,20636.0,12008.0,7871.0,45.0
5.678283214569092,21.0,8524.0,16772.0,19020.0,15980.0,6900.0,479.0,31.0
5.68001651763916,21.0,7587.0,13508.0,24900.0,15140.0,11584.0,2686.0,16.0
5.6817498207092285,37.0,7121.0,15080.0,21528.0,8200.0,6642.0,298.0,19.0
5.683483123779297,53.0,8672.0,15624.0,18516.0,13136.0,8584.0,889.0,35.0
5.685216903686523,49.0,6387.0,8280.0,16280.0,9088.0,4342.0,1480.0,445.0
5.686950206756592,22.0,1551.0,10908.0,13712.0,10884.0,6297.0,1043.0,940.0
5.68868350982666,5.0,3643.0,6460.0,11508.0,11968.0,5738.0,1042.0,488.0
5.6904168128967285,49.0,3462.0,11700.0,12984.0,7948.0,5772.0,1245.0,37.0
5.692216873168945,6.0,2731.0,11144.0,11668.0,7283.0,6771.0,630.0,17.0
5.693950176239014,36.0,3701.0,10848.0,10348.0,8996.0,9240.0,15.0,738.0
5.695683479309082,35.0,4348.0,3134.0,7626.0,9972.0,8440.0,359.0,384.0
5.69741678237915,35.0,4458.0,11540.0,5793.0,5914.0,5140.0,702.0,31.0
5.699150085449219,25.0,2338.0,9548.0,8360.0,3445.0,3026.0,10.0,5.0
5.700883388519287,15.0,1325.0,3358.0,7218.0,4316.0,2231.0,1258.0,24.0
5.7026166915893555,32.0,4081.0,5428.0,6414.0,4185.0,3430.0,2505.0,22.0
5.704349994659424,22.0,1451.0,6620.0,6098.0,4054.0,2587.0,1868.0,20.0
5.706083297729492,24.0,2709.0,4948.0,6724.0,3718.0,1744.0,1507.0,13.0
5.7078166007995605,25.0,4819.0,3277.0,7350.0,4257.0,2372.0,209.0,18.0
5.70959997177124,8.0,3946.0,3394.0,4927.0,4796.0,1325.0,31.0,33.0
5.711333274841309,21.0,1977.0,5459.0,3187.0,1373.0,278.0,18.0,35.0
5.713066577911377,10.0,3720.0,6064.0,7223.0,2410.0,1757.0,43.0,37.0
5.714799880981445,5.0,1786.0,7260.0,1936.0,3907.0,2884.0,67.0,0.0
5.716533184051514,37.0,2883.0,4581.0,7887.0,2582.0,3875.0,59.0,47.0
5.718266487121582,28.0,2888.0,5308.0,4974.0,3016.0,1744.0,50.0,22.0
5.71999979019165,5.0,2671.0,3851.0,4153.0,2500.0,411.0,108.0,54.0
5.721733570098877,8.0,2453.0,4944.0,4056.0,2741.0,53.0,507.0,39.0
5.723466873168945,11.0,1654.0,6037.0,3474.0,2983.0,1510.0,264.0,23.0
5.725200176239014,10.0,938.0,5548.0,3506.0,2164.0,1769.0,21.0,22.0
5.7270002365112305,9.0,1750.0,5060.0,3459.0,3255.0,4393.0,32.0,226.0
5.728733539581299,11.0,2561.0,7761.0,3852.0,3956.0,5137.0,42.0,136.0
5.730466842651367,20.0,32.0,2985.0,4245.0,2636.0,2209.0,46.0,46.0
5.7322001457214355,41.0,2835.0,7473.0,2871.0,1316.0,2017.0,36.0,40.0
5.733933448791504,29.0,1313.0,4030.0,2897.0,1434.0,4082.0,25.0,34.0
5.735666751861572,17.0,640.0,5595.0,3810.0,2546.0,823.0,15.0,24.0
5.737400054931641,15.0,750.0,6696.0,1158.0,966.0,2161.0,5.0,25.0
5.739133358001709,46.0,400.0,7313.0,3516.0,384.0,2460.0,11.0,42.0
5.740866661071777,37.0,51.0,1462.0,2720.0,1470.0,1246.0,17.0,51.0
5.74263334274292,29.0,2599.0,3078.0,2572.0,1201.0,32.0,15.0,45.0
5.7444000244140625,45.0,2365.0,5326.0,2755.0,933.0,7.0,12.0,40.0
5.746116638183594,23.0,402.0,438.0,2938.0,1441.0,1390.0,17.0,27.0
5.747849941253662,8.0,645.0,6929.0,2932.0,1949.0,791.0,22.0,13.0
5.7495832443237305,41.0,329.0,2311.0,3430.0,1695.0,834.0,16.0,5.0
5.751316547393799,31.0,986.0,261.0,2982.0,1496.0,1240.0,10.0,29.0
5.753049850463867,39.0,1063.0,2420.0,2533.0,1298.0,12.0,12.0,23.0
5.754799842834473,19.0,1140.0,3810.0,1913.0,997.0,833.0,13.0,10.0
5.756516456604004,22.0,1253.0,1741.0,962.0,945.0,905.0,14.0,5.0
5.7582502365112305,36.0,734.0,1896.0,2665.0,955.0,14.0,15.0,19.0
5.760049819946289,7.0,61.0,742.0,2063.0,837.0,1272.0,18.0,31.0
5.761783123016357,33.0,807.0,1527.0,3302.0,0.0,445.0,51.0,25.0
5.763516902923584,10.0,72.0,779.0,1655.0,1456.0,1221.0,28.0,20.0
5.765250205993652,21.0,54.0,31.0,8.0,1534.0,854.0,5.0,15.0
5.766983509063721,23.0,36.0,1494.0,1450.0,765.0,5.0,25.0,32.0
5.768716812133789,27.0,5.0,796.0,2191.0,792.0,835.0,33.0,27.0
5.770450115203857,38.0,34.0,883.0,1742.0,1245.0,856.0,47.0,22.0
5.772183418273926,32.0,21.0,0.0,1730.0,24.0,301.0,41.0,10.0
5.773916721343994,27.0,172.0,5.0,51.0,2368.0,23.0,36.0,19.0
5.7756500244140625,31.0,100.0,538.0,835.0,2004.0,35.0,38.0,32.0
5.777433395385742,36.0,28.0,1117.0,2511.0,1640.0,22.0,20.0,31.0
5.7791666984558105,22.0,32.0,1813.0,2039.0,1464.0,0.0,137.0,31.0
5.780900001525879,8.0,36.0,1227.0,1566.0,1287.0,183.0,75.0,22.0
5.782633304595947,37.0,914.0,642.0,2348.0,782.0,366.0,14.0,14.0
5.784366607666016,406.0,724.0,1715.0,459.0,441.0,414.0,31.0,16.0
5.786099910736084,210.0,534.0,948.0,1792.0,5.0,462.0,29.0,18.0
5.787833213806152,15.0,10.0,181.0,30.0,2566.0,34.0,126.0,16.0
5.789566516876221,14.0,697.0,1279.0,2577.0,2974.0,437.0,71.0,8.0
5.791299819946289,16.0,20.0,2377.0,2119.0,1517.0,342.0,15.0,5.0
5.7930498123168945,28.0,1295.0,4244.0,1333.0,1629.0,248.0,19.0,15.0
5.794833183288574,40.0,2213.0,3368.0,3057.0,1249.0,418.0,22.0,14.0
5.796566486358643,55.0,1860.0,629.0,4241.0,1273.0,215.0,353.0,13.0
5.798299789428711,43.0,175.0,430.0,3190.0,1296.0,12.0,628.0,15.0
