,303.1099853515625,304.1099853515625,305.1099853515625,306.1099853515625,307.1099853515625,308.1099853515625
0.5012999773025513,5.0,7.0,5.0,31.0,0.0,35.0
0.5026000142097473,6.0,0.0,22.0,29.0,10.0,40.0
0.5038999915122986,5.0,39.0,0.0,23.0,33.0,5.0
0.5052000284194946,2.0,40.0,5.0,0.0,16.0,27.0
0.5065000057220459,0.0,41.0,10.0,14.0,0.0,27.0
0.5077999830245972,6.0,13.0,17.0,11.0,5.0,30.0
0.5091000199317932,5.0,6.0,11.0,5.0,0.0,33.0
0.5103999972343445,0.0,10.0,31.0,0.0,2.0,28.0
0.5116999745368958,0.0,26.0,28.0,0.0,5.0,24.0
0.5130000114440918,2.0,24.0,25.0,0.0,7.0,10.0
0.5142999887466431,5.0,16.0,14.0,28.0,19.0,33.0
0.5156000256538391,14.0,5.0,15.0,35.0,31.0,27.0
0.5169000029563904,15.0,31.0,12.0,12.0,22.0,12.0
0.5182666778564453,15.0,40.0,27.0,7.0,23.0,26.0
0.5195666551589966,5.0,0.0,23.0,15.0,25.0,0.0
0.5208666920661926,14.0,20.0,20.0,13.0,5.0,16.0
0.5221666693687439,10.0,28.0,5.0,17.0,22.0,22.0
0.5234666466712952,13.0,38.0,6.0,22.0,14.0,11.0
0.5247666835784912,16.0,31.0,15.0,6.0,0.0,0.0
0.5260666608810425,5.0,31.0,16.0,25.0,18.0,7.0
0.5273666381835938,18.0,9.0,18.0,22.0,29.0,30.0
0.5286666750907898,22.0,9.0,19.0,8.0,22.0,18.0
0.5299666523933411,26.0,20.0,14.0,17.0,15.0,5.0
0.5312666893005371,19.0,31.0,7.0,5.0,32.0,51.0
0.5325666666030884,17.0,33.0,0.0,2.0,0.0,76.0
0.5338666439056396,5.0,7.0,6.0,0.0,0.0,44.0
0.5352333188056946,2.0,30.0,5.0,17.0,15.0,54.0
0.5365333557128906,0.0,21.0,7.0,13.0,31.0,11.0
0.5378333330154419,19.0,9.0,6.0,13.0,32.0,15.0
0.5391333103179932,23.0,24.0,5.0,5.0,5.0,7.0
0.5404333472251892,10.0,17.0,9.0,18.0,30.0,24.0
0.5417333245277405,12.0,10.0,7.0,13.0,20.0,26.0
0.5430333614349365,18.0,8.0,5.0,8.0,8.0,27.0
0.5443333387374878,16.0,6.0,5.0,32.0,5.0,47.0
0.5456333160400391,14.0,5.0,6.0,50.0,18.0,59.0
0.5469333529472351,10.0,13.0,8.0,49.0,20.0,68.0
0.5482333302497864,29.0,11.0,11.0,24.0,11.0,17.0
0.5495333075523376,24.0,8.0,17.0,22.0,15.0,10.0
0.5508333444595337,19.0,5.0,27.0,20.0,13.0,31.0
0.5522000193595886,5.0,10.0,23.0,10.0,11.0,12.0
0.5534833073616028,27.0,15.0,10.0,0.0,5.0,20.0
0.5547833442687988,31.0,29.0,21.0,0.0,14.0,32.0
0.5560833215713501,5.0,34.0,24.0,0.0,14.0,37.0
0.5573833584785461,12.0,10.0,5.0,0.0,14.0,17.0
0.5586833357810974,8.0,32.0,0.0,21.0,20.0,24.0
0.5599833130836487,5.0,17.0,17.0,13.0,27.0,32.0
0.5612833499908447,22.0,5.0,44.0,5.0,29.0,8.0
0.562583327293396,20.0,26.0,53.0,0.0,31.0,4.0
0.5638833045959473,13.0,8.0,61.0,11.0,8.0,0.0
0.5651833415031433,5.0,0.0,40.0,14.0,20.0,3.0
0.5664833188056946,27.0,36.0,43.0,18.0,32.0,6.0
0.5677833557128906,15.0,32.0,35.0,17.0,0.0,23.0
0.5691499710083008,26.0,16.0,6.0,13.0,20.0,24.0
0.5704500079154968,27.0,15.0,8.0,29.0,23.0,40.0
0.5717499852180481,0.0,5.0,29.0,25.0,33.0,37.0
0.5730500221252441,5.0,10.0,5.0,29.0,0.0,15.0
0.5743499994277954,0.0,10.0,20.0,22.0,12.0,5.0
0.5756499767303467,11.0,16.0,0.0,21.0,11.0,25.0
0.5769500136375427,14.0,15.0,17.0,0.0,0.0,17.0
0.578249990940094,18.0,14.0,11.0,0.0,31.0,5.0
0.57955002784729,0.0,12.0,11.0,4.0,31.0,5.0
0.5808500051498413,5.0,10.0,11.0,8.0,14.0,5.0
0.5821499824523926,8.0,29.0,9.0,7.0,35.0,12.0
0.5834500193595886,11.0,20.0,7.0,7.0,0.0,13.0
0.5847499966621399,15.0,11.0,8.0,0.0,0.0,9.0
0.5861166715621948,21.0,28.0,0.0,6.0,28.0,25.0
0.5874000191688538,26.0,17.0,5.0,13.0,16.0,32.0
0.5887166857719421,184.0,5.0,16.0,6.0,10.0,40.0
0.5899999737739563,92.0,5.0,44.0,0.0,12.0,39.0
0.5913000106811523,0.0,5.0,28.0,0.0,15.0,23.0
0.5925999879837036,32.0,5.0,12.0,3.0,12.0,14.0
0.5939000248908997,0.0,15.0,27.0,6.0,10.0,38.0
0.5952000021934509,21.0,25.0,0.0,5.0,5.0,11.0
0.5964999794960022,37.0,19.0,11.0,10.0,0.0,10.0
0.5978000164031982,22.0,11.0,9.0,7.0,16.0,24.0
0.5991166830062866,7.0,9.0,8.0,5.0,13.0,16.0
0.6003999710083008,23.0,10.0,15.0,5.0,13.0,30.0
0.6017000079154968,0.0,12.0,10.0,34.0,12.0,29.0
0.6030666828155518,0.0,7.0,6.0,30.0,10.0,28.0
0.604366660118103,0.0,18.0,16.0,16.0,29.0,0.0
0.6056666374206543,24.0,11.0,26.0,13.0,28.0,15.0
0.6069666743278503,39.0,5.0,30.0,18.0,26.0,0.0
0.6082666516304016,23.0,5.0,6.0,23.0,16.0,21.0
0.6095666885375977,12.0,10.0,16.0,25.0,17.0,36.0
0.6108666658401489,15.0,14.0,40.0,27.0,6.0,53.0
0.6121666431427002,16.0,18.0,0.0,26.0,6.0,25.0
0.6134666800498962,17.0,22.0,52.0,16.0,12.0,22.0
0.6147666573524475,21.0,25.0,5.0,20.0,18.0,5.0
0.6160666942596436,13.0,11.0,55.0,24.0,11.0,12.0
0.6173666715621948,5.0,13.0,65.0,6.0,5.0,10.0
0.6186666488647461,12.0,16.0,40.0,8.0,5.0,24.0
0.620033323764801,11.0,20.0,18.0,14.0,5.0,41.0
0.6213333606719971,11.0,6.0,7.0,8.0,5.0,33.0
0.6226333379745483,6.0,16.0,17.0,9.0,6.0,0.0
0.6239333152770996,5.0,19.0,41.0,10.0,10.0,21.0
0.6252333521842957,0.0,5.0,23.0,13.0,5.0,28.0
0.6265333294868469,15.0,2.0,6.0,17.0,0.0,40.0
0.6278333067893982,13.0,0.0,5.0,47.0,0.0,5.0
0.6291333436965942,11.0,0.0,10.0,59.0,0.0,12.0
0.6304333209991455,27.0,0.0,15.0,0.0,5.0,36.0
0.6317333579063416,27.0,5.0,20.0,0.0,8.0,35.0
0.6330333352088928,7.0,5.0,19.0,7.0,12.0,24.0
0.6343333125114441,11.0,0.0,18.0,0.0,24.0,13.0
0.6356333494186401,15.0,5.0,0.0,0.0,24.0,16.0
0.636983335018158,0.0,3.0,28.0,13.0,34.0,16.0
0.6383000016212463,8.0,0.0,27.0,13.0,30.0,11.0
0.6395833492279053,16.0,4.0,19.0,13.0,29.0,17.0
0.6408833265304565,5.0,9.0,18.0,6.0,29.0,16.0
0.6421833038330078,7.0,4.0,0.0,0.0,29.0,7.0
0.6434999704360962,10.0,0.0,15.0,3.0,29.0,26.0
0.6447833180427551,12.0,0.0,12.0,7.0,16.0,19.0
0.6460833549499512,14.0,3.0,20.0,8.0,5.0,12.0
0.6474000215530396,6.0,7.0,17.0,10.0,22.0,0.0
0.6486833095550537,0.0,3.0,15.0,7.0,6.0,11.0
0.6499833464622498,6.0,0.0,6.0,5.0,41.0,27.0
0.651283323764801,8.0,10.0,14.0,0.0,36.0,35.0
0.6525833606719971,11.0,15.0,13.0,23.0,0.0,21.0
0.6539499759674072,8.0,20.0,18.0,21.0,12.0,8.0
0.6552500128746033,5.0,0.0,24.0,6.0,31.0,23.0
0.6565499901771545,13.0,13.0,31.0,0.0,29.0,15.0
0.6578500270843506,20.0,23.0,30.0,11.0,27.0,5.0
0.6591500043869019,17.0,20.0,42.0,14.0,0.0,11.0
0.6604499816894531,15.0,15.0,39.0,18.0,0.0,17.0
0.6617500185966492,20.0,10.0,36.0,17.0,19.0,61.0
0.6630499958992004,21.0,10.0,32.0,10.0,29.0,60.0
0.6643499732017517,19.0,11.0,5.0,40.0,15.0,13.0
0.6656500101089478,18.0,22.0,27.0,35.0,32.0,10.0
0.666949987411499,19.0,24.0,21.0,12.0,12.0,26.0
0.6682500243186951,21.0,25.0,39.0,5.0,30.0,33.0
0.6695500016212463,10.0,20.0,30.0,26.0,39.0,16.0
0.6709166765213013,10.0,16.0,21.0,22.0,49.0,0.0
0.6722166538238525,26.0,15.0,5.0,6.0,15.0,29.0
0.6735166907310486,28.0,11.0,6.0,10.0,7.0,20.0
0.6748166680335999,28.0,21.0,8.0,30.0,0.0,11.0
0.6761166453361511,31.0,21.0,10.0,34.0,3.0,27.0
0.6774166822433472,18.0,42.0,13.0,42.0,7.0,10.0
0.6787166595458984,5.0,27.0,26.0,5.0,14.0,24.0
0.6800166964530945,6.0,13.0,40.0,26.0,14.0,38.0
0.6813166737556458,9.0,18.0,30.0,0.0,14.0,42.0
0.682616651058197,0.0,16.0,20.0,11.0,14.0,49.0
0.6839166879653931,10.0,8.0,8.0,0.0,19.0,32.0
0.6852166652679443,7.0,0.0,16.0,23.0,12.0,15.0
0.6865166425704956,13.0,36.0,19.0,19.0,5.0,23.0
0.6878833174705505,20.0,32.0,5.0,21.0,12.0,31.0
0.6891833543777466,16.0,5.0,25.0,10.0,8.0,17.0
0.6904833316802979,12.0,22.0,17.0,12.0,5.0,35.0
0.6917833089828491,23.0,6.0,5.0,14.0,6.0,23.0
0.6930833458900452,23.0,10.0,26.0,13.0,8.0,0.0
0.6943833231925964,11.0,34.0,22.0,11.0,49.0,28.0
0.6956833600997925,0.0,30.0,5.0,10.0,40.0,18.0
0.6969833374023438,17.0,42.0,42.0,10.0,57.0,5.0
0.698283314704895,14.0,35.0,28.0,11.0,33.0,5.0
0.6995833516120911,22.0,29.0,23.0,10.0,8.0,12.0
0.7008833289146423,30.0,5.0,0.0,10.0,47.0,23.0
0.7021833062171936,18.0,77.0,0.0,5.0,18.0,17.0
0.7034833431243896,6.0,48.0,0.0,10.0,10.0,12.0
0.7048333287239075,52.0,20.0,7.0,16.0,5.0,15.0
0.7061333060264587,53.0,17.0,14.0,47.0,17.0,18.0
0.7074333429336548,32.0,5.0,7.0,44.0,10.0,11.0
0.708733320236206,15.0,6.0,0.0,21.0,18.0,24.0
0.7100333571434021,32.0,0.0,3.0,32.0,41.0,5.0
0.7113500237464905,18.0,13.0,7.0,13.0,23.0,9.0
0.7126333117485046,23.0,12.0,9.0,0.0,5.0,0.0
0.7139333486557007,28.0,20.0,12.0,0.0,43.0,12.0
0.715233325958252,20.0,6.0,0.0,0.0,17.0,8.0
0.7165499925613403,12.0,17.0,16.0,11.0,24.0,5.0
0.7178500294685364,0.0,0.0,5.0,13.0,0.0,7.0
0.7191500067710876,17.0,43.0,37.0,24.0,5.0,10.0
0.7204333543777466,14.0,49.0,19.0,14.0,21.0,11.0
0.7217666506767273,11.0,44.0,0.0,5.0,10.0,13.0
0.7230666875839233,6.0,0.0,13.0,11.0,0.0,6.0
0.7243666648864746,19.0,32.0,6.0,17.0,32.0,8.0
0.7256666421890259,21.0,0.0,16.0,7.0,25.0,10.0
0.7269666790962219,24.0,0.0,15.0,5.0,21.0,12.0
0.7282666563987732,27.0,13.0,13.0,8.0,5.0,12.0
0.7295666933059692,5.0,6.0,12.0,6.0,10.0,8.0
0.7308666706085205,5.0,0.0,17.0,5.0,18.0,5.0
0.7321666479110718,5.0,0.0,6.0,23.0,16.0,5.0
0.7334666848182678,2.0,6.0,5.0,25.0,14.0,5.0
0.7347666621208191,0.0,12.0,0.0,0.0,9.0,5.0
0.7360666394233704,9.0,22.0,2.0,33.0,5.0,5.0
0.737416684627533,18.0,16.0,5.0,11.0,15.0,19.0
0.7387333512306213,23.0,11.0,48.0,6.0,10.0,34.0
0.7400333285331726,6.0,11.0,31.0,18.0,5.0,46.0
0.7413333058357239,9.0,0.0,14.0,23.0,0.0,57.0
0.7426333427429199,13.0,7.0,28.0,34.0,12.0,42.0
0.7439333200454712,5.0,11.0,20.0,34.0,19.0,27.0
0.7452333569526672,31.0,15.0,12.0,19.0,13.0,10.0
0.7465333342552185,25.0,12.0,16.0,46.0,7.0,18.0
0.7478333115577698,20.0,10.0,8.0,15.0,8.0,27.0
0.7491333484649658,5.0,5.0,0.0,0.0,10.0,0.0
0.7504333257675171,18.0,17.0,25.0,47.0,13.0,39.0
0.7517333626747131,16.0,0.0,21.0,10.0,13.0,42.0
0.7530333399772644,15.0,47.0,10.0,37.0,12.0,25.0
0.7543666958808899,21.0,59.0,22.0,9.0,8.0,28.0
0.7556999921798706,5.0,10.0,21.0,20.0,5.0,12.0
0.7570000290870667,5.0,22.0,5.0,23.0,15.0,5.0
0.7583000063896179,5.0,8.0,13.0,19.0,17.0,35.0
0.7595999836921692,10.0,14.0,21.0,15.0,11.0,26.0
0.7609000205993652,7.0,21.0,31.0,51.0,12.0,23.0
0.7621999979019165,5.0,20.0,46.0,45.0,9.0,15.0
0.7634999752044678,9.0,29.0,40.0,29.0,7.0,20.0
0.7648000121116638,0.0,31.0,0.0,33.0,8.0,0.0
0.7660999894142151,39.0,10.0,10.0,0.0,9.0,42.0
0.7674000263214111,36.0,21.0,12.0,130.0,13.0,32.0
0.7687000036239624,58.0,32.0,8.0,69.0,17.0,11.0
0.7699999809265137,27.0,36.0,15.0,9.0,15.0,33.0
0.7713333368301392,46.0,31.0,23.0,8.0,13.0,51.0
0.7726500034332275,12.0,27.0,14.0,20.0,12.0,26.0
0.7739499807357788,41.0,13.0,5.0,13.0,14.0,0.0
0.7752500176429749,0.0,0.0,31.0,12.0,7.0,33.0
0.7765499949455261,0.0,32.0,22.0,12.0,0.0,19.0
0.7778499722480774,6.0,34.0,14.0,13.0,21.0,5.0
0.7791500091552734,29.0,13.0,11.0,8.0,15.0,25.0
0.7804499864578247,17.0,6.0,8.0,29.0,10.0,24.0
0.7817500233650208,5.0,0.0,27.0,31.0,0.0,7.0
0.783050000667572,8.0,13.0,25.0,804.0,1600.0,51.0
0.7843499779701233,12.0,705.0,794.0,1451.0,2744.0,609.0
0.7856500148773193,25.0,10168.0,12200.0,15188.0,7225.0,7931.0
0.7869499921798706,15.0,25832.0,53040.0,46160.0,27448.0,16440.0
0.7882999777793884,5.0,111072.0,150592.0,105504.0,102416.0,37856.0
0.7896166443824768,18.0,245504.0,408192.0,273856.0,201088.0,67760.0
0.7909166812896729,13.0,466176.0,674304.0,423936.0,302976.0,111440.0
0.7922166585922241,42.0,659456.0,907520.0,635648.0,450432.0,131584.0
0.7935166954994202,116.0,825856.0,1260544.0,835072.0,564480.0,177216.0
0.7948166728019714,87.0,983296.0,1447936.0,906496.0,601856.0,191808.0
0.7961166501045227,59.0,1039360.0,1412352.0,986624.0,637696.0,209344.0
0.7974166870117188,58.0,1179392.0,1511424.0,995584.0,695808.0,221504.0
0.79871666431427,105.0,1086464.0,1673984.0,1099008.0,722944.0,217984.0
0.8000166416168213,153.0,1232640.0,1618176.0,1124608.0,743168.0,247744.0
0.8013166785240173,138.0,1256192.0,1697536.0,1020928.0,668928.0,238336.0
0.8026166558265686,124.0,1241856.0,1678336.0,1113600.0,722688.0,228992.0
0.8039166927337646,348.0,1248256.0,1659136.0,1130752.0,762624.0,249280.0
0.8052666783332825,710.0,1226496.0,1715456.0,1150208.0,762880.0,243072.0
0.8065833449363708,512.0,1208320.0,1616896.0,1092096.0,755968.0,261312.0
0.8078833222389221,314.0,1192192.0,1777152.0,1122816.0,755968.0,214144.0
0.8091833591461182,130.0,1176320.0,1757952.0,1127424.0,720384.0,236864.0
0.8104833364486694,169.0,1198080.0,1721600.0,1091584.0,721664.0,239680.0
0.8117833137512207,169.0,1190400.0,1685248.0,1132032.0,710144.0,251840.0
0.8130833506584167,173.0,1182720.0,1697280.0,1135872.0,724736.0,232576.0
0.814383327960968,177.0,1211392.0,1719808.0,1124352.0,674048.0,232192.0
0.8156833052635193,146.0,1223680.0,1725952.0,1118208.0,695552.0,233408.0
0.8169833421707153,182.0,1250816.0,1734656.0,1115392.0,716800.0,234624.0
0.8182833194732666,167.0,1129472.0,1677312.0,1119744.0,733952.0,249280.0
0.8195833563804626,152.0,1280000.0,1717248.0,1130496.0,751104.0,250176.0
0.8208833336830139,172.0,1227520.0,1757184.0,1141248.0,744704.0,226240.0
0.8222166895866394,191.0,1219840.0,1699328.0,1137920.0,738304.0,243712.0
0.8235499858856201,209.0,1223424.0,1780480.0,1244928.0,778496.0,246912.0
0.8248500227928162,202.0,1246464.0,1756928.0,1223168.0,789760.0,251008.0
0.8261500000953674,195.0,1269504.0,1780736.0,1182976.0,761600.0,239936.0
0.8274499773979187,234.0,1270784.0,1808896.0,1193472.0,805632.0,251904.0
0.8287500143051147,213.0,1205760.0,1837056.0,1184768.0,786432.0,213888.0
0.830049991607666,192.0,1215744.0,1739520.0,1163776.0,745984.0,235136.0
0.8313500285148621,856.0,1185024.0,1678592.0,1123328.0,787968.0,239232.0
0.8326500058174133,816.0,1180416.0,1609728.0,1039104.0,709376.0,228608.0
0.8339499831199646,528.0,1151744.0,1603584.0,1067776.0,699392.0,194176.0
0.8352500200271606,241.0,1024768.0,1576448.0,1064704.0,729344.0,210240.0
0.8365499973297119,292.0,996352.0,1475840.0,928256.0,655360.0,231424.0
0.8378499746322632,203.0,1047296.0,1467904.0,903680.0,654336.0,187456.0
0.8391833305358887,100.0,932864.0,1381632.0,883200.0,566528.0,172736.0
0.840499997138977,182.0,891392.0,1350656.0,839936.0,574208.0,188800.0
0.8417999744415283,169.0,833536.0,1151744.0,757760.0,512064.0,155008.0
0.8431000113487244,125.0,720640.0,1050624.0,709632.0,481792.0,155392.0
0.8443999886512756,153.0,694528.0,1074432.0,653312.0,409920.0,170816.0
0.8457000255584717,180.0,700928.0,980992.0,619520.0,417920.0,119088.0
0.847000002861023,120.0,600576.0,860160.0,614656.0,371200.0,101568.0
0.8482999801635742,144.0,563712.0,846848.0,524288.0,333952.0,106352.0
0.8496000170707703,197.0,530944.0,769280.0,476352.0,315840.0,124496.0
0.8508999943733215,176.0,475456.0,644864.0,455552.0,296256.0,77104.0
0.8521999716758728,94.0,419968.0,640512.0,417024.0,269888.0,82432.0
0.8535000085830688,174.0,413440.0,590592.0,409472.0,263360.0,65280.0
0.8547999858856201,176.0,375168.0,470016.0,331008.0,226048.0,72864.0
0.8561499714851379,114.0,358720.0,477824.0,290816.0,192960.0,61904.0
0.8574666380882263,115.0,329344.0,447232.0,286784.0,196800.0,76656.0
0.8587666749954224,93.0,300160.0,417856.0,267776.0,161536.0,55120.0
0.8600666522979736,83.0,287808.0,391552.0,268224.0,178816.0,62016.0
0.8613666892051697,53.0,258496.0,375040.0,231360.0,168448.0,45872.0
0.862666666507721,55.0,228608.0,323776.0,243584.0,138240.0,42816.0
0.8639666438102722,58.0,226816.0,322240.0,211520.0,125136.0,51392.0
0.8652666807174683,56.0,207360.0,287360.0,208832.0,118112.0,37472.0
0.8665666580200195,55.0,218816.0,288640.0,198144.0,129264.0,40288.0
0.8678666949272156,54.0,175296.0,275840.0,189632.0,123872.0,39536.0
0.8691666722297668,74.0,186560.0,277632.0,162176.0,128320.0,30080.0
0.8704666495323181,77.0,165120.0,249600.0,175232.0,107296.0,34640.0
0.8717666864395142,66.0,171520.0,242944.0,156224.0,94384.0,27064.0
0.873116672039032,54.0,156416.0,229248.0,149184.0,97552.0,27852.0
0.8744333386421204,59.0,130960.0,208832.0,149504.0,86560.0,34272.0
0.8757333159446716,64.0,140672.0,192192.0,136960.0,77408.0,30392.0
0.8770333528518677,15.0,147392.0,175168.0,125280.0,78272.0,26516.0
0.878333330154419,49.0,124400.0,196928.0,118128.0,80064.0,26676.0
0.8796333074569702,36.0,137600.0,206464.0,116960.0,77872.0,27092.0
0.8809333443641663,14.0,125600.0,164992.0,106672.0,75680.0,23792.0
0.8822333216667175,24.0,113792.0,190144.0,119840.0,72080.0,19224.0
0.8835333585739136,35.0,102576.0,159744.0,93520.0,76640.0,21968.0
0.8848333358764648,43.0,123424.0,186816.0,104992.0,78336.0,20884.0
0.8861333131790161,51.0,126304.0,151040.0,95520.0,64160.0,18780.0
0.8874333500862122,53.0,109344.0,168384.0,102864.0,60880.0,16672.0
0.8887333273887634,55.0,97600.0,153920.0,104208.0,67184.0,17240.0
0.8900666832923889,40.0,118944.0,140992.0,106800.0,70192.0,17512.0
0.8913833498954773,25.0,104432.0,154176.0,87792.0,73728.0,17772.0
0.8926833271980286,58.0,106528.0,143552.0,107328.0,58512.0,18028.0
0.8939999938011169,47.0,99952.0,150144.0,104384.0,54128.0,18628.0
0.8952833414077759,24.0,77856.0,137664.0,79056.0,67696.0,19224.0
0.8966000080108643,0.0,95792.0,135424.0,106608.0,60368.0,20544.0
0.8978833556175232,37.0,111728.0,128144.0,96560.0,53568.0,15112.0
0.8991833329200745,50.0,107152.0,129984.0,91792.0,50944.0,18192.0
0.9004833102226257,40.0,95440.0,131904.0,91248.0,51760.0,8440.0
0.9017833471298218,49.0,94880.0,125344.0,80304.0,47392.0,19868.0
0.903083324432373,63.0,90160.0,130080.0,100384.0,51568.0,16224.0
0.9043999910354614,60.0,78160.0,115456.0,67472.0,43504.0,20296.0
0.9056833386421204,44.0,96480.0,120528.0,77984.0,43632.0,16380.0
0.9070333242416382,81.0,102928.0,121424.0,74880.0,53328.0,15224.0
0.9083499908447266,89.0,81360.0,122304.0,69872.0,55280.0,16784.0
0.9096500277519226,81.0,106704.0,115648.0,79696.0,60848.0,11252.0
0.9109500050544739,25.0,95120.0,108992.0,73424.0,54656.0,14948.0
0.9122499823570251,12.0,82752.0,116608.0,70976.0,47424.0,18244.0
0.9135500192642212,55.0,85152.0,114320.0,68144.0,45104.0,17632.0
0.9148499965667725,37.0,84544.0,112048.0,72368.0,44960.0,18904.0
0.9161499738693237,32.0,75200.0,107568.0,69344.0,48176.0,15432.0
0.9174500107765198,34.0,81696.0,106304.0,66320.0,48560.0,18664.0
0.918749988079071,41.0,87600.0,109584.0,79216.0,48432.0,11172.0
0.9200500249862671,49.0,69440.0,125792.0,80080.0,48848.0,16984.0
0.9213500022888184,48.0,87760.0,127248.0,80960.0,56048.0,13304.0
0.9226499795913696,8.0,80272.0,118784.0,77952.0,57200.0,13464.0
0.9240000247955322,46.0,75648.0,112864.0,77568.0,62208.0,13624.0
0.9253166913986206,42.0,81264.0,110656.0,64688.0,47024.0,18416.0
0.9266166687011719,18.0,80512.0,107712.0,80896.0,55424.0,17724.0
0.9279166460037231,39.0,73872.0,105136.0,71504.0,48800.0,17932.0
0.9292166829109192,21.0,75248.0,102560.0,79376.0,40992.0,13920.0
0.9305166602134705,25.0,76640.0,119040.0,66464.0,49232.0,11500.0
0.9318166375160217,22.0,72336.0,116464.0,69984.0,43632.0,13948.0
0.9331166744232178,30.0,74128.0,120496.0,69760.0,45232.0,19056.0
0.934416651725769,61.0,75920.0,117936.0,73680.0,46832.0,15824.0
0.9357166886329651,74.0,82064.0,111376.0,74576.0,37104.0,12592.0
0.9370166659355164,88.0,81632.0,106864.0,66272.0,44176.0,11252.0
0.9383166432380676,0.0,80608.0,104864.0,78080.0,46256.0,13876.0
0.9396166801452637,26.0,79600.0,102880.0,67392.0,51648.0,15388.0
0.9409666657447815,73.0,70832.0,103712.0,67088.0,47328.0,15716.0
0.9422833323478699,35.0,82704.0,104544.0,60336.0,38304.0,10696.0
0.9435833096504211,5.0,75440.0,107680.0,64048.0,45104.0,12256.0
0.9448833465576172,39.0,75552.0,106496.0,67760.0,42976.0,13816.0
0.9461833238601685,55.0,75664.0,105312.0,72192.0,37488.0,12072.0
0.9474833607673645,5.0,77616.0,112496.0,55776.0,40944.0,16112.0
0.9487833380699158,96.0,79568.0,121680.0,84752.0,44400.0,20152.0
0.950083315372467,79.0,82448.0,119504.0,73280.0,46912.0,18196.0
0.9513833522796631,9.0,76064.0,113296.0,73952.0,40736.0,10880.0
0.9526833295822144,49.0,69696.0,118704.0,82928.0,34544.0,15644.0
0.9539833068847656,45.0,84160.0,124128.0,77344.0,46480.0,21120.0
0.9552833437919617,42.0,87312.0,106272.0,76800.0,43504.0,13000.0
0.9565833210945129,39.0,90464.0,94096.0,76272.0,55520.0,20844.0
0.9579333066940308,23.0,92016.0,127072.0,76576.0,53648.0,17068.0
0.9592499732971191,32.0,93552.0,129552.0,76896.0,49312.0,10892.0
0.9605500102043152,39.0,94112.0,122480.0,73952.0,54960.0,17424.0
0.9618499875068665,47.0,89296.0,115408.0,71008.0,50320.0,15328.0
0.9631500244140625,46.0,95344.0,124400.0,69936.0,51440.0,19348.0
0.9644500017166138,39.0,95376.0,121616.0,68864.0,48720.0,12664.0
0.965749979019165,54.0,86112.0,118848.0,73936.0,46016.0,15312.0
0.9670500159263611,48.0,86320.0,122208.0,87472.0,57568.0,18572.0
0.9683499932289124,37.0,98800.0,119056.0,85360.0,62320.0,17288.0
0.9696499705314636,26.0,84544.0,133184.0,83312.0,67488.0,16000.0
0.9709500074386597,53.0,84160.0,133376.0,84320.0,61472.0,14940.0
0.9722499847412109,28.0,89744.0,115056.0,72448.0,56896.0,15892.0
0.973550021648407,33.0,89072.0,130128.0,79616.0,63040.0,19324.0
0.9749000072479248,65.0,86304.0,143104.0,84640.0,57280.0,19684.0
0.9762166738510132,19.0,83536.0,109664.0,87872.0,60448.0,16820.0
0.9775166511535645,48.0,90096.0,134528.0,88672.0,59104.0,15080.0
0.9788166880607605,18.0,96672.0,127680.0,77424.0,57760.0,16248.0
0.9801166653633118,20.0,93248.0,119872.0,80272.0,51424.0,15412.0
0.981416642665863,22.0,89840.0,127840.0,87584.0,53152.0,14408.0
0.9827166795730591,27.0,99936.0,119280.0,73568.0,54272.0,17936.0
0.9840166568756104,28.0,102896.0,120400.0,90752.0,59392.0,17592.0
0.9853166937828064,30.0,106144.0,121536.0,95296.0,67200.0,20020.0
0.9866166710853577,33.0,76016.0,124000.0,79984.0,74560.0,20096.0
0.9879166483879089,16.0,102096.0,123328.0,78544.0,46464.0,23144.0
0.989216685295105,12.0,97232.0,122656.0,77120.0,50112.0,14972.0
0.9905166625976562,43.0,101728.0,133568.0,82192.0,63168.0,21556.0
0.9918666481971741,40.0,99312.0,135424.0,80112.0,58576.0,18200.0
0.9931833148002625,37.0,93968.0,129296.0,78032.0,54560.0,10736.0
0.9944833517074585,45.0,92480.0,133312.0,85856.0,58752.0,19548.0
0.9957833290100098,20.0,90992.0,137344.0,93696.0,52752.0,17772.0
0.997083306312561,27.0,95888.0,142720.0,90672.0,66896.0,15996.0
0.9983833432197571,35.0,95152.0,138432.0,87648.0,63296.0,20168.0
0.9996833205223083,22.0,94432.0,136000.0,106080.0,58560.0,21948.0
1.0009833574295044,34.0,92656.0,143744.0,103680.0,60608.0,20288.0
1.0022833347320557,48.0,90880.0,151488.0,105312.0,62656.0,17976.0
1.003583312034607,61.0,103936.0,146624.0,101552.0,62112.0,17884.0
1.0048832893371582,45.0,101728.0,157248.0,90896.0,61552.0,20808.0
1.006183385848999,5.0,99520.0,159232.0,96560.0,63888.0,24260.0
1.0074833631515503,22.0,98368.0,137856.0,97296.0,60256.0,27232.0
1.0088332891464233,29.0,97232.0,167552.0,98032.0,63760.0,14772.0
1.0101499557495117,35.0,104576.0,128432.0,98832.0,67264.0,19048.0
1.0114500522613525,41.0,103504.0,139008.0,84256.0,69072.0,20112.0
1.0127500295639038,39.0,95456.0,150208.0,92800.0,74352.0,18448.0
1.014050006866455,45.0,115968.0,137024.0,105120.0,68224.0,15440.0
1.0153499841690063,43.0,119264.0,153664.0,99920.0,62096.0,20028.0
1.0166499614715576,36.0,106048.0,154240.0,100608.0,63568.0,20892.0
1.0179500579833984,32.0,118928.0,154752.0,99216.0,65024.0,16988.0
1.0192500352859497,31.0,103840.0,146816.0,96224.0,65568.0,22268.0
1.020550012588501,30.0,102240.0,155008.0,82352.0,63760.0,23484.0
1.0218499898910522,50.0,114096.0,158464.0,98880.0,71968.0,22100.0
1.0231499671936035,69.0,101248.0,161856.0,105504.0,71072.0,11896.0
1.0244499444961548,66.0,105776.0,166784.0,104368.0,70176.0,18356.0
1.0257999897003174,34.0,110592.0,164096.0,100624.0,69888.0,22280.0
1.0271166563034058,37.0,93744.0,145984.0,96880.0,69600.0,20020.0
1.028416633605957,51.0,107888.0,174144.0,100816.0,71552.0,24300.0
1.0297166109085083,55.0,101328.0,166144.0,108544.0,65888.0,21520.0
1.0310167074203491,59.0,97808.0,158080.0,108736.0,70144.0,21240.0
1.0323166847229004,56.0,107680.0,162048.0,108944.0,74384.0,20960.0
1.0336166620254517,11.0,117552.0,186304.0,109952.0,70928.0,19040.0
1.034916639328003,62.0,131136.0,196416.0,110976.0,78144.0,22300.0
1.0362166166305542,25.0,141312.0,189696.0,104656.0,76816.0,21844.0
1.037516713142395,22.0,132800.0,170432.0,109872.0,75472.0,21384.0
1.0388166904449463,59.0,114992.0,170624.0,115072.0,84224.0,23724.0
1.0401166677474976,54.0,138752.0,177024.0,120176.0,67872.0,24892.0
1.0414166450500488,80.0,112480.0,185024.0,125264.0,80240.0,24460.0
1.0427500009536743,58.0,137792.0,190912.0,119264.0,79344.0,25512.0
1.0440833568572998,102.0,120048.0,193792.0,111200.0,80144.0,26568.0
1.045383334159851,25.0,142528.0,190528.0,117120.0,87680.0,27496.0
1.0466833114624023,34.0,132544.0,187264.0,123024.0,86864.0,28380.0
1.0479832887649536,32.0,102528.0,194688.0,120336.0,75376.0,27408.0
1.0492833852767944,30.0,161728.0,190656.0,117648.0,98112.0,27360.0
1.0505833625793457,27.0,136128.0,195200.0,112032.0,69952.0,23176.0
1.051883339881897,32.0,150208.0,180736.0,118064.0,81968.0,25104.0
1.0531833171844482,50.0,134464.0,189952.0,121888.0,89120.0,25924.0
1.0544832944869995,69.0,154688.0,202432.0,125728.0,93552.0,26744.0
1.0557833909988403,52.0,137408.0,198528.0,122816.0,72016.0,21416.0
1.0570833683013916,36.0,158528.0,194624.0,120256.0,97552.0,28560.0
1.0583833456039429,33.0,135872.0,207424.0,123568.0,86544.0,33232.0
1.0597167015075684,30.0,132096.0,209280.0,128928.0,80400.0,33072.0
1.0610333681106567,54.0,134976.0,205824.0,134272.0,105344.0,23908.0
1.062333345413208,47.0,148672.0,209024.0,148672.0,92512.0,24644.0
1.0636333227157593,41.0,147840.0,212224.0,148480.0,104080.0,25084.0
1.0649333000183105,61.0,156736.0,218304.0,145472.0,86256.0,29944.0
1.0662332773208618,80.0,148864.0,220736.0,146688.0,92240.0,40944.0
1.0675333738327026,70.0,161280.0,223104.0,150656.0,105088.0,39424.0
1.068833351135254,41.0,159104.0,214400.0,133760.0,98752.0,35152.0
1.0701333284378052,70.0,156928.0,227328.0,158016.0,81504.0,35280.0
1.0714333057403564,57.0,132032.0,240256.0,155072.0,100224.0,28752.0
1.0727332830429077,20.0,156480.0,247680.0,141440.0,104864.0,26936.0
1.0740333795547485,46.0,168832.0,227392.0,157184.0,102768.0,30828.0
1.0753333568572998,64.0,181120.0,253184.0,158656.0,100736.0,29448.0
1.0766667127609253,48.0,167744.0,248128.0,157760.0,100976.0,31152.0
1.0779666900634766,85.0,150592.0,241088.0,158400.0,101216.0,32864.0
1.0792666673660278,76.0,156544.0,236288.0,159040.0,96960.0,33584.0
1.080566644668579,464.0,156480.0,243136.0,161600.0,92704.0,34304.0
1.0818666219711304,257.0,156416.0,249984.0,164160.0,100592.0,39904.0
1.0831667184829712,51.0,173632.0,256192.0,151296.0,108480.0,37520.0
1.0844666957855225,43.0,172416.0,256192.0,154112.0,109744.0,35136.0
1.0857666730880737,35.0,191296.0,256192.0,157184.0,110992.0,42288.0
1.087066650390625,22.0,188992.0,275072.0,164096.0,116832.0,31964.0
1.0883666276931763,38.0,178752.0,273472.0,161536.0,115200.0,36576.0
1.089666724205017,54.0,180672.0,281920.0,159040.0,108928.0,27708.0
1.0909667015075684,5.0,187456.0,244096.0,172160.0,119616.0,32004.0
1.0922666788101196,31.0,183872.0,274112.0,181504.0,117120.0,32172.0
1.0936332941055298,56.0,195584.0,283712.0,176320.0,116384.0,32340.0
1.0949333906173706,86.0,189120.0,277056.0,172352.0,115648.0,40080.0
1.0962333679199219,51.0,182656.0,280128.0,168448.0,122416.0,40896.0
1.0975333452224731,6.0,188032.0,266432.0,189696.0,123680.0,35904.0
1.0988333225250244,103.0,206592.0,281280.0,201472.0,124960.0,37840.0
1.1001332998275757,38.0,201024.0,280576.0,186048.0,124720.0,39792.0
1.101433277130127,28.0,198400.0,280704.0,192192.0,122944.0,36592.0
1.1027333736419678,66.0,203968.0,280896.0,193088.0,117200.0,36304.0
1.104033350944519,33.0,178304.0,287872.0,175872.0,118080.0,44400.0
1.1053333282470703,64.0,209152.0,285184.0,193024.0,128256.0,42832.0
1.1066333055496216,78.0,207296.0,282496.0,188544.0,130528.0,41264.0
1.1079332828521729,66.0,193024.0,296256.0,184128.0,118512.0,35376.0
1.1092333793640137,54.0,200704.0,293248.0,177216.0,135360.0,42080.0
1.1105999946594238,18.0,224064.0,290240.0,189760.0,108864.0,41520.0
1.111883282661438,58.0,216768.0,318080.0,202240.0,151232.0,39632.0
1.1131833791732788,64.0,248064.0,308672.0,199296.0,136512.0,41968.0
1.1145000457763672,70.0,244800.0,299264.0,204288.0,134528.0,44320.0
1.1157833337783813,71.0,231616.0,326272.0,209280.0,144896.0,46384.0
1.1171000003814697,38.0,237568.0,324544.0,225024.0,132224.0,48448.0
1.1183832883834839,47.0,237504.0,329344.0,232704.0,148544.0,48608.0
1.1196999549865723,56.0,206528.0,334912.0,216000.0,157056.0,48784.0
1.121000051498413,36.0,218816.0,336064.0,233536.0,142656.0,48944.0
1.1223000288009644,30.0,231232.0,337280.0,216000.0,151936.0,45680.0
1.1236000061035156,37.0,255936.0,367808.0,232448.0,159872.0,48336.0
1.124899983406067,28.0,256448.0,369984.0,224384.0,123792.0,42208.0
1.1261999607086182,32.0,252672.0,349632.0,214336.0,163136.0,48592.0
1.1275166273117065,37.0,248896.0,355904.0,227584.0,165696.0,54576.0
1.1288167238235474,56.0,255360.0,343168.0,232704.0,145792.0,51728.0
1.1301167011260986,80.0,260928.0,358656.0,237824.0,163968.0,50848.0
1.13141667842865,88.0,260288.0,358848.0,237376.0,150720.0,49968.0
1.1327166557312012,106.0,260608.0,359040.0,270336.0,153984.0,48016.0
1.1340166330337524,93.0,245376.0,370560.0,266560.0,157504.0,46048.0
1.1353166103363037,80.0,277056.0,389632.0,256448.0,154496.0,50656.0
1.1366167068481445,76.0,282560.0,383488.0,252416.0,151424.0,39968.0
1.1379166841506958,52.0,245888.0,394176.0,229888.0,153152.0,53264.0
1.139216661453247,37.0,258112.0,350848.0,281408.0,154880.0,64928.0
1.1405166387557983,89.0,283968.0,379648.0,264960.0,156672.0,60016.0
1.1418166160583496,75.0,271680.0,379904.0,276608.0,165632.0,60352.0
1.1431167125701904,61.0,243712.0,380096.0,252992.0,174656.0,55328.0
1.1444833278656006,76.0,269248.0,379200.0,242368.0,173632.0,68160.0
1.1457833051681519,62.0,265728.0,378240.0,236416.0,172672.0,65664.0
1.1470832824707031,37.0,284672.0,356480.0,230464.0,190400.0,53536.0
1.148383378982544,48.0,280896.0,408128.0,250816.0,194432.0,52352.0
1.1496833562850952,58.0,282112.0,418176.0,271104.0,183872.0,68064.0
1.1509833335876465,40.0,260224.0,425984.0,295360.0,187648.0,63200.0
1.1522833108901978,38.0,288832.0,422912.0,280896.0,190976.0,68160.0
1.153583288192749,36.0,290752.0,419776.0,278464.0,185664.0,60688.0
1.1548833847045898,44.0,296192.0,417792.0,301888.0,180288.0,55504.0
1.1561833620071411,51.0,300480.0,443776.0,288512.0,202432.0,68096.0
1.1574833393096924,51.0,304704.0,391296.0,323648.0,202112.0,70944.0
1.1587833166122437,62.0,262400.0,420928.0,311616.0,218368.0,53952.0
1.160083293914795,91.0,281216.0,450560.0,291264.0,208064.0,68144.0
1.1614500284194946,129.0,293248.0,425088.0,317504.0,197504.0,76288.0
1.162750005722046,86.0,305280.0,431808.0,314240.0,211008.0,68096.0
1.1640499830245972,42.0,310848.0,438464.0,309568.0,203328.0,67808.0
1.1653499603271484,44.0,321600.0,487552.0,314368.0,183040.0,75872.0
1.1666500568389893,57.0,347136.0,483968.0,319232.0,214336.0,73744.0
1.1679500341415405,70.0,343040.0,507840.0,328960.0,200064.0,81328.0
1.1692500114440918,78.0,336768.0,503424.0,338688.0,220672.0,78400.0
1.170549988746643,81.0,346816.0,502208.0,349376.0,225472.0,62128.0
1.1718499660491943,53.0,341760.0,488896.0,312960.0,211776.0,69568.0
1.1731499433517456,82.0,336640.0,505024.0,359680.0,208960.0,77536.0
1.1744500398635864,79.0,306752.0,516480.0,340352.0,215424.0,70128.0
1.1757500171661377,55.0,355392.0,550400.0,327296.0,223488.0,72480.0
1.177049994468689,86.0,328512.0,534272.0,322944.0,225984.0,74832.0
1.1784166097640991,76.0,374656.0,553728.0,318592.0,196032.0,75584.0
1.17971670627594,65.0,392512.0,522304.0,371904.0,227392.0,72224.0
1.1810166835784912,52.0,365056.0,528128.0,365632.0,216576.0,68864.0
1.1823166608810425,62.0,380224.0,542208.0,364032.0,235648.0,70704.0
1.1836166381835938,72.0,395392.0,585984.0,378432.0,236736.0,54976.0
1.184916615486145,32.0,379776.0,583936.0,401344.0,232448.0,88128.0
1.1862167119979858,92.0,385344.0,573696.0,411584.0,251008.0,78192.0
1.187516689300537,137.0,390848.0,517248.0,396352.0,246848.0,82128.0
1.1888166666030884,102.0,394816.0,557824.0,344192.0,244544.0,79680.0
1.1901166439056396,86.0,372480.0,577280.0,409024.0,271680.0,77232.0
1.191416621208191,44.0,411904.0,607232.0,402944.0,271552.0,86400.0
1.1927167177200317,45.0,419328.0,593152.0,375808.0,253760.0,93328.0
1.194016695022583,46.0,387392.0,624384.0,394624.0,266368.0,91392.0
1.195366621017456,40.0,419584.0,629760.0,393984.0,278912.0,90304.0
1.1966667175292969,58.0,432576.0,630272.0,417280.0,278848.0,83424.0
1.1979833841323853,76.0,445184.0,627968.0,416768.0,284672.0,85600.0
1.1992666721343994,72.0,433856.0,625664.0,416256.0,277056.0,87776.0
1.2005666494369507,55.0,440256.0,623360.0,434368.0,269376.0,86288.0
1.201883316040039,38.0,412736.0,621056.0,422592.0,263552.0,84800.0
1.2031667232513428,120.0,459840.0,641024.0,410816.0,296064.0,81680.0
1.2044833898544312,110.0,477312.0,642560.0,436160.0,306816.0,78576.0
1.2057833671569824,68.0,421760.0,644096.0,427904.0,264000.0,78896.0
1.2070666551589966,40.0,441600.0,662016.0,428224.0,297856.0,96064.0
1.2083666324615479,54.0,500800.0,679936.0,439488.0,292608.0,104768.0
1.2096666097640991,93.0,475648.0,684032.0,455552.0,276736.0,100704.0
1.21096670627594,60.0,492288.0,705792.0,452800.0,306304.0,95824.0
1.2122999429702759,27.0,504768.0,723200.0,461952.0,288256.0,90944.0
1.2136000394821167,48.0,464640.0,647168.0,459072.0,304576.0,115648.0
1.214900016784668,108.0,470784.0,677120.0,456192.0,310656.0,120848.0
1.2161999940872192,89.0,492800.0,773632.0,470784.0,315200.0,94752.0
1.2174999713897705,123.0,481856.0,756480.0,478144.0,324864.0,97024.0
1.2187999486923218,130.0,470976.0,722944.0,485440.0,321536.0,103152.0
1.2201000452041626,64.0,481408.0,719872.0,488320.0,325952.0,99872.0
1.2214000225067139,108.0,491840.0,738560.0,516480.0,324800.0,96576.0
1.2226999998092651,52.0,497152.0,761088.0,505856.0,340288.0,96752.0
1.2239999771118164,121.0,502528.0,747008.0,495232.0,333696.0,96928.0
1.2252999544143677,98.0,508288.0,732672.0,501120.0,327104.0,116176.0
1.2266000509262085,142.0,520512.0,783872.0,515776.0,333312.0,116224.0
1.2279000282287598,112.0,522944.0,788736.0,541184.0,340608.0,113568.0
1.22926664352417,46.0,555264.0,793600.0,548352.0,337856.0,91616.0
1.2305666208267212,101.0,554496.0,802816.0,508480.0,335104.0,101376.0
1.231866717338562,117.0,553728.0,772608.0,483328.0,363584.0,116512.0
1.2331666946411133,108.0,550400.0,867072.0,570112.0,366656.0,95808.0
1.2344666719436646,102.0,550400.0,888576.0,547072.0,359232.0,123984.0
1.2357666492462158,117.0,557568.0,816896.0,541440.0,351808.0,109152.0
1.237066626548767,112.0,572416.0,850688.0,546048.0,352320.0,117376.0
1.238366723060608,121.0,518464.0,830720.0,547584.0,352832.0,127952.0
1.2396667003631592,130.0,588032.0,865792.0,545536.0,353728.0,121952.0
1.2409666776657104,173.0,569856.0,854016.0,543232.0,354560.0,121680.0
1.2422666549682617,162.0,551936.0,842496.0,545024.0,349376.0,121408.0
1.243566632270813,127.0,583680.0,893184.0,564992.0,363456.0,117392.0
1.2448666095733643,91.0,521856.0,897024.0,559616.0,359552.0,99744.0
1.246233344078064,119.0,546816.0,892928.0,554240.0,355648.0,128352.0
1.2475333213806152,120.0,583424.0,881920.0,564992.0,361280.0,114304.0
1.2488332986831665,120.0,582400.0,861952.0,575488.0,366912.0,137280.0
1.2501332759857178,106.0,589568.0,905984.0,574720.0,371328.0,118768.0
1.2514333724975586,164.0,596736.0,882688.0,574208.0,380608.0,119264.0
1.2527333498001099,126.0,571392.0,937984.0,579840.0,380032.0,120944.0
1.2540333271026611,87.0,578304.0,923904.0,579584.0,380992.0,118384.0
1.2553333044052124,105.0,585472.0,946176.0,584448.0,382016.0,123008.0
1.2566332817077637,104.0,643584.0,903936.0,582656.0,373632.0,127632.0
1.2579333782196045,100.0,641792.0,882176.0,580608.0,365312.0,134400.0
1.2592333555221558,113.0,587520.0,951296.0,610560.0,347648.0,140160.0
1.260533332824707,127.0,652544.0,876032.0,543744.0,383168.0,136832.0
1.2618333101272583,121.0,628736.0,932352.0,566016.0,405056.0,113808.0
1.263183355331421,103.0,619008.0,894720.0,569856.0,398528.0,130720.0
1.2644833326339722,128.0,581888.0,850432.0,581632.0,366912.0,121216.0
1.2657999992370605,111.0,643072.0,859904.0,569600.0,415808.0,113696.0
1.2670832872390747,93.0,582656.0,846080.0,557568.0,361024.0,129072.0
1.268399953842163,84.0,591616.0,845824.0,574464.0,395264.0,113568.0
1.2696833610534668,76.0,606464.0,845312.0,573184.0,360384.0,130992.0
1.270983338356018,118.0,562176.0,862976.0,571904.0,371520.0,125488.0
1.2722833156585693,100.0,609024.0,849664.0,538368.0,334080.0,98176.0
1.2735999822616577,82.0,577536.0,836352.0,590080.0,364288.0,121728.0
1.2748833894729614,122.0,560128.0,783872.0,563200.0,370048.0,114640.0
1.2761833667755127,74.0,566784.0,802048.0,554240.0,346048.0,118480.0
1.277483344078064,106.0,555008.0,770304.0,558336.0,350336.0,116432.0
1.2787833213806152,175.0,542976.0,809984.0,555520.0,342848.0,118864.0
1.2801166772842407,502.0,525312.0,759808.0,534272.0,328896.0,101696.0
1.281416654586792,319.0,534784.0,792320.0,531712.0,328704.0,111008.0
1.2827166318893433,136.0,510400.0,809216.0,473728.0,325056.0,114256.0
1.2840166091918945,146.0,542464.0,748032.0,503168.0,352128.0,100432.0
1.2853167057037354,131.0,486528.0,753408.0,473152.0,334528.0,112144.0
1.2866166830062866,63.0,484416.0,778496.0,458432.0,316864.0,82160.0
1.287916660308838,80.0,507520.0,725248.0,466112.0,319232.0,103824.0
1.2892166376113892,81.0,470400.0,718080.0,464768.0,325504.0,104176.0
1.2905166149139404,122.0,500800.0,689664.0,463424.0,303680.0,102288.0
1.2918167114257812,95.0,483392.0,703232.0,443968.0,294592.0,95104.0
1.2931166887283325,68.0,478720.0,673024.0,450752.0,275200.0,94720.0
1.2944166660308838,69.0,444672.0,702720.0,453376.0,280384.0,106224.0
1.295716643333435,70.0,416512.0,679168.0,456064.0,291200.0,82048.0
1.2970833778381348,67.0,440960.0,614144.0,393664.0,261760.0,86832.0
1.298383355140686,71.0,397824.0,593664.0,403008.0,235520.0,91200.0
1.2996833324432373,75.0,405632.0,560896.0,397312.0,261440.0,80192.0
1.3009833097457886,72.0,409152.0,618240.0,413056.0,227264.0,83376.0
1.3022832870483398,68.0,355264.0,555776.0,352512.0,230592.0,69712.0
1.3035833835601807,95.0,385152.0,525056.0,359040.0,233920.0,69840.0
1.304883360862732,100.0,399552.0,527616.0,351808.0,214848.0,72080.0
1.3061833381652832,105.0,339200.0,540160.0,341632.0,199744.0,70832.0
1.3074833154678345,102.0,331584.0,491328.0,326464.0,206272.0,69584.0
1.3087832927703857,99.0,339456.0,459392.0,349376.0,193216.0,62176.0
1.3100833892822266,121.0,340608.0,447040.0,270656.0,196224.0,67344.0
1.3113833665847778,98.0,307392.0,451392.0,273920.0,178944.0,52352.0
1.312683343887329,76.0,299456.0,409344.0,291520.0,176320.0,59936.0
1.3140499591827393,117.0,281792.0,437376.0,254528.0,176448.0,56144.0
1.31535005569458,99.0,276608.0,397952.0,244544.0,163904.0,52336.0
1.3166500329971313,88.0,272768.0,362368.0,241664.0,154880.0,44640.0
1.3179500102996826,48.0,248960.0,347712.0,229504.0,151104.0,44368.0
1.3192499876022339,73.0,238592.0,330688.0,222272.0,147520.0,50608.0
1.3205499649047852,98.0,213952.0,382464.0,200640.0,157056.0,42224.0
1.3218499422073364,101.0,241088.0,294272.0,217344.0,122768.0,39104.0
1.3231500387191772,93.0,205760.0,284416.0,202432.0,105984.0,55296.0
1.3244500160217285,93.0,203840.0,297792.0,168320.0,120864.0,37072.0
1.3257499933242798,93.0,190464.0,279424.0,180864.0,114448.0,38784.0
1.327049970626831,27.0,172864.0,280192.0,146560.0,106224.0,34336.0
1.3283499479293823,118.0,166528.0,248320.0,155456.0,101056.0,34304.0
1.3296500444412231,102.0,169408.0,210496.0,147776.0,100240.0,30632.0
1.3309999704360962,42.0,159808.0,232128.0,135872.0,81744.0,32800.0
1.3322999477386475,48.0,149696.0,229504.0,148032.0,83680.0,29996.0
1.3336166143417358,34.0,143232.0,183616.0,124800.0,83328.0,27004.0
1.3349000215530396,52.0,148928.0,178112.0,117744.0,80672.0,31516.0
1.3361999988555908,33.0,105696.0,162560.0,108032.0,67392.0,31596.0
1.337499976158142,35.0,103408.0,170240.0,115152.0,67888.0,22880.0
1.3387999534606934,36.0,104048.0,143424.0,82096.0,62192.0,28300.0
1.3401000499725342,33.0,90544.0,133504.0,104512.0,56832.0,17972.0
1.3414167165756226,31.0,103616.0,129952.0,89472.0,55664.0,20580.0
1.3427000045776367,74.0,87136.0,113824.0,86608.0,55312.0,11736.0
1.343999981880188,59.0,78400.0,117936.0,79776.0,44352.0,22960.0
1.3452999591827393,45.0,68624.0,113536.0,88688.0,50832.0,14696.0
1.34660005569458,59.0,68624.0,94288.0,70880.0,40240.0,16052.0
1.3479666709899902,36.0,65568.0,86480.0,64224.0,36048.0,18196.0
1.3492666482925415,34.0,52016.0,106784.0,62544.0,33744.0,12184.0
1.3505666255950928,33.0,62048.0,87184.0,47552.0,34592.0,13032.0
1.3518667221069336,30.0,64496.0,79312.0,38528.0,32608.0,12272.0
1.3531666994094849,27.0,53200.0,83392.0,48352.0,33856.0,7443.0
1.3544666767120361,53.0,51152.0,73696.0,35232.0,35088.0,11704.0
1.3557666540145874,56.0,37104.0,65744.0,31124.0,25680.0,10512.0
1.3570666313171387,53.0,34976.0,59888.0,35744.0,19980.0,9040.0
1.35836660861969,18.0,37072.0,64320.0,33104.0,20404.0,4483.0
1.3596667051315308,25.0,34032.0,47376.0,29680.0,21112.0,3274.0
1.360966682434082,33.0,33456.0,43040.0,26260.0,21816.0,7696.0
1.3622666597366333,62.0,38128.0,46496.0,27108.0,23316.0,7032.0
1.3635666370391846,48.0,27048.0,40288.0,27952.0,15340.0,8568.0
1.3649333715438843,33.0,32340.0,43776.0,27580.0,25772.0,4935.0
1.3662333488464355,27.0,30884.0,36672.0,27760.0,17760.0,3449.0
1.3675333261489868,18.0,33808.0,40560.0,26724.0,14968.0,3865.0
1.368833303451538,22.0,33552.0,30268.0,25692.0,11500.0,3473.0
1.3701332807540894,36.0,19180.0,28768.0,19984.0,15800.0,3081.0
1.3714333772659302,54.0,22128.0,39920.0,22392.0,13180.0,3341.0
1.3727333545684814,64.0,16348.0,31956.0,19176.0,13092.0,3600.0
1.3740333318710327,57.0,17212.0,30804.0,16208.0,13008.0,3985.0
1.375333309173584,70.0,19572.0,30076.0,15032.0,10584.0,3581.0
1.3766332864761353,14.0,15372.0,19020.0,12528.0,14480.0,3177.0
1.377933382987976,21.0,18056.0,26524.0,12700.0,10748.0,4128.0
1.3792333602905273,506.0,17360.0,29532.0,15432.0,8608.0,3444.0
1.3805333375930786,264.0,19040.0,24968.0,15252.0,13708.0,1990.0
1.3818833827972412,22.0,13604.0,20232.0,13440.0,9320.0,4500.0
1.3831833600997925,24.0,14572.0,15492.0,11668.0,14304.0,2449.0
1.3844833374023438,42.0,11292.0,17000.0,9064.0,6631.0,3011.0
1.385783314704895,60.0,11996.0,21904.0,8832.0,8035.0,1836.0
1.3870832920074463,64.0,15616.0,22936.0,8956.0,7293.0,2388.0
1.388383388519287,57.0,12180.0,14536.0,9080.0,8264.0,3672.0
1.3896833658218384,50.0,13904.0,15268.0,8592.0,8428.0,2340.0
1.3909833431243896,16.0,13476.0,20300.0,8101.0,6847.0,1008.0
1.392283320426941,29.0,14756.0,15580.0,9180.0,5267.0,983.0
1.3935832977294922,5.0,16036.0,10124.0,10916.0,4237.0,2901.0
1.3948832750320435,23.0,9500.0,16708.0,8632.0,5477.0,1650.0
1.3961833715438843,34.0,8536.0,15040.0,6344.0,5737.0,1651.0
1.3974833488464355,37.0,8936.0,13316.0,9732.0,5997.0,1094.0
1.3988499641418457,59.0,7849.0,18360.0,10596.0,5893.0,537.0
1.400149941444397,80.0,9100.0,11708.0,11196.0,5790.0,2465.0
1.4014500379562378,40.0,8065.0,11152.0,6864.0,5927.0,2200.0
1.402750015258789,0.0,7031.0,5093.0,6320.0,5911.0,5758.0
1.4040499925613403,11.0,8224.0,8149.0,9932.0,5895.0,4781.0
1.4053499698638916,23.0,8484.0,8492.0,3862.0,6109.0,2372.0
1.4066499471664429,31.0,9544.0,8540.0,7617.0,2848.0,1067.0
1.4079500436782837,40.0,7507.0,7641.0,6293.0,3407.0,459.0
1.409250020980835,26.0,5471.0,6744.0,2845.0,6723.0,1167.0
1.4105499982833862,31.0,3940.0,7100.0,7722.0,4472.0,1809.0
1.4118499755859375,46.0,5774.0,6842.0,6966.0,5423.0,1372.0
1.4131499528884888,19.0,7644.0,3308.0,5860.0,5235.0,935.0
1.4144500494003296,0.0,6711.0,7791.0,4753.0,1449.0,1188.0
1.4158166646957397,13.0,4994.0,8964.0,3315.0,1477.0,1442.0
1.417116641998291,26.0,5421.0,10088.0,3466.0,4448.0,1234.0
1.4184166193008423,25.0,5425.0,6799.0,3617.0,4806.0,1026.0
1.419716715812683,25.0,5429.0,7694.0,4351.0,4152.0,795.0
1.4210166931152344,21.0,4152.0,9308.0,4412.0,1609.0,1864.0
1.4223166704177856,10.0,5137.0,8924.0,6833.0,5140.0,1415.0
1.423616647720337,0.0,1907.0,5858.0,6561.0,1915.0,966.0
1.4249166250228882,23.0,3125.0,8592.0,6289.0,5071.0,846.0
1.426216721534729,0.0,3752.0,9380.0,6263.0,5161.0,441.0
1.4275166988372803,17.0,3124.0,6482.0,6238.0,3820.0,237.0
1.4288166761398315,40.0,2495.0,4280.0,6065.0,2480.0,34.0
1.4301166534423828,52.0,4974.0,6147.0,3176.0,5760.0,502.0
1.431416630744934,46.0,5102.0,6365.0,3319.0,4031.0,970.0
1.4327666759490967,40.0,4242.0,2820.0,6900.0,6040.0,587.0
1.434066653251648,17.0,5184.0,4580.0,1909.0,3215.0,203.0
1.4353833198547363,39.0,5584.0,7131.0,6667.0,4464.0,114.0
1.4366666078567505,36.0,6470.0,7211.0,6275.0,2614.0,26.0
1.4379667043685913,13.0,1260.0,5942.0,4741.0,2427.0,35.0
1.4392666816711426,40.0,4070.0,6486.0,2773.0,4688.0,1200.0
1.4405666589736938,21.0,4428.0,2906.0,293.0,1298.0,1225.0
1.4418833255767822,49.0,3628.0,5232.0,1933.0,1737.0,1250.0
1.4431666135787964,34.0,2007.0,6009.0,3574.0,2176.0,1878.0
1.4444667100906372,19.0,3031.0,2681.0,3753.0,6086.0,1453.0
1.4457666873931885,19.0,1681.0,3329.0,4139.0,6286.0,1029.0
1.4470666646957397,18.0,3104.0,7370.0,4754.0,5525.0,712.0
1.4483833312988281,17.0,1339.0,7144.0,2474.0,3382.0,32.0
1.4497333765029907,21.0,4027.0,2859.0,4333.0,1317.0,83.0
1.451033353805542,26.0,5148.0,6344.0,3474.0,4185.0,2374.0
1.4523333311080933,36.0,4386.0,5654.0,1995.0,2363.0,2744.0
1.4536333084106445,40.0,3204.0,3169.0,1484.0,842.0,791.0
1.4549332857131958,29.0,1530.0,7669.0,2990.0,3258.0,2107.0
1.4562333822250366,18.0,3811.0,4923.0,1170.0,2614.0,48.0
1.457533359527588,12.0,3541.0,5765.0,4075.0,2956.0,1193.0
1.4588333368301392,23.0,2155.0,7166.0,3713.0,1033.0,1075.0
1.4601333141326904,33.0,2603.0,7422.0,4470.0,1768.0,958.0
1.4614332914352417,43.0,3050.0,10040.0,2114.0,2502.0,1343.0
1.4627333879470825,41.0,3714.0,1080.0,2960.0,1097.0,1727.0
1.4640333652496338,31.0,3455.0,6560.0,6154.0,3012.0,2092.0
1.465333342552185,21.0,3196.0,4429.0,6056.0,3065.0,1673.0
1.4666999578475952,39.0,4781.0,3898.0,4203.0,3399.0,1254.0
1.468000054359436,35.0,4673.0,3823.0,2183.0,2379.0,821.0
1.4693000316619873,32.0,4101.0,3748.0,1212.0,1201.0,695.0
1.4706000089645386,59.0,5257.0,2277.0,5024.0,4098.0,1576.0
1.4718999862670898,5.0,3537.0,6090.0,3045.0,2666.0,1533.0
1.4731999635696411,10.0,1244.0,5288.0,5166.0,1935.0,1491.0
1.4744999408721924,18.0,3721.0,3481.0,3692.0,1942.0,7.0
1.4758000373840332,15.0,4815.0,3417.0,2218.0,1950.0,60.0
1.4771000146865845,11.0,2702.0,4263.0,912.0,1990.0,1044.0
1.4783999919891357,15.0,4338.0,3989.0,1571.0,2031.0,2028.0
1.479699969291687,19.0,4984.0,2790.0,3174.0,2976.0,2290.0
1.4809999465942383,21.0,4476.0,4147.0,4507.0,3295.0,972.0
1.482300043106079,23.0,3969.0,5505.0,4365.0,3614.0,1169.0
1.4836666584014893,43.0,4208.0,6700.0,3917.0,2219.0,2219.0
1.4849666357040405,28.0,2312.0,6012.0,2057.0,304.0,1584.0
1.4862666130065918,13.0,3592.0,5324.0,5187.0,2157.0,949.0
1.4875667095184326,23.0,3512.0,3186.0,4165.0,3642.0,1892.0
1.4888666868209839,38.0,3247.0,3284.0,4838.0,4092.0,2308.0
1.4901666641235352,37.0,2982.0,796.0,1995.0,1614.0,1279.0
1.4914666414260864,35.0,2003.0,410.0,2829.0,369.0,439.0
1.4927666187286377,45.0,3825.0,24.0,3663.0,2496.0,1281.0
1.4940667152404785,0.0,2501.0,6707.0,3281.0,2260.0,1990.0
1.4953666925430298,19.0,2590.0,5397.0,2564.0,2604.0,2514.0
1.496666669845581,51.0,3567.0,3991.0,1848.0,2124.0,3037.0
1.4979666471481323,33.0,1786.0,3539.0,4195.0,1644.0,820.0
1.4992833137512207,12.0,3814.0,5152.0,3778.0,1605.0,672.0
1.500599980354309,61.0,834.0,3781.0,3148.0,2028.0,1328.0
1.5018999576568604,61.0,3067.0,4374.0,2519.0,3074.0,881.0
1.5032000541687012,55.0,2372.0,3434.0,4196.0,3301.0,37.0
1.5045000314712524,17.0,1676.0,2033.0,1235.0,3528.0,698.0
1.5058000087738037,11.0,4059.0,3614.0,5332.0,4055.0,437.0
1.507099986076355,6.0,3260.0,5062.0,2880.0,2373.0,176.0
1.5083999633789062,0.0,3245.0,4710.0,1630.0,2870.0,1159.0
1.5096999406814575,0.0,6641.0,3802.0,5077.0,3368.0,1034.0
1.511016607284546,2.0,6803.0,3478.0,2292.0,3301.0,1533.0
1.5123000144958496,5.0,6005.0,5133.0,3490.0,1934.0,909.0
1.513616681098938,26.0,5208.0,7795.0,4556.0,1260.0,672.0
1.5149166584014893,23.0,699.0,7258.0,4229.0,3140.0,435.0
1.5161999464035034,24.0,5599.0,8964.0,3352.0,1237.0,639.0
1.5175666809082031,0.0,2049.0,5368.0,3293.0,2613.0,590.0
1.5188666582107544,37.0,888.0,6394.0,2772.0,4569.0,542.0
1.5201833248138428,40.0,701.0,6693.0,3250.0,3437.0,20.0
1.521483302116394,55.0,3558.0,3173.0,3728.0,3320.0,14.0
1.5227832794189453,28.0,2758.0,5552.0,3076.0,3204.0,37.0
1.5240833759307861,0.0,4859.0,5303.0,2425.0,1698.0,39.0
1.5253833532333374,45.0,4167.0,7758.0,2530.0,2205.0,42.0
1.5266833305358887,51.0,3475.0,5976.0,2636.0,3439.0,356.0
1.52798330783844,18.0,3047.0,4193.0,2771.0,2832.0,1733.0
1.5292832851409912,29.0,1297.0,4021.0,3588.0,4368.0,1486.0
1.530583381652832,41.0,3094.0,5173.0,4405.0,4263.0,808.0
1.5318833589553833,32.0,2814.0,4778.0,1649.0,4158.0,0.0
1.5331833362579346,24.0,2533.0,4384.0,3933.0,3883.0,278.0
1.534500002861023,37.0,3900.0,1976.0,5607.0,4048.0,441.0
1.5357999801635742,11.0,3897.0,8090.0,2782.0,2784.0,604.0
1.5370999574661255,55.0,4461.0,7190.0,5487.0,1481.0,849.0
1.5384000539779663,61.0,5025.0,6968.0,415.0,1857.0,710.0
1.5397000312805176,31.0,3044.0,6041.0,4221.0,2154.0,919.0
1.5410000085830688,60.0,3082.0,6313.0,4706.0,1906.0,1333.0
1.5422999858856201,62.0,2234.0,5945.0,5190.0,1658.0,45.0
1.5435999631881714,63.0,2924.0,6595.0,4124.0,2054.0,1552.0
1.5448999404907227,38.0,3614.0,5175.0,1900.0,640.0,703.0
1.5462000370025635,28.0,2024.0,3967.0,2037.0,511.0,2153.0
1.5475000143051147,0.0,2148.0,4782.0,4141.0,381.0,1033.0
1.548799991607666,0.0,3399.0,5597.0,1537.0,679.0,3423.0
1.5501500368118286,0.0,3248.0,6440.0,3401.0,978.0,3542.0
1.551466703414917,36.0,2767.0,2532.0,4556.0,1566.0,1072.0
1.5527666807174683,52.0,2285.0,4696.0,2831.0,2153.0,791.0
1.5540666580200195,67.0,3744.0,4309.0,1384.0,1704.0,28.0
1.5553666353225708,23.0,4894.0,4869.0,1789.0,26.0,324.0
1.556666612625122,40.0,5216.0,5430.0,2818.0,3307.0,870.0
1.557966709136963,10.0,4372.0,3691.0,5583.0,1758.0,12.0
1.5592666864395142,0.0,4065.0,2680.0,6304.0,2855.0,1371.0
1.5605666637420654,31.0,3757.0,4174.0,7387.0,1902.0,1502.0
1.5618666410446167,40.0,4186.0,4418.0,1326.0,2020.0,1228.0
1.563166618347168,55.0,4084.0,3142.0,2272.0,614.0,853.0
1.5644667148590088,19.0,4053.0,4829.0,2666.0,1476.0,1124.0
1.56576669216156,0.0,4022.0,3782.0,2589.0,738.0,907.0
1.567116618156433,22.0,4822.0,2252.0,2065.0,0.0,822.0
1.5684332847595215,34.0,2355.0,4226.0,1811.0,1712.0,38.0
1.5697333812713623,36.0,2135.0,3800.0,3698.0,1095.0,942.0
1.5710333585739136,52.0,2969.0,3608.0,3596.0,732.0,5.0
1.5723333358764648,45.0,2409.0,3416.0,4048.0,1517.0,20.0
1.5736333131790161,47.0,2852.0,3367.0,4330.0,592.0,10.0
1.5749332904815674,49.0,2522.0,3318.0,2575.0,1104.0,872.0
1.5762333869934082,31.0,2193.0,4312.0,4339.0,1438.0,461.0
1.5775333642959595,45.0,2341.0,5306.0,491.0,1796.0,50.0
1.5788333415985107,60.0,2490.0,5136.0,2174.0,1267.0,505.0
1.580133318901062,15.0,2959.0,4966.0,1757.0,738.0,23.0
1.5814332962036133,63.0,1315.0,6600.0,1856.0,1555.0,29.0
1.582733392715454,33.0,2387.0,4478.0,3951.0,1438.0,6.0
1.5840333700180054,31.0,2505.0,2357.0,4114.0,57.0,10.0
1.5853500366210938,45.0,2120.0,5299.0,4415.0,957.0,14.0
1.5866667032241821,0.0,1735.0,5107.0,2358.0,453.0,1281.0
1.5879499912261963,16.0,1864.0,4241.0,3584.0,542.0,1030.0
1.5892499685287476,14.0,2254.0,2591.0,1386.0,1448.0,2061.0
1.5905499458312988,12.0,2179.0,3262.0,1068.0,733.0,1933.0
1.5918500423431396,25.0,2104.0,3999.0,750.0,18.0,1151.0
1.593150019645691,18.0,1603.0,6028.0,1815.0,1741.0,11.0
1.5944499969482422,12.0,2372.0,6189.0,3085.0,1906.0,0.0
1.5957499742507935,42.0,2243.0,6004.0,3447.0,2071.0,1148.0
1.5970499515533447,49.0,2114.0,5389.0,2942.0,2318.0,487.0
1.5983500480651855,43.0,998.0,4775.0,2180.0,1135.0,201.0
1.599666714668274,43.0,1744.0,2713.0,4189.0,1267.0,8.0
1.6009999513626099,46.0,1920.0,5876.0,104.0,1400.0,44.0
1.6023166179656982,33.0,946.0,4790.0,4439.0,1660.0,39.0
1.603616714477539,20.0,1699.0,5587.0,2254.0,1531.0,19.0
1.6049166917800903,16.0,1484.0,6215.0,2133.0,1402.0,0.0
1.6062166690826416,14.0,1270.0,6844.0,2153.0,901.0,277.0
1.6075166463851929,28.0,4146.0,4368.0,2032.0,1284.0,144.0
1.6088166236877441,16.0,4096.0,6612.0,1912.0,1667.0,12.0
1.610116720199585,5.0,3023.0,3572.0,1512.0,14.0,17.0
1.6114166975021362,18.0,3562.0,5295.0,2505.0,2213.0,8.0
1.6127166748046875,19.0,3387.0,1842.0,2527.0,1867.0,0.0
1.6140166521072388,20.0,3211.0,1454.0,1775.0,1217.0,21.0
1.61531662940979,32.0,872.0,3066.0,1022.0,1099.0,42.0
1.6166167259216309,34.0,2523.0,3511.0,2361.0,21.0,241.0
1.6179499626159668,35.0,2554.0,4144.0,23.0,1705.0,440.0
1.6192833185195923,23.0,2514.0,4162.0,1033.0,2672.0,682.0
1.6205832958221436,12.0,1580.0,4468.0,2044.0,3639.0,576.0
1.6218833923339844,0.0,2306.0,3670.0,1505.0,1769.0,469.0
1.6231833696365356,5.0,3032.0,2872.0,46.0,1402.0,726.0
1.624483346939087,10.0,2922.0,4921.0,2063.0,2209.0,72.0
1.6257833242416382,10.0,1273.0,3884.0,1464.0,1413.0,805.0
1.6270833015441895,25.0,3112.0,4735.0,864.0,2619.0,450.0
1.6283832788467407,18.0,1608.0,1660.0,765.0,571.0,39.0
1.6296833753585815,12.0,1919.0,2178.0,584.0,40.0,539.0
1.6309833526611328,15.0,2230.0,2951.0,341.0,959.0,274.0
1.632283329963684,18.0,2207.0,2337.0,98.0,631.0,10.0
1.6335833072662354,14.0,2184.0,4372.0,1211.0,303.0,5.0
1.6349166631698608,10.0,735.0,5310.0,2812.0,886.0,0.0
1.6362333297729492,15.0,33.0,3841.0,2345.0,2585.0,11.0
1.6375333070755005,20.0,2459.0,3962.0,2568.0,3188.0,6.0
1.6388332843780518,19.0,1813.0,5768.0,2238.0,2459.0,0.0
1.6401333808898926,10.0,1168.0,3063.0,2912.0,2758.0,2.0
1.6414333581924438,9.0,1879.0,4538.0,2035.0,1266.0,5.0
1.6427333354949951,8.0,2590.0,4928.0,1157.0,3074.0,12.0
1.6440333127975464,0.0,2647.0,4587.0,1193.0,1198.0,20.0
1.6453332901000977,0.0,4250.0,4247.0,1907.0,3333.0,421.0
1.6466333866119385,33.0,4394.0,2132.0,1604.0,2629.0,823.0
1.6479333639144897,30.0,2150.0,3639.0,1393.0,1949.0,532.0
1.649233341217041,5.0,595.0,1574.0,1966.0,2218.0,24.0
1.6505333185195923,39.0,1256.0,2039.0,1899.0,1204.0,894.0
1.6518833637237549,22.0,2210.0,2504.0,1833.0,2478.0,1208.0
1.6532000303268433,24.0,3165.0,3267.0,956.0,3249.0,5.0
1.6545000076293945,5.0,2756.0,3195.0,688.0,2443.0,1612.0
1.6557999849319458,24.0,2334.0,3194.0,419.0,3077.0,867.0
1.657099962234497,14.0,1395.0,2864.0,644.0,279.0,35.0
1.658400058746338,5.0,2019.0,2534.0,667.0,1508.0,654.0
1.6597000360488892,21.0,2643.0,1521.0,690.0,2786.0,199.0
1.6610000133514404,28.0,5669.0,2463.0,3008.0,617.0,125.0
1.6622999906539917,0.0,6678.0,1835.0,1755.0,982.0,51.0
1.663599967956543,22.0,5421.0,1207.0,501.0,1809.0,49.0
1.6648999452590942,20.0,2782.0,3977.0,1214.0,1250.0,47.0
1.666200041770935,12.0,2292.0,3822.0,1425.0,690.0,524.0
1.6675000190734863,5.0,2100.0,5140.0,3725.0,2058.0,270.0
1.6688499450683594,14.0,3930.0,2789.0,3306.0,1212.0,17.0
1.6701666116714478,24.0,2912.0,2941.0,860.0,2019.0,328.0
1.6714667081832886,17.0,1894.0,3033.0,1005.0,1894.0,639.0
1.6727666854858398,10.0,1833.0,3230.0,692.0,739.0,708.0
1.6740666627883911,0.0,1344.0,3427.0,1549.0,35.0,7.0
1.6753666400909424,971.0,1456.0,1521.0,1425.0,706.0,467.0
1.6766666173934937,847.0,2396.0,180.0,1301.0,1378.0,731.0
1.6779667139053345,7.0,3336.0,2169.0,2647.0,1283.0,35.0
1.6792666912078857,43.0,54.0,2168.0,2125.0,632.0,5.0
1.680566668510437,48.0,2934.0,3730.0,1602.0,55.0,18.0
1.6818666458129883,39.0,544.0,2669.0,2365.0,1404.0,0.0
1.6831666231155396,30.0,4030.0,1608.0,222.0,595.0,385.0
1.6844667196273804,19.0,1636.0,3596.0,2721.0,1756.0,209.0
1.6857999563217163,19.0,2359.0,2406.0,1478.0,1278.0,34.0
1.6871166229248047,19.0,4171.0,1217.0,26.0,859.0,22.0
1.6884167194366455,15.0,3758.0,3834.0,538.0,441.0,10.0
1.6897166967391968,55.0,2715.0,2351.0,1051.0,938.0,682.0
1.6910333633422852,56.0,1257.0,3016.0,1561.0,1436.0,357.0
1.6923166513442993,57.0,2230.0,4128.0,1802.0,1230.0,33.0
1.6936166286468506,44.0,2376.0,3456.0,1147.0,1024.0,814.0
1.6949167251586914,0.0,2522.0,2785.0,3085.0,1625.0,419.0
1.6962167024612427,47.0,2521.0,2914.0,4363.0,2388.0,24.0
1.697516679763794,24.0,1133.0,1883.0,3613.0,5.0,92.0
1.6988166570663452,17.0,1204.0,8.0,4655.0,2215.0,15.0
1.7001166343688965,11.0,1068.0,1324.0,1615.0,1354.0,0.0
1.7014166116714478,20.0,995.0,850.0,3283.0,2060.0,11.0
1.7027666568756104,14.0,922.0,376.0,781.0,1561.0,430.0
1.7040833234786987,8.0,40.0,3701.0,2252.0,2338.0,227.0
1.70538330078125,16.0,710.0,3061.0,767.0,1027.0,24.0
1.7066832780838013,24.0,1380.0,1993.0,2685.0,947.0,13.0
1.707983374595642,22.0,1746.0,1968.0,2410.0,1923.0,21.0
1.7092833518981934,20.0,2058.0,522.0,34.0,16.0,7.0
1.7105833292007446,20.0,1496.0,941.0,3955.0,353.0,11.0
1.711883306503296,21.0,934.0,1845.0,1654.0,1156.0,233.0
1.7131832838058472,295.0,1590.0,1068.0,73.0,0.0,124.0
1.714483380317688,157.0,2072.0,291.0,3659.0,738.0,15.0
1.7157833576202393,19.0,1717.0,1395.0,1714.0,405.0,7.0
1.7170833349227905,5.0,1361.0,2499.0,20.0,73.0,0.0
1.7183833122253418,6.0,905.0,2266.0,1837.0,781.0,46.0
1.7197333574295044,21.0,657.0,2487.0,2409.0,1489.0,44.0
1.7210500240325928,10.0,827.0,2709.0,1062.0,1672.0,33.0
1.722350001335144,41.0,996.0,849.0,3063.0,547.0,23.0
1.7236499786376953,45.0,1200.0,3399.0,314.0,1551.0,69.0
1.7249499559402466,74.0,1404.0,2560.0,766.0,1830.0,37.0
1.7262500524520874,56.0,564.0,4283.0,2278.0,749.0,5.0
1.7275500297546387,36.0,908.0,1640.0,2801.0,479.0,25.0
1.72885000705719,12.0,1252.0,630.0,2031.0,15.0,44.0
1.7301499843597412,27.0,1229.0,5992.0,2086.0,386.0,41.0
1.7314499616622925,33.0,1205.0,4054.0,2379.0,711.0,39.0
1.7327500581741333,39.0,39.0,1528.0,1986.0,1172.0,30.0
1.7340500354766846,22.0,1680.0,2135.0,505.0,1400.0,21.0
1.7353500127792358,19.0,4307.0,3397.0,1409.0,26.0,192.0
1.7367000579833984,17.0,4180.0,1560.0,1457.0,100.0,106.0
1.7380167245864868,20.0,537.0,1919.0,2050.0,6.0,20.0
1.739316701889038,13.0,3041.0,2093.0,1768.0,1050.0,52.0
1.7406166791915894,35.0,1114.0,2247.0,1799.0,1043.0,22.0
1.7419166564941406,45.0,1034.0,2400.0,3003.0,1036.0,21.0
1.743216633796692,27.0,3657.0,3058.0,3618.0,693.0,21.0
1.7445166110992432,10.0,1317.0,2350.0,542.0,349.0,15.0
1.745816707611084,9.0,3402.0,1642.0,222.0,897.0,9.0
1.7471166849136353,14.0,309.0,1965.0,1469.0,1445.0,35.0
1.7484166622161865,18.0,3559.0,4528.0,294.0,1185.0,1076.0
1.7497166395187378,23.0,935.0,3884.0,326.0,714.0,551.0
1.751016616821289,16.0,32.0,1539.0,359.0,2405.0,26.0
1.7523167133331299,10.0,2437.0,4357.0,2180.0,2341.0,21.0
1.753666639328003,69.0,2790.0,713.0,1893.0,1784.0,8.0
1.7549833059310913,46.0,1336.0,1782.0,1314.0,2855.0,53.0
1.7562832832336426,23.0,0.0,2348.0,1777.0,33.0,98.0
1.7575833797454834,21.0,963.0,2914.0,1991.0,1937.0,385.0
1.7588833570480347,19.0,1571.0,3265.0,2205.0,412.0,870.0
1.760183334350586,37.0,166.0,3124.0,2102.0,1703.0,645.0
1.7614833116531372,56.0,1720.0,2641.0,698.0,413.0,5.0
1.7627832889556885,51.0,1229.0,3193.0,52.0,2339.0,657.0
1.7640833854675293,0.0,1419.0,3287.0,3887.0,1961.0,748.0
1.7653833627700806,5.0,2513.0,4774.0,3875.0,805.0,67.0
1.7666833400726318,11.0,2946.0,705.0,2267.0,57.0,1180.0
1.767983317375183,16.0,58.0,930.0,5.0,30.0,1176.0
1.7692832946777344,15.0,2378.0,1086.0,43.0,877.0,22.0
1.7706166505813599,14.0,2356.0,1155.0,2497.0,1285.0,25.0
1.7719333171844482,7.0,3599.0,1223.0,231.0,1009.0,19.0
1.7732332944869995,64.0,3027.0,1201.0,504.0,734.0,17.0
1.7745333909988403,36.0,2442.0,1178.0,1725.0,1161.0,15.0
1.7758333683013916,8.0,2536.0,1884.0,1134.0,358.0,38.0
1.7771333456039429,25.0,2011.0,955.0,163.0,630.0,32.0
1.7784333229064941,0.0,660.0,27.0,1805.0,902.0,27.0
1.7797333002090454,32.0,2589.0,1699.0,1238.0,15.0,208.0
1.7810332775115967,30.0,781.0,2682.0,27.0,345.0,389.0
1.7823333740234375,16.0,1081.0,1752.0,761.0,676.0,279.0
1.7836333513259888,14.0,1381.0,3467.0,1563.0,572.0,40.0
1.78493332862854,9.0,1731.0,3581.0,993.0,468.0,0.0
1.7862333059310913,5.0,3551.0,1639.0,424.0,1209.0,5.0
1.787583351135254,26.0,4137.0,5354.0,541.0,1118.0,10.0
1.7889000177383423,27.0,37.0,5029.0,657.0,797.0,0.0
1.7901999950408936,28.0,2846.0,1699.0,841.0,477.0,86.0
1.7914999723434448,0.0,1897.0,1456.0,1025.0,1212.0,85.0
1.792799949645996,11.0,2478.0,2828.0,28.0,949.0,27.0
1.794100046157837,10.0,12.0,1746.0,1353.0,686.0,39.0
1.7954000234603882,11.0,1999.0,1827.0,2678.0,118.0,33.0
1.7967000007629395,12.0,1802.0,1811.0,2900.0,700.0,28.0
1.7979999780654907,0.0,1593.0,2230.0,1372.0,549.0,5.0
1.799299955368042,10.0,1383.0,434.0,1092.0,390.0,13.0
1.8006000518798828,40.0,2456.0,1229.0,3076.0,245.0,21.0
1.801900029182434,49.0,320.0,1497.0,2446.0,99.0,19.0
1.8032000064849854,13.0,1057.0,696.0,1673.0,52.0,17.0
1.804550051689148,37.0,2026.0,1729.0,3960.0,5.0,8.0
1.8058667182922363,44.0,1857.0,36.0,1100.0,789.0,0.0
1.8071666955947876,835.0,1029.0,1686.0,42.0,740.0,34.0
1.8084666728973389,650.0,3048.0,3564.0,730.0,694.0,48.0
1.8097666501998901,33.0,5.0,5107.0,527.0,974.0,62.0
1.8110666275024414,5.0,211.0,2400.0,324.0,0.0,47.0
1.8123667240142822,25.0,1652.0,1176.0,628.0,533.0,32.0
1.8136667013168335,51.0,48.0,3197.0,1104.0,651.0,33.0
1.8149666786193848,52.0,363.0,2865.0,1579.0,769.0,34.0
1.816266655921936,53.0,938.0,2032.0,1510.0,769.0,17.0
1.8175666332244873,40.0,2138.0,1384.0,1440.0,396.0,0.0
1.8188666105270386,26.0,1083.0,1787.0,1409.0,33.0,9.0
1.8201667070388794,20.0,27.0,2075.0,490.0,1068.0,52.0
1.8214999437332153,23.0,2590.0,2364.0,1136.0,786.0,60.0
1.8228332996368408,29.0,2502.0,2837.0,872.0,504.0,5.0
1.824133276939392,36.0,2260.0,2507.0,608.0,1258.0,153.0
1.825433373451233,0.0,1549.0,2416.0,813.0,19.0,90.0
1.8267333507537842,15.0,2235.0,1413.0,1058.0,854.0,27.0
1.8280333280563354,27.0,2231.0,1463.0,1364.0,27.0,27.0
1.8293333053588867,46.0,2718.0,1513.0,1671.0,274.0,27.0
1.830633282661438,44.0,940.0,762.0,13.0,521.0,26.0
1.8319333791732788,41.0,914.0,2254.0,1256.0,42.0,26.0
1.83323335647583,42.0,3110.0,2662.0,51.0,23.0,635.0
1.8345333337783813,16.0,831.0,1308.0,344.0,5.0,764.0
1.8358333110809326,53.0,618.0,1389.0,2235.0,522.0,385.0
1.8371332883834839,10.0,4289.0,1923.0,1532.0,1039.0,7.0
1.8384666442871094,10.0,5058.0,1562.0,18.0,737.0,3.0
1.8397833108901978,44.0,1624.0,1200.0,8.0,1089.0,0.0
1.841083288192749,5.0,1681.0,615.0,1456.0,61.0,14.0
1.8423833847045898,7.0,2436.0,30.0,1293.0,474.0,27.0
1.8436833620071411,9.0,2064.0,1533.0,1131.0,1659.0,21.0
1.8449833393096924,7.0,1692.0,1910.0,572.0,1163.0,206.0
1.8462833166122437,137.0,2034.0,1168.0,690.0,58.0,106.0
1.847583293914795,78.0,1118.0,426.0,808.0,1196.0,5.0
1.8488833904266357,19.0,1775.0,1055.0,499.0,0.0,30.0
1.850183367729187,5.0,1883.0,1322.0,1172.0,19.0,338.0
1.8514833450317383,15.0,1691.0,1563.0,598.0,1344.0,646.0
1.8527833223342896,26.0,1498.0,3854.0,24.0,2228.0,331.0
1.8540832996368408,7.0,3046.0,4578.0,486.0,1480.0,17.0
1.8554333448410034,3.0,2786.0,1006.0,949.0,29.0,392.0
1.8567500114440918,0.0,940.0,1754.0,1242.0,1581.0,198.0
1.858049988746643,15.0,6.0,4311.0,714.0,917.0,5.0
1.8593499660491943,32.0,2854.0,2872.0,371.0,253.0,39.0
1.8606499433517456,58.0,2420.0,3398.0,27.0,26.0,73.0
1.8619500398635864,34.0,1693.0,1357.0,994.0,44.0,33.0
1.8632500171661377,10.0,967.0,1730.0,24.0,29.0,12.0
1.864549994468689,0.0,12.0,418.0,1146.0,602.0,23.0
1.8658499717712402,0.0,29.0,408.0,596.0,324.0,32.0
1.8671499490737915,12.0,383.0,285.0,46.0,47.0,31.0
1.8684500455856323,8.0,203.0,162.0,1089.0,18.0,37.0
1.8697500228881836,5.0,23.0,346.0,17.0,450.0,44.0
1.8710500001907349,33.0,10.0,2185.0,8.0,232.0,48.0
1.8724000453948975,45.0,9.0,1713.0,0.0,13.0,52.0
1.8737167119979858,56.0,993.0,1855.0,584.0,23.0,35.0
1.875016689300537,10.0,1303.0,1232.0,1168.0,34.0,18.0
1.8763166666030884,21.0,1563.0,164.0,1190.0,22.0,730.0
1.8776166439056396,33.0,4093.0,880.0,686.0,10.0,367.0
1.878916621208191,21.0,4181.0,1597.0,181.0,17.0,5.0
1.8802167177200317,8.0,3334.0,404.0,2334.0,654.0,325.0
1.881516695022583,36.0,1221.0,4480.0,2123.0,1037.0,645.0
1.8828166723251343,18.0,2172.0,4919.0,1515.0,738.0,323.0
1.8841166496276855,25.0,1301.0,1520.0,1880.0,438.0,0.0
1.8854166269302368,12.0,45.0,1180.0,1431.0,1302.0,30.0
1.8867167234420776,25.0,1999.0,456.0,717.0,773.0,21.0
1.888016700744629,29.0,679.0,925.0,12.0,245.0,5.0
1.8893500566482544,31.0,870.0,400.0,1602.0,482.0,20.0
1.8906667232513428,34.0,428.0,548.0,2814.0,1047.0,18.0
1.891966700553894,35.0,940.0,3139.0,2254.0,882.0,15.0
1.8932666778564453,36.0,1258.0,3546.0,874.0,717.0,704.0
1.8945666551589966,8.0,1608.0,1711.0,131.0,393.0,885.0
1.8958666324615479,12.0,1120.0,861.0,1323.0,69.0,28.0
1.8971666097640991,15.0,434.0,314.0,1800.0,824.0,54.0
1.89846670627594,18.0,542.0,591.0,596.0,428.0,25.0
1.8997833728790283,14.0,683.0,2202.0,1134.0,32.0,22.0
1.9010666608810425,21.0,1170.0,2590.0,1694.0,870.0,23.0
1.9023666381835938,28.0,1581.0,2143.0,35.0,643.0,25.0
1.903666615486145,36.0,10.0,1569.0,28.0,416.0,19.0
1.9049667119979858,30.0,999.0,1801.0,318.0,0.0,30.0
1.9063166379928589,25.0,391.0,1295.0,320.0,24.0,42.0
1.9076333045959473,17.0,16.0,2505.0,323.0,307.0,35.0
1.9089332818984985,13.0,1167.0,2282.0,665.0,200.0,29.0
1.9102333784103394,10.0,1252.0,2272.0,1007.0,93.0,65.0
1.9115333557128906,10.0,924.0,561.0,1100.0,128.0,39.0
1.912833333015442,11.0,0.0,383.0,1007.0,163.0,12.0
1.9141333103179932,18.0,1391.0,1847.0,915.0,20.0,83.0
1.9154332876205444,25.0,1214.0,1247.0,44.0,6.0,55.0
1.9167333841323853,29.0,1037.0,2018.0,1481.0,11.0,26.0
1.9180333614349365,5.0,834.0,697.0,267.0,17.0,41.0
1.9193333387374878,25.0,630.0,728.0,1106.0,19.0,30.0
1.920633316040039,33.0,1427.0,759.0,395.0,22.0,19.0
1.9219332933425903,41.0,1349.0,2022.0,484.0,24.0,1507.0
1.923283338546753,0.0,660.0,1708.0,1115.0,48.0,775.0
1.9246000051498413,18.0,2094.0,2181.0,17.0,32.0,43.0
1.9258999824523926,36.0,1630.0,698.0,1084.0,16.0,44.0
1.9271999597549438,5.0,1799.0,606.0,1261.0,15.0,0.0
1.9285000562667847,15.0,24.0,17.0,829.0,21.0,45.0
1.929800033569336,13.0,700.0,1586.0,418.0,27.0,152.0
1.9311000108718872,18.0,715.0,2082.0,6.0,583.0,84.0
1.9323999881744385,23.0,514.0,1700.0,1352.0,299.0,17.0
1.9336999654769897,59.0,313.0,1369.0,1156.0,15.0,10.0
1.934999942779541,40.0,31.0,2980.0,959.0,0.0,8.0
1.9363000392913818,21.0,499.0,2641.0,1686.0,35.0,6.0
1.937600016593933,34.0,272.0,3450.0,38.0,25.0,5.0
1.9388999938964844,42.0,44.0,3477.0,376.0,15.0,2.0
1.9402333498001099,44.0,532.0,3504.0,1995.0,1224.0,0.0
1.9415500164031982,0.0,508.0,2060.0,1541.0,1228.0,23.0
1.9428499937057495,16.0,483.0,418.0,1074.0,66.0,45.0
1.9441499710083008,17.0,794.0,377.0,1494.0,718.0,272.0
1.945449948310852,49.0,2129.0,1838.0,403.0,5.0,499.0
1.9467500448226929,36.0,2288.0,847.0,442.0,638.0,258.0
1.9480500221252441,14.0,678.0,2659.0,407.0,33.0,17.0
1.9493499994277954,12.0,981.0,2082.0,566.0,222.0,397.0
1.9506499767303467,32.0,2116.0,3253.0,2037.0,115.0,37.0
1.951949954032898,39.0,773.0,338.0,2932.0,7.0,25.0
1.9532500505447388,27.0,795.0,529.0,1713.0,413.0,14.0
1.95455002784729,48.0,1613.0,316.0,967.0,231.0,18.0
1.9558500051498413,59.0,505.0,853.0,2182.0,50.0,23.0
1.957200050354004,5.0,55.0,1711.0,16.0,1067.0,11.0
1.9585167169570923,30.0,29.0,2234.0,19.0,890.0,12.0
1.9598166942596436,13.0,208.0,2233.0,1804.0,712.0,471.0
1.9611166715621948,29.0,388.0,85.0,697.0,1167.0,254.0
1.962416648864746,23.0,469.0,2730.0,8.0,50.0,37.0
1.9637166261672974,29.0,838.0,560.0,0.0,31.0,26.0
1.9650167226791382,6.0,1207.0,742.0,372.0,814.0,28.0
1.9663166999816895,5.0,1379.0,2154.0,1391.0,407.0,30.0
1.9676166772842407,10.0,631.0,1218.0,1536.0,0.0,0.0
1.968916654586792,15.0,10.0,1291.0,948.0,12.0,27.0
1.9702166318893433,21.0,840.0,0.0,1448.0,1856.0,174.0
1.9715166091918945,27.0,1225.0,695.0,1949.0,1460.0,100.0
1.9728167057037354,33.0,12.0,1189.0,406.0,541.0,26.0
1.9741666316986084,28.0,1202.0,872.0,486.0,16.0,696.0
1.9754832983016968,23.0,951.0,697.0,1001.0,243.0,368.0
1.976783275604248,10.0,750.0,471.0,489.0,470.0,41.0
1.9780833721160889,7.0,36.0,1181.0,946.0,25.0,23.0
1.9793833494186401,18.0,89.0,1217.0,29.0,19.0,50.0
1.9806833267211914,14.0,35.0,619.0,526.0,14.0,6.0
1.9819833040237427,20.0,51.0,20.0,1024.0,0.0,18.0
1.983283281326294,33.0,66.0,24.0,788.0,3.0,30.0
1.9845833778381348,46.0,52.0,1632.0,397.0,6.0,54.0
1.985883355140686,45.0,37.0,3106.0,6.0,17.0,61.0
1.9871833324432373,0.0,54.0,1969.0,25.0,144.0,71.0
1.9884833097457886,0.0,28.0,2118.0,372.0,271.0,0.0
1.9897832870483398,12.0,189.0,800.0,719.0,148.0,6.0
1.9911166429519653,6.0,3068.0,378.0,362.0,25.0,6.0
1.9924333095550537,0.0,3002.0,1917.0,6.0,0.0,10.0
1.993733286857605,6.0,922.0,1894.0,525.0,13.0,15.0
1.9950333833694458,6.0,2960.0,1870.0,1044.0,50.0,22.0
1.996333360671997,6.0,2412.0,57.0,529.0,87.0,14.0
1.9976333379745483,14.0,374.0,1920.0,14.0,915.0,6.0
