,335.2099914550781,336.2099914550781,337.2099914550781,338.2099914550781,339.2099914550781,340.2099914550781,341.2099914550781,342.2099914550781,343.2099914550781,344.2099914550781,345.2099914550781
5.702383518218994,29.0,21.0,173.0,25.0,39.0,15.0,16.0,74.0,47.0,38.0,5.0
5.704766750335693,10.0,11.0,33.0,39.0,64.0,21.0,750.0,11.0,5.0,22.0,25.0
5.707149982452393,27.0,23.0,1166.0,13.0,23.0,5.0,13.0,5.0,18.0,26.0,27.0
5.709533214569092,15.0,17.0,11.0,18.0,72.0,32.0,24.0,22.0,48.0,55.0,39.0
5.711916446685791,10.0,26.0,0.0,15.0,17.0,30.0,13.0,18.0,40.0,47.0,45.0
5.714300155639648,5.0,41.0,57.0,13.0,23.0,45.0,14.0,15.0,25.0,33.0,17.0
5.716683387756348,15.0,45.0,26.0,10.0,83.0,48.0,22.0,24.0,10.0,18.0,23.0
5.719116687774658,54.0,12.0,56.0,12.0,34.0,5.0,5.0,32.0,0.0,50.0,28.0
5.721499919891357,68.0,19.0,23.0,11.0,16.0,24.0,22.0,33.0,11.0,8.0,24.0
5.723883152008057,0.0,43.0,56.0,10.0,78.0,37.0,25.0,16.0,0.0,11.0,22.0
5.726266860961914,14.0,11.0,24.0,18.0,58.0,11.0,29.0,5.0,15.0,47.0,19.0
5.728650093078613,44.0,32.0,0.0,23.0,24.0,28.0,0.0,40.0,7.0,41.0,14.0
5.7310333251953125,0.0,11.0,19.0,25.0,26.0,25.0,35.0,13.0,4.0,41.0,10.0
5.733416557312012,51.0,0.0,11.0,5.0,14.0,22.0,14.0,15.0,0.0,0.0,17.0
5.735866546630859,31.0,18.0,0.0,5.0,48.0,0.0,5.0,7.0,54.0,13.0,24.0
5.738249778747559,25.0,10.0,8.0,5.0,27.0,10.0,6.0,17.0,27.0,27.0,25.0
5.740633487701416,20.0,14.0,5.0,0.0,5.0,21.0,16.0,16.0,0.0,31.0,26.0
5.743016719818115,8.0,7.0,10.0,5.0,64.0,32.0,26.0,15.0,19.0,19.0,15.0
5.7453999519348145,29.0,0.0,23.0,25.0,10.0,25.0,35.0,27.0,35.0,17.0,36.0
5.747783184051514,18.0,14.0,32.0,32.0,56.0,18.0,25.0,38.0,16.0,17.0,7.0
5.750166893005371,12.0,13.0,34.0,22.0,40.0,26.0,14.0,44.0,29.0,16.0,17.0
5.752600193023682,6.0,12.0,10.0,21.0,12.0,34.0,21.0,46.0,42.0,7.0,28.0
5.754983425140381,22.0,9.0,27.0,13.0,34.0,33.0,5.0,21.0,13.0,17.0,21.0
5.75736665725708,0.0,7.0,32.0,6.0,26.0,37.0,17.0,11.0,32.0,28.0,13.0
5.759749889373779,5.0,5.0,30.0,34.0,30.0,35.0,1025.0,17.0,18.0,21.0,6.0
5.7621331214904785,10.0,3.0,27.0,37.0,21.0,34.0,884.0,23.0,5.0,10.0,23.0
5.764516830444336,38.0,0.0,25.0,46.0,15.0,24.0,0.0,29.0,13.0,32.0,28.0
5.766900062561035,35.0,19.0,18.0,54.0,17.0,13.0,18.0,599.0,8.0,15.0,34.0
5.769350051879883,21.0,31.0,7.0,10.0,18.0,9.0,51.0,757.0,13.0,16.0,8.0
5.771733283996582,13.0,29.0,44.0,24.0,26.0,5.0,34.0,346.0,10.0,11.0,29.0
5.774116516113281,17.0,26.0,31.0,79.0,29.0,8.0,57.0,5.0,7.0,23.0,23.0
5.776500225067139,21.0,18.0,17.0,42.0,30.0,55.0,48.0,67.0,5.0,32.0,17.0
5.778883457183838,21.0,13.0,17.0,5.0,32.0,65.0,39.0,32.0,9.0,40.0,19.0
5.781266689300537,22.0,23.0,32.0,34.0,14.0,23.0,50.0,23.0,13.0,43.0,7.0
5.783649921417236,17.0,32.0,30.0,23.0,20.0,19.0,40.0,30.0,15.0,29.0,9.0
5.786083221435547,28.0,28.0,59.0,15.0,26.0,15.0,16.0,37.0,16.0,0.0,11.0
5.788466453552246,30.0,36.0,53.0,7.0,39.0,5.0,10.0,9.0,11.0,9.0,30.0
5.7908501625061035,33.0,14.0,22.0,23.0,0.0,40.0,21.0,49.0,5.0,18.0,42.0
5.793233394622803,28.0,10.0,43.0,24.0,5.0,42.0,24.0,30.0,0.0,14.0,35.0
5.795616626739502,18.0,14.0,46.0,25.0,29.0,29.0,27.0,64.0,9.0,10.0,9.0
5.797999858856201,0.0,19.0,46.0,40.0,5.0,27.0,25.0,12.0,7.0,15.0,0.0
5.800383567810059,0.0,16.0,59.0,54.0,37.0,44.0,24.0,34.0,5.0,21.0,13.0
5.802833557128906,12.0,13.0,17.0,54.0,22.0,31.0,36.0,11.0,10.0,17.0,20.0
5.8052167892456055,5.0,12.0,12.0,21.0,11.0,17.0,20.0,50.0,15.0,13.0,27.0
5.807600021362305,15.0,10.0,27.0,0.0,5.0,32.0,5.0,43.0,17.0,31.0,28.0
5.809983253479004,11.0,16.0,31.0,48.0,5.0,6.0,32.0,35.0,18.0,35.0,24.0
5.812366485595703,6.0,22.0,11.0,39.0,13.0,28.0,32.0,5.0,0.0,5.0,21.0
5.8147501945495605,5.0,31.0,6.0,10.0,7.0,24.0,32.0,65.0,6.0,5.0,0.0
5.81713342666626,12.0,18.0,0.0,12.0,0.0,5.0,17.0,49.0,0.0,12.0,38.0
5.81956672668457,14.0,5.0,27.0,32.0,0.0,26.0,40.0,28.0,33.0,19.0,33.0
5.8219499588012695,16.0,32.0,32.0,25.0,10.0,37.0,41.0,6.0,36.0,34.0,10.0
5.824333190917969,0.0,48.0,38.0,5.0,21.0,19.0,0.0,5.0,35.0,48.0,28.0
5.826716899871826,12.0,37.0,29.0,11.0,10.0,12.0,31.0,5.0,34.0,62.0,46.0
5.829100131988525,64.0,27.0,19.0,16.0,0.0,5.0,44.0,5.0,16.0,5.0,51.0
5.831483364105225,70.0,13.0,47.0,14.0,12.0,42.0,31.0,0.0,34.0,18.0,9.0
5.833866596221924,101.0,0.0,5.0,11.0,17.0,57.0,43.0,3.0,21.0,10.0,10.0
5.8363165855407715,35.0,19.0,53.0,12.0,14.0,47.0,36.0,5.0,42.0,19.0,11.0
5.838699817657471,28.0,25.0,50.0,10.0,46.0,29.0,25.0,28.0,39.0,58.0,8.0
5.841083526611328,29.0,16.0,75.0,14.0,23.0,24.0,16.0,42.0,35.0,70.0,5.0
5.843466758728027,15.0,38.0,26.0,21.0,0.0,34.0,18.0,44.0,18.0,39.0,35.0
5.845849990844727,18.0,36.0,48.0,18.0,37.0,29.0,18.0,17.0,42.0,5.0,36.0
5.848233222961426,21.0,10.0,79.0,25.0,44.0,25.0,14.0,5.0,11.0,16.0,36.0
5.850616455078125,15.0,0.0,0.0,10.0,51.0,12.0,10.0,38.0,51.0,15.0,26.0
5.853050231933594,10.0,11.0,23.0,21.0,45.0,28.0,34.0,5.0,0.0,17.0,48.0
5.855433464050293,15.0,5.0,49.0,22.0,50.0,25.0,58.0,15.0,24.0,6.0,17.0
5.857816696166992,15.0,16.0,59.0,10.0,35.0,25.0,42.0,22.0,27.0,5.0,25.0
5.860199928283691,15.0,27.0,26.0,27.0,23.0,26.0,7.0,11.0,315.0,10.0,5.0
5.862583160400391,16.0,30.0,0.0,29.0,45.0,23.0,24.0,11.0,257.0,39.0,11.0
5.864966869354248,30.0,21.0,47.0,6.0,40.0,27.0,12.0,16.0,200.0,25.0,37.0
5.867350101470947,27.0,14.0,24.0,15.0,35.0,22.0,25.0,48.0,915.0,10.0,33.0
5.869783401489258,25.0,8.0,44.0,16.0,28.0,16.0,12.0,39.0,1728.0,38.0,30.0
5.872183322906494,22.0,5.0,18.0,0.0,15.0,6.0,27.0,65.0,1798.0,41.0,17.0
5.874566555023193,6.0,24.0,11.0,7.0,28.0,5.0,38.0,6.0,3024.0,21.0,28.0
5.876949787139893,27.0,43.0,9.0,13.0,6.0,29.0,0.0,47.0,2753.0,12.0,28.0
5.87933349609375,21.0,32.0,6.0,32.0,5.0,35.0,13.0,32.0,2481.0,39.0,19.0
5.881716728210449,15.0,34.0,17.0,24.0,10.0,5.0,19.0,16.0,847.0,47.0,18.0
5.884099960327148,18.0,40.0,11.0,29.0,5.0,16.0,5.0,32.0,491.0,32.0,17.0
5.886483192443848,22.0,19.0,5.0,30.0,0.0,21.0,3.0,42.0,1881.0,36.0,21.0
5.888916492462158,28.0,5.0,17.0,31.0,23.0,0.0,0.0,32.0,219.0,41.0,24.0
5.891300201416016,27.0,16.0,26.0,27.0,19.0,14.0,24.0,0.0,119.0,42.0,27.0
5.893683433532715,20.0,0.0,25.0,21.0,29.0,10.0,31.0,11.0,18.0,43.0,5.0
5.896066665649414,13.0,0.0,27.0,15.0,28.0,21.0,33.0,11.0,31.0,46.0,36.0
5.898449897766113,49.0,21.0,29.0,25.0,30.0,31.0,39.0,21.0,39.0,13.0,22.0
5.9008331298828125,37.0,26.0,18.0,17.0,17.0,18.0,45.0,30.0,47.0,18.0,49.0
5.90321683883667,25.0,29.0,7.0,15.0,6.0,5.0,47.0,1119.0,777.0,5.0,30.0
5.905666828155518,23.0,25.0,29.0,12.0,31.0,10.0,48.0,1343.0,931.0,14.0,15.0
5.908050060272217,41.0,8.0,11.0,15.0,17.0,5.0,5.0,1006.0,21.0,10.0,61.0
5.910433292388916,16.0,10.0,16.0,6.0,5.0,15.0,5.0,46.0,5.0,26.0,16.0
5.912816524505615,0.0,6.0,27.0,16.0,5.0,23.0,67.0,589.0,763.0,24.0,37.0
5.915200233459473,29.0,17.0,18.0,22.0,5.0,14.0,43.0,2193.0,30.0,23.0,39.0
5.917583465576172,0.0,28.0,17.0,28.0,14.0,5.0,18.0,2785.0,862.0,25.0,19.0
5.919966697692871,87.0,31.0,46.0,15.0,24.0,36.0,16.0,3011.0,822.0,0.0,30.0
5.922399997711182,70.0,15.0,41.0,21.0,22.0,29.0,25.0,1561.0,12.0,27.0,40.0
5.924783229827881,36.0,5.0,36.0,26.0,21.0,0.0,33.0,3466.0,467.0,44.0,33.0
5.92716646194458,12.0,15.0,14.0,13.0,19.0,50.0,28.0,1433.0,170.0,23.0,7.0
5.9295501708984375,35.0,19.0,39.0,19.0,17.0,40.0,35.0,2858.0,23.0,46.0,31.0
5.931933403015137,17.0,15.0,15.0,25.0,25.0,30.0,23.0,3356.0,246.0,58.0,15.0
5.934316635131836,0.0,11.0,10.0,31.0,27.0,62.0,19.0,1832.0,133.0,0.0,8.0
5.936699867248535,41.0,6.0,9.0,37.0,30.0,24.0,10.0,641.0,19.0,60.0,0.0
5.939149856567383,24.0,5.0,7.0,61.0,24.0,63.0,5.0,3126.0,54.0,37.0,18.0
5.94153356552124,14.0,9.0,5.0,63.0,18.0,43.0,0.0,727.0,21.0,44.0,14.0
5.9439167976379395,5.0,13.0,11.0,17.0,32.0,34.0,5.0,10.0,5.0,25.0,15.0
5.946300029754639,8.0,9.0,18.0,16.0,21.0,57.0,23.0,1097.0,31.0,5.0,15.0
5.948683261871338,43.0,5.0,25.0,6.0,21.0,11.0,32.0,1061.0,54.0,15.0,0.0
5.951066493988037,38.0,5.0,60.0,24.0,21.0,5.0,41.0,1994.0,512.0,6.0,10.0
5.9534502029418945,49.0,13.0,52.0,20.0,18.0,11.0,0.0,1133.0,277.0,3.0,30.0
5.955883502960205,29.0,7.0,10.0,34.0,15.0,14.0,10.0,908.0,42.0,0.0,24.0
5.958266735076904,10.0,0.0,63.0,53.0,13.0,16.0,19.0,17.0,38.0,10.0,17.0
5.9606499671936035,12.0,14.0,60.0,50.0,10.0,0.0,23.0,269.0,29.0,31.0,18.0
5.963033199310303,24.0,107.0,35.0,52.0,22.0,13.0,38.0,11.0,22.0,40.0,15.0
5.965416431427002,14.0,478.0,10.0,53.0,17.0,27.0,53.0,38.0,1775.0,37.0,11.0
5.967800140380859,5.0,849.0,4298.0,2520.0,13.0,1794.0,2281.0,122.0,1827.0,5.0,13.0
5.970183372497559,17.0,2504.0,4682.0,2069.0,2167.0,3468.0,2410.0,2143.0,569.0,486.0,695.0
5.972633361816406,5.0,5148.0,5571.0,9612.0,6305.0,4995.0,7415.0,1635.0,3686.0,1139.0,623.0
5.9750165939331055,5.0,6709.0,5666.0,8600.0,11532.0,8332.0,7853.0,4514.0,2865.0,1460.0,5.0
5.977399826049805,29.0,11772.0,18648.0,27960.0,21928.0,14080.0,15280.0,9056.0,2579.0,1682.0,5.0
5.979783535003662,29.0,22224.0,39648.0,31928.0,25780.0,20568.0,16052.0,19940.0,4978.0,1905.0,345.0
5.982166767120361,26.0,36400.0,37776.0,57664.0,48336.0,28148.0,24692.0,18776.0,9528.0,3755.0,684.0
5.9845499992370605,15.0,41568.0,68576.0,63376.0,53312.0,50288.0,30712.0,27308.0,11032.0,3466.0,1480.0
5.98693323135376,16.0,39056.0,99168.0,84800.0,79072.0,63056.0,46832.0,25032.0,13276.0,5839.0,2032.0
5.98936653137207,34.0,71616.0,104704.0,104336.0,94864.0,79088.0,50128.0,24424.0,15008.0,9028.0,2584.0
5.9917497634887695,0.0,86272.0,158016.0,136448.0,104320.0,91552.0,63824.0,34816.0,19692.0,8212.0,1655.0
5.994133472442627,5.0,111200.0,170752.0,158080.0,139136.0,107232.0,74368.0,42832.0,17644.0,4250.0,726.0
5.996516704559326,29.0,104704.0,170240.0,153536.0,149760.0,115856.0,90080.0,58592.0,24144.0,9704.0,2408.0
5.998899936676025,61.0,132160.0,197504.0,228608.0,169024.0,124976.0,97312.0,52368.0,20908.0,7001.0,3185.0
6.001283168792725,56.0,138112.0,207232.0,209664.0,172672.0,141376.0,92048.0,46528.0,17676.0,10652.0,5459.0
6.003666877746582,50.0,124672.0,226176.0,198656.0,182720.0,138176.0,86784.0,45552.0,28980.0,10156.0,4092.0
6.00611686706543,70.0,127456.0,231680.0,192000.0,153728.0,134784.0,96544.0,46544.0,26388.0,9660.0,2957.0
6.008500099182129,31.0,135488.0,222592.0,198400.0,159104.0,122272.0,81360.0,43456.0,21728.0,12324.0,3396.0
6.010883331298828,59.0,119936.0,214400.0,171776.0,145728.0,132096.0,80928.0,43296.0,22080.0,7004.0,3836.0
6.013266563415527,18.0,93696.0,172160.0,181888.0,154496.0,121264.0,67712.0,37216.0,23192.0,7982.0,1762.0
6.015649795532227,17.0,96624.0,154624.0,149248.0,103840.0,90464.0,80432.0,33696.0,17960.0,8728.0,606.0
6.018033504486084,68.0,80496.0,143808.0,125840.0,104128.0,76048.0,60272.0,33344.0,12832.0,10040.0,2629.0
6.020416736602783,27.0,79232.0,123104.0,121984.0,97296.0,76448.0,51120.0,24592.0,16100.0,5074.0,29.0
6.022850036621094,45.0,66880.0,94576.0,81280.0,76320.0,52080.0,29764.0,17900.0,14884.0,3239.0,2729.0
6.025233268737793,15.0,53664.0,101056.0,78544.0,47296.0,35296.0,27828.0,22060.0,12344.0,2102.0,1083.0
6.027616500854492,58.0,48624.0,72112.0,60448.0,61696.0,48816.0,25672.0,8724.0,3953.0,3434.0,856.0
6.03000020980835,51.0,32328.0,68256.0,52016.0,33648.0,32412.0,21716.0,9324.0,4469.0,738.0,37.0
6.032383441925049,43.0,18728.0,34096.0,34800.0,35216.0,30264.0,14628.0,11184.0,5045.0,3347.0,775.0
6.034766674041748,21.0,14144.0,35088.0,27996.0,26184.0,19008.0,7159.0,4879.0,3466.0,719.0,446.0
6.037149906158447,21.0,16612.0,19136.0,20672.0,16056.0,16740.0,15700.0,4769.0,16.0,374.0,14.0
6.039599895477295,21.0,10360.0,16736.0,19284.0,10876.0,9836.0,8086.0,2831.0,1370.0,10.0,31.0
6.041983127593994,21.0,7688.0,12272.0,12604.0,7557.0,3761.0,5017.0,3269.0,1317.0,854.0,29.0
6.044366836547852,29.0,5353.0,10028.0,5297.0,9876.0,4442.0,766.0,678.0,1766.0,785.0,27.0
6.046750068664551,28.0,2968.0,6853.0,8320.0,7609.0,3208.0,7179.0,1583.0,719.0,639.0,28.0
6.04913330078125,27.0,4440.0,7574.0,4788.0,3255.0,1655.0,4205.0,17.0,613.0,23.0,11.0
6.051516532897949,13.0,6240.0,4055.0,5431.0,5934.0,966.0,2855.0,292.0,5.0,0.0,8.0
6.053899765014648,0.0,3066.0,4303.0,3777.0,857.0,856.0,668.0,1819.0,425.0,27.0,5.0
6.05631685256958,36.0,3132.0,6916.0,2285.0,5081.0,746.0,590.0,12.0,302.0,26.0,12.0
6.058716773986816,5.0,4294.0,2972.0,4200.0,3801.0,701.0,933.0,310.0,287.0,25.0,19.0
6.061100006103516,23.0,951.0,3517.0,3962.0,2361.0,692.0,762.0,663.0,273.0,11.0,459.0
6.063483238220215,39.0,2950.0,2494.0,1329.0,37.0,1035.0,514.0,40.0,1359.0,29.0,237.0
6.065866470336914,19.0,823.0,1511.0,1266.0,1001.0,2167.0,265.0,1051.0,1200.0,37.0,15.0
6.0682501792907715,14.0,2863.0,2804.0,1204.0,3033.0,2810.0,163.0,1719.0,256.0,27.0,19.0
6.070633411407471,7.0,2316.0,3014.0,2297.0,2125.0,2890.0,61.0,1377.0,823.0,17.0,116.0
6.07301664352417,22.0,2203.0,2528.0,2591.0,1963.0,996.0,42.0,0.0,38.0,14.0,53.0
6.075466632843018,25.0,2089.0,2042.0,1769.0,1801.0,1948.0,27.0,41.0,36.0,13.0,50.0
6.077849864959717,50.0,266.0,363.0,948.0,2412.0,788.0,12.0,868.0,529.0,11.0,46.0
6.080233097076416,43.0,416.0,1287.0,2083.0,1948.0,1856.0,380.0,14.0,506.0,10.0,25.0
6.082616806030273,17.0,1618.0,1394.0,26.0,1485.0,1179.0,748.0,33.0,30.0,8.0,52.0
6.085000038146973,26.0,2147.0,1657.0,13.0,1159.0,1400.0,914.0,60.0,26.0,5.0,13.0
6.087383270263672,12.0,1846.0,1919.0,0.0,40.0,31.0,13.0,398.0,10.0,11.0,0.0
6.089766502380371,23.0,222.0,1014.0,42.0,709.0,1014.0,5.0,736.0,11.0,17.0,10.0
6.092199802398682,27.0,27.0,18.0,83.0,1560.0,1575.0,24.0,492.0,11.0,40.0,15.0
6.094583511352539,26.0,714.0,6.0,1436.0,1041.0,1786.0,12.0,264.0,11.0,64.0,21.0
6.096966743469238,0.0,599.0,781.0,885.0,523.0,119.0,24.0,37.0,10.0,350.0,23.0
6.0993499755859375,32.0,485.0,969.0,334.0,323.0,1776.0,35.0,22.0,33.0,180.0,26.0
6.101733207702637,16.0,35.0,420.0,152.0,181.0,830.0,723.0,0.0,16.0,9.0,16.0
6.104116439819336,0.0,15.0,33.0,881.0,40.0,1002.0,827.0,40.0,0.0,0.0,18.0
6.106500148773193,54.0,42.0,1030.0,33.0,55.0,207.0,67.0,16.0,8.0,29.0,11.0
6.108950138092041,56.0,24.0,962.0,31.0,71.0,1083.0,31.0,832.0,16.0,11.0,23.0
6.11133337020874,44.0,5.0,894.0,30.0,736.0,554.0,583.0,419.0,18.0,30.0,25.0
6.1137166023254395,0.0,15.0,23.0,31.0,724.0,25.0,443.0,6.0,31.0,26.0,27.0
6.116099834442139,15.0,64.0,684.0,33.0,968.0,1306.0,302.0,10.0,46.0,21.0,23.0
6.118483543395996,30.0,234.0,473.0,22.0,97.0,1685.0,67.0,13.0,32.0,16.0,18.0
6.120866775512695,0.0,404.0,50.0,10.0,315.0,823.0,7.0,176.0,18.0,18.0,24.0
6.1232500076293945,5.0,225.0,373.0,350.0,184.0,42.0,32.0,339.0,18.0,5.0,12.0
6.125683307647705,21.0,46.0,696.0,194.0,17.0,38.0,29.0,192.0,18.0,21.0,0.0
6.128066539764404,6.0,21.0,17.0,37.0,42.0,54.0,27.0,44.0,15.0,26.0,4.0
6.1304497718811035,38.0,23.0,12.0,35.0,53.0,33.0,28.0,42.0,15.0,18.0,7.0
6.132833480834961,27.0,30.0,6.0,33.0,27.0,17.0,28.0,34.0,15.0,11.0,5.0
6.13521671295166,42.0,23.0,1300.0,17.0,19.0,42.0,20.0,26.0,11.0,15.0,36.0
6.137599945068359,23.0,16.0,1127.0,540.0,12.0,67.0,12.0,51.0,19.0,14.0,21.0
6.139983177185059,41.0,27.0,6.0,382.0,1090.0,812.0,28.0,15.0,13.0,33.0,5.0
6.142433166503906,19.0,17.0,36.0,224.0,1425.0,784.0,34.0,28.0,6.0,28.0,9.0
6.144816875457764,0.0,7.0,22.0,130.0,12.0,33.0,37.0,0.0,12.0,24.0,12.0
6.147200107574463,23.0,12.0,650.0,35.0,1999.0,1170.0,337.0,27.0,18.0,26.0,9.0
6.149583339691162,44.0,173.0,639.0,650.0,163.0,26.0,174.0,36.0,18.0,29.0,6.0
6.151966571807861,33.0,334.0,629.0,625.0,22.0,57.0,11.0,39.0,5.0,25.0,13.0
6.1543498039245605,27.0,170.0,5.0,29.0,1593.0,39.0,10.0,42.0,18.0,21.0,19.0
6.156733512878418,28.0,5.0,13.0,5.0,680.0,0.0,33.0,65.0,9.0,23.0,16.0
6.1591668128967285,36.0,13.0,21.0,301.0,841.0,0.0,485.0,38.0,0.0,26.0,25.0
6.161550045013428,6.0,35.0,5.0,83.0,1048.0,5.0,274.0,12.0,4.0,23.0,34.0
6.163933277130127,19.0,10.0,28.0,5.0,32.0,13.0,64.0,22.0,7.0,30.0,29.0
6.166316509246826,19.0,22.0,19.0,157.0,43.0,53.0,0.0,23.0,22.0,29.0,29.0
6.168700218200684,17.0,33.0,10.0,308.0,35.0,326.0,837.0,25.0,36.0,29.0,37.0
6.171083450317383,15.0,36.0,10.0,168.0,30.0,181.0,464.0,30.0,39.0,24.0,35.0
6.173466682434082,18.0,12.0,10.0,28.0,31.0,37.0,91.0,5.0,54.0,19.0,34.0
6.17591667175293,16.0,25.0,10.0,29.0,7.0,16.0,5.0,13.0,43.0,19.0,35.0
6.178299903869629,13.0,23.0,10.0,30.0,13.0,46.0,40.0,22.0,34.0,18.0,37.0
6.180683135986328,10.0,15.0,112.0,140.0,41.0,42.0,57.0,443.0,10.0,38.0,31.0
6.1830668449401855,6.0,25.0,64.0,83.0,36.0,16.0,45.0,382.0,5.0,27.0,34.0
6.185450077056885,11.0,19.0,15.0,25.0,32.0,21.0,46.0,12.0,0.0,15.0,30.0
6.187833309173584,16.0,13.0,9.0,90.0,28.0,26.0,60.0,385.0,5.0,35.0,27.0
6.190216541290283,21.0,22.0,44.0,156.0,11.0,5.0,29.0,11.0,10.0,24.0,27.0
6.192649841308594,13.0,18.0,10.0,109.0,35.0,19.0,20.0,37.0,25.0,16.0,28.0
6.195033550262451,6.0,30.0,32.0,61.0,40.0,33.0,29.0,6.0,38.0,8.0,6.0
6.19741678237915,10.0,34.0,54.0,111.0,12.0,11.0,5.0,7.0,34.0,16.0,14.0
