,486.2099914550781,487.2099914550781,488.2099914550781,489.2099914550781,490.2099914550781,491.2099914550781,492.2099914550781,493.2099914550781
5.101733207702637,6.0,32.0,5.0,57.0,28.0,15.0,20.0,10.0
5.103466510772705,21.0,63.0,13.0,5.0,10.0,111.0,26.0,32.0
5.105199813842773,28.0,10.0,7.0,220.0,8.0,0.0,5.0,16.0
5.106933116912842,24.0,21.0,12.0,13.0,18.0,57.0,13.0,35.0
5.108666896820068,19.0,22.0,18.0,16.0,9.0,28.0,36.0,15.0
5.110400199890137,0.0,24.0,14.0,18.0,0.0,24.0,39.0,30.0
5.112133502960205,28.0,22.0,10.0,21.0,38.0,17.0,5.0,45.0
5.113866806030273,6.0,10.0,18.0,30.0,39.0,17.0,26.0,17.0
5.115600109100342,34.0,17.0,26.0,24.0,31.0,10.0,16.0,49.0
5.1173834800720215,33.0,11.0,28.0,18.0,26.0,5.0,35.0,31.0
5.11911678314209,32.0,5.0,30.0,34.0,20.0,0.0,23.0,16.0
5.120850086212158,6.0,13.0,30.0,33.0,19.0,6.0,20.0,18.0
5.122600078582764,35.0,21.0,24.0,16.0,13.0,17.0,17.0,5.0
5.124316692352295,33.0,17.0,35.0,15.0,30.0,13.0,18.0,12.0
5.126049995422363,22.0,22.0,13.0,10.0,17.0,10.0,9.0,20.0
5.127783298492432,5.0,22.0,11.0,5.0,5.0,22.0,7.0,18.0
5.1295166015625,25.0,22.0,26.0,0.0,8.0,22.0,5.0,25.0
5.131249904632568,22.0,26.0,27.0,0.0,11.0,23.0,17.0,20.0
5.132999897003174,20.0,37.0,31.0,5.0,5.0,17.0,28.0,15.0
5.1347832679748535,6.0,5.0,30.0,46.0,17.0,35.0,25.0,15.0
5.136516571044922,28.0,31.0,13.0,31.0,29.0,34.0,27.0,8.0
5.13824987411499,47.0,16.0,15.0,16.0,23.0,34.0,38.0,17.0
5.139983177185059,42.0,26.0,32.0,33.0,17.0,32.0,48.0,21.0
5.141716480255127,22.0,30.0,17.0,17.0,13.0,39.0,70.0,16.0
5.143449783325195,37.0,32.0,14.0,25.0,10.0,45.0,54.0,11.0
5.145183563232422,6.0,59.0,11.0,34.0,31.0,25.0,37.0,8.0
5.14691686630249,37.0,42.0,10.0,38.0,24.0,5.0,19.0,19.0
5.148650169372559,45.0,25.0,5.0,11.0,17.0,42.0,12.0,31.0
5.150383472442627,23.0,29.0,16.0,10.0,5.0,22.0,15.0,26.0
5.152183532714844,51.0,32.0,16.0,12.0,0.0,43.0,19.0,21.0
5.153916835784912,21.0,25.0,17.0,15.0,21.0,0.0,34.0,0.0
5.1556501388549805,36.0,33.0,46.0,27.0,10.0,5.0,37.0,54.0
5.157383441925049,5.0,27.0,39.0,47.0,5.0,5.0,19.0,46.0
5.159116744995117,17.0,37.0,32.0,40.0,27.0,2.0,0.0,5.0
5.1608500480651855,21.0,31.0,45.0,53.0,14.0,0.0,5.0,20.0
5.162583351135254,13.0,25.0,0.0,31.0,0.0,15.0,0.0,35.0
5.164316654205322,5.0,26.0,0.0,5.0,51.0,24.0,35.0,40.0
5.166049957275391,23.0,16.0,0.0,22.0,40.0,23.0,25.0,33.0
5.167783260345459,0.0,23.0,45.0,23.0,28.0,16.0,15.0,26.0
5.169566631317139,16.0,24.0,37.0,11.0,38.0,10.0,10.0,8.0
5.171299934387207,10.0,15.0,28.0,30.0,29.0,29.0,36.0,29.0
5.173033237457275,43.0,10.0,20.0,24.0,10.0,30.0,64.0,12.0
5.174766540527344,48.0,19.0,19.0,18.0,10.0,31.0,51.0,35.0
5.176499843597412,20.0,17.0,9.0,31.0,11.0,23.0,34.0,46.0
5.1782331466674805,47.0,18.0,0.0,41.0,23.0,15.0,22.0,11.0
5.179966449737549,28.0,16.0,15.0,46.0,21.0,32.0,44.0,25.0
5.181700229644775,22.0,15.0,10.0,23.0,20.0,0.0,66.0,43.0
5.183433532714844,15.0,23.0,5.0,0.0,26.0,5.0,65.0,33.0
5.185233116149902,54.0,0.0,11.0,11.0,26.0,13.0,50.0,30.0
5.186966896057129,30.0,26.0,13.0,18.0,16.0,5.0,27.0,30.0
5.188700199127197,5.0,52.0,5.0,25.0,39.0,16.0,26.0,23.0
5.190433502197266,6.0,46.0,5.0,26.0,44.0,13.0,15.0,10.0
5.192166805267334,15.0,26.0,5.0,18.0,38.0,10.0,6.0,12.0
5.193900108337402,15.0,32.0,26.0,10.0,25.0,15.0,16.0,14.0
5.195633411407471,15.0,8.0,39.0,26.0,11.0,26.0,16.0,17.0
5.197366714477539,12.0,10.0,34.0,15.0,0.0,29.0,17.0,57.0
5.199100017547607,12.0,16.0,29.0,5.0,30.0,13.0,16.0,55.0
5.202633380889893,9.0,32.0,0.0,10.0,5.0,51.0,16.0,75.0
5.206099987030029,6.0,26.0,24.0,15.0,34.0,41.0,17.0,21.0
5.209566593170166,5.0,20.0,8.0,15.0,49.0,33.0,20.0,0.0
5.213033199310303,5.0,12.0,20.0,12.0,20.0,20.0,41.0,36.0
5.2164998054504395,5.0,5.0,5.0,8.0,5.0,11.0,37.0,19.0
5.220033168792725,5.0,29.0,6.0,22.0,32.0,25.0,27.0,5.0
5.223499774932861,5.0,21.0,15.0,17.0,34.0,12.0,34.0,29.0
5.226966857910156,20.0,32.0,19.0,12.0,24.0,15.0,5.0,5.0
5.230433464050293,17.0,47.0,24.0,10.0,24.0,34.0,29.0,18.0
5.23390007019043,15.0,37.0,28.0,5.0,17.0,36.0,25.0,6.0
5.237433433532715,7.0,26.0,31.0,7.0,18.0,67.0,35.0,23.0
5.240900039672852,20.0,11.0,5.0,10.0,19.0,63.0,25.0,17.0
5.244366645812988,10.0,0.0,21.0,27.0,6.0,66.0,22.0,21.0
5.247833251953125,0.0,5.0,38.0,22.0,27.0,36.0,5.0,10.0
5.251299858093262,9.0,33.0,10.0,20.0,32.0,52.0,17.0,22.0
5.2547831535339355,5.0,35.0,25.0,50.0,18.0,35.0,10.0,5.0
5.2582502365112305,0.0,25.0,41.0,50.0,38.0,31.0,10.0,0.0
5.261716842651367,35.0,24.0,34.0,0.0,34.0,28.0,10.0,32.0
5.265183448791504,44.0,15.0,27.0,5.0,22.0,13.0,27.0,30.0
5.268650054931641,51.0,18.0,33.0,55.0,27.0,22.0,26.0,78.0
5.272183418273926,42.0,17.0,19.0,0.0,5.0,10.0,24.0,45.0
5.2756500244140625,33.0,37.0,5.0,8.0,16.0,12.0,45.0,12.0
5.279116630554199,22.0,409.0,29.0,20.0,13.0,42.0,45.0,22.0
5.282583236694336,13.0,219.0,36.0,63.0,10.0,33.0,10.0,22.0
5.286049842834473,6.0,28.0,23.0,45.0,12.0,11.0,42.0,5.0
5.289566516876221,0.0,37.0,12.0,26.0,15.0,17.0,31.0,33.0
5.2930498123168945,17.0,10.0,15.0,13.0,13.0,10.0,34.0,23.0
5.2965168952941895,34.0,21.0,26.0,19.0,12.0,31.0,19.0,27.0
5.299983501434326,32.0,10.0,15.0,10.0,11.0,30.0,7.0,5.0
5.303483486175537,29.0,42.0,5.0,33.0,14.0,30.0,18.0,0.0
5.306983470916748,38.0,32.0,23.0,32.0,12.0,10.0,30.0,5.0
5.310450077056885,21.0,23.0,16.0,22.0,10.0,25.0,23.0,10.0
5.3139166831970215,63.0,20.0,10.0,11.0,10.0,24.0,24.0,11.0
5.317383289337158,66.0,22.0,5.0,16.0,25.0,23.0,25.0,39.0
5.320899963378906,33.0,24.0,16.0,21.0,40.0,22.0,15.0,33.0
5.324366569519043,26.0,19.0,27.0,28.0,36.0,45.0,28.0,37.0
5.32783317565918,16.0,28.0,21.0,21.0,32.0,45.0,29.0,23.0
5.331299781799316,8.0,10.0,15.0,15.0,22.0,5.0,31.0,15.0
5.334766864776611,0.0,21.0,15.0,5.0,23.0,0.0,26.0,5.0
5.3383002281188965,15.0,20.0,18.0,32.0,25.0,20.0,33.0,32.0
5.341766834259033,42.0,17.0,22.0,28.0,19.0,10.0,45.0,28.0
5.34523344039917,30.0,5.0,17.0,44.0,13.0,32.0,12.0,25.0
5.348700046539307,17.0,8.0,13.0,37.0,11.0,21.0,16.0,53.0
5.352166652679443,5.0,10.0,6.0,28.0,10.0,33.0,21.0,66.0
5.3557000160217285,30.0,10.0,11.0,23.0,10.0,21.0,33.0,47.0
5.359166622161865,12.0,5.0,18.0,36.0,10.0,10.0,22.0,41.0
5.362633228302002,16.0,19.0,24.0,10.0,12.0,35.0,12.0,21.0
5.366099834442139,0.0,14.0,45.0,19.0,15.0,31.0,0.0,5.0
5.369566440582275,8.0,10.0,45.0,12.0,19.0,14.0,0.0,35.0
5.3730998039245605,16.0,30.0,45.0,39.0,36.0,23.0,0.0,34.0
5.3765668869018555,13.0,39.0,32.0,31.0,37.0,22.0,26.0,31.0
5.380033493041992,11.0,23.0,33.0,24.0,14.0,18.0,21.0,21.0
5.383500099182129,15.0,18.0,39.0,26.0,31.0,19.0,16.0,20.0
5.386966705322266,5.0,19.0,42.0,5.0,25.0,15.0,31.0,5.0
5.390483379364014,24.0,23.0,7.0,25.0,21.0,11.0,10.0,39.0
5.39394998550415,31.0,28.0,5.0,15.0,18.0,25.0,17.0,25.0
5.397416591644287,18.0,22.0,12.0,13.0,21.0,36.0,15.0,11.0
5.400883197784424,5.0,16.0,6.0,5.0,23.0,31.0,17.0,0.0
5.4043498039245605,9.0,21.0,5.0,51.0,12.0,30.0,20.0,39.0
5.407883167266846,14.0,20.0,16.0,42.0,0.0,7.0,27.0,25.0
5.411349773406982,36.0,13.0,30.0,5.0,16.0,14.0,0.0,26.0
5.414816856384277,27.0,0.0,24.0,15.0,32.0,5.0,19.0,20.0
5.418283462524414,18.0,15.0,36.0,26.0,40.0,65.0,38.0,5.0
5.421750068664551,20.0,15.0,41.0,28.0,10.0,70.0,13.0,24.0
5.425283432006836,35.0,16.0,75.0,30.0,11.0,11.0,58.0,5.0
5.428750038146973,55.0,75.0,489.0,99.0,13.0,41.0,60.0,26.0
5.432216644287109,75.0,134.0,837.0,649.0,1118.0,31.0,2161.0,68.0
5.435683250427246,122.0,2019.0,3068.0,1984.0,2779.0,1204.0,1900.0,932.0
5.439199924468994,97.0,4660.0,9460.0,9912.0,6983.0,5186.0,617.0,1275.0
5.442683219909668,71.0,9360.0,18056.0,25092.0,11172.0,9584.0,6534.0,2389.0
5.446149826049805,80.0,11636.0,51984.0,42336.0,44240.0,23104.0,9804.0,6147.0
5.449616432189941,88.0,36384.0,65376.0,84848.0,76704.0,52032.0,22408.0,8756.0
5.453100204467773,93.0,56000.0,121344.0,127184.0,122864.0,61152.0,22496.0,9544.0
5.4566168785095215,69.0,77968.0,180032.0,211456.0,163520.0,91808.0,47360.0,14760.0
5.460083484649658,49.0,109344.0,240896.0,229824.0,223360.0,134464.0,55680.0,17492.0
5.463550090789795,131.0,132928.0,284736.0,328064.0,245824.0,160832.0,52512.0,19604.0
5.467016696929932,136.0,154560.0,358848.0,345152.0,278912.0,179264.0,80000.0,21716.0
5.470483303070068,65.0,154176.0,337856.0,408064.0,299968.0,179776.0,79904.0,21888.0
5.4740166664123535,85.0,156352.0,399232.0,417088.0,306816.0,181568.0,84720.0,25972.0
5.47748327255249,133.0,165760.0,382144.0,404544.0,328832.0,193472.0,63456.0,25552.0
5.480949878692627,51.0,175104.0,372416.0,432896.0,316736.0,194880.0,63664.0,25136.0
5.484416484832764,49.0,175808.0,367616.0,380352.0,304064.0,184512.0,74640.0,24248.0
5.487883567810059,36.0,153344.0,316288.0,337472.0,250240.0,154752.0,68512.0,28872.0
5.491366863250732,53.0,140352.0,287616.0,316032.0,243392.0,134016.0,42928.0,15160.0
5.494833469390869,48.0,136576.0,253952.0,257216.0,220544.0,116704.0,58864.0,17912.0
5.498300075531006,42.0,111488.0,232064.0,234432.0,182656.0,93216.0,32576.0,17608.0
5.501766681671143,51.0,77520.0,201280.0,192256.0,167104.0,81968.0,45744.0,8492.0
5.505233287811279,21.0,66672.0,178240.0,150144.0,137216.0,75712.0,26576.0,6986.0
5.5087666511535645,34.0,70656.0,127040.0,139456.0,110272.0,55744.0,17772.0,7465.0
5.512233257293701,46.0,32556.0,80384.0,105904.0,80784.0,53968.0,28728.0,4671.0
5.515699863433838,17.0,34224.0,75440.0,81808.0,59584.0,36512.0,11540.0,5757.0
5.519166469573975,48.0,25000.0,77888.0,57680.0,46064.0,28256.0,12864.0,2312.0
5.5226335525512695,40.0,26052.0,47664.0,42608.0,30212.0,20908.0,11520.0,2932.0
5.5261664390563965,32.0,18324.0,33520.0,43376.0,27112.0,15756.0,9380.0,4863.0
5.529633522033691,37.0,20356.0,31184.0,30128.0,22212.0,11956.0,5112.0,2112.0
5.533100128173828,42.0,11656.0,17060.0,30144.0,17864.0,7052.0,4504.0,1579.0
5.536566734313965,33.0,7979.0,16980.0,22368.0,23068.0,6803.0,6720.0,842.0
5.540033340454102,25.0,9652.0,23716.0,22092.0,16188.0,5944.0,4387.0,35.0
5.54355001449585,27.0,7874.0,18080.0,25372.0,11744.0,5166.0,6762.0,34.0
5.547016620635986,28.0,7233.0,21460.0,14308.0,13648.0,4388.0,2292.0,32.0
5.550483226776123,20.0,6999.0,14564.0,17700.0,12148.0,6983.0,943.0,394.0
5.55394983291626,12.0,3017.0,10036.0,12056.0,8140.0,4974.0,1803.0,755.0
5.5574164390563965,0.0,3806.0,11260.0,12040.0,8192.0,2965.0,1983.0,396.0
5.560949802398682,5.0,3206.0,9876.0,9352.0,5736.0,4798.0,1169.0,37.0
5.564416885375977,25.0,3326.0,11584.0,9160.0,6629.0,4824.0,1274.0,40.0
5.567883491516113,45.0,1957.0,3766.0,6795.0,7457.0,4743.0,1364.0,42.0
5.57135009765625,30.0,2348.0,7659.0,8352.0,5083.0,4246.0,286.0,71.0
5.574883460998535,31.0,2321.0,5545.0,7868.0,4098.0,3568.0,334.0,86.0
5.578350067138672,33.0,2144.0,4419.0,3043.0,5223.0,49.0,834.0,67.0
5.581816673278809,29.0,1045.0,5338.0,4606.0,5548.0,10.0,12.0,83.0
5.585283279418945,104.0,1178.0,5513.0,7201.0,1663.0,622.0,1047.0,38.0
5.588749885559082,87.0,1373.0,1248.0,1011.0,3187.0,959.0,1666.0,41.0
5.59226655960083,96.0,1154.0,2317.0,1658.0,3030.0,1295.0,998.0,62.0
5.595733165740967,117.0,941.0,3865.0,4968.0,2752.0,508.0,83.0,14.0
