,351.2099914550781,352.2099914550781,353.2099914550781,354.2099914550781,355.2099914550781,356.2099914550781,357.2099914550781,358.2099914550781,359.2099914550781,360.2099914550781,361.2099914550781
3.902383327484131,30.0,30.0,139.0,51.0,28.0,18.0,0.0,37.0,11.0,51.0,31.0
3.90476655960083,17.0,35.0,11.0,8.0,26.0,10.0,12.0,33.0,17.0,11.0,17.0
3.9071500301361084,82.0,27.0,38.0,17.0,23.0,28.0,28.0,680.0,26.0,51.0,31.0
3.9095332622528076,14.0,0.0,16.0,38.0,0.0,6.0,31.0,19.0,25.0,0.0,39.0
3.911916732788086,38.0,24.0,14.0,40.0,22.0,29.0,25.0,40.0,24.0,8.0,24.0
3.914299964904785,25.0,12.0,29.0,23.0,11.0,10.0,19.0,14.0,15.0,32.0,17.0
3.9166834354400635,0.0,5.0,18.0,5.0,0.0,0.0,36.0,25.0,0.0,36.0,33.0
3.919133424758911,17.0,13.0,32.0,36.0,17.0,12.0,41.0,24.0,24.0,45.0,19.0
3.9215166568756104,34.0,11.0,16.0,49.0,11.0,0.0,45.0,26.0,25.0,13.0,10.0
3.9238998889923096,26.0,9.0,10.0,33.0,5.0,45.0,7.0,28.0,21.0,14.0,0.0
3.926283359527588,27.0,6.0,14.0,25.0,30.0,55.0,23.0,0.0,44.0,11.0,23.0
3.928666591644287,28.0,6.0,22.0,12.0,28.0,65.0,28.0,13.0,43.0,0.0,34.0
3.9310500621795654,10.0,6.0,20.0,27.0,21.0,17.0,29.0,5.0,5.0,15.0,27.0
3.9334332942962646,17.0,9.0,53.0,30.0,10.0,38.0,26.0,5.0,22.0,15.0,5.0
3.935849905014038,21.0,12.0,52.0,13.0,23.0,5.0,24.0,5.0,37.0,14.0,26.0
3.9382166862487793,25.0,14.0,5.0,25.0,29.0,28.0,20.0,18.0,34.0,24.0,20.0
3.9405999183654785,25.0,15.0,27.0,0.0,11.0,31.0,16.0,18.0,10.0,20.0,30.0
3.942983388900757,6.0,36.0,23.0,24.0,10.0,387.0,16.0,18.0,0.0,16.0,15.0
3.945366621017456,25.0,26.0,15.0,13.0,11.0,212.0,15.0,31.0,18.0,31.0,0.0
3.9477500915527344,21.0,15.0,26.0,14.0,8.0,37.0,26.0,43.0,23.0,36.0,10.0
3.9501333236694336,22.0,24.0,6.0,0.0,5.0,20.0,27.0,39.0,14.0,24.0,27.0
3.9525833129882812,20.0,26.0,42.0,19.0,15.0,31.0,22.0,40.0,5.0,12.0,13.0
3.9549667835235596,16.0,0.0,32.0,19.0,16.0,12.0,10.0,29.0,10.0,5.0,0.0
3.957350015640259,12.0,51.0,0.0,8.0,17.0,5.0,28.0,50.0,15.0,34.0,774.0
3.959733247756958,23.0,43.0,15.0,0.0,9.0,14.0,45.0,40.0,16.0,34.0,405.0
3.9621167182922363,14.0,30.0,8.0,25.0,0.0,31.0,47.0,30.0,17.0,20.0,37.0
3.9644999504089355,5.0,37.0,6.0,15.0,25.0,24.0,26.0,53.0,12.0,5.0,22.0
3.966883420944214,3.0,29.0,10.0,5.0,16.0,17.0,29.0,0.0,7.0,10.0,18.0
3.9693167209625244,0.0,15.0,10.0,0.0,12.0,10.0,8.0,12.0,10.0,15.0,15.0
3.9716999530792236,3.0,11.0,10.0,13.0,8.0,15.0,37.0,6.0,18.0,13.0,69.0
3.974083423614502,5.0,29.0,8.0,26.0,21.0,11.0,20.0,38.0,12.0,5.0,510.0
3.976466655731201,12.0,31.0,5.0,20.0,17.0,7.0,7.0,70.0,5.0,10.0,553.0
3.9788498878479004,19.0,17.0,14.0,14.0,23.0,11.0,4.0,52.0,10.0,15.0,10.0
3.9812333583831787,28.0,18.0,15.0,19.0,21.0,8.0,0.0,57.0,15.0,12.0,7.0
3.983616590499878,33.0,19.0,9.0,24.0,18.0,5.0,15.0,12.0,13.0,8.0,50.0
3.9860665798187256,39.0,20.0,17.0,30.0,31.0,8.0,15.0,0.0,16.0,28.0,28.0
3.988450050354004,10.0,44.0,10.0,37.0,26.0,6.0,14.0,62.0,15.0,17.0,5.0
3.990833282470703,33.0,29.0,16.0,33.0,21.0,5.0,18.0,83.0,14.0,6.0,25.0
3.9932167530059814,44.0,14.0,20.0,19.0,23.0,23.0,25.0,76.0,10.0,24.0,16.0
3.9955999851226807,41.0,23.0,34.0,5.0,19.0,35.0,32.0,30.0,0.0,24.0,10.0
3.99798321723938,49.0,15.0,31.0,39.0,16.0,27.0,26.0,29.0,17.0,25.0,9.0
4.000366687774658,33.0,15.0,29.0,0.0,0.0,17.0,27.0,14.0,14.0,21.0,7.0
4.002799987792969,17.0,6.0,16.0,42.0,29.0,10.0,29.0,13.0,16.0,17.0,24.0
4.005183219909668,24.0,14.0,0.0,35.0,25.0,19.0,21.0,11.0,17.0,28.0,41.0
4.007566452026367,40.0,22.0,36.0,20.0,21.0,10.0,13.0,24.0,28.0,15.0,75.0
4.009950160980225,46.0,24.0,43.0,30.0,13.0,0.0,16.0,24.0,25.0,16.0,56.0
4.012333393096924,0.0,26.0,50.0,40.0,17.0,14.0,19.0,6.0,0.0,17.0,5.0
4.014716625213623,8.0,24.0,5.0,24.0,22.0,7.0,10.0,10.0,43.0,0.0,969.0
4.017099857330322,25.0,22.0,31.0,7.0,24.0,0.0,0.0,5.0,25.0,30.0,1267.0
4.01954984664917,31.0,23.0,10.0,17.0,27.0,32.0,14.0,10.0,39.0,33.0,16.0
4.021933555603027,20.0,17.0,25.0,23.0,0.0,18.0,7.0,7.0,53.0,63.0,22.0
4.024316787719727,11.0,22.0,5.0,11.0,20.0,5.0,0.0,5.0,37.0,73.0,46.0
4.026700019836426,0.0,26.0,24.0,24.0,42.0,47.0,5.0,49.0,22.0,84.0,17.0
4.029083251953125,24.0,29.0,5.0,24.0,38.0,43.0,9.0,55.0,21.0,14.0,24.0
4.031466484069824,18.0,12.0,32.0,28.0,20.0,39.0,0.0,10.0,29.0,21.0,54.0
4.033850193023682,22.0,7.0,26.0,13.0,28.0,56.0,27.0,13.0,11.0,34.0,33.0
4.036283493041992,0.0,15.0,18.0,21.0,16.0,12.0,21.0,30.0,0.0,27.0,17.0
4.038666725158691,33.0,8.0,28.0,28.0,5.0,34.0,33.0,20.0,3.0,20.0,21.0
4.041049957275391,13.0,6.0,37.0,16.0,5.0,29.0,18.0,22.0,5.0,18.0,10.0
4.04343318939209,12.0,3.0,0.0,17.0,25.0,28.0,22.0,24.0,5.0,15.0,0.0
4.045816898345947,10.0,0.0,31.0,20.0,16.0,28.0,26.0,0.0,11.0,5.0,20.0
4.0482001304626465,21.0,20.0,31.0,22.0,7.0,23.0,17.0,13.0,47.0,18.0,17.0
4.050583362579346,27.0,23.0,20.0,5.0,9.0,20.0,9.0,6.0,46.0,16.0,14.0
4.053033351898193,32.0,16.0,5.0,26.0,0.0,10.0,0.0,17.0,31.0,16.0,23.0
4.055416584014893,40.0,8.0,6.0,25.0,5.0,20.0,28.0,16.0,6.0,16.0,0.0
4.057799816131592,34.0,0.0,6.0,25.0,13.0,11.0,20.0,29.0,10.0,5.0,5.0
4.060183525085449,34.0,5.0,32.0,26.0,48.0,11.0,12.0,42.0,27.0,14.0,18.0
4.062566757202148,23.0,15.0,41.0,27.0,57.0,10.0,23.0,24.0,25.0,24.0,13.0
4.064949989318848,11.0,10.0,49.0,29.0,31.0,13.0,14.0,5.0,36.0,43.0,7.0
4.067333221435547,24.0,5.0,15.0,17.0,14.0,16.0,13.0,26.0,12.0,85.0,27.0
4.06974983215332,0.0,14.0,34.0,0.0,14.0,16.0,16.0,15.0,15.0,65.0,22.0
4.072166442871094,5.0,23.0,21.0,8.0,26.0,15.0,16.0,45.0,26.0,45.0,12.0
4.074550151824951,16.0,11.0,5.0,50.0,24.0,24.0,11.0,30.0,22.0,36.0,21.0
4.07693338394165,5.0,0.0,20.0,42.0,23.0,6.0,9.0,15.0,17.0,28.0,35.0
4.07931661605835,11.0,26.0,15.0,34.0,21.0,8.0,16.0,10.0,11.0,39.0,31.0
4.081699848175049,16.0,13.0,11.0,35.0,18.0,21.0,16.0,15.0,5.0,20.0,24.0
4.084083557128906,6.0,0.0,20.0,37.0,26.0,27.0,15.0,21.0,8.0,0.0,0.0
4.0864667892456055,9.0,11.0,27.0,17.0,34.0,19.0,21.0,18.0,10.0,44.0,16.0
4.088900089263916,11.0,22.0,34.0,25.0,32.0,11.0,7.0,28.0,5.0,17.0,7.0
4.091283321380615,528.0,18.0,1242.0,31.0,22.0,0.0,22.0,20.0,0.0,5.0,18.0
4.0936665534973145,276.0,38.0,972.0,38.0,21.0,4.0,519.0,12.0,7.0,0.0,29.0
4.096049785614014,24.0,567.0,702.0,1251.0,10.0,8.0,497.0,7.0,13.0,16.0,26.0
4.098433494567871,32.0,490.0,1969.0,1355.0,1863.0,662.0,1321.0,51.0,62.0,16.0,23.0
4.10081672668457,21.0,413.0,2611.0,80.0,2364.0,1859.0,1724.0,34.0,303.0,27.0,17.0
4.1031999588012695,22.0,2223.0,4623.0,5128.0,3828.0,3189.0,1465.0,16.0,312.0,41.0,12.0
4.105649948120117,20.0,4184.0,7403.0,9096.0,7041.0,2347.0,2212.0,239.0,322.0,844.0,576.0
4.108033180236816,21.0,9272.0,11060.0,12956.0,11792.0,8580.0,6685.0,1143.0,317.0,818.0,491.0
4.110416889190674,23.0,12380.0,23860.0,18100.0,14564.0,7398.0,10788.0,2771.0,313.0,1460.0,434.0
4.112800121307373,14.0,13360.0,29908.0,28708.0,24460.0,22960.0,18432.0,4313.0,3922.0,2387.0,531.0
4.115183353424072,6.0,32524.0,37584.0,44256.0,31876.0,26460.0,22548.0,9240.0,8836.0,2138.0,877.0
4.1175665855407715,15.0,37008.0,67408.0,50432.0,52816.0,28948.0,27784.0,12908.0,8824.0,1889.0,718.0
4.119949817657471,13.0,32712.0,70240.0,63808.0,66096.0,49504.0,35552.0,22264.0,10156.0,5539.0,558.0
4.122383117675781,18.0,58944.0,81152.0,83360.0,71280.0,65088.0,53920.0,24464.0,13992.0,6189.0,1167.0
4.124766826629639,24.0,53904.0,99376.0,89824.0,87504.0,60752.0,52032.0,23848.0,14284.0,3230.0,1539.0
4.127150058746338,21.0,74768.0,113376.0,109600.0,83328.0,72128.0,51616.0,28912.0,11968.0,4543.0,1911.0
4.129533290863037,0.0,71776.0,137472.0,110432.0,99120.0,77312.0,47584.0,37952.0,15360.0,6151.0,1264.0
4.131916522979736,5.0,87936.0,136896.0,132416.0,115488.0,80976.0,44224.0,37712.0,17708.0,2674.0,617.0
4.134300231933594,10.0,90384.0,142144.0,123904.0,114480.0,78192.0,50608.0,20820.0,8276.0,10948.0,816.0
4.136683464050293,10.0,82768.0,138432.0,131392.0,93312.0,66080.0,51376.0,29744.0,16784.0,9416.0,1014.0
4.139133453369141,5.0,81776.0,141824.0,98240.0,95552.0,80592.0,52144.0,21084.0,8158.0,8340.0,1011.0
4.14151668548584,13.0,66624.0,101408.0,105600.0,96032.0,63248.0,46304.0,25664.0,14156.0,6429.0,1008.0
4.143899917602539,21.0,74192.0,103536.0,92720.0,64704.0,74720.0,45632.0,16948.0,13004.0,7313.0,1385.0
4.146283149719238,17.0,51184.0,82592.0,77216.0,72688.0,73200.0,44976.0,16404.0,13632.0,6601.0,1007.0
4.148666858673096,14.0,54768.0,83696.0,67648.0,66752.0,45392.0,29432.0,15468.0,11848.0,4251.0,628.0
4.151050090789795,15.0,40224.0,63632.0,59280.0,48080.0,42896.0,19784.0,13728.0,5112.0,1927.0,41.0
4.153433322906494,23.0,31900.0,65696.0,49040.0,44096.0,31416.0,24064.0,9852.0,4823.0,1132.0,0.0
4.155866622924805,21.0,27144.0,49184.0,40928.0,36928.0,13200.0,10264.0,7194.0,3074.0,3760.0,9.0
4.158266544342041,13.0,29636.0,27164.0,32064.0,21928.0,15028.0,16236.0,3843.0,6118.0,578.0,18.0
4.160633563995361,5.0,25624.0,28600.0,24888.0,25740.0,11320.0,12148.0,1704.0,5005.0,11.0,29.0
4.1630167961120605,25.0,17088.0,20660.0,17624.0,13088.0,10408.0,7640.0,2044.0,3894.0,19.0,23.0
4.16540002822876,44.0,6101.0,17776.0,16804.0,12288.0,12188.0,10288.0,2477.0,297.0,19.0,16.0
4.167783260345459,56.0,6524.0,12360.0,9248.0,6774.0,7093.0,3454.0,2842.0,1263.0,18.0,31.0
4.170166492462158,12.0,2912.0,11128.0,6109.0,2195.0,6244.0,1806.0,5.0,694.0,15.0,32.0
4.172616481781006,28.0,2036.0,13804.0,6273.0,2133.0,3199.0,4129.0,1602.0,649.0,11.0,24.0
4.175000190734863,10.0,2988.0,5359.0,7136.0,2811.0,5926.0,2606.0,11.0,5.0,21.0,25.0
4.1773834228515625,0.0,1245.0,4634.0,2802.0,1082.0,585.0,2836.0,39.0,264.0,5.0,27.0
4.179766654968262,12.0,511.0,2504.0,2841.0,596.0,1111.0,1991.0,227.0,523.0,15.0,0.0
4.182149887084961,0.0,78.0,6432.0,2836.0,842.0,2206.0,1553.0,835.0,49.0,12.0,5.0
4.18453311920166,48.0,29.0,1957.0,3636.0,809.0,1382.0,1593.0,839.0,52.0,26.0,6.0
4.186916828155518,39.0,22.0,666.0,975.0,776.0,1956.0,1449.0,843.0,55.0,20.0,5.0
4.189366817474365,14.0,897.0,2427.0,1042.0,1047.0,715.0,655.0,786.0,23.0,14.0,25.0
4.1917500495910645,52.0,1772.0,980.0,911.0,1733.0,2248.0,5.0,730.0,35.0,14.0,55.0
4.194133281707764,42.0,1868.0,435.0,1743.0,1805.0,442.0,50.0,490.0,29.0,30.0,54.0
4.196516513824463,31.0,850.0,2298.0,871.0,2150.0,591.0,408.0,465.0,24.0,25.0,10.0
4.19890022277832,24.0,1311.0,1189.0,0.0,537.0,767.0,218.0,833.0,178.0,20.0,24.0
4.2012834548950195,25.0,17.0,662.0,3701.0,1630.0,858.0,28.0,23.0,97.0,28.0,44.0
4.203666687011719,33.0,10.0,2087.0,3702.0,38.0,827.0,14.0,88.0,15.0,23.0,10.0
4.206083297729492,22.0,647.0,1203.0,1171.0,173.0,869.0,0.0,153.0,115.0,35.0,41.0
4.208466529846191,22.0,386.0,970.0,1008.0,309.0,912.0,8.0,15.0,30.0,57.0,6.0
4.210866451263428,22.0,125.0,57.0,2314.0,1693.0,185.0,16.0,112.0,43.0,48.0,10.0
4.213250160217285,17.0,68.0,1132.0,2107.0,1254.0,33.0,44.0,5.0,55.0,31.0,20.0
4.215616703033447,18.0,10.0,1177.0,14.0,815.0,959.0,75.0,108.0,0.0,14.0,29.0
4.218016624450684,20.0,33.0,16.0,958.0,38.0,21.0,51.0,59.0,15.0,44.0,33.0
4.220399856567383,16.0,56.0,1358.0,810.0,33.0,31.0,28.0,10.0,17.0,10.0,37.0
4.222833156585693,0.0,28.0,731.0,1831.0,389.0,1471.0,38.0,11.0,17.0,11.0,33.0
4.225216865539551,5.0,0.0,759.0,1298.0,46.0,1197.0,42.0,90.0,16.0,6.0,29.0
4.227616786956787,18.0,48.0,30.0,765.0,13.0,507.0,27.0,168.0,430.0,60.0,25.0
4.229983329772949,15.0,21.0,938.0,5.0,29.0,5.0,11.0,90.0,552.0,71.0,10.0
4.232366561889648,12.0,10.0,37.0,1157.0,45.0,5.0,32.0,11.0,12.0,50.0,10.0
4.234766483306885,12.0,43.0,756.0,16.0,31.0,29.0,22.0,486.0,14.0,54.0,8.0
4.237133502960205,16.0,35.0,992.0,1696.0,42.0,21.0,25.0,276.0,8.0,24.0,6.0
4.239566802978516,11.0,14.0,21.0,771.0,33.0,12.0,28.0,66.0,26.0,17.0,35.0
4.241933345794678,6.0,11.0,48.0,25.0,11.0,30.0,0.0,5.0,26.0,11.0,34.0
4.244316577911377,16.0,28.0,157.0,32.0,6.0,10.0,22.0,10.0,17.0,27.0,50.0
4.246699810028076,25.0,29.0,265.0,5.0,404.0,8.0,43.0,15.0,8.0,43.0,44.0
4.249083518981934,42.0,26.0,144.0,0.0,212.0,5.0,45.0,32.0,11.0,40.0,49.0
4.251466751098633,39.0,24.0,23.0,5.0,20.0,0.0,21.0,21.0,35.0,37.0,56.0
4.253849983215332,20.0,27.0,204.0,9.0,40.0,10.0,56.0,10.0,1022.0,37.0,49.0
4.25629997253418,55.0,30.0,113.0,12.0,328.0,11.0,41.0,27.0,957.0,35.0,41.0
4.258683204650879,0.0,5.0,23.0,5.0,389.0,50.0,25.0,45.0,1499.0,10.0,37.0
4.261066436767578,30.0,53.0,30.0,0.0,16.0,41.0,15.0,46.0,29.0,17.0,0.0
4.2634501457214355,0.0,35.0,27.0,24.0,26.0,31.0,7.0,47.0,915.0,8.0,33.0
4.265833377838135,15.0,16.0,15.0,29.0,36.0,20.0,9.0,16.0,47.0,11.0,41.0
4.268216609954834,5.0,52.0,13.0,17.0,159.0,12.0,10.0,52.0,592.0,7.0,17.0
4.270599842071533,3.0,17.0,10.0,6.0,83.0,21.0,28.0,27.0,10.0,30.0,30.0
4.273049831390381,0.0,45.0,14.0,36.0,6.0,20.0,29.0,52.0,5.0,26.0,24.0
4.275433540344238,32.0,34.0,18.0,41.0,23.0,18.0,14.0,45.0,26.0,22.0,65.0
4.2778167724609375,58.0,24.0,6.0,16.0,44.0,24.0,24.0,38.0,16.0,17.0,49.0
4.280200004577637,45.0,5.0,15.0,20.0,40.0,9.0,33.0,81.0,19.0,32.0,34.0
4.282583236694336,32.0,11.0,23.0,24.0,30.0,14.0,26.0,51.0,23.0,10.0,17.0
4.284966468811035,54.0,18.0,17.0,29.0,16.0,39.0,18.0,22.0,20.0,12.0,27.0
4.287350177764893,8.0,0.0,10.0,30.0,12.0,40.0,0.0,37.0,17.0,13.0,16.0
4.289783477783203,0.0,3.0,39.0,31.0,8.0,40.0,3.0,40.0,12.0,12.0,20.0
4.2921833992004395,12.0,5.0,25.0,15.0,7.0,24.0,5.0,37.0,14.0,11.0,0.0
4.294566631317139,22.0,5.0,11.0,9.0,6.0,53.0,12.0,15.0,15.0,21.0,0.0
4.296949863433838,62.0,22.0,29.0,8.0,16.0,55.0,18.0,18.0,20.0,30.0,16.0
