,275.1099853515625,276.1099853515625,277.1099853515625,278.1099853515625,279.1099853515625
1.9010833501815796,11.0,31.0,5.0,20.0,25.0
1.902166724205017,34.0,41.0,10.0,25.0,5.0
1.903249979019165,36.0,33.0,47.0,34.0,36.0
1.9043333530426025,22.0,10.0,23.0,31.0,72.0
1.9054166078567505,23.0,22.0,6.0,29.0,81.0
1.906499981880188,11.0,18.0,28.0,10.0,47.0
1.9075833559036255,0.0,15.0,17.0,30.0,5.0
1.9086666107177734,32.0,171.0,18.0,12.0,8.0
1.909749984741211,22.0,95.0,68.0,6.0,40.0
1.9108333587646484,12.0,20.0,45.0,0.0,21.0
1.9119166135787964,36.0,38.0,23.0,20.0,30.0
1.9129999876022339,26.0,27.0,44.0,22.0,51.0
1.9140833616256714,17.0,27.0,18.0,26.0,10.0
1.9151666164398193,20.0,32.0,7.0,31.0,29.0
1.9162499904632568,24.0,17.0,28.0,10.0,37.0
1.9174000024795532,5.0,46.0,29.0,25.0,15.0
1.9184833765029907,11.0,36.0,31.0,16.0,10.0
1.9195666313171387,18.0,26.0,15.0,172.0,23.0
1.9206500053405762,98.0,10.0,49.0,105.0,29.0
1.9217333793640137,73.0,18.0,38.0,39.0,31.0
1.9228166341781616,48.0,9.0,21.0,28.0,33.0
1.9239000082015991,11.0,0.0,27.0,0.0,10.0
1.9249833822250366,12.0,13.0,6.0,63.0,22.0
1.9260666370391846,24.0,11.0,11.0,35.0,21.0
1.927150011062622,10.0,10.0,23.0,24.0,5.0
1.9282333850860596,20.0,5.0,16.0,27.0,23.0
1.9293166399002075,0.0,5.0,10.0,34.0,27.0
1.930400013923645,7.0,20.0,13.0,30.0,13.0
1.9314833879470825,15.0,36.0,17.0,26.0,0.0
1.9325666427612305,0.0,63.0,23.0,5.0,30.0
1.933650016784668,10.0,47.0,34.0,34.0,5.0
1.9348000288009644,25.0,31.0,0.0,20.0,32.0
1.9358832836151123,23.0,22.0,25.0,10.0,30.0
1.9369666576385498,21.0,40.0,31.0,22.0,38.0
1.9380500316619873,20.0,21.0,38.0,26.0,23.0
1.9391332864761353,19.0,30.0,0.0,19.0,20.0
1.9402166604995728,10.0,32.0,7.0,0.0,31.0
1.9413000345230103,5.0,11.0,15.0,10.0,10.0
1.9423832893371582,26.0,40.0,19.0,14.0,29.0
1.9434666633605957,41.0,34.0,24.0,18.0,33.0
1.9445500373840332,32.0,37.0,10.0,32.0,10.0
1.9456332921981812,23.0,29.0,30.0,31.0,16.0
1.9467166662216187,50.0,22.0,49.0,30.0,33.0
1.9478000402450562,36.0,15.0,34.0,29.0,32.0
1.948883295059204,22.0,12.0,18.0,10.0,10.0
1.9499666690826416,36.0,10.0,23.0,29.0,11.0
1.9510833024978638,27.0,15.0,11.0,23.0,22.0
1.9521833658218384,23.0,21.0,13.0,13.0,23.0
1.9532666206359863,39.0,0.0,15.0,16.0,25.0
1.954366683959961,30.0,5.0,23.0,19.0,40.0
1.9554333686828613,21.0,10.0,32.0,5.0,37.0
1.9565166234970093,36.0,21.0,25.0,0.0,37.0
1.9575999975204468,8.0,21.0,18.0,21.0,26.0
1.9586833715438843,9.0,17.0,22.0,18.0,32.0
1.9597666263580322,10.0,35.0,0.0,16.0,38.0
1.9608500003814697,5.0,53.0,26.0,42.0,37.0
1.9619333744049072,0.0,43.0,10.0,32.0,0.0
1.9630166292190552,2.0,10.0,0.0,23.0,5.0
1.9641000032424927,5.0,24.0,5.0,26.0,20.0
1.9651833772659302,34.0,53.0,55.0,30.0,17.0
1.9662666320800781,26.0,44.0,72.0,17.0,15.0
1.9673500061035156,47.0,0.0,15.0,31.0,20.0
1.968500018119812,29.0,48.0,18.0,20.0,26.0
1.9695833921432495,23.0,56.0,22.0,16.0,24.0
1.9706666469573975,0.0,9.0,37.0,21.0,23.0
1.971750020980835,60.0,39.0,21.0,26.0,19.0
1.972833275794983,45.0,76.0,5.0,26.0,15.0
1.9739166498184204,29.0,6.0,5.0,10.0,16.0
1.975000023841858,40.0,17.0,0.0,60.0,17.0
1.9760832786560059,16.0,35.0,2.0,51.0,18.0
1.9771666526794434,17.0,30.0,5.0,25.0,5.0
1.9782500267028809,31.0,26.0,5.0,15.0,15.0
1.9793332815170288,18.0,5.0,0.0,30.0,26.0
1.9804166555404663,9.0,8.0,25.0,17.0,28.0
1.9815000295639038,15.0,11.0,15.0,10.0,34.0
1.9825832843780518,25.0,293.0,5.0,12.0,40.0
1.9836666584014893,15.0,163.0,16.0,34.0,41.0
1.9847500324249268,6.0,33.0,39.0,32.0,46.0
1.985883355140686,5.0,31.0,32.0,30.0,61.0
1.986966609954834,23.0,82.0,46.0,54.0,20.0
1.9880499839782715,25.0,82.0,25.0,655.0,31.0
1.989133358001709,0.0,50.0,5.0,742.0,36.0
1.990216612815857,16.0,18.0,0.0,15.0,10.0
1.9912999868392944,26.0,11.0,21.0,10.0,32.0
1.992383360862732,20.0,10.0,23.0,0.0,42.0
1.9934666156768799,18.0,385.0,25.0,14.0,33.0
1.9945499897003174,5.0,209.0,22.0,29.0,13.0
1.9956333637237549,0.0,33.0,17.0,17.0,38.0
1.9967166185379028,35.0,50.0,23.0,5.0,15.0
1.9977999925613403,53.0,260.0,10.0,5.0,15.0
1.9988833665847778,56.0,5.0,19.0,2.0,16.0
1.9999666213989258,24.0,347.0,37.0,0.0,10.0
2.0010499954223633,20.0,201.0,23.0,7.0,5.0
2.00219988822937,17.0,55.0,9.0,15.0,7.0
2.0032832622528076,53.0,30.0,25.0,10.0,10.0
2.004366636276245,59.0,22.0,5.0,6.0,15.0
2.0054500102996826,16.0,15.0,16.0,12.0,20.0
2.00653338432312,17.0,0.0,21.0,13.0,17.0
2.0076167583465576,19.0,33.0,18.0,31.0,15.0
2.008699893951416,13.0,25.0,33.0,27.0,6.0
2.0097832679748535,15.0,21.0,21.0,45.0,30.0
2.010866641998291,17.0,5.0,10.0,0.0,25.0
2.0119500160217285,6.0,28.0,5.0,50.0,10.0
2.013033390045166,6.0,19.0,5.0,36.0,30.0
2.0141167640686035,7.0,10.0,5.0,53.0,17.0
2.015199899673462,15.0,6.0,11.0,57.0,5.0
2.0162832736968994,86.0,15.0,17.0,28.0,14.0
2.017366647720337,62.0,10.0,29.0,17.0,10.0
2.0184500217437744,39.0,5.0,29.0,10.0,6.0
2.0195999145507812,0.0,14.0,30.0,10.0,26.0
2.0206665992736816,5.0,23.0,22.0,10.0,24.0
2.021749973297119,30.0,25.0,24.0,23.0,22.0
2.0228333473205566,37.0,27.0,20.0,16.0,27.0
2.023916721343994,46.0,27.0,5.0,9.0,26.0
2.0250000953674316,10.0,27.0,24.0,0.0,26.0
2.02608323097229,38.0,20.0,22.0,16.0,5.0
2.0271832942962646,16.0,13.0,20.0,10.0,39.0
2.028249979019165,10.0,77.0,6.0,5.0,10.0
2.0293333530426025,22.0,56.0,39.0,19.0,427.0
2.03041672706604,18.0,34.0,24.0,19.0,244.0
2.0315001010894775,15.0,31.0,10.0,17.0,60.0
2.032583236694336,26.0,7.0,38.0,16.0,18.0
2.0336666107177734,35.0,16.0,16.0,20.0,32.0
2.034749984741211,25.0,10.0,6.0,25.0,46.0
2.0358834266662598,15.0,31.0,10.0,27.0,26.0
2.0369832515716553,15.0,44.0,27.0,30.0,9.0
2.0380666255950928,18.0,57.0,44.0,45.0,18.0
2.0391499996185303,15.0,20.0,25.0,40.0,39.0
2.0402333736419678,10.0,23.0,5.0,13.0,31.0
2.0413167476654053,27.0,27.0,27.0,45.0,25.0
2.0423998832702637,26.0,24.0,19.0,52.0,43.0
2.043483257293701,25.0,21.0,12.0,5.0,10.0
2.0445666313171387,27.0,32.0,7.0,0.0,18.0
2.045650005340576,28.0,26.0,14.0,0.0,35.0
2.0467333793640137,10.0,20.0,21.0,0.0,14.0
2.047816753387451,28.0,10.0,25.0,49.0,31.0
2.0488998889923096,46.0,10.0,30.0,49.0,10.0
2.049983263015747,41.0,32.0,13.0,33.0,0.0
2.0510666370391846,29.0,43.0,23.0,10.0,55.0
2.052150011062622,28.0,43.0,16.0,78.0,37.0
2.053299903869629,21.0,43.0,8.0,63.0,41.0
2.0543832778930664,16.0,49.0,875.0,31.0,44.0
2.055466651916504,32.0,49.0,787.0,20.0,43.0
2.0565500259399414,24.0,68.0,25.0,11.0,12.0
2.057633399963379,17.0,15.0,26.0,13.0,20.0
2.0587167739868164,21.0,43.0,576.0,15.0,22.0
2.059799909591675,25.0,74.0,466.0,15.0,28.0
2.0608832836151123,18.0,34.0,21.0,15.0,34.0
2.06196665763855,12.0,10.0,14.0,9.0,10.0
2.0630500316619873,6.0,10.0,26.0,15.0,14.0
2.064133405685425,39.0,10.0,29.0,22.0,20.0
2.0652167797088623,22.0,5.0,32.0,5.0,17.0
2.0662999153137207,5.0,0.0,36.0,15.0,15.0
2.067383289337158,5.0,8.0,16.0,0.0,27.0
2.0684666633605957,5.0,16.0,22.0,35.0,25.0
2.069550037384033,5.0,22.0,31.0,46.0,5.0
2.07069993019104,5.0,28.0,27.0,16.0,10.0
2.0717833042144775,5.0,30.0,16.0,35.0,35.0
2.072866678237915,10.0,15.0,6.0,22.0,25.0
2.0739500522613525,5.0,25.0,5.0,52.0,16.0
2.07503342628479,0.0,15.0,11.0,44.0,10.0
2.0761165618896484,11.0,5.0,22.0,37.0,38.0
2.077199935913086,23.0,11.0,23.0,15.0,29.0
2.0782833099365234,21.0,13.0,24.0,17.0,21.0
2.079366683959961,24.0,27.0,30.0,21.0,18.0
2.0804500579833984,32.0,41.0,0.0,26.0,11.0
2.081533432006836,23.0,43.0,22.0,31.0,5.0
2.0826165676116943,15.0,45.0,34.0,27.0,13.0
2.083699941635132,35.0,514.0,30.0,12.0,21.0
2.0847833156585693,33.0,1008.0,26.0,29.0,23.0
2.085866689682007,24.0,660.0,44.0,34.0,25.0
2.0870165824890137,16.0,36.0,47.0,27.0,797.0
2.088083267211914,8.0,294.0,51.0,26.0,406.0
2.0891666412353516,0.0,10.0,49.0,25.0,16.0
2.090250015258789,7.0,10.0,241.0,24.0,32.0
2.0913333892822266,15.0,868.0,433.0,33.0,5.0
2.092416763305664,20.0,1016.0,302.0,42.0,42.0
2.0935165882110596,29.0,1006.0,169.0,47.0,29.0
2.09458327293396,44.0,995.0,36.0,381.0,16.0
2.0956666469573975,44.0,3942.0,2044.0,419.0,27.0
2.096750020980835,44.0,4708.0,3471.0,7.0,841.0
2.0978333950042725,10.0,3980.0,5223.0,46.0,1655.0
2.09891676902771,25.0,3308.0,5626.0,132.0,3224.0
2.0999999046325684,41.0,3026.0,7681.0,992.0,4067.0
2.101099967956543,28.0,6586.0,10296.0,809.0,2501.0
2.1021833419799805,5.0,10144.0,10380.0,626.0,6813.0
2.103266716003418,26.0,18024.0,16580.0,888.0,9564.0
2.1043667793273926,33.0,29212.0,22312.0,5423.0,13644.0
2.105449914932251,10.0,30528.0,32832.0,6006.0,20612.0
2.1065332889556885,15.0,38016.0,33536.0,4506.0,20028.0
2.107616662979126,20.0,59504.0,47072.0,7055.0,23944.0
2.1087000370025635,20.0,69616.0,61232.0,6163.0,35472.0
2.109783411026001,17.0,82176.0,81936.0,7955.0,46128.0
2.1108667850494385,29.0,103808.0,96064.0,9748.0,45664.0
2.111949920654297,19.0,139008.0,125152.0,11784.0,70512.0
2.1130332946777344,10.0,139264.0,131136.0,18016.0,67424.0
2.114116668701172,17.0,176832.0,150592.0,24248.0,82128.0
2.1152000427246094,24.0,232960.0,203904.0,37552.0,114432.0
2.116283416748047,27.0,260032.0,255936.0,34784.0,108176.0
2.1173665523529053,30.0,314944.0,297344.0,40400.0,124896.0
2.1184499263763428,41.0,367232.0,332480.0,46016.0,154048.0
2.1195333003997803,44.0,416448.0,395328.0,59152.0,155840.0
2.120683431625366,47.0,451072.0,389568.0,60096.0,195776.0
2.1217665672302246,78.0,528128.0,479680.0,80432.0,216256.0
2.122849941253662,144.0,613120.0,524800.0,84176.0,231808.0
2.1239333152770996,112.0,690432.0,606976.0,84176.0,270080.0
2.125016689300537,80.0,720640.0,614144.0,102928.0,301376.0
2.1261000633239746,105.0,817152.0,718848.0,121536.0,300992.0
2.127183437347412,70.0,849152.0,726528.0,125728.0,325824.0
2.1282665729522705,96.0,924416.0,796928.0,132480.0,352576.0
2.129349946975708,117.0,950528.0,826368.0,115712.0,358464.0
2.1304333209991455,79.0,998144.0,926976.0,132736.0,378944.0
2.131516695022583,66.0,1060096.0,906752.0,129488.0,412224.0
2.1326000690460205,142.0,1133312.0,993536.0,165696.0,455744.0
2.133683443069458,175.0,1196544.0,1029632.0,164544.0,484736.0
2.1347665786743164,208.0,1191168.0,1092096.0,162624.0,469376.0
2.135849952697754,125.0,1185792.0,1034240.0,166336.0,458624.0
2.1369333267211914,146.0,1191936.0,1060352.0,169984.0,483392.0
2.1380832195281982,128.0,1326592.0,1146368.0,186624.0,508224.0
2.1391665935516357,110.0,1340928.0,1179136.0,185152.0,508288.0
2.1402499675750732,175.0,1408256.0,1199360.0,175680.0,508352.0
2.1413333415985107,177.0,1384448.0,1157120.0,194496.0,479808.0
2.1424167156219482,180.0,1384192.0,1161216.0,187328.0,517376.0
2.1435000896453857,186.0,1552384.0,1187328.0,175040.0,518336.0
2.144583225250244,162.0,1540096.0,1288448.0,194624.0,571648.0
2.1456665992736816,210.0,1425152.0,1254656.0,203072.0,554752.0
2.146749973297119,197.0,1490432.0,1247488.0,169472.0,582656.0
2.1478333473205566,155.0,1624576.0,1257216.0,206592.0,575744.0
2.148916721343994,1515.0,1575936.0,1266944.0,196992.0,564992.0
2.1500000953674316,1239.0,1588992.0,1278976.0,184512.0,554240.0
2.15108323097229,244.0,1484032.0,1339136.0,179520.0,600064.0
2.1521666049957275,122.0,1552384.0,1339136.0,184448.0,602624.0
2.153249979019165,219.0,1625344.0,1314816.0,189376.0,602880.0
2.154383420944214,211.0,1508096.0,1304320.0,201792.0,584704.0
2.1554832458496094,202.0,1400064.0,1301248.0,195648.0,594176.0
2.156566619873047,177.0,1649408.0,1307392.0,196032.0,604416.0
2.1576499938964844,225.0,1579264.0,1318400.0,184768.0,594176.0
2.158733367919922,273.0,1436416.0,1263872.0,185152.0,583936.0
2.1598167419433594,240.0,1608960.0,1271296.0,187584.0,580352.0
2.160900115966797,207.0,1553920.0,1278464.0,189952.0,562176.0
2.1619832515716553,211.0,1524736.0,1293568.0,176192.0,578304.0
2.1630666255950928,215.0,1521920.0,1326592.0,181056.0,589568.0
2.1641499996185303,257.0,1517824.0,1290752.0,185920.0,616704.0
2.1652333736419678,299.0,1513728.0,1254656.0,192000.0,532992.0
2.1663167476654053,150.0,1561600.0,1350400.0,198656.0,605952.0
2.1673998832702637,783.0,1561088.0,1372160.0,201280.0,581120.0
2.168483257293701,527.0,1560576.0,1339904.0,189760.0,596224.0
2.1695666313171387,271.0,1670144.0,1323776.0,199872.0,594176.0
2.170650005340576,888.0,1649152.0,1366016.0,206336.0,592384.0
2.171799898147583,124.0,1610496.0,1320704.0,204608.0,595456.0
2.1728832721710205,690.0,1624064.0,1317120.0,209472.0,608768.0
2.173966646194458,204.0,1602048.0,1313536.0,199680.0,569088.0
2.1750500202178955,180.0,1611776.0,1340416.0,217792.0,530176.0
2.176133394241333,401.0,1564928.0,1283328.0,191872.0,591872.0
2.1772167682647705,330.0,1537792.0,1332736.0,172352.0,608768.0
2.178299903869629,259.0,1549824.0,1373952.0,211840.0,576000.0
2.1793832778930664,214.0,1562112.0,1278464.0,203648.0,578304.0
2.180466651916504,170.0,1568768.0,1320448.0,199296.0,590848.0
2.1815500259399414,164.0,1575424.0,1357824.0,183872.0,603136.0
2.182633399963379,290.0,1459712.0,1330432.0,210304.0,602624.0
2.1837167739868164,232.0,1584896.0,1340672.0,212544.0,601856.0
2.184799909591675,173.0,1686784.0,1337856.0,219968.0,596992.0
2.1858832836151123,198.0,1627648.0,1422080.0,199936.0,596992.0
2.18696665763855,125.0,1651712.0,1458944.0,221952.0,572928.0
2.1880500316619873,185.0,1676032.0,1421312.0,215104.0,548864.0
2.189199924468994,239.0,1571840.0,1423616.0,193472.0,639232.0
2.1902832984924316,285.0,1739776.0,1467136.0,213632.0,665344.0
2.191366672515869,227.0,1675264.0,1395712.0,193600.0,644608.0
2.1924500465393066,170.0,1659648.0,1325824.0,205888.0,600320.0
2.193533420562744,222.0,1655040.0,1337600.0,205120.0,635648.0
2.1946165561676025,275.0,1679872.0,1366784.0,224832.0,644096.0
2.19569993019104,121.0,1632768.0,1376512.0,229248.0,620800.0
2.1967833042144775,127.0,1670656.0,1392128.0,186496.0,646400.0
2.197866678237915,196.0,1682432.0,1335552.0,215040.0,686848.0
2.1989500522613525,219.0,1694464.0,1430784.0,201536.0,671744.0
2.20003342628479,168.0,1704704.0,1406720.0,198528.0,617984.0
2.2011165618896484,149.0,1634048.0,1382400.0,207552.0,646400.0
2.202199935913086,129.0,1719040.0,1388032.0,204736.0,647680.0
2.2032833099365234,147.0,1624832.0,1323264.0,196800.0,660992.0
2.204366683959961,242.0,1690880.0,1258752.0,188864.0,631808.0
2.2055165767669678,344.0,1621504.0,1379584.0,166464.0,570368.0
2.2065999507904053,268.0,1631232.0,1280000.0,195968.0,616448.0
2.2076833248138428,237.0,1520896.0,1305600.0,191232.0,575488.0
2.2087666988372803,205.0,1547264.0,1276160.0,195008.0,592384.0
2.2098500728607178,254.0,1522176.0,1247744.0,196736.0,567552.0
2.2109334468841553,266.0,1515776.0,1219072.0,181312.0,542720.0
2.2120165824890137,332.0,1554688.0,1258240.0,184384.0,584960.0
2.213099956512451,139.0,1490688.0,1193728.0,190656.0,517120.0
2.2141833305358887,209.0,1486336.0,1209600.0,194368.0,541696.0
2.215266704559326,259.0,1366272.0,1190656.0,175104.0,550400.0
2.2163500785827637,170.0,1382400.0,1107712.0,168256.0,543744.0
2.217433214187622,181.0,1339648.0,1150464.0,176640.0,528128.0
2.2185165882110596,192.0,1384192.0,1155328.0,160192.0,489088.0
2.219599962234497,201.0,1267712.0,1003776.0,172800.0,464192.0
2.2206833362579346,194.0,1256448.0,1013504.0,157568.0,473408.0
2.221766710281372,187.0,1243904.0,1020416.0,145280.0,405248.0
2.222899913787842,162.0,1105152.0,915712.0,145536.0,408384.0
2.2239832878112793,150.0,1065984.0,958464.0,153280.0,434048.0
2.225066661834717,181.0,1191680.0,865536.0,131200.0,388864.0
2.2261500358581543,178.0,1006336.0,845824.0,116192.0,369024.0
2.227233409881592,174.0,1035776.0,841472.0,109376.0,344000.0
2.2283167839050293,156.0,943104.0,747776.0,102368.0,304448.0
2.229416608810425,138.0,862976.0,761856.0,107776.0,353472.0
2.230483293533325,110.0,840960.0,678144.0,99504.0,315968.0
2.2315666675567627,147.0,790016.0,601856.0,103520.0,284416.0
2.2326667308807373,147.0,715776.0,634368.0,88672.0,253952.0
2.2337334156036377,219.0,697856.0,593920.0,82096.0,240512.0
2.234816551208496,207.0,704512.0,568576.0,73792.0,238080.0
2.2358999252319336,195.0,616192.0,506880.0,59952.0,216128.0
2.236983299255371,198.0,562944.0,459456.0,76000.0,200128.0
2.2380666732788086,106.0,524160.0,430144.0,51968.0,175040.0
2.2392001152038574,122.0,510848.0,433408.0,64224.0,195648.0
2.240299940109253,138.0,439232.0,401920.0,47648.0,155136.0
2.2413833141326904,174.0,406784.0,351552.0,51936.0,171584.0
2.242466688156128,210.0,400000.0,343168.0,45616.0,142784.0
2.2435500621795654,80.0,330560.0,284672.0,41696.0,134208.0
2.244633436203003,132.0,330304.0,281408.0,57088.0,98176.0
2.2457165718078613,143.0,297024.0,232448.0,31732.0,81040.0
2.246799945831299,120.0,253952.0,233280.0,29952.0,109904.0
2.2478833198547363,73.0,276480.0,203200.0,28540.0,87632.0
2.248966693878174,127.0,242752.0,216704.0,23728.0,79264.0
2.2500500679016113,134.0,216128.0,172480.0,24424.0,74208.0
2.251133441925049,60.0,217152.0,178432.0,16972.0,77344.0
2.2522165775299072,151.0,160704.0,142400.0,16456.0,68224.0
2.2532999515533447,95.0,154112.0,119072.0,18876.0,53440.0
2.2543833255767822,65.0,162560.0,113840.0,19000.0,39200.0
2.2554666996002197,86.0,134144.0,95584.0,15160.0,46576.0
2.2566165924072266,71.0,120304.0,93296.0,9780.0,40944.0
2.257699966430664,90.0,109040.0,82864.0,14804.0,39376.0
2.2587833404541016,109.0,102960.0,76048.0,7124.0,37616.0
2.259866714477539,53.0,108784.0,75344.0,7849.0,34784.0
2.2609500885009766,77.0,94064.0,84400.0,8572.0,33232.0
2.262033224105835,62.0,72416.0,73760.0,6609.0,31696.0
2.2631165981292725,62.0,83376.0,67200.0,10764.0,30664.0
2.26419997215271,41.0,77744.0,65344.0,10232.0,27228.0
2.2652833461761475,74.0,77328.0,58480.0,12372.0,27528.0
2.266366720199585,36.0,62112.0,49024.0,8292.0,25548.0
2.2674500942230225,110.0,67360.0,54352.0,6570.0,27200.0
2.268533229827881,71.0,61872.0,48944.0,8728.0,24300.0
2.2696166038513184,32.0,50544.0,54624.0,3571.0,13352.0
2.270699977874756,58.0,47808.0,40512.0,5068.0,23384.0
2.2717833518981934,47.0,51696.0,49920.0,6453.0,19176.0
2.272866725921631,75.0,44160.0,31872.0,4563.0,12596.0
2.2739999294281006,57.0,42432.0,51328.0,5867.0,14292.0
2.275083303451538,39.0,57712.0,59424.0,6848.0,21880.0
2.2761666774749756,71.0,54464.0,46432.0,4759.0,20424.0
2.277250051498413,104.0,42560.0,31380.0,5641.0,11628.0
2.2783334255218506,92.0,38304.0,42720.0,6523.0,15708.0
2.279416561126709,80.0,39392.0,25844.0,4117.0,12164.0
2.2804999351501465,110.0,40256.0,40656.0,2622.0,9396.0
2.281583309173584,73.0,40128.0,27208.0,5760.0,18024.0
2.2826666831970215,52.0,40000.0,29980.0,5716.0,14028.0
2.283750057220459,28.0,45648.0,26912.0,1504.0,13208.0
2.2848334312438965,36.0,45120.0,30576.0,2704.0,15788.0
2.285916566848755,44.0,28400.0,32376.0,4747.0,8540.0
2.2869999408721924,58.0,32768.0,28200.0,4780.0,6556.0
2.28808331489563,72.0,32388.0,23076.0,4812.0,11940.0
2.2891666889190674,71.0,30324.0,19372.0,5003.0,11056.0
2.290316581726074,70.0,28256.0,27184.0,1652.0,10168.0
2.2913999557495117,53.0,23188.0,19524.0,2188.0,9324.0
2.292483329772949,49.0,24504.0,16752.0,2701.0,8088.0
2.2935667037963867,37.0,25820.0,24428.0,2270.0,8776.0
2.294650077819824,26.0,26380.0,21496.0,5322.0,8152.0
2.2957334518432617,79.0,29004.0,16940.0,4991.0,7530.0
2.29681658744812,73.0,20544.0,23492.0,2216.0,8016.0
2.2978999614715576,67.0,31000.0,25204.0,2229.0,8500.0
2.298983335494995,49.0,23128.0,15428.0,5163.0,5187.0
2.3000667095184326,73.0,17288.0,13984.0,44.0,6748.0
2.30115008354187,56.0,16176.0,21160.0,2419.0,7070.0
2.3022332191467285,40.0,19164.0,20076.0,5579.0,7393.0
2.303316593170166,37.0,19272.0,20864.0,1951.0,8504.0
2.3043999671936035,52.0,19716.0,20424.0,1845.0,8452.0
2.305483341217041,22.0,17836.0,17516.0,5523.0,7748.0
2.3065667152404785,69.0,17728.0,16596.0,3175.0,3457.0
2.3077166080474854,70.0,17616.0,10516.0,1959.0,3852.0
2.308799982070923,71.0,11164.0,11408.0,1135.0,2972.0
2.3098833560943604,45.0,9912.0,7759.0,2288.0,2673.0
2.310966730117798,67.0,8800.0,11860.0,495.0,2375.0
2.3120501041412354,47.0,9712.0,12164.0,2664.0,5941.0
2.3131332397460938,75.0,10628.0,11364.0,1817.0,6443.0
2.3142166137695312,45.0,9536.0,7999.0,1494.0,4347.0
2.3152999877929688,15.0,8440.0,5983.0,66.0,1999.0
2.3163833618164062,37.0,8272.0,9380.0,1556.0,5189.0
2.3174667358398438,47.0,8106.0,9100.0,172.0,4676.0
2.3185501098632812,34.0,7492.0,5783.0,1702.0,4803.0
2.3196332454681396,49.0,7894.0,7575.0,647.0,2265.0
2.320716619491577,53.0,4894.0,8312.0,2344.0,849.0
2.3217999935150146,58.0,8472.0,3815.0,1187.0,3476.0
2.322883367538452,27.0,5754.0,5609.0,30.0,2390.0
2.3239998817443848,32.0,4705.0,1555.0,875.0,1303.0
2.3250999450683594,37.0,8760.0,1857.0,627.0,1378.0
2.326183319091797,25.0,5961.0,2159.0,1126.0,2421.0
2.3272833824157715,19.0,3916.0,4769.0,778.0,1151.0
2.328350067138672,14.0,3909.0,4559.0,1028.0,1365.0
2.3294334411621094,33.0,6546.0,2155.0,859.0,353.0
2.3305165767669678,53.0,3307.0,3478.0,689.0,2415.0
2.3315999507904053,63.0,5574.0,4093.0,33.0,2904.0
2.3326833248138428,55.0,5862.0,4489.0,256.0,796.0
2.3337666988372803,43.0,3154.0,4090.0,161.0,2173.0
2.3348500728607178,45.0,3985.0,3692.0,67.0,1867.0
2.3359334468841553,54.0,3176.0,3797.0,53.0,2998.0
2.3370165824890137,45.0,1377.0,755.0,40.0,2329.0
2.338099956512451,37.0,5959.0,1583.0,609.0,3286.0
2.3391833305358887,40.0,6825.0,5864.0,389.0,443.0
2.3402833938598633,38.0,2721.0,5680.0,168.0,964.0
2.341416597366333,72.0,1862.0,638.0,102.0,1296.0
2.3424999713897705,43.0,4349.0,4498.0,36.0,1485.0
2.343583345413208,15.0,3291.0,5911.0,163.0,20.0
2.3446667194366455,37.0,2233.0,3343.0,109.0,1074.0
2.345750093460083,51.0,3247.0,2747.0,55.0,22.0
2.3468332290649414,66.0,2330.0,3619.0,18.0,1029.0
2.347916603088379,29.0,2825.0,2027.0,46.0,168.0
2.3489999771118164,41.0,3320.0,2941.0,32.0,1206.0
2.350083351135254,24.0,1505.0,521.0,18.0,1190.0
2.3511667251586914,30.0,2481.0,3997.0,19.0,1175.0
2.352250099182129,43.0,2963.0,2098.0,0.0,45.0
2.3533332347869873,34.0,2946.0,1349.0,20.0,1047.0
2.354416608810425,26.0,2929.0,1528.0,0.0,1401.0
2.3554999828338623,52.0,2794.0,1869.0,577.0,588.0
2.3565833568573,65.0,2462.0,1120.0,507.0,685.0
2.3576667308807373,53.0,2130.0,41.0,552.0,781.0
2.358799934387207,37.0,454.0,955.0,859.0,12.0
2.3598833084106445,30.0,2336.0,2039.0,32.0,38.0
2.360966682434082,23.0,1404.0,1550.0,58.0,65.0
2.3620500564575195,26.0,1492.0,1904.0,593.0,557.0
2.363133430480957,37.0,2812.0,2258.0,583.0,705.0
2.3642332553863525,55.0,2160.0,2246.0,1185.0,905.0
2.365299940109253,56.0,1855.0,2986.0,613.0,569.0
2.3663833141326904,56.0,1550.0,636.0,42.0,1294.0
2.367466688156128,47.0,1275.0,691.0,30.0,1416.0
2.3685500621795654,62.0,1210.0,1420.0,40.0,1538.0
2.369633436203003,16.0,1335.0,1020.0,56.0,1069.0
2.3707165718078613,36.0,1461.0,1260.0,47.0,65.0
2.371799945831299,55.0,736.0,1501.0,38.0,1350.0
2.3728833198547363,67.0,12.0,770.0,38.0,487.0
2.373966693878174,16.0,671.0,2587.0,41.0,887.0
2.3750834465026855,36.0,2012.0,3206.0,34.0,20.0
2.376166582107544,85.0,1908.0,1561.0,12.0,591.0
2.3772499561309814,38.0,2579.0,2970.0,75.0,44.0
2.378333330154419,20.0,1987.0,2977.0,55.0,44.0
2.3794167041778564,45.0,1395.0,2984.0,34.0,31.0
2.380500078201294,35.0,1512.0,2256.0,29.0,260.0
2.3815834522247314,46.0,15.0,1029.0,25.0,535.0
2.38266658782959,38.0,944.0,202.0,36.0,278.0
2.3837499618530273,31.0,1763.0,1375.0,46.0,21.0
2.384833335876465,10.0,986.0,593.0,12.0,45.0
2.3859167098999023,16.0,1275.0,786.0,34.0,166.0
2.38700008392334,22.0,26.0,33.0,21.0,287.0
2.3880832195281982,16.0,753.0,2292.0,20.0,433.0
2.3891665935516357,26.0,3958.0,2894.0,19.0,401.0
2.3902499675750732,52.0,2858.0,2629.0,450.0,18.0
2.3913333415985107,55.0,1758.0,2549.0,621.0,511.0
2.3924832344055176,13.0,1655.0,2649.0,791.0,672.0
2.393566608428955,18.0,2016.0,11.0,19.0,833.0
2.3946499824523926,23.0,1005.0,863.0,7.0,486.0
2.39573335647583,17.0,750.0,2138.0,0.0,537.0
2.3968167304992676,20.0,1336.0,2666.0,26.0,72.0
2.397900104522705,24.0,1102.0,55.0,52.0,1001.0
2.3989832401275635,51.0,868.0,1674.0,56.0,710.0
2.400066614151001,55.0,1738.0,2987.0,61.0,419.0
2.4011499881744385,16.0,2557.0,541.0,35.0,581.0
2.402233362197876,10.0,2013.0,2365.0,33.0,536.0
2.4033167362213135,45.0,1468.0,3146.0,31.0,492.0
2.404400110244751,27.0,1253.0,3344.0,40.0,652.0
2.4054832458496094,15.0,1037.0,1049.0,50.0,812.0
2.406566619873047,30.0,1289.0,5.0,434.0,38.0
2.4076499938964844,24.0,1541.0,1055.0,817.0,567.0
2.408783435821533,27.0,1110.0,623.0,908.0,1096.0
2.4098665714263916,30.0,679.0,1024.0,1187.0,963.0
2.410949945449829,20.0,1228.0,1657.0,38.0,28.0
2.4120333194732666,20.0,1788.0,1229.0,612.0,41.0
2.413116693496704,21.0,2347.0,801.0,333.0,25.0
2.4142000675201416,11.0,3352.0,2962.0,19.0,441.0
2.415283441543579,32.0,2900.0,2809.0,22.0,356.0
2.4163665771484375,31.0,3674.0,2573.0,822.0,270.0
2.417449951171875,58.0,2314.0,2337.0,819.0,1263.0
2.4185500144958496,52.0,3282.0,3191.0,663.0,1030.0
2.41961669921875,28.0,3688.0,3410.0,48.0,1321.0
2.4207000732421875,31.0,3318.0,9.0,864.0,5.0
2.421783447265625,31.0,2947.0,3607.0,0.0,541.0
2.4228665828704834,32.0,1559.0,929.0,43.0,1078.0
2.423949956893921,5.0,2700.0,3965.0,25.0,907.0
2.4250500202178955,25.0,2561.0,3700.0,60.0,471.0
2.42615008354187,28.0,2231.0,3901.0,20.0,35.0
2.4272332191467285,21.0,1902.0,3336.0,12.0,528.0
2.428316593170166,15.0,1503.0,2890.0,5.0,936.0
2.4293999671936035,29.0,3883.0,2444.0,17.0,748.0
2.430483341217041,43.0,3311.0,1436.0,30.0,14.0
2.4315667152404785,34.0,420.0,585.0,272.0,10.0
2.432650089263916,18.0,3699.0,2102.0,147.0,6.0
2.4337332248687744,48.0,2845.0,1721.0,22.0,1182.0
2.434816598892212,22.0,2214.0,1340.0,32.0,1159.0
2.4358999729156494,5.0,2575.0,1995.0,27.0,1040.0
2.436983346939087,19.0,731.0,1306.0,19.0,920.0
2.4380667209625244,27.0,2172.0,1442.0,12.0,37.0
2.439150094985962,36.0,908.0,1996.0,10.0,24.0
2.4402332305908203,48.0,2364.0,1689.0,8.0,108.0
2.441316604614258,56.0,2295.0,3088.0,9.0,1333.0
2.4424667358398438,5.0,2188.0,3158.0,10.0,1756.0
2.443533420562744,31.0,5008.0,2932.0,28.0,2179.0
2.4446165561676025,51.0,3729.0,2706.0,28.0,1205.0
2.44569993019104,32.0,2450.0,2379.0,27.0,31.0
2.4467833042144775,18.0,2441.0,954.0,29.0,711.0
2.447866678237915,9.0,2408.0,2330.0,32.0,850.0
2.4489500522613525,0.0,2375.0,1969.0,28.0,872.0
2.45003342628479,15.0,1118.0,1164.0,25.0,895.0
2.4511165618896484,12.0,1514.0,2501.0,25.0,787.0
2.452199935913086,9.0,1268.0,1510.0,26.0,15.0
2.4532833099365234,8.0,1022.0,519.0,76.0,1324.0
2.454366683959961,7.0,1584.0,515.0,55.0,605.0
2.4554500579833984,3.0,1491.0,511.0,35.0,27.0
2.456533432006836,0.0,1398.0,768.0,38.0,2124.0
2.4576165676116943,0.0,1271.0,1024.0,42.0,1339.0
2.458699941635132,28.0,1143.0,526.0,53.0,38.0
2.4598500728607178,34.0,1840.0,29.0,64.0,25.0
2.4609334468841553,40.0,2538.0,459.0,45.0,885.0
2.4620165824890137,28.0,2018.0,425.0,25.0,1082.0
2.463099956512451,5.0,1499.0,391.0,0.0,321.0
2.4641833305358887,19.0,2406.0,527.0,52.0,484.0
2.465266704559326,33.0,1980.0,662.0,28.0,345.0
2.466366767883301,23.0,597.0,1623.0,57.0,768.0
2.467449903488159,17.0,1248.0,4124.0,72.0,1190.0
2.4685332775115967,11.0,1125.0,3159.0,19.0,1051.0
2.469599962234497,5.0,1002.0,3219.0,58.0,911.0
2.4706833362579346,16.0,1606.0,4289.0,55.0,634.0
2.471783399581909,27.0,2124.0,1287.0,21.0,1536.0
2.4728667736053467,24.0,1072.0,2028.0,34.0,18.0
2.473933219909668,37.0,21.0,916.0,47.0,62.0
2.4750165939331055,60.0,1938.0,2314.0,44.0,1297.0
2.476133346557617,66.0,44.0,2657.0,42.0,23.0
2.4772167205810547,67.0,2818.0,3079.0,21.0,569.0
2.478300094604492,74.0,2576.0,218.0,21.0,88.0
2.4793832302093506,48.0,3081.0,4519.0,22.0,321.0
2.480466604232788,21.0,1316.0,902.0,412.0,554.0
2.4815499782562256,43.0,1592.0,5745.0,970.0,1523.0
2.482633352279663,28.0,1106.0,2405.0,751.0,854.0
2.4837167263031006,16.0,3216.0,4106.0,1155.0,185.0
2.484800100326538,5.0,3766.0,5693.0,41.0,720.0
2.4858832359313965,17.0,2820.0,830.0,25.0,1536.0
2.486966609954834,16.0,1441.0,1937.0,19.0,2352.0
2.4880499839782715,14.0,3168.0,3705.0,53.0,1459.0
2.489150047302246,15.0,3456.0,1547.0,85.0,0.0
2.4902167320251465,21.0,2377.0,3779.0,59.0,1724.0
2.491316556930542,18.0,4143.0,1474.0,33.0,1216.0
2.4923999309539795,14.0,2280.0,2738.0,808.0,2014.0
2.493516683578491,29.0,418.0,2441.0,843.0,1044.0
2.4946000576019287,32.0,1094.0,2144.0,766.0,872.0
2.495683431625366,19.0,787.0,2784.0,688.0,513.0
2.4967665672302246,28.0,481.0,3494.0,893.0,705.0
2.497833251953125,21.0,1710.0,850.0,50.0,1990.0
2.4989333152770996,22.0,2308.0,1771.0,332.0,1724.0
