,259.1700134277344,260.1700134277344,261.1700134277344,262.1700134277344,263.1700134277344
2.4013500213623047,15.0,29.0,42.0,37.0,281.0
2.403083324432373,53.0,26.0,22.0,10.0,15.0
2.405900001525879,10.0,23.0,5.0,11.0,25.0
2.408783435821533,5.0,10.0,49.0,35.0,12.0
2.411600112915039,64.0,20.0,10.0,22.0,16.0
2.414416551589966,24.0,19.0,7.0,16.0,19.0
2.4172332286834717,25.0,18.0,5.0,18.0,22.0
2.4200499057769775,28.0,11.0,9.0,12.0,20.0
2.4228665828704834,30.0,20.0,10.0,6.0,11.0
2.4257333278656006,24.0,21.0,11.0,20.0,24.0
2.4285500049591064,17.0,20.0,109.0,18.0,28.0
2.4313666820526123,23.0,19.0,70.0,11.0,30.0
2.434183359146118,19.0,68.0,31.0,41.0,24.0
2.437000036239624,12.0,42.0,84.0,43.0,25.0
2.43981671333313,10.0,16.0,42.0,45.0,26.0
2.442699909210205,64.0,38.0,29.0,46.0,24.0
2.445516586303711,53.0,5.0,60.0,26.0,24.0
2.448333263397217,41.0,12.0,17.0,22.0,23.0
2.4511499404907227,34.0,15.0,19.0,28.0,23.0
2.4539666175842285,5.0,16.0,20.0,5.0,11.0
2.4567832946777344,7.0,23.0,13.0,33.0,0.0
2.4596333503723145,15.0,22.0,20.0,15.0,22.0
2.4624500274658203,5.0,62.0,21.0,17.0,25.0
2.465266704559326,14.0,55.0,22.0,19.0,0.0
2.468083381652832,9.0,15.0,16.0,14.0,29.0
2.470900058746338,5.0,10.0,10.0,10.0,30.0
2.4737167358398438,29.0,27.0,25.0,6.0,31.0
2.476583242416382,27.0,16.0,36.0,9.0,30.0
2.4793999195098877,19.0,94.0,28.0,12.0,31.0
2.4822165966033936,11.0,77.0,19.0,11.0,31.0
2.4850332736968994,10.0,61.0,0.0,10.0,41.0
2.4878499507904053,10.0,0.0,11.0,23.0,43.0
2.490666627883911,7.0,5.0,22.0,23.0,45.0
2.4935500621795654,5.0,10.0,22.0,22.0,11.0
2.4963667392730713,14.0,32.0,23.0,6.0,15.0
2.499183416366577,24.0,29.0,11.0,14.0,26.0
2.502000093460083,49.0,18.0,0.0,22.0,0.0
2.504816770553589,24.0,29.0,27.0,22.0,7.0
2.5076334476470947,0.0,36.0,23.0,23.0,15.0
2.51051664352417,0.0,21.0,19.0,19.0,10.0
2.513333320617676,20.0,6.0,22.0,15.0,61.0
2.5161499977111816,12.0,30.0,24.0,19.0,43.0
2.5189666748046875,5.0,15.0,20.0,20.0,24.0
2.5217833518981934,0.0,0.0,16.0,10.0,19.0
2.524600028991699,11.0,11.0,44.0,0.0,10.0
2.5274832248687744,0.0,21.0,48.0,11.0,16.0
2.5302999019622803,21.0,30.0,51.0,10.0,43.0
2.533116579055786,23.0,38.0,8.0,20.0,54.0
2.535933256149292,42.0,542.0,23.0,25.0,32.0
2.538749933242798,23.0,297.0,45.0,5.0,67.0
2.5415666103363037,5.0,52.0,30.0,10.0,6.0
2.544433355331421,16.0,41.0,34.0,5.0,7.0
2.5472500324249268,11.0,30.0,27.0,16.0,0.0
2.5500667095184326,5.0,12.0,20.0,10.0,10.0
2.5528833866119385,17.0,24.0,28.0,5.0,10.0
2.5557000637054443,18.0,36.0,29.0,30.0,9.0
2.55851674079895,20.0,18.0,30.0,41.0,13.0
2.5613999366760254,18.0,482.0,39.0,37.0,17.0
2.5642166137695312,16.0,430.0,36.0,32.0,18.0
2.567033290863037,8.0,516.0,33.0,54.0,19.0
2.569849967956543,26.0,5.0,36.0,5.0,27.0
2.572666645050049,19.0,10.0,38.0,13.0,35.0
2.5754833221435547,12.0,603.0,25.0,0.0,27.0
2.578366756439209,16.0,482.0,11.0,33.0,20.0
2.581183433532715,20.0,0.0,24.0,27.0,21.0
2.5840001106262207,31.0,1316.0,11.0,16.0,18.0
2.5868165493011475,29.0,927.0,12.0,5.0,35.0
2.5896332263946533,28.0,1963.0,5.0,10.0,17.0
2.592449903488159,15.0,5555.0,520.0,15.0,0.0
2.5953166484832764,13.0,19960.0,419.0,15.0,34.0
2.5981333255767822,12.0,36912.0,944.0,1159.0,15.0
2.600950002670288,15.0,60992.0,1470.0,1556.0,5.0
2.603766679763794,14.0,88112.0,7081.0,1954.0,5.0
2.6065833568573,13.0,149632.0,12208.0,1679.0,509.0
2.6094000339508057,16.0,249088.0,17028.0,1848.0,800.0
2.612283229827881,20.0,308416.0,17636.0,2855.0,1091.0
2.6150999069213867,34.0,347520.0,17848.0,2975.0,10.0
2.6179165840148926,38.0,460224.0,27148.0,3096.0,1388.0
2.6207332611083984,41.0,548096.0,27752.0,2292.0,1478.0
2.6235499382019043,66.0,579328.0,23412.0,6064.0,35.0
2.62636661529541,56.0,669952.0,30540.0,8792.0,1960.0
2.6292500495910645,46.0,735232.0,39904.0,8061.0,1311.0
2.6320667266845703,31.0,850176.0,46272.0,12584.0,1776.0
2.634883403778076,29.0,910848.0,49264.0,12100.0,3782.0
2.637700080871582,27.0,877568.0,60128.0,10620.0,4634.0
2.640516757965088,30.0,970496.0,59056.0,10140.0,4086.0
2.6433334350585938,30.0,1087488.0,42576.0,14584.0,1914.0
2.646216630935669,34.0,1035520.0,60704.0,14868.0,2621.0
2.649033308029175,39.0,1057024.0,69264.0,13460.0,3328.0
2.6518499851226807,38.0,1082368.0,52016.0,12476.0,4060.0
2.6546666622161865,28.0,1107712.0,56208.0,11492.0,4792.0
2.6574833393096924,21.0,1097472.0,57584.0,12620.0,4720.0
2.6603000164031982,14.0,1094400.0,58960.0,13076.0,4366.0
2.6631667613983154,15.0,1059840.0,53280.0,13536.0,4011.0
2.6659834384918213,283.0,1007360.0,57024.0,11624.0,1141.0
2.668800115585327,152.0,921856.0,36784.0,11228.0,3072.0
2.671616554260254,21.0,769792.0,45024.0,7867.0,828.0
2.6744332313537598,32.0,674560.0,34752.0,10372.0,1897.0
2.6772499084472656,40.0,609024.0,28548.0,4013.0,2212.0
2.68013334274292,36.0,452288.0,19272.0,3258.0,1968.0
2.682950019836426,32.0,353920.0,25672.0,3907.0,1724.0
2.6857666969299316,27.0,284352.0,17920.0,1959.0,1232.0
2.6885833740234375,22.0,206208.0,13980.0,10.0,207.0
2.6914000511169434,11.0,146880.0,6550.0,1214.0,507.0
2.694216728210449,31.0,108992.0,5283.0,1354.0,41.0
2.6970999240875244,25.0,99920.0,2986.0,1143.0,12.0
2.6999166011810303,18.0,66128.0,2303.0,15.0,194.0
2.702733278274536,26.0,37856.0,1284.0,18.0,109.0
2.705549955368042,33.0,32728.0,3550.0,693.0,24.0
2.708366632461548,38.0,23928.0,2812.0,52.0,44.0
2.7111833095550537,16.0,15036.0,1177.0,57.0,22.0
2.714066743850708,10.0,16172.0,80.0,63.0,41.0
2.716883420944214,20.0,13208.0,3037.0,27.0,43.0
2.7197000980377197,21.0,8884.0,1945.0,95.0,10.0
2.7225167751312256,23.0,5727.0,44.0,87.0,11.0
2.7253334522247314,22.0,9628.0,620.0,79.0,40.0
2.728149890899658,21.0,6684.0,937.0,66.0,35.0
2.7310333251953125,46.0,5935.0,42.0,34.0,20.0
2.7338500022888184,67.0,6120.0,18.0,72.0,6.0
2.736666679382324,61.0,6347.0,31.0,79.0,44.0
2.73948335647583,55.0,2104.0,30.0,59.0,16.0
2.742300033569336,36.0,4847.0,725.0,40.0,30.0
2.745116710662842,57.0,3886.0,436.0,42.0,41.0
2.74798321723938,35.0,3211.0,147.0,19.0,35.0
2.7507998943328857,12.0,4682.0,23.0,14.0,28.0
2.7536165714263916,38.0,4253.0,57.0,10.0,34.0
2.7564332485198975,26.0,3824.0,508.0,53.0,34.0
2.7592499256134033,27.0,4199.0,418.0,55.0,34.0
2.762066602706909,28.0,4354.0,24.0,29.0,32.0
2.7649500370025635,22.0,5298.0,30.0,34.0,30.0
2.7677667140960693,24.0,6242.0,35.0,5.0,10.0
2.770583391189575,25.0,2654.0,27.0,49.0,43.0
2.773400068283081,17.0,2513.0,20.0,40.0,24.0
2.776216745376587,6.0,4877.0,13.0,20.0,15.0
2.7790334224700928,35.0,4809.0,18.0,35.0,18.0
2.781916618347168,27.0,2547.0,23.0,49.0,19.0
2.784733295440674,20.0,1942.0,17.0,33.0,28.0
2.7875499725341797,33.0,2524.0,12.0,63.0,542.0
2.7903666496276855,46.0,486.0,10.0,504.0,597.0
2.7931833267211914,41.0,1290.0,22.0,464.0,651.0
2.7960000038146973,12.0,1973.0,16.0,248.0,10.0
2.7988834381103516,7.0,2656.0,11.0,31.0,225.0
2.8017001152038574,5.0,2398.0,15.0,28.0,121.0
2.8045332431793213,0.0,2119.0,19.0,24.0,16.0
2.807349920272827,15.0,1840.0,17.0,33.0,37.0
2.810166597366333,27.0,2037.0,17.0,243.0,179.0
2.812983274459839,34.0,756.0,18.0,140.0,94.0
2.815816640853882,80.0,1365.0,33.0,37.0,10.0
2.8186333179473877,75.0,1157.0,22.0,5.0,18.0
2.8214666843414307,64.0,950.0,10.0,15.0,38.0
2.8242833614349365,52.0,1063.0,7.0,33.0,2100.0
2.8271000385284424,27.0,537.0,5.0,51.0,1797.0
2.8299167156219482,58.0,11.0,43.0,518.0,964.0
2.832750082015991,34.0,914.0,35.0,1050.0,1160.0
2.835566759109497,25.0,1497.0,6.0,534.0,61.0
2.838383436203003,30.0,918.0,31.0,18.0,1480.0
2.841200113296509,28.0,3051.0,54.0,504.0,1312.0
2.8440165519714355,26.0,2659.0,46.0,807.0,77.0
2.8468332290649414,17.0,2031.0,37.0,14.0,33.0
2.8497166633605957,38.0,1192.0,25.0,162.0,35.0
2.8525333404541016,29.0,21.0,45.0,92.0,16.0
2.8553500175476074,20.0,624.0,15.0,22.0,1163.0
2.8581666946411133,5.0,1534.0,20.0,19.0,1290.0
2.860983371734619,30.0,2256.0,26.0,15.0,1418.0
2.863800048828125,23.0,1591.0,30.0,23.0,34.0
2.8666832447052,15.0,925.0,11.0,32.0,856.0
2.869499921798706,12.0,416.0,33.0,27.0,1097.0
2.872316598892212,10.0,624.0,762.0,31.0,836.0
2.8751332759857178,80.0,832.0,841.0,36.0,668.0
2.8779499530792236,48.0,272.0,15.0,41.0,28.0
2.8807666301727295,15.0,841.0,826.0,18.0,89.0
2.883650064468384,34.0,1409.0,963.0,32.0,31.0
2.8864667415618896,11.0,1308.0,480.0,21.0,39.0
2.8892834186553955,12.0,4257.0,1202.0,10.0,4939.0
2.8921000957489014,17.0,11244.0,16468.0,2340.0,7173.0
2.8949167728424072,15.0,30204.0,28692.0,4123.0,14352.0
2.897733449935913,13.0,53840.0,55968.0,8188.0,37056.0
2.900583267211914,22.0,128144.0,118736.0,16684.0,65248.0
2.90339994430542,22.0,244288.0,259328.0,27552.0,120992.0
2.906216621398926,10.0,445440.0,380928.0,60096.0,215488.0
2.9090332984924316,19.0,764672.0,658688.0,69984.0,350272.0
2.9118499755859375,34.0,1045248.0,846336.0,91888.0,517248.0
2.9146666526794434,27.0,1429760.0,1261568.0,148928.0,614656.0
2.9175500869750977,21.0,1696000.0,1325056.0,173504.0,756992.0
2.9203667640686035,13.0,2072832.0,1764352.0,203968.0,924160.0
2.9231834411621094,5.0,2483200.0,1987584.0,213952.0,1108224.0
2.9260001182556152,40.0,2650112.0,2050816.0,224192.0,1139968.0
2.928816556930542,1181.0,2721792.0,2400256.0,274496.0,1271552.0
2.931633234024048,855.0,3115008.0,2617344.0,287360.0,1431808.0
2.934516668319702,530.0,3309568.0,2744320.0,302464.0,1409280.0
2.937333345413208,26.0,3484672.0,2950144.0,324032.0,1527040.0
2.940150022506714,366.0,3721216.0,3160064.0,357824.0,1644800.0
2.9429666996002197,423.0,3927040.0,3281920.0,339648.0,1666048.0
2.9457833766937256,481.0,4062208.0,3175424.0,335872.0,1546240.0
2.9486000537872314,677.0,4226048.0,3246080.0,327424.0,1665536.0
2.9514334201812744,128.0,4020224.0,3316736.0,365440.0,1574400.0
2.9542500972747803,400.0,4105216.0,3308544.0,375040.0,1590016.0
2.957066774368286,242.0,3866624.0,3106816.0,370368.0,1605632.0
2.959883451461792,84.0,3926016.0,3113984.0,319552.0,1507840.0
2.9626998901367188,683.0,3631104.0,2777088.0,304896.0,1442304.0
2.9655165672302246,419.0,3293184.0,2675712.0,289216.0,1447680.0
2.968400001525879,155.0,3240960.0,2476032.0,288256.0,1147136.0
2.9712166786193848,82.0,2957312.0,2422784.0,271744.0,1181184.0
2.9740333557128906,101.0,2633728.0,2082048.0,253120.0,1167616.0
2.9768500328063965,120.0,2457600.0,2002432.0,200000.0,936448.0
2.9796667098999023,122.0,2046976.0,1652480.0,172992.0,875008.0
2.982483386993408,123.0,1754112.0,1361152.0,163520.0,669952.0
2.9853665828704834,89.0,1562112.0,1191424.0,128720.0,563968.0
2.9881832599639893,54.0,1285376.0,1027328.0,107168.0,470016.0
2.990999937057495,512.0,1058816.0,818176.0,86288.0,398080.0
2.993816614151001,971.0,779520.0,646400.0,77040.0,296000.0
2.996633291244507,2403.0,652032.0,465216.0,55984.0,238848.0
2.9994499683380127,2582.0,530944.0,385216.0,31888.0,186880.0
3.0012500286102295,971.0,420736.0,381184.0,37856.0,160704.0
3.00231671333313,90.0,348736.0,313856.0,27104.0,128240.0
3.0034000873565674,120.0,374720.0,265984.0,32676.0,140608.0
3.004499912261963,251.0,314688.0,262912.0,30896.0,132416.0
3.0055665969848633,118.0,287808.0,240000.0,31976.0,139264.0
3.006649971008301,1037.0,296512.0,236608.0,21848.0,112032.0
3.0077333450317383,1080.0,253184.0,188032.0,28512.0,101360.0
3.008816719055176,56.0,256128.0,174016.0,25768.0,84768.0
3.0099167823791504,133.0,194624.0,173056.0,18452.0,100000.0
3.0109832286834717,803.0,203136.0,156288.0,21984.0,83680.0
3.012066602706909,48.0,201664.0,166208.0,21504.0,69136.0
3.013166666030884,85.0,191104.0,126816.0,15612.0,73360.0
3.014233350753784,99.0,161664.0,127072.0,14268.0,67296.0
3.0153167247772217,82.0,164736.0,136192.0,15324.0,57552.0
3.016400098800659,64.0,149312.0,118720.0,16268.0,64320.0
3.0174832344055176,46.0,137344.0,126000.0,16520.0,62128.0
3.0186333656311035,51.0,120080.0,116960.0,9344.0,55536.0
3.019716739654541,44.0,152576.0,116480.0,7594.0,39456.0
3.0208001136779785,37.0,140800.0,96416.0,9412.0,50112.0
3.021883249282837,71.0,123488.0,91552.0,11668.0,46048.0
3.0229666233062744,493.0,117952.0,116480.0,10888.0,41984.0
3.024049997329712,873.0,130992.0,99216.0,10108.0,48208.0
3.0251333713531494,1074.0,109824.0,77808.0,12376.0,52672.0
3.026216745376587,115.0,96992.0,85680.0,9560.0,34928.0
3.0272998809814453,752.0,101344.0,77296.0,5223.0,54912.0
3.028383255004883,66.0,87312.0,94720.0,6983.0,26780.0
3.0294666290283203,159.0,101536.0,92800.0,5543.0,36416.0
3.030550003051758,251.0,88624.0,74832.0,6035.0,42768.0
3.0316333770751953,34.0,66832.0,73440.0,6527.0,31760.0
3.032716751098633,49.0,70864.0,47056.0,6957.0,27456.0
3.033799886703491,54.0,83232.0,80128.0,3853.0,28944.0
3.03493332862854,59.0,74080.0,53328.0,2687.0,30376.0
3.0360333919525146,86.0,74720.0,56288.0,6342.0,27440.0
3.037116765975952,63.0,73072.0,66080.0,5353.0,24504.0
3.0381999015808105,40.0,70912.0,62400.0,4363.0,24072.0
3.039283275604248,80.0,52608.0,55472.0,4672.0,25512.0
3.0403666496276855,17.0,78032.0,40304.0,3625.0,24948.0
3.041450023651123,32.0,67392.0,51520.0,4247.0,19316.0
3.0425333976745605,17.0,48144.0,59280.0,4869.0,20400.0
3.043616771697998,34.0,66256.0,58064.0,3581.0,23700.0
3.0446999073028564,51.0,50336.0,51280.0,4719.0,18588.0
3.045783281326294,46.0,48448.0,35520.0,2237.0,29256.0
3.0468666553497314,1079.0,54896.0,35888.0,3613.0,31112.0
3.047950029373169,1070.0,56256.0,50224.0,4988.0,17700.0
3.0490334033966064,0.0,44448.0,33856.0,6146.0,21444.0
3.050116777420044,54.0,53216.0,40432.0,6004.0,19096.0
3.0511999130249023,56.0,47760.0,30872.0,3340.0,20240.0
3.0523500442504883,37.0,49856.0,31280.0,3897.0,16380.0
3.053433418273926,52.0,45488.0,34512.0,3572.0,20108.0
3.054516553878784,51.0,42448.0,37744.0,1048.0,17476.0
3.0555999279022217,29.0,37312.0,38848.0,5917.0,13348.0
3.056683301925659,21.0,33952.0,26876.0,5666.0,17692.0
3.0577666759490967,10.0,38656.0,38592.0,5013.0,15588.0
3.058850049972534,17.0,26072.0,26532.0,2338.0,13592.0
3.0599334239959717,24.0,37104.0,25740.0,1711.0,14012.0
3.06101655960083,18.0,31940.0,41104.0,3412.0,13776.0
3.0620999336242676,12.0,38336.0,28768.0,1852.0,12660.0
3.063183307647705,11.0,32512.0,21564.0,3201.0,15748.0
3.0642666816711426,5.0,32484.0,17460.0,3705.0,10408.0
3.06535005569458,10.0,32460.0,24640.0,4208.0,6626.0
3.0664334297180176,14.0,31332.0,22016.0,3523.0,13628.0
3.067516565322876,29.0,30204.0,19452.0,2837.0,10872.0
3.0685999393463135,44.0,26556.0,23924.0,2959.0,11228.0
3.0697333812713623,31.0,24908.0,25548.0,2740.0,9812.0
3.0708167552948,18.0,28604.0,18828.0,2567.0,9352.0
3.071899890899658,46.0,27136.0,19560.0,2395.0,9128.0
3.0729832649230957,11.0,24860.0,19868.0,2665.0,5878.0
3.074066638946533,41.0,27188.0,20940.0,2936.0,7919.0
3.0751500129699707,43.0,27312.0,22680.0,2200.0,9960.0
3.076233386993408,30.0,23452.0,16740.0,1464.0,11336.0
3.077333450317383,18.0,28592.0,17192.0,2764.0,12712.0
3.078399896621704,16.0,19792.0,19016.0,517.0,12336.0
3.0794832706451416,36.0,25000.0,20496.0,1090.0,10476.0
3.080566644668579,60.0,27396.0,18496.0,1998.0,9936.0
3.0816500186920166,57.0,23032.0,16492.0,1472.0,5255.0
3.082733392715454,54.0,20344.0,21544.0,853.0,10128.0
3.0838167667388916,43.0,23888.0,18728.0,1811.0,11376.0
3.08489990234375,12.0,22628.0,15912.0,1007.0,11908.0
3.086050033569336,70.0,21372.0,17152.0,2209.0,12772.0
3.0871334075927734,80.0,22460.0,16380.0,1538.0,11668.0
3.088216781616211,31.0,23548.0,15320.0,1583.0,10564.0
3.0892999172210693,81.0,19420.0,15788.0,1628.0,10344.0
3.090383291244507,25.0,21744.0,16256.0,1139.0,4564.0
3.0914666652679443,31.0,16356.0,17324.0,650.0,4856.0
3.092550039291382,64.0,20224.0,17084.0,2534.0,10552.0
3.0936334133148193,90.0,20436.0,16848.0,3968.0,6498.0
3.0947165489196777,76.0,24772.0,15568.0,2831.0,8065.0
3.0957999229431152,69.0,22412.0,14288.0,3582.0,9632.0
3.0968832969665527,56.0,20052.0,15780.0,1970.0,9268.0
3.0979666709899902,40.0,17248.0,18160.0,3690.0,8904.0
3.0990500450134277,27.0,19512.0,21020.0,42.0,7657.0
3.1001334190368652,51.0,23540.0,21432.0,703.0,6905.0
3.1012165546417236,57.0,21648.0,15028.0,2982.0,11100.0
3.102299928665161,31.0,19756.0,13144.0,695.0,12200.0
3.103450059890747,5.0,24932.0,10216.0,2204.0,9116.0
3.1045334339141846,56.0,16732.0,15348.0,2106.0,8680.0
3.105616569519043,60.0,20160.0,15776.0,927.0,9508.0
3.1066999435424805,31.0,23648.0,16200.0,2678.0,8200.0
3.107783317565918,37.0,21344.0,12756.0,2767.0,5714.0
3.1088666915893555,15.0,16304.0,20732.0,2235.0,4156.0
3.109950065612793,31.0,25060.0,22216.0,2537.0,8528.0
3.1110334396362305,20.0,20360.0,17540.0,1471.0,5898.0
3.112116575241089,30.0,23992.0,10420.0,2313.0,6878.0
3.1131999492645264,32.0,16068.0,10240.0,384.0,7858.0
3.114283323287964,35.0,12536.0,15764.0,2690.0,6403.0
3.1153666973114014,25.0,16080.0,13960.0,1455.0,4949.0
3.116450071334839,15.0,18604.0,14508.0,1935.0,6757.0
3.1175334453582764,17.0,18028.0,15680.0,1526.0,7428.0
3.1186165809631348,18.0,17456.0,16848.0,710.0,8098.0
3.1197333335876465,35.0,13808.0,16560.0,294.0,9280.0
3.120833396911621,33.0,15356.0,16080.0,522.0,4776.0
3.1219167709350586,31.0,17660.0,15604.0,749.0,11468.0
3.122999906539917,37.0,14900.0,12348.0,806.0,5066.0
3.1240832805633545,36.0,15392.0,12388.0,42.0,11820.0
3.125166654586792,34.0,15164.0,11636.0,31.0,3414.0
3.1262500286102295,20.0,16044.0,5341.0,181.0,5835.0
3.127333402633667,31.0,16920.0,17804.0,332.0,7661.0
3.1284167766571045,42.0,17984.0,14184.0,832.0,1399.0
3.129499912261963,43.0,11516.0,12388.0,1222.0,9588.0
3.1305832862854004,9.0,17052.0,16176.0,1612.0,7003.0
3.131683349609375,18.0,14520.0,15860.0,1013.0,2404.0
3.1327500343322754,46.0,16512.0,13664.0,414.0,3454.0
3.133833408355713,34.0,10492.0,7364.0,1085.0,5491.0
3.1349167823791504,22.0,15436.0,17884.0,1563.0,4670.0
3.135999917984009,17.0,15572.0,7636.0,2616.0,5022.0
3.1371500492095947,12.0,11320.0,13888.0,2730.0,2424.0
3.1382334232330322,19.0,9420.0,8580.0,590.0,1720.0
3.1393165588378906,25.0,8676.0,7507.0,32.0,2854.0
3.140399932861328,26.0,9288.0,6027.0,604.0,3454.0
3.1414833068847656,26.0,5521.0,7221.0,304.0,3102.0
3.142566680908203,16.0,4041.0,3096.0,5.0,1077.0
3.1436500549316406,5.0,7140.0,3500.0,18.0,1911.0
3.144733428955078,31.0,2832.0,2976.0,30.0,1172.0
3.1458165645599365,45.0,3306.0,4099.0,53.0,1202.0
3.146899938583374,33.0,6111.0,4585.0,114.0,609.0
3.1479833126068115,44.0,3152.0,4322.0,75.0,16.0
3.149066686630249,69.0,599.0,1435.0,36.0,981.0
3.1501500606536865,66.0,2272.0,1499.0,26.0,378.0
3.151233434677124,25.0,2608.0,16.0,25.0,368.0
3.1523165702819824,10.0,2298.0,1651.0,25.0,773.0
3.15339994430542,23.0,505.0,830.0,38.0,619.0
3.154550075531006,24.0,1261.0,8.0,33.0,465.0
3.1556334495544434,24.0,1567.0,1900.0,28.0,1775.0
3.1567165851593018,5.0,903.0,23.0,24.0,1563.0
3.1577999591827393,22.0,1669.0,782.0,21.0,39.0
3.1588833332061768,683.0,2129.0,11.0,18.0,26.0
3.1599667072296143,349.0,718.0,1074.0,11.0,1020.0
3.1610500812530518,15.0,603.0,504.0,5.0,11.0
3.16213321685791,50.0,825.0,1448.0,48.0,55.0
3.1632165908813477,30.0,1266.0,1135.0,38.0,721.0
3.164299964904785,30.0,1943.0,31.0,40.0,885.0
3.1653833389282227,29.0,1733.0,2218.0,42.0,455.0
3.16646671295166,7.0,1522.0,1004.0,28.0,25.0
3.1675500869750977,38.0,1491.0,209.0,15.0,620.0
3.168633222579956,57.0,57.0,1348.0,29.0,570.0
3.1697165966033936,68.0,1887.0,30.0,42.0,542.0
3.1708667278289795,82.0,17.0,803.0,35.0,514.0
3.17193341255188,9.0,341.0,1078.0,27.0,425.0
3.1730165481567383,20.0,666.0,552.0,10.0,256.0
3.174116611480713,54.0,1032.0,1386.0,27.0,23.0
3.1751832962036133,34.0,1392.0,45.0,61.0,27.0
3.176266670227051,27.0,1411.0,1621.0,70.0,31.0
3.1773500442504883,33.0,1430.0,1645.0,48.0,29.0
3.178433418273926,27.0,1897.0,1136.0,25.0,26.0
3.179516553878784,22.0,2243.0,893.0,0.0,1694.0
3.1805999279022217,27.0,2527.0,1105.0,27.0,1363.0
3.181683301925659,16.0,2301.0,1406.0,14.0,230.0
3.1827666759490967,5.0,21.0,211.0,0.0,14.0
3.183850049972534,17.0,1008.0,10.0,32.0,1244.0
3.184950113296509,28.0,1236.0,156.0,65.0,26.0
3.18601655960083,37.0,746.0,302.0,50.0,17.0
3.1871166229248047,33.0,2497.0,10.0,51.0,0.0
3.1882166862487793,27.0,2555.0,847.0,35.0,14.0
3.189300060272217,18.0,2854.0,461.0,18.0,12.0
3.1903834342956543,15.0,11.0,76.0,40.0,11.0
3.1914665699005127,19.0,991.0,923.0,30.0,33.0
3.19254994392395,10.0,761.0,505.0,20.0,22.0
3.1936333179473877,24.0,2613.0,86.0,0.0,12.0
3.194716691970825,37.0,3186.0,12.0,35.0,22.0
3.1958000659942627,34.0,24.0,994.0,52.0,19.0
3.1968834400177,20.0,784.0,509.0,33.0,33.0
3.1979665756225586,5.0,38.0,24.0,45.0,29.0
3.199049949645996,24.0,967.0,26.0,56.0,25.0
