,301.2099914550781,302.2099914550781,303.2099914550781,304.2099914550781,305.2099914550781,306.2099914550781,307.2099914550781,308.2099914550781
5.202199935913086,44.0,25.0,2328.0,684.0,31.0,16.0,18.0,20.0
5.204366683959961,5.0,51.0,4371.0,106.0,0.0,10.0,261.0,12.0
5.207833290100098,36.0,10.0,1463.0,1907.0,19.0,56.0,82.0,23.0
5.211299896240234,18.0,10.0,858.0,37.0,31.0,5.0,30.0,16.0
5.214766502380371,5.0,52.0,2950.0,694.0,42.0,18.0,5.0,10.0
5.218233108520508,40.0,32.0,2399.0,947.0,899.0,32.0,17.0,428.0
5.221766471862793,5.0,10.0,969.0,1253.0,915.0,11.0,30.0,433.0
5.225233554840088,12.0,45.0,2723.0,41.0,60.0,9.0,24.0,7.0
5.228700160980225,27.0,47.0,1405.0,44.0,30.0,8.0,18.0,26.0
5.232166767120361,28.0,32.0,1840.0,94.0,23.0,13.0,24.0,17.0
5.235633373260498,28.0,17.0,1964.0,17.0,19.0,5.0,19.0,14.0
5.239166736602783,0.0,15.0,80.0,26.0,16.0,11.0,15.0,10.0
5.24263334274292,5.0,34.0,526.0,37.0,40.0,18.0,18.0,20.0
5.246099948883057,5.0,32.0,19.0,36.0,25.0,14.0,22.0,20.0
5.249566555023193,25.0,22.0,618.0,27.0,11.0,10.0,27.0,23.0
5.253049850463867,12.0,36.0,29.0,16.0,34.0,22.0,42.0,21.0
5.256516456604004,0.0,33.0,46.0,5.0,35.0,78.0,0.0,20.0
5.259983539581299,17.0,30.0,462.0,15.0,0.0,69.0,11.0,8.0
5.2634501457214355,14.0,49.0,98.0,13.0,15.0,49.0,19.0,26.0
5.266916751861572,11.0,34.0,50.0,12.0,16.0,15.0,12.0,19.0
5.270450115203857,36.0,18.0,26.0,20.0,37.0,8.0,5.0,11.0
5.273916721343994,28.0,24.0,17.0,24.0,37.0,36.0,11.0,5.0
5.277383327484131,21.0,30.0,18.0,16.0,5.0,30.0,0.0,18.0
5.280849933624268,16.0,5.0,29.0,9.0,26.0,29.0,9.0,18.0
5.284316539764404,18.0,16.0,37.0,13.0,35.0,39.0,17.0,16.0
5.287833213806152,20.0,27.0,39.0,17.0,43.0,34.0,15.0,14.0
5.291299819946289,27.0,17.0,10.0,28.0,27.0,29.0,78.0,22.0
5.294783115386963,21.0,11.0,32.0,30.0,10.0,43.0,59.0,15.0
5.298250198364258,15.0,5.0,26.0,38.0,43.0,5.0,40.0,8.0
5.3017168045043945,17.0,32.0,5.0,46.0,36.0,0.0,20.0,22.0
5.30525016784668,20.0,25.0,38.0,33.0,46.0,23.0,5.0,51.0
5.308716773986816,34.0,19.0,20.0,20.0,56.0,0.0,17.0,64.0
5.312183380126953,30.0,0.0,17.0,39.0,22.0,12.0,62.0,80.0
5.31564998626709,26.0,18.0,45.0,22.0,28.0,38.0,68.0,74.0
5.319116592407227,26.0,22.0,0.0,5.0,50.0,49.0,74.0,68.0
5.322633266448975,27.0,27.0,0.0,21.0,38.0,60.0,35.0,50.0
5.326099872589111,25.0,5.0,6.0,37.0,26.0,32.0,16.0,31.0
5.329566478729248,11.0,9.0,13.0,106.0,27.0,5.0,8.0,34.0
5.333033561706543,34.0,14.0,17.0,100.0,29.0,49.0,0.0,41.0
5.33650016784668,36.0,32.0,21.0,27.0,5.0,33.0,20.0,47.0
5.340033531188965,35.0,28.0,35.0,24.0,25.0,16.0,0.0,17.0
5.343500137329102,30.0,24.0,40.0,21.0,45.0,35.0,5.0,26.0
5.346966743469238,29.0,31.0,23.0,206.0,31.0,34.0,10.0,31.0
5.350433349609375,29.0,38.0,0.0,110.0,1586.0,28.0,39.0,30.0
5.353899955749512,31.0,25.0,8.0,14.0,1522.0,20.0,53.0,29.0
5.357433319091797,20.0,11.0,17.0,15.0,20.0,16.0,26.0,35.0
5.360899925231934,33.0,15.0,9.0,12.0,663.0,28.0,27.0,30.0
5.36436653137207,44.0,16.0,34.0,34.0,1240.0,26.0,10.0,25.0
5.367833137512207,35.0,8.0,36.0,48.0,56.0,30.0,17.0,0.0
5.371333122253418,26.0,0.0,21.0,62.0,265.0,43.0,32.0,40.0
5.374833106994629,9.0,27.0,39.0,10.0,31.0,41.0,10.0,27.0
5.378300189971924,31.0,33.0,5.0,0.0,23.0,38.0,5.0,40.0
5.3817667961120605,12.0,33.0,10.0,75.0,14.0,34.0,20.0,10.0
5.385233402252197,28.0,21.0,15.0,19.0,22.0,5.0,22.0,61.0
5.388750076293945,88.0,10.0,528.0,25.0,30.0,42.0,25.0,73.0
5.392216682434082,50.0,34.0,594.0,32.0,29.0,62.0,18.0,42.0
5.395683288574219,13.0,39.0,47.0,598.0,28.0,48.0,23.0,42.0
5.3991498947143555,56.0,977.0,1164.0,727.0,743.0,635.0,28.0,13.0
5.402616500854492,45.0,1035.0,5486.0,856.0,4099.0,567.0,595.0,14.0
5.406149864196777,40.0,3026.0,7907.0,9016.0,12204.0,5061.0,4439.0,167.0
5.409616470336914,28.0,9932.0,33120.0,38544.0,23960.0,14004.0,8320.0,1076.0
5.413083553314209,29.0,24804.0,64416.0,86352.0,59936.0,46928.0,14680.0,2176.0
5.416550159454346,31.0,74688.0,151168.0,180352.0,172672.0,86480.0,46848.0,6169.0
5.420016765594482,34.0,141056.0,315776.0,390016.0,307456.0,188800.0,67296.0,19260.0
5.423550128936768,50.0,224960.0,530688.0,599040.0,457664.0,266176.0,127488.0,22240.0
5.427016735076904,39.0,324224.0,740864.0,931328.0,724736.0,416576.0,196736.0,30776.0
5.430483341217041,29.0,507712.0,1102848.0,1196544.0,1025536.0,549376.0,210880.0,55920.0
5.433949947357178,25.0,587264.0,1320448.0,1509376.0,1163776.0,728832.0,272768.0,56640.0
5.4374165534973145,21.0,703232.0,1495808.0,1800704.0,1479168.0,803584.0,310592.0,70560.0
5.4409499168396,84.0,763904.0,1693952.0,1873664.0,1498624.0,791040.0,325824.0,73152.0
5.444416522979736,293.0,842496.0,1716992.0,1822976.0,1547776.0,802560.0,326144.0,67376.0
5.447883129119873,197.0,804352.0,1780992.0,1820160.0,1525760.0,764416.0,332800.0,76736.0
5.451366901397705,101.0,724224.0,1535232.0,1817344.0,1466880.0,743936.0,282816.0,62656.0
5.454833507537842,47.0,666112.0,1419776.0,1562624.0,1206528.0,694784.0,245888.0,58800.0
5.45835018157959,81.0,590336.0,1233152.0,1422336.0,1131776.0,556544.0,225408.0,50128.0
5.461816787719727,116.0,506048.0,1092352.0,1121792.0,955904.0,527360.0,187328.0,28248.0
5.465283393859863,73.0,423744.0,873984.0,989184.0,768256.0,407232.0,144000.0,26960.0
5.46875,98.0,308864.0,668416.0,777216.0,645376.0,306432.0,116848.0,19304.0
5.472216606140137,123.0,248384.0,553472.0,630272.0,495936.0,268224.0,92080.0,21856.0
5.475749969482422,112.0,185152.0,378368.0,462848.0,345344.0,174592.0,60848.0,13176.0
5.479216575622559,100.0,139840.0,302144.0,367040.0,243520.0,150528.0,45792.0,7273.0
5.482683181762695,72.0,99776.0,262080.0,259712.0,205056.0,89120.0,36400.0,5211.0
5.486149787902832,93.0,62512.0,151936.0,160320.0,155968.0,73296.0,20768.0,6818.0
5.489616870880127,79.0,48736.0,124656.0,132672.0,82704.0,51488.0,17596.0,4394.0
5.493100166320801,35.0,43824.0,84608.0,95872.0,77808.0,34256.0,16028.0,2929.0
5.4965667724609375,45.0,28136.0,74688.0,61376.0,48800.0,28556.0,7517.0,4189.0
5.500033378601074,55.0,28840.0,56288.0,57856.0,53712.0,23904.0,10444.0,933.0
5.503499984741211,56.0,20760.0,46752.0,66192.0,33056.0,27132.0,12384.0,4155.0
5.507033348083496,58.0,20792.0,49360.0,57856.0,56704.0,22116.0,3006.0,2358.0
5.510499954223633,26.0,18936.0,43664.0,50496.0,38560.0,15880.0,5294.0,898.0
5.5139665603637695,34.0,17320.0,41472.0,50112.0,44528.0,23380.0,6785.0,1970.0
5.517433166503906,47.0,15708.0,46080.0,52240.0,47344.0,8988.0,8772.0,26.0
5.520899772644043,60.0,20724.0,44160.0,39888.0,47072.0,22852.0,7609.0,1942.0
5.524433135986328,47.0,11536.0,33440.0,48256.0,29364.0,13712.0,5305.0,977.0
5.527900218963623,35.0,18780.0,38400.0,36160.0,35456.0,25732.0,6669.0,2025.0
5.53136682510376,80.0,20300.0,27600.0,31680.0,26500.0,13724.0,7209.0,0.0
5.5348334312438965,96.0,16060.0,27132.0,25288.0,25984.0,8396.0,2644.0,873.0
5.538300037384033,25.0,10392.0,27600.0,29256.0,22556.0,12948.0,3381.0,55.0
5.541816711425781,10.0,7119.0,26328.0,22584.0,22468.0,11396.0,3328.0,1182.0
5.545283317565918,12.0,6352.0,25052.0,21668.0,18584.0,6327.0,3744.0,1131.0
5.548749923706055,6.0,7488.0,16388.0,26424.0,17132.0,9788.0,1742.0,1081.0
5.552216529846191,19.0,7742.0,11096.0,23124.0,16600.0,4853.0,1667.0,37.0
5.555683135986328,10.0,7995.0,17416.0,17820.0,14348.0,7652.0,1591.0,829.0
5.559216499328613,0.0,2213.0,12144.0,16124.0,10780.0,6799.0,1997.0,428.0
5.56268310546875,27.0,7333.0,17096.0,16784.0,16196.0,4918.0,2403.0,26.0
5.566150188446045,24.0,6149.0,24612.0,37008.0,33008.0,16756.0,3288.0,35.0
5.569616794586182,49.0,17264.0,43712.0,48416.0,53696.0,38432.0,12596.0,44.0
5.573083400726318,33.0,42400.0,111296.0,148096.0,135744.0,70048.0,19604.0,9280.0
5.5766167640686035,16.0,108320.0,207552.0,350848.0,277568.0,183168.0,43824.0,14456.0
5.58008337020874,17.0,180480.0,448832.0,612352.0,495104.0,305408.0,100352.0,15780.0
5.583549976348877,30.0,344704.0,734208.0,980224.0,898048.0,532480.0,170048.0,32724.0
5.587016582489014,71.0,458688.0,1001984.0,1361920.0,1081088.0,689152.0,209920.0,49200.0
5.59048318862915,60.0,624640.0,1379072.0,1882880.0,1556224.0,840960.0,276160.0,56128.0
5.593999862670898,56.0,776192.0,1668608.0,2214912.0,1865216.0,1019136.0,339968.0,78160.0
