,245.0800018310547,246.0800018310547,247.0800018310547,248.0800018310547
2.1012165546417236,0.0,39.0,16.0,8.0
2.1025166511535645,85.0,0.0,15.0,703.0
2.1048998832702637,54.0,8.0,47.0,905.0
2.107283353805542,58.0,49.0,49.0,22.0
2.1097166538238525,24.0,91.0,17.0,33.0
2.1120998859405518,24.0,82.0,5.0,30.0
2.11448335647583,23.0,5.0,17.0,25.0
2.1168665885925293,35.0,88.0,5.0,19.0
2.1192500591278076,10.0,12.0,12.0,13.0
2.121633291244507,25.0,50.0,34.0,23.0
2.124016761779785,41.0,22.0,54.0,16.0
2.126466751098633,38.0,19.0,37.0,10.0
2.128849983215332,34.0,12.0,37.0,6.0
2.1312332153320312,6.0,12.0,18.0,22.0
2.1336166858673096,35.0,12.0,9.0,29.0
2.135999917984009,49.0,0.0,0.0,35.0
2.138383388519287,53.0,5.0,21.0,34.0
2.1407666206359863,41.0,11.0,6.0,32.0
2.143216609954834,0.0,17.0,8.0,31.0
2.1456000804901123,47.0,22.0,5.0,26.0
2.1479833126068115,38.0,24.0,6.0,21.0
2.15036678314209,27.0,25.0,10.0,29.0
2.152750015258789,42.0,19.0,5.0,40.0
2.1551332473754883,29.0,13.0,0.0,51.0
2.1575167179107666,16.0,22.0,6.0,0.0
2.15993332862854,29.0,34.0,12.0,15.0
2.1623165607452393,42.0,885.0,21.0,29.0
2.1647000312805176,32.0,728.0,29.0,0.0
2.167083263397217,31.0,0.0,45.0,8.0
2.169466733932495,17.0,16.0,43.0,17.0
2.1718499660491943,10.0,10.0,41.0,514.0
2.1742334365844727,17.0,22.0,45.0,745.0
2.176650047302246,26.0,22.0,29.0,976.0
2.1790332794189453,37.0,21.0,20.0,60.0
2.1814167499542236,24.0,36.0,18.0,474.0
2.183799982070923,12.0,20.0,14.0,888.0
2.186183214187622,24.0,5.0,11.0,1172.0
2.1885666847229004,34.0,46.0,15.0,399.0
2.1909499168395996,33.0,38.0,24.0,705.0
2.193366765975952,35.0,30.0,34.0,1012.0
2.1957499980926514,42.0,29.0,42.0,918.0
2.1981332302093506,6.0,28.0,32.0,1237.0
2.200516700744629,10.0,14.0,22.0,639.0
2.202899932861328,22.0,0.0,20.0,42.0
2.2052834033966064,0.0,8.0,10.0,56.0
2.2076666355133057,24.0,17.0,0.0,41.0
2.210083246231079,18.0,37.0,9.0,6.0
2.2124667167663574,12.0,33.0,18.0,3.0
2.2148499488830566,16.0,5.0,26.0,0.0
2.217233419418335,13.0,0.0,19.0,11.0
2.219616651535034,6.0,37.0,12.0,23.0
2.2219998836517334,0.0,46.0,6.0,392.0
2.2243833541870117,15.0,10.0,51.0,867.0
2.226799964904785,21.0,22.0,53.0,1055.0
2.2291834354400635,27.0,54.0,55.0,22.0
2.2315666675567627,25.0,46.0,27.0,23.0
2.233949899673462,25.0,37.0,5.0,62.0
2.2363333702087402,24.0,361.0,21.0,105.0
2.2387166023254395,42.0,190.0,8.0,147.0
2.2411000728607178,41.0,19.0,19.0,1253.0
2.243516683578491,14.0,269.0,18.0,1258.0
2.2458999156951904,15.0,58.0,17.0,37.0
2.2482833862304688,90.0,254.0,5.0,5.0
2.250666618347168,71.0,64.0,28.0,41.0
2.2530500888824463,58.0,5.0,41.0,31.0
2.2554333209991455,51.0,7.0,30.0,0.0
2.2578165531158447,8.0,13.0,33.0,37.0
2.2602334022521973,25.0,12.0,39.0,31.0
2.2626166343688965,58.0,15.0,33.0,24.0
2.265000104904175,42.0,10.0,27.0,40.0
2.267383337020874,25.0,5.0,11.0,5.0
2.2697665691375732,31.0,1373.0,0.0,361.0
2.2721500396728516,37.0,2016.0,12.0,333.0
2.274533271789551,27.0,6585.0,903.0,710.0
2.276949882507324,15.0,19456.0,2839.0,3968.0
2.2793333530426025,35.0,40608.0,5607.0,6985.0
2.2817165851593018,38.0,64768.0,12664.0,20384.0
2.28410005569458,40.0,141824.0,9704.0,43344.0
2.2864832878112793,29.0,232704.0,23932.0,73040.0
2.2888667583465576,19.0,406656.0,38384.0,113920.0
2.291249990463257,31.0,630784.0,51824.0,158720.0
2.2936666011810303,37.0,930048.0,85664.0,217152.0
2.2960500717163086,21.0,1203712.0,106864.0,342592.0
2.298433303833008,24.0,1739008.0,178496.0,421824.0
2.300816774368286,5.0,2099200.0,199488.0,514176.0
2.3032000064849854,16.0,2588672.0,273408.0,578560.0
2.3055832386016846,28.0,2979840.0,288192.0,715520.0
2.307966709136963,40.0,3197952.0,301120.0,813312.0
2.3103833198547363,48.0,3378176.0,290368.0,852992.0
2.3127665519714355,56.0,3699712.0,386880.0,895232.0
2.315150022506714,27.0,4142080.0,370112.0,951808.0
2.317533254623413,41.0,4007936.0,371840.0,1032704.0
2.3199167251586914,32.0,4298752.0,369792.0,1026560.0
2.3222999572753906,38.0,4224000.0,367808.0,1085696.0
2.324683427810669,45.0,4450304.0,375936.0,1049088.0
2.3271000385284424,74.0,4613120.0,384064.0,1057536.0
2.3294832706451416,680.0,4536320.0,406912.0,1091584.0
2.33186674118042,395.0,4496384.0,409216.0,1089280.0
2.334249973297119,110.0,4503552.0,406656.0,1086976.0
2.3366334438323975,102.0,4531200.0,416320.0,1095936.0
2.3390166759490967,68.0,4557824.0,422464.0,1113856.0
2.341399908065796,111.0,4742144.0,443136.0,1139968.0
2.3438000679016113,153.0,4860928.0,447104.0,1179648.0
2.3461833000183105,258.0,5009408.0,455168.0,1158144.0
2.348566770553589,189.0,5173248.0,456704.0,1220096.0
2.350950002670288,121.0,5255168.0,458240.0,1232128.0
2.3533332347869873,109.0,4966400.0,452224.0,1263104.0
2.3557167053222656,97.0,5045248.0,446208.0,1222400.0
2.358099937438965,112.0,5190656.0,451904.0,1222912.0
2.3605499267578125,127.0,5225472.0,463424.0,1223424.0
2.362933397293091,78.0,5224448.0,478208.0,1241088.0
2.36531662940979,29.0,5331968.0,461568.0,1259008.0
2.3677000999450684,396.0,5330944.0,444928.0,1275904.0
2.3700833320617676,217.0,4988928.0,467392.0,1210368.0
2.372466564178467,38.0,4924416.0,425984.0,1178112.0
2.374850034713745,210.0,5098496.0,462784.0,1222912.0
2.3773000240325928,179.0,4919296.0,439296.0,1205760.0
2.379683256149292,147.0,4913152.0,459264.0,1116160.0
2.3820667266845703,110.0,4937728.0,435840.0,1194752.0
2.3844499588012695,73.0,4623360.0,458560.0,1119744.0
2.386833429336548,119.0,4651008.0,434496.0,1096192.0
2.389216661453247,166.0,4299776.0,388416.0,1022464.0
2.3915998935699463,134.0,4416512.0,385216.0,1017856.0
2.394049882888794,101.0,3889152.0,397312.0,940288.0
2.3964333534240723,101.0,4114432.0,355200.0,939264.0
2.3988165855407715,393.0,3694592.0,322560.0,885504.0
2.40120005607605,244.0,3824640.0,335424.0,887808.0
2.403583288192749,94.0,3725312.0,345856.0,839424.0
2.4059667587280273,73.0,3409920.0,305536.0,858880.0
2.4083499908447266,101.0,3358720.0,291904.0,865536.0
2.410749912261963,29.0,3209216.0,313920.0,760576.0
2.413133382797241,315.0,3040256.0,284480.0,763136.0
2.4155333042144775,751.0,2904064.0,268928.0,665088.0
2.417916774749756,949.0,2859008.0,263040.0,625408.0
2.420300006866455,121.0,2770944.0,242816.0,641280.0
2.4226832389831543,84.0,2631680.0,234176.0,648704.0
2.4250667095184326,1153.0,2465792.0,219008.0,599296.0
2.427466630935669,1013.0,2277376.0,206016.0,545280.0
2.4298665523529053,103.0,2104320.0,183616.0,553728.0
2.4322500228881836,372.0,2055936.0,221312.0,463040.0
2.434633255004883,86.0,1857536.0,182336.0,421632.0
2.437016725540161,97.0,1708032.0,161600.0,402432.0
2.4393999576568604,64.0,1521408.0,140096.0,355840.0
2.4417834281921387,71.0,1399040.0,130096.0,342336.0
2.444183349609375,99.0,1152256.0,97584.0,245056.0
2.4465832710266113,76.0,1020160.0,98976.0,243840.0
2.4489667415618896,97.0,861184.0,87376.0,201792.0
2.451349973678589,16.0,739840.0,67760.0,154048.0
2.453733444213867,59.0,594688.0,53504.0,118272.0
2.4561166763305664,25.0,486336.0,37568.0,95664.0
2.4584999084472656,41.0,459584.0,40400.0,100080.0
2.460916757583618,78.0,364928.0,35088.0,87776.0
2.4633333683013916,64.0,318080.0,28328.0,77728.0
2.465716600418091,49.0,268608.0,28280.0,59008.0
2.468100070953369,5.0,214528.0,28944.0,53136.0
2.4704833030700684,50.0,192640.0,18804.0,37184.0
2.4728667736053467,62.0,164672.0,17668.0,42848.0
2.475250005722046,138.0,156736.0,14472.0,36592.0
2.477633237838745,96.0,133056.0,15496.0,28920.0
2.4800500869750977,53.0,133632.0,16888.0,26244.0
2.482433319091797,62.0,97072.0,12156.0,35488.0
2.484816551208496,11.0,87296.0,7009.0,26108.0
2.4872000217437744,25.0,116240.0,11524.0,19984.0
2.4895832538604736,23.0,103248.0,8131.0,23528.0
2.491966724395752,28.0,86320.0,7165.0,22820.0
2.494349956512451,36.0,95712.0,6200.0,23460.0
2.4967665672302246,44.0,89936.0,6606.0,20884.0
2.499150037765503,42.0,60384.0,7013.0,25776.0
2.5008833408355713,52.0,73552.0,3846.0,17808.0
2.5017499923706055,28.0,78624.0,7770.0,18952.0
2.5025999546051025,11.0,64816.0,4323.0,14052.0
2.5034666061401367,5.0,75408.0,5016.0,17724.0
2.504333257675171,0.0,72848.0,6719.0,19016.0
2.505199909210205,32.0,75040.0,4240.0,22968.0
2.5060665607452393,36.0,63360.0,4616.0,22324.0
2.5069334506988525,31.0,77088.0,4537.0,15340.0
2.5078001022338867,25.0,58592.0,4458.0,17024.0
2.508666753768921,5.0,73632.0,5582.0,16892.0
2.509533405303955,39.0,69520.0,6788.0,15052.0
2.5104000568389893,28.0,66496.0,5846.0,16420.0
2.5113167762756348,21.0,54816.0,4903.0,15592.0
2.512200117111206,0.0,76272.0,2093.0,14760.0
2.5130667686462402,18.0,53744.0,3013.0,13856.0
2.5139334201812744,40.0,55360.0,4326.0,8496.0
2.5148000717163086,52.0,47392.0,5431.0,16448.0
2.5156667232513428,68.0,51776.0,5583.0,14140.0
2.516533374786377,57.0,56176.0,3577.0,11252.0
2.517400026321411,45.0,49056.0,1572.0,11280.0
2.5182666778564453,16.0,52144.0,3154.0,9652.0
2.5191333293914795,69.0,55232.0,4736.0,13236.0
2.5199999809265137,50.0,51984.0,3655.0,14096.0
2.520866632461548,0.0,57856.0,5533.0,13628.0
2.521733283996582,10.0,53888.0,5329.0,13316.0
2.522599935531616,39.0,49920.0,3298.0,10612.0
2.5234665870666504,55.0,51920.0,5117.0,12340.0
2.5243332386016846,55.0,46352.0,5528.0,13800.0
2.5251998901367188,24.0,45664.0,5938.0,13024.0
2.526066780090332,40.0,44992.0,2482.0,12708.0
2.526933431625366,49.0,46096.0,5117.0,12388.0
2.5278000831604004,17.0,48688.0,1332.0,7979.0
2.528733253479004,45.0,41088.0,3050.0,11436.0
2.529599905014038,34.0,43408.0,4874.0,14732.0
2.5304665565490723,46.0,36224.0,2445.0,12664.0
2.5313334465026855,0.0,36752.0,4780.0,8976.0
2.5322000980377197,8.0,38816.0,5111.0,8100.0
2.533066749572754,16.0,40880.0,4633.0,6404.0
2.533933401107788,13.0,41360.0,3072.0,8324.0
2.5348000526428223,11.0,41840.0,3705.0,8624.0
2.5356667041778564,28.0,29648.0,2939.0,6987.0
2.5365333557128906,46.0,46656.0,2872.0,9580.0
2.537400007247925,42.0,42352.0,6229.0,9668.0
2.538266658782959,11.0,42848.0,6290.0,8556.0
2.539133310317993,15.0,39616.0,4110.0,7444.0
2.5399999618530273,20.0,37008.0,4166.0,6335.0
2.5408666133880615,19.0,34400.0,3507.0,5225.0
2.5417332649230957,18.0,35344.0,2847.0,5335.0
2.54259991645813,15.0,36288.0,4350.0,5444.0
2.543466567993164,13.0,33104.0,3695.0,11228.0
2.5443332195281982,86.0,33824.0,3041.0,12336.0
2.5452332496643066,61.0,39056.0,3589.0,9524.0
2.546116590499878,36.0,37216.0,1541.0,7932.0
2.546983242034912,36.0,37360.0,2318.0,6597.0
2.5478498935699463,6.0,39760.0,3094.0,7400.0
2.5487167835235596,76.0,34704.0,5106.0,8204.0
2.5495834350585938,56.0,40384.0,4388.0,7511.0
2.550450086593628,35.0,31392.0,3670.0,6600.0
2.551333427429199,30.0,39424.0,1805.0,6954.0
2.5521833896636963,33.0,37424.0,3060.0,7308.0
2.5530500411987305,11.0,30200.0,4680.0,6041.0
2.5539166927337646,45.0,39888.0,1248.0,7821.0
2.554783344268799,47.0,28736.0,2015.0,10756.0
2.555649995803833,63.0,40176.0,5347.0,12228.0
2.556516647338867,23.0,32224.0,889.0,7885.0
2.5573832988739014,31.0,22040.0,1872.0,6396.0
2.5582499504089355,39.0,30588.0,14.0,6244.0
2.5591166019439697,28.0,27740.0,2647.0,5144.0
2.559983253479004,18.0,32112.0,2163.0,6061.0
2.560849905014038,21.0,32340.0,2551.0,5700.0
2.5617165565490723,1124.0,31576.0,2695.0,5338.0
2.562649965286255,1470.0,30812.0,2839.0,6449.0
2.563516616821289,738.0,29508.0,2689.0,7182.0
2.5643832683563232,1196.0,28236.0,3149.0,7137.0
2.5652499198913574,8.0,26964.0,2476.0,7091.0
2.5661165714263916,5.0,30236.0,1803.0,6086.0
2.566983222961426,1161.0,33504.0,3370.0,5272.0
2.567850112915039,590.0,32912.0,2506.0,7768.0
2.5687167644500732,20.0,32328.0,3093.0,4437.0
2.5695834159851074,1103.0,27320.0,2335.0,6240.0
2.5704500675201416,1863.0,31624.0,1587.0,8042.0
2.571316719055176,2622.0,37936.0,1293.0,7754.0
2.57218337059021,2229.0,39584.0,999.0,7465.0
2.573050022125244,1836.0,32316.0,1187.0,9404.0
2.5739166736602783,2319.0,26752.0,1608.0,11272.0
2.5747833251953125,2802.0,26444.0,2028.0,4553.0
2.5756499767303467,3445.0,24544.0,2609.0,11056.0
2.576516628265381,3933.0,22484.0,2261.0,5462.0
2.577383279800415,4421.0,21060.0,1913.0,7319.0
2.578249931335449,3442.0,28652.0,1859.0,6763.0
2.5791666507720947,8804.0,30988.0,2832.0,5870.0
2.580049991607666,7544.0,27136.0,2319.0,4976.0
2.5809166431427,5537.0,24960.0,1805.0,7138.0
2.5817832946777344,12008.0,27116.0,479.0,6135.0
2.5826499462127686,12344.0,27868.0,804.0,5264.0
2.5835165977478027,4548.0,29572.0,1683.0,2898.0
2.584383249282837,8005.0,29488.0,2332.0,2091.0
2.585249900817871,4336.0,23656.0,2980.0,2897.0
2.5861165523529053,6052.0,22548.0,3001.0,3702.0
2.5869834423065186,7767.0,26408.0,1372.0,6052.0
2.5878500938415527,10916.0,22824.0,1790.0,11668.0
2.588716745376587,9204.0,19868.0,949.0,12772.0
2.589583396911621,10040.0,25948.0,1492.0,5479.0
2.5904500484466553,10876.0,18264.0,2081.0,6587.0
2.5913166999816895,8256.0,18996.0,2155.0,3291.0
2.5921833515167236,13944.0,19732.0,1981.0,6346.0
2.593050003051758,13136.0,20796.0,1807.0,8061.0
2.593916654586792,12328.0,16792.0,5533.0,3328.0
2.594783306121826,15176.0,17412.0,5080.0,6732.0
2.5956499576568604,9468.0,18032.0,1458.0,6344.0
2.596583366394043,16552.0,18856.0,3702.0,3363.0
2.597450017929077,8648.0,18160.0,1008.0,3960.0
2.5983166694641113,8916.0,17428.0,2560.0,727.0
2.5991833209991455,12940.0,16696.0,2310.0,2145.0
2.6000499725341797,14212.0,17040.0,528.0,3563.0
2.600916624069214,18416.0,17384.0,1200.0,2249.0
2.601783275604248,18088.0,21540.0,1137.0,3062.0
2.6026499271392822,15856.0,25700.0,1733.0,3876.0
2.6035165786743164,14072.0,23420.0,2260.0,2957.0
2.6043832302093506,13140.0,27700.0,3191.0,4411.0
2.6052498817443848,12796.0,14024.0,3301.0,4225.0
2.606116771697998,12448.0,16344.0,1718.0,4039.0
2.6069834232330322,16604.0,23760.0,3278.0,3298.0
2.6078500747680664,17804.0,20008.0,1051.0,2558.0
2.6087167263031006,17056.0,16016.0,572.0,3623.0
2.6095833778381348,16308.0,27352.0,3436.0,3655.0
2.610450029373169,16808.0,23224.0,2943.0,5280.0
2.611316680908203,17312.0,15832.0,1033.0,6734.0
2.6121833324432373,18060.0,21148.0,1968.0,1738.0
2.6130833625793457,18812.0,17632.0,60.0,2871.0
2.613966703414917,15144.0,19196.0,122.0,7423.0
2.6148500442504883,14652.0,18188.0,1056.0,4288.0
2.6157000064849854,16072.0,15416.0,1989.0,4409.0
2.6165666580200195,21024.0,19064.0,1820.0,3298.0
2.6174333095550537,20368.0,17176.0,2683.0,3906.0
2.618316650390625,19712.0,20760.0,2207.0,4866.0
2.619166612625122,19620.0,13504.0,1731.0,2320.0
2.6200332641601562,15604.0,14804.0,490.0,4200.0
2.6208999156951904,18208.0,19188.0,64.0,3228.0
2.6217665672302246,21828.0,17084.0,547.0,3573.0
2.622633218765259,25244.0,14360.0,728.0,3919.0
2.623500108718872,27464.0,11632.0,1084.0,2904.0
2.6243667602539062,16980.0,14424.0,660.0,4022.0
2.6252334117889404,18776.0,12396.0,237.0,895.0
2.6261000633239746,21324.0,10368.0,1450.0,5197.0
2.626966714859009,20284.0,14500.0,1853.0,8117.0
2.627833366394043,19244.0,12868.0,780.0,5304.0
2.628700017929077,17544.0,11240.0,588.0,3648.0
2.6295666694641113,21140.0,10420.0,229.0,5822.0
2.630500078201294,18216.0,9600.0,387.0,4214.0
2.631366729736328,16712.0,10392.0,544.0,5047.0
2.6322333812713623,15648.0,9996.0,965.0,4526.0
2.6331000328063965,13444.0,9596.0,726.0,3960.0
2.6339666843414307,15320.0,13436.0,487.0,3446.0
2.634833335876465,17196.0,17772.0,38.0,1462.0
2.635699987411499,16876.0,19332.0,1404.0,2574.0
2.636566638946533,16560.0,14660.0,1262.0,3931.0
2.6374332904815674,16772.0,14216.0,1120.0,2898.0
2.6382999420166016,16980.0,8800.0,1625.0,1866.0
2.6391665935516357,19524.0,14888.0,667.0,3609.0
2.64003324508667,18032.0,10580.0,1349.0,2201.0
2.640899896621704,16540.0,15964.0,1158.0,792.0
2.6417665481567383,17312.0,11724.0,596.0,3176.0
2.6426334381103516,18088.0,13468.0,35.0,3283.0
2.6435000896453857,19760.0,11948.0,743.0,26.0
2.64436674118042,19508.0,12136.0,385.0,2909.0
2.645233392715454,16808.0,12320.0,28.0,1113.0
2.6461000442504883,17380.0,11200.0,1414.0,1077.0
2.647016763687134,18328.0,12320.0,2110.0,4297.0
2.647900104522705,13508.0,13440.0,1176.0,3126.0
2.6487667560577393,19052.0,3612.0,20.0,2425.0
2.6496334075927734,14600.0,8884.0,2656.0,1885.0
2.6505000591278076,13160.0,12696.0,225.0,3025.0
2.651366710662842,11720.0,8476.0,824.0,5888.0
2.652233362197876,14392.0,11924.0,1961.0,6435.0
2.65310001373291,9776.0,14656.0,621.0,994.0
2.6539666652679443,10376.0,11932.0,13.0,1126.0
2.6548333168029785,10980.0,15612.0,41.0,2459.0
2.6556999683380127,13104.0,14524.0,29.0,1397.0
2.656566619873047,11144.0,11076.0,18.0,1511.0
2.657433271408081,9184.0,8532.0,17.0,2597.0
2.6582999229431152,13988.0,6283.0,30.0,4117.0
2.6591665744781494,12076.0,5427.0,67.0,3319.0
2.6600332260131836,8808.0,8124.0,103.0,4509.0
2.660900115966797,4255.0,7796.0,68.0,3716.0
2.661766767501831,11816.0,7469.0,33.0,1621.0
2.6626334190368652,8676.0,7912.0,677.0,531.0
2.6635000705718994,3918.0,8356.0,634.0,3067.0
2.664433240890503,7488.0,11860.0,0.0,936.0
2.665299892425537,6517.0,12808.0,11.0,3405.0
2.6661667823791504,5547.0,6595.0,17.0,2224.0
2.6670334339141846,7075.0,2346.0,23.0,1229.0
2.6679000854492188,7024.0,12244.0,361.0,2134.0
2.668766736984253,6826.0,7250.0,198.0,1332.0
2.669633388519287,4924.0,11124.0,34.0,2642.0
2.6705000400543213,3021.0,5014.0,38.0,2069.0
2.6713666915893555,4610.0,7715.0,42.0,247.0
2.6722333431243896,3807.0,6971.0,36.0,1632.0
2.673099994659424,8087.0,5287.0,29.0,428.0
2.673966646194458,7763.0,4342.0,28.0,1992.0
2.674833297729492,7256.0,6109.0,59.0,1412.0
2.6756999492645264,6749.0,4927.0,367.0,1246.0
2.6765666007995605,8110.0,3745.0,675.0,1335.0
2.6774332523345947,2257.0,6921.0,617.0,169.0
2.678299903869629,5448.0,5534.0,430.0,357.0
2.679166555404663,4992.0,8004.0,20.0,905.0
2.6800334453582764,7118.0,4832.0,67.0,702.0
2.6809332370758057,1338.0,6645.0,297.0,499.0
2.681816577911377,3209.0,6058.0,1190.0,247.0
2.682683229446411,5322.0,3529.0,595.0,481.0
2.6835498809814453,4684.0,4681.0,0.0,715.0
2.6844167709350586,4362.0,4022.0,1315.0,382.0
2.6852834224700928,5774.0,1016.0,6.0,49.0
2.686150074005127,3984.0,4971.0,12.0,310.0
2.687016725540161,2782.0,3539.0,18.0,571.0
2.6878833770751953,1965.0,2523.0,12.0,635.0
2.6887667179107666,2164.0,3148.0,729.0,1881.0
2.6896166801452637,1567.0,6399.0,658.0,1343.0
2.690483331680298,970.0,5791.0,0.0,804.0
2.691349983215332,1115.0,3941.0,359.0,6.0
2.692216634750366,1261.0,2561.0,1181.0,1841.0
2.6930832862854004,1638.0,3253.0,893.0,2962.0
2.6939499378204346,1884.0,3944.0,51.0,2834.0
2.6948165893554688,2130.0,2936.0,27.0,1684.0
2.695683240890503,1659.0,1928.0,1265.0,1467.0
2.696549892425537,1996.0,4473.0,616.0,46.0
2.6974167823791504,2682.0,3721.0,313.0,2070.0
2.698349952697754,1635.0,4397.0,10.0,898.0
2.699216604232788,589.0,3346.0,8.0,43.0
