,275.1099853515625,276.1099853515625,277.1099853515625,278.1099853515625,279.1099853515625
1.9010833501815796,41.0,0.0,47.0,18.0,0.0
1.902166724205017,5.0,0.0,0.0,15.0,83.0
1.903249979019165,27.0,10.0,26.0,7.0,21.0
1.9043333530426025,33.0,5.0,11.0,11.0,31.0
1.9054166078567505,29.0,0.0,16.0,15.0,48.0
1.906499981880188,30.0,7.0,21.0,17.0,39.0
1.9075833559036255,11.0,13.0,16.0,14.0,51.0
1.9086666107177734,17.0,15.0,26.0,10.0,7.0
1.909749984741211,8.0,16.0,9.0,49.0,44.0
1.9108333587646484,10.0,23.0,8.0,42.0,10.0
1.9119166135787964,25.0,30.0,31.0,34.0,50.0
1.9129999876022339,29.0,0.0,5.0,19.0,55.0
1.9140833616256714,34.0,16.0,11.0,38.0,45.0
1.9151666164398193,5.0,29.0,16.0,16.0,5.0
1.9162499904632568,12.0,12.0,11.0,33.0,15.0
1.9173833131790161,21.0,14.0,5.0,17.0,22.0
1.9184666872024536,13.0,15.0,10.0,14.0,24.0
1.9195499420166016,5.0,14.0,8.0,12.0,27.0
1.920633316040039,30.0,13.0,5.0,10.0,7.0
1.9217166900634766,39.0,28.0,12.0,24.0,11.0
1.9227999448776245,0.0,37.0,19.0,14.0,14.0
1.923883318901062,18.0,30.0,26.0,5.0,0.0
1.9249666929244995,77.0,26.0,16.0,10.0,44.0
1.9260499477386475,47.0,35.0,14.0,9.0,48.0
1.927133321762085,16.0,29.0,15.0,7.0,19.0
1.9282166957855225,5.0,24.0,16.0,0.0,12.0
1.9292999505996704,15.0,19.0,5.0,25.0,5.0
1.930383324623108,10.0,31.0,23.0,32.0,5.0
1.9314666986465454,5.0,30.0,23.0,49.0,19.0
1.9325666427612305,6.0,29.0,23.0,0.0,17.0
1.9336333274841309,6.0,5.0,10.0,0.0,13.0
1.9347833395004272,19.0,5.0,5.0,17.0,25.0
1.9358667135238647,17.0,12.0,0.0,5.0,24.0
1.9369499683380127,15.0,14.0,17.0,0.0,23.0
1.9380333423614502,10.0,16.0,24.0,16.0,22.0
1.9391167163848877,14.0,20.0,22.0,23.0,15.0
1.9401999711990356,18.0,24.0,18.0,25.0,17.0
1.9412833452224731,24.0,49.0,9.0,28.0,18.0
1.9423667192459106,29.0,47.0,0.0,19.0,15.0
1.9434499740600586,0.0,0.0,7.0,17.0,11.0
1.944533348083496,38.0,23.0,18.0,15.0,19.0
1.9456167221069336,24.0,12.0,22.0,21.0,24.0
1.9466999769210815,10.0,12.0,24.0,21.0,26.0
1.947783350944519,0.0,10.0,5.0,7.0,29.0
1.9488667249679565,5.0,7.0,39.0,19.0,6.0
1.9499499797821045,59.0,47.0,32.0,17.0,5.0
1.9510666131973267,64.0,45.0,30.0,15.0,25.0
1.9521666765213013,12.0,43.0,28.0,18.0,0.0
1.9532500505447388,24.0,56.0,18.0,15.0,13.0
1.9543333053588867,24.0,6.0,30.0,21.0,21.0
1.9554166793823242,19.0,6.0,21.0,26.0,13.0
1.9565000534057617,15.0,5.0,25.0,46.0,5.0
1.9575833082199097,0.0,5.0,29.0,48.0,37.0
1.9586666822433472,26.0,5.0,20.0,23.0,34.0
1.9597500562667847,10.0,13.0,11.0,6.0,31.0
1.9608333110809326,52.0,22.0,31.0,25.0,0.0
1.9619166851043701,38.0,21.0,28.0,18.0,21.0
1.9630000591278076,0.0,13.0,23.0,16.0,37.0
1.9640833139419556,3.0,5.0,6.0,14.0,14.0
1.965166687965393,5.0,0.0,12.0,11.0,35.0
1.966249942779541,5.0,17.0,17.0,9.0,0.0
1.9673333168029785,5.0,11.0,18.0,6.0,33.0
1.968483328819275,3.0,15.0,24.0,0.0,5.0
1.9695667028427124,0.0,30.0,30.0,0.0,12.0
1.9706499576568604,0.0,26.0,5.0,0.0,33.0
1.9717333316802979,5.0,23.0,16.0,16.0,26.0
1.9728167057037354,10.0,14.0,5.0,14.0,19.0
1.9738999605178833,10.0,31.0,6.0,26.0,20.0
1.9749833345413208,10.0,19.0,14.0,29.0,21.0
1.9760667085647583,6.0,7.0,15.0,33.0,0.0
1.9771499633789062,12.0,33.0,27.0,11.0,38.0
1.9782333374023438,10.0,29.0,38.0,17.0,29.0
1.9793167114257812,8.0,0.0,30.0,6.0,15.0
1.9803999662399292,16.0,12.0,14.0,12.0,0.0
1.9814833402633667,24.0,25.0,16.0,17.0,18.0
1.9825667142868042,30.0,29.0,17.0,8.0,51.0
1.9836499691009521,62.0,34.0,17.0,16.0,45.0
1.9847333431243896,64.0,23.0,18.0,12.0,22.0
1.985883355140686,5.0,11.0,22.0,34.0,22.0
1.986966609954834,13.0,23.0,20.0,44.0,17.0
1.9880499839782715,21.0,26.0,18.0,0.0,23.0
1.989133358001709,5.0,5.0,18.0,21.0,33.0
1.990216612815857,16.0,26.0,18.0,0.0,30.0
1.9912999868392944,28.0,28.0,22.0,17.0,47.0
1.992383360862732,8.0,5.0,5.0,0.0,30.0
1.9934666156768799,12.0,29.0,16.0,6.0,13.0
1.9945499897003174,16.0,24.0,15.0,5.0,14.0
1.9956333637237549,10.0,26.0,13.0,3.0,21.0
1.9967166185379028,18.0,16.0,22.0,0.0,8.0
1.9977999925613403,18.0,11.0,22.0,5.0,11.0
1.9988833665847778,18.0,565.0,23.0,21.0,14.0
1.9999666213989258,12.0,588.0,7.0,26.0,17.0
2.0010499954223633,5.0,21.0,0.0,10.0,23.0
2.002183437347412,27.0,13.0,0.0,27.0,29.0
2.0032665729522705,19.0,44.0,7.0,38.0,25.0
2.004349946975708,12.0,0.0,10.0,23.0,25.0
2.0054333209991455,8.0,11.0,8.0,7.0,25.0
2.006516695022583,4.0,28.0,5.0,0.0,10.0
2.0076000690460205,0.0,31.0,11.0,4.0,43.0
2.008683443069458,6.0,32.0,0.0,7.0,45.0
2.0097665786743164,6.0,29.0,0.0,10.0,18.0
2.010849952697754,6.0,32.0,0.0,11.0,26.0
2.0119333267211914,12.0,5.0,11.0,35.0,13.0
2.013016700744629,16.0,21.0,8.0,33.0,14.0
2.0141000747680664,38.0,5.0,5.0,31.0,15.0
2.015183448791504,32.0,8.0,17.0,0.0,38.0
2.0162665843963623,26.0,25.0,30.0,8.0,25.0
2.0173499584198,44.0,25.0,24.0,15.0,11.0
2.0184500217437744,12.0,23.0,17.0,27.0,21.0
2.019583225250244,24.0,29.0,31.0,23.0,19.0
2.0206665992736816,23.0,9.0,0.0,19.0,0.0
2.021749973297119,33.0,10.0,36.0,11.0,63.0
2.0228333473205566,44.0,6.0,11.0,33.0,37.0
2.023916721343994,0.0,6.0,43.0,24.0,12.0
2.0250000953674316,32.0,35.0,13.0,15.0,38.0
2.02608323097229,7.0,43.0,23.0,32.0,25.0
2.0271666049957275,23.0,31.0,38.0,42.0,16.0
2.028249979019165,39.0,33.0,33.0,34.0,19.0
2.0293333530426025,23.0,0.0,30.0,5.0,23.0
2.03041672706604,16.0,15.0,27.0,21.0,21.0
2.0315001010894775,12.0,10.0,19.0,15.0,18.0
2.032583236694336,9.0,5.0,12.0,5.0,17.0
2.0336666107177734,5.0,23.0,6.0,23.0,5.0
2.034749984741211,14.0,26.0,0.0,29.0,13.0
2.0358667373657227,12.0,30.0,15.0,48.0,8.0
2.036966562271118,10.0,21.0,50.0,39.0,10.0
2.0380499362945557,15.0,24.0,53.0,0.0,12.0
2.039133310317993,13.0,35.0,33.0,12.0,18.0
2.0402166843414307,10.0,10.0,10.0,0.0,15.0
2.041300058364868,16.0,17.0,35.0,5.0,12.0
2.0423834323883057,11.0,17.0,33.0,6.0,33.0
2.043466567993164,5.0,9.0,15.0,6.0,34.0
2.0445499420166016,47.0,0.0,12.0,8.0,41.0
2.045633316040039,37.0,14.0,13.0,10.0,5.0
2.0467166900634766,33.0,16.0,5.0,0.0,16.0
2.047800064086914,21.0,5.0,9.0,11.0,30.0
2.0488834381103516,26.0,19.0,13.0,23.0,55.0
2.04996657371521,17.0,14.0,9.0,35.0,53.0
2.0510499477386475,13.0,7.0,5.0,41.0,12.0
2.052133321762085,32.0,9.0,8.0,40.0,41.0
2.053283214569092,23.0,10.0,11.0,41.0,55.0
2.0543665885925293,14.0,5.0,0.0,38.0,51.0
2.055449962615967,13.0,10.0,21.0,35.0,21.0
2.0565333366394043,12.0,25.0,15.0,32.0,36.0
2.057616710662842,5.0,25.0,10.0,35.0,5.0
2.0587000846862793,37.0,25.0,10.0,11.0,23.0
2.0597832202911377,41.0,23.0,10.0,34.0,16.0
2.060866594314575,0.0,22.0,30.0,21.0,29.0
2.0619499683380127,13.0,17.0,32.0,29.0,14.0
2.06303334236145,17.0,13.0,34.0,34.0,0.0
2.0641167163848877,12.0,0.0,29.0,7.0,5.0
2.065200090408325,0.0,10.0,7.0,38.0,10.0
2.0662832260131836,5.0,12.0,15.0,40.0,14.0
2.067366600036621,21.0,5.0,25.0,0.0,0.0
2.0684499740600586,37.0,10.0,35.0,6.0,0.0
2.069533348083496,33.0,15.0,37.0,47.0,3.0
2.070683240890503,15.0,11.0,39.0,71.0,5.0
2.0717666149139404,17.0,7.0,0.0,40.0,17.0
2.072849988937378,19.0,17.0,15.0,40.0,18.0
2.0739333629608154,40.0,20.0,12.0,30.0,12.0
2.075016736984253,56.0,23.0,6.0,24.0,5.0
2.0761001110076904,45.0,16.0,0.0,14.0,25.0
2.077183246612549,5.0,38.0,6.0,35.0,31.0
2.0782666206359863,81.0,31.0,7.0,27.0,11.0
2.079349994659424,0.0,25.0,9.0,18.0,19.0
2.0804333686828613,28.0,35.0,10.0,9.0,38.0
2.081516742706299,11.0,16.0,10.0,0.0,54.0
2.0826001167297363,25.0,36.0,10.0,16.0,43.0
2.0836832523345947,29.0,0.0,0.0,17.0,13.0
2.0847666263580322,34.0,22.0,12.0,18.0,34.0
2.0858500003814697,14.0,28.0,22.0,13.0,27.0
2.0869998931884766,17.0,13.0,32.0,8.0,30.0
2.088083267211914,15.0,0.0,0.0,0.0,25.0
2.0891666412353516,21.0,17.0,23.0,27.0,16.0
2.090250015258789,26.0,30.0,29.0,27.0,35.0
2.0913333892822266,32.0,42.0,38.0,27.0,10.0
2.092416763305664,39.0,47.0,40.0,8.0,16.0
2.0934998989105225,34.0,40.0,23.0,13.0,30.0
2.09458327293396,19.0,16.0,29.0,18.0,21.0
2.0956666469573975,45.0,14.0,10.0,15.0,12.0
2.096750020980835,15.0,29.0,38.0,0.0,15.0
2.0978333950042725,10.0,43.0,29.0,16.0,17.0
2.09891676902771,14.0,48.0,5.0,43.0,17.0
2.0999999046325684,13.0,29.0,39.0,29.0,15.0
2.101083278656006,11.0,17.0,21.0,15.0,12.0
2.1021666526794434,35.0,5.0,27.0,35.0,9.0
2.103250026702881,47.0,10.0,300.0,25.0,6.0
2.1043832302093506,26.0,44.0,550.0,5.0,15.0
2.105466604232788,5.0,456.0,290.0,31.0,14.0
2.1065499782562256,37.0,249.0,30.0,6.0,12.0
2.107633352279663,51.0,42.0,1914.0,26.0,1071.0
2.1087167263031006,52.0,2309.0,1496.0,5.0,1181.0
2.109800100326538,23.0,2538.0,1942.0,87.0,1983.0
2.1108832359313965,28.0,4407.0,1065.0,894.0,10.0
2.111983299255371,17.0,5498.0,2648.0,455.0,611.0
2.1130499839782715,6.0,4160.0,8252.0,15.0,1211.0
2.114150047302246,5.0,8228.0,6595.0,28.0,2956.0
2.1152334213256836,15.0,10060.0,9852.0,485.0,3282.0
2.116300106048584,37.0,14040.0,8872.0,1036.0,4946.0
2.1173832416534424,23.0,12804.0,12160.0,1389.0,6751.0
2.118483304977417,8.0,11568.0,13736.0,1742.0,7007.0
2.1195666790008545,15.0,39744.0,15536.0,2240.0,7263.0
2.120683431625366,25.0,32832.0,24040.0,2739.0,9108.0
2.1217832565307617,26.0,48624.0,27568.0,5475.0,10952.0
2.122866630554199,27.0,42352.0,35536.0,5753.0,16948.0
2.1239500045776367,5.0,58704.0,42000.0,7075.0,29196.0
2.125033378601074,38.0,65424.0,48784.0,4586.0,31776.0
2.1261167526245117,58.0,72144.0,51296.0,5677.0,37008.0
2.12719988822937,37.0,90160.0,48256.0,10720.0,24024.0
2.1282832622528076,22.0,103920.0,62640.0,14068.0,35984.0
2.129366636276245,24.0,120064.0,77008.0,14152.0,35296.0
2.1304500102996826,14.0,143232.0,100928.0,12800.0,47568.0
2.13153338432312,16.0,165760.0,100800.0,11616.0,43984.0
2.1326334476470947,16.0,175040.0,108912.0,20652.0,48720.0
2.133716583251953,16.0,193792.0,144448.0,20688.0,65664.0
2.1347832679748535,20.0,201984.0,155008.0,20720.0,67136.0
2.135866641998291,24.0,211008.0,151488.0,23588.0,66816.0
2.1369667053222656,29.0,286656.0,169024.0,30740.0,73456.0
2.1380832195281982,54.0,266688.0,205312.0,35360.0,80096.0
2.1391665935516357,58.0,289728.0,193216.0,34272.0,87744.0
2.1402499675750732,29.0,298240.0,196480.0,25728.0,85008.0
2.1413333415985107,33.0,289984.0,209408.0,35440.0,82256.0
2.1424167156219482,37.0,320768.0,220736.0,31292.0,84416.0
2.1434834003448486,53.0,356352.0,229632.0,36512.0,105376.0
2.144583225250244,69.0,363968.0,237248.0,38048.0,103136.0
2.1456499099731445,555.0,363584.0,214144.0,25760.0,102480.0
2.146733283996582,611.0,339328.0,224512.0,33424.0,97184.0
2.1478166580200195,11.0,381440.0,234816.0,33472.0,96064.0
2.148900032043457,41.0,322368.0,231808.0,31804.0,94944.0
2.1499834060668945,34.0,371200.0,239808.0,30140.0,98256.0
2.151066780090332,55.0,338688.0,222080.0,41424.0,90656.0
2.1521499156951904,32.0,352832.0,209856.0,40720.0,95840.0
2.153233289718628,54.0,349504.0,211392.0,32816.0,94352.0
2.1543667316436768,59.0,339584.0,206848.0,37008.0,88096.0
2.1554665565490723,50.0,309312.0,202240.0,27484.0,81856.0
2.1565499305725098,34.0,289216.0,205696.0,26516.0,81488.0
2.1576333045959473,56.0,328576.0,209152.0,21732.0,91456.0
2.1587166786193848,42.0,311616.0,185088.0,29604.0,83664.0
2.1598000526428223,48.0,295040.0,203392.0,28956.0,75856.0
2.1608834266662598,11.0,278080.0,154496.0,16280.0,79312.0
2.161966562271118,28.0,269504.0,179456.0,30848.0,77216.0
2.1630499362945557,22.0,273024.0,178624.0,25856.0,73200.0
2.164133310317993,48.0,269568.0,156480.0,22560.0,64528.0
2.1652166843414307,46.0,242752.0,161792.0,28564.0,64400.0
2.166300058364868,43.0,260928.0,156992.0,24492.0,67728.0
2.1673834323883057,28.0,247360.0,140160.0,30132.0,70672.0
2.168466567993164,53.0,210304.0,171136.0,21304.0,66656.0
2.1695499420166016,5.0,259584.0,139776.0,19168.0,62624.0
2.170633316040039,22.0,250112.0,144576.0,20288.0,68944.0
2.171783447265625,28.0,234048.0,153024.0,25196.0,59168.0
2.1728665828704834,36.0,233856.0,151808.0,26840.0,61072.0
2.173949956893921,40.0,226880.0,146816.0,22868.0,53408.0
2.1750333309173584,0.0,220608.0,150400.0,18800.0,55664.0
2.176116704940796,21.0,242944.0,150464.0,22956.0,59856.0
2.1772000789642334,41.0,209856.0,147136.0,25596.0,58960.0
2.178283214569092,19.0,235328.0,150144.0,17008.0,58064.0
2.1793665885925293,38.0,229440.0,150208.0,19696.0,63328.0
2.180449962615967,16.0,223552.0,150208.0,23060.0,65504.0
2.1815333366394043,46.0,239104.0,131392.0,26560.0,68112.0
2.182616710662842,62.0,234496.0,143680.0,23628.0,58320.0
2.1837000846862793,54.0,229952.0,157248.0,31332.0,64096.0
2.1847832202911377,41.0,242752.0,139392.0,12040.0,69856.0
2.185866594314575,5.0,236992.0,151616.0,21568.0,71168.0
2.1869499683380127,78.0,231936.0,163776.0,19848.0,68128.0
2.18803334236145,59.0,261952.0,159552.0,28032.0,72368.0
2.189166784286499,40.0,272064.0,174208.0,24640.0,77136.0
2.1902499198913574,44.0,291392.0,181056.0,24564.0,79184.0
2.191333293914795,30.0,244608.0,171648.0,25924.0,71648.0
2.1924166679382324,38.0,272960.0,177088.0,23384.0,72016.0
2.19350004196167,24.0,254720.0,182464.0,27880.0,78592.0
2.1945834159851074,42.0,282944.0,186688.0,26568.0,73520.0
2.195666551589966,59.0,282240.0,199872.0,34432.0,85152.0
2.1967499256134033,5.0,298560.0,197760.0,34976.0,82336.0
2.197833299636841,32.0,288640.0,195584.0,26928.0,82496.0
2.1989166736602783,58.0,289088.0,193600.0,30844.0,83056.0
2.200000047683716,24.0,288256.0,191616.0,29940.0,83264.0
2.2010834217071533,23.0,293632.0,200960.0,23864.0,82048.0
2.2021665573120117,64.0,299072.0,200896.0,24224.0,80848.0
2.2032666206359863,39.0,324992.0,200832.0,24588.0,83744.0
2.2043333053588867,52.0,330048.0,200320.0,35280.0,83328.0
2.2054834365844727,18.0,349760.0,199744.0,33040.0,82912.0
2.206566572189331,5.0,295808.0,185024.0,33840.0,87728.0
2.2076499462127686,50.0,305472.0,200128.0,33536.0,86608.0
2.208733320236206,94.0,276032.0,175424.0,29200.0,85472.0
2.2098166942596436,115.0,283776.0,201856.0,22904.0,85392.0
2.210900068283081,72.0,291520.0,193728.0,30168.0,80624.0
2.2119834423065186,29.0,286528.0,194752.0,23464.0,75872.0
2.213066577911377,26.0,272256.0,183040.0,25924.0,90560.0
2.2141499519348145,62.0,293504.0,161920.0,28380.0,91744.0
2.215233325958252,22.0,251648.0,174784.0,24192.0,80128.0
2.2163166999816895,40.0,276800.0,165248.0,21092.0,78656.0
2.217400074005127,60.0,254592.0,155584.0,14908.0,72288.0
2.2184834480285645,46.0,230208.0,158272.0,17440.0,75024.0
2.219566583633423,54.0,222720.0,162112.0,17708.0,75600.0
2.2206499576568604,62.0,208448.0,154368.0,17972.0,61472.0
2.221733331680298,24.0,203648.0,140544.0,18832.0,58784.0
2.2228667736053467,16.0,189952.0,138304.0,19692.0,54848.0
2.223949909210205,58.0,183360.0,114688.0,19140.0,53280.0
2.2250332832336426,10.0,162176.0,113312.0,18584.0,42208.0
2.22611665725708,72.0,173568.0,106576.0,18292.0,40272.0
2.2272000312805176,42.0,144576.0,88144.0,15940.0,39504.0
2.228283405303955,39.0,144512.0,85168.0,8688.0,45856.0
2.2293667793273926,69.0,131456.0,76656.0,16312.0,32440.0
2.230449914932251,57.0,111120.0,90560.0,13456.0,36096.0
2.2315332889556885,46.0,98496.0,70752.0,7641.0,30488.0
2.232616662979126,68.0,96224.0,49088.0,9620.0,30936.0
2.2337000370025635,57.0,78320.0,56912.0,5840.0,29664.0
2.234783411026001,47.0,66656.0,55056.0,8348.0,23104.0
2.2358667850494385,60.0,72656.0,34640.0,6452.0,27956.0
2.236949920654297,28.0,61424.0,46560.0,4555.0,33024.0
2.2380332946777344,5.0,70464.0,34736.0,5867.0,16376.0
2.239166736602783,34.0,57088.0,37952.0,3977.0,18068.0
2.2402665615081787,52.0,64848.0,28784.0,6900.0,16108.0
2.241349935531616,63.0,63904.0,29544.0,2965.0,13072.0
2.2424333095550537,83.0,47712.0,30240.0,5860.0,9024.0
2.243516683578491,19.0,33072.0,26184.0,6833.0,12684.0
2.2446000576019287,10.0,33408.0,24764.0,3044.0,7770.0
2.245683431625366,16.0,28764.0,19104.0,2722.0,6842.0
2.2467665672302246,36.0,20792.0,18056.0,2353.0,6459.0
2.247849941253662,33.0,37744.0,22928.0,2056.0,9932.0
2.2489333152770996,17.0,21304.0,17708.0,2246.0,3537.0
2.250016689300537,8.0,22200.0,14396.0,2808.0,5348.0
2.2511000633239746,46.0,26396.0,12856.0,2602.0,5690.0
2.252183437347412,50.0,16204.0,8114.0,2396.0,3975.0
2.2532665729522705,67.0,15244.0,11412.0,1937.0,2259.0
2.254349946975708,0.0,13384.0,10564.0,1054.0,3836.0
2.2554333209991455,7.0,13664.0,8648.0,1516.0,3084.0
2.2565834522247314,13.0,15500.0,7170.0,37.0,2333.0
2.25766658782959,11.0,9312.0,7468.0,281.0,2671.0
2.2587499618530273,25.0,9384.0,10812.0,526.0,2825.0
2.259833335876465,47.0,11624.0,11528.0,717.0,2978.0
2.2609167098999023,52.0,11128.0,7815.0,908.0,2579.0
2.26200008392334,31.0,10632.0,4452.0,1015.0,2180.0
2.2630832195281982,12.0,11628.0,5589.0,798.0,939.0
2.2641665935516357,35.0,9960.0,6512.0,450.0,1172.0
2.2652499675750732,33.0,11512.0,6815.0,1089.0,1380.0
2.2663333415985107,38.0,5289.0,4193.0,571.0,849.0
2.2674167156219482,25.0,10908.0,6359.0,1244.0,1560.0
2.2685000896453857,0.0,4662.0,2010.0,632.0,1573.0
2.269583225250244,17.0,4813.0,7440.0,1111.0,1586.0
2.2706665992736816,49.0,5418.0,4929.0,1683.0,456.0
2.271749973297119,36.0,6442.0,6345.0,218.0,1299.0
2.2728333473205566,24.0,6307.0,4040.0,821.0,1508.0
2.2739665508270264,45.0,6171.0,3128.0,687.0,217.0
2.275049924850464,11.0,8064.0,4133.0,66.0,6.0
2.2761332988739014,0.0,8892.0,958.0,59.0,1185.0
2.277216672897339,5.0,8216.0,2334.0,593.0,2365.0
2.2783000469207764,26.0,8492.0,2733.0,1664.0,3431.0
2.279383420944214,31.0,7227.0,3061.0,1607.0,3816.0
2.2804665565490723,32.0,6853.0,2851.0,2099.0,1711.0
2.2815499305725098,0.0,2847.0,2640.0,1108.0,883.0
2.2826333045959473,37.0,8852.0,2556.0,629.0,16.0
2.2837166786193848,24.0,4372.0,2472.0,1265.0,422.0
2.2848000526428223,5.0,3678.0,2798.0,39.0,552.0
2.2858834266662598,13.0,4364.0,3124.0,85.0,708.0
2.286966562271118,11.0,3035.0,1215.0,689.0,2380.0
2.2880499362945557,11.0,2497.0,1580.0,558.0,3172.0
2.289133310317993,10.0,3363.0,1954.0,8.0,1899.0
2.290283441543579,15.0,3745.0,2328.0,1430.0,165.0
2.2913665771484375,13.0,4128.0,1040.0,1004.0,62.0
2.292449951171875,10.0,1534.0,3276.0,1176.0,614.0
2.2935333251953125,35.0,2593.0,4429.0,24.0,867.0
2.29461669921875,55.0,3652.0,2797.0,41.0,1121.0
2.2957000732421875,38.0,497.0,2640.0,0.0,1119.0
2.296783447265625,21.0,3024.0,3807.0,31.0,664.0
2.2978665828704834,16.0,383.0,56.0,40.0,796.0
2.298949956893921,17.0,711.0,2659.0,0.0,754.0
2.3000333309173584,18.0,1039.0,869.0,425.0,361.0
2.301116704940796,7.0,2390.0,1474.0,270.0,1044.0
2.3022000789642334,14.0,2431.0,2079.0,115.0,24.0
2.303283214569092,6.0,2472.0,1873.0,452.0,308.0
2.3043665885925293,17.0,5539.0,2571.0,28.0,80.0
2.305449962615967,17.0,5262.0,2357.0,576.0,965.0
2.3065333366394043,16.0,3716.0,2143.0,514.0,848.0
2.307666778564453,16.0,3302.0,230.0,15.0,801.0
2.3087499141693115,8.0,1477.0,442.0,23.0,30.0
2.309833288192749,0.0,2478.0,654.0,13.0,30.0
2.3109166622161865,10.0,3038.0,786.0,23.0,5.0
2.312000036239624,12.0,3518.0,919.0,30.0,316.0
2.3130834102630615,13.0,559.0,88.0,37.0,703.0
2.314166784286499,45.0,3322.0,316.0,28.0,1257.0
2.3152499198913574,48.0,1563.0,543.0,78.0,928.0
2.316333293914795,34.0,1181.0,173.0,84.0,306.0
2.3174166679382324,32.0,2884.0,1106.0,89.0,519.0
2.31850004196167,53.0,2510.0,2039.0,50.0,40.0
2.3195834159851074,52.0,1616.0,2800.0,11.0,51.0
2.320666551589966,65.0,1911.0,122.0,18.0,62.0
2.3217499256134033,0.0,2551.0,698.0,17.0,375.0
2.322833299636841,0.0,1240.0,1521.0,15.0,689.0
2.3239667415618896,27.0,2353.0,23.0,23.0,359.0
2.325066566467285,33.0,379.0,794.0,21.0,30.0
2.3261499404907227,49.0,7.0,288.0,15.0,724.0
2.32723331451416,24.0,3166.0,147.0,14.0,379.0
2.3283166885375977,15.0,3039.0,5.0,8.0,34.0
2.329400062561035,21.0,68.0,1061.0,10.0,24.0
2.3304834365844727,23.0,1500.0,1781.0,21.0,13.0
2.331566572189331,5.0,2645.0,1927.0,10.0,7.0
2.3326499462127686,56.0,683.0,786.0,0.0,0.0
2.333733320236206,62.0,26.0,15.0,3.0,6.0
2.3348166942596436,14.0,779.0,867.0,6.0,18.0
2.335900068283081,21.0,1857.0,865.0,25.0,31.0
2.3369834423065186,33.0,2488.0,1361.0,44.0,31.0
2.338066577911377,24.0,1573.0,1136.0,22.0,10.0
2.3391499519348145,37.0,2921.0,916.0,0.0,0.0
2.340233325958252,30.0,1167.0,697.0,0.0,28.0
2.341366767883301,7.0,899.0,17.0,10.0,63.0
2.342449903488159,5.0,0.0,1257.0,10.0,424.0
2.3435332775115967,0.0,1985.0,1673.0,0.0,222.0
2.344616651535034,3.0,2624.0,44.0,6.0,19.0
2.3457000255584717,5.0,2191.0,1860.0,12.0,31.0
2.346783399581909,11.0,1589.0,9.0,19.0,29.0
2.3478667736053467,11.0,347.0,1084.0,16.0,14.0
2.348949909210205,15.0,559.0,175.0,12.0,0.0
2.3500332832336426,18.0,1817.0,316.0,36.0,25.0
2.35111665725708,13.0,5.0,0.0,26.0,27.0
2.3522000312805176,8.0,634.0,781.0,15.0,29.0
2.353283405303955,23.0,1262.0,583.0,23.0,561.0
2.3543667793273926,17.0,1536.0,385.0,0.0,690.0
2.355466604232788,12.0,335.0,588.0,8.0,15.0
2.3565332889556885,25.0,375.0,791.0,15.0,8.0
2.357616662979126,14.0,1906.0,769.0,15.0,0.0
2.358766555786133,59.0,36.0,837.0,15.0,700.0
2.3598499298095703,57.0,113.0,705.0,17.0,576.0
2.360933303833008,42.0,832.0,574.0,18.0,785.0
2.3620166778564453,21.0,44.0,54.0,50.0,1045.0
2.363100051879883,35.0,326.0,33.0,41.0,16.0
2.3641834259033203,28.0,608.0,287.0,32.0,337.0
2.3652665615081787,22.0,759.0,541.0,19.0,14.0
2.366349935531616,7.0,636.0,281.0,16.0,319.0
2.3674333095550537,23.0,512.0,22.0,12.0,37.0
2.368516683578491,16.0,367.0,23.0,11.0,134.0
2.3696000576019287,10.0,603.0,18.0,9.0,81.0
2.370683431625366,28.0,840.0,13.0,19.0,28.0
2.3717665672302246,19.0,46.0,35.0,9.0,635.0
2.372849941253662,10.0,1848.0,29.0,0.0,746.0
2.3739333152770996,16.0,1892.0,23.0,17.0,857.0
2.3750667572021484,20.0,768.0,34.0,27.0,51.0
2.376149892807007,24.0,41.0,29.0,37.0,13.0
2.3772332668304443,31.0,894.0,25.0,34.0,11.0
2.378316640853882,38.0,21.0,426.0,25.0,0.0
2.3794000148773193,9.0,842.0,232.0,36.0,0.0
2.380483388900757,29.0,222.0,39.0,18.0,38.0
2.3815667629241943,44.0,364.0,54.0,0.0,38.0
2.3826498985290527,50.0,36.0,46.0,0.0,38.0
2.3837332725524902,5.0,18.0,19.0,0.0,0.0
2.3848166465759277,51.0,0.0,581.0,30.0,18.0
2.3859000205993652,11.0,1026.0,750.0,28.0,17.0
2.3869833946228027,10.0,1477.0,823.0,27.0,38.0
2.3880667686462402,5.0,1928.0,931.0,13.0,58.0
2.3891499042510986,15.0,1138.0,471.0,10.0,73.0
2.390233278274536,27.0,347.0,10.0,8.0,0.0
2.3913166522979736,28.0,1646.0,17.0,5.0,31.0
2.3924667835235596,15.0,1183.0,539.0,23.0,62.0
2.393549919128418,21.0,814.0,32.0,16.0,70.0
2.3946332931518555,39.0,1441.0,476.0,9.0,30.0
2.395716667175293,0.0,37.0,75.0,11.0,29.0
2.3968000411987305,18.0,5.0,48.0,62.0,10.0
2.397883415222168,31.0,5.0,22.0,31.0,31.0
2.3989665508270264,33.0,371.0,15.0,0.0,16.0
2.400049924850464,36.0,737.0,8.0,5.0,23.0
2.4011332988739014,0.0,842.0,10.0,25.0,7.0
2.402216672897339,12.0,1043.0,12.0,34.0,15.0
2.4033000469207764,5.0,1566.0,22.0,44.0,24.0
2.404383420944214,28.0,1356.0,25.0,25.0,51.0
2.4054665565490723,50.0,1147.0,29.0,5.0,40.0
2.4065499305725098,41.0,15.0,278.0,0.0,37.0
2.4076333045959473,35.0,459.0,242.0,8.0,34.0
2.408750057220459,29.0,1794.0,206.0,374.0,31.0
2.4098498821258545,23.0,1493.0,11.0,190.0,18.0
2.410933256149292,21.0,874.0,904.0,5.0,41.0
2.4120166301727295,18.0,255.0,454.0,11.0,21.0
2.413116693496704,5.0,15.0,5.0,37.0,0.0
2.4141833782196045,31.0,1056.0,2174.0,45.0,5.0
2.415266752243042,64.0,285.0,1821.0,25.0,10.0
2.4163498878479004,86.0,1462.0,23.0,5.0,11.0
2.417433261871338,47.0,1209.0,994.0,33.0,15.0
2.4185166358947754,17.0,833.0,14.0,39.0,19.0
2.419600009918213,36.0,1565.0,985.0,32.0,0.0
2.4206833839416504,10.0,0.0,23.0,34.0,6.0
2.421783447265625,40.0,1550.0,31.0,0.0,5.0
2.4228498935699463,24.0,42.0,904.0,11.0,28.0
2.423933267593384,13.0,0.0,51.0,23.0,24.0
2.4250166416168213,13.0,227.0,24.0,19.0,0.0
2.4261667728424072,31.0,454.0,21.0,15.0,10.0
2.4272499084472656,0.0,595.0,18.0,15.0,21.0
2.428333282470703,10.0,427.0,764.0,19.0,18.0
2.4294166564941406,21.0,0.0,398.0,12.0,32.0
2.430500030517578,41.0,906.0,32.0,5.0,24.0
2.4315834045410156,48.0,1359.0,653.0,21.0,15.0
2.432666778564453,0.0,688.0,6.0,12.0,11.0
2.4337499141693115,30.0,17.0,446.0,9.0,6.0
2.434833288192749,55.0,25.0,11.0,5.0,24.0
2.4359166622161865,39.0,753.0,6.0,22.0,19.0
2.437000036239624,48.0,17.0,0.0,28.0,15.0
2.4380834102630615,23.0,685.0,15.0,17.0,29.0
2.439166784286499,12.0,426.0,13.0,21.0,14.0
2.4402499198913574,15.0,167.0,10.0,17.0,0.0
2.441333293914795,18.0,0.0,27.0,33.0,27.0
2.4424166679382324,21.0,156.0,16.0,37.0,24.0
2.4435501098632812,24.0,5.0,5.0,24.0,22.0
2.4446332454681396,25.0,970.0,173.0,10.0,185.0
2.445716619491577,26.0,1289.0,340.0,27.0,108.0
2.4467999935150146,23.0,431.0,280.0,27.0,31.0
2.447883367538452,0.0,972.0,35.0,28.0,6.0
2.4489667415618896,6.0,173.0,0.0,5.0,36.0
2.450050115585327,29.0,18.0,1205.0,11.0,6.0
2.4511332511901855,0.0,53.0,861.0,34.0,3.0
2.452216625213623,15.0,23.0,516.0,15.0,0.0
2.4532999992370605,30.0,19.0,1151.0,11.0,24.0
2.454383373260498,22.0,16.0,0.0,6.0,47.0
2.4554667472839355,5.0,12.0,17.0,8.0,53.0
2.456566572189331,6.0,8.0,28.0,27.0,5.0
2.4576332569122314,18.0,15.0,57.0,27.0,41.0
2.458716630935669,17.0,23.0,988.0,15.0,5.0
2.459866762161255,10.0,332.0,827.0,12.0,24.0
2.4609498977661133,12.0,642.0,5.0,12.0,34.0
2.462033271789551,14.0,819.0,467.0,0.0,28.0
2.4631166458129883,19.0,758.0,5.0,7.0,23.0
2.464200019836426,31.0,16.0,5.0,13.0,26.0
2.4652833938598633,26.0,357.0,0.0,18.0,28.0
2.466366767883301,21.0,76.0,10.0,23.0,46.0
2.467449903488159,15.0,5.0,21.0,28.0,23.0
2.4685332775115967,10.0,638.0,39.0,24.0,0.0
2.469616651535034,12.0,422.0,40.0,19.0,6.0
2.4707000255584717,32.0,319.0,41.0,17.0,11.0
2.471783399581909,28.0,216.0,80.0,5.0,45.0
2.4728667736053467,25.0,319.0,70.0,14.0,58.0
2.473949909210205,53.0,421.0,59.0,23.0,36.0
2.4750332832336426,51.0,419.0,32.0,6.0,14.0
2.47611665725708,39.0,33.0,1052.0,28.0,40.0
2.477250099182129,37.0,18.0,547.0,49.0,27.0
2.4783332347869873,10.0,976.0,42.0,47.0,26.0
2.479416608810425,0.0,841.0,121.0,17.0,26.0
2.4804999828338623,0.0,10.0,10.0,15.0,24.0
2.4815833568573,11.0,40.0,46.0,35.0,18.0
2.4826667308807373,19.0,18.0,21.0,6.0,23.0
2.483750104904175,27.0,28.0,29.0,28.0,23.0
2.484833240509033,17.0,17.0,25.0,5.0,42.0
2.4859166145324707,8.0,6.0,21.0,3.0,41.0
2.486999988555908,29.0,8.0,1429.0,0.0,39.0
2.4880833625793457,13.0,10.0,1704.0,24.0,5.0
2.489166736602783,11.0,13.0,18.0,21.0,23.0
2.4902501106262207,28.0,16.0,990.0,17.0,40.0
2.491333246231079,11.0,24.0,0.0,13.0,26.0
2.4924166202545166,0.0,32.0,936.0,32.0,11.0
2.4935500621795654,27.0,922.0,21.0,39.0,37.0
2.494649887084961,28.0,874.0,84.0,5.0,21.0
2.4957332611083984,47.0,763.0,37.0,19.0,18.0
2.496816635131836,40.0,5.0,33.0,27.0,6.0
2.4979000091552734,43.0,1285.0,15.0,65.0,7.0
2.498983383178711,24.0,58.0,17.0,48.0,12.0
