,302.1300048828125,303.1300048828125,304.1300048828125,305.1300048828125,306.1300048828125,307.1300048828125
1.9012999534606934,15.0,28.0,21.0,14.0,27.0,16.0
1.9026000499725342,43.0,24.0,17.0,5.0,31.0,67.0
1.9039000272750854,44.0,680.0,31.0,33.0,0.0,15.0
1.9052000045776367,32.0,23.0,5.0,12.0,16.0,19.0
1.906499981880188,43.0,5.0,7.0,13.0,33.0,10.0
1.9077999591827393,15.0,10.0,9.0,13.0,29.0,33.0
1.90910005569458,5.0,15.0,10.0,15.0,20.0,28.0
1.9104000329971313,0.0,0.0,10.0,17.0,25.0,39.0
1.9117000102996826,13.0,0.0,271.0,30.0,31.0,13.0
1.9129999876022339,0.0,0.0,139.0,33.0,15.0,5.0
1.9142999649047852,26.0,20.0,6.0,25.0,0.0,30.0
1.9155999422073364,22.0,26.0,19.0,18.0,10.0,12.0
1.9169000387191772,18.0,33.0,30.0,5.0,16.0,12.0
1.9182666540145874,14.0,28.0,5.0,14.0,21.0,30.0
1.9195666313171387,10.0,23.0,8.0,23.0,13.0,25.0
1.92086660861969,11.0,0.0,10.0,30.0,5.0,21.0
1.9221667051315308,5.0,11.0,30.0,37.0,0.0,34.0
1.9234833717346191,24.0,22.0,26.0,34.0,15.0,17.0
1.9247833490371704,98.0,16.0,22.0,32.0,19.0,23.0
1.9260833263397217,62.0,19.0,13.0,11.0,23.0,29.0
1.927383303642273,26.0,21.0,9.0,36.0,12.0,28.0
1.9286832809448242,18.0,21.0,5.0,36.0,5.0,21.0
1.929983377456665,29.0,21.0,11.0,37.0,10.0,12.0
1.9312833547592163,21.0,0.0,22.0,15.0,11.0,27.0
1.9325833320617676,21.0,30.0,690.0,29.0,6.0,34.0
1.9338833093643188,20.0,11.0,420.0,16.0,0.0,43.0
1.9351999759674072,29.0,31.0,149.0,21.0,18.0,41.0
1.9364999532699585,17.0,11.0,46.0,26.0,74.0,5.0
1.9378000497817993,5.0,18.0,5.0,11.0,43.0,21.0
1.9391000270843506,30.0,25.0,31.0,27.0,12.0,25.0
1.9404000043869019,10.0,6.0,56.0,23.0,19.0,17.0
1.9416999816894531,19.0,40.0,57.0,18.0,15.0,48.0
1.9429999589920044,10.0,38.0,20.0,12.0,11.0,52.0
1.9443166255950928,0.0,13.0,13.0,26.0,21.0,15.0
1.9456167221069336,3.0,18.0,5.0,29.0,21.0,8.0
1.9469166994094849,5.0,21.0,0.0,33.0,16.0,39.0
1.9482166767120361,16.0,23.0,15.0,26.0,11.0,43.0
1.9495166540145874,13.0,22.0,23.0,10.0,0.0,28.0
1.9508333206176758,10.0,10.0,31.0,8.0,0.0,12.0
1.952133297920227,18.0,15.0,28.0,5.0,9.0,5.0
1.9534332752227783,12.0,5.0,25.0,172.0,17.0,45.0
1.9547333717346191,5.0,12.0,25.0,226.0,24.0,36.0
1.9560333490371704,21.0,13.0,7.0,25.0,32.0,38.0
1.9573333263397217,20.0,5.0,0.0,0.0,34.0,47.0
1.958633303642273,31.0,18.0,7.0,33.0,11.0,0.0
1.9599332809448242,11.0,5.0,13.0,45.0,50.0,57.0
1.961233377456665,11.0,39.0,10.0,0.0,36.0,39.0
1.9625333547592163,5.0,30.0,6.0,20.0,9.0,20.0
1.9638333320617676,12.0,21.0,11.0,19.0,21.0,28.0
1.9651333093643188,12.0,42.0,15.0,48.0,6.0,34.0
1.9664332866668701,11.0,10.0,0.0,47.0,5.0,37.0
1.9678000211715698,14.0,14.0,0.0,46.0,15.0,31.0
1.969099998474121,16.0,34.0,17.0,43.0,17.0,0.0
1.9703999757766724,5.0,28.0,13.0,40.0,18.0,35.0
1.9716999530792236,15.0,21.0,26.0,50.0,6.0,6.0
1.9730000495910645,50.0,12.0,96.0,48.0,10.0,19.0
1.9743000268936157,54.0,19.0,96.0,0.0,15.0,37.0
1.975600004196167,13.0,25.0,97.0,15.0,19.0,12.0
1.9768999814987183,13.0,36.0,61.0,0.0,22.0,15.0
1.9781999588012695,12.0,31.0,5.0,15.0,20.0,9.0
1.9795000553131104,5.0,25.0,0.0,23.0,25.0,53.0
1.9808000326156616,9.0,19.0,30.0,17.0,23.0,32.0
1.982100009918213,12.0,23.0,5.0,23.0,34.0,10.0
1.9833999872207642,5.0,22.0,24.0,24.0,31.0,11.0
1.9847500324249268,5.0,8.0,44.0,25.0,31.0,6.0
1.986050009727478,5.0,34.0,34.0,18.0,24.0,0.0
1.9873499870300293,5.0,0.0,14.0,15.0,17.0,10.0
1.9886499643325806,5.0,20.0,44.0,14.0,19.0,12.0
1.9899499416351318,5.0,18.0,0.0,41.0,21.0,13.0
1.9912500381469727,21.0,0.0,11.0,38.0,21.0,13.0
1.992550015449524,22.0,18.0,10.0,20.0,20.0,17.0
1.9938499927520752,5.0,24.0,15.0,15.0,29.0,5.0
1.9951499700546265,19.0,31.0,15.0,10.0,8.0,19.0
1.9964499473571777,34.0,0.0,15.0,15.0,0.0,23.0
1.9977500438690186,42.0,13.0,25.0,0.0,0.0,22.0
1.9990500211715698,18.0,10.0,36.0,13.0,8.0,21.0
2.000349998474121,34.0,7.0,40.0,26.0,4.0,21.0
2.0017166137695312,0.0,18.0,23.0,20.0,0.0,17.0
2.003016710281372,16.0,22.0,44.0,40.0,25.0,32.0
2.004316568374634,24.0,28.0,6.0,24.0,20.0,31.0
2.0056166648864746,10.0,23.0,29.0,8.0,15.0,7.0
2.0069167613983154,33.0,5.0,33.0,24.0,5.0,13.0
2.008216619491577,34.0,13.0,44.0,0.0,5.0,18.0
2.009516716003418,36.0,21.0,35.0,25.0,12.0,16.0
2.0108165740966797,5.0,12.0,27.0,23.0,11.0,14.0
2.0121166706085205,15.0,27.0,30.0,0.0,10.0,57.0
2.0134167671203613,28.0,19.0,17.0,44.0,28.0,60.0
2.014716625213623,5.0,10.0,34.0,42.0,62.0,145.0
2.016016721725464,31.0,57.0,24.0,5.0,34.0,75.0
2.0173165798187256,50.0,34.0,14.0,5.0,6.0,5.0
2.0186667442321777,48.0,10.0,12.0,50.0,29.0,11.0
2.0199666023254395,25.0,347.0,23.0,50.0,24.0,14.0
2.0212666988372803,22.0,825.0,5.0,20.0,0.0,20.0
2.022566556930542,5.0,936.0,3.0,20.0,26.0,15.0
2.023866653442383,11.0,734.0,0.0,6.0,26.0,10.0
2.0251667499542236,38.0,410.0,3.0,0.0,20.0,27.0
2.0264666080474854,41.0,736.0,1.0,15.0,12.0,16.0
2.027766704559326,13.0,0.0,0.0,14.0,24.0,5.0
2.029066562652588,35.0,20.0,7.0,13.0,13.0,5.0
2.0303666591644287,22.0,427.0,14.0,12.0,0.0,5.0
2.0316667556762695,37.0,834.0,20.0,0.0,8.0,21.0
2.0329666137695312,22.0,1000.0,21.0,0.0,15.0,48.0
2.034266710281372,13.0,524.0,19.0,0.0,11.0,53.0
2.0356333255767822,17.0,31.0,16.0,45.0,6.0,40.0
2.036933422088623,16.0,942.0,19.0,37.0,0.0,30.0
2.0382332801818848,11.0,36.0,21.0,184.0,3.0,29.0
2.0395333766937256,5.0,18.0,13.0,106.0,5.0,28.0
2.0408332347869873,8.0,1430.0,13.0,29.0,10.0,20.0
2.042133331298828,11.0,1306.0,1078.0,0.0,10.0,10.0
2.043433427810669,6.0,1046.0,994.0,28.0,8.0,0.0
2.0447332859039307,0.0,1123.0,56.0,56.0,6.0,5.0
2.0460333824157715,0.0,1107.0,131.0,42.0,10.0,14.0
2.047333240509033,5.0,346.0,68.0,28.0,0.0,22.0
2.048633337020874,8.0,81.0,5.0,59.0,10.0,34.0
2.049933433532715,10.0,63.0,10.0,52.0,20.0,46.0
2.0512332916259766,22.0,46.0,45.0,45.0,13.0,32.0
2.0525832176208496,34.0,2081.0,36.0,22.0,6.0,10.0
2.0538833141326904,39.0,1595.0,23.0,33.0,20.0,34.0
2.0551834106445312,27.0,1108.0,10.0,45.0,10.0,42.0
2.056483268737793,33.0,1809.0,24.0,40.0,17.0,16.0
2.057783365249634,30.0,1054.0,18.0,25.0,23.0,15.0
2.0590832233428955,12.0,1677.0,12.0,11.0,24.0,19.0
2.0603833198547363,14.0,666.0,5.0,469.0,59.0,22.0
2.061683416366577,34.0,1320.0,11.0,245.0,61.0,16.0
2.062983274459839,0.0,1974.0,22.0,21.0,43.0,10.0
2.0642833709716797,10.0,1603.0,18.0,12.0,25.0,28.0
2.0655832290649414,29.0,1958.0,297.0,24.0,7.0,26.0
2.0668833255767822,15.0,2313.0,157.0,5.0,0.0,24.0
2.068183422088623,10.0,2640.0,16.0,27.0,15.0,17.0
2.069550037384033,7.0,535.0,75.0,43.0,18.0,10.0
2.070849895477295,25.0,1635.0,16.0,40.0,20.0,16.0
2.0721499919891357,25.0,1471.0,15.0,23.0,32.0,8.0
2.0734500885009766,25.0,1307.0,269.0,6.0,53.0,0.0
2.0747499465942383,27.0,1478.0,147.0,31.0,26.0,5.0
2.076050043106079,29.0,1723.0,26.0,35.0,0.0,6.0
2.077349901199341,27.0,1968.0,16.0,6.0,16.0,29.0
2.0786499977111816,26.0,13.0,11.0,28.0,5.0,15.0
2.0799500942230225,24.0,585.0,13.0,40.0,7.0,0.0
2.081249952316284,41.0,2540.0,14.0,31.0,8.0,13.0
2.082550048828125,48.0,319.0,10.0,23.0,16.0,21.0
2.0838499069213867,0.0,2259.0,6.0,16.0,14.0,27.0
2.0851500034332275,14.0,1190.0,31.0,15.0,121.0,11.0
2.0864999294281006,18.0,1335.0,558.0,10.0,71.0,31.0
2.0878000259399414,18.0,2033.0,286.0,44.0,21.0,39.0
2.089099884033203,12.0,1272.0,14.0,42.0,5.0,26.0
2.090399980545044,6.0,1530.0,21.0,19.0,47.0,28.0
2.0917000770568848,5.0,1788.0,28.0,17.0,50.0,30.0
2.0929999351501465,12.0,2371.0,85.0,25.0,62.0,30.0
2.0943000316619873,12.0,3018.0,865.0,18.0,11.0,40.0
2.095599889755249,12.0,3664.0,714.0,11.0,10.0,15.0
2.09689998626709,17.0,488.0,51.0,24.0,9.0,12.0
2.0982000827789307,14.0,561.0,11.0,14.0,10.0,46.0
2.0994999408721924,10.0,1521.0,5.0,5.0,8.0,13.0
2.100800037384033,5.0,2077.0,9.0,14.0,5.0,12.0
2.102099895477295,11.0,1377.0,12.0,11.0,5.0,18.0
2.103466749191284,5.0,3333.0,51.0,9.0,5.0,5.0
2.104766607284546,20.0,2496.0,41.0,20.0,5.0,7.0
2.1060667037963867,47.0,1659.0,5.0,15.0,3.0,12.0
2.1073665618896484,46.0,2914.0,16.0,10.0,0.0,16.0
2.1086666584014893,19.0,2988.0,26.0,0.0,7.0,11.0
2.10996675491333,15.0,2025.0,38.0,20.0,10.0,5.0
2.111266613006592,5.0,621.0,33.0,81.0,12.0,32.0
2.1125667095184326,15.0,323.0,29.0,62.0,17.0,34.0
2.1138665676116943,26.0,24.0,0.0,100.0,13.0,10.0
2.115166664123535,27.0,2385.0,14.0,60.0,9.0,21.0
2.116466760635376,29.0,3914.0,23.0,20.0,21.0,20.0
2.1177666187286377,8.0,3444.0,32.0,18.0,16.0,18.0
2.1190667152404785,35.0,4413.0,361.0,10.0,10.0,11.0
2.1204166412353516,35.0,1926.0,694.0,12.0,11.0,21.0
2.1217167377471924,30.0,2160.0,737.0,26.0,11.0,22.0
2.123016595840454,11.0,444.0,964.0,26.0,10.0,22.0
2.124316692352295,5.0,1170.0,313.0,25.0,17.0,12.0
2.1256165504455566,5.0,1896.0,962.0,15.0,16.0,23.0
2.1269166469573975,10.0,3468.0,36.0,5.0,14.0,33.0
2.1282167434692383,0.0,3333.0,867.0,8.0,18.0,33.0
2.1295166015625,12.0,2933.0,587.0,16.0,15.0,29.0
2.130816698074341,18.0,1014.0,33.0,28.0,12.0,24.0
2.1321165561676025,23.0,3147.0,1022.0,24.0,36.0,29.0
2.1334166526794434,36.0,2302.0,14.0,21.0,46.0,11.0
2.134716749191284,34.0,394.0,806.0,20.0,58.0,15.0
2.136016607284546,33.0,939.0,20.0,25.0,45.0,5.0
2.137383222579956,16.0,2122.0,5.0,31.0,32.0,34.0
2.138683319091797,0.0,1664.0,38.0,0.0,0.0,42.0
2.1399834156036377,52.0,1207.0,27.0,5.0,6.0,0.0
2.1412832736968994,1420.0,2150.0,5.0,8.0,19.0,32.0
2.1425833702087402,1156.0,1450.0,22.0,10.0,26.0,38.0
2.143883228302002,28.0,1369.0,19.0,20.0,908.0,5.0
2.1451833248138428,41.0,1192.0,147.0,10.0,678.0,5.0
2.1464834213256836,11.0,0.0,82.0,0.0,41.0,20.0
2.1477832794189453,21.0,743.0,16.0,5.0,37.0,23.0
2.149083375930786,8.0,1085.0,33.0,27.0,10.0,19.0
2.150383234024048,22.0,939.0,54.0,18.0,0.0,15.0
2.1516833305358887,20.0,794.0,34.0,10.0,11.0,0.0
2.1529834270477295,5.0,447.0,15.0,24.0,11.0,24.0
2.1543333530426025,16.0,1202.0,41.0,5.0,10.0,26.0
2.1556334495544434,27.0,181.0,24.0,9.0,14.0,11.0
2.156933307647705,210.0,867.0,52.0,13.0,17.0,22.0
2.158233404159546,114.0,1220.0,47.0,16.0,23.0,33.0
2.1595332622528076,18.0,1008.0,5.0,25.0,15.0,5.0
2.1608333587646484,15.0,1591.0,33.0,34.0,6.0,25.0
2.16213321685791,10.0,0.0,0.0,0.0,3.0,15.0
2.163433313369751,28.0,42.0,17.0,0.0,0.0,25.0
2.164733409881592,44.0,0.0,20.0,14.0,0.0,45.0
2.1660332679748535,32.0,16.0,22.0,10.0,7.0,47.0
2.1673333644866943,19.0,33.0,16.0,5.0,13.0,25.0
2.168633222579956,883.0,16.0,16.0,5.0,18.0,12.0
2.169933319091797,1272.0,0.0,66.0,5.0,23.0,5.0
2.171299934387207,1297.0,16.0,201.0,5.0,18.0,10.0
2.172600030899048,995.0,13.0,138.0,5.0,12.0,17.0
2.1738998889923096,932.0,10.0,75.0,5.0,41.0,19.0
2.1751999855041504,54.0,39.0,18.0,12.0,25.0,5.0
2.176500082015991,255.0,29.0,25.0,29.0,9.0,24.0
2.177799940109253,545.0,19.0,33.0,28.0,6.0,28.0
2.1791000366210938,12.0,18.0,15.0,16.0,5.0,41.0
2.1803998947143555,7.0,19.0,19.0,5.0,9.0,55.0
2.1816999912261963,519.0,20.0,20.0,13.0,7.0,0.0
2.183000087738037,65.0,22.0,16.0,13.0,5.0,25.0
2.184299945831299,42.0,22.0,12.0,10.0,10.0,25.0
2.1856000423431396,18.0,21.0,16.0,17.0,7.0,32.0
2.1868999004364014,14.0,10.0,20.0,15.0,5.0,39.0
2.1882500648498535,10.0,74.0,33.0,13.0,9.0,6.0
2.1895499229431152,60.0,55.0,39.0,36.0,32.0,56.0
2.190850019454956,37.0,36.0,46.0,47.0,37.0,29.0
2.192150115966797,15.0,6.0,25.0,47.0,21.0,5.0
2.1934499740600586,11.0,18.0,21.0,48.0,5.0,5.0
2.1947500705718994,18.0,37.0,34.0,11.0,23.0,6.0
2.196049928665161,6.0,39.0,36.0,36.0,22.0,15.0
2.197350025177002,11.0,41.0,10.0,34.0,12.0,8.0
2.1986498832702637,15.0,6.0,16.0,12.0,18.0,0.0
2.1999499797821045,17.0,5.0,14.0,6.0,8.0,5.0
2.2012500762939453,17.0,44.0,14.0,0.0,11.0,10.0
2.202549934387207,19.0,10.0,13.0,23.0,14.0,34.0
2.203850030899048,21.0,0.0,16.0,37.0,0.0,34.0
2.205216646194458,20.0,5.0,18.0,21.0,6.0,34.0
2.206516742706299,33.0,5.0,12.0,5.0,10.0,6.0
2.2078166007995605,19.0,8.0,5.0,0.0,14.0,0.0
2.2091166973114014,5.0,10.0,12.0,6.0,62.0,5.0
2.210416555404663,11.0,24.0,19.0,5.0,54.0,17.0
2.211716651916504,17.0,17.0,24.0,5.0,5.0,15.0
2.2130167484283447,17.0,10.0,29.0,5.0,12.0,13.0
2.2143166065216064,16.0,20.0,33.0,29.0,23.0,7.0
2.2156167030334473,22.0,13.0,27.0,17.0,5.0,0.0
2.216916561126709,30.0,6.0,21.0,6.0,52.0,34.0
2.21821665763855,38.0,0.0,31.0,10.0,61.0,40.0
2.2195167541503906,35.0,29.0,23.0,14.0,5.0,28.0
2.2208166122436523,13.0,24.0,15.0,17.0,24.0,15.0
2.2221667766571045,7.0,19.0,10.0,29.0,11.0,10.0
2.223466634750366,52.0,14.0,14.0,31.0,12.0,30.0
2.224766731262207,43.0,17.0,17.0,194.0,13.0,11.0
2.2260665893554688,5.0,32.0,21.0,117.0,0.0,15.0
2.2273666858673096,0.0,28.0,24.0,39.0,6.0,18.0
2.2286667823791504,6.0,24.0,17.0,27.0,3.0,28.0
2.229966640472412,11.0,35.0,10.0,19.0,0.0,38.0
2.231266736984253,25.0,0.0,14.0,42.0,0.0,34.0
2.2325665950775146,23.0,18.0,15.0,24.0,0.0,30.0
2.2338666915893555,12.0,6.0,18.0,5.0,7.0,30.0
2.235166549682617,0.0,10.0,6.0,33.0,14.0,5.0
2.236466646194458,12.0,8.0,42.0,0.0,15.0,18.0
2.237766742706299,23.0,27.0,32.0,468.0,17.0,18.0
2.239133358001709,40.0,29.0,21.0,354.0,10.0,17.0
2.2404332160949707,52.0,32.0,21.0,45.0,6.0,5.0
2.2417333126068115,32.0,17.0,20.0,8.0,0.0,13.0
2.2430334091186523,41.0,16.0,19.0,14.0,25.0,17.0
2.244333267211914,5.0,17.0,17.0,17.0,25.0,20.0
2.245633363723755,20.0,11.0,12.0,30.0,13.0,15.0
2.2469332218170166,0.0,5.0,6.0,19.0,0.0,15.0
2.2482333183288574,14.0,14.0,0.0,9.0,10.0,23.0
2.2495334148406982,33.0,22.0,23.0,30.0,18.0,22.0
2.25083327293396,18.0,25.0,33.0,29.0,13.0,20.0
2.252133369445801,10.0,25.0,22.0,28.0,17.0,24.0
2.2534332275390625,0.0,5.0,11.0,6.0,21.0,21.0
2.2547333240509033,10.0,5.0,24.0,35.0,23.0,17.0
2.2560832500457764,7.0,17.0,22.0,17.0,26.0,34.0
2.257383346557617,27.0,21.0,42.0,0.0,51.0,5.0
2.258683443069458,14.0,25.0,42.0,16.0,34.0,12.0
2.2599833011627197,0.0,46.0,42.0,16.0,17.0,45.0
2.2612833976745605,60.0,23.0,10.0,15.0,26.0,35.0
2.2625832557678223,44.0,0.0,26.0,0.0,24.0,12.0
2.263883352279663,7.0,55.0,21.0,10.0,68.0,16.0
2.265183448791504,23.0,9.0,13.0,6.0,53.0,0.0
2.2664833068847656,15.0,22.0,5.0,21.0,37.0,24.0
2.2678000926971436,16.0,34.0,17.0,37.0,0.0,26.0
2.269083261489868,12.0,10.0,20.0,48.0,58.0,34.0
2.270400047302246,5.0,5.0,13.0,41.0,7.0,24.0
2.2716832160949707,18.0,10.0,6.0,20.0,14.0,15.0
2.27305006980896,40.0,5.0,12.0,30.0,17.0,18.0
2.2743499279022217,42.0,6.0,17.0,26.0,10.0,17.0
2.2756500244140625,45.0,6.0,20.0,22.0,8.0,15.0
2.276949882507324,20.0,6.0,23.0,14.0,45.0,31.0
2.278249979019165,60.0,6.0,13.0,25.0,28.0,0.0
2.279550075531006,0.0,12.0,14.0,28.0,11.0,59.0
2.2808499336242676,10.0,11.0,12.0,18.0,46.0,77.0
2.2821500301361084,9.0,16.0,19.0,35.0,33.0,18.0
2.28344988822937,7.0,21.0,26.0,34.0,37.0,0.0
2.284749984741211,17.0,33.0,0.0,33.0,41.0,11.0
2.2860500812530518,27.0,29.0,44.0,10.0,18.0,8.0
2.2873499393463135,27.0,5.0,49.0,21.0,5.0,30.0
2.2886500358581543,27.0,37.0,34.0,23.0,11.0,32.0
2.2899999618530273,30.0,37.0,18.0,16.0,26.0,5.0
2.291300058364868,33.0,5.0,12.0,15.0,41.0,0.0
2.29259991645813,35.0,23.0,36.0,19.0,47.0,0.0
2.2939000129699707,38.0,41.0,202.0,23.0,54.0,5.0
2.2952001094818115,10.0,5.0,109.0,19.0,50.0,10.0
2.2964999675750732,26.0,44.0,16.0,14.0,11.0,21.0
2.297800064086914,13.0,35.0,31.0,23.0,44.0,43.0
