,486.2099914550781,487.2099914550781,488.2099914550781,489.2099914550781,490.2099914550781,491.2099914550781,492.2099914550781,493.2099914550781
5.101733207702637,661.0,75.0,17.0,0.0,30.0,771.0,20.0,46.0
5.103466510772705,20.0,48.0,17.0,23.0,10.0,0.0,46.0,30.0
5.105199813842773,23.0,5.0,17.0,29.0,39.0,28.0,28.0,20.0
5.106933116912842,18.0,26.0,20.0,19.0,12.0,23.0,0.0,18.0
5.108666896820068,6.0,12.0,24.0,18.0,38.0,10.0,5.0,25.0
5.110400199890137,18.0,10.0,0.0,5.0,18.0,30.0,12.0,21.0
5.112133502960205,0.0,5.0,16.0,30.0,21.0,30.0,20.0,0.0
5.113866806030273,0.0,12.0,0.0,41.0,0.0,29.0,19.0,6.0
5.115600109100342,22.0,19.0,51.0,0.0,22.0,25.0,34.0,13.0
5.117400169372559,5.0,16.0,30.0,7.0,26.0,5.0,37.0,20.0
5.119133472442627,25.0,12.0,10.0,12.0,11.0,15.0,19.0,13.0
5.120866775512695,16.0,0.0,18.0,8.0,6.0,16.0,50.0,14.0
5.122600078582764,39.0,18.0,5.0,5.0,7.0,0.0,44.0,15.0
5.124333381652832,36.0,24.0,23.0,54.0,7.0,2.0,31.0,0.0
5.1260666847229,17.0,29.0,11.0,33.0,8.0,5.0,27.0,10.0
5.127799987792969,0.0,23.0,0.0,11.0,15.0,28.0,10.0,26.0
5.129533290863037,28.0,18.0,5.0,50.0,18.0,42.0,0.0,26.0
5.1312665939331055,27.0,13.0,6.0,5.0,36.0,35.0,23.0,18.0
5.132999897003174,28.0,5.0,7.0,15.0,37.0,17.0,22.0,10.0
5.1347832679748535,14.0,23.0,9.0,34.0,23.0,10.0,11.0,5.0
5.136533260345459,0.0,0.0,12.0,16.0,7.0,19.0,36.0,0.0
5.13824987411499,14.0,7.0,14.0,25.0,26.0,5.0,21.0,0.0
5.139983177185059,11.0,15.0,13.0,34.0,25.0,22.0,5.0,5.0
5.141716480255127,9.0,6.0,0.0,39.0,25.0,24.0,30.0,23.0
5.143449783325195,0.0,22.0,23.0,20.0,23.0,8.0,20.0,25.0
5.145183563232422,8.0,27.0,19.0,0.0,0.0,20.0,17.0,28.0
5.146933555603027,16.0,24.0,16.0,25.0,26.0,5.0,32.0,8.0
5.148650169372559,13.0,21.0,27.0,34.0,26.0,5.0,19.0,16.0
5.150383472442627,13.0,18.0,21.0,13.0,0.0,0.0,5.0,16.0
5.152183532714844,13.0,18.0,15.0,22.0,13.0,6.0,23.0,18.0
5.153916835784912,19.0,27.0,11.0,24.0,11.0,13.0,17.0,20.0
5.1556501388549805,25.0,5.0,6.0,27.0,14.0,10.0,11.0,12.0
5.157383441925049,24.0,24.0,11.0,26.0,11.0,5.0,22.0,24.0
5.159116744995117,23.0,5.0,24.0,25.0,10.0,0.0,41.0,14.0
5.1608500480651855,26.0,26.0,12.0,21.0,10.0,17.0,25.0,5.0
5.162583351135254,10.0,21.0,0.0,18.0,10.0,11.0,10.0,19.0
5.164316654205322,6.0,10.0,12.0,28.0,10.0,5.0,22.0,25.0
5.166049957275391,11.0,26.0,24.0,38.0,5.0,7.0,34.0,29.0
5.167783260345459,17.0,16.0,40.0,26.0,10.0,9.0,32.0,14.0
5.169583320617676,19.0,0.0,39.0,14.0,23.0,11.0,30.0,0.0
5.171316623687744,16.0,30.0,37.0,27.0,14.0,18.0,33.0,12.0
5.1730499267578125,12.0,22.0,18.0,12.0,5.0,18.0,11.0,34.0
5.174783229827881,13.0,27.0,14.0,8.0,12.0,18.0,21.0,46.0
5.176516532897949,14.0,229.0,10.0,5.0,8.0,5.0,30.0,43.0
5.178249835968018,20.0,122.0,24.0,5.0,5.0,13.0,13.0,38.0
5.179983139038086,66.0,14.0,28.0,6.0,9.0,10.0,21.0,7.0
5.181716442108154,65.0,24.0,7.0,5.0,14.0,5.0,5.0,28.0
5.183450222015381,16.0,33.0,17.0,18.0,864.0,0.0,0.0,17.0
5.185216903686523,40.0,21.0,0.0,16.0,688.0,41.0,4.0,18.0
5.186950206756592,28.0,9.0,14.0,14.0,18.0,31.0,9.0,20.0
5.18868350982666,15.0,9.0,7.0,11.0,5.0,21.0,21.0,10.0
5.190400123596191,21.0,9.0,0.0,15.0,24.0,0.0,16.0,0.0
5.19213342666626,10.0,31.0,8.0,20.0,10.0,31.0,12.0,474.0
5.193866729736328,19.0,18.0,19.0,19.0,0.0,0.0,10.0,252.0
5.1956000328063965,13.0,5.0,24.0,25.0,14.0,30.0,8.0,30.0
5.197333335876465,7.0,10.0,30.0,21.0,10.0,33.0,6.0,19.0
5.19908332824707,20.0,11.0,7.0,17.0,6.0,5.0,6.0,26.0
5.202583312988281,20.0,12.0,16.0,25.0,38.0,10.0,6.0,34.0
5.206049919128418,15.0,0.0,25.0,21.0,35.0,16.0,5.0,25.0
5.209516525268555,10.0,23.0,37.0,26.0,25.0,16.0,10.0,35.0
5.212983131408691,36.0,25.0,25.0,21.0,29.0,16.0,19.0,13.0
5.216450214385986,30.0,18.0,14.0,0.0,33.0,7.0,16.0,0.0
5.219950199127197,25.0,5.0,31.0,8.0,38.0,0.0,14.0,19.0
5.223416805267334,23.0,39.0,6.0,24.0,21.0,10.0,17.0,13.0
5.226883411407471,17.0,41.0,22.0,12.0,5.0,21.0,15.0,14.0
5.230350017547607,14.0,15.0,13.0,0.0,19.0,26.0,14.0,16.0
5.233816623687744,5.0,27.0,9.0,28.0,7.0,32.0,7.0,5.0
5.237333297729492,15.0,15.0,26.0,17.0,40.0,29.0,0.0,13.0
5.240799903869629,8.0,25.0,29.0,12.0,42.0,15.0,2.0,14.0
5.244266510009766,14.0,35.0,33.0,27.0,5.0,5.0,5.0,33.0
5.247733116149902,5.0,12.0,35.0,10.0,19.0,0.0,0.0,27.0
5.251200199127197,23.0,19.0,16.0,20.0,17.0,7.0,8.0,7.0
5.254733562469482,21.0,26.0,19.0,15.0,5.0,15.0,8.0,27.0
5.258200168609619,19.0,28.0,17.0,14.0,5.0,13.0,8.0,17.0
5.261666774749756,17.0,24.0,23.0,14.0,5.0,11.0,9.0,30.0
5.265133380889893,14.0,20.0,29.0,30.0,26.0,27.0,10.0,20.0
5.268599987030029,12.0,5.0,0.0,27.0,44.0,19.0,5.0,12.0
5.2721333503723145,17.0,36.0,29.0,23.0,30.0,11.0,8.0,29.0
5.275599956512451,5.0,18.0,24.0,21.0,21.0,14.0,11.0,15.0
5.279066562652588,18.0,0.0,29.0,19.0,12.0,17.0,19.0,0.0
5.282533168792725,11.0,13.0,20.0,18.0,16.0,17.0,27.0,20.0
5.285999774932861,21.0,19.0,21.0,18.0,21.0,17.0,22.0,12.0
5.2895002365112305,28.0,30.0,22.0,30.0,12.0,8.0,18.0,5.0
5.292966842651367,28.0,24.0,20.0,22.0,10.0,0.0,15.0,0.0
5.296433448791504,23.0,19.0,12.0,14.0,34.0,15.0,16.0,35.0
5.299900054931641,22.0,14.0,21.0,7.0,28.0,18.0,33.0,34.0
5.303416728973389,11.0,10.0,6.0,0.0,21.0,19.0,32.0,21.0
5.306883335113525,0.0,6.0,25.0,2.0,26.0,21.0,25.0,0.0
5.310349941253662,32.0,21.0,19.0,5.0,30.0,20.0,20.0,25.0
5.313816547393799,15.0,10.0,33.0,33.0,19.0,15.0,12.0,16.0
5.3172831535339355,16.0,0.0,0.0,37.0,5.0,19.0,12.0,7.0
5.320816516876221,18.0,20.0,25.0,37.0,25.0,24.0,27.0,6.0
5.324283123016357,6.0,27.0,10.0,8.0,22.0,19.0,24.0,5.0
5.327750205993652,14.0,12.0,5.0,75.0,15.0,15.0,0.0,5.0
5.331216812133789,49.0,39.0,0.0,63.0,0.0,5.0,5.0,5.0
5.334683418273926,46.0,31.0,0.0,51.0,0.0,7.0,15.0,5.0
5.338216781616211,22.0,13.0,55.0,16.0,11.0,6.0,16.0,24.0
5.341683387756348,5.0,38.0,53.0,22.0,23.0,5.0,18.0,29.0
5.345149993896484,38.0,22.0,12.0,17.0,29.0,28.0,10.0,10.0
5.348616600036621,19.0,0.0,22.0,24.0,26.0,28.0,0.0,12.0
5.352083206176758,34.0,30.0,13.0,13.0,18.0,49.0,14.0,0.0
5.355616569519043,15.0,17.0,10.0,27.0,12.0,46.0,13.0,14.0
5.35908317565918,24.0,5.0,18.0,22.0,6.0,43.0,12.0,13.0
5.362549781799316,5.0,23.0,32.0,18.0,5.0,27.0,0.0,12.0
5.366016864776611,11.0,29.0,30.0,20.0,5.0,12.0,3.0,12.0
5.369483470916748,19.0,35.0,29.0,14.0,5.0,0.0,7.0,12.0
5.372966766357422,15.0,24.0,34.0,13.0,2.0,0.0,5.0,12.0
5.376450061798096,12.0,13.0,22.0,25.0,0.0,7.0,12.0,17.0
5.379916667938232,31.0,23.0,24.0,23.0,5.0,5.0,15.0,5.0
5.383383274078369,32.0,16.0,21.0,5.0,10.0,53.0,14.0,13.0
5.386849880218506,34.0,65.0,27.0,26.0,28.0,44.0,13.0,22.0
5.390366554260254,19.0,43.0,17.0,47.0,30.0,35.0,14.0,17.0
5.393833160400391,25.0,20.0,16.0,35.0,32.0,28.0,16.0,36.0
5.397299766540527,31.0,14.0,16.0,23.0,39.0,20.0,21.0,46.0
5.400766849517822,79.0,142.0,33.0,29.0,46.0,44.0,54.0,50.0
5.404233455657959,72.0,291.0,82.0,35.0,103.0,76.0,53.0,74.0
5.407766819000244,104.0,440.0,90.0,33.0,106.0,952.0,16.0,60.0
5.411233425140381,79.0,1235.0,78.0,376.0,221.0,1014.0,39.0,47.0
5.414700031280518,115.0,2115.0,1877.0,1131.0,952.0,100.0,61.0,59.0
5.418166637420654,149.0,2963.0,3955.0,999.0,1684.0,2788.0,663.0,43.0
5.4217000007629395,136.0,5284.0,14504.0,14976.0,11812.0,9028.0,4065.0,28.0
5.425166606903076,161.0,8508.0,37008.0,31876.0,26440.0,17084.0,7314.0,3513.0
5.428633213043213,161.0,27356.0,63088.0,70240.0,52192.0,29792.0,18116.0,3497.0
5.43209981918335,72.0,36416.0,83984.0,102736.0,85888.0,49648.0,23956.0,10524.0
5.4355669021606445,122.0,62112.0,145856.0,129616.0,128768.0,59488.0,34592.0,9476.0
5.439083099365234,71.0,69152.0,182592.0,187328.0,138624.0,84848.0,38496.0,11036.0
5.442550182342529,85.0,99424.0,216384.0,224448.0,181312.0,111648.0,52256.0,9716.0
5.446016788482666,33.0,107312.0,227968.0,262848.0,174976.0,111616.0,45648.0,9616.0
5.449483394622803,15.0,114816.0,296064.0,250688.0,188544.0,113488.0,58096.0,16276.0
5.4529500007629395,56.0,136512.0,313088.0,290112.0,226240.0,136576.0,47632.0,23008.0
5.456483364105225,61.0,126640.0,280896.0,291648.0,238976.0,147776.0,50288.0,24384.0
5.459949970245361,66.0,130688.0,277440.0,259456.0,220928.0,134272.0,64928.0,24892.0
5.463416576385498,88.0,128544.0,265344.0,273600.0,202624.0,147520.0,57920.0,16164.0
5.466883182525635,88.0,109312.0,266048.0,291328.0,216576.0,118864.0,47760.0,19756.0
5.4703497886657715,87.0,122928.0,279808.0,257088.0,206080.0,102224.0,62832.0,21088.0
5.473883152008057,85.0,85120.0,252224.0,252160.0,201472.0,121792.0,37264.0,21272.0
5.477350234985352,32.0,105680.0,216640.0,235648.0,176512.0,89728.0,48400.0,17420.0
5.480816841125488,54.0,97952.0,200000.0,246720.0,189120.0,96064.0,45664.0,14080.0
5.484283447265625,64.0,103312.0,214144.0,230656.0,156352.0,93008.0,45744.0,14772.0
5.487750053405762,59.0,104912.0,203968.0,208448.0,155264.0,83872.0,46496.0,12468.0
5.491283416748047,56.0,95792.0,206912.0,184448.0,141248.0,87024.0,26332.0,14224.0
5.494750022888184,54.0,79200.0,175552.0,177792.0,147456.0,76176.0,40336.0,9408.0
5.49821662902832,0.0,76240.0,177344.0,169472.0,132032.0,92048.0,34048.0,13324.0
5.501683235168457,72.0,75408.0,179328.0,163520.0,123728.0,83440.0,39392.0,8272.0
5.505149841308594,79.0,70304.0,154624.0,157632.0,122704.0,75840.0,29600.0,6474.0
5.508666515350342,26.0,84880.0,166528.0,162432.0,155712.0,72160.0,40880.0,10728.0
5.5121331214904785,8.0,82064.0,166400.0,178176.0,152192.0,75360.0,41216.0,10076.0
5.515600204467773,43.0,85168.0,176768.0,171840.0,140672.0,71488.0,34320.0,10168.0
5.51906681060791,0.0,76496.0,146816.0,165504.0,127200.0,77056.0,31872.0,9424.0
5.522533416748047,49.0,75232.0,149632.0,176000.0,130160.0,78288.0,30836.0,10884.0
5.526066780090332,22.0,72768.0,157568.0,176256.0,132864.0,73712.0,26580.0,12684.0
5.529533386230469,50.0,68720.0,131904.0,148352.0,131328.0,79568.0,26652.0,14488.0
5.5329999923706055,57.0,63936.0,140800.0,176704.0,90016.0,74144.0,29704.0,12384.0
5.536466598510742,24.0,65264.0,128544.0,135104.0,115232.0,67824.0,26612.0,3717.0
5.539933204650879,23.0,65168.0,118784.0,143488.0,100624.0,49968.0,27240.0,7407.0
5.543466567993164,64.0,59232.0,120912.0,122576.0,91728.0,50256.0,16504.0,6810.0
5.546933174133301,42.0,48576.0,76320.0,93568.0,60992.0,44528.0,23668.0,5556.0
5.5503997802734375,20.0,38064.0,74128.0,72576.0,72432.0,31432.0,16112.0,1383.0
5.553866863250732,116.0,26832.0,45264.0,62912.0,56512.0,23424.0,11744.0,3721.0
5.557400226593018,122.0,22816.0,53536.0,38528.0,30152.0,26352.0,9844.0,1290.0
5.560866832733154,79.0,17456.0,33552.0,37728.0,23304.0,17968.0,5675.0,1893.0
5.564333438873291,115.0,11436.0,35200.0,37136.0,16088.0,13468.0,1526.0,2307.0
5.567800045013428,97.0,11320.0,21400.0,20228.0,15320.0,10180.0,3997.0,2041.0
5.5712666511535645,128.0,9052.0,14764.0,11116.0,8464.0,9304.0,3165.0,2078.0
5.57480001449585,159.0,8636.0,13192.0,11884.0,9764.0,2030.0,1802.0,1243.0
5.578266620635986,190.0,7125.0,5098.0,6659.0,7012.0,2637.0,1624.0,49.0
5.581733226776123,188.0,4064.0,7939.0,7985.0,7065.0,7824.0,1047.0,3017.0
5.58519983291626,205.0,2516.0,7951.0,13756.0,5471.0,3076.0,1330.0,59.0
5.5886664390563965,191.0,3878.0,4590.0,4413.0,4364.0,1846.0,95.0,1347.0
5.5921831130981445,124.0,6065.0,4799.0,6745.0,1817.0,1730.0,112.0,112.0
5.5956501960754395,155.0,820.0,6237.0,3845.0,5458.0,2541.0,225.0,179.0
