,335.2099914550781,336.2099914550781,337.2099914550781,338.2099914550781,339.2099914550781,340.2099914550781,341.2099914550781,342.2099914550781,343.2099914550781,344.2099914550781,345.2099914550781
5.702383518218994,6.0,5.0,32.0,25.0,40.0,26.0,13.0,23.0,123.0,50.0,23.0
5.704766750335693,26.0,22.0,91.0,10.0,29.0,10.0,23.0,12.0,33.0,29.0,21.0
5.707149982452393,26.0,6.0,39.0,5.0,11.0,66.0,51.0,22.0,5.0,40.0,20.0
5.709533214569092,16.0,8.0,17.0,10.0,14.0,5.0,34.0,14.0,18.0,18.0,16.0
5.711916446685791,5.0,10.0,11.0,11.0,5.0,17.0,51.0,5.0,0.0,10.0,11.0
5.714300155639648,5.0,10.0,31.0,8.0,15.0,17.0,0.0,10.0,10.0,41.0,13.0
5.716683387756348,5.0,10.0,12.0,5.0,10.0,41.0,10.0,14.0,20.0,10.0,15.0
5.719116687774658,18.0,10.0,6.0,10.0,5.0,31.0,15.0,17.0,6.0,17.0,19.0
5.721499919891357,39.0,10.0,0.0,14.0,33.0,21.0,10.0,5.0,8.0,13.0,13.0
5.723883152008057,37.0,49.0,17.0,15.0,37.0,39.0,314.0,3.0,25.0,29.0,7.0
5.726266860961914,17.0,53.0,21.0,18.0,21.0,39.0,167.0,0.0,66.0,17.0,11.0
5.728650093078613,27.0,47.0,0.0,12.0,0.0,13.0,19.0,7.0,54.0,5.0,14.0
5.7310333251953125,10.0,5.0,24.0,5.0,6.0,6.0,26.0,13.0,42.0,9.0,14.0
5.733416557312012,8.0,13.0,20.0,0.0,19.0,21.0,55.0,15.0,28.0,12.0,13.0
5.735866546630859,33.0,42.0,11.0,6.0,23.0,21.0,18.0,17.0,37.0,26.0,22.0
5.738249778747559,41.0,28.0,10.0,10.0,26.0,10.0,18.0,19.0,47.0,23.0,11.0
5.740633487701416,0.0,8.0,16.0,39.0,10.0,5.0,41.0,21.0,33.0,25.0,0.0
5.743016719818115,35.0,30.0,11.0,33.0,23.0,10.0,21.0,14.0,0.0,29.0,5.0
5.7453999519348145,31.0,38.0,38.0,20.0,18.0,47.0,19.0,25.0,20.0,20.0,17.0
5.747783184051514,30.0,0.0,33.0,18.0,12.0,40.0,5.0,22.0,16.0,38.0,40.0
5.750166893005371,15.0,22.0,9.0,5.0,20.0,33.0,0.0,18.0,10.0,21.0,28.0
5.752600193023682,30.0,13.0,10.0,29.0,27.0,11.0,11.0,32.0,17.0,5.0,15.0
5.754983425140381,31.0,15.0,50.0,24.0,37.0,11.0,31.0,46.0,23.0,10.0,0.0
5.75736665725708,27.0,16.0,35.0,10.0,32.0,5.0,25.0,39.0,0.0,15.0,13.0
5.759749889373779,15.0,11.0,32.0,36.0,30.0,13.0,38.0,41.0,15.0,6.0,7.0
5.7621331214904785,0.0,5.0,25.0,5.0,11.0,20.0,23.0,43.0,6.0,15.0,0.0
5.764516830444336,11.0,3.0,38.0,40.0,20.0,13.0,30.0,21.0,31.0,8.0,37.0
5.766900062561035,21.0,0.0,5.0,23.0,14.0,5.0,33.0,53.0,26.0,11.0,29.0
5.769350051879883,5.0,22.0,0.0,17.0,7.0,44.0,35.0,12.0,22.0,15.0,20.0
5.771733283996582,20.0,24.0,19.0,11.0,7.0,36.0,32.0,5.0,29.0,8.0,23.0
5.774116516113281,12.0,25.0,24.0,11.0,4.0,19.0,41.0,22.0,36.0,15.0,20.0
5.776500225067139,14.0,25.0,24.0,10.0,0.0,16.0,23.0,6.0,33.0,15.0,20.0
5.778883457183838,5.0,25.0,24.0,17.0,5.0,25.0,19.0,59.0,29.0,23.0,19.0
5.781266689300537,22.0,23.0,23.0,23.0,5.0,33.0,15.0,56.0,24.0,24.0,11.0
5.783649921417236,23.0,25.0,21.0,25.0,10.0,30.0,28.0,53.0,35.0,24.0,23.0
5.786083221435547,18.0,26.0,32.0,0.0,8.0,27.0,40.0,50.0,45.0,29.0,36.0
5.788466453552246,30.0,15.0,32.0,33.0,5.0,19.0,33.0,47.0,31.0,25.0,31.0
5.7908501625061035,0.0,10.0,32.0,22.0,3.0,21.0,33.0,26.0,17.0,21.0,41.0
5.793233394622803,8.0,8.0,28.0,12.0,0.0,18.0,28.0,16.0,0.0,14.0,20.0
5.795616626739502,5.0,6.0,5.0,22.0,21.0,14.0,48.0,32.0,5.0,7.0,27.0
5.797999858856201,0.0,12.0,15.0,13.0,26.0,16.0,69.0,27.0,16.0,22.0,5.0
5.800383567810059,38.0,18.0,37.0,13.0,13.0,14.0,56.0,22.0,6.0,23.0,10.0
5.802833557128906,41.0,19.0,44.0,19.0,0.0,0.0,43.0,34.0,17.0,20.0,15.0
5.8052167892456055,0.0,10.0,52.0,24.0,8.0,6.0,41.0,26.0,29.0,5.0,71.0
5.807600021362305,32.0,20.0,5.0,12.0,27.0,11.0,14.0,26.0,19.0,32.0,68.0
5.809983253479004,28.0,16.0,32.0,0.0,25.0,39.0,36.0,26.0,10.0,10.0,35.0
5.812366485595703,25.0,0.0,24.0,19.0,24.0,28.0,48.0,14.0,5.0,17.0,29.0
5.8147501945495605,22.0,28.0,31.0,19.0,9.0,17.0,5.0,14.0,21.0,17.0,57.0
5.81713342666626,7.0,12.0,11.0,48.0,5.0,17.0,5.0,14.0,46.0,0.0,17.0
5.81956672668457,12.0,11.0,22.0,37.0,30.0,19.0,0.0,7.0,52.0,3.0,5.0
5.8219499588012695,16.0,19.0,15.0,7.0,15.0,21.0,14.0,18.0,16.0,5.0,59.0
5.824333190917969,19.0,20.0,10.0,18.0,0.0,0.0,29.0,38.0,45.0,11.0,23.0
5.826716899871826,23.0,21.0,5.0,0.0,3.0,35.0,21.0,22.0,18.0,12.0,82.0
5.8291168212890625,19.0,23.0,9.0,12.0,5.0,31.0,17.0,6.0,0.0,12.0,42.0
5.831483364105225,5.0,23.0,12.0,24.0,7.0,48.0,11.0,16.0,13.0,12.0,23.0
5.833866596221924,36.0,22.0,5.0,20.0,8.0,32.0,10.0,17.0,8.0,9.0,5.0
5.8363165855407715,67.0,16.0,33.0,37.0,18.0,5.0,5.0,13.0,8.0,6.0,107.0
5.838699817657471,82.0,10.0,36.0,33.0,19.0,22.0,3.0,12.0,7.0,11.0,91.0
5.841083526611328,40.0,16.0,49.0,5.0,19.0,43.0,0.0,5.0,20.0,12.0,31.0
5.843466758728027,19.0,9.0,33.0,5.0,24.0,43.0,44.0,10.0,40.0,13.0,19.0
5.845849990844727,5.0,22.0,36.0,21.0,0.0,20.0,43.0,10.0,42.0,19.0,31.0
5.848233222961426,0.0,22.0,39.0,15.0,9.0,0.0,5.0,16.0,34.0,30.0,21.0
5.850616455078125,7.0,21.0,53.0,8.0,17.0,22.0,41.0,31.0,25.0,19.0,16.0
5.853050231933594,16.0,17.0,0.0,6.0,23.0,30.0,0.0,46.0,5.0,9.0,28.0
5.855433464050293,22.0,0.0,49.0,5.0,5.0,16.0,24.0,33.0,267.0,14.0,24.0
5.857816696166992,29.0,5.0,5.0,31.0,0.0,29.0,15.0,11.0,209.0,7.0,20.0
5.860199928283691,19.0,17.0,14.0,28.0,7.0,26.0,6.0,19.0,151.0,9.0,31.0
5.862583160400391,10.0,30.0,16.0,5.0,13.0,11.0,10.0,29.0,471.0,10.0,24.0
5.864966869354248,19.0,26.0,5.0,9.0,31.0,45.0,13.0,12.0,1004.0,11.0,17.0
5.867350101470947,90.0,28.0,0.0,14.0,21.0,0.0,10.0,97.0,738.0,16.0,20.0
5.869766712188721,48.0,16.0,0.0,17.0,12.0,12.0,412.0,62.0,473.0,19.0,22.0
5.872183322906494,6.0,18.0,30.0,22.0,12.0,24.0,886.0,26.0,613.0,19.0,30.0
5.874566555023193,0.0,13.0,38.0,27.0,11.0,29.0,700.0,22.0,1659.0,19.0,54.0
5.876949787139893,30.0,18.0,5.0,21.0,10.0,0.0,10.0,37.0,1605.0,23.0,51.0
5.87933349609375,16.0,23.0,5.0,16.0,16.0,5.0,606.0,51.0,748.0,22.0,30.0
5.881716728210449,17.0,0.0,11.0,20.0,60.0,28.0,1945.0,36.0,1809.0,21.0,26.0
5.884099960327148,16.0,10.0,18.0,10.0,49.0,22.0,2551.0,20.0,2220.0,19.0,22.0
5.886483192443848,25.0,11.0,13.0,0.0,10.0,16.0,2152.0,33.0,990.0,15.0,11.0
5.888916492462158,42.0,13.0,8.0,87.0,5.0,15.0,1857.0,20.0,256.0,10.0,0.0
5.891300201416016,23.0,13.0,16.0,98.0,28.0,13.0,1498.0,7.0,8.0,20.0,17.0
5.893683433532715,5.0,12.0,0.0,19.0,0.0,11.0,33.0,12.0,562.0,19.0,17.0
5.896066665649414,16.0,15.0,17.0,21.0,5.0,5.0,1651.0,260.0,0.0,18.0,37.0
5.898449897766113,40.0,5.0,15.0,33.0,8.0,5.0,383.0,146.0,738.0,26.0,27.0
5.9008331298828125,31.0,15.0,24.0,21.0,10.0,5.0,3394.0,32.0,378.0,19.0,5.0
5.90321683883667,21.0,40.0,0.0,10.0,10.0,5.0,2629.0,47.0,17.0,11.0,16.0
5.905666828155518,12.0,35.0,20.0,25.0,10.0,0.0,5.0,1223.0,17.0,19.0,11.0
5.908050060272217,23.0,10.0,26.0,21.0,13.0,0.0,1519.0,951.0,24.0,0.0,8.0
5.910433292388916,9.0,20.0,19.0,11.0,15.0,0.0,5.0,679.0,185.0,45.0,4.0
5.912816524505615,12.0,11.0,15.0,21.0,5.0,11.0,45.0,769.0,96.0,688.0,0.0
5.915200233459473,0.0,16.0,10.0,42.0,5.0,9.0,96.0,1672.0,6.0,907.0,27.0
5.917583465576172,21.0,28.0,11.0,37.0,18.0,7.0,416.0,1698.0,14.0,25.0,18.0
5.919966697692871,21.0,5.0,12.0,33.0,22.0,6.0,735.0,2334.0,16.0,20.0,8.0
5.922399997711182,10.0,20.0,15.0,0.0,17.0,17.0,943.0,2394.0,18.0,24.0,24.0
5.924783229827881,23.0,18.0,18.0,25.0,19.0,24.0,7.0,3214.0,8.0,18.0,26.0
5.92716646194458,37.0,35.0,12.0,15.0,21.0,20.0,0.0,4217.0,26.0,48.0,18.0
5.9295501708984375,0.0,38.0,5.0,5.0,21.0,25.0,19.0,3569.0,20.0,78.0,5.0
5.931933403015137,17.0,8.0,42.0,26.0,20.0,7.0,15.0,1734.0,14.0,55.0,26.0
5.934316635131836,21.0,21.0,45.0,21.0,23.0,18.0,11.0,10.0,29.0,32.0,23.0
5.936699867248535,0.0,68.0,0.0,24.0,14.0,17.0,10.0,1558.0,44.0,6.0,16.0
5.939149856567383,15.0,70.0,43.0,0.0,5.0,16.0,10.0,1580.0,35.0,16.0,126.0
5.94153356552124,22.0,0.0,32.0,50.0,10.0,12.0,8.0,648.0,26.0,21.0,76.0
5.9439167976379395,34.0,32.0,21.0,41.0,14.0,8.0,10.0,1026.0,5.0,5.0,26.0
5.946300029754639,28.0,17.0,24.0,26.0,11.0,7.0,7.0,375.0,44.0,21.0,25.0
5.948683261871338,21.0,25.0,46.0,28.0,8.0,5.0,17.0,1026.0,0.0,19.0,23.0
5.951066493988037,11.0,0.0,42.0,26.0,15.0,35.0,39.0,499.0,19.0,12.0,21.0
5.9534502029418945,0.0,8.0,13.0,24.0,14.0,43.0,40.0,35.0,8.0,5.0,43.0
5.955883502960205,8.0,13.0,52.0,10.0,12.0,0.0,5.0,17.0,510.0,14.0,32.0
5.958266735076904,7.0,18.0,600.0,42.0,14.0,22.0,15.0,819.0,258.0,22.0,20.0
5.9606499671936035,6.0,29.0,696.0,126.0,16.0,7.0,24.0,758.0,6.0,30.0,17.0
5.963033199310303,31.0,35.0,622.0,616.0,17.0,34.0,50.0,13.0,6.0,22.0,0.0
5.965416431427002,42.0,41.0,842.0,744.0,17.0,1575.0,1264.0,572.0,42.0,14.0,29.0
5.967800140380859,29.0,1222.0,1063.0,872.0,2155.0,2257.0,4787.0,1124.0,92.0,595.0,22.0
5.970183372497559,19.0,1770.0,1531.0,4072.0,5628.0,1689.0,4553.0,1015.0,1510.0,1595.0,15.0
5.972633361816406,38.0,5657.0,6827.0,5983.0,12700.0,9932.0,6714.0,2116.0,1928.0,1238.0,13.0
5.9750165939331055,15.0,10612.0,17700.0,18880.0,15420.0,11628.0,13368.0,3963.0,2808.0,1212.0,10.0
5.977399826049805,18.0,9252.0,31720.0,32676.0,27120.0,25404.0,13908.0,4252.0,2987.0,1327.0,10.0
5.979783535003662,21.0,21040.0,44928.0,52224.0,37696.0,28108.0,20520.0,13624.0,4046.0,1443.0,520.0
5.982166767120361,26.0,27524.0,62528.0,53184.0,42400.0,36384.0,24500.0,17836.0,5105.0,2309.0,1436.0
5.9845499992370605,105.0,43728.0,86336.0,65104.0,64720.0,67696.0,44080.0,21836.0,9772.0,2515.0,1720.0
5.98693323135376,68.0,63872.0,105392.0,88688.0,65408.0,73040.0,56768.0,19340.0,16460.0,7678.0,2003.0
5.98936653137207,31.0,83680.0,117408.0,131264.0,109488.0,76704.0,53968.0,34992.0,17740.0,8039.0,2359.0
5.9917497634887695,42.0,102304.0,170304.0,135744.0,121504.0,89696.0,77232.0,34032.0,20260.0,9652.0,2552.0
5.994133472442627,32.0,119088.0,177856.0,154944.0,150336.0,115696.0,81232.0,39024.0,21820.0,9096.0,2545.0
5.996516704559326,22.0,101504.0,189888.0,205888.0,167808.0,142656.0,96672.0,44768.0,23376.0,8544.0,2538.0
5.998899936676025,12.0,138048.0,200512.0,206016.0,166144.0,118016.0,100432.0,50640.0,25196.0,13476.0,2413.0
6.001283168792725,14.0,139136.0,206336.0,220736.0,162176.0,112448.0,84944.0,48832.0,25712.0,12644.0,2288.0
6.003666877746582,15.0,133056.0,212160.0,215872.0,163072.0,129232.0,86032.0,35280.0,26232.0,15564.0,2498.0
6.00611686706543,24.0,141184.0,206080.0,197376.0,156928.0,125936.0,87120.0,34768.0,29572.0,13196.0,2708.0
6.008500099182129,34.0,134464.0,200000.0,221760.0,150720.0,118848.0,94352.0,46400.0,17664.0,9508.0,3363.0
6.010883331298828,42.0,133312.0,180864.0,189504.0,153536.0,99024.0,85616.0,41232.0,30204.0,11704.0,2632.0
6.013266563415527,38.0,110800.0,181504.0,149824.0,120256.0,119952.0,76864.0,42800.0,23376.0,6560.0,1901.0
6.015649795532227,34.0,90832.0,157760.0,155008.0,116240.0,96336.0,56080.0,24948.0,16636.0,7108.0,2476.0
6.018033504486084,19.0,85184.0,147584.0,131072.0,101568.0,89584.0,48368.0,24204.0,11408.0,2479.0,3050.0
6.020416736602783,23.0,76384.0,127072.0,98304.0,92848.0,55728.0,47328.0,21372.0,15516.0,1376.0,1159.0
6.022850036621094,74.0,63360.0,79200.0,73184.0,69776.0,53248.0,32880.0,16496.0,9296.0,4784.0,2599.0
6.025233268737793,67.0,45904.0,82224.0,65344.0,52480.0,45760.0,28784.0,14688.0,4900.0,3856.0,3188.0
6.027616500854492,59.0,39328.0,63312.0,45472.0,35024.0,29636.0,21724.0,10024.0,3812.0,2933.0,1800.0
6.03000020980835,54.0,28360.0,48672.0,49696.0,28876.0,20292.0,15196.0,7116.0,5625.0,38.0,431.0
6.032383441925049,48.0,17936.0,36832.0,28008.0,26244.0,17168.0,14860.0,6758.0,3686.0,6.0,38.0
6.034766674041748,51.0,19936.0,34720.0,22688.0,21016.0,17996.0,9828.0,4502.0,2494.0,26.0,707.0
6.037149906158447,24.0,9208.0,21544.0,27780.0,16648.0,14648.0,7388.0,4802.0,2117.0,46.0,5.0
6.039599895477295,19.0,4646.0,12668.0,12712.0,8920.0,5924.0,5118.0,1624.0,1440.0,55.0,24.0
6.041983127593994,14.0,8240.0,14148.0,9928.0,8035.0,3914.0,2473.0,1716.0,1165.0,63.0,34.0
6.044366836547852,0.0,8172.0,5285.0,5782.0,5534.0,3595.0,7269.0,894.0,2072.0,658.0,42.0
6.046750068664551,9.0,6691.0,7505.0,8352.0,8212.0,6324.0,1047.0,1442.0,727.0,547.0,50.0
6.049149990081787,5.0,1815.0,3700.0,5824.0,4096.0,5956.0,225.0,1398.0,1450.0,30.0,22.0
6.051516532897949,23.0,3954.0,4155.0,7505.0,2078.0,1431.0,1796.0,897.0,655.0,10.0,11.0
6.053899765014648,42.0,3516.0,5081.0,6149.0,1073.0,1864.0,913.0,955.0,245.0,16.0,58.0
6.05631685256958,32.0,4190.0,3406.0,5089.0,2035.0,1732.0,30.0,1280.0,451.0,39.0,20.0
6.058716773986816,16.0,1399.0,1776.0,4948.0,1613.0,975.0,2375.0,1606.0,17.0,61.0,38.0
6.0610833168029785,0.0,2824.0,3064.0,1914.0,1190.0,218.0,1251.0,1572.0,17.0,38.0,38.0
6.063483238220215,13.0,2101.0,2887.0,1109.0,2339.0,1913.0,657.0,1537.0,17.0,14.0,5.0
6.065849781036377,41.0,19.0,466.0,2252.0,1450.0,1985.0,1066.0,0.0,18.0,11.0,14.0
6.0682501792907715,37.0,761.0,1712.0,3053.0,1523.0,1468.0,1303.0,934.0,18.0,22.0,44.0
6.070633411407471,25.0,1807.0,2682.0,3746.0,831.0,805.0,808.0,963.0,18.0,11.0,22.0
6.073033332824707,38.0,387.0,1789.0,2190.0,1904.0,33.0,693.0,5.0,18.0,0.0,0.0
6.075416564941406,51.0,1276.0,1456.0,2237.0,2334.0,2189.0,578.0,775.0,257.0,12.0,15.0
6.0777997970581055,12.0,2166.0,1123.0,2285.0,693.0,1227.0,22.0,17.0,496.0,12.0,31.0
6.080183506011963,33.0,897.0,504.0,1151.0,46.0,2530.0,36.0,13.0,248.0,28.0,28.0
6.082566738128662,43.0,16.0,3359.0,17.0,408.0,1280.0,401.0,297.0,0.0,30.0,17.0
6.084949970245361,0.0,1320.0,3264.0,2757.0,770.0,820.0,1334.0,222.0,7.0,32.0,0.0
6.0873332023620605,10.0,685.0,2057.0,1532.0,503.0,630.0,686.0,146.0,14.0,192.0,0.0
6.089766502380371,16.0,0.0,2409.0,943.0,236.0,31.0,38.0,5.0,39.0,120.0,0.0
6.092166900634766,25.0,26.0,718.0,167.0,1079.0,5.0,44.0,51.0,37.0,48.0,5.0
6.094550132751465,41.0,16.0,2171.0,981.0,1284.0,0.0,406.0,457.0,21.0,19.0,17.0
6.096933364868164,23.0,679.0,799.0,5.0,1016.0,78.0,28.0,892.0,26.0,35.0,30.0
6.099316596984863,5.0,740.0,1335.0,11.0,749.0,43.0,216.0,464.0,31.0,809.0,21.0
6.1016998291015625,40.0,801.0,2636.0,95.0,1455.0,8.0,153.0,37.0,39.0,964.0,15.0
6.10408353805542,14.0,19.0,371.0,1546.0,1598.0,781.0,90.0,35.0,28.0,34.0,27.0
6.106466770172119,16.0,17.0,338.0,775.0,0.0,1315.0,34.0,169.0,16.0,6.0,19.0
6.10890007019043,17.0,199.0,24.0,5.0,10.0,1099.0,30.0,21.0,11.0,0.0,26.0
6.111283302307129,12.0,41.0,15.0,53.0,14.0,30.0,52.0,5.0,5.0,10.0,16.0
6.113666534423828,7.0,15.0,5.0,50.0,19.0,901.0,46.0,40.0,21.0,5.0,5.0
6.116049766540527,42.0,38.0,0.0,33.0,45.0,855.0,40.0,15.0,13.0,0.0,15.0
6.118433475494385,39.0,10.0,21.0,16.0,2109.0,866.0,466.0,141.0,5.0,15.0,36.0
6.120833396911621,54.0,21.0,29.0,557.0,2106.0,522.0,239.0,415.0,27.0,30.0,28.0
6.123199939727783,35.0,11.0,36.0,288.0,1328.0,177.0,11.0,440.0,9.0,28.0,15.0
6.125649929046631,26.0,0.0,332.0,19.0,1202.0,387.0,709.0,464.0,15.0,14.0,0.0
6.12803316116333,23.0,26.0,628.0,0.0,1261.0,579.0,888.0,33.0,20.0,18.0,11.0
6.1304168701171875,43.0,20.0,354.0,21.0,221.0,42.0,23.0,5.0,18.0,28.0,0.0
6.132800102233887,46.0,13.0,81.0,5.0,12.0,454.0,665.0,21.0,15.0,23.0,0.0
6.135183334350586,16.0,6.0,43.0,12.0,1112.0,256.0,845.0,5.0,14.0,17.0,32.0
6.137566566467285,36.0,11.0,5.0,13.0,823.0,58.0,59.0,12.0,12.0,18.0,26.0
6.139949798583984,24.0,5.0,35.0,13.0,1177.0,577.0,768.0,0.0,15.0,19.0,27.0
6.142383098602295,12.0,5.0,5.0,5.0,23.0,776.0,633.0,12.0,17.0,15.0,13.0
6.144766807556152,28.0,35.0,0.0,16.0,45.0,34.0,12.0,15.0,16.0,19.0,5.0
6.147150039672852,13.0,28.0,41.0,16.0,35.0,1028.0,0.0,7.0,23.0,22.0,19.0
6.149533271789551,17.0,11.0,17.0,16.0,20.0,828.0,55.0,17.0,23.0,5.0,12.0
6.15191650390625,20.0,42.0,28.0,11.0,36.0,11.0,22.0,10.0,12.0,30.0,5.0
6.154300212860107,15.0,35.0,16.0,11.0,25.0,37.0,0.0,15.0,0.0,9.0,13.0
6.156683444976807,10.0,29.0,23.0,11.0,15.0,531.0,13.0,19.0,23.0,15.0,20.0
6.159133434295654,14.0,16.0,30.0,32.0,5.0,21.0,45.0,13.0,30.0,12.0,16.0
6.1615166664123535,24.0,19.0,29.0,35.0,38.0,0.0,30.0,7.0,21.0,10.0,10.0
6.163899898529053,78.0,21.0,36.0,38.0,71.0,20.0,14.0,16.0,13.0,23.0,8.0
6.166283130645752,73.0,19.0,43.0,33.0,174.0,34.0,34.0,24.0,20.0,18.0,11.0
6.168666839599609,17.0,16.0,27.0,5.0,98.0,32.0,25.0,1044.0,18.0,13.0,14.0
6.171050071716309,13.0,11.0,11.0,28.0,21.0,31.0,16.0,792.0,16.0,44.0,17.0
6.173433303833008,28.0,19.0,679.0,11.0,0.0,28.0,26.0,23.0,46.0,42.0,19.0
6.175866603851318,0.0,10.0,358.0,12.0,17.0,25.0,26.0,33.0,33.0,28.0,19.0
6.178249835968018,37.0,8.0,37.0,13.0,0.0,7.0,11.0,25.0,19.0,37.0,18.0
6.180633544921875,15.0,6.0,25.0,0.0,37.0,22.0,6.0,12.0,27.0,5.0,15.0
6.183016777038574,17.0,17.0,14.0,19.0,33.0,33.0,0.0,22.0,35.0,23.0,10.0
6.185400009155273,17.0,22.0,18.0,5.0,41.0,43.0,4.0,32.0,11.0,32.0,7.0
6.187783241271973,17.0,16.0,894.0,513.0,36.0,36.0,7.0,29.0,21.0,17.0,5.0
6.190166473388672,0.0,0.0,1019.0,522.0,31.0,28.0,11.0,24.0,31.0,19.0,18.0
6.1926164627075195,0.0,18.0,10.0,73.0,41.0,21.0,14.0,0.0,12.0,31.0,16.0
6.195000171661377,24.0,49.0,792.0,25.0,51.0,14.0,0.0,17.0,29.0,10.0,22.0
6.197383403778076,22.0,39.0,749.0,20.0,754.0,53.0,8.0,0.0,19.0,9.0,23.0
