,301.2099914550781,302.2099914550781,303.2099914550781,304.2099914550781,305.2099914550781,306.2099914550781,307.2099914550781,308.2099914550781
5.201733112335205,426.0,28.0,2510.0,22.0,1729.0,38.0,47.0,41.0
5.203466892242432,11.0,0.0,1008.0,35.0,67.0,25.0,24.0,32.0
5.2052001953125,14.0,27.0,3614.0,18.0,26.0,1354.0,7.0,17.0
5.206933498382568,37.0,19.0,2108.0,608.0,507.0,24.0,10.0,27.0
5.208666801452637,11.0,11.0,2951.0,611.0,42.0,83.0,26.0,26.0
5.210400104522705,24.0,22.0,2520.0,716.0,29.0,19.0,15.0,29.0
5.212133407592773,37.0,0.0,1091.0,0.0,16.0,7.0,5.0,17.0
5.213866710662842,41.0,16.0,1556.0,5.0,655.0,48.0,30.0,5.0
5.21560001373291,56.0,21.0,2295.0,19.0,755.0,31.0,22.0,5.0
5.217400074005127,11.0,31.0,2343.0,33.0,855.0,18.0,14.0,13.0
5.219133377075195,42.0,25.0,1760.0,40.0,35.0,5.0,42.0,0.0
5.220866680145264,17.0,19.0,16.0,47.0,33.0,16.0,36.0,3.0
5.222599983215332,44.0,0.0,1482.0,69.0,6.0,27.0,32.0,6.0
5.2243332862854,50.0,23.0,597.0,60.0,292.0,18.0,28.0,9.0
5.226066589355469,57.0,20.0,819.0,51.0,161.0,10.0,18.0,13.0
5.227799892425537,5.0,8.0,774.0,39.0,31.0,49.0,9.0,11.0
5.2295331954956055,15.0,34.0,729.0,28.0,18.0,42.0,14.0,10.0
5.231266498565674,5.0,33.0,14.0,25.0,5.0,36.0,19.0,12.0
5.232999801635742,38.0,33.0,2264.0,22.0,6.0,12.0,21.0,15.0
5.234783172607422,41.0,33.0,3160.0,12.0,43.0,22.0,59.0,18.0
5.23651647567749,44.0,57.0,1813.0,591.0,187.0,33.0,35.0,5.0
5.238249778747559,20.0,72.0,781.0,686.0,107.0,10.0,11.0,37.0
5.239983558654785,5.0,87.0,804.0,11.0,27.0,38.0,22.0,31.0
5.2417168617248535,5.0,17.0,438.0,10.0,21.0,37.0,17.0,11.0
5.243450164794922,5.0,56.0,15.0,16.0,5.0,29.0,17.0,24.0
5.24518346786499,8.0,44.0,505.0,22.0,14.0,1132.0,35.0,28.0
5.246916770935059,12.0,25.0,269.0,15.0,40.0,1147.0,48.0,0.0
5.248650074005127,13.0,0.0,33.0,9.0,31.0,60.0,61.0,18.0
5.250383377075195,25.0,8.0,51.0,26.0,22.0,955.0,17.0,12.0
5.252183437347412,16.0,42.0,50.0,1200.0,18.0,30.0,11.0,6.0
5.2539167404174805,7.0,56.0,28.0,1313.0,15.0,519.0,61.0,23.0
5.255650043487549,43.0,39.0,554.0,39.0,366.0,44.0,5.0,24.0
5.257383346557617,46.0,40.0,809.0,26.0,717.0,28.0,843.0,25.0
5.2591166496276855,12.0,20.0,956.0,19.0,359.0,12.0,787.0,58.0
5.260849952697754,6.0,26.0,1103.0,38.0,0.0,732.0,10.0,50.0
5.262583255767822,10.0,9.0,1237.0,25.0,321.0,734.0,1031.0,30.0
5.264316558837891,14.0,7.0,1371.0,6.0,642.0,298.0,821.0,10.0
5.266049861907959,19.0,5.0,312.0,163.0,329.0,859.0,611.0,35.0
5.267783164978027,9.0,64.0,379.0,86.0,16.0,596.0,413.0,59.0
5.269583225250244,0.0,64.0,13.0,10.0,212.0,1804.0,214.0,59.0
5.2713165283203125,16.0,64.0,31.0,32.0,356.0,2124.0,31.0,58.0
5.273049831390381,28.0,54.0,50.0,22.0,499.0,1109.0,483.0,25.0
5.274783134460449,23.0,17.0,3749.0,12.0,874.0,2327.0,253.0,152.0
5.276516437530518,36.0,28.0,4112.0,11.0,739.0,2936.0,23.0,107.0
5.278250217437744,10.0,55.0,451.0,434.0,604.0,3877.0,17.0,62.0
5.2799835205078125,11.0,51.0,236.0,238.0,723.0,772.0,734.0,26.0
5.281716823577881,46.0,13.0,542.0,42.0,904.0,2453.0,981.0,1050.0
5.283450126647949,30.0,24.0,582.0,8.0,342.0,1626.0,496.0,843.0
5.285250186920166,15.0,5.0,15.0,35.0,1048.0,1867.0,10.0,360.0
5.286983489990234,18.0,30.0,13.0,32.0,924.0,1813.0,328.0,10.0
5.288716793060303,26.0,10.0,20.0,52.0,799.0,752.0,1380.0,29.0
5.290450096130371,20.0,5.0,10.0,8.0,24.0,53.0,1905.0,451.0
5.2921833992004395,27.0,18.0,0.0,30.0,30.0,536.0,1985.0,42.0
5.293916702270508,23.0,14.0,20.0,53.0,5.0,1019.0,1134.0,40.0
5.295650005340576,18.0,10.0,12.0,16.0,11.0,1116.0,284.0,38.0
5.2973833084106445,16.0,8.0,5.0,35.0,17.0,1326.0,362.0,56.0
5.299116611480713,15.0,15.0,6.0,44.0,14.0,443.0,839.0,39.0
5.300849914550781,22.0,10.0,11.0,51.0,11.0,306.0,437.0,22.0
5.302649974822998,14.0,13.0,18.0,16.0,35.0,841.0,553.0,883.0
5.304383277893066,6.0,28.0,13.0,27.0,34.0,514.0,669.0,465.0
5.306116580963135,8.0,44.0,9.0,70.0,34.0,250.0,761.0,48.0
5.307849884033203,11.0,49.0,70.0,0.0,43.0,7.0,804.0,7.0
5.3095831871032715,63.0,55.0,51.0,31.0,37.0,13.0,402.0,16.0
5.31131649017334,52.0,29.0,33.0,32.0,32.0,19.0,0.0,42.0
5.313049793243408,41.0,33.0,16.0,5.0,38.0,1642.0,1026.0,26.0
5.314783096313477,28.0,37.0,12.0,18.0,202.0,1873.0,634.0,758.0
5.316516876220703,50.0,31.0,19.0,9.0,366.0,719.0,5.0,798.0
5.3182501792907715,21.0,50.0,12.0,13.0,748.0,476.0,232.0,19.0
5.320033550262451,24.0,5.0,5.0,12.0,396.0,2207.0,7.0,55.0
5.3217668533325195,27.0,27.0,0.0,12.0,43.0,648.0,1109.0,781.0
5.323500156402588,30.0,21.0,6.0,27.0,805.0,28.0,575.0,48.0
5.325233459472656,28.0,23.0,13.0,41.0,912.0,827.0,42.0,5.0
5.326966762542725,479.0,10.0,10.0,30.0,1018.0,681.0,796.0,10.0
5.328700065612793,391.0,0.0,8.0,19.0,56.0,429.0,958.0,11.0
5.330433368682861,304.0,3.0,9.0,18.0,212.0,523.0,27.0,10.0
5.33216667175293,21.0,7.0,11.0,5.0,33.0,271.0,952.0,10.0
5.333899974822998,7.0,18.0,12.0,18.0,46.0,18.0,11.0,787.0
5.335633277893066,873.0,18.0,13.0,17.0,779.0,11.0,1257.0,854.0
5.337433338165283,703.0,40.0,11.0,17.0,595.0,5.0,918.0,510.0
5.339166641235352,494.0,40.0,10.0,16.0,412.0,9.0,795.0,72.0
5.34089994430542,640.0,40.0,10.0,16.0,24.0,13.0,24.0,0.0
5.342633247375488,627.0,75.0,10.0,2258.0,24.0,99.0,916.0,396.0
5.344366550445557,614.0,38.0,20.0,1977.0,16.0,185.0,879.0,15.0
5.346099853515625,17.0,0.0,33.0,0.0,22.0,549.0,41.0,54.0
5.347833156585693,818.0,13.0,89.0,936.0,718.0,291.0,397.0,57.0
5.349566459655762,1044.0,11.0,78.0,40.0,806.0,33.0,753.0,83.0
5.35129976272583,1552.0,10.0,66.0,17.0,314.0,706.0,23.0,42.0
5.353099822998047,74.0,12.0,74.0,29.0,5.0,0.0,611.0,31.0
5.354833126068115,26.0,11.0,39.0,41.0,1064.0,17.0,10.0,24.0
5.356566429138184,1878.0,10.0,563.0,37.0,465.0,33.0,800.0,6.0
5.35830020904541,0.0,28.0,733.0,31.0,8.0,54.0,38.0,28.0
5.3600335121154785,15.0,27.0,903.0,28.0,0.0,289.0,0.0,14.0
5.361766815185547,34.0,17.0,10.0,26.0,8.0,946.0,35.0,0.0
5.363500118255615,14.0,8.0,32.0,451.0,29.0,679.0,60.0,81.0
5.365233421325684,9.0,700.0,38.0,3670.0,2146.0,412.0,86.0,812.0
5.366966724395752,5.0,567.0,457.0,4596.0,2128.0,1943.0,1013.0,422.0
5.36870002746582,8.0,1804.0,5589.0,8608.0,2111.0,2201.0,1782.0,32.0
5.3704833984375,0.0,3743.0,9420.0,12356.0,7087.0,4064.0,1906.0,36.0
5.3722333908081055,0.0,5298.0,11696.0,20100.0,25640.0,5581.0,3232.0,18.0
5.373950004577637,5.0,6852.0,22108.0,28960.0,23532.0,7099.0,3810.0,2273.0
5.375683307647705,11.0,12476.0,37968.0,50544.0,53728.0,23552.0,13848.0,2481.0
5.377416610717773,167.0,31960.0,67072.0,73584.0,79840.0,47104.0,12816.0,1426.0
5.379166603088379,109.0,54400.0,100592.0,125536.0,126336.0,66816.0,24112.0,7476.0
5.38088321685791,51.0,51840.0,139968.0,174144.0,153024.0,75440.0,44832.0,8584.0
5.382633209228516,725.0,98064.0,217536.0,276416.0,201088.0,146304.0,55120.0,9068.0
5.384349822998047,561.0,102096.0,290688.0,363584.0,296064.0,167040.0,76880.0,10880.0
5.386083126068115,646.0,180480.0,371584.0,453632.0,381824.0,187840.0,88864.0,16812.0
5.387883186340332,522.0,218368.0,468160.0,617984.0,467328.0,253568.0,111216.0,28804.0
5.3896164894104,53.0,269888.0,586496.0,689408.0,536064.0,345216.0,154112.0,36144.0
5.391349792480469,43.0,323200.0,735488.0,777472.0,758016.0,412736.0,176896.0,39600.0
5.393083095550537,71.0,396736.0,862464.0,971264.0,804096.0,460800.0,195200.0,35296.0
5.394816875457764,82.0,416640.0,948480.0,1141248.0,940544.0,509248.0,217408.0,37632.0
5.396550178527832,93.0,458112.0,1063424.0,1286656.0,996096.0,563200.0,200576.0,39968.0
5.3982834815979,124.0,587008.0,1275648.0,1460224.0,1110016.0,591104.0,273664.0,47984.0
5.400016784667969,110.0,649728.0,1412864.0,1494784.0,1271552.0,724224.0,253440.0,53936.0
5.401750087738037,144.0,653568.0,1410816.0,1617152.0,1283072.0,709120.0,277952.0,62528.0
5.4034833908081055,132.0,738304.0,1533184.0,1742848.0,1447424.0,779520.0,275328.0,57536.0
5.405283451080322,196.0,711936.0,1562368.0,1816576.0,1497600.0,841728.0,302016.0,68432.0
5.407016754150391,175.0,799232.0,1623296.0,1799680.0,1435136.0,815616.0,330112.0,67472.0
5.408750057220459,412.0,791808.0,1662208.0,1833984.0,1441536.0,818688.0,350912.0,62960.0
5.410483360290527,581.0,834304.0,1732096.0,1968640.0,1447936.0,821504.0,323456.0,69440.0
5.412216663360596,357.0,815104.0,1737984.0,2037504.0,1636096.0,819456.0,347584.0,65840.0
5.413949966430664,134.0,807936.0,1726976.0,2033152.0,1611520.0,817152.0,295872.0,62224.0
5.415683269500732,212.0,802560.0,1777152.0,2004736.0,1619456.0,828672.0,325952.0,70464.0
5.417416572570801,209.0,827136.0,1740544.0,1976320.0,1528576.0,830208.0,333632.0,66288.0
5.419149875640869,207.0,729344.0,1703680.0,1935616.0,1476096.0,834048.0,351680.0,52016.0
5.420933246612549,265.0,825088.0,1623040.0,1842688.0,1448448.0,781824.0,318272.0,73664.0
5.422666549682617,323.0,730624.0,1524992.0,1720832.0,1373440.0,773376.0,281856.0,62544.0
5.424416542053223,117.0,641792.0,1417728.0,1608448.0,1300992.0,651264.0,239936.0,50816.0
5.426133155822754,158.0,682496.0,1401344.0,1507584.0,1186560.0,657920.0,254016.0,43744.0
5.427866458892822,198.0,594432.0,1311232.0,1381888.0,1070848.0,608256.0,248896.0,55376.0
5.429599761962891,110.0,613120.0,1196544.0,1358592.0,989440.0,548864.0,219328.0,37600.0
5.431333541870117,123.0,494144.0,1056000.0,1250816.0,946432.0,502208.0,185792.0,36192.0
5.4330668449401855,136.0,431296.0,983552.0,1141504.0,857856.0,482112.0,167168.0,31500.0
5.434816837310791,184.0,371968.0,851456.0,944640.0,717312.0,418560.0,134720.0,38816.0
5.436533451080322,188.0,355712.0,809984.0,912640.0,656128.0,383680.0,139840.0,27780.0
5.438333511352539,168.0,327616.0,689664.0,762112.0,571136.0,340608.0,137344.0,25476.0
5.440066814422607,148.0,323776.0,744704.0,776960.0,586496.0,319296.0,122480.0,24620.0
5.441800117492676,119.0,288384.0,663808.0,663808.0,542464.0,263296.0,129264.0,18272.0
5.443533420562744,1052.0,255936.0,630016.0,654848.0,517440.0,261824.0,90576.0,18020.0
5.4452667236328125,578.0,251776.0,505408.0,623104.0,465984.0,272896.0,101360.0,16316.0
5.447000026702881,104.0,236800.0,511104.0,628736.0,423616.0,244032.0,80624.0,15800.0
5.448733329772949,81.0,229504.0,512512.0,562432.0,421504.0,245824.0,86064.0,15280.0
5.450466632843018,106.0,219776.0,476224.0,539648.0,399616.0,219008.0,81072.0,12352.0
5.452199935913086,96.0,201408.0,473472.0,503744.0,394560.0,224896.0,75568.0,14560.0
5.453933238983154,86.0,186752.0,461888.0,473344.0,360192.0,221504.0,70064.0,16460.0
5.455733299255371,77.0,206272.0,405504.0,494080.0,353920.0,190272.0,74976.0,15688.0
5.4574666023254395,68.0,199424.0,392320.0,504128.0,373760.0,204864.0,59248.0,17008.0
5.459199905395508,60.0,190848.0,386816.0,425792.0,359680.0,176576.0,74688.0,13352.0
5.460933208465576,52.0,184128.0,409280.0,414464.0,341952.0,186176.0,75792.0,14776.0
5.4626665115356445,91.0,177664.0,390656.0,395648.0,340352.0,169408.0,78464.0,7270.0
5.464399814605713,72.0,172288.0,365248.0,403584.0,310336.0,191424.0,69136.0,15756.0
5.466133117675781,54.0,188160.0,376576.0,411520.0,342080.0,170752.0,76496.0,10600.0
5.467866897583008,79.0,183040.0,373952.0,414592.0,327936.0,165696.0,63712.0,10572.0
5.469600200653076,24.0,187776.0,326400.0,401728.0,295040.0,199104.0,62656.0,14912.0
5.4713335037231445,73.0,150272.0,380608.0,414976.0,332096.0,163072.0,73264.0,14364.0
5.473116874694824,82.0,182912.0,376832.0,416896.0,321280.0,174464.0,57984.0,10004.0
5.47486686706543,90.0,177600.0,385664.0,391104.0,319296.0,197184.0,73200.0,12024.0
5.476583480834961,80.0,180992.0,384704.0,414336.0,328640.0,180224.0,66672.0,17580.0
5.478316783905029,78.0,180160.0,374592.0,420032.0,331392.0,162944.0,70880.0,19580.0
5.480050086975098,80.0,198528.0,362880.0,402432.0,350016.0,185664.0,62768.0,12984.0
5.481783390045166,81.0,193600.0,369856.0,420416.0,357440.0,172864.0,71360.0,13484.0
5.483516693115234,41.0,148928.0,364928.0,418752.0,314432.0,191232.0,71552.0,13476.0
5.485249996185303,90.0,164096.0,356800.0,388992.0,326016.0,169280.0,71744.0,14948.0
5.486983299255371,84.0,176384.0,361408.0,404864.0,324480.0,180608.0,63984.0,12928.0
5.488783359527588,78.0,163136.0,366016.0,376960.0,293952.0,167488.0,65632.0,10908.0
5.490516662597656,37.0,147648.0,332416.0,386048.0,293440.0,184640.0,63920.0,7243.0
5.492249965667725,42.0,158016.0,327808.0,385792.0,285248.0,157696.0,62208.0,10348.0
5.493983268737793,48.0,157568.0,323136.0,354816.0,296448.0,136256.0,60096.0,8029.0
5.495716571807861,23.0,154880.0,324992.0,359744.0,292736.0,140352.0,48912.0,8684.0
5.49744987487793,55.0,152256.0,326848.0,339520.0,273344.0,143360.0,50016.0,9340.0
5.499183177947998,45.0,141184.0,299072.0,364672.0,255680.0,143360.0,42480.0,6664.0
5.500916481018066,36.0,134400.0,263680.0,342912.0,236864.0,143424.0,52272.0,8788.0
5.502649784088135,39.0,142144.0,246848.0,320576.0,199808.0,123552.0,46368.0,6906.0
5.504383563995361,45.0,101888.0,240000.0,270528.0,199168.0,118880.0,53808.0,7027.0
5.50618314743042,43.0,92464.0,255680.0,273664.0,209024.0,129472.0,40704.0,8980.0
5.507916450500488,41.0,99488.0,206016.0,218816.0,170048.0,77584.0,29940.0,7455.0
5.509650230407715,741.0,96608.0,187200.0,212480.0,151936.0,85200.0,37392.0,6197.0
5.511383533477783,615.0,75664.0,200448.0,202496.0,160064.0,72896.0,34256.0,5635.0
5.513116836547852,1001.0,73264.0,148608.0,163200.0,122592.0,78672.0,22532.0,8312.0
5.51485013961792,109.0,75712.0,137920.0,147008.0,127424.0,62176.0,25272.0,2420.0
5.516583442687988,859.0,65072.0,112800.0,139200.0,106032.0,46576.0,25804.0,4850.0
5.518316745758057,757.0,54336.0,119328.0,99104.0,85840.0,46848.0,14336.0,2750.0
5.520050048828125,119.0,45904.0,96288.0,100624.0,87680.0,32156.0,14360.0,1921.0
5.521783351898193,15.0,35904.0,91760.0,107488.0,66128.0,47600.0,14848.0,3659.0
5.52358341217041,8.0,32128.0,70864.0,80528.0,67792.0,39504.0,8788.0,1434.0
5.5253167152404785,44.0,33120.0,70432.0,92912.0,72624.0,23960.0,8038.0,878.0
5.527050018310547,24.0,35504.0,61808.0,79632.0,47104.0,29324.0,15520.0,1966.0
5.528783321380615,108.0,18424.0,52864.0,57104.0,54224.0,27484.0,9168.0,2243.0
5.530516624450684,80.0,27696.0,56288.0,67904.0,50080.0,29608.0,12752.0,2223.0
5.532249927520752,52.0,22644.0,51744.0,52384.0,50960.0,31920.0,7094.0,2202.0
5.53398323059082,97.0,29280.0,56224.0,77888.0,57152.0,31308.0,10016.0,1650.0
5.535716533660889,75.0,26848.0,60704.0,86640.0,68704.0,30700.0,16072.0,1097.0
5.537449836730957,54.0,26612.0,72928.0,82656.0,76480.0,46848.0,18200.0,2230.0
5.539183139801025,52.0,40816.0,73840.0,130544.0,88656.0,46800.0,30272.0,3363.0
5.540983200073242,83.0,48784.0,124624.0,163840.0,162368.0,83888.0,26912.0,8744.0
5.5427165031433105,64.0,80880.0,177152.0,229952.0,222784.0,125120.0,37264.0,11612.0
5.544449806213379,61.0,106672.0,262656.0,302912.0,283904.0,167360.0,61600.0,14736.0
5.546183109283447,9.0,149440.0,353472.0,468672.0,390400.0,241600.0,62208.0,12372.0
5.547916889190674,22.0,177600.0,422976.0,594688.0,512256.0,284032.0,106624.0,21292.0
5.549650192260742,36.0,264320.0,565504.0,756224.0,638208.0,384320.0,138944.0,24168.0
5.5513834953308105,42.0,316480.0,683520.0,1000704.0,749824.0,444992.0,178688.0,27044.0
5.553116798400879,49.0,396864.0,862976.0,1161472.0,897536.0,520320.0,168832.0,25572.0
5.554850101470947,86.0,453120.0,1030144.0,1396480.0,1116160.0,612608.0,202816.0,46032.0
5.556650161743164,73.0,509184.0,1150208.0,1637376.0,1281536.0,672512.0,263488.0,59696.0
5.558383464813232,60.0,598016.0,1309440.0,1770496.0,1522944.0,865280.0,287232.0,63088.0
5.560116767883301,534.0,674816.0,1439744.0,2025984.0,1689344.0,858880.0,293184.0,70016.0
5.561850070953369,540.0,771840.0,1670912.0,2178048.0,1810944.0,969728.0,330112.0,59456.0
5.5635833740234375,103.0,767488.0,1759744.0,2473984.0,1907712.0,1046016.0,342016.0,53456.0
5.565316677093506,165.0,784640.0,1897472.0,2575360.0,2115584.0,1231104.0,381568.0,79696.0
5.567049980163574,552.0,965120.0,1969920.0,2656256.0,2168832.0,1208576.0,382464.0,83744.0
5.568783283233643,160.0,930816.0,2100224.0,2803712.0,2185216.0,1214720.0,392576.0,84544.0
5.570516586303711,208.0,912896.0,2156544.0,2792448.0,2176000.0,1096192.0,399168.0,78144.0
5.572249889373779,227.0,1011712.0,2278400.0,3021824.0,2315264.0,1244928.0,407040.0,92496.0
5.574049949645996,247.0,978176.0,2206720.0,3053568.0,2299904.0,1275648.0,393792.0,91728.0
5.5757832527160645,103.0,1032448.0,2219008.0,2905088.0,2229248.0,1159680.0,380480.0,83584.0
5.577516555786133,252.0,1005568.0,2304000.0,2844672.0,2219008.0,1202688.0,388672.0,84656.0
5.579249858856201,345.0,1050112.0,2195456.0,2920448.0,2284544.0,1290752.0,403264.0,78432.0
5.5809831619262695,439.0,1043968.0,2246656.0,2843648.0,2259968.0,1257472.0,403392.0,72224.0
5.582716464996338,254.0,1001216.0,2070784.0,2782208.0,2234368.0,1245184.0,395904.0,76464.0
5.584449768066406,204.0,1076480.0,2103296.0,2840576.0,2203648.0,1179136.0,361280.0,71392.0
5.586183547973633,256.0,1009408.0,2128896.0,2723840.0,2146304.0,1084928.0,337536.0,59904.0
5.587916851043701,254.0,890368.0,2072832.0,2667520.0,2022656.0,1140224.0,367488.0,75648.0
5.5896501541137695,252.0,933632.0,2011392.0,2657280.0,2112512.0,1060864.0,365824.0,71712.0
5.591450214385986,557.0,939008.0,1953792.0,2465792.0,1944064.0,1073920.0,340416.0,67792.0
5.593183517456055,406.0,903168.0,1935104.0,2576384.0,2042880.0,1058304.0,347136.0,61680.0
5.594916820526123,255.0,864000.0,1800960.0,2549760.0,1983232.0,1005568.0,336576.0,78480.0
5.596650123596191,238.0,884736.0,1981952.0,2381824.0,1879040.0,1050624.0,328256.0,73216.0
5.59838342666626,298.0,819968.0,1788416.0,2332672.0,1865984.0,964352.0,319936.0,49152.0
5.600116729736328,157.0,758272.0,1717248.0,2137088.0,1653504.0,950528.0,289216.0,71104.0
5.6018500328063965,188.0,741888.0,1692160.0,2142208.0,1751808.0,923648.0,322240.0,68912.0
5.603583335876465,219.0,729856.0,1561600.0,2172928.0,1733888.0,935168.0,314944.0,61056.0
5.605316638946533,678.0,769280.0,1577984.0,2017536.0,1680640.0,913920.0,300224.0,62192.0
5.607049942016602,436.0,718848.0,1561088.0,2120704.0,1683968.0,933632.0,284608.0,58544.0
5.608833312988281,194.0,668672.0,1537792.0,2039808.0,1564160.0,833792.0,258176.0,50384.0
5.610583305358887,371.0,703744.0,1502720.0,1957120.0,1511680.0,836608.0,252288.0,61984.0
5.612299919128418,547.0,673280.0,1542656.0,2080256.0,1543936.0,842496.0,277184.0,51632.0
5.614049911499023,291.0,668160.0,1418240.0,1895168.0,1489664.0,788992.0,246912.0,49488.0
5.615766525268555,559.0,664320.0,1460736.0,1872896.0,1398016.0,783360.0,235392.0,54592.0
5.617499828338623,1049.0,589824.0,1340160.0,1855488.0,1464832.0,775424.0,270336.0,53408.0
5.619233131408691,977.0,603136.0,1388800.0,1785600.0,1294080.0,757760.0,247616.0,52224.0
5.62096643447876,1128.0,579840.0,1237760.0,1697280.0,1323776.0,764672.0,263360.0,56240.0
5.622700214385986,122.0,631552.0,1297664.0,1688320.0,1343744.0,776704.0,245056.0,49296.0
5.624466896057129,152.0,640000.0,1321728.0,1785344.0,1328384.0,742400.0,233856.0,48112.0
5.626200199127197,400.0,611584.0,1244416.0,1704192.0,1312768.0,726272.0,258240.0,46912.0
5.627933502197266,303.0,636416.0,1250816.0,1707008.0,1303808.0,678400.0,227008.0,46624.0
5.629666805267334,205.0,589824.0,1257216.0,1703168.0,1308160.0,770048.0,241280.0,46336.0
5.631400108337402,248.0,529920.0,1257728.0,1613568.0,1312768.0,682240.0,250304.0,45600.0
5.633133411407471,140.0,580096.0,1248512.0,1666048.0,1333760.0,723200.0,254016.0,44864.0
5.634866714477539,226.0,568832.0,1219840.0,1725952.0,1355008.0,750080.0,238656.0,45488.0
5.636600017547607,1041.0,593408.0,1233920.0,1677056.0,1347328.0,756480.0,248256.0,46128.0
5.638333320617676,1239.0,595200.0,1247744.0,1579264.0,1278464.0,677632.0,247232.0,50496.0
5.640066623687744,219.0,595968.0,1246720.0,1672192.0,1245952.0,711168.0,230784.0,35152.0
5.641866683959961,244.0,566016.0,1245696.0,1602304.0,1267200.0,678400.0,217088.0,50592.0
5.643599987030029,314.0,568064.0,1227264.0,1577472.0,1291008.0,700416.0,238208.0,42112.0
5.645333290100098,1207.0,574208.0,1194496.0,1638656.0,1254912.0,670208.0,219200.0,43712.0
5.647066593170166,1023.0,544512.0,1157120.0,1602560.0,1236480.0,682240.0,236800.0,47472.0
5.648799896240234,225.0,561920.0,1183744.0,1609216.0,1330944.0,681472.0,232064.0,49440.0
5.650533199310303,770.0,481536.0,1162496.0,1453824.0,1148160.0,659200.0,189632.0,47424.0
5.652266502380371,455.0,531968.0,1130496.0,1463040.0,1176064.0,617984.0,194048.0,51024.0
5.6539998054504395,382.0,536320.0,1123328.0,1537536.0,1175296.0,622080.0,195648.0,36576.0
5.655733108520508,894.0,521344.0,1151232.0,1385216.0,1045760.0,620288.0,184128.0,33280.0
5.657466888427734,164.0,500544.0,1084672.0,1353216.0,1131008.0,578816.0,172736.0,43120.0
5.659266471862793,133.0,481088.0,1085184.0,1509632.0,1143552.0,544256.0,189440.0,40992.0
5.660999774932861,796.0,462272.0,985856.0,1351680.0,1001472.0,540672.0,165056.0,28792.0
5.662733554840088,319.0,439168.0,923648.0,1172992.0,918016.0,477376.0,177664.0,39456.0
5.664466857910156,708.0,403136.0,931840.0,1148416.0,882176.0,507328.0,147008.0,30928.0
5.666200160980225,72.0,378304.0,825856.0,1068544.0,827392.0,469760.0,144896.0,37616.0
5.667933464050293,313.0,391296.0,832512.0,1057280.0,880128.0,440896.0,143424.0,29872.0
5.669666767120361,554.0,348928.0,784896.0,971776.0,769280.0,396864.0,119600.0,29212.0
5.67140007019043,139.0,324864.0,706560.0,843520.0,720896.0,371264.0,136064.0,29720.0
5.673133373260498,109.0,272256.0,623872.0,877312.0,623872.0,341312.0,124224.0,23804.0
5.674900054931641,445.0,265216.0,592384.0,717056.0,586240.0,307392.0,84064.0,14204.0
5.676650047302246,283.0,227840.0,568576.0,676096.0,564736.0,270144.0,92096.0,25972.0
5.6783833503723145,122.0,217792.0,493568.0,627968.0,440640.0,258560.0,97824.0,19588.0
5.680116653442383,76.0,192704.0,416064.0,552192.0,411648.0,234304.0,69168.0,13404.0
5.681849956512451,939.0,204416.0,438144.0,548096.0,397760.0,211136.0,77648.0,9124.0
5.6835832595825195,782.0,189248.0,368832.0,448384.0,360256.0,201600.0,60000.0,12424.0
5.685316562652588,1317.0,150016.0,298432.0,434496.0,331840.0,169664.0,50768.0,10936.0
5.687049865722656,114.0,121472.0,261568.0,383808.0,288704.0,159424.0,43968.0,11080.0
5.688783168792725,194.0,114144.0,240448.0,363520.0,229568.0,140672.0,36656.0,11224.0
5.690516471862793,62.0,106336.0,192768.0,269184.0,220608.0,109824.0,44992.0,7325.0
5.6922831535339355,25.0,92768.0,171776.0,255616.0,192896.0,102304.0,30752.0,3442.0
5.694016456604004,662.0,75136.0,166784.0,210816.0,170240.0,105184.0,30576.0,4501.0
5.6957502365112305,561.0,77840.0,140032.0,189632.0,147136.0,96576.0,27564.0,5103.0
5.697483539581299,854.0,62016.0,146176.0,177216.0,130944.0,59616.0,15804.0,4001.0
5.699216842651367,430.0,75024.0,120720.0,160128.0,111536.0,64384.0,20428.0,2898.0
5.7009501457214355,272.0,53008.0,114688.0,151168.0,102368.0,57744.0,12012.0,2419.0
5.702683448791504,38.0,39360.0,104480.0,125472.0,87200.0,61168.0,14976.0,3203.0
5.704416751861572,121.0,43504.0,83840.0,114848.0,83952.0,50720.0,14564.0,3250.0
5.706150054931641,105.0,34656.0,78384.0,101888.0,82224.0,47920.0,8037.0,3297.0
5.707883358001709,88.0,39216.0,95392.0,97840.0,80672.0,48416.0,11744.0,3342.0
5.709683418273926,404.0,40496.0,69680.0,88672.0,78416.0,38976.0,10652.0,3387.0
5.711416721343994,264.0,31196.0,79824.0,79984.0,77360.0,40832.0,13640.0,2045.0
5.7131500244140625,124.0,31244.0,62336.0,73200.0,62528.0,28576.0,10628.0,4166.0
5.714883327484131,58.0,31884.0,66864.0,78944.0,65984.0,37840.0,11492.0,765.0
5.716616630554199,188.0,24296.0,48880.0,64480.0,50496.0,29716.0,11428.0,3558.0
5.718349933624268,713.0,30916.0,32244.0,67648.0,47024.0,29920.0,12432.0,952.0
5.720083236694336,389.0,16752.0,54480.0,48000.0,47024.0,29052.0,7875.0,3388.0
5.721816539764404,66.0,22444.0,39792.0,51840.0,49088.0,27040.0,5609.0,3030.0
5.723549842834473,55.0,17140.0,52720.0,64432.0,51152.0,19540.0,5268.0,2550.0
5.725283145904541,472.0,16408.0,50720.0,62160.0,54496.0,35760.0,6717.0,914.0
5.727083206176758,259.0,24352.0,42336.0,58832.0,57488.0,29180.0,6644.0,3165.0
5.728816509246826,46.0,14836.0,40080.0,55520.0,45872.0,27812.0,6571.0,1972.0
5.7305498123168945,577.0,15976.0,45744.0,56800.0,46352.0,24576.0,5251.0,3526.0
5.732283115386963,37.0,15468.0,43664.0,57776.0,36032.0,22560.0,5252.0,2475.0
5.7340168952941895,16.0,22960.0,36448.0,58736.0,42592.0,23708.0,7668.0,2441.0
5.735750198364258,22.0,19296.0,27256.0,48560.0,42368.0,23288.0,7126.0,2408.0
5.737483501434326,28.0,15632.0,42816.0,50976.0,44528.0,22868.0,7888.0,1116.0
5.7392168045043945,194.0,23324.0,36688.0,46896.0,43728.0,19728.0,7760.0,1480.0
5.740950107574463,1014.0,21504.0,30560.0,47488.0,40256.0,18148.0,7633.0,1845.0
5.742733478546143,949.0,10728.0,32376.0,48080.0,48176.0,18944.0,7989.0,420.0
5.744466781616211,885.0,15196.0,36064.0,36080.0,47472.0,19740.0,8344.0,99.0
5.746200084686279,23.0,14160.0,35920.0,43328.0,38240.0,20076.0,4616.0,662.0
5.747933387756348,716.0,10804.0,30476.0,49536.0,42160.0,20408.0,10200.0,1131.0
5.749666690826416,79.0,13808.0,37024.0,39248.0,38768.0,21804.0,4888.0,1151.0
5.751399993896484,58.0,7324.0,35072.0,37312.0,37536.0,17124.0,9184.0,24.0
5.753133296966553,29.0,7475.0,27780.0,41056.0,36288.0,17548.0,4476.0,419.0
5.754866600036621,532.0,15000.0,24904.0,32848.0,31244.0,11420.0,5150.0,815.0
5.7565999031066895,549.0,14644.0,34416.0,41744.0,26608.0,18288.0,5654.0,625.0
5.758349895477295,566.0,9296.0,22456.0,34320.0,19900.0,13444.0,5066.0,436.0
5.760133266448975,312.0,11232.0,34720.0,36624.0,22884.0,13676.0,4479.0,899.0
5.761866569519043,58.0,10628.0,28816.0,38432.0,28544.0,17820.0,5556.0,840.0
5.763599872589111,18.0,8948.0,23380.0,34800.0,27756.0,15996.0,4642.0,782.0
5.76533317565918,129.0,9364.0,30088.0,37488.0,25868.0,17604.0,4775.0,341.0
5.767066478729248,1354.0,9524.0,19940.0,40160.0,23984.0,11804.0,4907.0,1299.0
5.768799781799316,1096.0,9044.0,18708.0,29772.0,24872.0,10156.0,3667.0,1463.0
5.770533561706543,627.0,8564.0,24600.0,25396.0,26352.0,12276.0,6549.0,231.0
5.772266864776611,1202.0,6835.0,25180.0,28752.0,20444.0,16020.0,5900.0,1641.0
5.77400016784668,768.0,10364.0,18528.0,30468.0,17612.0,16596.0,3234.0,437.0
5.775733470916748,48.0,9556.0,20660.0,22136.0,18840.0,12860.0,5248.0,35.0
5.777533531188965,460.0,12168.0,23368.0,24500.0,18944.0,10980.0,3107.0,47.0
5.779266834259033,22.0,5614.0,24268.0,26864.0,19048.0,13996.0,3452.0,307.0
5.781000137329102,601.0,6473.0,13904.0,18324.0,14980.0,13468.0,3882.0,2157.0
5.78273344039917,37.0,5299.0,13280.0,24832.0,12788.0,5168.0,4312.0,1089.0
5.784466743469238,1248.0,4624.0,15760.0,24944.0,13384.0,7164.0,766.0,22.0
5.786200046539307,1106.0,4994.0,16556.0,27476.0,14664.0,8600.0,4867.0,954.0
5.787933349609375,0.0,3976.0,17352.0,15228.0,14424.0,9296.0,3357.0,22.0
5.789666652679443,69.0,2957.0,17020.0,18620.0,14184.0,9992.0,3879.0,61.0
5.791399955749512,46.0,4076.0,18204.0,22480.0,14612.0,8468.0,2198.0,49.0
5.79313325881958,1018.0,5194.0,16080.0,23252.0,11980.0,12172.0,1701.0,263.0
5.79491662979126,1262.0,4265.0,13952.0,22972.0,13848.0,3080.0,1311.0,477.0
5.796649932861328,30.0,3337.0,19152.0,21624.0,15720.0,10276.0,2389.0,979.0
5.7983832359313965,17.0,3520.0,13580.0,15340.0,14084.0,4010.0,3468.0,1997.0
