,351.2099914550781,352.2099914550781,353.2099914550781,354.2099914550781,355.2099914550781,356.2099914550781,357.2099914550781,358.2099914550781,359.2099914550781,360.2099914550781,361.2099914550781
3.902383327484131,22.0,49.0,33.0,32.0,18.0,0.0,53.0,46.0,663.0,10.0,28.0
3.90476655960083,10.0,30.0,20.0,5.0,78.0,377.0,19.0,25.0,11.0,0.0,57.0
3.9071500301361084,46.0,24.0,22.0,28.0,7.0,83.0,20.0,32.0,28.0,33.0,0.0
3.9095332622528076,23.0,23.0,16.0,15.0,10.0,18.0,62.0,55.0,49.0,23.0,16.0
3.911916732788086,11.0,5.0,10.0,21.0,67.0,54.0,0.0,598.0,25.0,31.0,26.0
3.914299964904785,11.0,21.0,5.0,22.0,14.0,5.0,28.0,302.0,10.0,17.0,19.0
3.9166834354400635,0.0,38.0,61.0,13.0,10.0,17.0,23.0,5.0,9.0,17.0,36.0
3.919133424758911,9.0,36.0,51.0,11.0,37.0,60.0,17.0,28.0,19.0,15.0,29.0
3.9215166568756104,8.0,5.0,0.0,0.0,43.0,11.0,12.0,14.0,12.0,19.0,21.0
3.9238998889923096,6.0,44.0,28.0,21.0,26.0,8.0,22.0,35.0,5.0,20.0,6.0
3.926283359527588,5.0,0.0,0.0,21.0,42.0,42.0,28.0,16.0,13.0,21.0,26.0
3.928666591644287,9.0,6.0,15.0,22.0,0.0,0.0,29.0,22.0,26.0,38.0,5.0
3.9310500621795654,16.0,18.0,26.0,15.0,25.0,5.0,30.0,38.0,43.0,21.0,0.0
3.9334332942962646,14.0,26.0,22.0,9.0,21.0,11.0,32.0,0.0,31.0,5.0,0.0
3.9358832836151123,19.0,26.0,18.0,8.0,17.0,0.0,48.0,23.0,24.0,25.0,23.0
3.9382667541503906,21.0,32.0,26.0,0.0,21.0,0.0,5.0,29.0,26.0,41.0,20.0
3.94064998626709,24.0,17.0,20.0,17.0,26.0,2.0,48.0,0.0,6.0,29.0,18.0
3.943033218383789,0.0,25.0,14.0,12.0,30.0,5.0,28.0,10.0,0.0,5.0,11.0
3.9454166889190674,36.0,11.0,10.0,8.0,34.0,16.0,27.0,5.0,34.0,14.0,15.0
3.9477999210357666,5.0,16.0,0.0,5.0,10.0,27.0,5.0,0.0,32.0,5.0,19.0
3.950183391571045,28.0,13.0,7.0,10.0,10.0,24.0,18.0,10.0,31.0,14.0,14.0
3.9526166915893555,10.0,10.0,14.0,7.0,41.0,11.0,34.0,44.0,5.0,23.0,10.0
3.9549999237060547,51.0,20.0,7.0,7.0,26.0,12.0,7.0,59.0,49.0,46.0,19.0
3.957383394241333,41.0,16.0,0.0,6.0,11.0,13.0,26.0,18.0,10.0,42.0,19.0
3.9597666263580322,40.0,5.0,7.0,6.0,15.0,18.0,0.0,5.0,0.0,11.0,25.0
3.9621500968933105,10.0,5.0,3.0,29.0,19.0,28.0,0.0,0.0,19.0,18.0,5.0
3.9645333290100098,22.0,6.0,0.0,27.0,19.0,33.0,11.0,6.0,91.0,11.0,28.0
3.966916561126709,11.0,6.0,12.0,19.0,19.0,34.0,0.0,12.0,65.0,5.0,29.0
3.9693665504455566,27.0,6.0,12.0,12.0,14.0,36.0,5.0,10.0,39.0,13.0,29.0
3.971750020980835,44.0,32.0,12.0,29.0,25.0,25.0,10.0,9.0,37.0,20.0,12.0
3.974133253097534,46.0,34.0,6.0,15.0,0.0,15.0,16.0,9.0,38.0,18.0,29.0
3.9765167236328125,5.0,30.0,6.0,15.0,26.0,17.0,15.0,10.0,5.0,26.0,18.0
3.9788999557495117,34.0,18.0,7.0,5.0,19.0,0.0,39.0,9.0,10.0,28.0,38.0
3.98128342628479,5.0,11.0,0.0,21.0,12.0,27.0,51.0,9.0,22.0,6.0,28.0
3.9836666584014893,19.0,26.0,6.0,31.0,29.0,12.0,0.0,13.0,11.0,10.0,18.0
3.986116647720337,16.0,13.0,12.0,30.0,15.0,10.0,11.0,17.0,0.0,7.0,14.0
3.9885001182556152,10.0,10.0,21.0,0.0,32.0,6.0,5.0,21.0,2.0,5.0,21.0
3.9908833503723145,5.0,18.0,23.0,0.0,29.0,15.0,12.0,25.0,5.0,0.0,10.0
3.9932665824890137,5.0,22.0,26.0,5.0,25.0,25.0,31.0,10.0,5.0,8.0,23.0
3.995650053024292,7.0,23.0,15.0,11.0,20.0,36.0,63.0,10.0,12.0,17.0,16.0
3.998033285140991,10.0,19.0,5.0,25.0,17.0,0.0,63.0,5.0,11.0,13.0,10.0
4.0004167556762695,33.0,22.0,22.0,32.0,0.0,24.0,56.0,9.0,11.0,9.0,10.0
4.00285005569458,37.0,21.0,36.0,17.0,27.0,37.0,30.0,13.0,13.0,5.0,13.0
4.005233287811279,42.0,21.0,20.0,17.0,19.0,35.0,5.0,15.0,16.0,16.0,54.0
4.0076165199279785,12.0,22.0,5.0,18.0,7.0,34.0,43.0,23.0,0.0,12.0,52.0
4.010016441345215,25.0,23.0,28.0,20.0,0.0,37.0,0.0,25.0,86.0,10.0,19.0
4.012383460998535,31.0,34.0,17.0,24.0,10.0,14.0,18.0,17.0,59.0,9.0,14.0
4.014766693115234,33.0,32.0,12.0,5.0,13.0,30.0,10.0,9.0,32.0,7.0,38.0
4.017149925231934,30.0,27.0,31.0,29.0,17.0,34.0,42.0,10.0,49.0,6.0,29.0
4.019599914550781,8.0,23.0,9.0,13.0,16.0,5.0,37.0,0.0,74.0,24.0,20.0
4.0219831466674805,15.0,0.0,16.0,34.0,15.0,32.0,0.0,9.0,11.0,32.0,20.0
4.024366855621338,27.0,10.0,7.0,25.0,6.0,31.0,28.0,18.0,17.0,31.0,6.0
4.026750087738037,6.0,29.0,27.0,12.0,25.0,31.0,0.0,29.0,28.0,29.0,15.0
4.029133319854736,31.0,19.0,16.0,25.0,37.0,37.0,29.0,19.0,18.0,19.0,28.0
4.0315165519714355,16.0,5.0,5.0,37.0,21.0,10.0,10.0,11.0,6.0,29.0,33.0
4.033899784088135,0.0,5.0,22.0,30.0,5.0,13.0,14.0,14.0,11.0,22.0,17.0
4.036349773406982,46.0,0.0,5.0,23.0,5.0,13.0,18.0,12.0,5.0,0.0,0.0
4.03873348236084,27.0,43.0,5.0,48.0,14.0,10.0,5.0,23.0,2.0,22.0,5.0
4.041116714477539,73.0,38.0,14.0,9.0,14.0,11.0,10.0,31.0,0.0,17.0,15.0
4.043499946594238,51.0,22.0,23.0,21.0,12.0,14.0,15.0,56.0,9.0,12.0,15.0
4.0458831787109375,29.0,0.0,24.0,22.0,10.0,17.0,20.0,50.0,19.0,11.0,25.0
4.048266887664795,26.0,23.0,21.0,22.0,15.0,30.0,161.0,45.0,162.0,11.0,26.0
4.050650119781494,17.0,18.0,0.0,22.0,13.0,26.0,303.0,19.0,305.0,10.0,27.0
4.053083419799805,29.0,13.0,733.0,981.0,11.0,1048.0,2273.0,12.0,754.0,10.0,0.0
4.055483341217041,33.0,16.0,2077.0,1940.0,566.0,2870.0,5302.0,17.0,793.0,12.0,8.0
4.057849884033203,33.0,3471.0,3734.0,7947.0,6228.0,5734.0,3944.0,23.0,1108.0,15.0,27.0
4.060233116149902,30.0,8644.0,15908.0,9916.0,13888.0,7263.0,11420.0,2847.0,1647.0,835.0,33.0
4.06261682510376,7.0,19076.0,25428.0,15028.0,20932.0,19400.0,14960.0,10036.0,4615.0,1279.0,1365.0
4.065000057220459,5.0,25316.0,40432.0,39296.0,48544.0,29764.0,21008.0,15148.0,9876.0,2247.0,1987.0
4.067383289337158,17.0,30920.0,77984.0,83968.0,65520.0,53056.0,46848.0,29280.0,8208.0,7220.0,2609.0
4.069816589355469,23.0,68336.0,129760.0,109296.0,114976.0,84016.0,64512.0,42608.0,18676.0,5661.0,3856.0
4.072216510772705,54.0,85632.0,187008.0,182784.0,163072.0,146048.0,97008.0,43904.0,26948.0,14468.0,3968.0
4.0746002197265625,56.0,141760.0,251328.0,249728.0,242816.0,196096.0,151104.0,77280.0,36960.0,13104.0,4080.0
4.076983451843262,16.0,199936.0,330048.0,333952.0,289664.0,241984.0,181504.0,104320.0,38128.0,24128.0,11380.0
4.079366683959961,18.0,218176.0,400576.0,450880.0,342016.0,279872.0,228736.0,116944.0,70528.0,25460.0,12564.0
4.08174991607666,36.0,280768.0,538112.0,539136.0,478208.0,338496.0,269376.0,158144.0,95264.0,29452.0,15180.0
4.084133148193359,268.0,318464.0,588288.0,548864.0,526848.0,385856.0,248384.0,141568.0,94240.0,30576.0,15068.0
4.086516857147217,155.0,356864.0,731392.0,686848.0,546048.0,408960.0,310016.0,174912.0,101600.0,37760.0,14960.0
4.0889668464660645,41.0,414848.0,808192.0,812288.0,630272.0,465600.0,342976.0,197248.0,97888.0,36960.0,15944.0
4.091350078582764,109.0,463616.0,837120.0,759552.0,613888.0,523328.0,367232.0,202240.0,97696.0,44016.0,16932.0
4.093733310699463,65.0,477056.0,852480.0,796928.0,710144.0,537344.0,387968.0,187008.0,97520.0,40864.0,16672.0
4.096116542816162,21.0,498752.0,926720.0,845312.0,661760.0,552960.0,400320.0,211776.0,124688.0,48048.0,16412.0
4.098499774932861,377.0,514240.0,975104.0,857344.0,755456.0,585216.0,440064.0,206464.0,126368.0,47328.0,15528.0
4.100883483886719,734.0,509696.0,983808.0,876032.0,773120.0,603392.0,458112.0,201152.0,110320.0,48400.0,14572.0
4.103266716003418,392.0,505152.0,957184.0,869376.0,753152.0,572160.0,418560.0,214848.0,110656.0,44416.0,13616.0
4.105716705322266,51.0,512320.0,1022464.0,830720.0,732928.0,559616.0,418112.0,186368.0,79936.0,54384.0,13464.0
4.108083248138428,79.0,519552.0,913664.0,830208.0,714240.0,569856.0,396224.0,183040.0,104000.0,34864.0,13308.0
4.110466480255127,185.0,482752.0,903424.0,835584.0,670208.0,499584.0,369984.0,202176.0,104864.0,42992.0,12008.0
4.112850189208984,291.0,514944.0,883200.0,770816.0,648192.0,499072.0,390016.0,192192.0,91280.0,58512.0,13424.0
4.115233421325684,972.0,437312.0,854016.0,726016.0,593920.0,537344.0,379840.0,167104.0,79568.0,43840.0,14836.0
4.117616653442383,1256.0,469504.0,779264.0,765184.0,561152.0,468672.0,386816.0,193344.0,96560.0,47088.0,10768.0
4.120016574859619,950.0,429952.0,792576.0,745472.0,568832.0,459648.0,321856.0,152256.0,95584.0,41872.0,7631.0
4.12244987487793,645.0,405376.0,711680.0,664320.0,568576.0,461632.0,277312.0,157632.0,87920.0,35728.0,11572.0
4.124833106994629,352.0,404800.0,778496.0,738816.0,552192.0,427584.0,321408.0,161088.0,83840.0,24744.0,8724.0
4.127216815948486,834.0,365696.0,661760.0,580096.0,454848.0,370624.0,302848.0,138816.0,77856.0,32508.0,5874.0
4.1296000480651855,69.0,339648.0,643840.0,571648.0,474304.0,351808.0,247232.0,142016.0,75584.0,35040.0,8908.0
4.131983280181885,79.0,359936.0,626688.0,592896.0,479680.0,381760.0,293952.0,132544.0,65392.0,32012.0,11944.0
4.134366512298584,74.0,312704.0,591616.0,568576.0,450816.0,334464.0,262720.0,136192.0,80320.0,22096.0,12476.0
4.136750221252441,73.0,333568.0,588288.0,519680.0,440128.0,372032.0,243968.0,121392.0,71136.0,24604.0,12132.0
4.139200210571289,84.0,289344.0,553984.0,484544.0,427520.0,312768.0,269696.0,119232.0,58432.0,31120.0,10792.0
4.141583442687988,90.0,292096.0,552704.0,516864.0,409600.0,298944.0,224768.0,113520.0,57808.0,30812.0,5307.0
4.1439666748046875,95.0,312000.0,541440.0,514688.0,447744.0,315392.0,226176.0,124448.0,52336.0,17484.0,14696.0
4.146349906921387,65.0,261888.0,542720.0,464960.0,397312.0,309312.0,253760.0,116480.0,54400.0,23284.0,9700.0
4.148733139038086,36.0,257920.0,496000.0,436992.0,415424.0,314048.0,244352.0,107856.0,56464.0,29292.0,8644.0
4.151116847991943,46.0,290816.0,488448.0,489344.0,431680.0,309504.0,208960.0,116832.0,57040.0,18208.0,12580.0
4.153500080108643,57.0,234560.0,515776.0,461184.0,387584.0,302144.0,244544.0,109760.0,57616.0,25380.0,9700.0
4.155933380126953,43.0,300352.0,506688.0,469248.0,410432.0,298560.0,228800.0,111552.0,62272.0,20724.0,10744.0
4.158316612243652,30.0,249216.0,491904.0,453184.0,376320.0,301760.0,192768.0,116112.0,61120.0,19972.0,8432.0
4.160699844360352,43.0,272640.0,488448.0,460800.0,385856.0,286720.0,219392.0,110400.0,59968.0,19220.0,6690.0
4.163083553314209,55.0,259200.0,475136.0,411648.0,334976.0,288128.0,184640.0,121328.0,56880.0,16776.0,7806.0
4.165483474731445,55.0,280320.0,472064.0,397056.0,380352.0,270784.0,196992.0,104048.0,55264.0,14328.0,5513.0
4.167850017547607,55.0,236800.0,468672.0,441472.0,340800.0,268672.0,165248.0,104592.0,43872.0,16312.0,8138.0
4.170233249664307,109.0,230784.0,398720.0,393408.0,339968.0,242176.0,192256.0,97152.0,56960.0,18292.0,9632.0
4.17264986038208,97.0,219456.0,412672.0,387648.0,344064.0,258688.0,174272.0,90624.0,27580.0,17676.0,6637.0
4.1750335693359375,86.0,216704.0,395776.0,352576.0,285632.0,252672.0,166016.0,91584.0,38768.0,17064.0,5877.0
4.177416801452637,51.0,185600.0,382592.0,340352.0,276480.0,207872.0,156352.0,77040.0,38688.0,21048.0,5629.0
4.179800033569336,77.0,179648.0,335040.0,293312.0,255424.0,184768.0,175040.0,73792.0,30932.0,12720.0,3901.0
4.182183265686035,102.0,171584.0,288192.0,268992.0,245504.0,173376.0,122464.0,78096.0,38064.0,11908.0,6134.0
4.184566497802734,51.0,167872.0,298624.0,254272.0,180800.0,164864.0,115440.0,63104.0,22724.0,8816.0,5809.0
4.186950206756592,81.0,142784.0,274432.0,206208.0,186944.0,132928.0,107552.0,61056.0,28780.0,10172.0,3189.0
4.1894001960754395,40.0,128080.0,218112.0,186688.0,201536.0,135808.0,92784.0,53872.0,14100.0,10936.0,4161.0
4.191783428192139,56.0,111232.0,177664.0,169216.0,119712.0,115424.0,84656.0,32912.0,18844.0,7011.0,3950.0
4.194166660308838,73.0,117248.0,174336.0,169024.0,118944.0,87856.0,67920.0,27700.0,6866.0,6578.0,3473.0
4.196549892425537,63.0,77424.0,140288.0,120928.0,105232.0,74304.0,50640.0,28432.0,14036.0,3154.0,1854.0
4.198933124542236,52.0,60560.0,123792.0,114496.0,76864.0,52000.0,36096.0,26508.0,13224.0,3905.0,1360.0
4.201316833496094,38.0,59712.0,96512.0,89312.0,74288.0,52768.0,30540.0,15648.0,5096.0,2643.0,1595.0
4.203700065612793,10.0,52432.0,83136.0,78848.0,41808.0,60480.0,35056.0,16668.0,3855.0,2665.0,343.0
4.2061333656311035,23.0,37280.0,58352.0,57200.0,48960.0,29420.0,23896.0,12900.0,4923.0,2686.0,77.0
4.208516597747803,31.0,40816.0,48032.0,57728.0,38256.0,27900.0,28128.0,7705.0,4264.0,1515.0,1020.0
4.210899829864502,39.0,38128.0,45424.0,47664.0,35792.0,25044.0,17716.0,16480.0,3606.0,3299.0,83.0
4.213283538818359,84.0,20988.0,35232.0,31356.0,29640.0,19480.0,26012.0,11628.0,3031.0,1110.0,24.0
4.215666770935059,83.0,35040.0,31768.0,24052.0,13888.0,13204.0,17128.0,3513.0,2615.0,21.0,53.0
4.218050003051758,16.0,16208.0,20244.0,19744.0,14108.0,15264.0,4152.0,1335.0,2199.0,55.0,43.0
4.220433235168457,62.0,17492.0,24084.0,30004.0,13404.0,15080.0,15256.0,6163.0,2233.0,508.0,33.0
4.222883224487305,39.0,12936.0,20244.0,24472.0,11124.0,15208.0,6310.0,2772.0,2268.0,1562.0,36.0
4.225266456604004,16.0,5357.0,23444.0,13924.0,8840.0,14432.0,9896.0,2043.0,1902.0,1920.0,20.0
4.227650165557861,60.0,8073.0,16144.0,16840.0,12180.0,17256.0,5722.0,4523.0,1363.0,2278.0,0.0
4.2300333976745605,62.0,11528.0,15880.0,9928.0,10628.0,4393.0,7263.0,3275.0,824.0,12.0,0.0
4.23241662979126,20.0,5688.0,13404.0,11628.0,9408.0,8660.0,5544.0,5942.0,2323.0,2152.0,12.0
4.234799861907959,28.0,8636.0,15036.0,10096.0,10360.0,8472.0,7535.0,819.0,1840.0,1631.0,12.0
4.237183570861816,37.0,4446.0,13544.0,6479.0,10528.0,5600.0,3793.0,1006.0,1356.0,1352.0,12.0
4.239616870880127,46.0,4615.0,9736.0,7694.0,6429.0,3764.0,2042.0,750.0,1877.0,51.0,17.0
4.242000102996826,55.0,8864.0,3549.0,10136.0,10276.0,4299.0,4721.0,1293.0,960.0,10.0,23.0
4.2444000244140625,49.0,2555.0,13504.0,11916.0,5221.0,4185.0,5935.0,1651.0,3683.0,0.0,20.0
4.246783256530762,33.0,3336.0,8179.0,10836.0,8708.0,5207.0,2225.0,2305.0,4373.0,382.0,18.0
4.249149799346924,18.0,6457.0,11088.0,7124.0,7616.0,7390.0,5192.0,14.0,643.0,257.0,6.0
4.251550197601318,54.0,1418.0,6912.0,12620.0,7240.0,7350.0,3692.0,457.0,319.0,131.0,17.0
4.253933429718018,20.0,3617.0,9468.0,6190.0,1786.0,3559.0,841.0,900.0,943.0,58.0,15.0
4.256333351135254,34.0,3375.0,10024.0,2110.0,4279.0,3519.0,1846.0,1139.0,31.0,34.0,21.0
4.258716583251953,45.0,1472.0,8624.0,5495.0,3654.0,2789.0,2561.0,1377.0,1542.0,11.0,17.0
4.261099815368652,28.0,1408.0,5913.0,8252.0,6064.0,2298.0,2442.0,1464.0,1573.0,1036.0,13.0
4.26348352432251,23.0,3674.0,4539.0,3581.0,4638.0,2477.0,334.0,902.0,5.0,1253.0,6.0
4.265883445739746,19.0,1817.0,6001.0,4891.0,3212.0,3754.0,1449.0,896.0,14.0,13.0,13.0
4.268249988555908,12.0,2373.0,6577.0,6398.0,6398.0,2769.0,1468.0,19.0,12.0,398.0,34.0
4.2706499099731445,20.0,2303.0,3946.0,2484.0,1699.0,1785.0,1487.0,31.0,64.0,31.0,47.0
4.273066520690918,28.0,2300.0,4020.0,5023.0,3428.0,1717.0,1035.0,37.0,45.0,30.0,38.0
4.275450229644775,26.0,1659.0,6761.0,4932.0,4581.0,2826.0,583.0,44.0,26.0,13.0,28.0
4.277833461761475,24.0,2729.0,3075.0,4191.0,3270.0,2074.0,302.0,1720.0,31.0,633.0,14.0
4.280216693878174,35.0,2380.0,5056.0,2409.0,1704.0,1322.0,2356.0,1581.0,35.0,652.0,0.0
4.282599925994873,8.0,2032.0,6965.0,2224.0,3429.0,2952.0,1950.0,951.0,16.0,14.0,18.0
4.284983158111572,22.0,863.0,661.0,1744.0,1070.0,1286.0,2095.0,7.0,0.0,838.0,5.0
4.28736686706543,51.0,1095.0,2124.0,3580.0,1608.0,2397.0,1391.0,1125.0,27.0,10.0,20.0
4.289766788482666,34.0,446.0,3854.0,3787.0,2658.0,1544.0,2204.0,902.0,819.0,598.0,21.0
4.292150020599365,6.0,668.0,3305.0,1228.0,1191.0,634.0,174.0,466.0,1478.0,10.0,17.0
4.2945332527160645,13.0,1885.0,3307.0,962.0,2112.0,905.0,942.0,31.0,1144.0,81.0,31.0
4.296916484832764,26.0,2071.0,4557.0,639.0,2896.0,1267.0,1518.0,25.0,8.0,42.0,29.0
