,303.1099853515625,304.1099853515625,305.1099853515625,306.1099853515625,307.1099853515625,308.1099853515625
0.5012999773025513,17.0,18.0,14.0,32.0,40.0,27.0
0.5026000142097473,61.0,48.0,33.0,33.0,61.0,36.0
0.5038999915122986,14.0,12.0,18.0,33.0,5.0,24.0
0.5052000284194946,45.0,21.0,23.0,40.0,0.0,0.0
0.5065000057220459,61.0,0.0,24.0,40.0,16.0,33.0
0.5077999830245972,33.0,30.0,7.0,40.0,32.0,34.0
0.5091000199317932,6.0,59.0,10.0,56.0,38.0,36.0
0.5103999972343445,57.0,77.0,14.0,40.0,17.0,21.0
0.5116999745368958,10.0,49.0,5.0,23.0,11.0,5.0
0.5130000114440918,37.0,21.0,13.0,21.0,25.0,44.0
0.5142999887466431,24.0,13.0,13.0,0.0,0.0,51.0
0.5156000256538391,23.0,5.0,12.0,18.0,40.0,18.0
0.5169000029563904,13.0,5.0,22.0,31.0,30.0,21.0
0.5182666778564453,6.0,14.0,24.0,24.0,20.0,42.0
0.5195666551589966,12.0,5.0,27.0,17.0,15.0,38.0
0.5208666920661926,7.0,5.0,12.0,12.0,0.0,34.0
0.5221666693687439,14.0,17.0,14.0,12.0,10.0,25.0
0.5234666466712952,22.0,65.0,16.0,11.0,20.0,15.0
0.5247666835784912,0.0,68.0,17.0,22.0,21.0,16.0
0.5260666608810425,31.0,11.0,29.0,16.0,26.0,31.0
0.5273666381835938,52.0,12.0,23.0,10.0,5.0,22.0
0.5286666750907898,31.0,10.0,17.0,0.0,22.0,13.0
0.5299666523933411,23.0,40.0,5.0,46.0,15.0,35.0
0.5312666893005371,19.0,49.0,9.0,41.0,13.0,28.0
0.5325666666030884,5.0,11.0,13.0,70.0,60.0,11.0
0.5338666439056396,22.0,16.0,62.0,13.0,56.0,8.0
0.5352333188056946,18.0,5.0,49.0,15.0,16.0,5.0
0.5365333557128906,31.0,27.0,11.0,26.0,57.0,22.0
0.5378333330154419,29.0,20.0,40.0,20.0,48.0,11.0
0.5391333103179932,23.0,22.0,24.0,55.0,11.0,0.0
0.5404333472251892,35.0,16.0,33.0,30.0,15.0,30.0
0.5417333245277405,5.0,24.0,28.0,5.0,5.0,50.0
0.5430333614349365,28.0,10.0,15.0,11.0,3.0,32.0
0.5443333387374878,8.0,13.0,40.0,17.0,0.0,18.0
0.5456333160400391,38.0,16.0,32.0,22.0,13.0,0.0
0.5469333529472351,23.0,39.0,0.0,27.0,21.0,37.0
0.5482333302497864,22.0,42.0,5.0,32.0,22.0,27.0
0.5495333075523376,18.0,6.0,5.0,26.0,25.0,17.0
0.5508333444595337,0.0,16.0,13.0,23.0,28.0,13.0
0.5521833300590515,8.0,11.0,28.0,21.0,12.0,10.0
0.5534833073616028,15.0,14.0,36.0,27.0,21.0,29.0
0.5547833442687988,38.0,17.0,33.0,18.0,5.0,30.0
0.5560833215713501,35.0,5.0,30.0,16.0,15.0,54.0
0.5573833584785461,21.0,0.0,22.0,5.0,10.0,42.0
0.5586833357810974,26.0,17.0,13.0,5.0,10.0,41.0
0.5599833130836487,32.0,14.0,16.0,6.0,10.0,30.0
0.5612999796867371,35.0,10.0,22.0,6.0,15.0,37.0
0.562583327293396,39.0,17.0,26.0,30.0,22.0,44.0
0.5638833045959473,39.0,16.0,25.0,17.0,20.0,16.0
0.5651833415031433,5.0,14.0,24.0,5.0,6.0,0.0
0.5664833188056946,21.0,0.0,12.0,64.0,15.0,10.0
0.567799985408783,28.0,5.0,0.0,63.0,25.0,21.0
0.5691166520118713,31.0,6.0,34.0,22.0,11.0,10.0
0.5704166889190674,21.0,9.0,22.0,0.0,47.0,16.0
0.5717166662216187,30.0,11.0,0.0,18.0,52.0,22.0
0.5730166435241699,40.0,6.0,20.0,12.0,26.0,19.0
0.574316680431366,41.0,0.0,10.0,5.0,39.0,16.0
0.5756166577339172,23.0,12.0,26.0,11.0,51.0,23.0
0.5769166946411133,5.0,0.0,24.0,17.0,38.0,16.0
0.5782166719436646,37.0,4.0,23.0,12.0,17.0,15.0
0.5795166492462158,12.0,7.0,16.0,17.0,21.0,12.0
0.5808166861534119,40.0,5.0,10.0,37.0,34.0,0.0
0.5821166634559631,9.0,8.0,28.0,48.0,10.0,14.0
0.5834166407585144,5.0,10.0,38.0,38.0,6.0,65.0
0.5847499966621399,31.0,16.0,52.0,0.0,35.0,51.0
0.5860833525657654,39.0,22.0,38.0,54.0,38.0,11.0
0.5873833298683167,0.0,22.0,14.0,33.0,13.0,63.0
0.5886833071708679,0.0,31.0,35.0,17.0,22.0,21.0
0.589983344078064,34.0,32.0,47.0,24.0,30.0,5.0
0.5912833213806152,22.0,33.0,42.0,46.0,12.0,46.0
0.5925833582878113,10.0,22.0,10.0,56.0,35.0,56.0
0.5938833355903625,30.0,18.0,11.0,42.0,0.0,52.0
0.5951833128929138,39.0,22.0,0.0,13.0,15.0,0.0
0.5964833498001099,5.0,18.0,35.0,16.0,27.0,27.0
0.5977833271026611,0.0,18.0,27.0,16.0,6.0,47.0
0.5990833044052124,21.0,12.0,18.0,15.0,16.0,14.0
0.6003833413124084,5.0,10.0,24.0,17.0,29.0,5.0
0.6017333269119263,13.0,8.0,20.0,6.0,25.0,22.0
0.6030499935150146,27.0,14.0,49.0,16.0,16.0,17.0
0.6043499708175659,0.0,0.0,50.0,20.0,10.0,13.0
0.605650007724762,42.0,0.0,33.0,24.0,11.0,30.0
0.6069499850273132,26.0,0.0,15.0,0.0,11.0,0.0
0.6082500219345093,29.0,5.0,22.0,24.0,12.0,5.0
0.6095499992370605,17.0,10.0,18.0,30.0,13.0,0.0
0.6108499765396118,6.0,12.0,35.0,5.0,5.0,15.0
0.6121500134468079,37.0,6.0,39.0,26.0,28.0,21.0
0.6134499907493591,10.0,0.0,23.0,50.0,33.0,27.0
0.6147500276565552,16.0,37.0,10.0,36.0,38.0,5.0
0.6160500049591064,23.0,29.0,23.0,39.0,8.0,5.0
0.6173499822616577,9.0,21.0,7.0,18.0,5.0,5.0
0.6186833381652832,16.0,48.0,12.0,48.0,31.0,9.0
0.6200000047683716,24.0,44.0,12.0,42.0,11.0,13.0
0.6212999820709229,5.0,14.0,6.0,10.0,13.0,16.0
0.6226000189781189,47.0,12.0,0.0,16.0,15.0,20.0
0.6238999962806702,750.0,10.0,6.0,23.0,10.0,15.0
0.6251999735832214,613.0,34.0,11.0,27.0,5.0,30.0
0.6265000104904175,230.0,31.0,12.0,24.0,0.0,43.0
0.6277999877929688,10.0,40.0,6.0,22.0,6.0,35.0
0.6291000247001648,241.0,34.0,0.0,17.0,15.0,13.0
0.6304000020027161,39.0,28.0,5.0,12.0,16.0,45.0
0.6316999793052673,36.0,18.0,10.0,22.0,26.0,29.0
0.6330000162124634,31.0,13.0,15.0,31.0,36.0,12.0
0.6342999935150146,24.0,8.0,17.0,28.0,44.0,0.0
0.6356333494186401,25.0,33.0,18.0,25.0,34.0,15.0
0.6369333267211914,27.0,76.0,13.0,36.0,18.0,7.0
0.6382333040237427,5.0,69.0,7.0,36.0,53.0,11.0
0.6395333409309387,31.0,10.0,30.0,5.0,13.0,14.0
0.64083331823349,24.0,22.0,15.0,15.0,6.0,16.0
0.642133355140686,16.0,29.0,0.0,21.0,5.0,18.0
0.6434333324432373,20.0,31.0,5.0,26.0,13.0,21.0
0.6447333097457886,23.0,34.0,6.0,0.0,15.0,39.0
0.6460333466529846,25.0,37.0,23.0,10.0,16.0,34.0
0.6473333239555359,8.0,10.0,19.0,21.0,15.0,5.0
0.6486333608627319,25.0,28.0,15.0,22.0,10.0,36.0
0.6499333381652832,23.0,40.0,32.0,23.0,21.0,23.0
0.6512333154678345,22.0,6.0,30.0,11.0,5.0,10.0
0.6525999903678894,15.0,52.0,0.0,26.0,17.0,28.0
0.6539000272750854,0.0,40.0,32.0,21.0,24.0,19.0
0.6552000045776367,28.0,28.0,32.0,28.0,31.0,10.0
0.656499981880188,5.0,22.0,10.0,28.0,15.0,9.0
0.657800018787384,25.0,0.0,18.0,22.0,22.0,7.0
0.6590999960899353,43.0,28.0,23.0,32.0,159.0,0.0
0.6603999733924866,30.0,6.0,5.0,24.0,90.0,57.0
0.6617000102996826,47.0,21.0,20.0,10.0,21.0,45.0
0.6629999876022339,5.0,27.0,34.0,5.0,0.0,27.0
0.6643000245094299,11.0,31.0,25.0,31.0,36.0,41.0
0.6656000018119812,0.0,33.0,29.0,38.0,37.0,31.0
0.6668999791145325,11.0,30.0,33.0,52.0,0.0,24.0
0.6682000160217285,18.0,7.0,15.0,29.0,62.0,25.0
0.6695666909217834,24.0,37.0,16.0,31.0,29.0,20.0
0.6708666682243347,29.0,12.0,38.0,5.0,27.0,15.0
0.672166645526886,27.0,38.0,6.0,0.0,16.0,24.0
0.673466682434082,17.0,44.0,23.0,35.0,5.0,16.0
0.6747666597366333,31.0,34.0,30.0,10.0,23.0,11.0
0.6760666370391846,10.0,0.0,5.0,10.0,33.0,6.0
0.6773666739463806,20.0,0.0,10.0,35.0,31.0,7.0
0.6786666512489319,5.0,30.0,8.0,13.0,33.0,7.0
0.6799666881561279,45.0,32.0,6.0,16.0,36.0,6.0
0.6812666654586792,28.0,34.0,16.0,5.0,13.0,3.0
0.6825666427612305,10.0,29.0,8.0,11.0,55.0,0.0
0.6838666796684265,20.0,25.0,0.0,15.0,56.0,42.0
0.6851666569709778,31.0,16.0,12.0,6.0,34.0,35.0
0.6865333318710327,23.0,19.0,14.0,8.0,22.0,17.0
0.687833309173584,20.0,22.0,14.0,10.0,27.0,0.0
0.68913334608078,21.0,11.0,12.0,11.0,34.0,18.0
0.6904333233833313,13.0,17.0,10.0,11.0,20.0,37.0
0.6917333602905273,5.0,24.0,12.0,18.0,17.0,40.0
0.6930333375930786,13.0,24.0,13.0,42.0,15.0,30.0
0.6943333148956299,13.0,25.0,20.0,34.0,14.0,20.0
0.6956333518028259,12.0,17.0,13.0,24.0,22.0,20.0
0.6969333291053772,10.0,18.0,7.0,26.0,22.0,20.0
0.6982333064079285,20.0,30.0,12.0,27.0,23.0,15.0
0.6995333433151245,20.0,30.0,16.0,28.0,20.0,37.0
0.7008333206176758,21.0,40.0,11.0,0.0,9.0,35.0
0.7021333575248718,6.0,32.0,22.0,23.0,12.0,34.0
0.7034833431243896,31.0,39.0,17.0,47.0,10.0,18.0
0.7047833204269409,34.0,5.0,12.0,36.0,5.0,37.0
0.706083357334137,17.0,62.0,23.0,36.0,5.0,16.0
0.7073833346366882,16.0,41.0,33.0,14.0,34.0,16.0
0.7086833119392395,5.0,22.0,39.0,33.0,44.0,0.0
0.7099833488464355,8.0,51.0,11.0,34.0,0.0,27.0
0.7112833261489868,11.0,35.0,5.0,36.0,29.0,7.0
0.7125833630561829,13.0,43.0,22.0,0.0,28.0,39.0
0.7138833403587341,25.0,0.0,11.0,17.0,13.0,42.0
0.7151833176612854,29.0,25.0,0.0,43.0,11.0,22.0
0.7164833545684814,49.0,5.0,0.0,16.0,36.0,26.0
0.7177833318710327,52.0,13.0,57.0,22.0,29.0,22.0
0.719083309173584,26.0,21.0,48.0,25.0,31.0,5.0
0.7204499840736389,29.0,13.0,38.0,22.0,34.0,51.0
0.721750020980835,10.0,5.0,5.0,19.0,37.0,45.0
0.7230499982833862,14.0,13.0,25.0,30.0,12.0,0.0
0.7243499755859375,27.0,36.0,21.0,10.0,15.0,0.0
0.7256500124931335,10.0,35.0,17.0,15.0,18.0,0.0
0.7269499897956848,11.0,32.0,24.0,21.0,11.0,24.0
0.7282500267028809,11.0,25.0,33.0,10.0,8.0,29.0
0.7295500040054321,14.0,15.0,42.0,36.0,7.0,34.0
0.7308499813079834,16.0,5.0,35.0,44.0,5.0,62.0
0.7321500182151794,17.0,20.0,34.0,34.0,14.0,61.0
0.7334499955177307,19.0,17.0,24.0,30.0,17.0,9.0
0.734749972820282,22.0,37.0,32.0,27.0,11.0,71.0
0.736050009727478,24.0,35.0,37.0,18.0,5.0,6.0
0.7373999953269958,33.0,6.0,5.0,6.0,0.0,12.0
0.7386999726295471,42.0,25.0,15.0,26.0,18.0,13.0
0.7400000095367432,31.0,5.0,32.0,26.0,36.0,13.0
0.7412999868392944,21.0,27.0,17.0,16.0,42.0,12.0
0.7426000237464905,25.0,16.0,34.0,10.0,48.0,0.0
0.7439000010490417,10.0,5.0,12.0,13.0,26.0,3.0
0.745199978351593,10.0,34.0,5.0,15.0,39.0,5.0
0.7465000152587891,0.0,26.0,18.0,25.0,17.0,7.0
0.7477999925613403,5.0,15.0,32.0,27.0,25.0,26.0
0.7491000294685364,10.0,48.0,18.0,16.0,24.0,28.0
0.7504000067710876,8.0,46.0,5.0,5.0,21.0,10.0
0.7516999840736389,5.0,24.0,13.0,22.0,18.0,10.0
0.753000020980835,17.0,21.0,9.0,13.0,13.0,11.0
0.7543666958808899,9.0,10.0,5.0,5.0,7.0,20.0
0.7556666731834412,0.0,16.0,11.0,0.0,5.0,16.0
0.7569666504859924,44.0,16.0,17.0,9.0,24.0,12.0
0.7582666873931885,62.0,15.0,14.0,17.0,28.0,24.0
0.7595666646957397,25.0,18.0,11.0,14.0,17.0,18.0
0.760866641998291,26.0,17.0,16.0,11.0,0.0,27.0
0.7621666789054871,0.0,15.0,11.0,21.0,28.0,28.0
0.7634666562080383,27.0,0.0,5.0,22.0,11.0,16.0
0.7647666931152344,22.0,15.0,29.0,24.0,5.0,5.0
0.7660666704177856,24.0,12.0,35.0,21.0,12.0,38.0
0.7673666477203369,22.0,22.0,21.0,29.0,12.0,0.0
0.768666684627533,20.0,34.0,7.0,22.0,18.0,29.0
0.7699666619300842,14.0,47.0,27.0,15.0,16.0,15.0
0.771316647529602,38.0,57.0,5.0,23.0,6.0,0.0
0.7726166844367981,37.0,6.0,18.0,27.0,12.0,29.0
0.7739166617393494,23.0,35.0,32.0,53.0,17.0,27.0
0.7752166390419006,6.0,24.0,5.0,44.0,0.0,5.0
0.7765166759490967,0.0,16.0,21.0,48.0,25.0,26.0
0.777816653251648,55.0,27.0,0.0,11.0,20.0,33.0
0.779116690158844,41.0,32.0,22.0,0.0,11.0,37.0
0.7804166674613953,28.0,0.0,29.0,11.0,10.0,25.0
0.7817166447639465,30.0,5.0,0.0,13.0,17.0,11.0
0.7830166816711426,38.0,5.0,3.0,14.0,15.0,10.0
0.7843166589736938,39.0,7.0,5.0,5.0,13.0,10.0
0.7856166958808899,36.0,9.0,52.0,27.0,22.0,0.0
0.7869166731834412,31.0,572.0,48.0,48.0,375.0,16.0
0.7882833480834961,21.0,1196.0,2579.0,706.0,728.0,5.0
0.7895833253860474,37.0,8616.0,7047.0,3714.0,2881.0,756.0
0.7908833622932434,27.0,23408.0,16928.0,18680.0,6141.0,8064.0
0.7921833395957947,16.0,44560.0,37280.0,33728.0,20076.0,10072.0
0.793483316898346,5.0,73392.0,82160.0,38112.0,36304.0,10448.0
0.794783353805542,30.0,120768.0,110912.0,89232.0,52176.0,15348.0
0.7960833311080933,40.0,157568.0,145536.0,119680.0,71968.0,32612.0
0.7973833084106445,35.0,220736.0,226304.0,148096.0,107488.0,34656.0
0.7986833453178406,31.0,215232.0,240576.0,145216.0,101920.0,26876.0
0.7999833226203918,35.0,211072.0,250048.0,161664.0,111776.0,28388.0
0.8012833595275879,39.0,268928.0,263104.0,171072.0,104832.0,45152.0
0.8026000261306763,35.0,252480.0,251328.0,166336.0,116672.0,40928.0
0.8039000034332275,31.0,236032.0,256832.0,171200.0,114992.0,44624.0
0.8052499890327454,853.0,254976.0,262400.0,169472.0,113296.0,33664.0
0.8065500259399414,1099.0,262400.0,259776.0,167808.0,117312.0,33648.0
0.8078500032424927,66.0,244992.0,258752.0,177536.0,111008.0,40544.0
0.809149980545044,57.0,231744.0,257728.0,187200.0,113216.0,33088.0
0.8104666471481323,32.0,268096.0,277440.0,184960.0,115408.0,42400.0
0.8117666840553284,28.0,215104.0,235392.0,182656.0,109856.0,35664.0
0.8130666613578796,44.0,253376.0,267712.0,178752.0,120416.0,38112.0
0.8143666386604309,42.0,250112.0,251840.0,174592.0,104224.0,32080.0
0.8156499862670898,38.0,218304.0,264640.0,175424.0,104368.0,35888.0
0.8169666528701782,34.0,215360.0,248704.0,123392.0,102544.0,29944.0
0.8182666897773743,34.0,244608.0,237440.0,167104.0,94848.0,30848.0
0.8195666670799255,35.0,202560.0,237184.0,155392.0,97664.0,31272.0
0.8208666443824768,34.0,187456.0,201856.0,143488.0,100160.0,28572.0
0.8222000002861023,34.0,171264.0,222400.0,144576.0,88272.0,28108.0
0.8234999775886536,10.0,172928.0,190336.0,125072.0,78592.0,27196.0
0.8248000144958496,48.0,148928.0,149952.0,111600.0,73888.0,19096.0
0.8260999917984009,15.0,123296.0,145152.0,91360.0,70576.0,21564.0
0.8274000287055969,15.0,110528.0,131520.0,108320.0,59056.0,20828.0
0.8287000060081482,15.0,113824.0,116816.0,73408.0,36752.0,9124.0
0.8299999833106995,15.0,80624.0,105552.0,61200.0,42224.0,12144.0
0.8313000202178955,31.0,64336.0,76848.0,53712.0,28264.0,6577.0
0.8325999975204468,27.0,53648.0,75008.0,45440.0,22176.0,7186.0
0.8338833451271057,24.0,46048.0,62208.0,33808.0,19316.0,4582.0
0.835183322429657,35.0,47520.0,44240.0,24964.0,20300.0,2246.0
0.836483359336853,30.0,26652.0,33568.0,16028.0,13808.0,5699.0
0.8377833366394043,24.0,36016.0,24032.0,15472.0,9328.0,1028.0
0.8391166925430298,46.0,25036.0,27008.0,15808.0,12324.0,2769.0
0.840416669845581,7.0,20588.0,19904.0,12540.0,8608.0,3748.0
0.8417166471481323,14.0,24872.0,22496.0,6990.0,8444.0,1668.0
0.8430166840553284,21.0,20260.0,18332.0,5820.0,4923.0,2987.0
0.8443166613578796,10.0,9444.0,12076.0,6772.0,5509.0,2533.0
0.8456166386604309,37.0,9328.0,13848.0,6727.0,5347.0,1057.0
0.846916675567627,50.0,10448.0,8476.0,7666.0,5374.0,2660.0
0.8482166528701782,46.0,8082.0,9848.0,2878.0,3016.0,1144.0
0.8495166897773743,36.0,11400.0,9132.0,7435.0,2121.0,2404.0
0.8508166670799255,42.0,11748.0,6130.0,4668.0,3766.0,1823.0
0.8521166443824768,28.0,6203.0,10948.0,2673.0,2988.0,1092.0
0.8534166812896729,28.0,5144.0,8720.0,2110.0,1521.0,359.0
0.8547166585922241,10.0,3245.0,2199.0,1555.0,2561.0,1422.0
0.856083333492279,47.0,6438.0,4287.0,2505.0,2431.0,17.0
0.8573833107948303,41.0,5310.0,9588.0,2052.0,1338.0,721.0
0.8586833477020264,18.0,6096.0,4368.0,3037.0,707.0,1425.0
0.8599833250045776,21.0,4948.0,4773.0,2937.0,1224.0,1023.0
0.8612833619117737,13.0,6101.0,2904.0,2837.0,1165.0,42.0
0.862583339214325,24.0,1860.0,3403.0,2141.0,847.0,1962.0
0.8638833165168762,34.0,2079.0,2893.0,2014.0,16.0,24.0
0.8651833534240723,52.0,6518.0,4374.0,3067.0,1042.0,62.0
0.8664833307266235,44.0,4217.0,3983.0,3614.0,2068.0,596.0
0.8677833080291748,0.0,6405.0,3591.0,4162.0,1949.0,477.0
0.8690833449363708,25.0,5631.0,3113.0,4295.0,2554.0,93.0
0.8703833222389221,25.0,7432.0,4320.0,636.0,1831.0,47.0
0.8716833591461182,18.0,2221.0,3588.0,460.0,1404.0,582.0
0.873033344745636,11.0,5162.0,5163.0,3670.0,1578.0,335.0
0.8743333220481873,13.0,2510.0,1948.0,1713.0,586.0,87.0
0.8756333589553833,15.0,4325.0,3232.0,1609.0,43.0,98.0
0.8769333362579346,17.0,1434.0,3651.0,3624.0,1789.0,21.0
0.8782333135604858,20.0,5308.0,2058.0,2387.0,906.0,24.0
0.8795333504676819,22.0,4732.0,3689.0,1753.0,23.0,28.0
0.8808500170707703,19.0,3571.0,1179.0,3430.0,2282.0,10.0
0.8821333050727844,17.0,5050.0,1932.0,2670.0,834.0,10.0
0.8834333419799805,19.0,2276.0,2684.0,2430.0,21.0,33.0
0.8847333192825317,21.0,1763.0,2642.0,2020.0,373.0,95.0
0.8860333561897278,28.0,4660.0,512.0,2208.0,2516.0,170.0
0.887333333492279,28.0,3538.0,1210.0,532.0,2063.0,93.0
0.8886333107948303,29.0,3670.0,1516.0,1264.0,1262.0,16.0
0.8899999856948853,41.0,3154.0,1823.0,3676.0,792.0,8.0
0.8913000226020813,52.0,2637.0,1717.0,3086.0,664.0,13.0
0.8925999999046326,11.0,5195.0,1612.0,130.0,53.0,18.0
0.8938999772071838,20.0,5824.0,1599.0,309.0,38.0,5.0
0.8952000141143799,28.0,1994.0,1586.0,1095.0,1636.0,22.0
0.8964999914169312,18.0,5760.0,856.0,843.0,1702.0,18.0
0.8978000283241272,37.0,8256.0,126.0,761.0,481.0,20.0
0.8991000056266785,5.0,2722.0,2801.0,973.0,496.0,22.0
0.9003999829292297,37.0,5938.0,3456.0,1186.0,894.0,17.0
0.9017000198364258,17.0,6488.0,593.0,15.0,48.0,12.0
0.902999997138977,28.0,2542.0,1427.0,2929.0,32.0,17.0
0.9042999744415283,21.0,6372.0,1207.0,2683.0,16.0,22.0
0.9056000113487244,13.0,2933.0,934.0,649.0,232.0,6.0
0.9069666862487793,5.0,3474.0,518.0,839.0,448.0,12.0
0.9082666635513306,36.0,6685.0,103.0,43.0,635.0,17.0
0.9095666408538818,43.0,4041.0,310.0,501.0,514.0,15.0
0.9108666777610779,52.0,2942.0,518.0,958.0,392.0,17.0
0.9121666550636292,21.0,7245.0,717.0,547.0,13.0,25.0
0.9134666919708252,26.0,5882.0,916.0,1297.0,434.0,41.0
0.9147666692733765,15.0,9560.0,1413.0,1053.0,235.0,44.0
0.9160666465759277,5.0,7144.0,1910.0,808.0,35.0,46.0
0.9173666834831238,26.0,4365.0,1884.0,417.0,46.0,22.0
0.918666660785675,32.0,2406.0,1047.0,25.0,57.0,69.0
0.9199666380882263,16.0,5251.0,1518.0,888.0,441.0,42.0
0.9212666749954224,5.0,4865.0,2232.0,14.0,1074.0,14.0
0.9225666522979736,14.0,5004.0,2169.0,2109.0,832.0,42.0
0.9239166378974915,10.0,4868.0,52.0,1921.0,662.0,69.0
0.9252166748046875,5.0,4732.0,3750.0,3385.0,176.0,43.0
0.9265166521072388,8.0,6295.0,3246.0,1782.0,100.0,17.0
0.9278166890144348,11.0,4644.0,1869.0,829.0,24.0,71.0
0.9291166663169861,26.0,2993.0,1656.0,24.0,0.0,12.0
0.9304166436195374,53.0,4899.0,297.0,2692.0,13.0,24.0
0.9317166805267334,48.0,3805.0,899.0,2463.0,20.0,5.0
0.9330166578292847,68.0,4476.0,1500.0,1056.0,1073.0,12.0
0.9343166947364807,7.0,5147.0,1354.0,860.0,536.0,18.0
0.935616672039032,27.0,5748.0,1208.0,24.0,0.0,45.0
0.9369166493415833,17.0,6348.0,1928.0,447.0,41.0,44.0
0.9382166862487793,15.0,6285.0,1639.0,236.0,1426.0,42.0
0.9395166635513306,28.0,3912.0,1350.0,26.0,1225.0,23.0
0.9408833384513855,14.0,4190.0,1253.0,116.0,550.0,16.0
0.9421833157539368,31.0,2964.0,934.0,206.0,38.0,10.0
0.9434833526611328,5.0,3263.0,826.0,214.0,792.0,400.0
0.9447833299636841,84.0,3563.0,1377.0,953.0,10.0,649.0
0.9460833072662354,72.0,4602.0,636.0,1023.0,0.0,940.0
0.9473833441734314,5.0,5717.0,498.0,1093.0,23.0,0.0
0.9486833214759827,44.0,6101.0,436.0,582.0,322.0,5.0
0.9499833583831787,18.0,5168.0,1975.0,485.0,183.0,10.0
0.95128333568573,22.0,1999.0,2937.0,184.0,45.0,23.0
0.9525833129882812,16.0,3933.0,2397.0,558.0,381.0,17.0
0.9538833498954773,10.0,4577.0,1108.0,283.0,199.0,11.0
0.9551833271980286,8.0,3182.0,724.0,8.0,16.0,17.0
0.9564833045005798,12.0,1788.0,15.0,21.0,47.0,20.0
0.9578333497047424,34.0,2031.0,2148.0,34.0,295.0,22.0
0.9591333270072937,31.0,2275.0,2004.0,13.0,311.0,11.0
0.960433304309845,29.0,2681.0,1249.0,1056.0,948.0,0.0
0.961733341217041,25.0,3751.0,94.0,1490.0,803.0,3.0
0.9630333185195923,35.0,4821.0,1245.0,2147.0,658.0,6.0
0.9643333554267883,14.0,4013.0,767.0,151.0,25.0,10.0
0.9656333327293396,12.0,3206.0,224.0,1477.0,324.0,11.0
0.9669333100318909,9.0,2235.0,2152.0,21.0,624.0,27.0
0.9682333469390869,31.0,1263.0,2136.0,1420.0,730.0,251.0
0.9695333242416382,31.0,2789.0,2330.0,628.0,773.0,137.0
0.9708333611488342,37.0,4314.0,2524.0,41.0,816.0,23.0
0.9721333384513855,37.0,3869.0,3447.0,995.0,528.0,24.0
0.9734500050544739,14.0,3326.0,3666.0,511.0,42.0,38.0
0.9747999906539917,20.0,1480.0,1609.0,27.0,871.0,12.0
0.9761000275611877,26.0,1264.0,1404.0,716.0,470.0,10.0
0.977400004863739,23.0,4070.0,2282.0,1014.0,69.0,40.0
0.9786999821662903,20.0,2440.0,2245.0,944.0,61.0,35.0
0.9800000190734863,24.0,3371.0,2209.0,422.0,52.0,32.0
0.9812999963760376,29.0,3800.0,2142.0,63.0,339.0,52.0
0.9825999736785889,27.0,3019.0,2991.0,933.0,183.0,72.0
0.9839000105857849,32.0,1581.0,770.0,950.0,28.0,0.0
0.9851999878883362,12.0,3801.0,1021.0,1634.0,5.0,13.0
0.9865000247955322,6.0,2276.0,1380.0,1243.0,40.0,32.0
0.9878000020980835,10.0,4294.0,1314.0,1874.0,45.0,12.0
0.9890999794006348,13.0,2875.0,897.0,23.0,49.0,26.0
0.9904000163078308,22.0,1867.0,1668.0,1061.0,47.0,27.0
0.9917500019073486,37.0,144.0,2106.0,1464.0,280.0,881.0
0.9930499792098999,47.0,654.0,34.0,684.0,156.0,449.0
0.994350016117096,38.0,1944.0,573.0,1099.0,32.0,17.0
0.9956499934196472,24.0,999.0,16.0,34.0,45.0,19.0
0.9969499707221985,6.0,1209.0,198.0,1109.0,26.0,33.0
0.9982500076293945,29.0,1419.0,1192.0,36.0,5.0,18.0
0.9995499849319458,36.0,108.0,1038.0,21.0,33.0,28.0
1.000849962234497,24.0,36.0,885.0,1558.0,35.0,18.0
1.002150058746338,10.0,1681.0,1090.0,1275.0,37.0,12.0
1.0034500360488892,30.0,886.0,1339.0,1359.0,296.0,6.0
1.0047500133514404,50.0,1548.0,1587.0,354.0,151.0,13.0
1.0060499906539917,68.0,2210.0,1376.0,670.0,5.0,21.0
1.00736665725708,50.0,32.0,535.0,987.0,279.0,21.0
1.0087167024612427,33.0,11.0,2031.0,27.0,552.0,36.0
1.010016679763794,13.0,1947.0,1262.0,742.0,303.0,31.0
1.0113166570663452,27.0,2037.0,1736.0,830.0,54.0,137.0
1.0126166343688965,36.0,3485.0,2589.0,1599.0,37.0,72.0
1.0139166116714478,45.0,3561.0,0.0,1016.0,1800.0,7.0
1.0152167081832886,45.0,1170.0,769.0,693.0,1611.0,16.0
1.0165166854858398,45.0,2154.0,3436.0,1138.0,836.0,11.0
1.0178166627883911,18.0,532.0,3743.0,1382.0,2422.0,1099.0
1.0191166400909424,11.0,1855.0,1544.0,1959.0,702.0,907.0
1.0204166173934937,37.0,3177.0,16.0,1610.0,37.0,593.0
1.0217167139053345,16.0,1931.0,906.0,483.0,546.0,8.0
1.0230166912078857,22.0,997.0,28.0,622.0,10.0,25.0
1.024316668510437,43.0,1858.0,2170.0,762.0,73.0,507.0
1.0256832838058472,16.0,2346.0,1926.0,19.0,54.0,23.0
1.026983380317688,11.0,1171.0,39.0,1515.0,37.0,54.0
1.0282833576202393,5.0,625.0,22.0,1258.0,21.0,5.0
1.0295833349227905,14.0,1079.0,796.0,1386.0,36.0,0.0
1.0308833122253418,23.0,1073.0,764.0,990.0,64.0,3.0
1.032183289527893,17.0,1068.0,732.0,1229.0,52.0,6.0
1.0334833860397339,12.0,965.0,568.0,297.0,7.0,15.0
1.0347833633422852,22.0,863.0,1087.0,21.0,15.0,23.0
1.0360833406448364,5.0,826.0,11.0,255.0,23.0,30.0
1.0373833179473877,15.0,1353.0,393.0,489.0,219.0,28.0
1.038683295249939,26.0,1879.0,776.0,260.0,131.0,27.0
1.0399833917617798,32.0,2090.0,35.0,32.0,43.0,5.0
1.041283369064331,38.0,16.0,25.0,1219.0,32.0,10.0
1.042633295059204,26.0,5.0,15.0,1721.0,35.0,27.0
1.0439499616622925,17.0,1411.0,1501.0,1432.0,574.0,24.0
1.0452333688735962,23.0,52.0,760.0,936.0,550.0,22.0
1.0465333461761475,16.0,41.0,18.0,439.0,1221.0,67.0
1.0478333234786987,0.0,29.0,897.0,921.0,630.0,289.0
1.04913330078125,20.0,1100.0,2265.0,484.0,38.0,156.0
1.0504332780838013,41.0,845.0,1442.0,46.0,703.0,23.0
1.051733374595642,24.0,590.0,618.0,1087.0,12.0,23.0
1.0530333518981934,7.0,1223.0,2171.0,804.0,1124.0,23.0
1.0543333292007446,26.0,47.0,585.0,522.0,880.0,14.0
1.055633306503296,45.0,1968.0,696.0,3247.0,925.0,34.0
1.0569332838058472,64.0,1321.0,806.0,3937.0,969.0,27.0
1.058233380317688,50.0,2125.0,841.0,81.0,771.0,21.0
1.0595999956130981,7.0,2398.0,1164.0,1368.0,399.0,14.0
1.0608999729156494,24.0,1588.0,1056.0,3624.0,27.0,7.0
1.0621999502182007,32.0,2690.0,949.0,1916.0,44.0,11.0
1.0635000467300415,30.0,1878.0,2476.0,3689.0,62.0,31.0
1.0648000240325928,29.0,3669.0,2352.0,1730.0,2218.0,51.0
1.066100001335144,14.0,3544.0,648.0,1139.0,1689.0,45.0
1.0673999786376953,34.0,1024.0,1959.0,2610.0,350.0,58.0
1.0686999559402466,29.0,3169.0,2402.0,2316.0,117.0,45.0
1.0700000524520874,24.0,1042.0,1922.0,1067.0,38.0,35.0
1.0713000297546387,20.0,3877.0,1338.0,752.0,70.0,171.0
1.07260000705719,23.0,2820.0,753.0,1820.0,103.0,114.0
1.0738999843597412,6.0,3549.0,877.0,1119.0,72.0,56.0
1.0751999616622925,30.0,4341.0,1000.0,1784.0,41.0,322.0
1.076550006866455,23.0,2188.0,2087.0,25.0,417.0,176.0
1.0778499841690063,15.0,2003.0,3174.0,655.0,432.0,29.0
1.0791499614715576,10.0,3642.0,3174.0,1286.0,447.0,29.0
1.0804500579833984,0.0,1723.0,1927.0,3552.0,50.0,35.0
1.0817500352859497,0.0,3109.0,1961.0,3124.0,148.0,41.0
1.083050012588501,4.0,2093.0,805.0,775.0,245.0,12.0
1.0843499898910522,7.0,2231.0,4274.0,1923.0,854.0,41.0
1.0856499671936035,33.0,642.0,4031.0,856.0,1119.0,58.0
1.0869499444961548,37.0,457.0,4246.0,2980.0,1072.0,75.0
1.0882500410079956,0.0,1656.0,3744.0,2246.0,1026.0,20.0
1.0895500183105469,13.0,1671.0,5563.0,2693.0,337.0,21.0
1.0908499956130981,18.0,2061.0,4420.0,1032.0,987.0,22.0
1.0921499729156494,23.0,1989.0,3278.0,2087.0,1032.0,436.0
1.0935167074203491,26.0,1918.0,1696.0,1037.0,1078.0,850.0
1.0948166847229004,30.0,1905.0,1055.0,1184.0,1008.0,1073.0
1.0961166620254517,32.0,1032.0,414.0,1332.0,938.0,982.0
1.097416639328003,35.0,207.0,2963.0,899.0,1652.0,678.0
1.0987166166305542,38.0,632.0,2940.0,1837.0,150.0,53.0
1.100016713142395,38.0,1057.0,2023.0,1478.0,362.0,33.0
1.1013166904449463,39.0,2890.0,1923.0,1118.0,575.0,760.0
1.1026166677474976,28.0,3024.0,3101.0,229.0,694.0,851.0
1.1039166450500488,40.0,4377.0,2335.0,419.0,41.0,942.0
1.1052166223526,29.0,3576.0,2272.0,610.0,772.0,37.0
1.106516718864441,20.0,517.0,1710.0,3202.0,1503.0,26.0
1.1078166961669922,8.0,1063.0,1939.0,2850.0,2621.0,476.0
1.1091166734695435,0.0,3285.0,2302.0,1786.0,2324.0,0.0
1.110466718673706,23.0,513.0,3383.0,3238.0,1583.0,20.0
1.1117666959762573,5.0,4457.0,2595.0,936.0,465.0,164.0
1.1130666732788086,17.0,4213.0,1806.0,1100.0,1330.0,309.0
1.1143666505813599,5.0,2191.0,3961.0,3366.0,397.0,574.0
1.1156666278839111,50.0,3341.0,3470.0,2620.0,654.0,862.0
1.116966724395752,43.0,3269.0,4059.0,3346.0,912.0,959.0
1.1182667016983032,23.0,1792.0,4649.0,3591.0,911.0,5.0
1.1195666790008545,10.0,1483.0,4509.0,4317.0,910.0,563.0
1.1208666563034058,0.0,614.0,4497.0,2137.0,860.0,7.0
1.122166633605957,30.0,1541.0,4485.0,3399.0,809.0,946.0
1.1234666109085083,25.0,2467.0,6694.0,1491.0,867.0,1314.0
1.1247667074203491,21.0,3611.0,7051.0,4098.0,924.0,994.0
1.1260666847229004,34.0,3890.0,5016.0,1160.0,801.0,1192.0
1.1274333000183105,20.0,4169.0,2999.0,1661.0,677.0,520.0
1.1287332773208618,27.0,4480.0,6283.0,2163.0,865.0,763.0
1.1300333738327026,34.0,1240.0,6376.0,2114.0,1053.0,386.0
1.131333351135254,13.0,2332.0,4125.0,2893.0,936.0,42.0
1.1326333284378052,8.0,2721.0,1626.0,3672.0,819.0,875.0
1.1339333057403564,42.0,1869.0,4223.0,3735.0,2464.0,29.0
1.1352332830429077,37.0,2960.0,4339.0,3188.0,4762.0,13.0
1.1365333795547485,33.0,2948.0,6218.0,2640.0,4196.0,1861.0
1.1378333568572998,10.0,2935.0,3828.0,2320.0,1963.0,1564.0
1.139133334159851,26.0,2276.0,4191.0,2411.0,461.0,831.0
1.1404333114624023,17.0,3811.0,4553.0,3111.0,2281.0,1846.0
1.1417332887649536,23.0,5975.0,5933.0,2668.0,1615.0,801.0
1.1430333852767944,28.0,6716.0,7648.0,2226.0,1930.0,2407.0
1.1443833112716675,34.0,7058.0,6954.0,3140.0,1298.0,1869.0
1.1456832885742188,40.0,5678.0,4175.0,4054.0,1630.0,33.0
1.1469833850860596,35.0,7182.0,8364.0,4136.0,2940.0,15.0
1.1482833623886108,54.0,6926.0,4607.0,3418.0,2730.0,1865.0
1.149583339691162,12.0,6258.0,7125.0,2700.0,1124.0,924.0
1.1508833169937134,68.0,3891.0,7150.0,4139.0,118.0,469.0
1.1521832942962646,5.0,4840.0,6515.0,4458.0,1240.0,13.0
1.1534833908081055,45.0,4349.0,8032.0,4777.0,2363.0,541.0
1.1547833681106567,52.0,5783.0,7569.0,3204.0,2044.0,1069.0
1.156083345413208,36.0,5774.0,4914.0,3110.0,2483.0,793.0
1.1573833227157593,10.0,6664.0,7571.0,3016.0,2211.0,40.0
1.1586833000183105,30.0,5925.0,10852.0,3186.0,1270.0,1090.0
1.1599832773208618,26.0,5186.0,9936.0,4886.0,328.0,1486.0
1.1613500118255615,51.0,2437.0,8732.0,8041.0,3373.0,34.0
1.1626499891281128,41.0,700.0,5088.0,6744.0,4089.0,519.0
1.163949966430664,30.0,5790.0,5433.0,4991.0,3708.0,21.0
1.1652499437332153,18.0,1817.0,8372.0,3760.0,3124.0,469.0
1.1665500402450562,21.0,2573.0,7432.0,5355.0,1910.0,249.0
1.1678500175476074,16.0,5440.0,6491.0,3206.0,1529.0,30.0
1.1691499948501587,43.0,3558.0,3739.0,3811.0,2504.0,1385.0
1.17044997215271,27.0,4149.0,9720.0,4415.0,2754.0,1746.0
1.1717499494552612,10.0,4739.0,7522.0,7068.0,3003.0,2606.0
1.173050045967102,7.0,3823.0,9864.0,8484.0,1997.0,735.0
1.1743500232696533,28.0,2907.0,10720.0,8712.0,991.0,689.0
1.1756500005722046,46.0,4566.0,11244.0,10404.0,3436.0,2108.0
1.1769499778747559,41.0,4890.0,1922.0,3688.0,1860.0,2886.0
1.1783000230789185,38.0,4793.0,7727.0,4614.0,1284.0,2121.0
1.1796000003814697,21.0,4756.0,8196.0,2855.0,709.0,2346.0
1.180899977684021,15.0,4719.0,13496.0,3702.0,1690.0,2572.0
1.1821999549865723,47.0,2706.0,10592.0,5116.0,2670.0,2136.0
1.183500051498413,29.0,8988.0,6361.0,5467.0,2315.0,516.0
1.1848000288009644,29.0,11004.0,7492.0,1782.0,3952.0,5.0
1.1861000061035156,29.0,6313.0,10064.0,8129.0,224.0,653.0
1.187399983406067,22.0,5854.0,7159.0,6552.0,6250.0,834.0
1.1886999607086182,40.0,5530.0,4252.0,4975.0,4315.0,1015.0
1.190000057220459,40.0,6582.0,10192.0,2669.0,3205.0,2353.0
1.1913000345230103,33.0,8232.0,6940.0,6236.0,3476.0,2473.0
1.1926000118255615,27.0,3141.0,9132.0,5818.0,5122.0,2416.0
1.1938999891281128,5.0,8161.0,11916.0,6757.0,5064.0,2000.0
1.1952667236328125,24.0,10248.0,5827.0,7462.0,3843.0,1584.0
1.1965667009353638,23.0,4589.0,13072.0,6268.0,5531.0,664.0
1.197866678237915,19.0,11492.0,15900.0,5074.0,4462.0,874.0
1.1991666555404663,15.0,4302.0,13680.0,8332.0,5112.0,858.0
1.2004666328430176,21.0,2957.0,14700.0,7796.0,5877.0,1430.0
1.2017666101455688,32.0,12764.0,12120.0,4858.0,4887.0,730.0
1.2030667066574097,0.0,11944.0,13848.0,8744.0,6062.0,30.0
1.204366683959961,32.0,9492.0,12712.0,6586.0,4118.0,911.0
1.2056666612625122,32.0,9052.0,8940.0,4428.0,4927.0,790.0
1.2069666385650635,37.0,4991.0,8772.0,6088.0,7130.0,669.0
1.2082666158676147,10.0,3902.0,13660.0,7748.0,7545.0,2849.0
1.2095667123794556,36.0,9520.0,12552.0,9380.0,8744.0,2583.0
1.2108666896820068,27.0,12816.0,11672.0,10044.0,5251.0,1082.0
1.2122166156768799,18.0,13788.0,17916.0,10712.0,5553.0,321.0
1.2135167121887207,39.0,10936.0,17452.0,8272.0,5980.0,3833.0
1.214816689491272,37.0,10572.0,16988.0,11020.0,5850.0,2502.0
1.2161166667938232,10.0,11476.0,16572.0,12484.0,6883.0,2366.0
1.2174166440963745,37.0,12376.0,16156.0,10804.0,6858.0,3088.0
1.2187166213989258,30.0,9508.0,12188.0,10328.0,6833.0,2140.0
1.2200167179107666,12.0,9224.0,19692.0,10212.0,8716.0,1193.0
1.2213166952133179,5.0,11676.0,10752.0,10092.0,7078.0,1537.0
1.2226166725158691,31.0,11472.0,21080.0,10848.0,5439.0,1882.0
1.2239166498184204,5.0,11264.0,12772.0,11604.0,4171.0,1588.0
1.2252166271209717,32.0,13468.0,23600.0,11256.0,6551.0,1293.0
1.2265167236328125,24.0,13860.0,18348.0,10908.0,8932.0,1025.0
1.2278167009353638,16.0,13232.0,17652.0,10656.0,9300.0,757.0
1.229183316230774,30.0,12404.0,17316.0,10520.0,7287.0,2200.0
1.2304832935333252,26.0,7825.0,16224.0,7959.0,7634.0,1926.0
1.231783390045166,15.0,16864.0,16344.0,14124.0,7982.0,1074.0
1.2330833673477173,6.0,12524.0,18664.0,12700.0,7736.0,3033.0
1.2343833446502686,5.0,12524.0,20988.0,11272.0,7490.0,2365.0
1.2356833219528198,5.0,9040.0,18972.0,14784.0,5931.0,2538.0
1.236983299255371,5.0,9744.0,16956.0,14552.0,5998.0,2712.0
1.2382832765579224,5.0,11452.0,18016.0,14820.0,6066.0,2796.0
1.2395833730697632,16.0,11780.0,19076.0,13992.0,6297.0,2879.0
1.2408833503723145,13.0,12108.0,18080.0,13164.0,6529.0,1406.0
1.2421833276748657,10.0,13012.0,17084.0,14280.0,6179.0,3790.0
1.243483304977417,29.0,13400.0,21056.0,15392.0,5830.0,3988.0
1.2447832822799683,17.0,23084.0,20712.0,16024.0,11260.0,4436.0
1.2461333274841309,5.0,22976.0,20368.0,16652.0,13256.0,4884.0
1.2474333047866821,11.0,15024.0,24916.0,16060.0,8352.0,776.0
1.2487332820892334,21.0,19680.0,25560.0,10008.0,9084.0,3027.0
1.2500333786010742,5.0,22204.0,26200.0,17288.0,9816.0,2746.0
1.2513333559036255,16.0,25540.0,23652.0,18688.0,14980.0,2479.0
1.2526333332061768,0.0,20072.0,21756.0,17824.0,14412.0,2384.0
1.253933310508728,8.0,11548.0,22640.0,18552.0,10464.0,1215.0
1.2552332878112793,15.0,17012.0,23520.0,19280.0,11488.0,2266.0
1.2565333843231201,17.0,17820.0,32276.0,14096.0,12444.0,4690.0
1.2578333616256714,13.0,26668.0,33808.0,17788.0,9744.0,4251.0
1.2591333389282227,9.0,24396.0,32896.0,24152.0,9444.0,3573.0
1.260433316230774,5.0,18708.0,33904.0,23492.0,9560.0,3651.0
1.2617332935333252,49.0,26300.0,30364.0,23744.0,10640.0,2589.0
1.263100028038025,63.0,29516.0,27268.0,14460.0,11724.0,2506.0
1.2644000053405762,42.0,22460.0,28844.0,20860.0,12596.0,1535.0
1.2656999826431274,0.0,24312.0,31988.0,21168.0,13944.0,3259.0
1.2669999599456787,27.0,23420.0,35136.0,21476.0,7897.0,2911.0
1.2683000564575195,17.0,27952.0,35488.0,20724.0,18200.0,2564.0
1.2696000337600708,17.0,28880.0,35840.0,19972.0,17496.0,2517.0
1.270900011062622,22.0,28844.0,37472.0,23924.0,18632.0,3194.0
1.2721999883651733,27.0,27324.0,34416.0,25344.0,17916.0,3871.0
1.2734999656677246,18.0,17528.0,31360.0,25708.0,13340.0,8696.0
1.2747999429702759,9.0,26932.0,43312.0,26580.0,17092.0,7473.0
1.2761000394821167,34.0,29936.0,41584.0,26000.0,23228.0,6081.0
1.277400016784668,31.0,33216.0,39840.0,24348.0,20840.0,6943.0
1.2786999940872192,29.0,38320.0,47472.0,22748.0,17152.0,4642.0
1.2800500392913818,21.0,38256.0,45936.0,21152.0,10924.0,3951.0
1.281350016593933,23.0,31300.0,44384.0,28568.0,26520.0,7661.0
1.2826499938964844,32.0,30276.0,42304.0,26672.0,20460.0,7561.0
1.2839499711990356,7.0,29248.0,40224.0,27752.0,17704.0,5275.0
1.285249948501587,31.0,31560.0,44560.0,29384.0,19464.0,7440.0
1.2865500450134277,49.0,30072.0,48896.0,28284.0,21224.0,6089.0
1.287850022315979,38.0,32864.0,51632.0,27184.0,12724.0,7255.0
1.2891499996185303,28.0,35664.0,53200.0,32912.0,26668.0,6132.0
1.2904499769210815,28.0,35616.0,51184.0,32632.0,20260.0,6385.0
1.2917499542236328,26.0,35568.0,45408.0,30268.0,19836.0,6637.0
1.2930500507354736,25.0,40624.0,52400.0,30280.0,28048.0,7202.0
1.294350028038025,12.0,39888.0,49360.0,30296.0,22516.0,9168.0
1.2956500053405762,10.0,32428.0,50768.0,31084.0,25092.0,7410.0
1.2970166206359863,7.0,45344.0,52160.0,31876.0,19492.0,5654.0
1.2983167171478271,5.0,47536.0,53760.0,32200.0,11392.0,8076.0
1.2996166944503784,25.0,34512.0,55360.0,31588.0,32896.0,9648.0
1.3009166717529297,23.0,38816.0,55536.0,31596.0,28100.0,8452.0
1.302216649055481,22.0,40576.0,55696.0,31608.0,23836.0,7258.0
1.3035166263580322,15.0,44368.0,46464.0,41904.0,18560.0,5401.0
1.304816722869873,9.0,41008.0,75648.0,45616.0,24516.0,5830.0
1.3061167001724243,35.0,37632.0,68496.0,35536.0,24928.0,11096.0
1.3074166774749756,24.0,42816.0,66240.0,45744.0,25340.0,9656.0
1.3087166547775269,13.0,43536.0,46608.0,35440.0,23112.0,5689.0
1.3100166320800781,23.0,41216.0,49488.0,44848.0,20880.0,8744.0
1.3113166093826294,21.0,48112.0,57360.0,33408.0,26108.0,8748.0
1.3126167058944702,10.0,49920.0,57648.0,37776.0,19624.0,8280.0
1.3139666318893433,26.0,51744.0,53776.0,48176.0,23396.0,7812.0
1.3152666091918945,25.0,50208.0,67456.0,44592.0,26128.0,9008.0
1.3165667057037354,24.0,48672.0,71600.0,36032.0,25568.0,11740.0
1.3178666830062866,35.0,47744.0,69568.0,34208.0,25592.0,3811.0
1.319166660308838,5.0,43648.0,53232.0,35408.0,25616.0,8380.0
1.3204666376113892,60.0,44368.0,61456.0,35104.0,21924.0,7697.0
1.3217666149139404,42.0,38288.0,52224.0,37776.0,23536.0,7016.0
1.3230667114257812,13.0,49472.0,60144.0,38240.0,25144.0,9396.0
1.3243666887283325,8.0,50464.0,60240.0,34032.0,23936.0,7556.0
1.3256666660308838,6.0,37984.0,55120.0,30240.0,26812.0,5716.0
1.326966643333435,29.0,32192.0,59712.0,34624.0,28724.0,6269.0
1.3282666206359863,25.0,43216.0,57168.0,33184.0,30636.0,6822.0
1.3295667171478271,22.0,36592.0,64112.0,33056.0,24692.0,5998.0
1.3309333324432373,51.0,41488.0,65840.0,21156.0,25964.0,6159.0
1.3322333097457886,46.0,43920.0,55104.0,29080.0,18812.0,6320.0
1.3335332870483398,41.0,46368.0,48624.0,31212.0,28604.0,4745.0
1.3348333835601807,34.0,27280.0,50336.0,24236.0,23588.0,3170.0
1.336133360862732,44.0,35984.0,41776.0,35552.0,18964.0,5516.0
1.3374333381652832,54.0,47792.0,54288.0,34880.0,26128.0,5031.0
1.3387333154678345,5.0,34480.0,35232.0,33136.0,21272.0,4545.0
1.3400332927703857,50.0,29452.0,35712.0,29492.0,18408.0,10424.0
1.3413333892822266,0.0,36976.0,45472.0,34112.0,19668.0,9568.0
1.3426333665847778,49.0,28256.0,42256.0,25400.0,17128.0,6336.0
1.343933343887329,13.0,26696.0,41536.0,22584.0,11144.0,6180.0
1.3452333211898804,39.0,34704.0,35088.0,23748.0,15168.0,7657.0
1.3465332984924316,27.0,26976.0,41072.0,20676.0,14280.0,4464.0
1.3478833436965942,32.0,26520.0,30296.0,22284.0,12944.0,4103.0
1.3491833209991455,38.0,33312.0,42064.0,27532.0,14976.0,4264.0
1.3504832983016968,32.0,27236.0,40816.0,16652.0,17012.0,3872.0
1.351783275604248,23.0,24368.0,26324.0,29972.0,18152.0,4873.0
1.3530833721160889,17.0,19692.0,33968.0,22960.0,10008.0,1627.0
1.3543833494186401,41.0,20612.0,28600.0,11040.0,15916.0,2591.0
1.3556833267211914,0.0,20100.0,28620.0,18208.0,15788.0,3555.0
1.3569833040237427,23.0,16900.0,18408.0,18052.0,10396.0,4517.0
1.358283281326294,27.0,20656.0,30364.0,16140.0,10684.0,5480.0
1.3595833778381348,34.0,14344.0,17184.0,15524.0,14056.0,1065.0
1.360883355140686,11.0,18828.0,23220.0,19936.0,10228.0,2237.0
1.3622000217437744,5.0,19988.0,27140.0,21864.0,11068.0,2568.0
1.3634833097457886,12.0,12836.0,21288.0,10620.0,8043.0,4121.0
1.3648500442504883,18.0,16216.0,28780.0,16180.0,11940.0,4135.0
1.3661500215530396,30.0,10936.0,16636.0,10220.0,7486.0,4471.0
1.3674499988555908,30.0,13020.0,21888.0,17016.0,7727.0,3471.0
1.368749976158142,30.0,17808.0,21492.0,13824.0,5971.0,1850.0
1.3700499534606934,33.0,17128.0,12372.0,8788.0,5519.0,3224.0
1.3713500499725342,30.0,12936.0,14496.0,11304.0,5067.0,3071.0
1.3726500272750854,27.0,8064.0,14492.0,5679.0,9108.0,2390.0
1.3739500045776367,24.0,6681.0,11012.0,9068.0,9192.0,1758.0
1.375249981880188,16.0,3587.0,9340.0,8296.0,6533.0,997.0
1.3765499591827393,35.0,5211.0,9396.0,10920.0,5026.0,649.0
1.37785005569458,33.0,5756.0,9456.0,5621.0,5959.0,300.0
1.3791500329971313,50.0,6301.0,9248.0,9004.0,7898.0,788.0
1.3804500102996826,7.0,5738.0,9196.0,8696.0,3040.0,394.0
1.3818000555038452,12.0,5174.0,9148.0,4630.0,6151.0,0.0
1.3831000328063965,10.0,7042.0,9352.0,2910.0,5112.0,566.0
1.3844000101089478,12.0,7319.0,8476.0,5223.0,1191.0,1132.0
1.385699987411499,21.0,7997.0,7597.0,9684.0,3135.0,576.0
1.3869999647140503,19.0,5675.0,9660.0,8272.0,1910.0,19.0
1.3882999420166016,17.0,7158.0,7927.0,9080.0,3126.0,465.0
1.3896000385284424,16.0,6996.0,4556.0,3256.0,3032.0,911.0
1.3909000158309937,0.0,7404.0,11488.0,5790.0,2938.0,16.0
1.392199993133545,15.0,1705.0,10364.0,4956.0,2548.0,898.0
1.3934999704360962,21.0,7183.0,7938.0,5900.0,2542.0,759.0
1.3947999477386475,40.0,5242.0,4648.0,4828.0,2535.0,620.0
1.3961000442504883,30.0,7694.0,3074.0,3318.0,2995.0,550.0
1.3974000215530396,21.0,2591.0,5424.0,1698.0,3246.0,419.0
1.3987666368484497,23.0,1493.0,3385.0,3847.0,1649.0,34.0
1.400066614151001,23.0,4576.0,4312.0,1326.0,593.0,39.0
1.4013667106628418,18.0,2136.0,7024.0,2478.0,1168.0,47.0
1.402666687965393,13.0,3202.0,6555.0,1922.0,841.0,38.0
1.4039666652679443,23.0,4522.0,7036.0,3853.0,15.0,29.0
1.4052666425704956,39.0,2866.0,950.0,1931.0,2413.0,21.0
1.4065666198730469,30.0,758.0,1254.0,8.0,2171.0,21.0
1.4078667163848877,22.0,2180.0,3023.0,3516.0,2046.0,21.0
1.409166693687439,12.0,1126.0,5214.0,5.0,1219.0,23.0
1.4104666709899902,29.0,1411.0,3759.0,2100.0,11.0,112.0
1.4117666482925415,45.0,850.0,4306.0,2931.0,258.0,63.0
1.4130666255950928,39.0,1372.0,3284.0,1927.0,504.0,14.0
1.4143667221069336,38.0,1964.0,1968.0,2441.0,912.0,21.0
1.4157166481018066,63.0,2555.0,2691.0,244.0,788.0,34.0
1.417016625404358,10.0,48.0,985.0,856.0,664.0,29.0
1.4183167219161987,61.0,1481.0,3398.0,636.0,1592.0,25.0
1.41961669921875,44.0,1827.0,3001.0,30.0,812.0,34.0
1.4209166765213013,46.0,1195.0,4605.0,916.0,32.0,429.0
1.4222166538238525,5.0,1229.0,2296.0,656.0,588.0,465.0
1.4235166311264038,11.0,1263.0,1693.0,397.0,316.0,5.0
1.424816608428955,33.0,1288.0,4590.0,1171.0,43.0,37.0
1.426116704940796,20.0,1211.0,1455.0,1184.0,1085.0,17.0
1.4274333715438843,26.0,1714.0,1600.0,520.0,1253.0,15.0
1.4287166595458984,32.0,352.0,48.0,285.0,912.0,25.0
1.4300333261489868,23.0,2000.0,1376.0,50.0,14.0,11.0
1.431316614151001,13.0,439.0,588.0,496.0,378.0,32.0
1.4326833486557007,26.0,51.0,608.0,12.0,1286.0,31.0
1.433983325958252,31.0,2678.0,636.0,1305.0,1724.0,29.0
1.4352833032608032,11.0,16.0,665.0,1201.0,11.0,27.0
1.4365832805633545,25.0,1619.0,207.0,608.0,538.0,26.0
1.4378833770751953,30.0,734.0,1211.0,14.0,65.0,5.0
1.4391833543777466,35.0,378.0,611.0,1855.0,38.0,12.0
1.4404833316802979,20.0,23.0,10.0,1809.0,11.0,20.0
1.4417833089828491,10.0,279.0,1044.0,1285.0,116.0,18.0
1.4430832862854004,5.0,722.0,1357.0,1208.0,72.0,26.0
1.4443833827972412,13.0,719.0,800.0,2563.0,27.0,33.0
1.4456833600997925,24.0,860.0,1462.0,32.0,45.0,39.0
1.4469833374023438,36.0,1001.0,490.0,1956.0,71.0,45.0
1.448283314704895,26.0,26.0,378.0,6.0,50.0,45.0
1.4496333599090576,16.0,287.0,369.0,2211.0,29.0,45.0
1.4509333372116089,37.0,549.0,44.0,48.0,17.0,15.0
1.4522333145141602,24.0,736.0,1880.0,1058.0,5.0,29.0
1.4535332918167114,5.0,197.0,1732.0,1470.0,26.0,7.0
1.4548333883285522,25.0,1056.0,514.0,696.0,13.0,21.0
1.4561333656311035,27.0,1361.0,1127.0,1128.0,0.0,46.0
1.4574333429336548,29.0,1841.0,552.0,822.0,10.0,32.0
1.458733320236206,27.0,1270.0,473.0,766.0,15.0,18.0
1.4600332975387573,25.0,46.0,8.0,74.0,20.0,22.0
1.4613332748413086,5.0,580.0,359.0,1023.0,27.0,35.0
1.4626333713531494,25.0,0.0,710.0,24.0,27.0,54.0
1.4639333486557007,17.0,51.0,935.0,32.0,294.0,44.0
1.465233325958252,9.0,39.0,475.0,5.0,456.0,33.0
1.466599941253662,19.0,154.0,15.0,64.0,618.0,54.0
1.467900037765503,15.0,144.0,20.0,40.0,50.0,15.0
1.4692000150680542,10.0,134.0,1123.0,16.0,600.0,364.0
1.4704999923706055,11.0,26.0,1499.0,5.0,327.0,192.0
1.4717999696731567,12.0,0.0,37.0,12.0,53.0,21.0
1.473099946975708,11.0,10.0,414.0,18.0,42.0,440.0
1.4744000434875488,15.0,21.0,791.0,30.0,7.0,15.0
1.4757000207901,18.0,34.0,2023.0,413.0,33.0,27.0
1.4769999980926514,33.0,1143.0,2359.0,314.0,59.0,38.0
1.4782999753952026,16.0,1229.0,5.0,215.0,33.0,7.0
1.479599952697754,0.0,1348.0,0.0,130.0,36.0,39.0
1.4809000492095947,58.0,17.0,666.0,45.0,19.0,26.0
1.482200026512146,72.0,1218.0,676.0,11.0,19.0,12.0
1.483549952507019,53.0,466.0,687.0,35.0,20.0,5.0
1.4848500490188599,5.0,20.0,555.0,60.0,16.0,13.0
1.4861500263214111,24.0,17.0,30.0,133.0,13.0,21.0
1.4874500036239624,10.0,36.0,22.0,91.0,21.0,249.0
1.4887499809265137,14.0,555.0,13.0,49.0,29.0,143.0
1.490049958229065,17.0,449.0,784.0,47.0,783.0,37.0
1.4913500547409058,0.0,243.0,427.0,45.0,639.0,58.0
1.492650032043457,0.0,144.0,70.0,20.0,496.0,80.0
1.4939500093460083,17.0,45.0,48.0,7.0,700.0,5.0
1.4952499866485596,15.0,25.0,27.0,6.0,353.0,43.0
1.4965499639511108,12.0,15.0,0.0,29.0,6.0,5.0
1.497849941253662,19.0,11.0,12.0,35.0,685.0,40.0
1.499150037765503,12.0,7.0,24.0,41.0,48.0,53.0
1.500516653060913,5.0,25.0,24.0,0.0,40.0,15.0
1.5018166303634644,15.0,42.0,53.0,47.0,6.0,16.0
1.5031166076660156,16.0,25.0,1245.0,481.0,582.0,17.0
1.5044167041778564,16.0,7.0,1417.0,1832.0,448.0,18.0
1.5057166814804077,20.0,55.0,20.0,1584.0,34.0,16.0
1.507016658782959,21.0,639.0,32.0,758.0,23.0,14.0
1.5083166360855103,23.0,599.0,39.0,27.0,11.0,37.0
1.5096166133880615,14.0,13.0,13.0,20.0,11.0,198.0
1.5109167098999023,5.0,10.0,230.0,873.0,26.0,102.0
1.5122166872024536,11.0,496.0,122.0,5.0,28.0,5.0
1.5135166645050049,17.0,42.0,14.0,13.0,30.0,12.0
1.5148166418075562,0.0,67.0,176.0,45.0,5.0,18.0
1.5161166191101074,5.0,22.0,236.0,61.0,3.0,15.0
1.51746666431427,12.0,25.0,32.0,77.0,0.0,12.0
1.5187666416168213,18.0,40.0,30.0,7.0,24.0,6.0
1.5200666189193726,22.0,116.0,793.0,327.0,30.0,5.0
1.5213667154312134,5.0,67.0,410.0,647.0,36.0,5.0
1.5226666927337646,10.0,17.0,27.0,780.0,38.0,15.0
1.523966670036316,8.0,25.0,18.0,36.0,50.0,8.0
1.5252666473388672,5.0,26.0,27.0,968.0,50.0,0.0
1.5265666246414185,11.0,63.0,36.0,208.0,50.0,11.0
1.5278667211532593,16.0,965.0,28.0,55.0,0.0,23.0
1.5291666984558105,20.0,1066.0,20.0,16.0,20.0,22.0
1.5304666757583618,27.0,546.0,16.0,9.0,40.0,21.0
1.531766653060913,34.0,27.0,48.0,13.0,15.0,15.0
1.5330833196640015,29.0,733.0,47.0,16.0,21.0,16.0
1.534433364868164,44.0,15.0,46.0,14.0,30.0,16.0
1.5357333421707153,5.0,5.0,0.0,12.0,27.0,13.0
1.5370333194732666,17.0,30.0,0.0,38.0,24.0,9.0
1.5383332967758179,25.0,28.0,13.0,39.0,40.0,22.0
1.5396332740783691,12.0,31.0,23.0,25.0,51.0,20.0
1.54093337059021,0.0,30.0,11.0,10.0,63.0,41.0
1.5422333478927612,30.0,29.0,0.0,0.0,54.0,51.0
1.5435333251953125,25.0,18.0,20.0,0.0,45.0,62.0
1.5448333024978638,21.0,37.0,35.0,843.0,32.0,7.0
1.546133279800415,9.0,6.0,21.0,430.0,18.0,26.0
1.5474333763122559,5.0,11.0,6.0,16.0,55.0,36.0
1.5487333536148071,8.0,16.0,27.0,14.0,22.0,42.0
1.5500333309173584,14.0,24.0,23.0,27.0,36.0,12.0
1.551383376121521,21.0,17.0,16.0,15.0,51.0,23.0
1.5526833534240723,26.0,10.0,23.0,107.0,11.0,30.0
1.5539833307266235,0.0,16.0,27.0,64.0,24.0,37.0
1.5552833080291748,23.0,22.0,32.0,22.0,17.0,23.0
1.556583285331726,27.0,0.0,13.0,36.0,17.0,21.0
1.557883381843567,6.0,18.0,17.0,39.0,14.0,20.0
1.5591833591461182,19.0,82.0,22.0,18.0,10.0,29.0
1.5604833364486694,32.0,77.0,6.0,6.0,5.0,22.0
1.5617833137512207,41.0,20.0,16.0,16.0,24.0,14.0
1.563083291053772,5.0,26.0,19.0,13.0,28.0,25.0
1.5643833875656128,5.0,5.0,22.0,10.0,40.0,21.0
1.565683364868164,0.0,0.0,0.0,17.0,52.0,16.0
1.5669833421707153,25.0,28.0,27.0,24.0,52.0,17.0
1.5683166980743408,18.0,31.0,19.0,20.0,76.0,18.0
1.569616675376892,12.0,0.0,11.0,28.0,55.0,12.0
1.5709166526794434,20.0,23.0,19.0,24.0,35.0,58.0
1.5722166299819946,27.0,22.0,27.0,21.0,0.0,29.0
1.573516607284546,26.0,22.0,49.0,25.0,24.0,0.0
1.5748167037963867,10.0,23.0,40.0,20.0,48.0,27.0
1.576116681098938,35.0,0.0,32.0,5.0,325.0,21.0
1.5774166584014893,12.0,22.0,9.0,5.0,177.0,10.0
1.5787166357040405,33.0,10.0,28.0,18.0,29.0,0.0
1.5800166130065918,46.0,10.0,47.0,15.0,13.0,17.0
1.5813167095184326,28.0,10.0,34.0,30.0,12.0,17.0
1.5826166868209839,22.0,5.0,21.0,44.0,29.0,15.0
1.5839166641235352,16.0,0.0,17.0,28.0,13.0,16.0
1.5852832794189453,10.0,4.0,0.0,11.0,10.0,17.0
1.5865833759307861,16.0,7.0,364.0,14.0,11.0,16.0
1.5878833532333374,13.0,23.0,185.0,16.0,11.0,18.0
1.5891833305358887,10.0,39.0,6.0,25.0,24.0,21.0
1.59048330783844,11.0,261.0,18.0,22.0,24.0,13.0
1.5917832851409912,11.0,484.0,25.0,18.0,27.0,5.0
1.593083381652832,15.0,245.0,32.0,47.0,26.0,29.0
1.5943833589553833,20.0,6.0,28.0,36.0,26.0,28.0
1.5956833362579346,19.0,262.0,0.0,25.0,1361.0,28.0
1.5969833135604858,18.0,0.0,5.0,7.0,1042.0,0.0
1.598283290863037,30.0,182.0,23.0,10.0,11.0,11.0
1.599583387374878,34.0,26.0,20.0,11.0,904.0,5.0
1.6008833646774292,39.0,33.0,16.0,23.0,31.0,6.0
1.6022332906723022,5.0,13.0,32.0,26.0,5.0,21.0
1.603533387184143,10.0,0.0,47.0,30.0,951.0,25.0
1.6048333644866943,26.0,33.0,42.0,586.0,6.0,29.0
1.6061333417892456,34.0,26.0,36.0,616.0,34.0,5.0
1.6074333190917969,18.0,40.0,21.0,28.0,12.0,16.0
1.6087332963943481,38.0,5.0,50.0,0.0,19.0,31.0
1.610033392906189,48.0,61.0,54.0,16.0,35.0,46.0
1.6113333702087402,35.0,37.0,40.0,151.0,25.0,35.0
1.6126333475112915,56.0,13.0,25.0,79.0,16.0,17.0
1.6139333248138428,5.0,182.0,66.0,6.0,16.0,28.0
1.615233302116394,32.0,91.0,15.0,6.0,5.0,21.0
1.6165332794189453,42.0,0.0,44.0,5.0,11.0,0.0
1.6178333759307861,48.0,39.0,25.0,8.0,27.0,5.0
1.6191999912261963,45.0,36.0,5.0,10.0,33.0,10.0
1.6204999685287476,23.0,38.0,6.0,0.0,5.0,36.0
1.6217999458312988,15.0,40.0,3.0,5.0,5.0,18.0
1.6231000423431396,54.0,1280.0,0.0,10.0,6.0,0.0
1.624400019645691,0.0,1123.0,30.0,13.0,9.0,13.0
1.6256999969482422,37.0,36.0,24.0,15.0,11.0,30.0
1.6269999742507935,5.0,12.0,17.0,5.0,22.0,26.0
1.6282999515533447,35.0,11.0,16.0,8.0,33.0,0.0
1.6296000480651855,29.0,17.0,23.0,10.0,25.0,13.0
1.6309000253677368,31.0,23.0,22.0,23.0,16.0,29.0
1.632200002670288,32.0,71.0,22.0,33.0,34.0,31.0
1.6334999799728394,21.0,55.0,17.0,32.0,10.0,24.0
1.6347999572753906,10.0,40.0,14.0,31.0,15.0,6.0
1.6361500024795532,20.0,24.0,10.0,23.0,14.0,10.0
1.6374499797821045,20.0,16.0,0.0,14.0,12.0,0.0
1.6387499570846558,21.0,9.0,30.0,6.0,9.0,31.0
1.6400500535964966,5.0,10.0,21.0,0.0,5.0,39.0
1.6413500308990479,39.0,21.0,11.0,5.0,9.0,25.0
1.6426500082015991,48.0,32.0,34.0,10.0,12.0,31.0
1.6439499855041504,12.0,26.0,12.0,47.0,34.0,38.0
1.6452499628067017,34.0,13.0,8.0,41.0,22.0,43.0
1.6465500593185425,40.0,34.0,20.0,35.0,9.0,39.0
1.6478500366210938,18.0,25.0,32.0,0.0,47.0,35.0
1.649150013923645,5.0,16.0,26.0,50.0,50.0,10.0
1.6504499912261963,29.0,13.0,18.0,5.0,6.0,21.0
1.6517499685287476,27.0,5.0,11.0,37.0,41.0,24.0
1.6531167030334473,12.0,10.0,0.0,35.0,67.0,27.0
1.6544166803359985,17.0,14.0,30.0,0.0,13.0,9.0
1.6557166576385498,23.0,24.0,17.0,26.0,28.0,12.0
1.657016634941101,24.0,38.0,9.0,40.0,18.0,14.0
1.6583166122436523,18.0,258.0,0.0,22.0,18.0,7.0
1.6596167087554932,13.0,132.0,11.0,33.0,12.0,0.0
1.6609166860580444,23.0,5.0,22.0,15.0,5.0,50.0
1.6622166633605957,24.0,22.0,68.0,8.0,5.0,46.0
1.663516640663147,25.0,6.0,114.0,6.0,69.0,42.0
1.6648166179656982,27.0,21.0,489.0,23.0,37.0,30.0
1.666116714477539,5.0,25.0,264.0,39.0,5.0,0.0
1.6674166917800903,20.0,30.0,39.0,25.0,33.0,22.0
1.6687166690826416,27.0,747.0,65.0,10.0,43.0,50.0
1.6700667142868042,18.0,389.0,0.0,29.0,15.0,33.0
1.6713666915893555,10.0,31.0,13.0,29.0,15.0,22.0
1.6726666688919067,23.0,20.0,12.0,18.0,34.0,10.0
1.673966646194458,6.0,45.0,11.0,10.0,57.0,20.0
1.6752666234970093,27.0,11.0,28.0,15.0,49.0,11.0
1.67656672000885,26.0,36.0,200.0,20.0,40.0,5.0
1.6778666973114014,34.0,10.0,116.0,21.0,46.0,5.0
1.6791666746139526,39.0,12.0,32.0,20.0,51.0,10.0
1.680466651916504,11.0,5.0,0.0,0.0,10.0,15.0
1.6817666292190552,0.0,13.0,11.0,14.0,12.0,18.0
1.683066725730896,16.0,21.0,16.0,15.0,25.0,21.0
1.6843667030334473,21.0,31.0,12.0,21.0,0.0,20.0
1.6856666803359985,26.0,25.0,6.0,10.0,21.0,18.0
1.6870332956314087,26.0,18.0,0.0,5.0,42.0,18.0
1.6883333921432495,26.0,12.0,13.0,0.0,36.0,17.0
1.6896333694458008,27.0,5.0,6.0,18.0,0.0,41.0
1.690933346748352,10.0,23.0,27.0,23.0,15.0,23.0
1.6922333240509033,10.0,40.0,32.0,6.0,30.0,5.0
1.6935333013534546,10.0,34.0,6.0,3.0,25.0,33.0
1.6948332786560059,23.0,38.0,949.0,0.0,6.0,18.0
1.6961333751678467,23.0,43.0,796.0,10.0,33.0,29.0
1.697433352470398,24.0,0.0,249.0,21.0,33.0,0.0
1.6987333297729492,15.0,13.0,29.0,31.0,25.0,32.0
1.7000333070755005,31.0,20.0,1023.0,23.0,23.0,20.0
1.7013332843780518,40.0,27.0,10.0,15.0,21.0,7.0
1.7026333808898926,48.0,13.0,11.0,33.0,5.0,14.0
1.7039833068847656,32.0,0.0,0.0,28.0,45.0,21.0
1.705283284187317,18.0,6.0,18.0,6.0,26.0,20.0
1.7065833806991577,11.0,11.0,12.0,18.0,6.0,5.0
1.707883358001709,5.0,0.0,5.0,27.0,43.0,19.0
1.7091833353042603,15.0,5.0,38.0,34.0,25.0,5.0
1.7104833126068115,15.0,29.0,40.0,42.0,6.0,11.0
1.7117832899093628,10.0,17.0,42.0,0.0,46.0,60.0
1.7130833864212036,5.0,5.0,23.0,28.0,0.0,56.0
1.7143833637237549,0.0,15.0,18.0,18.0,15.0,21.0
1.7156833410263062,11.0,6.0,14.0,14.0,30.0,6.0
1.7169833183288574,5.0,34.0,39.0,10.0,36.0,6.0
1.7182832956314087,0.0,30.0,32.0,13.0,43.0,18.0
1.7195833921432495,11.0,26.0,26.0,15.0,22.0,0.0
1.7209500074386597,10.0,21.0,29.0,25.0,0.0,6.0
1.722249984741211,17.0,13.0,6.0,17.0,6.0,20.0
1.7235499620437622,25.0,21.0,22.0,10.0,35.0,16.0
1.724850058555603,40.0,37.0,36.0,13.0,37.0,13.0
1.7261500358581543,31.0,33.0,32.0,17.0,39.0,10.0
1.7274500131607056,36.0,30.0,27.0,15.0,25.0,13.0
1.7287499904632568,31.0,7.0,30.0,16.0,12.0,16.0
1.730049967765808,22.0,5.0,25.0,16.0,16.0,16.0
1.7313499450683594,18.0,30.0,21.0,11.0,11.0,21.0
1.7326500415802002,0.0,21.0,0.0,5.0,5.0,24.0
1.7339500188827515,32.0,27.0,21.0,0.0,15.0,27.0
1.7352499961853027,31.0,34.0,24.0,29.0,14.0,5.0
1.736549973487854,31.0,25.0,28.0,23.0,13.0,14.0
1.7379000186920166,23.0,40.0,24.0,16.0,0.0,0.0
1.7391999959945679,22.0,37.0,26.0,43.0,38.0,24.0
1.7404999732971191,11.0,35.0,28.0,0.0,31.0,17.0
1.7417999505996704,0.0,20.0,20.0,17.0,35.0,11.0
1.7431000471115112,13.0,38.0,11.0,28.0,29.0,17.0
1.7444000244140625,27.0,31.0,30.0,50.0,23.0,22.0
1.7457000017166138,23.0,23.0,37.0,34.0,27.0,12.0
1.746999979019165,14.0,247.0,26.0,17.0,21.0,14.0
1.7482999563217163,5.0,130.0,56.0,35.0,0.0,15.0
1.7496000528335571,959.0,12.0,79.0,27.0,0.0,41.0
1.7509000301361084,721.0,32.0,214.0,29.0,12.0,35.0
1.7522000074386597,49.0,32.0,107.0,28.0,10.0,23.0
1.753499984741211,5.0,12.0,0.0,30.0,17.0,10.0
1.7548667192459106,0.0,16.0,15.0,33.0,16.0,14.0
1.756166696548462,31.0,33.0,20.0,33.0,60.0,18.0
1.7574666738510132,7.0,23.0,25.0,34.0,50.0,24.0
1.7587666511535645,23.0,15.0,26.0,48.0,41.0,22.0
1.7600666284561157,10.0,5.0,28.0,7.0,28.0,24.0
1.7613667249679565,34.0,29.0,18.0,25.0,73.0,26.0
1.7626667022705078,44.0,40.0,114.0,19.0,39.0,10.0
1.763966679573059,28.0,54.0,83.0,13.0,5.0,33.0
1.7652666568756104,40.0,68.0,52.0,16.0,23.0,31.0
1.7665666341781616,31.0,17.0,15.0,20.0,22.0,12.0
1.767866611480713,22.0,32.0,50.0,28.0,5.0,34.0
1.7691667079925537,6.0,31.0,84.0,26.0,15.0,6.0
1.770466685295105,18.0,7.0,55.0,25.0,21.0,10.0
1.771816611289978,18.0,13.0,42.0,26.0,26.0,22.0
1.7731167078018188,9.0,15.0,29.0,23.0,27.0,0.0
1.7744166851043701,0.0,17.0,10.0,13.0,23.0,16.0
1.7757166624069214,0.0,16.0,20.0,10.0,21.0,14.0
1.7770166397094727,0.0,14.0,29.0,23.0,20.0,12.0
1.778316617012024,5.0,7.0,11.0,34.0,18.0,10.0
1.7796167135238647,5.0,0.0,13.0,29.0,21.0,5.0
1.780916690826416,5.0,41.0,40.0,27.0,22.0,9.0
1.7822166681289673,15.0,41.0,35.0,23.0,23.0,16.0
1.7835166454315186,27.0,40.0,30.0,21.0,30.0,24.0
1.784833312034607,16.0,730.0,0.0,21.0,31.0,22.0
1.7861167192459106,5.0,839.0,30.0,22.0,33.0,16.0
1.787416696548462,7.0,422.0,6.0,20.0,8.0,11.0
1.788783311843872,6.0,23.0,8.0,17.0,43.0,5.0
1.7900832891464233,5.0,599.0,13.0,9.0,21.0,7.0
1.7913833856582642,5.0,24.0,27.0,7.0,0.0,7.0
1.7926833629608154,5.0,6.0,29.0,12.0,31.0,7.0
1.7939833402633667,6.0,0.0,22.0,9.0,44.0,0.0
1.795283317565918,6.0,38.0,11.0,6.0,29.0,29.0
1.7965832948684692,13.0,88.0,30.0,18.0,13.0,14.0
1.79788339138031,20.0,58.0,38.0,30.0,0.0,0.0
1.7991833686828613,16.0,29.0,0.0,20.0,37.0,33.0
1.8004833459854126,22.0,42.0,5.0,10.0,50.0,25.0
1.8017833232879639,28.0,31.0,8.0,32.0,29.0,18.0
1.8030833005905151,47.0,20.0,11.0,17.0,21.0,24.0
1.8043832778930664,47.0,11.0,13.0,37.0,0.0,14.0
1.8057500123977661,48.0,5.0,15.0,31.0,13.0,0.0
1.8070499897003174,21.0,39.0,6.0,10.0,15.0,14.0
1.8083499670028687,46.0,35.0,10.0,17.0,17.0,76.0
1.80964994430542,17.0,13.0,6.0,25.0,28.0,46.0
1.8109500408172607,23.0,11.0,3.0,28.0,38.0,16.0
1.812250018119812,28.0,48.0,0.0,17.0,30.0,17.0
1.8135499954223633,19.0,52.0,5.0,40.0,30.0,42.0
1.8148499727249146,33.0,56.0,15.0,5.0,20.0,23.0
1.8161499500274658,33.0,38.0,12.0,10.0,15.0,49.0
1.8174500465393066,33.0,5.0,8.0,14.0,11.0,22.0
1.818750023841858,0.0,18.0,27.0,10.0,13.0,37.0
1.8200500011444092,18.0,28.0,24.0,5.0,10.0,35.0
1.8213499784469604,34.0,5.0,22.0,14.0,0.0,23.0
1.822700023651123,5.0,36.0,64.0,24.0,5.0,16.0
1.8240000009536743,32.0,46.0,52.0,24.0,18.0,26.0
1.8252999782562256,25.0,27.0,40.0,25.0,32.0,38.0
1.8265999555587769,26.0,46.0,42.0,33.0,27.0,43.0
1.8279000520706177,27.0,65.0,44.0,27.0,0.0,5.0
1.829200029373169,25.0,12.0,35.0,21.0,0.0,6.0
1.8305000066757202,14.0,0.0,27.0,25.0,8.0,39.0
1.8317999839782715,5.0,5.0,17.0,10.0,15.0,40.0
1.8330999612808228,22.0,23.0,26.0,25.0,22.0,33.0
1.8344166278839111,18.0,40.0,34.0,10.0,24.0,29.0
1.835716724395752,18.0,33.0,24.0,15.0,34.0,17.0
1.8370167016983032,28.0,27.0,14.0,11.0,30.0,15.0
1.8383166790008545,19.0,10.0,10.0,13.0,27.0,15.0
1.8396333456039429,10.0,42.0,5.0,14.0,10.0,15.0
1.8409500122070312,31.0,26.0,13.0,7.0,0.0,13.0
1.8422333002090454,38.0,10.0,24.0,0.0,25.0,11.0
1.8435332775115967,0.0,25.0,16.0,0.0,5.0,14.0
1.844849944114685,14.0,10.0,9.0,5.0,21.0,16.0
1.8461500406265259,42.0,0.0,22.0,23.0,5.0,6.0
1.8474500179290771,20.0,40.0,20.0,30.0,23.0,15.0
1.8487499952316284,12.0,30.0,18.0,38.0,15.0,13.0
1.8500332832336426,9.0,13.0,21.0,17.0,8.0,10.0
1.851349949836731,5.0,22.0,29.0,0.0,0.0,18.0
1.8526500463485718,5.0,23.0,37.0,5.0,11.0,26.0
1.853933334350586,26.0,5.0,27.0,10.0,15.0,22.0
1.8552500009536743,30.0,12.0,16.0,16.0,18.0,11.0
1.8565666675567627,18.0,41.0,7.0,31.0,12.0,19.0
1.857866644859314,26.0,346.0,4.0,32.0,6.0,18.0
1.8591833114624023,34.0,1298.0,0.0,37.0,13.0,16.0
1.860466718673706,16.0,1196.0,18.0,25.0,20.0,29.0
1.8617833852767944,32.0,547.0,42.0,21.0,15.0,0.0
1.8630833625793457,11.0,44.0,32.0,17.0,10.0,3.0
1.864383339881897,16.0,8.0,39.0,7.0,11.0,5.0
1.8656833171844482,26.0,50.0,5.0,0.0,11.0,32.0
1.8669832944869995,46.0,280.0,17.0,0.0,8.0,33.0
1.8682667016983032,47.0,509.0,23.0,0.0,5.0,17.0
1.8695666790008545,44.0,265.0,19.0,0.0,9.0,17.0
1.8708666563034058,30.0,22.0,15.0,9.0,10.0,38.0
1.8722167015075684,0.0,0.0,26.0,18.0,10.0,7.0
1.8735333681106567,29.0,160.0,20.0,26.0,5.0,23.0
1.874833345413208,0.0,5.0,14.0,18.0,33.0,5.0
1.8761333227157593,21.0,5.0,6.0,11.0,33.0,5.0
1.8774333000183105,42.0,5.0,14.0,32.0,21.0,5.0
1.8787332773208618,7.0,35.0,0.0,27.0,8.0,15.0
1.8800333738327026,11.0,131.0,28.0,22.0,20.0,35.0
1.881333351135254,20.0,79.0,28.0,17.0,11.0,48.0
1.8826333284378052,15.0,27.0,42.0,16.0,45.0,30.0
1.8839333057403564,11.0,31.0,34.0,18.0,54.0,5.0
1.8852332830429077,5.0,36.0,5.0,20.0,60.0,21.0
1.8865333795547485,14.0,22.0,30.0,7.0,65.0,19.0
1.8878333568572998,12.0,7.0,25.0,18.0,42.0,18.0
1.8891667127609253,10.0,20.0,35.0,14.0,10.0,6.0
1.8904833793640137,8.0,33.0,5.0,10.0,42.0,0.0
1.891783356666565,9.0,37.0,23.0,16.0,10.0,30.0
1.8930833339691162,10.0,42.0,17.0,20.0,59.0,27.0
1.8943833112716675,7.0,10.0,13.0,5.0,57.0,25.0
1.8956832885742188,13.0,16.0,12.0,21.0,31.0,10.0
1.8969833850860596,7.0,22.0,10.0,5.0,33.0,25.0
1.8982833623886108,0.0,30.0,8.0,23.0,0.0,21.0
1.899583339691162,30.0,0.0,5.0,41.0,29.0,20.0
1.9008833169937134,35.0,3.0,0.0,41.0,5.0,8.0
1.9021832942962646,9.0,5.0,14.0,41.0,27.0,11.0
1.9034833908081055,25.0,3.0,16.0,28.0,48.0,21.0
1.9047833681106567,20.0,0.0,17.0,15.0,34.0,30.0
1.9061332941055298,27.0,0.0,11.0,35.0,53.0,31.0
1.9074499607086182,5.0,21.0,5.0,5.0,38.0,32.0
1.908750057220459,30.0,27.0,13.0,5.0,23.0,0.0
1.9100500345230103,42.0,34.0,21.0,21.0,46.0,44.0
1.9113500118255615,38.0,21.0,33.0,16.0,15.0,21.0
1.9126499891281128,14.0,10.0,45.0,11.0,34.0,12.0
1.913949966430664,14.0,21.0,44.0,8.0,7.0,41.0
1.9152499437332153,10.0,31.0,34.0,5.0,15.0,31.0
1.9165500402450562,23.0,42.0,25.0,5.0,39.0,45.0
1.9178500175476074,22.0,0.0,22.0,11.0,34.0,10.0
1.9191499948501587,0.0,28.0,18.0,37.0,29.0,44.0
1.92044997215271,0.0,24.0,29.0,36.0,16.0,11.0
1.9217499494552612,5.0,16.0,10.0,38.0,29.0,17.0
1.9230833053588867,10.0,8.0,0.0,19.0,30.0,18.0
1.924399971961975,11.0,23.0,5.0,10.0,36.0,21.0
1.9256999492645264,12.0,11.0,25.0,13.0,36.0,26.0
1.9270000457763672,13.0,0.0,25.0,13.0,10.0,24.0
1.9283000230789185,14.0,28.0,25.0,14.0,5.0,23.0
1.9296000003814697,19.0,128.0,30.0,14.0,5.0,25.0
1.930899977684021,25.0,273.0,5.0,11.0,6.0,28.0
1.9321999549865723,19.0,270.0,19.0,8.0,40.0,20.0
1.933500051498413,14.0,66.0,33.0,29.0,36.0,12.0
1.9348000288009644,17.0,57.0,12.0,26.0,33.0,12.0
1.9361000061035156,16.0,49.0,26.0,37.0,34.0,10.0
1.937399983406067,11.0,62.0,5.0,6.0,36.0,5.0
1.9386999607086182,5.0,33.0,31.0,11.0,35.0,0.0
1.9400500059127808,3.0,7.0,5.0,15.0,5.0,38.0
1.9413666725158691,0.0,18.0,14.0,17.0,55.0,32.0
1.9426666498184204,32.0,5.0,24.0,52.0,33.0,39.0
1.9439666271209717,34.0,3.0,27.0,263.0,57.0,23.0
1.9452667236328125,57.0,0.0,24.0,169.0,15.0,16.0
1.9465667009353638,31.0,8.0,22.0,76.0,39.0,10.0
1.947866678237915,5.0,29.0,26.0,24.0,30.0,15.0
1.9491666555404663,17.0,30.0,71.0,39.0,16.0,20.0
1.9504666328430176,41.0,0.0,43.0,43.0,28.0,14.0
1.9517666101455688,5.0,7.0,15.0,47.0,27.0,12.0
1.9530667066574097,16.0,9.0,21.0,11.0,26.0,6.0
1.954366683959961,27.0,5.0,13.0,5.0,17.0,6.0
1.9556666612625122,18.0,0.0,10.0,24.0,23.0,5.0
1.9570000171661377,10.0,28.0,80.0,28.0,29.0,5.0
1.958316683769226,38.0,23.0,52.0,32.0,38.0,5.0
1.9596166610717773,0.0,5.0,25.0,35.0,43.0,18.0
1.9609166383743286,6.0,5.0,25.0,23.0,5.0,29.0
1.9622166156768799,35.0,7.0,29.0,10.0,30.0,23.0
1.9635167121887207,24.0,8.0,34.0,40.0,15.0,17.0
1.964816689491272,12.0,16.0,31.0,5.0,15.0,5.0
1.9661166667938232,20.0,24.0,28.0,51.0,41.0,153.0
1.9674166440963745,27.0,30.0,14.0,24.0,0.0,135.0
1.9687166213989258,31.0,5.0,37.0,77.0,27.0,16.0
1.9700167179107666,14.0,38.0,10.0,92.0,0.0,0.0
1.9713166952133179,11.0,46.0,13.0,0.0,15.0,29.0
1.9726166725158691,11.0,0.0,16.0,47.0,31.0,20.0
1.9739667177200317,15.0,10.0,11.0,39.0,10.0,11.0
1.9752833843231201,18.0,22.0,37.0,10.0,45.0,6.0
1.9765833616256714,26.0,27.0,40.0,16.0,35.0,5.0
1.9778833389282227,27.0,18.0,5.0,22.0,13.0,26.0
1.979183316230774,28.0,10.0,38.0,19.0,15.0,25.0
1.9804832935333252,14.0,27.0,20.0,16.0,16.0,5.0
1.981783390045166,10.0,43.0,12.0,11.0,5.0,5.0
1.9830833673477173,16.0,48.0,41.0,5.0,5.0,5.0
1.9843833446502686,13.0,5.0,42.0,18.0,10.0,3.0
1.9856833219528198,9.0,6.0,42.0,15.0,0.0,0.0
1.986983299255371,5.0,10.0,5.0,11.0,7.0,5.0
1.9882832765579224,22.0,0.0,8.0,24.0,6.0,10.0
1.9895833730697632,16.0,13.0,11.0,18.0,8.0,79.0
1.9909166097640991,10.0,22.0,16.0,12.0,10.0,63.0
1.9922332763671875,6.0,596.0,42.0,11.0,0.0,10.0
1.9935333728790283,10.0,332.0,38.0,10.0,10.0,11.0
1.9948333501815796,40.0,67.0,22.0,9.0,28.0,17.0
1.9961333274841309,34.0,38.0,39.0,8.0,32.0,30.0
1.9974333047866821,28.0,22.0,5.0,12.0,16.0,39.0
1.9987332820892334,22.0,42.0,17.0,35.0,5.0,32.0
