,486.2099914550781,487.2099914550781,488.2099914550781,489.2099914550781,490.2099914550781,491.2099914550781,492.2099914550781,493.2099914550781
5.101733207702637,0.0,70.0,40.0,21.0,37.0,5.0,22.0,26.0
5.103466510772705,15.0,0.0,13.0,9.0,63.0,46.0,24.0,41.0
5.105199813842773,21.0,7.0,15.0,60.0,27.0,5.0,29.0,10.0
5.106933116912842,40.0,35.0,29.0,30.0,30.0,8.0,6.0,16.0
5.108666896820068,28.0,15.0,42.0,15.0,52.0,30.0,21.0,12.0
5.110400199890137,10.0,35.0,42.0,44.0,52.0,33.0,20.0,19.0
5.112133502960205,10.0,12.0,42.0,30.0,16.0,35.0,12.0,15.0
5.113866806030273,0.0,23.0,32.0,31.0,6.0,30.0,5.0,11.0
5.115600109100342,15.0,20.0,36.0,33.0,0.0,25.0,5.0,15.0
5.1173834800720215,21.0,27.0,19.0,11.0,22.0,19.0,5.0,20.0
5.11911678314209,27.0,25.0,15.0,15.0,15.0,12.0,5.0,37.0
5.120850086212158,39.0,44.0,50.0,40.0,47.0,6.0,15.0,45.0
5.122583389282227,32.0,45.0,38.0,22.0,39.0,10.0,25.0,45.0
5.124316692352295,25.0,35.0,13.0,20.0,26.0,27.0,32.0,28.0
5.126049995422363,9.0,26.0,0.0,29.0,34.0,26.0,27.0,5.0
5.127783298492432,22.0,16.0,5.0,21.0,34.0,26.0,23.0,16.0
5.1295166015625,26.0,21.0,7.0,10.0,35.0,30.0,24.0,27.0
5.131249904632568,31.0,25.0,0.0,12.0,14.0,31.0,32.0,36.0
5.132983207702637,16.0,21.0,14.0,13.0,11.0,33.0,24.0,0.0
5.1347832679748535,5.0,9.0,7.0,5.0,5.0,33.0,15.0,7.0
5.136516571044922,13.0,23.0,0.0,29.0,6.0,33.0,33.0,22.0
5.13824987411499,22.0,37.0,22.0,20.0,14.0,48.0,0.0,35.0
5.139983177185059,23.0,49.0,34.0,11.0,13.0,54.0,18.0,28.0
5.141716480255127,16.0,5.0,36.0,36.0,11.0,0.0,69.0,21.0
5.143449783325195,10.0,31.0,37.0,28.0,44.0,15.0,57.0,14.0
5.145183563232422,5.0,41.0,33.0,26.0,40.0,0.0,0.0,6.0
5.14691686630249,3.0,5.0,5.0,26.0,5.0,51.0,11.0,13.0
5.148650169372559,0.0,5.0,11.0,21.0,22.0,26.0,22.0,21.0
5.150383472442627,9.0,50.0,7.0,30.0,24.0,0.0,27.0,35.0
5.152166843414307,18.0,60.0,4.0,5.0,10.0,14.0,25.0,36.0
5.153900146484375,9.0,69.0,0.0,26.0,5.0,28.0,33.0,23.0
5.155633449554443,0.0,13.0,8.0,6.0,0.0,25.0,28.0,38.0
5.157366752624512,5.0,0.0,18.0,6.0,0.0,5.0,23.0,47.0
5.15910005569458,24.0,0.0,15.0,23.0,0.0,24.0,40.0,59.0
5.160833358764648,15.0,0.0,12.0,0.0,5.0,31.0,7.0,14.0
5.162566661834717,7.0,0.0,13.0,26.0,10.0,15.0,14.0,20.0
5.164299964904785,19.0,19.0,14.0,18.0,32.0,0.0,21.0,5.0
5.1660332679748535,31.0,25.0,14.0,16.0,26.0,20.0,18.0,3.0
5.167766571044922,32.0,8.0,14.0,17.0,5.0,15.0,12.0,0.0
5.169566631317139,23.0,12.0,16.0,77.0,15.0,19.0,12.0,7.0
5.171299934387207,13.0,24.0,18.0,77.0,18.0,11.0,12.0,14.0
5.173033237457275,8.0,20.0,11.0,28.0,6.0,5.0,23.0,31.0
5.174766540527344,7.0,22.0,5.0,33.0,0.0,5.0,26.0,24.0
5.176499843597412,18.0,14.0,15.0,38.0,10.0,8.0,30.0,18.0
5.1782331466674805,29.0,24.0,25.0,42.0,5.0,13.0,18.0,10.0
5.179966449737549,29.0,27.0,25.0,5.0,0.0,15.0,6.0,11.0
5.181700229644775,29.0,33.0,25.0,53.0,10.0,16.0,44.0,11.0
5.183433532714844,25.0,42.0,46.0,15.0,0.0,8.0,48.0,0.0
5.185216903686523,21.0,0.0,47.0,26.0,14.0,0.0,52.0,21.0
5.186950206756592,17.0,45.0,48.0,41.0,25.0,5.0,0.0,23.0
5.18868350982666,21.0,26.0,31.0,32.0,18.0,10.0,8.0,14.0
5.1904168128967285,24.0,0.0,28.0,21.0,12.0,5.0,0.0,11.0
5.192150115966797,30.0,32.0,34.0,24.0,9.0,0.0,5.0,7.0
5.193883419036865,22.0,14.0,0.0,5.0,5.0,18.0,5.0,0.0
5.195616722106934,13.0,25.0,18.0,10.0,13.0,35.0,5.0,10.0
5.197350025177002,22.0,31.0,24.0,26.0,18.0,35.0,76.0,21.0
5.19908332824707,25.0,25.0,10.0,19.0,24.0,34.0,61.0,27.0
5.2026166915893555,29.0,31.0,19.0,12.0,18.0,6.0,27.0,6.0
5.206083297729492,20.0,31.0,16.0,5.0,19.0,35.0,19.0,12.0
5.209549903869629,18.0,15.0,5.0,10.0,21.0,13.0,12.0,32.0
5.213016510009766,0.0,37.0,28.0,16.0,19.0,30.0,0.0,51.0
5.216483116149902,16.0,26.0,0.0,23.0,10.0,35.0,15.0,42.0
5.21999979019165,10.0,15.0,37.0,21.0,21.0,29.0,13.0,28.0
5.223483562469482,15.0,10.0,57.0,19.0,37.0,41.0,10.0,51.0
5.226950168609619,21.0,13.0,28.0,20.0,45.0,52.0,11.0,42.0
5.230416774749756,19.0,16.0,29.0,20.0,6.0,0.0,11.0,21.0
5.233883380889893,9.0,26.0,10.0,21.0,0.0,6.0,8.0,41.0
5.237366676330566,0.0,17.0,5.0,16.0,19.0,0.0,13.0,43.0
5.240833282470703,15.0,9.0,61.0,22.0,18.0,21.0,0.0,0.0
5.24429988861084,7.0,5.0,45.0,28.0,11.0,33.0,15.0,18.0
5.247766494750977,21.0,8.0,28.0,0.0,5.0,46.0,26.0,14.0
5.25124979019165,19.0,10.0,62.0,13.0,8.0,8.0,32.0,12.0
5.254766464233398,18.0,13.0,25.0,26.0,10.0,20.0,38.0,5.0
5.258233547210693,16.0,16.0,5.0,15.0,10.0,15.0,22.0,43.0
5.26170015335083,37.0,0.0,11.0,5.0,10.0,0.0,5.0,35.0
5.265166759490967,45.0,13.0,0.0,30.0,5.0,11.0,22.0,10.0
5.2686333656311035,29.0,0.0,15.0,35.0,0.0,0.0,0.0,20.0
5.272150039672852,17.0,27.0,6.0,0.0,11.0,12.0,10.0,37.0
5.275616645812988,27.0,30.0,11.0,26.0,10.0,25.0,21.0,10.0
5.279099941253662,33.0,30.0,19.0,22.0,50.0,21.0,7.0,11.0
5.282566547393799,40.0,18.0,11.0,12.0,55.0,18.0,17.0,42.0
5.2860331535339355,47.0,9.0,45.0,25.0,60.0,26.0,28.0,21.0
5.289549827575684,43.0,0.0,39.0,5.0,45.0,32.0,0.0,39.0
5.29301643371582,11.0,32.0,0.0,23.0,30.0,10.0,23.0,35.0
5.296483516693115,10.0,50.0,29.0,24.0,25.0,10.0,25.0,37.0
5.299950122833252,19.0,67.0,12.0,38.0,15.0,0.0,28.0,23.0
5.303466796875,27.0,10.0,7.0,24.0,29.0,18.0,10.0,39.0
5.306950092315674,34.0,13.0,14.0,45.0,29.0,14.0,27.0,22.0
5.3104166984558105,9.0,5.0,12.0,39.0,29.0,10.0,13.0,33.0
5.313883304595947,14.0,24.0,10.0,10.0,28.0,14.0,19.0,10.0
5.317349910736084,0.0,35.0,9.0,20.0,30.0,18.0,15.0,23.0
5.320883274078369,3.0,28.0,7.0,10.0,15.0,15.0,12.0,40.0
5.324349880218506,5.0,5.0,16.0,13.0,0.0,5.0,5.0,50.0
5.327816486358643,0.0,25.0,14.0,16.0,5.0,13.0,5.0,5.0
5.3312835693359375,0.0,11.0,11.0,13.0,11.0,22.0,10.0,37.0
5.334750175476074,3.0,20.0,23.0,26.0,18.0,21.0,11.0,10.0
5.338266849517822,5.0,29.0,20.0,68.0,12.0,19.0,0.0,13.0
5.341733455657959,24.0,33.0,20.0,80.0,6.0,16.0,14.0,0.0
5.345200061798096,16.0,29.0,12.0,18.0,13.0,11.0,14.0,31.0
5.348666667938232,8.0,30.0,5.0,5.0,21.0,11.0,13.0,26.0
5.352149963378906,8.0,31.0,5.0,44.0,21.0,11.0,14.0,22.0
5.355666637420654,0.0,10.0,8.0,29.0,21.0,0.0,15.0,0.0
5.359133243560791,11.0,27.0,11.0,30.0,19.0,5.0,14.0,10.0
5.362599849700928,22.0,30.0,24.0,32.0,15.0,0.0,13.0,0.0
5.3660664558410645,25.0,0.0,18.0,21.0,12.0,28.0,11.0,6.0
5.369533538818359,33.0,5.0,12.0,10.0,24.0,28.0,63.0,12.0
5.3730669021606445,27.0,28.0,42.0,6.0,0.0,16.0,57.0,10.0
5.376533508300781,21.0,44.0,26.0,12.0,29.0,5.0,20.0,33.0
5.380000114440918,0.0,31.0,10.0,19.0,21.0,5.0,40.0,38.0
5.383466720581055,22.0,45.0,50.0,21.0,0.0,29.0,5.0,29.0
5.386933326721191,5.0,39.0,31.0,24.0,34.0,26.0,34.0,31.0
5.390466690063477,18.0,45.0,34.0,23.0,27.0,20.0,8.0,21.0
5.393933296203613,51.0,0.0,0.0,0.0,52.0,5.0,5.0,25.0
5.39739990234375,55.0,23.0,25.0,8.0,51.0,28.0,5.0,29.0
5.400866508483887,45.0,43.0,22.0,16.0,39.0,16.0,14.0,22.0
5.404333114624023,16.0,5.0,14.0,27.0,28.0,5.0,14.0,11.0
5.407866477966309,35.0,33.0,15.0,31.0,55.0,0.0,13.0,0.0
5.4113335609436035,36.0,40.0,73.0,25.0,35.0,14.0,7.0,23.0
5.41480016708374,28.0,32.0,72.0,39.0,7.0,21.0,0.0,36.0
5.418266773223877,16.0,23.0,30.0,14.0,34.0,27.0,21.0,23.0
5.421733379364014,40.0,34.0,18.0,0.0,28.0,7.0,19.0,23.0
5.425250053405762,25.0,15.0,74.0,7.0,23.0,17.0,18.0,32.0
5.428716659545898,10.0,14.0,50.0,26.0,11.0,6.0,18.0,30.0
5.432183265686035,23.0,13.0,26.0,23.0,16.0,5.0,18.0,29.0
5.435649871826172,0.0,22.0,25.0,20.0,5.0,15.0,19.0,30.0
5.43916654586792,29.0,24.0,42.0,16.0,7.0,24.0,13.0,24.0
5.442649841308594,29.0,27.0,32.0,10.0,10.0,18.0,10.0,67.0
5.4461164474487305,29.0,22.0,22.0,17.0,13.0,11.0,9.0,71.0
5.449583530426025,42.0,18.0,11.0,9.0,305.0,19.0,7.0,28.0
5.453050136566162,51.0,25.0,49.0,0.0,2113.0,35.0,11.0,40.0
5.456583499908447,61.0,332.0,72.0,413.0,2040.0,51.0,14.0,45.0
5.460050106048584,39.0,881.0,2151.0,1601.0,4123.0,1617.0,33.0,35.0
5.463516712188721,35.0,3923.0,6127.0,6881.0,5683.0,3826.0,1126.0,26.0
5.466983318328857,22.0,10208.0,18228.0,15468.0,9804.0,6059.0,2670.0,24.0
5.470449924468994,7.0,14912.0,29536.0,25268.0,19420.0,10084.0,6342.0,22.0
5.473966598510742,7.0,15780.0,33840.0,38480.0,30848.0,22336.0,10136.0,2821.0
5.477449893951416,6.0,35760.0,74096.0,65856.0,45616.0,33072.0,11916.0,2351.0
5.480916500091553,26.0,42448.0,67808.0,78624.0,73008.0,43856.0,13248.0,6659.0
5.4843831062316895,26.0,44544.0,89040.0,90288.0,74112.0,43744.0,17688.0,5508.0
5.487850189208984,33.0,44640.0,100768.0,115472.0,84320.0,38528.0,17104.0,4356.0
5.491366863250732,30.0,44304.0,126128.0,118304.0,72784.0,44976.0,16520.0,4439.0
5.494833469390869,28.0,43968.0,108176.0,113376.0,75616.0,47264.0,15304.0,4537.0
5.498300075531006,94.0,45632.0,78656.0,85664.0,78448.0,43824.0,14088.0,4634.0
5.501766681671143,83.0,39712.0,79760.0,81824.0,75472.0,43856.0,13732.0,4881.0
5.505233287811279,5.0,33792.0,81760.0,62960.0,75280.0,30852.0,12988.0,2960.0
5.5087666511535645,23.0,24624.0,57888.0,71392.0,44240.0,32524.0,9368.0,4124.0
5.512233257293701,30.0,28992.0,55808.0,45952.0,34976.0,24292.0,5622.0,3506.0
5.515699863433838,14.0,28468.0,34000.0,31540.0,32568.0,12260.0,7006.0,2887.0
5.519166469573975,0.0,12988.0,22388.0,25612.0,19020.0,8980.0,5039.0,2161.0
5.5226335525512695,30.0,8620.0,18340.0,17608.0,14988.0,5936.0,3292.0,1470.0
5.526116847991943,10.0,7124.0,14616.0,11144.0,8436.0,8700.0,2257.0,554.0
5.52958345413208,5.0,3434.0,11424.0,7215.0,3245.0,2420.0,803.0,37.0
5.533050060272217,10.0,2588.0,1714.0,2710.0,1992.0,2683.0,578.0,1279.0
5.5365166664123535,29.0,2978.0,5966.0,4217.0,1737.0,2454.0,875.0,568.0
5.53998327255249,31.0,1164.0,6807.0,2708.0,1464.0,692.0,440.0,38.0
5.543516635894775,27.0,1412.0,4388.0,2961.0,1192.0,1053.0,5.0,595.0
5.546983242034912,30.0,1612.0,619.0,1991.0,1700.0,2477.0,35.0,16.0
5.550449848175049,43.0,1812.0,1284.0,2859.0,1501.0,1522.0,558.0,203.0
5.5539164543151855,56.0,422.0,2281.0,1834.0,1303.0,5.0,288.0,6.0
5.5573835372924805,73.0,1125.0,123.0,2099.0,35.0,533.0,18.0,0.0
5.5609002113342285,11.0,1828.0,28.0,1053.0,1111.0,2709.0,16.0,80.0
5.564366817474365,29.0,34.0,1081.0,884.0,555.0,1903.0,12.0,31.0
5.567833423614502,7.0,25.0,579.0,1255.0,0.0,18.0,32.0,45.0
5.571316719055176,10.0,859.0,1101.0,1088.0,36.0,31.0,40.0,64.0
5.574833393096924,5.0,24.0,504.0,731.0,41.0,26.0,35.0,23.0
5.5782999992370605,0.0,14.0,0.0,381.0,151.0,25.0,31.0,44.0
5.581766605377197,5.0,69.0,794.0,1032.0,262.0,25.0,14.0,36.0
5.585233211517334,50.0,190.0,409.0,1041.0,1021.0,18.0,5.0,5.0
5.588699817657471,52.0,104.0,25.0,818.0,965.0,11.0,121.0,23.0
5.592216491699219,37.0,19.0,775.0,595.0,0.0,21.0,66.0,19.0
5.5956830978393555,51.0,61.0,500.0,698.0,22.0,20.0,10.0,14.0
