,335.2099914550781,336.2099914550781,337.2099914550781,338.2099914550781,339.2099914550781,340.2099914550781,341.2099914550781,342.2099914550781,343.2099914550781,344.2099914550781,345.2099914550781
5.702383518218994,5.0,970.0,0.0,22.0,28.0,18.0,21.0,20.0,20.0,50.0,23.0
5.704766750335693,5.0,17.0,76.0,17.0,15.0,29.0,86.0,24.0,27.0,14.0,6.0
5.707149982452393,17.0,0.0,18.0,16.0,14.0,38.0,6.0,11.0,28.0,7.0,71.0
5.709533214569092,9.0,60.0,11.0,0.0,8.0,6.0,10.0,24.0,5.0,23.0,57.0
5.711916446685791,0.0,18.0,10.0,44.0,19.0,20.0,31.0,22.0,35.0,5.0,43.0
5.714300155639648,27.0,7.0,29.0,33.0,12.0,0.0,33.0,20.0,24.0,23.0,27.0
5.716683387756348,19.0,69.0,19.0,35.0,15.0,5.0,23.0,17.0,69.0,40.0,25.0
5.719133377075195,11.0,5.0,9.0,43.0,17.0,28.0,29.0,43.0,115.0,39.0,0.0
5.7215166091918945,24.0,30.0,24.0,12.0,13.0,33.0,17.0,38.0,98.0,39.0,31.0
5.723899841308594,45.0,38.0,18.0,56.0,11.0,25.0,42.0,34.0,82.0,11.0,22.0
5.726283550262451,39.0,23.0,12.0,17.0,10.0,17.0,36.0,28.0,10.0,18.0,12.0
5.72866678237915,22.0,38.0,19.0,5.0,5.0,37.0,11.0,24.0,55.0,25.0,21.0
5.73105001449585,225.0,24.0,11.0,7.0,0.0,6.0,14.0,19.0,11.0,19.0,36.0
5.733433246612549,121.0,19.0,0.0,6.0,10.0,5.0,34.0,5.0,25.0,14.0,36.0
5.735866546630859,16.0,10.0,11.0,5.0,33.0,3.0,13.0,8.0,34.0,11.0,38.0
5.738249778747559,17.0,0.0,33.0,27.0,33.0,0.0,27.0,11.0,20.0,11.0,29.0
5.740633487701416,20.0,18.0,28.0,16.0,16.0,31.0,34.0,10.0,14.0,11.0,19.0
5.743016719818115,24.0,16.0,24.0,5.0,36.0,24.0,24.0,8.0,15.0,10.0,35.0
5.7453999519348145,28.0,21.0,28.0,20.0,33.0,5.0,19.0,0.0,15.0,11.0,23.0
5.747783184051514,28.0,21.0,61.0,15.0,39.0,42.0,13.0,9.0,9.0,13.0,10.0
5.750166893005371,28.0,20.0,44.0,17.0,46.0,24.0,0.0,5.0,29.0,15.0,8.0
5.752616882324219,17.0,26.0,27.0,10.0,20.0,21.0,26.0,0.0,28.0,42.0,5.0
5.755000114440918,30.0,11.0,10.0,29.0,20.0,29.0,15.0,31.0,16.0,37.0,18.0
5.757383346557617,11.0,0.0,5.0,30.0,26.0,22.0,5.0,42.0,39.0,41.0,26.0
5.759766578674316,9.0,7.0,35.0,32.0,30.0,15.0,7.0,52.0,39.0,16.0,34.0
5.762149810791016,30.0,17.0,0.0,7.0,22.0,14.0,10.0,24.0,54.0,10.0,5.0
5.764533519744873,0.0,35.0,5.0,12.0,14.0,33.0,10.0,12.0,24.0,20.0,14.0
5.766916751861572,5.0,24.0,10.0,18.0,8.0,21.0,5.0,16.0,13.0,33.0,0.0
5.769350051879883,10.0,17.0,15.0,19.0,12.0,10.0,0.0,19.0,23.0,19.0,18.0
5.771749973297119,37.0,10.0,10.0,19.0,10.0,5.0,29.0,27.0,19.0,5.0,12.0
5.774116516113281,33.0,0.0,5.0,10.0,10.0,6.0,25.0,21.0,12.0,13.0,5.0
5.776500225067139,16.0,0.0,38.0,11.0,11.0,7.0,18.0,14.0,5.0,7.0,24.0
5.778883457183838,0.0,6.0,680.0,13.0,12.0,11.0,12.0,32.0,16.0,0.0,21.0
5.781266689300537,24.0,11.0,347.0,9.0,38.0,15.0,0.0,19.0,26.0,10.0,18.0
5.783649921417236,0.0,8.0,14.0,12.0,28.0,15.0,0.0,5.0,23.0,19.0,0.0
5.786099910736084,3.0,18.0,47.0,12.0,18.0,14.0,23.0,13.0,12.0,17.0,5.0
5.788483142852783,5.0,29.0,13.0,8.0,5.0,19.0,13.0,11.0,44.0,15.0,17.0
5.790866851806641,6.0,21.0,17.0,21.0,25.0,16.0,26.0,8.0,37.0,13.0,10.0
5.79325008392334,15.0,14.0,18.0,16.0,20.0,13.0,5.0,14.0,20.0,11.0,27.0
5.795633316040039,13.0,16.0,33.0,11.0,15.0,11.0,7.0,19.0,79.0,0.0,44.0
5.798016548156738,11.0,27.0,35.0,28.0,20.0,8.0,18.0,20.0,68.0,5.0,22.0
5.8003997802734375,18.0,28.0,33.0,21.0,10.0,8.0,30.0,5.0,98.0,5.0,0.0
5.802833557128906,15.0,29.0,27.0,14.0,20.0,12.0,28.0,6.0,10.0,18.0,26.0
5.8052167892456055,11.0,8.0,21.0,35.0,11.0,6.0,27.0,12.0,5.0,12.0,26.0
5.807600021362305,17.0,10.0,28.0,35.0,26.0,0.0,25.0,18.0,31.0,5.0,13.0
5.809983253479004,16.0,24.0,34.0,10.0,25.0,35.0,24.0,23.0,31.0,12.0,0.0
5.812366485595703,5.0,38.0,5.0,40.0,36.0,29.0,16.0,27.0,15.0,18.0,11.0
5.8147501945495605,5.0,31.0,14.0,16.0,42.0,27.0,9.0,0.0,0.0,18.0,5.0
5.81713342666626,6.0,25.0,40.0,13.0,8.0,23.0,12.0,7.0,38.0,18.0,3.0
5.819583415985107,6.0,31.0,24.0,6.0,37.0,0.0,15.0,23.0,68.0,13.0,0.0
5.821966648101807,8.0,0.0,0.0,0.0,38.0,40.0,0.0,7.0,51.0,12.0,25.0
5.824349880218506,17.0,15.0,41.0,7.0,28.0,14.0,3.0,25.0,15.0,20.0,29.0
5.826733112335205,14.0,20.0,6.0,23.0,20.0,12.0,5.0,15.0,11.0,18.0,33.0
5.8291168212890625,10.0,30.0,11.0,23.0,24.0,31.0,5.0,25.0,21.0,18.0,11.0
5.831500053405762,21.0,27.0,7.0,23.0,35.0,32.0,10.0,21.0,7.0,18.0,23.0
5.833883285522461,19.0,26.0,11.0,15.0,20.0,26.0,14.0,23.0,10.0,13.0,18.0
5.8363165855407715,16.0,25.0,23.0,26.0,6.0,26.0,58.0,31.0,11.0,7.0,21.0
5.838699817657471,13.0,23.0,17.0,26.0,21.0,14.0,45.0,27.0,6.0,19.0,34.0
5.841083526611328,10.0,22.0,11.0,26.0,28.0,25.0,32.0,23.0,0.0,32.0,34.0
5.843466758728027,23.0,11.0,18.0,27.0,10.0,12.0,61.0,5.0,0.0,40.0,29.0
5.845849990844727,24.0,0.0,21.0,5.0,15.0,0.0,35.0,0.0,5.0,33.0,5.0
5.848233222961426,14.0,7.0,22.0,5.0,37.0,25.0,16.0,35.0,10.0,5.0,28.0
5.850616455078125,23.0,6.0,23.0,26.0,0.0,37.0,9.0,24.0,18.0,33.0,21.0
5.853066444396973,14.0,17.0,13.0,19.0,38.0,36.0,19.0,50.0,16.0,20.0,14.0
5.85545015335083,5.0,28.0,5.0,14.0,0.0,23.0,0.0,18.0,13.0,15.0,32.0
5.857833385467529,29.0,35.0,8.0,5.0,8.0,10.0,45.0,29.0,8.0,12.0,18.0
5.8602166175842285,5.0,7.0,0.0,36.0,49.0,26.0,920.0,25.0,25.0,29.0,5.0
5.862599849700928,28.0,5.0,66.0,20.0,0.0,14.0,755.0,19.0,41.0,46.0,32.0
5.864983558654785,26.0,3.0,69.0,5.0,49.0,24.0,5.0,13.0,704.0,48.0,10.0
5.867366790771484,25.0,0.0,8.0,14.0,11.0,38.0,8.0,16.0,577.0,21.0,10.0
5.869783401489258,24.0,15.0,19.0,7.0,9.0,31.0,18.0,8.0,9.0,32.0,10.0
5.872183322906494,23.0,8.0,47.0,13.0,32.0,24.0,9.0,0.0,886.0,23.0,25.0
5.874566555023193,70.0,0.0,27.0,18.0,5.0,36.0,0.0,16.0,1762.0,23.0,20.0
5.876949787139893,61.0,24.0,37.0,23.0,36.0,26.0,9.0,5.0,1844.0,10.0,15.0
5.87933349609375,6.0,24.0,11.0,19.0,37.0,16.0,948.0,5.0,1926.0,26.0,17.0
5.881716728210449,24.0,6.0,33.0,15.0,7.0,39.0,866.0,11.0,1813.0,18.0,36.0
5.884099960327148,61.0,3.0,16.0,13.0,42.0,10.0,835.0,5.0,1435.0,10.0,30.0
5.886483192443848,19.0,0.0,8.0,5.0,0.0,10.0,404.0,62.0,665.0,158.0,25.0
5.888933181762695,23.0,12.0,0.0,12.0,24.0,6.0,803.0,31.0,56.0,91.0,14.0
5.891316890716553,10.0,25.0,6.0,19.0,0.0,6.0,1164.0,0.0,2160.0,24.0,17.0
5.893700122833252,30.0,18.0,24.0,15.0,20.0,26.0,1601.0,5.0,2093.0,51.0,20.0
5.896083354949951,5.0,12.0,23.0,11.0,5.0,17.0,2038.0,389.0,1726.0,39.0,19.0
5.89846658706665,20.0,25.0,23.0,12.0,10.0,8.0,1461.0,621.0,1272.0,28.0,25.0
5.90084981918335,36.0,18.0,10.0,26.0,14.0,29.0,884.0,577.0,432.0,0.0,24.0
5.903233528137207,0.0,25.0,6.0,23.0,11.0,30.0,1015.0,527.0,454.0,12.0,17.0
5.905666828155518,0.0,34.0,16.0,20.0,7.0,32.0,969.0,477.0,157.0,11.0,11.0
5.908050060272217,24.0,0.0,27.0,16.0,6.0,21.0,923.0,718.0,910.0,25.0,5.0
5.910433292388916,21.0,25.0,34.0,12.0,5.0,10.0,464.0,959.0,722.0,34.0,118.0
5.912816524505615,14.0,15.0,0.0,18.0,0.0,30.0,21.0,2969.0,535.0,31.0,68.0
5.915200233459473,7.0,0.0,20.0,17.0,0.0,31.0,1278.0,5264.0,683.0,26.0,17.0
5.917583465576172,10.0,18.0,30.0,16.0,0.0,6.0,622.0,4163.0,831.0,21.0,51.0
5.919966697692871,5.0,26.0,16.0,15.0,8.0,23.0,323.0,3884.0,1002.0,15.0,59.0
5.922416687011719,9.0,10.0,16.0,11.0,15.0,7.0,24.0,4396.0,938.0,33.0,68.0
5.924799919128418,13.0,9.0,14.0,42.0,8.0,30.0,135.0,4347.0,875.0,31.0,13.0
5.927183151245117,31.0,25.0,11.0,54.0,0.0,0.0,246.0,4297.0,437.0,25.0,10.0
5.929566860198975,41.0,0.0,11.0,0.0,5.0,11.0,68.0,4079.0,0.0,18.0,20.0
5.931950092315674,0.0,35.0,12.0,32.0,10.0,21.0,17.0,3057.0,234.0,29.0,30.0
5.934333324432373,13.0,15.0,12.0,68.0,14.0,16.0,49.0,2035.0,467.0,0.0,91.0
5.936716556549072,8.0,25.0,10.0,8.0,18.0,0.0,32.0,2668.0,23.0,11.0,152.0
5.939149856567383,14.0,35.0,8.0,19.0,29.0,3.0,15.0,2208.0,24.0,15.0,177.0
5.94153356552124,19.0,64.0,17.0,0.0,35.0,5.0,18.0,1749.0,14.0,18.0,11.0
5.9439167976379395,10.0,55.0,16.0,29.0,32.0,5.0,14.0,1485.0,196.0,12.0,21.0
5.946300029754639,0.0,46.0,0.0,28.0,5.0,39.0,24.0,5.0,101.0,6.0,15.0
5.948683261871338,10.0,44.0,812.0,7.0,54.0,42.0,0.0,1333.0,5.0,29.0,13.0
5.951083183288574,20.0,42.0,905.0,877.0,43.0,12.0,0.0,496.0,166.0,45.0,10.0
5.9534502029418945,25.0,29.0,43.0,884.0,33.0,31.0,19.0,447.0,89.0,60.0,14.0
5.955900192260742,29.0,16.0,951.0,890.0,1048.0,708.0,463.0,397.0,12.0,0.0,12.0
5.958283424377441,0.0,1750.0,2849.0,2244.0,1309.0,2183.0,1232.0,223.0,28.0,0.0,10.0
5.960666656494141,24.0,1455.0,7447.0,4049.0,6383.0,7115.0,2001.0,49.0,23.0,11.0,18.0
5.96304988861084,37.0,7237.0,13444.0,8748.0,7954.0,9400.0,4885.0,3955.0,3854.0,959.0,489.0
5.965433120727539,30.0,5795.0,14180.0,17520.0,12432.0,12088.0,8252.0,5755.0,3013.0,717.0,545.0
5.9678168296813965,42.0,12960.0,32048.0,29248.0,20748.0,21764.0,16932.0,10952.0,8444.0,2289.0,2307.0
5.970200061798096,35.0,23352.0,55616.0,44352.0,38464.0,27264.0,20764.0,19624.0,13260.0,2115.0,2135.0
5.972633361816406,56.0,39296.0,73008.0,66400.0,65632.0,41280.0,34304.0,17440.0,11172.0,3013.0,1773.0
5.9750165939331055,60.0,54576.0,93008.0,85984.0,69408.0,62480.0,42112.0,33472.0,14716.0,3911.0,2084.0
5.977399826049805,52.0,63664.0,145152.0,117168.0,103200.0,83696.0,55248.0,35616.0,23188.0,6687.0,1617.0
5.979783535003662,34.0,106768.0,169920.0,156288.0,121056.0,102400.0,88912.0,48464.0,29356.0,16428.0,1094.0
5.982166767120361,31.0,104016.0,217344.0,169088.0,160960.0,116800.0,93392.0,51344.0,27240.0,14752.0,572.0
5.9845499992370605,12.0,128208.0,246144.0,203520.0,185664.0,136064.0,117136.0,47232.0,32708.0,19812.0,3930.0
5.98693323135376,47.0,156672.0,266752.0,253376.0,207616.0,158912.0,109344.0,61952.0,30124.0,11544.0,4954.0
5.989383220672607,47.0,160768.0,290624.0,255936.0,223744.0,178112.0,117168.0,58256.0,27544.0,17576.0,2188.0
5.991766452789307,33.0,163840.0,326656.0,267456.0,235264.0,172416.0,116304.0,72320.0,30036.0,11252.0,2177.0
5.994150161743164,31.0,203072.0,321600.0,272576.0,232128.0,166656.0,115424.0,77120.0,32528.0,10876.0,2166.0
5.996533393859863,37.0,199104.0,314432.0,249728.0,224832.0,151104.0,114240.0,46640.0,32896.0,16312.0,3116.0
5.9989166259765625,42.0,194496.0,288320.0,279168.0,230208.0,173696.0,113056.0,64160.0,32084.0,8055.0,4067.0
6.001299858093262,44.0,187136.0,286528.0,226624.0,181632.0,145984.0,107616.0,54656.0,33616.0,14004.0,3915.0
6.003683567047119,64.0,153600.0,223488.0,230336.0,190464.0,136896.0,102192.0,47360.0,28592.0,12560.0,3763.0
6.006133556365967,84.0,122032.0,224064.0,179392.0,152896.0,110128.0,93584.0,46016.0,21772.0,6565.0,2995.0
6.008516788482666,67.0,130512.0,209984.0,173248.0,131584.0,91616.0,69984.0,32140.0,20792.0,8324.0,3140.0
6.010900020599365,49.0,86656.0,166400.0,128192.0,104944.0,91632.0,74144.0,28360.0,18092.0,7103.0,3285.0
6.0132832527160645,38.0,69056.0,146816.0,122336.0,96240.0,68832.0,51392.0,19704.0,11560.0,2520.0,3889.0
6.015666484832764,48.0,59248.0,110240.0,92336.0,78032.0,57600.0,32800.0,16896.0,9256.0,3063.0,477.0
6.018050193786621,25.0,59088.0,67728.0,85392.0,57872.0,33008.0,22020.0,19524.0,9724.0,1447.0,5.0
6.02043342590332,39.0,38848.0,59696.0,51888.0,39920.0,30220.0,20300.0,12196.0,3792.0,909.0,36.0
6.022866725921631,23.0,38016.0,49264.0,38592.0,30560.0,25148.0,11812.0,9308.0,3687.0,2139.0,675.0
6.02524995803833,11.0,24184.0,29280.0,33840.0,20320.0,17232.0,13228.0,5857.0,368.0,1617.0,693.0
6.027633190155029,0.0,16388.0,27380.0,21828.0,20200.0,15992.0,6885.0,1954.0,2725.0,16.0,50.0
6.030016899108887,32.0,9860.0,18860.0,11872.0,11096.0,6808.0,3742.0,3525.0,50.0,866.0,18.0
6.032400131225586,40.0,6034.0,10604.0,16044.0,19320.0,8816.0,4357.0,6263.0,3571.0,47.0,35.0
6.034783363342285,32.0,10968.0,9272.0,5385.0,11816.0,5993.0,5149.0,1390.0,408.0,481.0,51.0
6.037166595458984,26.0,5192.0,10788.0,9448.0,4267.0,5176.0,2288.0,1949.0,11.0,15.0,190.0
6.039616584777832,49.0,4380.0,5299.0,5274.0,7477.0,1854.0,4734.0,1344.0,85.0,28.0,98.0
6.041999816894531,16.0,3363.0,6171.0,4600.0,661.0,3280.0,2579.0,929.0,201.0,40.0,6.0
6.044383525848389,39.0,2557.0,3363.0,3428.0,3974.0,1578.0,1391.0,2948.0,318.0,0.0,27.0
6.046766757965088,5.0,2155.0,918.0,840.0,2564.0,2212.0,2586.0,2340.0,484.0,56.0,20.0
6.049149990081787,12.0,2691.0,2917.0,2756.0,2028.0,2504.0,1957.0,1011.0,649.0,5.0,19.0
6.051533222198486,19.0,2427.0,4484.0,3075.0,2298.0,2725.0,1328.0,28.0,327.0,50.0,17.0
6.0539164543151855,24.0,1377.0,2528.0,1992.0,3105.0,1438.0,2677.0,32.0,5.0,26.0,29.0
6.056333541870117,21.0,2975.0,3632.0,908.0,2836.0,1938.0,2571.0,75.0,56.0,16.0,23.0
6.0587334632873535,5.0,2134.0,3425.0,1065.0,2566.0,2582.0,720.0,67.0,11.0,11.0,17.0
6.061116695404053,46.0,2510.0,3218.0,1973.0,1431.0,1099.0,1995.0,58.0,6.0,7.0,11.0
6.063499927520752,26.0,621.0,507.0,2881.0,1975.0,1169.0,2420.0,80.0,0.0,9.0,18.0
6.065883159637451,5.0,1867.0,4701.0,5604.0,4147.0,1725.0,588.0,102.0,115.0,11.0,25.0
6.068266868591309,23.0,2393.0,1785.0,5477.0,3605.0,2282.0,1198.0,16.0,63.0,12.0,5.0
6.070650100708008,11.0,1163.0,1201.0,1164.0,3062.0,15.0,1269.0,0.0,12.0,49.0,20.0
6.073033332824707,12.0,628.0,4389.0,1054.0,1773.0,420.0,1895.0,46.0,19.0,80.0,14.0
6.075483322143555,9.0,979.0,3888.0,58.0,1317.0,10.0,55.0,942.0,26.0,40.0,7.0
6.077866554260254,5.0,0.0,1697.0,1583.0,3218.0,1108.0,582.0,930.0,36.0,0.0,18.0
6.080249786376953,5.0,360.0,3263.0,808.0,2781.0,1842.0,21.0,477.0,36.0,5.0,22.0
6.0826334953308105,5.0,719.0,2646.0,33.0,2040.0,2447.0,0.0,25.0,35.0,7.0,28.0
6.08501672744751,12.0,2138.0,2487.0,1064.0,16.0,734.0,0.0,826.0,0.0,8.0,35.0
6.087399959564209,23.0,1819.0,827.0,5.0,1653.0,711.0,87.0,536.0,10.0,37.0,35.0
6.089783191680908,17.0,18.0,2281.0,226.0,79.0,54.0,1138.0,0.0,10.0,66.0,0.0
6.092233180999756,42.0,338.0,509.0,448.0,1930.0,745.0,573.0,21.0,17.0,33.0,16.0
6.094616889953613,29.0,926.0,2050.0,255.0,1079.0,29.0,7.0,15.0,23.0,0.0,10.0
6.0970001220703125,16.0,663.0,2111.0,48.0,19.0,1835.0,56.0,19.0,331.0,15.0,5.0
6.099383354187012,24.0,35.0,1960.0,338.0,1232.0,1902.0,21.0,24.0,172.0,30.0,32.0
6.101766586303711,26.0,401.0,1809.0,555.0,297.0,226.0,31.0,28.0,13.0,24.0,33.0
6.10414981842041,0.0,0.0,749.0,772.0,175.0,5.0,15.0,26.0,5.0,17.0,17.0
6.106533527374268,19.0,340.0,1022.0,41.0,435.0,41.0,0.0,24.0,18.0,12.0,49.0
6.108983516693115,9.0,679.0,1296.0,0.0,248.0,10.0,10.0,27.0,12.0,7.0,45.0
6.1113667488098145,20.0,1021.0,24.0,788.0,60.0,32.0,19.0,38.0,5.0,36.0,7.0
6.113749980926514,27.0,997.0,1442.0,852.0,54.0,16.0,32.0,46.0,13.0,24.0,17.0
6.116133213043213,10.0,34.0,560.0,36.0,48.0,0.0,116.0,0.0,17.0,12.0,0.0
6.118516445159912,15.0,61.0,38.0,5.0,347.0,490.0,142.0,6.0,21.0,13.0,8.0
6.1209001541137695,0.0,38.0,775.0,212.0,282.0,256.0,168.0,9.0,36.0,16.0,16.0
6.123283386230469,0.0,15.0,397.0,786.0,216.0,22.0,92.0,12.0,39.0,19.0,263.0
6.125733375549316,0.0,0.0,18.0,820.0,38.0,50.0,15.0,300.0,44.0,35.0,143.0
6.128116607666016,21.0,0.0,574.0,41.0,359.0,33.0,387.0,587.0,48.0,50.0,23.0
6.130499839782715,39.0,0.0,36.0,927.0,24.0,15.0,203.0,641.0,49.0,31.0,49.0
6.132883548736572,54.0,18.0,655.0,505.0,49.0,50.0,19.0,331.0,25.0,11.0,43.0
6.1352667808532715,20.0,33.0,47.0,350.0,804.0,84.0,518.0,20.0,33.0,64.0,23.0
6.137650012969971,59.0,35.0,0.0,11.0,563.0,48.0,28.0,58.0,23.0,14.0,49.0
6.14003324508667,24.0,37.0,90.0,721.0,323.0,11.0,13.0,10.0,14.0,12.0,31.0
6.142449855804443,21.0,23.0,115.0,613.0,167.0,9.0,49.0,23.0,13.0,52.0,26.0
6.144833564758301,36.0,40.0,140.0,8.0,11.0,6.0,38.0,44.0,29.0,26.0,37.0
6.147216796875,32.0,0.0,81.0,678.0,5.0,0.0,27.0,54.0,0.0,45.0,42.0
6.149600028991699,38.0,7.0,21.0,356.0,82.0,18.0,33.0,14.0,28.0,43.0,50.0
6.151983261108398,30.0,13.0,50.0,35.0,49.0,53.0,39.0,12.0,44.0,7.0,0.0
6.154366493225098,0.0,0.0,826.0,49.0,15.0,34.0,5.0,19.0,38.0,24.0,5.0
6.156750202178955,7.0,17.0,1127.0,418.0,54.0,14.0,0.0,26.0,35.0,11.0,23.0
6.1591668128967285,27.0,35.0,656.0,0.0,11.0,178.0,3.0,31.0,0.0,35.0,14.0
6.161550045013428,9.0,36.0,5.0,39.0,29.0,94.0,5.0,21.0,29.0,26.0,10.0
6.163933277130127,35.0,37.0,745.0,339.0,46.0,11.0,20.0,11.0,23.0,17.0,5.0
6.166316509246826,31.0,72.0,683.0,187.0,33.0,31.0,36.0,0.0,17.0,5.0,16.0
6.168700218200684,13.0,44.0,622.0,35.0,47.0,32.0,21.0,3.0,35.0,26.0,11.0
6.171083450317383,16.0,16.0,592.0,42.0,45.0,34.0,6.0,5.0,30.0,5.0,6.0
6.173466682434082,8.0,14.0,552.0,40.0,18.0,569.0,3.0,15.0,25.0,0.0,24.0
6.175866603851318,16.0,43.0,768.0,38.0,325.0,544.0,0.0,12.0,34.0,12.0,0.0
6.178249835968018,20.0,0.0,984.0,5.0,183.0,5.0,596.0,8.0,25.0,10.0,0.0
6.180633544921875,15.0,57.0,933.0,20.0,40.0,70.0,604.0,0.0,16.0,7.0,10.0
6.183016777038574,5.0,38.0,67.0,36.0,276.0,21.0,937.0,28.0,17.0,22.0,8.0
6.185400009155273,13.0,35.0,61.0,34.0,161.0,326.0,18.0,20.0,17.0,33.0,5.0
6.187783241271973,7.0,29.0,42.0,33.0,46.0,163.0,0.0,12.0,16.0,67.0,25.0
6.190166473388672,0.0,40.0,45.0,43.0,19.0,0.0,489.0,41.0,15.0,38.0,54.0
6.1926164627075195,35.0,28.0,43.0,42.0,72.0,10.0,11.0,39.0,0.0,10.0,69.0
6.195000171661377,39.0,15.0,165.0,41.0,51.0,19.0,35.0,19.0,16.0,34.0,0.0
6.197383403778076,8.0,57.0,102.0,47.0,31.0,31.0,59.0,11.0,18.0,5.0,16.0
