,289.1099853515625,290.1099853515625,291.1099853515625,292.1099853515625,293.1099853515625,294.1099853515625
2.551300048828125,22.0,19.0,18.0,1390.0,23.0,35.0
2.5525999069213867,45.0,33.0,13.0,23.0,5.0,5.0
2.5539000034332275,45.0,34.0,636.0,1405.0,7.0,9.0
2.5552000999450684,60.0,20.0,15.0,21.0,10.0,5.0
2.55649995803833,21.0,18.0,34.0,15.0,12.0,28.0
2.557800054550171,21.0,15.0,547.0,395.0,9.0,31.0
2.5590999126434326,32.0,13.0,10.0,22.0,16.0,35.0
2.5604000091552734,23.0,14.0,12.0,21.0,18.0,14.0
2.5617001056671143,36.0,15.0,645.0,57.0,19.0,37.0
2.562999963760376,41.0,7.0,25.0,20.0,13.0,13.0
2.564300060272217,46.0,6.0,29.0,18.0,10.0,8.0
2.5655999183654785,30.0,7.0,18.0,19.0,6.0,15.0
2.5669000148773193,10.0,16.0,15.0,18.0,21.0,13.0
2.5682499408721924,0.0,25.0,11.0,5.0,37.0,11.0
2.569550037384033,0.0,18.0,11.0,18.0,65.0,15.0
2.570849895477295,18.0,232.0,11.0,15.0,46.0,16.0
2.5721499919891357,36.0,132.0,9.0,23.0,16.0,15.0
2.5734667778015137,24.0,32.0,7.0,697.0,23.0,30.0
2.5747499465942383,44.0,36.0,29.0,682.0,31.0,31.0
2.576066732406616,40.0,40.0,24.0,40.0,29.0,18.0
2.577349901199341,18.0,42.0,19.0,47.0,31.0,5.0
2.5786666870117188,45.0,45.0,18.0,46.0,5.0,39.0
2.5799500942230225,10.0,334.0,17.0,31.0,22.0,33.0
2.5812666416168213,0.0,170.0,14.0,16.0,5.0,5.0
2.582550048828125,35.0,5.0,13.0,54.0,14.0,32.0
2.583866596221924,35.0,540.0,15.0,32.0,23.0,10.0
2.5851833820343018,0.0,527.0,48.0,51.0,24.0,17.0
2.5864832401275635,8.0,9.0,43.0,50.0,26.0,11.0
2.5877833366394043,16.0,0.0,9.0,13.0,11.0,27.0
2.589083433151245,22.0,3.0,18.0,33.0,25.0,22.0
2.590399980545044,17.0,6.0,27.0,20.0,24.0,16.0
2.5917000770568848,7.0,10.0,10.0,388.0,22.0,10.0
2.5929999351501465,13.0,13.0,19.0,652.0,9.0,20.0
2.59428334236145,15.0,0.0,29.0,917.0,13.0,0.0
2.595583438873291,17.0,10.0,24.0,51.0,16.0,24.0
2.5968832969665527,6.0,20.0,38.0,5.0,20.0,28.0
2.5982000827789307,25.0,17.0,51.0,982.0,24.0,38.0
2.5994832515716553,22.0,22.0,25.0,0.0,18.0,5.0
2.6008334159851074,18.0,28.0,0.0,1224.0,12.0,0.0
2.602116584777832,7.0,30.0,6.0,19.0,26.0,11.0
2.60343337059021,5.0,32.0,12.0,5.0,15.0,9.0
2.6047332286834717,41.0,141.0,19.0,54.0,33.0,41.0
2.6060333251953125,38.0,73.0,25.0,38.0,35.0,36.0
2.6073334217071533,12.0,5.0,20.0,21.0,37.0,17.0
2.608633279800415,5.0,313.0,14.0,19.0,21.0,22.0
2.609933376312256,10.0,286.0,25.0,11.0,5.0,20.0
2.6112332344055176,5.0,51.0,37.0,6.0,20.0,27.0
2.6125333309173584,22.0,12.0,0.0,0.0,6.0,34.0
2.613833427429199,21.0,60.0,17.0,20.0,0.0,30.0
2.615133285522461,10.0,5.0,23.0,18.0,590.0,23.0
2.6164333820343018,22.0,33.0,29.0,30.0,606.0,37.0
2.6177666187286377,0.0,21.0,23.0,33.0,13.0,25.0
2.6190667152404785,59.0,23.0,18.0,36.0,742.0,49.0
2.6203665733337402,43.0,24.0,352.0,37.0,10.0,6.0
2.621666669845581,21.0,34.0,182.0,38.0,104.0,7.0
2.622966766357422,15.0,43.0,12.0,631.0,19.0,43.0
2.6242666244506836,10.0,26.0,23.0,672.0,21.0,27.0
2.6255667209625244,10.0,10.0,17.0,11.0,22.0,0.0
2.626866579055786,5.0,191.0,11.0,0.0,18.0,38.0
2.628166675567627,5.0,108.0,14.0,10.0,26.0,13.0
2.6294667720794678,3.0,26.0,16.0,8.0,21.0,15.0
2.6307666301727295,0.0,15.0,21.0,5.0,16.0,17.0
2.6320667266845703,16.0,5.0,186.0,5.0,8.0,40.0
2.633366584777832,15.0,410.0,104.0,3.0,0.0,25.0
2.634716749191284,28.0,437.0,22.0,0.0,12.0,10.0
2.636016607284546,19.0,8.0,33.0,5.0,23.0,15.0
2.6373167037963867,10.0,22.0,52.0,5.0,63.0,25.0
2.6386165618896484,5.0,31.0,12.0,147.0,61.0,22.0
2.6399166584014893,12.0,375.0,19.0,92.0,27.0,18.0
2.64121675491333,11.0,197.0,26.0,37.0,16.0,24.0
2.642516613006592,10.0,18.0,10.0,0.0,30.0,40.0
2.6438167095184326,10.0,36.0,21.0,26.0,33.0,31.0
2.6451165676116943,28.0,24.0,5.0,47.0,12.0,21.0
2.646416664123535,31.0,43.0,0.0,36.0,18.0,35.0
2.647716760635376,39.0,80.0,0.0,38.0,12.0,562.0
2.6490166187286377,27.0,51.0,26.0,7.0,5.0,495.0
2.6503167152404785,14.0,22.0,21.0,32.0,23.0,15.0
2.6516833305358887,34.0,24.0,11.0,5.0,22.0,0.0
2.6529834270477295,27.0,22.0,28.0,41.0,21.0,45.0
2.654283285140991,20.0,23.0,0.0,46.0,14.0,21.0
2.655583381652832,31.0,16.0,39.0,40.0,18.0,30.0
2.6568832397460938,15.0,5.0,34.0,23.0,19.0,38.0
2.6581833362579346,26.0,32.0,29.0,0.0,18.0,5.0
2.6594834327697754,0.0,22.0,10.0,10.0,44.0,27.0
2.660783290863037,17.0,13.0,17.0,11.0,22.0,18.0
2.662083387374878,23.0,21.0,52.0,9.0,0.0,17.0
2.6633832454681396,10.0,24.0,45.0,5.0,24.0,5.0
2.6646833419799805,25.0,19.0,50.0,10.0,61.0,11.0
2.6659834384918213,5.0,13.0,5.0,15.0,68.0,8.0
2.667283296585083,47.0,15.0,44.0,40.0,13.0,5.0
2.668633222579956,42.0,25.0,26.0,28.0,36.0,6.0
2.669933319091797,0.0,22.0,10.0,16.0,0.0,6.0
2.6712334156036377,29.0,19.0,38.0,18.0,40.0,5.0
2.6725332736968994,10.0,30.0,29.0,15.0,39.0,30.0
2.6738333702087402,14.0,10.0,20.0,38.0,36.0,21.0
2.675133228302002,18.0,31.0,34.0,30.0,15.0,13.0
2.6764333248138428,6.0,20.0,31.0,21.0,14.0,0.0
2.6777334213256836,18.0,28.0,29.0,16.0,13.0,5.0
2.6790332794189453,31.0,36.0,5.0,11.0,12.0,13.0
2.680333375930786,87.0,64.0,10.0,17.0,11.0,21.0
2.681633234024048,634.0,65.0,31.0,0.0,11.0,40.0
2.6829333305358887,335.0,11.0,31.0,21.0,28.0,34.0
2.6842334270477295,36.0,25.0,28.0,16.0,37.0,17.0
2.6856000423431396,5.0,30.0,31.0,11.0,41.0,5.0
2.6868999004364014,18.0,10.0,37.0,10.0,38.0,16.0
2.688199996948242,32.0,17.0,43.0,31.0,6.0,15.0
2.689500093460083,24.0,21.0,5.0,24.0,11.0,14.0
2.6907999515533447,12.0,17.0,0.0,18.0,31.0,20.0
2.6921000480651855,0.0,17.0,39.0,39.0,9.0,36.0
2.6933999061584473,0.0,17.0,31.0,0.0,33.0,32.0
2.694700002670288,17.0,9.0,20.0,13.0,24.0,28.0
2.696000099182129,20.0,0.0,38.0,16.0,16.0,0.0
2.6972999572753906,11.0,3.0,7.0,17.0,11.0,15.0
2.6986000537872314,31.0,5.0,0.0,16.0,7.0,13.0
2.699899911880493,33.0,21.0,54.0,15.0,17.0,33.0
2.701200008392334,0.0,37.0,53.0,10.0,27.0,30.0
2.702549934387207,26.0,26.0,19.0,5.0,39.0,15.0
2.703850030899048,17.0,24.0,17.0,22.0,45.0,21.0
2.7051498889923096,14.0,20.0,0.0,40.0,39.0,214.0
2.7064499855041504,11.0,15.0,0.0,29.0,34.0,131.0
2.707750082015991,11.0,23.0,0.0,17.0,35.0,48.0
2.709049940109253,10.0,31.0,6.0,11.0,20.0,40.0
2.7103500366210938,31.0,36.0,11.0,6.0,5.0,42.0
2.7116498947143555,52.0,36.0,19.0,12.0,64.0,16.0
2.7129499912261963,41.0,5.0,26.0,27.0,39.0,18.0
2.714250087738037,6.0,41.0,28.0,24.0,14.0,16.0
2.715549945831299,10.0,36.0,0.0,21.0,15.0,14.0
2.7168500423431396,14.0,32.0,16.0,35.0,41.0,33.0
2.7181499004364014,11.0,177.0,12.0,33.0,40.0,35.0
2.7195167541503906,5.0,898.0,22.0,28.0,39.0,37.0
2.7208166122436523,9.0,807.0,8.0,0.0,30.0,10.0
2.722116708755493,12.0,24.0,14.0,24.0,20.0,25.0
2.723416566848755,12.0,13.0,23.0,21.0,18.0,39.0
2.7247166633605957,11.0,12.0,34.0,14.0,18.0,5.0
2.7260167598724365,22.0,10.0,43.0,11.0,18.0,662.0
2.7273166179656982,259.0,18.0,0.0,13.0,16.0,859.0
2.728616714477539,395.0,35.0,16.0,12.0,14.0,21.0
2.729916572570801,531.0,32.0,18.0,23.0,18.0,76.0
2.7312166690826416,49.0,41.0,33.0,28.0,11.0,1208.0
2.7325167655944824,21.0,40.0,30.0,26.0,9.0,624.0
2.733816623687744,594.0,38.0,28.0,21.0,7.0,40.0
2.735116720199585,38.0,7.0,27.0,31.0,5.0,1754.0
2.736483335494995,28.0,10.0,25.0,41.0,12.0,1227.0
2.737783432006836,0.0,14.0,29.0,33.0,15.0,42.0
2.7390832901000977,19.0,21.0,32.0,24.0,18.0,1286.0
2.7403833866119385,30.0,16.0,39.0,18.0,16.0,15.0
2.7416832447052,46.0,10.0,45.0,32.0,13.0,27.0
2.742983341217041,27.0,13.0,22.0,30.0,26.0,974.0
2.744283437728882,28.0,15.0,47.0,18.0,23.0,888.0
2.7455832958221436,33.0,16.0,22.0,30.0,5.0,31.0
2.7468833923339844,31.0,17.0,14.0,36.0,40.0,5.0
2.748183250427246,29.0,17.0,15.0,10.0,21.0,355.0
2.749483346939087,34.0,16.0,18.0,7.0,5.0,38.0
2.7507834434509277,23.0,7.0,21.0,11.0,43.0,7.0
2.7520833015441895,21.0,18.0,7.0,16.0,16.0,23.0
2.7534332275390625,18.0,0.0,10.0,19.0,15.0,39.0
2.7547333240509033,18.0,42.0,9.0,21.0,36.0,27.0
2.756033420562744,18.0,39.0,8.0,20.0,28.0,64.0
2.757333278656006,20.0,36.0,7.0,18.0,19.0,55.0
2.7586333751678467,22.0,29.0,5.0,21.0,6.0,46.0
2.7599332332611084,7.0,19.0,11.0,24.0,18.0,42.0
2.761233329772949,17.0,10.0,8.0,30.0,30.0,27.0
2.76253342628479,26.0,484.0,5.0,34.0,39.0,54.0
2.7638332843780518,41.0,699.0,1064.0,31.0,52.0,18.0
2.7651333808898926,41.0,507.0,2036.0,35.0,292.0,46.0
2.7664332389831543,42.0,994.0,2582.0,195.0,149.0,18.0
2.767733335494995,5.0,2546.0,2108.0,355.0,7.0,11.0
2.769033432006836,26.0,3293.0,2936.0,1227.0,32.0,1474.0
2.770400047302246,0.0,6043.0,1273.0,2100.0,342.0,1191.0
2.771699905395508,50.0,7386.0,2645.0,1694.0,1501.0,720.0
2.7730000019073486,60.0,7793.0,11696.0,5223.0,2336.0,2027.0
2.7743000984191895,41.0,8200.0,9372.0,6904.0,2660.0,10.0
2.775599956512451,57.0,8632.0,9424.0,6440.0,9092.0,1835.0
2.776900053024292,37.0,17880.0,14304.0,11344.0,8536.0,2214.0
2.7781999111175537,17.0,21304.0,19180.0,16760.0,10796.0,2464.0
2.7795000076293945,61.0,24404.0,19076.0,21168.0,11364.0,2713.0
2.7808001041412354,42.0,28756.0,33440.0,24648.0,16888.0,7452.0
2.782099962234497,37.0,40608.0,68880.0,33872.0,19276.0,7120.0
2.783400058746338,33.0,39552.0,60880.0,36592.0,22556.0,7578.0
2.7846999168395996,34.0,72000.0,58336.0,39072.0,35088.0,8288.0
2.7860000133514404,36.0,65696.0,84064.0,41552.0,36272.0,9000.0
2.7873499393463135,51.0,89936.0,93440.0,64256.0,51984.0,10088.0
2.7886500358581543,50.0,96416.0,88656.0,67168.0,42864.0,11276.0
2.789949893951416,34.0,129120.0,120160.0,80352.0,44304.0,12464.0
2.791249990463257,23.0,123472.0,144896.0,90512.0,57568.0,18476.0
2.7925500869750977,26.0,157056.0,143360.0,84704.0,57216.0,16336.0
2.7938499450683594,30.0,148352.0,148672.0,109088.0,55968.0,24056.0
2.7951500415802,41.0,176960.0,158336.0,123008.0,55120.0,24556.0
2.796449899673462,5.0,185216.0,195840.0,119872.0,54256.0,25060.0
2.7977499961853027,9.0,180672.0,206464.0,135552.0,81184.0,24028.0
2.7990500926971436,13.0,171520.0,212992.0,137408.0,95264.0,23000.0
2.8003499507904053,0.0,197568.0,209664.0,122144.0,106640.0,23024.0
2.801650047302246,85.0,188800.0,220224.0,143296.0,84544.0,23052.0
2.802949905395508,75.0,185856.0,223232.0,144000.0,102336.0,26976.0
2.804316759109497,54.0,185344.0,226176.0,134976.0,75472.0,30900.0
2.805616617202759,48.0,190144.0,222400.0,137088.0,81968.0,32712.0
2.8069167137145996,21.0,195200.0,227584.0,148480.0,104560.0,30796.0
2.8082165718078613,40.0,200256.0,232704.0,145024.0,92736.0,29480.0
2.809516668319702,41.0,194496.0,231808.0,153152.0,91968.0,28160.0
2.810816764831543,26.0,188736.0,230592.0,152512.0,89472.0,33200.0
2.8121166229248047,11.0,217920.0,229312.0,151936.0,95456.0,35792.0
2.8134167194366455,24.0,212992.0,225856.0,164736.0,94992.0,34112.0
2.8147165775299072,23.0,232320.0,222336.0,161664.0,105552.0,33440.0
2.816016674041748,22.0,191232.0,234176.0,153856.0,102976.0,32768.0
2.817316770553589,32.0,219136.0,267200.0,159232.0,102672.0,31724.0
2.8186166286468506,36.0,250496.0,258880.0,176448.0,101456.0,30676.0
2.8199167251586914,40.0,247360.0,243776.0,171456.0,100240.0,33568.0
2.8212666511535645,30.0,259392.0,249664.0,161536.0,110912.0,35024.0
2.8225667476654053,20.0,255616.0,244288.0,165568.0,110128.0,33440.0
2.823866605758667,27.0,251840.0,263296.0,163968.0,101888.0,32624.0
2.825166702270508,34.0,242176.0,289024.0,175104.0,100128.0,31800.0
2.8264665603637695,68.0,243200.0,288576.0,181184.0,98368.0,35280.0
2.8277666568756104,52.0,244928.0,253504.0,184320.0,118656.0,35648.0
2.829066753387451,36.0,250816.0,269120.0,164992.0,117952.0,33824.0
2.830366611480713,34.0,233984.0,292096.0,168576.0,113824.0,32008.0
2.8316667079925537,62.0,238464.0,252992.0,178560.0,108608.0,36640.0
2.8329665660858154,51.0,242560.0,270016.0,186304.0,109040.0,37296.0
2.8342666625976562,41.0,240512.0,270080.0,182144.0,108864.0,35264.0
2.835566759109497,79.0,238464.0,271232.0,181440.0,108704.0,33232.0
2.836866617202759,59.0,233280.0,272384.0,166976.0,105152.0,37184.0
2.838233232498169,40.0,240000.0,242880.0,176256.0,101600.0,45776.0
2.8395333290100098,62.0,237888.0,252800.0,159552.0,112544.0,44640.0
2.8408334255218506,58.0,235776.0,238720.0,153664.0,90720.0,26832.0
2.8421332836151123,53.0,205184.0,227584.0,156736.0,88304.0,33680.0
2.843433380126953,34.0,228288.0,226112.0,136576.0,93456.0,30796.0
2.844733238220215,25.0,206016.0,217408.0,135872.0,74064.0,20256.0
2.8460333347320557,34.0,168704.0,192768.0,103152.0,71472.0,23748.0
2.8473334312438965,43.0,167680.0,165312.0,129840.0,58992.0,24688.0
2.848633289337158,45.0,148736.0,193152.0,108736.0,50496.0,20780.0
2.849933385848999,48.0,129040.0,149632.0,89056.0,51952.0,20016.0
2.8512332439422607,29.0,123824.0,118064.0,91360.0,53280.0,24272.0
2.8525333404541016,29.0,113600.0,124368.0,69760.0,53200.0,13916.0
2.8538334369659424,42.0,93472.0,103152.0,61936.0,46080.0,8652.0
2.8551833629608154,43.0,92288.0,74416.0,62048.0,40480.0,9428.0
2.856483221054077,46.0,68608.0,78432.0,54256.0,35584.0,10008.0
2.857783317565918,39.0,67888.0,83184.0,47792.0,31544.0,10592.0
2.859083414077759,33.0,54656.0,53056.0,40720.0,23888.0,8700.0
2.8603832721710205,0.0,57488.0,58784.0,26108.0,19632.0,9936.0
2.8616833686828613,22.0,41744.0,47760.0,30752.0,20208.0,5313.0
2.862983226776123,44.0,44448.0,38496.0,20356.0,18684.0,1505.0
2.864283323287964,31.0,31936.0,39376.0,23144.0,21476.0,3681.0
2.8655834197998047,45.0,37648.0,36448.0,14576.0,15220.0,2975.0
2.8668832778930664,66.0,21852.0,41664.0,10676.0,11428.0,4144.0
2.8681833744049072,79.0,26596.0,20448.0,13676.0,11324.0,4282.0
2.869483232498169,77.0,26684.0,29316.0,13160.0,5851.0,4421.0
2.8707833290100098,75.0,17208.0,20056.0,14656.0,6212.0,806.0
2.87214994430542,38.0,17972.0,16668.0,8212.0,7065.0,481.0
2.8734500408172607,5.0,13452.0,16620.0,5784.0,6412.0,45.0
2.8747498989105225,0.0,12172.0,11760.0,7529.0,5760.0,814.0
2.8760499954223633,33.0,8151.0,8177.0,6891.0,7471.0,240.0
2.877350091934204,22.0,7385.0,4359.0,2786.0,4205.0,131.0
2.878649950027466,14.0,9828.0,12784.0,4941.0,6173.0,22.0
2.8799500465393066,6.0,4595.0,10436.0,3046.0,3837.0,31.0
2.8812499046325684,11.0,8548.0,8672.0,4681.0,2446.0,40.0
2.882550001144409,17.0,10340.0,4500.0,5951.0,4140.0,6.0
2.88385009765625,24.0,4044.0,9120.0,4868.0,3509.0,35.0
2.8851499557495117,22.0,5780.0,9864.0,3786.0,3228.0,64.0
2.8864500522613525,17.0,7226.0,5081.0,823.0,3202.0,923.0
2.8877499103546143,17.0,3492.0,5117.0,3828.0,56.0,665.0
2.8891000747680664,31.0,4490.0,7777.0,759.0,2536.0,407.0
2.890399932861328,34.0,1824.0,4233.0,1829.0,1586.0,413.0
2.891700029373169,38.0,3093.0,6479.0,3498.0,636.0,647.0
2.8929998874664307,63.0,3162.0,3332.0,1763.0,1875.0,23.0
2.8942999839782715,37.0,3115.0,4751.0,1687.0,1480.0,51.0
2.8956000804901123,11.0,3068.0,2291.0,1611.0,1202.0,2007.0
2.896899938583374,24.0,2027.0,4269.0,996.0,924.0,1995.0
2.898200035095215,42.0,1447.0,3453.0,1176.0,322.0,12.0
2.8994998931884766,40.0,966.0,1005.0,816.0,1618.0,62.0
2.9007999897003174,14.0,23.0,873.0,2233.0,1859.0,34.0
2.902100086212158,6.0,2349.0,1505.0,1859.0,522.0,54.0
2.90339994430542,30.0,2610.0,893.0,1485.0,1722.0,30.0
2.9047000408172607,10.0,2870.0,280.0,2406.0,13.0,5.0
2.906066656112671,34.0,1546.0,1356.0,2226.0,860.0,16.0
2.9073667526245117,22.0,2325.0,2431.0,2558.0,18.0,27.0
2.9086666107177734,11.0,1043.0,2687.0,12.0,267.0,42.0
2.9099667072296143,49.0,1126.0,345.0,2247.0,33.0,57.0
2.911266565322876,45.0,1209.0,3806.0,1747.0,70.0,685.0
2.912566661834717,24.0,678.0,0.0,825.0,29.0,366.0
2.9138667583465576,42.0,445.0,467.0,506.0,43.0,47.0
2.9151666164398193,41.0,824.0,3134.0,358.0,57.0,984.0
2.91646671295166,13.0,804.0,1879.0,363.0,78.0,785.0
2.917766571044922,10.0,784.0,1909.0,367.0,99.0,18.0
2.9190666675567627,35.0,759.0,1540.0,706.0,434.0,22.0
2.9203667640686035,25.0,481.0,527.0,373.0,769.0,32.0
2.9216666221618652,17.0,46.0,19.0,40.0,1053.0,22.0
2.9230165481567383,13.0,517.0,627.0,907.0,1065.0,12.0
2.924316644668579,79.0,988.0,700.0,819.0,20.0,29.0
2.92561674118042,61.0,1269.0,773.0,288.0,42.0,31.0
2.9269165992736816,43.0,1550.0,815.0,29.0,522.0,33.0
2.9282166957855225,22.0,2247.0,657.0,964.0,25.0,31.0
2.929516553878784,24.0,24.0,12.0,542.0,43.0,29.0
2.930816650390625,12.0,404.0,24.0,370.0,1178.0,14.0
2.932116746902466,18.0,263.0,1165.0,17.0,1529.0,0.0
2.9334166049957275,32.0,204.0,1019.0,37.0,10.0,21.0
2.9347167015075684,19.0,479.0,873.0,53.0,106.0,10.0
2.93601655960083,5.0,242.0,43.0,27.0,1189.0,25.0
2.937316656112671,32.0,5.0,36.0,0.0,18.0,15.0
2.9386167526245117,16.0,1348.0,5.0,12.0,10.0,5.0
2.939983367919922,17.0,1150.0,667.0,24.0,32.0,8.0
2.9412832260131836,42.0,2166.0,1191.0,688.0,1401.0,16.0
2.9425833225250244,42.0,10.0,722.0,768.0,1269.0,34.0
2.9438834190368652,22.0,320.0,0.0,14.0,501.0,31.0
2.945183277130127,8.0,49.0,253.0,33.0,737.0,5.0
2.9464833736419678,35.0,39.0,1262.0,808.0,40.0,20.0
2.9477832317352295,5.0,30.0,648.0,1461.0,32.0,11.0
2.9490833282470703,19.0,307.0,35.0,1203.0,27.0,5.0
2.950383424758911,27.0,585.0,12.0,636.0,34.0,33.0
2.951683282852173,35.0,914.0,26.0,0.0,18.0,26.0
2.9529833793640137,15.0,1165.0,44.0,307.0,30.0,20.0
2.9542832374572754,40.0,0.0,63.0,47.0,41.0,5.0
2.955583333969116,28.0,6.0,34.0,35.0,15.0,6.0
2.9569499492645264,16.0,417.0,5.0,5.0,11.0,15.0
2.958250045776367,31.0,213.0,20.0,29.0,6.0,18.0
2.959549903869629,28.0,10.0,35.0,39.0,5.0,21.0
2.9608500003814697,21.0,51.0,21.0,8.0,5.0,20.0
2.9621500968933105,15.0,37.0,34.0,39.0,367.0,32.0
2.9634499549865723,21.0,22.0,32.0,45.0,735.0,43.0
2.964750051498413,38.0,55.0,30.0,20.0,912.0,5.0
2.966049909591675,21.0,11.0,17.0,5.0,5.0,55.0
2.9673500061035156,5.0,15.0,440.0,506.0,44.0,21.0
2.9686501026153564,44.0,60.0,226.0,672.0,5.0,63.0
2.969949960708618,6.0,41.0,12.0,838.0,0.0,32.0
2.971250057220459,16.0,342.0,22.0,17.0,19.0,0.0
2.9725499153137207,11.0,1135.0,33.0,28.0,53.0,30.0
2.973900079727173,5.0,1027.0,12.0,27.0,87.0,24.0
2.9751999378204346,19.0,920.0,12.0,98.0,102.0,12.0
2.9765000343322754,247.0,1396.0,12.0,1049.0,21.0,0.0
2.977799892425537,441.0,55.0,32.0,1088.0,20.0,0.0
2.979099988937378,226.0,40.0,138.0,191.0,49.0,14.0
2.9804000854492188,11.0,1044.0,87.0,1435.0,33.0,12.0
2.9816999435424805,17.0,1150.0,36.0,986.0,17.0,21.0
2.9830000400543213,17.0,10.0,32.0,1043.0,29.0,20.0
2.984299898147583,0.0,637.0,10.0,1064.0,14.0,18.0
2.985599994659424,0.0,10.0,81.0,196.0,0.0,5.0
2.9869000911712646,5.0,32.0,54.0,1115.0,19.0,0.0
2.9881999492645264,6.0,10.0,28.0,1254.0,539.0,47.0
2.989500045776367,6.0,26.0,220.0,21.0,311.0,49.0
2.9908666610717773,6.0,21.0,412.0,14.0,83.0,12.0
2.992166757583618,6.0,16.0,232.0,986.0,23.0,33.0
2.99346661567688,6.0,117.0,53.0,25.0,19.0,5.0
2.9947667121887207,11.0,65.0,42.0,55.0,15.0,114.0
2.9960665702819824,16.0,13.0,29.0,39.0,930.0,64.0
2.9973666667938232,23.0,7.0,15.0,7.0,968.0,15.0
2.998666763305664,30.0,18.0,5.0,0.0,47.0,5.0
2.999966621398926,25.0,30.0,249.0,21.0,794.0,13.0
3.0012667179107666,20.0,26.0,281.0,10.0,31.0,19.0
3.0025665760040283,32.0,476.0,175.0,30.0,45.0,25.0
3.003866672515869,17.0,247.0,68.0,31.0,0.0,25.0
3.00516676902771,22.0,18.0,659.0,32.0,24.0,30.0
3.0064666271209717,29.0,32.0,944.0,13.0,15.0,14.0
3.0078165531158447,35.0,0.0,1120.0,16.0,5.0,31.0
3.0091166496276855,29.0,36.0,776.0,18.0,35.0,23.0
3.0104167461395264,14.0,37.0,12.0,26.0,60.0,28.0
3.011716604232788,26.0,38.0,608.0,34.0,86.0,36.0
3.013016700744629,12.0,39.0,23.0,38.0,43.0,45.0
3.0143165588378906,24.0,27.0,9.0,45.0,0.0,26.0
3.0156166553497314,14.0,15.0,35.0,52.0,12.0,7.0
3.0169167518615723,10.0,14.0,344.0,465.0,24.0,27.0
3.018216609954834,12.0,15.0,648.0,251.0,15.0,16.0
3.019516706466675,15.0,15.0,327.0,38.0,5.0,21.0
3.0208165645599365,18.0,73.0,5.0,33.0,5.0,16.0
3.0221166610717773,0.0,47.0,42.0,26.0,22.0,0.0
3.023416757583618,28.0,22.0,17.0,264.0,15.0,5.0
3.0247833728790283,16.0,24.0,703.0,148.0,23.0,31.0
3.02608323097229,30.0,26.0,1667.0,32.0,31.0,18.0
3.027383327484131,23.0,35.0,1195.0,21.0,28.0,5.0
3.0286834239959717,20.0,22.0,42.0,10.0,25.0,29.0
3.0299832820892334,16.0,10.0,47.0,36.0,36.0,30.0
3.031283378601074,20.0,15.0,15.0,34.0,25.0,11.0
3.032583236694336,24.0,20.0,185.0,40.0,15.0,11.0
3.0338833332061768,5.0,171.0,382.0,84.0,15.0,10.0
3.0351834297180176,17.0,322.0,579.0,56.0,793.0,12.0
3.0364832878112793,0.0,168.0,317.0,28.0,694.0,14.0
3.03778338432312,8.0,13.0,56.0,40.0,22.0,26.0
3.039083242416382,10.0,17.0,47.0,52.0,57.0,20.0
3.0403833389282227,10.0,21.0,39.0,40.0,38.0,14.0
3.0417332649230957,5.0,13.0,13.0,24.0,21.0,34.0
3.0430333614349365,0.0,5.0,343.0,8.0,5.0,27.0
3.0443332195281982,10.0,20.0,185.0,26.0,41.0,37.0
3.045633316040039,33.0,323.0,26.0,39.0,47.0,7.0
3.04693341255188,29.0,168.0,12.0,51.0,53.0,35.0
3.0482332706451416,30.0,12.0,46.0,31.0,5.0,70.0
3.0495333671569824,15.0,42.0,38.0,34.0,15.0,66.0
3.050833225250244,18.0,37.0,30.0,30.0,12.0,23.0
3.052133321762085,20.0,32.0,13.0,25.0,16.0,30.0
3.053433418273926,37.0,10.0,37.0,5.0,19.0,34.0
3.0547332763671875,33.0,31.0,31.0,9.0,5.0,26.0
3.0560333728790283,19.0,10.0,25.0,10.0,10.0,54.0
3.05733323097229,5.0,23.0,35.0,33.0,23.0,46.0
3.0587000846862793,36.0,36.0,44.0,44.0,23.0,38.0
3.059999942779541,5.0,5.0,50.0,56.0,33.0,5.0
3.061300039291382,5.0,486.0,106.0,36.0,28.0,3.0
3.0625998973846436,19.0,1097.0,77.0,251.0,19.0,0.0
3.0638999938964844,22.0,1020.0,49.0,142.0,10.0,15.0
3.065200090408325,25.0,709.0,7.0,34.0,21.0,16.0
3.066499948501587,15.0,73.0,23.0,33.0,32.0,17.0
3.0678000450134277,5.0,23.0,18.0,21.0,19.0,10.0
3.0690999031066895,26.0,26.0,12.0,13.0,7.0,20.0
3.0703999996185303,29.0,77.0,5.0,5.0,35.0,12.0
3.071700096130371,5.0,5.0,30.0,638.0,25.0,5.0
3.072999954223633,20.0,11.0,24.0,626.0,35.0,46.0
3.0743000507354736,36.0,17.0,19.0,24.0,137.0,35.0
3.0756499767303467,37.0,14.0,231.0,307.0,74.0,29.0
3.0769500732421875,43.0,11.0,115.0,20.0,10.0,23.0
3.078249931335449,20.0,11.0,0.0,30.0,50.0,20.0
3.07955002784729,0.0,11.0,31.0,35.0,5.0,17.0
3.0808498859405518,21.0,11.0,23.0,12.0,43.0,0.0
3.0821499824523926,19.0,11.0,31.0,35.0,13.0,38.0
3.0834500789642334,17.0,0.0,23.0,31.0,41.0,55.0
3.084749937057495,0.0,3.0,5.0,28.0,16.0,38.0
3.086050033569336,29.0,5.0,31.0,17.0,45.0,20.0
3.0873498916625977,5.0,22.0,29.0,6.0,8.0,11.0
3.0886499881744385,30.0,11.0,28.0,42.0,20.0,8.0
3.0899500846862793,10.0,0.0,22.0,29.0,17.0,12.0
3.091249942779541,14.0,9.0,32.0,24.0,11.0,18.0
3.092616558074951,43.0,18.0,41.0,20.0,5.0,23.0
3.093916654586792,29.0,35.0,20.0,16.0,21.0,16.0
3.095216751098633,15.0,25.0,0.0,11.0,21.0,8.0
3.0965166091918945,11.0,14.0,15.0,5.0,37.0,29.0
3.0978167057037354,6.0,29.0,14.0,9.0,48.0,17.0
3.099116563796997,17.0,22.0,49.0,12.0,39.0,26.0
3.100416660308838,17.0,16.0,36.0,16.0,19.0,29.0
3.1017167568206787,16.0,14.0,22.0,41.0,10.0,16.0
3.1030166149139404,0.0,5.0,610.0,26.0,24.0,14.0
3.1043167114257812,25.0,15.0,324.0,12.0,17.0,14.0
3.105616569519043,22.0,15.0,38.0,45.0,29.0,0.0
3.106916666030884,17.0,15.0,18.0,26.0,60.0,7.0
3.1082167625427246,17.0,8.0,348.0,13.0,36.0,13.0
3.1095833778381348,28.0,0.0,41.0,0.0,11.0,12.0
3.1108832359313965,25.0,5.0,26.0,52.0,17.0,10.0
3.1121833324432373,24.0,12.0,27.0,43.0,12.0,31.0
3.113483428955078,22.0,18.0,6.0,35.0,6.0,471.0
3.11478328704834,5.0,36.0,0.0,17.0,11.0,235.0
3.1160833835601807,15.0,71.0,15.0,400.0,15.0,0.0
3.1173832416534424,24.0,42.0,19.0,203.0,23.0,6.0
3.118683338165283,10.0,13.0,22.0,5.0,23.0,6.0
3.119983434677124,10.0,14.0,41.0,18.0,26.0,15.0
3.1212832927703857,10.0,15.0,34.0,15.0,29.0,20.0
3.1225833892822266,5.0,13.0,26.0,5.0,11.0,0.0
3.1238832473754883,11.0,18.0,0.0,23.0,50.0,10.0
3.125183343887329,9.0,22.0,5.0,16.0,43.0,20.0
3.126533269882202,6.0,0.0,8.0,23.0,22.0,20.0
3.127833366394043,26.0,232.0,10.0,30.0,11.0,20.0
3.1291332244873047,22.0,123.0,24.0,12.0,0.0,10.0
3.1304333209991455,18.0,14.0,37.0,34.0,4.0,45.0
3.1317334175109863,29.0,18.0,50.0,15.0,7.0,38.0
3.133033275604248,19.0,11.0,5.0,16.0,5.0,43.0
3.134333372116089,15.0,24.0,39.0,16.0,8.0,36.0
3.1356332302093506,11.0,21.0,30.0,7.0,11.0,30.0
3.1369333267211914,5.0,0.0,21.0,11.0,14.0,35.0
3.1382334232330322,14.0,22.0,5.0,78.0,14.0,39.0
3.139533281326294,20.0,14.0,6.0,64.0,22.0,5.0
3.1408333778381348,53.0,5.0,7.0,50.0,30.0,23.0
3.1421332359313965,34.0,29.0,16.0,20.0,37.0,42.0
3.1435000896453857,15.0,32.0,24.0,21.0,0.0,18.0
3.1447999477386475,19.0,35.0,12.0,11.0,51.0,0.0
3.1461000442504883,21.0,23.0,0.0,36.0,32.0,18.0
3.14739990234375,21.0,31.0,6.0,31.0,16.0,14.0
3.148699998855591,5.0,5.0,15.0,38.0,8.0,6.0
3.1500000953674316,10.0,33.0,53.0,0.0,47.0,38.0
3.1512999534606934,27.0,22.0,90.0,10.0,37.0,37.0
3.152600049972534,69.0,11.0,72.0,20.0,29.0,37.0
3.153899908065796,41.0,11.0,53.0,14.0,25.0,25.0
3.1552000045776367,13.0,24.0,16.0,24.0,25.0,50.0
3.1565001010894775,13.0,7.0,16.0,21.0,13.0,10.0
3.1577999591827393,9.0,17.0,24.0,17.0,0.0,28.0
3.15910005569458,5.0,12.0,24.0,22.0,29.0,15.0
3.1604666709899902,10.0,9.0,14.0,14.0,30.0,19.0
3.161766767501831,6.0,5.0,36.0,5.0,31.0,17.0
3.1630666255950928,15.0,9.0,24.0,15.0,15.0,15.0
3.1643667221069336,24.0,12.0,12.0,25.0,23.0,10.0
3.1656665802001953,19.0,25.0,0.0,25.0,35.0,62.0
3.166966676712036,14.0,24.0,0.0,38.0,5.0,54.0
3.168266773223877,28.0,10.0,0.0,24.0,5.0,46.0
3.1695666313171387,31.0,23.0,17.0,10.0,57.0,15.0
3.1708667278289795,11.0,39.0,11.0,32.0,43.0,28.0
3.172166585922241,7.0,31.0,5.0,21.0,29.0,25.0
3.173466682434082,12.0,21.0,10.0,5.0,17.0,23.0
3.174766778945923,16.0,12.0,5.0,3.0,10.0,33.0
3.1760666370391846,0.0,38.0,0.0,0.0,8.0,30.0
3.1774165630340576,42.0,41.0,14.0,6.0,6.0,28.0
3.1787166595458984,39.0,45.0,29.0,3.0,14.0,15.0
3.1800167560577393,47.0,15.0,29.0,0.0,29.0,26.0
3.181316614151001,54.0,12.0,38.0,49.0,19.0,31.0
3.182616710662842,13.0,0.0,43.0,40.0,10.0,5.0
3.1839165687561035,15.0,18.0,20.0,20.0,20.0,26.0
3.1852166652679443,16.0,15.0,49.0,19.0,30.0,45.0
3.186516761779785,29.0,12.0,36.0,26.0,0.0,34.0
3.187816619873047,31.0,47.0,20.0,21.0,15.0,25.0
3.1891167163848877,33.0,54.0,25.0,23.0,17.0,49.0
3.1904165744781494,55.0,18.0,30.0,24.0,5.0,47.0
3.1917166709899902,59.0,0.0,31.0,20.0,21.0,14.0
3.193016767501831,20.0,33.0,35.0,15.0,16.0,40.0
3.194350004196167,12.0,10.0,32.0,14.0,10.0,30.0
3.195650100708008,31.0,19.0,18.0,13.0,16.0,0.0
3.1969499588012695,5.0,14.0,5.0,12.0,5.0,21.0
3.1982500553131104,5.0,10.0,36.0,14.0,22.0,17.0
