,285.1600036621094,286.1600036621094,287.1600036621094,288.1600036621094,289.1600036621094,290.1600036621094,291.1600036621094
3.001516580581665,13.0,23.0,18.0,7.0,747.0,3878.0,6278.0
3.003033399581909,11.0,16.0,37.0,30.0,16.0,1065.0,11248.0
3.004549980163574,34.0,5.0,31.0,43.0,24.0,3845.0,6672.0
3.0060665607452393,16.0,13.0,19.0,34.0,40.0,2981.0,8135.0
3.0075833797454834,30.0,21.0,39.0,46.0,13.0,4660.0,6733.0
3.0090999603271484,45.0,6.0,39.0,15.0,26.0,4468.0,4089.0
3.0106167793273926,30.0,19.0,39.0,53.0,582.0,2008.0,5479.0
3.0121333599090576,15.0,8.0,15.0,32.0,303.0,2009.0,5659.0
3.0136499404907227,17.0,24.0,621.0,11.0,25.0,2009.0,5838.0
3.015166759490967,20.0,24.0,328.0,35.0,782.0,1666.0,3666.0
3.016683340072632,18.0,25.0,35.0,0.0,345.0,3615.0,4191.0
3.0182666778564453,17.0,25.0,25.0,5.0,465.0,5046.0,4715.0
3.0197832584381104,21.0,23.0,31.0,24.0,254.0,5346.0,2504.0
3.0213000774383545,13.0,22.0,14.0,31.0,44.0,5646.0,4741.0
3.0228166580200195,6.0,24.0,19.0,38.0,22.0,6353.0,8816.0
3.0243332386016846,15.0,26.0,9.0,14.0,5.0,2299.0,9820.0
3.0258500576019287,21.0,0.0,0.0,21.0,19.0,1288.0,9948.0
3.0273666381835938,17.0,2.0,7.0,0.0,26.0,3121.0,5169.0
3.028883218765259,14.0,5.0,13.0,32.0,33.0,3479.0,10188.0
3.030400037765503,16.0,6.0,19.0,21.0,649.0,3837.0,6463.0
3.031916618347168,8.0,7.0,20.0,10.0,337.0,3481.0,8728.0
3.033433437347412,23.0,8.0,20.0,27.0,24.0,3125.0,4927.0
3.0350000858306885,25.0,12.0,0.0,7.0,425.0,5075.0,3444.0
3.0365166664123535,26.0,32.0,17.0,20.0,223.0,6920.0,10852.0
3.0380332469940186,34.0,28.0,6.0,13.0,21.0,5605.0,2252.0
3.0395500659942627,0.0,31.0,5.0,7.0,762.0,4948.0,3746.0
3.0410666465759277,20.0,34.0,15.0,34.0,688.0,3099.0,7812.0
3.04259991645813,0.0,8.0,26.0,26.0,614.0,3991.0,6600.0
3.044100046157837,19.0,12.0,34.0,18.0,26.0,4897.0,7167.0
3.045616626739502,12.0,12.0,43.0,5.0,20.0,4323.0,5355.0
3.047133445739746,5.0,24.0,28.0,10.0,13.0,4547.0,6435.0
3.048650026321411,25.0,39.0,20.0,21.0,25.0,3177.0,3204.0
3.050166606903076,29.0,22.0,13.0,19.0,37.0,4123.0,4504.0
3.0517499446868896,33.0,5.0,5.0,31.0,0.0,5070.0,5689.0
3.053266763687134,17.0,13.0,9.0,43.0,36.0,4617.0,6874.0
3.054783344268799,10.0,24.0,41.0,36.0,13.0,2668.0,5721.0
3.056299924850464,37.0,5.0,46.0,29.0,30.0,2436.0,7762.0
3.057816743850708,23.0,21.0,52.0,21.0,40.0,8420.0,8444.0
3.059333324432373,19.0,16.0,0.0,16.0,39.0,6920.0,9580.0
3.060849905014038,24.0,11.0,23.0,12.0,37.0,4697.0,8067.0
3.0623667240142822,26.0,15.0,51.0,15.0,11.0,2324.0,7210.0
3.0638833045959473,10.0,13.0,25.0,18.0,19.0,3723.0,5853.0
3.0653998851776123,35.0,12.0,0.0,28.0,27.0,4757.0,3768.0
3.0669167041778564,21.0,11.0,12.0,0.0,12.0,4006.0,5506.0
3.06850004196167,27.0,10.0,24.0,5.0,15.0,3251.0,3733.0
3.070016622543335,62.0,21.0,30.0,11.0,213.0,3190.0,5157.0
3.071533441543579,70.0,15.0,36.0,9.0,137.0,2839.0,2263.0
3.073050022125244,46.0,10.0,38.0,22.0,61.0,2487.0,3011.0
3.074566602706909,52.0,25.0,25.0,26.0,37.0,2065.0,3519.0
3.0760834217071533,0.0,19.0,40.0,78.0,14.0,1643.0,3735.0
3.0776000022888184,21.0,29.0,24.0,131.0,11.0,1840.0,3312.0
3.0791165828704834,10.0,38.0,30.0,74.0,9.0,2038.0,2889.0
3.0806334018707275,46.0,46.0,22.0,18.0,0.0,2572.0,4759.0
3.0821499824523926,40.0,34.0,14.0,0.0,0.0,2119.0,4139.0
3.0836665630340576,31.0,11.0,11.0,5.0,761.0,1666.0,3518.0
3.085233449935913,24.0,7.0,8.0,45.0,721.0,3880.0,1922.0
3.086750030517578,7.0,41.0,16.0,31.0,55.0,2850.0,2050.0
3.088266611099243,30.0,44.0,16.0,17.0,14.0,1820.0,2726.0
3.0897834300994873,48.0,37.0,6.0,48.0,17.0,1899.0,3743.0
3.0913000106811523,38.0,42.0,11.0,22.0,9.0,1977.0,3640.0
3.0928165912628174,30.0,25.0,16.0,30.0,35.0,3990.0,3537.0
3.0943334102630615,23.0,32.0,14.0,0.0,24.0,3607.0,635.0
3.0958499908447266,29.0,9.0,12.0,18.0,13.0,2063.0,2259.0
3.0973665714263916,38.0,26.0,28.0,41.0,20.0,4676.0,4694.0
3.0988833904266357,16.0,39.0,26.0,31.0,29.0,304.0,1879.0
3.100399971008301,12.0,14.0,23.0,21.0,37.0,2374.0,2493.0
3.101966619491577,48.0,22.0,16.0,5.0,0.0,3515.0,3107.0
3.1034998893737793,55.0,41.0,30.0,42.0,599.0,1831.0,5977.0
3.1050167083740234,42.0,31.0,36.0,27.0,492.0,2778.0,5708.0
3.1065332889556885,15.0,30.0,21.0,20.0,386.0,2313.0,4589.0
3.1080501079559326,24.0,30.0,6.0,13.0,201.0,841.0,4640.0
3.1095666885375977,25.0,35.0,25.0,18.0,16.0,3133.0,646.0
3.1110832691192627,15.0,32.0,34.0,12.0,11.0,3698.0,1951.0
3.112600088119507,5.0,29.0,11.0,10.0,20.0,1175.0,4072.0
3.114116668701172,20.0,16.0,36.0,30.0,30.0,806.0,4902.0
3.115633249282837,17.0,27.0,5.0,21.0,35.0,3475.0,29.0
3.117150068283081,16.0,38.0,21.0,11.0,42.0,1801.0,2085.0
3.118666648864746,5.0,31.0,16.0,0.0,0.0,1302.0,1835.0
3.1202499866485596,17.0,0.0,15.0,35.0,29.0,258.0,2245.0
3.1217665672302246,16.0,45.0,31.0,36.0,14.0,33.0,24.0
3.1232833862304688,15.0,10.0,34.0,20.0,8.0,66.0,1205.0
3.124799966812134,5.0,0.0,21.0,25.0,21.0,7.0,30.0
3.126316785812378,13.0,8.0,7.0,32.0,33.0,5.0,32.0
3.127833366394043,22.0,6.0,23.0,39.0,22.0,179.0,1300.0
3.129349946975708,16.0,5.0,19.0,37.0,11.0,337.0,969.0
3.130866765975952,11.0,10.0,33.0,10.0,32.0,176.0,42.0
3.132383346557617,0.0,13.0,19.0,10.0,0.0,16.0,26.0
3.1339166164398193,39.0,16.0,5.0,14.0,27.0,41.0,15.0
3.1354167461395264,37.0,18.0,24.0,5.0,28.0,29.0,5.0
3.1369833946228027,15.0,44.0,5.0,23.0,5.0,35.0,10.0
3.1384999752044678,13.0,39.0,42.0,18.0,13.0,40.0,1026.0
3.140016555786133,6.0,34.0,29.0,13.0,22.0,10.0,1188.0
3.141533374786377,36.0,0.0,22.0,26.0,19.0,42.0,15.0
3.143049955368042,49.0,16.0,25.0,51.0,17.0,57.0,234.0
3.144566774368286,27.0,12.0,5.0,52.0,32.0,50.0,73.0
3.146083354949951,8.0,18.0,6.0,20.0,36.0,18.0,5.0
3.147599935531616,12.0,25.0,23.0,33.0,0.0,6.0,16.0
3.1491000652313232,12.0,19.0,55.0,37.0,5.0,7.0,13.0
3.1506166458129883,12.0,13.0,69.0,40.0,17.0,54.0,24.0
3.1521499156951904,0.0,48.0,100.0,15.0,20.0,45.0,16.0
3.153700113296509,6.0,53.0,59.0,8.0,24.0,48.0,8.0
3.155216693878174,25.0,0.0,17.0,24.0,24.0,11.0,5.0
3.1567165851593018,23.0,21.0,14.0,34.0,25.0,28.0,0.0
3.158250093460083,43.0,29.0,38.0,45.0,24.0,28.0,3.0
3.159766674041748,38.0,12.0,48.0,5.0,24.0,23.0,7.0
3.161266565322876,11.0,21.0,61.0,5.0,19.0,19.0,8.0
3.1628000736236572,16.0,15.0,79.0,21.0,20.0,19.0,16.0
3.1643166542053223,28.0,20.0,19.0,5.0,26.0,16.0,524.0
3.1658332347869873,5.0,25.0,47.0,16.0,17.0,13.0,282.0
3.1673333644866943,16.0,5.0,105.0,5.0,13.0,5.0,40.0
3.1688499450683594,5.0,6.0,5.0,13.0,22.0,28.0,5.0
3.170433282852173,21.0,5.0,16.0,22.0,30.0,50.0,14.0
3.171950101852417,23.0,33.0,20.0,18.0,34.0,50.0,23.0
3.173466682434082,26.0,43.0,32.0,23.0,12.0,15.0,5.0
3.174983263015747,16.0,27.0,37.0,28.0,13.0,6.0,262.0
3.176500082015991,26.0,31.0,33.0,17.0,0.0,18.0,206.0
3.1780166625976562,27.0,35.0,29.0,7.0,22.0,30.0,151.0
3.1795332431793213,24.0,24.0,28.0,20.0,20.0,34.0,57.0
3.1810500621795654,0.0,6.0,18.0,15.0,18.0,41.0,47.0
3.1825666427612305,58.0,42.0,41.0,10.0,20.0,11.0,5.0
3.1840832233428955,43.0,36.0,23.0,35.0,22.0,24.0,12.0
3.1856000423431396,28.0,15.0,6.0,33.0,5.0,17.0,5.0
3.187183380126953,0.0,10.0,12.0,22.0,25.0,23.0,34.0
3.188699960708618,18.0,16.0,18.0,18.0,24.0,29.0,24.0
3.1902167797088623,28.0,5.0,10.0,16.0,17.0,24.0,15.0
3.1917333602905273,40.0,0.0,9.0,15.0,11.0,6.0,5.0
3.1932499408721924,21.0,32.0,13.0,66.0,29.0,9.0,21.0
3.1947667598724365,41.0,29.0,14.0,48.0,47.0,12.0,10.0
3.1962833404541016,47.0,27.0,540.0,29.0,168.0,12.0,37.0
3.1977999210357666,53.0,428.0,1235.0,141.0,473.0,220.0,54.0
3.1993167400360107,56.0,1544.0,1929.0,894.0,513.0,261.0,71.0
3.200833320617676,38.0,1884.0,2913.0,1646.0,553.0,303.0,12.0
3.202349901199341,16.0,176.0,3937.0,3096.0,2182.0,1204.0,0.0
3.2039332389831543,20.0,1790.0,5335.0,5801.0,3810.0,1948.0,29.0
3.2054500579833984,17.0,4114.0,4301.0,6560.0,4454.0,2957.0,690.0
3.2069666385650635,60.0,3217.0,3267.0,11388.0,11980.0,2520.0,1351.0
3.2084832191467285,57.0,2478.0,9852.0,15176.0,16176.0,7442.0,2721.0
3.2100000381469727,33.0,7124.0,18300.0,25032.0,19428.0,9952.0,1858.0
3.2115166187286377,5.0,12676.0,30484.0,33600.0,25372.0,10484.0,994.0
3.213033437728882,17.0,15104.0,30516.0,36064.0,21440.0,11460.0,4793.0
3.214550018310547,17.0,17380.0,44640.0,49952.0,29608.0,12440.0,3681.0
3.216066598892212,15.0,31520.0,67232.0,56704.0,48368.0,21124.0,2755.0
3.217583417892456,14.0,35040.0,64064.0,81680.0,61312.0,27468.0,6884.0
3.219099998474121,17.0,44000.0,84912.0,92512.0,74448.0,31716.0,7131.0
3.2206666469573975,31.0,43008.0,99728.0,133248.0,88032.0,36496.0,7377.0
3.2221832275390625,24.0,63296.0,120256.0,131712.0,102224.0,29904.0,12848.0
3.2237000465393066,18.0,73680.0,176640.0,164352.0,116416.0,47200.0,11864.0
3.2252166271209717,20.0,87360.0,165376.0,198528.0,150912.0,60784.0,20324.0
3.226749897003174,9.0,86544.0,186304.0,200000.0,151680.0,67712.0,18932.0
3.228250026702881,47.0,104304.0,233024.0,284864.0,168256.0,84912.0,25580.0
3.229766607284546,56.0,128832.0,265472.0,258688.0,171968.0,72624.0,20784.0
3.23128342628479,38.0,145536.0,250048.0,296064.0,222208.0,102928.0,25620.0
3.232800006866455,39.0,152704.0,282688.0,345600.0,220992.0,100560.0,21468.0
3.23431658744812,48.0,138432.0,360960.0,373440.0,274816.0,105664.0,22652.0
3.2358334064483643,34.0,164352.0,340800.0,390144.0,270144.0,125472.0,18612.0
3.2374167442321777,50.0,169088.0,375872.0,439296.0,300864.0,134656.0,31924.0
3.2389333248138428,45.0,187456.0,403264.0,431232.0,306688.0,143168.0,31556.0
3.240449905395508,40.0,201344.0,476544.0,505344.0,318144.0,143808.0,31192.0
3.241966724395752,16.0,209600.0,455936.0,517760.0,370880.0,156416.0,29104.0
3.243483304977417,30.0,217856.0,441216.0,512512.0,366208.0,152128.0,32348.0
3.244999885559082,34.0,245696.0,510976.0,542976.0,380992.0,158272.0,35584.0
3.246516704559326,38.0,237184.0,529408.0,574976.0,378880.0,156928.0,40528.0
3.248033285140991,21.0,260224.0,552960.0,605184.0,377856.0,155520.0,40672.0
3.2495501041412354,92.0,263744.0,552960.0,589056.0,387968.0,153344.0,39536.0
3.2510666847229004,116.0,273664.0,522496.0,581376.0,398080.0,151168.0,38400.0
3.2525832653045654,137.0,268032.0,527104.0,573952.0,405504.0,141056.0,35824.0
3.2541332244873047,158.0,262208.0,515712.0,580608.0,401920.0,175168.0,33216.0
3.255683422088623,65.0,262784.0,562176.0,587264.0,398336.0,175040.0,40032.0
3.257200002670288,72.0,253504.0,543488.0,585984.0,421632.0,148544.0,41168.0
3.258716583251953,42.0,244224.0,525056.0,584704.0,375040.0,153216.0,31976.0
3.2602334022521973,96.0,264192.0,509504.0,572416.0,335936.0,144320.0,34912.0
3.2617499828338623,59.0,250240.0,493504.0,580864.0,389248.0,163904.0,37856.0
3.2632665634155273,23.0,253504.0,532736.0,529920.0,358016.0,123568.0,28264.0
3.2647833824157715,41.0,230016.0,473152.0,540928.0,354944.0,143936.0,34928.0
3.2662999629974365,96.0,228800.0,465664.0,487744.0,333824.0,133248.0,36304.0
3.2678167819976807,92.0,224192.0,464000.0,463104.0,346240.0,128080.0,36992.0
3.2693333625793457,89.0,216320.0,413824.0,460928.0,326464.0,106080.0,21032.0
3.2708499431610107,49.0,214528.0,481216.0,489984.0,301504.0,109648.0,29124.0
3.272416591644287,106.0,170752.0,425152.0,406400.0,289152.0,113232.0,22956.0
3.2739334106445312,78.0,203328.0,397184.0,425088.0,303424.0,109120.0,27772.0
3.2754499912261963,86.0,187008.0,389312.0,450944.0,278528.0,105024.0,32324.0
3.2769665718078613,67.0,176192.0,417280.0,365376.0,258368.0,107936.0,29152.0
3.2784833908081055,27.0,162240.0,356096.0,402944.0,282752.0,112784.0,25976.0
3.2799999713897705,76.0,179968.0,349696.0,384576.0,217408.0,98896.0,25272.0
3.2815165519714355,50.0,168064.0,353920.0,384896.0,284352.0,92464.0,25888.0
3.2830333709716797,46.0,156160.0,338112.0,347712.0,252864.0,92864.0,26504.0
3.2845499515533447,42.0,196608.0,358976.0,385216.0,249728.0,82288.0,26252.0
3.286066770553589,56.0,189440.0,361088.0,375360.0,266304.0,112704.0,25392.0
3.287583351135254,67.0,195136.0,362560.0,374464.0,259648.0,120704.0,24532.0
3.2891666889190674,70.0,168192.0,355776.0,382784.0,250688.0,110256.0,22424.0
3.2906832695007324,74.0,198016.0,348992.0,386304.0,244416.0,116992.0,20320.0
3.2922000885009766,102.0,183616.0,369280.0,368768.0,279808.0,123616.0,21624.0
3.2937166690826416,109.0,203520.0,377536.0,372352.0,280768.0,105072.0,22924.0
3.2952332496643066,69.0,177792.0,369920.0,410304.0,306048.0,111504.0,24744.0
3.296750068664551,81.0,191104.0,363328.0,455360.0,275776.0,104336.0,26564.0
3.298266649246216,92.0,179520.0,358144.0,438848.0,311424.0,114320.0,37072.0
3.299783229827881,73.0,165568.0,352960.0,443072.0,269696.0,138944.0,38624.0
3.301300048828125,67.0,213888.0,410560.0,462016.0,333888.0,140928.0,34880.0
3.30281662940979,90.0,221760.0,416192.0,457792.0,314880.0,129536.0,33104.0
3.304333448410034,90.0,224960.0,425536.0,469888.0,369344.0,137920.0,29328.0
3.3059165477752686,89.0,218816.0,434880.0,481984.0,342080.0,132928.0,33312.0
3.3074333667755127,60.0,213248.0,432768.0,488832.0,357696.0,127616.0,35920.0
3.3089499473571777,126.0,217408.0,430656.0,495680.0,346880.0,129072.0,36768.0
3.310466766357422,78.0,242176.0,464832.0,489408.0,328768.0,130544.0,28940.0
3.311983346939087,30.0,256768.0,487424.0,483072.0,340096.0,137792.0,36336.0
3.313499927520752,58.0,247360.0,503360.0,467520.0,359424.0,138112.0,38096.0
3.315016746520996,62.0,209408.0,470016.0,451968.0,372416.0,138368.0,39856.0
3.316533327102661,59.0,198720.0,429696.0,485376.0,289152.0,117216.0,36176.0
3.318049907684326,18.0,217984.0,454016.0,475648.0,287168.0,132352.0,27472.0
3.3195667266845703,45.0,209792.0,427840.0,429632.0,281728.0,123360.0,36320.0
3.3210833072662354,73.0,222336.0,400768.0,468160.0,284928.0,125520.0,22392.0
3.3226499557495117,54.0,156480.0,400576.0,400768.0,288128.0,100816.0,25272.0
3.324166774749756,35.0,157504.0,426048.0,394880.0,276480.0,92928.0,37456.0
3.325683355331421,52.0,175616.0,324224.0,369984.0,225728.0,115248.0,22428.0
3.327199935913086,68.0,155840.0,318336.0,339648.0,232832.0,103824.0,22136.0
3.32871675491333,61.0,157120.0,304960.0,308480.0,220288.0,77120.0,19988.0
3.330233335494995,53.0,163072.0,290368.0,291584.0,210432.0,80320.0,23220.0
3.33174991607666,72.0,137920.0,280000.0,297088.0,204992.0,75888.0,14220.0
3.3332834243774414,52.0,133888.0,241920.0,236352.0,177344.0,78816.0,13352.0
3.3347833156585693,51.0,133824.0,225472.0,231360.0,166912.0,74304.0,12176.0
3.3362998962402344,50.0,96416.0,201280.0,232512.0,146304.0,63456.0,17712.0
3.3378167152404785,74.0,89984.0,182272.0,188992.0,147648.0,60480.0,16324.0
3.339400053024292,19.0,95920.0,168192.0,178176.0,117136.0,51328.0,15200.0
3.340916633605957,74.0,73936.0,145536.0,173952.0,114240.0,42016.0,9624.0
3.342433214187622,85.0,59808.0,142848.0,179136.0,94224.0,35856.0,9612.0
3.343950033187866,58.0,68016.0,115168.0,109648.0,92704.0,31308.0,4861.0
3.3454666137695312,32.0,64400.0,121664.0,121248.0,64752.0,27728.0,5675.0
3.3469834327697754,26.0,50992.0,99168.0,102688.0,64288.0,29836.0,4696.0
3.3485000133514404,30.0,42960.0,83504.0,85680.0,61808.0,18572.0,6681.0
3.3500165939331055,35.0,49360.0,72288.0,86064.0,42064.0,17920.0,8053.0
3.3515334129333496,11.0,39008.0,72464.0,70752.0,53984.0,22444.0,9424.0
3.3530499935150146,40.0,21652.0,58848.0,60624.0,45856.0,19964.0,6509.0
3.3545665740966797,54.0,28984.0,60192.0,66848.0,43520.0,17808.0,5694.0
3.356149911880493,17.0,18084.0,48080.0,51792.0,24676.0,14728.0,2782.0
3.3576667308807373,31.0,21484.0,44096.0,41008.0,30304.0,11304.0,3391.0
3.3591833114624023,29.0,13484.0,37104.0,44432.0,30092.0,17704.0,5501.0
3.3606998920440674,31.0,20416.0,30204.0,41248.0,28232.0,14112.0,3212.0
3.3622167110443115,56.0,18228.0,28248.0,39056.0,29144.0,15864.0,5728.0
3.3637332916259766,34.0,12388.0,16568.0,23500.0,24092.0,5348.0,4260.0
3.3652501106262207,13.0,14860.0,29924.0,27160.0,17372.0,9076.0,7029.0
3.3667666912078857,36.0,11688.0,25056.0,28688.0,21460.0,5919.0,5574.0
3.368283271789551,22.0,13004.0,13656.0,26140.0,17900.0,10624.0,4783.0
3.369800090789795,9.0,9324.0,19180.0,22184.0,17096.0,8576.0,4060.0
3.37131667137146,10.0,9984.0,17720.0,24408.0,9972.0,6909.0,3853.0
3.372866630554199,6.0,9696.0,18776.0,20732.0,15612.0,5933.0,3243.0
3.3744165897369385,16.0,8288.0,19684.0,12484.0,13252.0,4752.0,2632.0
3.3759334087371826,27.0,6879.0,14496.0,15164.0,15412.0,5987.0,3335.0
3.3774499893188477,29.0,9308.0,16352.0,18024.0,9356.0,4315.0,3236.0
3.3789665699005127,21.0,7385.0,16676.0,22996.0,7115.0,4246.0,3138.0
3.380483388900757,11.0,6916.0,13612.0,20236.0,14992.0,4177.0,3457.0
3.381999969482422,31.0,7605.0,12424.0,8448.0,10536.0,4021.0,2208.0
3.383516550064087,13.0,8252.0,17184.0,11432.0,11760.0,3792.0,2902.0
3.385033369064331,16.0,5682.0,6853.0,16660.0,10012.0,4598.0,2279.0
3.386549949645996,19.0,6232.0,7414.0,16744.0,11032.0,4693.0,2533.0
3.3880667686462402,19.0,7513.0,12192.0,9852.0,8167.0,2453.0,3137.0
3.3895833492279053,19.0,8792.0,8556.0,7039.0,3928.0,4696.0,2984.0
3.3911499977111816,32.0,8964.0,13316.0,12184.0,9012.0,5543.0,3232.0
3.3926665782928467,18.0,2669.0,12856.0,14548.0,5712.0,3170.0,3481.0
3.394183397293091,5.0,2609.0,6636.0,5362.0,5782.0,1978.0,2335.0
3.395716667175293,5.0,3076.0,9344.0,13520.0,5852.0,1745.0,1062.0
3.397216558456421,17.0,2321.0,9904.0,9296.0,5697.0,2201.0,4174.0
3.398733377456665,30.0,2534.0,7432.0,13508.0,5678.0,2197.0,26.0
3.40024995803833,37.0,2747.0,10288.0,9884.0,5658.0,2193.0,3048.0
3.401766777038574,45.0,4288.0,9924.0,10036.0,6369.0,2398.0,1921.0
3.4032833576202393,38.0,4061.0,6485.0,12588.0,6088.0,2604.0,3462.0
3.4047999382019043,52.0,1361.0,6463.0,9252.0,5807.0,6830.0,909.0
3.4063167572021484,7.0,3090.0,10424.0,5935.0,5201.0,6164.0,916.0
3.407900094985962,29.0,1724.0,4027.0,4613.0,1864.0,2388.0,922.0
3.409416675567627,0.0,3784.0,10500.0,9340.0,4369.0,3017.0,1296.0
3.410933256149292,7.0,5391.0,7488.0,5653.0,3562.0,4567.0,980.0
3.412450075149536,15.0,4787.0,7500.0,8484.0,3361.0,3050.0,663.0
3.413966655731201,26.0,1591.0,8388.0,10604.0,3160.0,3438.0,2724.0
3.415483236312866,29.0,3799.0,6152.0,6531.0,4772.0,2234.0,3277.0
3.4170000553131104,18.0,1792.0,3918.0,10372.0,4903.0,2044.0,2639.0
3.4185166358947754,46.0,2307.0,6907.0,7537.0,2897.0,1854.0,2446.0
3.4200332164764404,42.0,1306.0,6701.0,7175.0,3433.0,1907.0,3581.0
3.4215500354766846,15.0,1840.0,5486.0,4945.0,3969.0,1959.0,2961.0
3.4230666160583496,27.0,2375.0,6971.0,5222.0,1980.0,2922.0,1966.0
3.424649953842163,39.0,2572.0,2284.0,4813.0,4227.0,2517.0,1869.0
3.4261667728424072,19.0,2770.0,4743.0,6939.0,3474.0,2112.0,1534.0
3.4276833534240723,7.0,28.0,4157.0,7119.0,2720.0,2602.0,2824.0
3.4291999340057373,0.0,4768.0,6130.0,6923.0,2362.0,22.0,1946.0
3.4307167530059814,5.0,2779.0,4173.0,6189.0,2004.0,947.0,1067.0
3.4322333335876465,11.0,1816.0,5763.0,3007.0,3032.0,3162.0,2050.0
3.4337499141693115,10.0,3487.0,6665.0,7411.0,3361.0,2807.0,5927.0
3.4352667331695557,10.0,329.0,3977.0,6226.0,2867.0,1651.0,4965.0
3.4367833137512207,11.0,1464.0,2788.0,6061.0,6374.0,2977.0,2184.0
3.4382998943328857,12.0,966.0,5656.0,9092.0,7122.0,3745.0,1439.0
3.43981671333313,18.0,2631.0,3757.0,2886.0,1414.0,938.0,3476.0
3.4413833618164062,25.0,3000.0,5307.0,7174.0,1352.0,2024.0,9.0
3.4428999423980713,22.0,1654.0,5089.0,9312.0,7108.0,3372.0,1177.0
3.4444334506988525,27.0,0.0,5594.0,4710.0,4097.0,4396.0,1435.0
3.4459500312805176,26.0,501.0,2853.0,6497.0,264.0,23.0,724.0
3.4474499225616455,26.0,602.0,3450.0,5853.0,3388.0,2537.0,782.0
3.4489667415618896,6.0,818.0,4630.0,4639.0,3920.0,3069.0,1350.0
3.4504833221435547,5.0,1035.0,4341.0,4336.0,1227.0,2400.0,828.0
3.4519999027252197,30.0,1325.0,2857.0,4221.0,1267.0,2411.0,869.0
3.453516721725464,24.0,1616.0,1372.0,6301.0,4950.0,3266.0,911.0
3.455033302307129,23.0,487.0,2856.0,6360.0,4544.0,1177.0,465.0
3.456566572189331,22.0,946.0,2970.0,3661.0,3434.0,1285.0,20.0
3.4581332206726074,62.0,329.0,3846.0,6751.0,4113.0,782.0,209.0
3.4596500396728516,59.0,1089.0,3645.0,3675.0,472.0,654.0,398.0
3.4611666202545166,30.0,456.0,3444.0,4662.0,1119.0,1128.0,955.0
3.4626834392547607,0.0,817.0,2985.0,1172.0,4497.0,1036.0,487.0
3.464200019836426,20.0,1179.0,3069.0,2137.0,2341.0,944.0,19.0
3.465716600418091,13.0,2602.0,2374.0,3103.0,3517.0,295.0,1388.0
3.467233419418335,0.0,2209.0,2538.0,4515.0,1598.0,528.0,2229.0
3.46875,8.0,1192.0,726.0,4849.0,1735.0,1470.0,1574.0
3.470266580581665,14.0,1800.0,1489.0,5608.0,2966.0,2413.0,1205.0
3.471783399581909,21.0,1405.0,2649.0,4942.0,2452.0,2171.0,978.0
3.473299980163574,23.0,1009.0,1996.0,2425.0,2022.0,894.0,1343.0
3.4748833179473877,15.0,1455.0,1343.0,6737.0,2428.0,2396.0,1708.0
3.4763998985290527,7.0,726.0,1997.0,1084.0,1656.0,2575.0,1241.0
3.477916717529297,31.0,1104.0,2651.0,1929.0,884.0,3495.0,774.0
3.479433298110962,0.0,1473.0,3350.0,2773.0,384.0,1619.0,528.0
3.480950117111206,10.0,634.0,363.0,2430.0,29.0,1494.0,441.0
3.482466697692871,0.0,718.0,1949.0,2260.0,63.0,687.0,37.0
3.483983278274536,30.0,941.0,616.0,1442.0,552.0,759.0,52.0
3.4855000972747803,48.0,1163.0,2667.0,2689.0,539.0,64.0,1251.0
3.4870166778564453,38.0,33.0,2117.0,2964.0,400.0,903.0,640.0
3.4885332584381104,10.0,365.0,2773.0,1064.0,262.0,823.0,29.0
3.4900500774383545,16.0,1214.0,838.0,1272.0,236.0,766.0,6.0
3.4916000366210938,38.0,322.0,13.0,378.0,211.0,709.0,985.0
3.493133306503296,53.0,600.0,67.0,610.0,125.0,569.0,1044.0
3.494649887084961,36.0,56.0,34.0,518.0,39.0,19.0,1188.0
3.496183395385742,14.0,50.0,25.0,153.0,32.0,5.0,715.0
3.49768328666687,34.0,649.0,12.0,46.0,24.0,13.0,376.0
3.4992001056671143,53.0,0.0,0.0,34.0,24.0,27.0,37.0
3.5007166862487793,8.0,41.0,24.0,22.0,25.0,48.0,74.0
3.5022332668304443,13.0,806.0,31.0,15.0,12.0,39.0,45.0
3.5037500858306885,15.0,30.0,29.0,35.0,0.0,29.0,25.0
3.5052666664123535,43.0,16.0,27.0,31.0,10.0,20.0,55.0
3.5067832469940186,50.0,42.0,20.0,26.0,24.0,11.0,22.0
3.5083000659942627,29.0,27.0,50.0,0.0,38.0,17.0,38.0
3.509883403778076,28.0,34.0,38.0,13.0,26.0,24.0,29.0
3.511399984359741,14.0,10.0,26.0,12.0,14.0,23.0,22.0
3.5129165649414062,26.0,46.0,34.0,12.0,29.0,22.0,16.0
3.5144333839416504,5.0,27.0,41.0,10.0,24.0,36.0,21.0
3.5159499645233154,34.0,40.0,26.0,5.0,24.0,36.0,12.0
3.5174667835235596,63.0,28.0,22.0,14.0,18.0,28.0,12.0
3.5189833641052246,57.0,20.0,34.0,13.0,13.0,21.0,12.0
3.5204999446868896,12.0,12.0,6.0,12.0,31.0,0.0,17.0
3.522016763687134,48.0,11.0,21.0,6.0,26.0,15.0,17.0
3.523533344268799,22.0,8.0,13.0,12.0,13.0,14.0,17.0
3.525049924850464,24.0,5.0,8.0,19.0,0.0,14.0,5.0
3.5266332626342773,0.0,32.0,5.0,14.0,13.0,24.0,13.0
3.5281500816345215,16.0,24.0,18.0,10.0,11.0,0.0,11.0
3.5296666622161865,42.0,17.0,16.0,17.0,9.0,19.0,10.0
3.5311832427978516,29.0,29.0,14.0,11.0,7.0,18.0,8.0
3.5327000617980957,17.0,41.0,6.0,5.0,8.0,396.0,6.0
3.5342166423797607,6.0,37.0,5.0,50.0,10.0,211.0,14.0
3.535733222961426,36.0,24.0,46.0,48.0,23.0,27.0,16.0
3.53725004196167,34.0,11.0,34.0,45.0,14.0,26.0,40.0
3.538766622543335,10.0,13.0,22.0,16.0,5.0,59.0,26.0
3.540283441543579,11.0,12.0,30.0,5.0,18.0,30.0,12.0
3.541800022125244,12.0,20.0,580.0,28.0,9.0,27.0,18.0
3.5433666706085205,7.0,21.0,326.0,31.0,0.0,24.0,10.0
3.5448832511901855,16.0,23.0,71.0,18.0,22.0,21.0,10.0
3.5464000701904297,43.0,31.0,29.0,42.0,508.0,20.0,20.0
3.5479166507720947,24.0,10.0,40.0,310.0,264.0,16.0,12.0
3.5494332313537598,6.0,35.0,10.0,161.0,21.0,25.0,5.0
3.550950050354004,26.0,13.0,49.0,13.0,17.0,26.0,5.0
3.552466630935669,17.0,10.0,36.0,20.0,20.0,28.0,18.0
3.553983449935913,8.0,16.0,46.0,0.0,25.0,29.0,31.0
3.555500030517578,33.0,10.0,51.0,14.0,23.0,30.0,38.0
3.557016611099243,60.0,5.0,44.0,28.0,35.0,34.0,27.0
3.5585334300994873,53.0,32.0,28.0,21.0,48.0,10.0,50.0
3.560116767883301,20.0,21.0,12.0,15.0,31.0,30.0,8.0
3.561633348464966,30.0,10.0,40.0,5.0,13.0,25.0,4.0
3.563149929046631,40.0,45.0,20.0,13.0,24.0,20.0,0.0
3.564666748046875,0.0,33.0,25.0,5.0,5.0,40.0,11.0
3.56618332862854,53.0,7.0,17.0,5.0,10.0,37.0,5.0
3.567699909210205,53.0,51.0,10.0,6.0,14.0,34.0,0.0
3.569216728210449,5.0,53.0,24.0,5.0,18.0,0.0,20.0
3.5707333087921143,35.0,15.0,39.0,5.0,28.0,22.0,40.0
3.5722498893737793,7.0,0.0,32.0,43.0,22.0,30.0,29.0
3.5737667083740234,0.0,41.0,25.0,37.0,16.0,39.0,7.0
3.5752832889556885,6.0,47.0,6.0,47.0,10.0,50.0,54.0
3.576866626739502,13.0,49.0,20.0,49.0,34.0,12.0,39.0
3.578383445739746,28.0,44.0,36.0,51.0,23.0,18.0,16.0
3.579900026321411,29.0,60.0,42.0,183.0,11.0,59.0,7.0
3.581416606903076,19.0,25.0,43.0,111.0,11.0,34.0,9.0
3.5829334259033203,10.0,10.0,33.0,39.0,12.0,9.0,29.0
3.5844500064849854,43.0,32.0,0.0,74.0,38.0,23.0,29.0
3.5859665870666504,24.0,39.0,48.0,5.0,21.0,25.0,62.0
3.5874834060668945,5.0,35.0,65.0,6.0,5.0,24.0,50.0
3.5889999866485596,10.0,17.0,26.0,10.0,25.0,29.0,38.0
3.5905165672302246,8.0,0.0,6.0,33.0,46.0,35.0,25.0
3.5920333862304688,8.0,46.0,17.0,25.0,48.0,0.0,12.0
3.593600034713745,8.0,68.0,24.0,17.0,37.0,66.0,9.0
3.59511661529541,39.0,35.0,34.0,15.0,19.0,55.0,13.0
3.5966334342956543,34.0,28.0,20.0,25.0,0.0,19.0,11.0
3.5981500148773193,14.0,15.0,6.0,23.0,24.0,5.0,10.0
