,245.0800018310547,246.0800018310547,247.0800018310547,248.0800018310547
2.10111665725708,16.0,502.0,27.0,41.0
2.1022000312805176,28.0,49.0,22.0,9.0
2.104583263397217,12.0,45.0,29.0,30.0
2.106966733932495,23.0,17.0,8.0,37.0
2.1094000339508057,12.0,34.0,6.0,21.0
2.111783266067505,0.0,23.0,23.0,24.0
2.114166736602783,21.0,21.0,26.0,5.0
2.1165499687194824,28.0,19.0,25.0,64.0
2.1189334392547607,34.0,16.0,23.0,36.0
2.121333360671997,23.0,14.0,28.0,8.0
2.1237165927886963,14.0,29.0,7.0,56.0
2.126149892807007,5.0,28.0,13.0,15.0
2.128533363342285,12.0,23.0,19.0,39.0
2.1309165954589844,5.0,5.0,10.0,5.0
2.1333000659942627,5.0,31.0,25.0,38.0
2.135683298110962,5.0,39.0,18.0,12.0
2.1380667686462402,29.0,11.0,9.0,16.0
2.1404500007629395,36.0,41.0,5.0,19.0
2.142899990081787,14.0,17.0,0.0,16.0
2.1452832221984863,18.0,10.0,25.0,13.0
2.1476666927337646,21.0,36.0,30.0,65.0
2.150049924850464,22.0,17.0,35.0,78.0
2.152433395385742,12.0,0.0,0.0,33.0
2.1548166275024414,26.0,9.0,23.0,20.0
2.1572000980377197,27.0,17.0,30.0,13.0
2.159616708755493,13.0,35.0,28.0,5.0
2.1619999408721924,0.0,29.0,5.0,5.0
2.1643834114074707,25.0,22.0,36.0,6.0
2.16676664352417,37.0,5.0,25.0,6.0
2.1691501140594482,27.0,14.0,26.0,8.0
2.1715333461761475,11.0,29.0,18.0,10.0
2.1739165782928467,50.0,56.0,11.0,0.0
2.176316738128662,5.0,51.0,6.0,11.0
2.1786999702453613,25.0,35.0,0.0,0.0
2.1810998916625977,7.0,37.0,17.0,5.0
2.183483362197876,21.0,5.0,22.0,10.0
2.185866594314575,35.0,49.0,25.0,35.0
2.1882500648498535,29.0,43.0,26.0,35.0
2.1906332969665527,0.0,37.0,27.0,33.0
2.193033218383789,63.0,25.0,25.0,18.0
2.1954166889190674,43.0,48.0,12.0,16.0
2.1977999210357666,10.0,16.0,40.0,5.0
2.200183391571045,18.0,41.0,27.0,26.0
2.202566623687744,0.0,21.0,13.0,48.0
2.2049500942230225,11.0,5.0,9.0,32.0
2.2073333263397217,26.0,5.0,15.0,16.0
2.2097833156585693,15.0,15.0,13.0,39.0
2.2121665477752686,22.0,15.0,34.0,47.0
2.214550018310547,29.0,0.0,34.0,33.0
2.216933250427246,28.0,0.0,20.0,18.0
2.2193167209625244,13.0,33.0,11.0,31.0
2.2216999530792236,12.0,19.0,19.0,5.0
2.224083423614502,10.0,5.0,12.0,10.0
2.2265167236328125,24.0,30.0,5.0,21.0
2.2288999557495117,25.0,31.0,62.0,33.0
2.23128342628479,27.0,54.0,57.0,21.0
2.2336666584014893,0.0,38.0,10.0,9.0
2.2360498905181885,25.0,22.0,53.0,17.0
2.238450050354004,28.0,37.0,7.0,22.0
2.240833282470703,33.0,5.0,10.0,27.0
2.2432665824890137,14.0,34.0,30.0,21.0
2.245650053024292,10.0,31.0,32.0,12.0
2.248033285140991,5.0,26.0,0.0,0.0
2.2504167556762695,21.0,5.0,20.0,13.0
2.2527999877929688,41.0,14.0,18.0,39.0
2.255183219909668,32.0,27.0,16.0,30.0
2.2575666904449463,5.0,39.0,13.0,37.0
2.2599833011627197,20.0,32.0,25.0,45.0
2.262399911880493,5.0,35.0,37.0,6.0
2.2647833824157715,22.0,28.0,31.0,21.0
2.2671666145324707,37.0,20.0,26.0,12.0
2.269550085067749,31.0,16.0,16.0,0.0
2.2719333171844482,16.0,28.0,5.0,12.0
2.2743165493011475,12.0,27.0,31.0,23.0
2.276700019836426,15.0,6.0,19.0,15.0
2.279116630554199,21.0,0.0,37.0,13.0
2.2815001010894775,28.0,0.0,5.0,10.0
2.2838833332061768,28.0,8.0,27.0,8.0
2.286266565322876,5.0,16.0,32.0,5.0
2.2886500358581543,46.0,48.0,23.0,16.0
2.2910332679748535,28.0,1018.0,38.0,28.0
2.293416738510132,0.0,1681.0,17.0,1278.0
2.2958333492279053,39.0,1725.0,28.0,1230.0
2.2982165813446045,0.0,6163.0,5.0,663.0
2.300600051879883,19.0,9376.0,952.0,3656.0
2.302983283996582,0.0,28056.0,1936.0,4808.0
2.3053667545318604,9.0,38480.0,5532.0,11724.0
2.3077499866485596,0.0,68240.0,4896.0,15980.0
2.310133218765259,3.0,97248.0,11940.0,27816.0
2.312533378601074,5.0,140032.0,13084.0,36608.0
2.3149166107177734,7.0,191424.0,16728.0,47456.0
2.3173000812530518,9.0,281024.0,23992.0,56944.0
2.319683313369751,10.0,348416.0,22556.0,71984.0
2.3220832347869873,38.0,402496.0,27748.0,78368.0
2.3244667053222656,28.0,477568.0,48896.0,117248.0
2.326849937438965,18.0,576256.0,45104.0,140352.0
2.3292500972747803,26.0,611584.0,53664.0,141696.0
2.3316333293914795,12.0,645632.0,65136.0,148288.0
2.3340165615081787,39.0,690944.0,68304.0,147456.0
2.336400032043457,38.0,739584.0,63840.0,146688.0
2.3387832641601562,19.0,733696.0,76432.0,156864.0
2.3411667346954346,30.0,727552.0,53760.0,158208.0
2.343566656112671,40.0,769536.0,63952.0,159488.0
2.3459665775299072,20.0,775936.0,75872.0,152576.0
2.3483500480651855,603.0,712448.0,80112.0,145728.0
2.3507332801818848,751.0,785664.0,54704.0,144192.0
2.353116750717163,52.0,726016.0,73440.0,148672.0
2.3554999828338623,1065.0,680704.0,52640.0,145472.0
2.3578999042510986,26.0,747008.0,56432.0,138752.0
2.360283374786377,758.0,696832.0,64880.0,153280.0
2.3626832962036133,34.0,657664.0,71552.0,135104.0
2.3650667667388916,11.0,680704.0,67856.0,135488.0
2.367449998855591,976.0,701952.0,61328.0,158336.0
2.36983323097229,30.0,754176.0,66016.0,147264.0
2.3722333908081055,30.0,757248.0,68416.0,180544.0
2.3746166229248047,23.0,828160.0,70816.0,183808.0
2.377000093460083,5.0,822784.0,64048.0,160704.0
2.3794000148773193,17.0,821760.0,76048.0,183040.0
2.3817832469940186,28.0,820992.0,80400.0,173312.0
2.384183406829834,45.0,830720.0,76192.0,190016.0
2.386566638946533,37.0,831488.0,70688.0,190144.0
2.3889501094818115,30.0,832000.0,65760.0,185600.0
2.3913333415985107,19.0,832000.0,48304.0,173248.0
2.39371657371521,8.0,728576.0,65408.0,148288.0
2.3961334228515625,10.0,681472.0,57424.0,152064.0
2.3985166549682617,42.0,586752.0,59248.0,137472.0
2.400899887084961,23.0,535040.0,49552.0,133696.0
2.4032833576202393,5.0,477440.0,34064.0,107632.0
2.4056665897369385,9.0,401280.0,31476.0,80496.0
2.408050060272217,5.0,352896.0,24956.0,83248.0
2.410433292388916,0.0,285760.0,24344.0,64928.0
2.4128499031066895,12.0,207232.0,13612.0,38432.0
2.4152333736419678,25.0,188864.0,17412.0,36256.0
2.417616605758667,27.0,138240.0,12640.0,32816.0
2.4200000762939453,32.0,113936.0,9232.0,30168.0
2.4223833084106445,11.0,80704.0,8792.0,19676.0
2.424766778945923,0.0,75584.0,1545.0,14588.0
2.427150011062622,29.0,48944.0,7587.0,12580.0
2.4295499324798584,28.0,50736.0,416.0,5232.0
2.431950092315674,13.0,38064.0,5054.0,12896.0
2.434333324432373,83.0,34560.0,2336.0,8388.0
2.4367165565490723,54.0,37056.0,2531.0,4654.0
2.4391000270843506,26.0,23592.0,1680.0,5676.0
2.44148325920105,5.0,22416.0,535.0,3508.0
2.443866729736328,20.0,22580.0,2506.0,5202.0
2.4462666511535645,33.0,18588.0,893.0,4041.0
2.4486498832702637,8.0,10284.0,687.0,586.0
2.451033353805542,7.0,11240.0,954.0,5603.0
2.453416585922241,5.0,20484.0,1267.0,2515.0
2.4558167457580566,8.0,12636.0,0.0,788.0
2.458199977874756,11.0,18684.0,917.0,4485.0
2.460583448410034,16.0,10532.0,472.0,1874.0
2.4629833698272705,20.0,11824.0,27.0,3297.0
2.4653666019439697,43.0,12036.0,13.0,3257.0
2.467750072479248,30.0,6627.0,0.0,1924.0
2.4701499938964844,17.0,9736.0,11.0,1103.0
2.4725332260131836,8.0,10972.0,13.0,1507.0
2.474916696548462,22.0,7577.0,14.0,470.0
2.477299928665161,14.0,10320.0,423.0,1730.0
2.4797000885009766,5.0,1845.0,796.0,22.0
2.482083320617676,63.0,5860.0,423.0,1219.0
2.484466552734375,49.0,7579.0,50.0,1234.0
2.4868500232696533,18.0,6752.0,35.0,2200.0
2.4892332553863525,10.0,5486.0,19.0,1864.0
2.491633415222168,13.0,1904.0,17.0,734.0
2.494016647338867,35.0,3146.0,25.0,1202.0
2.4964165687561035,22.0,3269.0,293.0,1479.0
2.498800039291382,10.0,2866.0,164.0,2203.0
2.5009665489196777,34.0,2799.0,34.0,32.0
2.501833438873291,28.0,5189.0,27.0,1658.0
2.502700090408325,8.0,4618.0,696.0,69.0
2.5035667419433594,33.0,4046.0,358.0,7.0
2.5044333934783936,27.0,2231.0,19.0,1410.0
2.5053000450134277,20.0,2882.0,40.0,635.0
2.506166696548462,8.0,4256.0,719.0,9.0
2.507033348083496,22.0,4570.0,365.0,1135.0
2.5078999996185303,0.0,5078.0,10.0,1628.0
2.5087666511535645,10.0,3833.0,523.0,1366.0
2.5096333026885986,25.0,2511.0,1496.0,1081.0
2.510499954223633,21.0,1445.0,770.0,373.0
2.5114333629608154,17.0,4579.0,44.0,490.0
2.5123000144958496,33.0,4871.0,158.0,381.0
2.513166666030884,49.0,4761.0,53.0,513.0
2.514033317565918,44.0,4651.0,12.0,645.0
2.514899969100952,0.0,4237.0,20.0,50.0
2.5157666206359863,5.0,3824.0,383.0,167.0
2.5166332721710205,16.0,4826.0,200.0,83.0
2.5174999237060547,27.0,4465.0,16.0,0.0
2.518366575241089,19.0,6120.0,34.0,29.0
2.519233226776123,23.0,310.0,238.0,57.0
2.5201001167297363,28.0,2093.0,134.0,1000.0
2.5209667682647705,27.0,3011.0,31.0,523.0
2.5218334197998047,27.0,1690.0,46.0,47.0
2.522700071334839,12.0,3013.0,588.0,1248.0
2.523566722869873,5.0,1227.0,299.0,1114.0
2.5244333744049072,34.0,3640.0,9.0,1987.0
2.5253000259399414,20.0,3306.0,33.0,1794.0
2.5261666774749756,17.0,2826.0,33.0,18.0
2.5270333290100098,13.0,2416.0,33.0,34.0
2.527933359146118,23.0,3150.0,25.0,144.0
2.5288166999816895,29.0,1860.0,16.0,75.0
2.5296833515167236,48.0,1485.0,20.0,5.0
2.530550003051758,39.0,30.0,25.0,733.0
2.531416654586792,31.0,2497.0,34.0,369.0
2.532283306121826,7.0,2096.0,29.0,5.0
2.5331499576568604,0.0,1694.0,23.0,5.0
2.5340166091918945,37.0,2221.0,15.0,12.0
2.5348832607269287,39.0,1148.0,5.0,18.0
2.535749912261963,38.0,3439.0,20.0,152.0
2.536616563796997,39.0,4606.0,16.0,286.0
2.5374832153320312,40.0,3697.0,11.0,514.0
2.5383501052856445,31.0,3604.0,13.0,2527.0
2.5392167568206787,0.0,3537.0,14.0,2020.0
2.540083408355713,48.0,3704.0,25.0,637.0
2.540950059890747,22.0,1264.0,47.0,523.0
2.5418167114257812,5.0,299.0,380.0,607.0
2.5426833629608154,38.0,4042.0,190.0,690.0
2.5435500144958496,49.0,2769.0,0.0,1101.0
2.544416666030884,29.0,1496.0,3.0,5.0
2.5453500747680664,35.0,2565.0,5.0,30.0
2.5462167263031006,28.0,1685.0,373.0,314.0
2.5470833778381348,15.0,1513.0,215.0,19.0
2.547950029373169,26.0,1979.0,56.0,38.0
2.548816680908203,22.0,1278.0,21.0,21.0
2.5496833324432373,31.0,1949.0,248.0,425.0
2.5505499839782715,39.0,1753.0,127.0,829.0
2.5514166355133057,13.0,1557.0,7.0,579.0
2.55228328704834,0.0,3756.0,12.0,329.0
2.553149938583374,21.0,3741.0,16.0,20.0
2.554016590118408,23.0,5075.0,22.0,135.0
2.5548832416534424,26.0,1142.0,50.0,249.0
2.5557498931884766,0.0,2137.0,742.0,138.0
2.55661678314209,10.0,2563.0,648.0,28.0
2.557483434677124,13.0,620.0,15.0,44.0
2.558350086212158,29.0,519.0,16.0,41.0
2.5592167377471924,33.0,1319.0,5.0,96.0
2.5600833892822266,0.0,1607.0,13.0,150.0
2.5609500408172607,5.0,1894.0,27.0,101.0
2.561850070953369,11.0,769.0,40.0,52.0
2.5627334117889404,16.0,1132.0,37.0,33.0
2.5636000633239746,32.0,478.0,34.0,13.0
2.564466714859009,34.0,2044.0,42.0,5.0
2.565333366394043,20.0,2306.0,65.0,19.0
2.566200017929077,7.0,2557.0,332.0,15.0
2.5670666694641113,13.0,1385.0,188.0,10.0
2.5679333209991455,5.0,1240.0,44.0,826.0
2.5687999725341797,20.0,25.0,25.0,1028.0
2.569666624069214,19.0,2717.0,36.0,802.0
2.570533275604248,17.0,3145.0,26.0,622.0
2.5713999271392822,9.0,2817.0,16.0,20.0
2.5722665786743164,42.0,27.0,35.0,33.0
2.5731332302093506,37.0,2043.0,48.0,56.0
2.5739998817443848,38.0,1821.0,319.0,39.0
2.574866771697998,35.0,1268.0,192.0,22.0
2.5757334232330322,33.0,5369.0,65.0,289.0
2.5766000747680664,32.0,5943.0,32.0,158.0
2.5774667263031006,18.0,891.0,303.0,27.0
2.5783333778381348,32.0,2626.0,575.0,18.0
2.5792665481567383,6.0,411.0,449.0,10.0
2.5801334381103516,9.0,1385.0,543.0,16.0
2.5810000896453857,12.0,1786.0,359.0,22.0
2.58186674118042,10.0,2323.0,15.0,27.0
2.582733392715454,11.0,839.0,27.0,27.0
2.5836000442504883,14.0,2311.0,30.0,27.0
2.5844666957855225,17.0,1491.0,5.0,38.0
2.5853333473205566,20.0,1939.0,28.0,123.0
2.586199998855591,23.0,631.0,728.0,96.0
2.587066650390625,22.0,345.0,389.0,69.0
2.587933301925659,21.0,58.0,49.0,107.0
2.5887999534606934,5.0,860.0,597.0,145.0
2.5896666049957275,44.0,1662.0,35.0,105.0
2.5905332565307617,34.0,1282.0,35.0,64.0
2.591399908065796,5.0,901.0,36.0,49.0
2.59226655960083,32.0,1177.0,20.0,33.0
2.5931334495544434,18.0,1454.0,5.0,50.0
2.5940001010894775,5.0,1104.0,14.0,5.0
2.5948667526245117,12.0,1286.0,21.0,658.0
2.59576678276062,27.0,1468.0,11.0,1408.0
2.5966498851776123,29.0,696.0,0.0,928.0
2.5975167751312256,30.0,1485.0,34.0,20.0
2.5983834266662598,27.0,1054.0,19.0,732.0
2.599250078201294,26.0,623.0,5.0,0.0
2.600116729736328,16.0,29.0,8.0,34.0
2.6009833812713623,6.0,1745.0,11.0,5.0
2.6018500328063965,41.0,1649.0,40.0,14.0
2.6027166843414307,50.0,1553.0,37.0,13.0
2.603583335876465,19.0,1784.0,35.0,20.0
2.604449987411499,59.0,1818.0,54.0,28.0
2.605316638946533,10.0,1852.0,34.0,40.0
2.6061832904815674,0.0,30.0,13.0,25.0
2.6070499420166016,30.0,1019.0,36.0,10.0
2.6079165935516357,12.0,1970.0,68.0,72.0
2.60878324508667,20.0,40.0,39.0,42.0
2.609649896621704,23.0,3159.0,9.0,12.0
2.6105165481567383,27.0,2240.0,5.0,513.0
2.6113834381103516,7.0,594.0,11.0,277.0
2.6122500896453857,16.0,1123.0,11.0,41.0
2.6131832599639893,198.0,1972.0,11.0,15.0
2.6140499114990234,115.0,1673.0,16.0,472.0
2.6149165630340576,32.0,1507.0,11.0,253.0
2.615783214569092,131.0,970.0,6.0,35.0
2.616650104522705,19.0,1255.0,33.0,40.0
2.6175167560577393,33.0,18.0,16.0,33.0
2.6183834075927734,10.0,722.0,0.0,26.0
2.6192500591278076,17.0,32.0,7.0,44.0
2.620116710662842,23.0,779.0,14.0,1494.0
2.620983362197876,10.0,407.0,18.0,1492.0
2.62185001373291,18.0,34.0,9.0,54.0
2.6227166652679443,26.0,749.0,0.0,922.0
2.6235833168029785,96.0,54.0,11.0,485.0
2.6244499683380127,167.0,1287.0,0.0,49.0
2.625316619873047,570.0,963.0,21.0,51.0
2.626183271408081,535.0,1509.0,43.0,582.0
2.6270499229431152,500.0,492.0,35.0,468.0
2.6279165744781494,2077.0,1439.0,20.0,18.0
2.6287832260131836,3060.0,1140.0,5.0,19.0
2.629683256149292,3084.0,1305.0,23.0,25.0
2.6305665969848633,2657.0,0.0,14.0,15.0
2.6314332485198975,2230.0,2067.0,22.0,5.0
2.6322999000549316,2516.0,1161.0,31.0,12.0
2.633166551589966,2801.0,255.0,29.0,18.0
2.634033441543579,2172.0,15.0,6.0,14.0
2.6349000930786133,1544.0,41.0,15.0,10.0
2.6357667446136475,3280.0,66.0,23.0,8.0
2.6366333961486816,5016.0,528.0,21.0,5.0
2.637500047683716,5442.0,990.0,19.0,170.0
2.63836669921875,3776.0,1176.0,73.0,95.0
2.639233350753784,13120.0,1361.0,50.0,20.0
2.6401000022888184,11536.0,700.0,27.0,19.0
2.6409666538238525,10708.0,39.0,19.0,18.0
2.6418333053588867,7511.0,1295.0,12.0,0.0
2.642699956893921,12812.0,1407.0,0.0,16.0
2.643566608428955,10448.0,971.0,45.0,52.0
2.6444332599639893,8083.0,1188.0,37.0,55.0
2.6452999114990234,8928.0,253.0,30.0,0.0
2.6461665630340576,9772.0,1376.0,56.0,25.0
2.6470999717712402,9160.0,1382.0,61.0,383.0
2.6479666233062744,13368.0,2780.0,58.0,360.0
2.6488332748413086,11200.0,2368.0,55.0,338.0
2.6496999263763428,9028.0,577.0,36.0,31.0
2.650566577911377,12580.0,1544.0,67.0,10.0
2.651433229446411,19816.0,2237.0,30.0,16.0
2.6522998809814453,17552.0,1248.0,33.0,21.0
2.6531667709350586,13940.0,938.0,15.0,24.0
2.6540334224700928,15044.0,5.0,30.0,27.0
2.654900074005127,16700.0,41.0,45.0,23.0
2.655766725540161,11728.0,415.0,48.0,19.0
2.6566333770751953,12220.0,789.0,41.0,12.0
2.6575000286102295,13356.0,707.0,7.0,15.0
2.6583666801452637,11836.0,626.0,13.0,18.0
2.659233331680298,13048.0,1108.0,25.0,13.0
2.660099983215332,14260.0,1591.0,12.0,14.0
2.660966634750366,15008.0,8.0,0.0,17.0
2.6618332862854004,14592.0,2369.0,23.0,25.0
2.6626999378204346,11160.0,1160.0,8.0,29.0
2.663599967956543,11820.0,50.0,37.0,33.0
2.6644833087921143,7006.0,541.0,27.0,43.0
2.6653499603271484,8720.0,651.0,17.0,39.0
2.6662166118621826,15292.0,761.0,30.0,35.0
2.667083263397217,13408.0,531.0,5.0,25.0
2.667949914932251,12400.0,728.0,0.0,14.0
2.668816566467285,11396.0,925.0,10.0,37.0
2.6696832180023193,14208.0,983.0,16.0,59.0
2.6705501079559326,13432.0,1044.0,22.0,38.0
2.671416759490967,12652.0,1335.0,13.0,16.0
2.672283411026001,12692.0,1943.0,34.0,17.0
2.673150062561035,12728.0,2809.0,33.0,15.0
2.6740167140960693,14412.0,2820.0,33.0,5.0
2.6748833656311035,14632.0,807.0,1210.0,18.0
2.6757500171661377,12344.0,1030.0,1525.0,25.0
2.676616668701172,10156.0,818.0,95.0,14.0
2.677483320236206,19244.0,1217.0,36.0,24.0
2.6783499717712402,18184.0,1615.0,314.0,34.0
2.6792166233062744,23332.0,159.0,21.0,41.0
2.6800832748413086,15372.0,44.0,23.0,33.0
2.681016683578491,17552.0,2064.0,25.0,26.0
2.6818833351135254,13188.0,2399.0,23.0,12.0
2.6827499866485596,14372.0,1799.0,21.0,30.0
2.6836166381835938,7772.0,840.0,18.0,17.0
2.684483289718628,12972.0,412.0,15.0,5.0
2.685349941253662,18172.0,594.0,12.0,25.0
2.6862165927886963,13908.0,32.0,32.0,22.0
2.6870832443237305,19320.0,1582.0,41.0,20.0
2.6879498958587646,16048.0,2366.0,51.0,30.0
2.688816785812378,14392.0,1727.0,5.0,28.0
2.689683437347412,15636.0,2527.0,12.0,27.0
2.6905500888824463,16880.0,19.0,18.0,14.0
2.6914167404174805,20800.0,60.0,25.0,5.0
2.6922833919525146,20052.0,712.0,31.0,11.0
2.693150043487549,17780.0,370.0,26.0,17.0
2.694016695022583,21252.0,203.0,20.0,14.0
2.694883346557617,23160.0,37.0,22.0,11.0
2.6957499980926514,16872.0,1672.0,25.0,23.0
2.6966166496276855,18272.0,844.0,15.0,36.0
2.697516679763794,16484.0,15.0,5.0,33.0
2.6984000205993652,15856.0,763.0,0.0,31.0
2.6992666721343994,15228.0,0.0,5.0,40.0
