,303.1099853515625,304.1099853515625,305.1099853515625,306.1099853515625,307.1099853515625,308.1099853515625
0.5012999773025513,12.0,89.0,26.0,21.0,16.0,0.0
0.5026000142097473,10.0,49.0,30.0,11.0,11.0,21.0
0.5038999915122986,13.0,43.0,7.0,26.0,42.0,27.0
0.5052000284194946,0.0,26.0,25.0,23.0,16.0,0.0
0.5065000057220459,7.0,13.0,32.0,5.0,15.0,26.0
0.5077999830245972,15.0,21.0,40.0,29.0,29.0,43.0
0.5091000199317932,15.0,29.0,23.0,24.0,6.0,37.0
0.5103999972343445,19.0,24.0,10.0,18.0,21.0,31.0
0.5116999745368958,17.0,5.0,39.0,14.0,5.0,25.0
0.5130000114440918,15.0,30.0,5.0,10.0,8.0,22.0
0.5142999887466431,5.0,18.0,5.0,10.0,11.0,5.0
0.5156000256538391,18.0,15.0,84.0,7.0,10.0,21.0
0.5169000029563904,14.0,10.0,56.0,10.0,10.0,31.0
0.5182499885559082,10.0,23.0,28.0,5.0,18.0,13.0
0.5195500254631042,21.0,0.0,27.0,5.0,14.0,31.0
0.5208666920661926,27.0,5.0,12.0,5.0,10.0,23.0
0.5221499800682068,22.0,0.0,16.0,2.0,10.0,6.0
0.5234500169754028,0.0,24.0,15.0,0.0,17.0,5.0
0.5247499942779541,10.0,21.0,10.0,0.0,17.0,25.0
0.5260499715805054,14.0,5.0,6.0,0.0,17.0,7.0
0.5273500084877014,5.0,6.0,7.0,5.0,27.0,11.0
0.5286499857902527,12.0,10.0,24.0,10.0,37.0,16.0
0.5299500226974487,19.0,47.0,28.0,7.0,33.0,7.0
0.53125,25.0,60.0,22.0,5.0,6.0,5.0
0.5325666666030884,28.0,0.0,16.0,44.0,30.0,15.0
0.5338666439056396,24.0,24.0,0.0,45.0,5.0,23.0
0.535183310508728,17.0,0.0,25.0,15.0,38.0,31.0
0.5364833474159241,10.0,6.0,34.0,10.0,32.0,18.0
0.5377833247184753,49.0,12.0,5.0,5.0,5.0,6.0
0.5390833616256714,29.0,12.0,0.0,5.0,5.0,38.0
0.5403833389282227,10.0,41.0,14.0,6.0,25.0,28.0
0.5416833162307739,0.0,33.0,29.0,29.0,5.0,19.0
0.54298335313797,20.0,9.0,27.0,30.0,27.0,11.0
0.5442833304405212,23.0,25.0,0.0,31.0,34.0,30.0
0.5455833077430725,42.0,21.0,10.0,15.0,22.0,39.0
0.5468833446502686,46.0,26.0,25.0,15.0,10.0,53.0
0.5481833219528198,10.0,27.0,15.0,29.0,18.0,0.0
0.5494833588600159,53.0,42.0,12.0,29.0,17.0,29.0
0.5508166551589966,5.0,0.0,1024.0,30.0,16.0,49.0
0.5521500110626221,35.0,11.0,1046.0,20.0,14.0,39.0
0.5534499883651733,19.0,26.0,20.0,5.0,0.0,5.0
0.5547500252723694,7.0,17.0,10.0,6.0,22.0,5.0
0.5560500025749207,17.0,15.0,24.0,20.0,30.0,40.0
0.5573499798774719,17.0,30.0,12.0,12.0,0.0,29.0
0.558650016784668,17.0,48.0,16.0,5.0,7.0,15.0
0.5599499940872192,32.0,32.0,20.0,10.0,17.0,17.0
0.5612499713897705,27.0,16.0,10.0,11.0,5.0,24.0
0.5625500082969666,23.0,0.0,7.0,12.0,6.0,10.0
0.5638499855995178,26.0,17.0,5.0,10.0,24.0,24.0
0.5651500225067139,26.0,15.0,37.0,10.0,28.0,10.0
0.5664499998092651,26.0,15.0,36.0,11.0,47.0,31.0
0.5677833557128906,25.0,6.0,17.0,41.0,38.0,20.0
0.569100022315979,27.0,13.0,40.0,35.0,20.0,10.0
0.5703999996185303,25.0,14.0,13.0,49.0,35.0,5.0
0.5716999769210815,24.0,0.0,25.0,43.0,0.0,18.0
0.5730000138282776,18.0,43.0,40.0,31.0,57.0,17.0
0.5742999911308289,27.0,45.0,31.0,27.0,36.0,16.0
0.5756000280380249,37.0,43.0,22.0,5.0,15.0,26.0
0.5769000053405762,39.0,17.0,21.0,38.0,25.0,35.0
0.5781999826431274,25.0,13.0,43.0,48.0,29.0,0.0
0.5795000195503235,27.0,55.0,33.0,14.0,21.0,46.0
0.5807999968528748,16.0,32.0,24.0,21.0,0.0,27.0
0.582099974155426,23.0,10.0,36.0,15.0,17.0,42.0
0.5834000110626221,30.0,10.0,10.0,12.0,14.0,10.0
0.5847499966621399,10.0,45.0,47.0,17.0,7.0,24.0
0.5860666632652283,6.0,43.0,0.0,11.0,0.0,35.0
0.5873666405677795,37.0,15.0,43.0,5.0,10.0,22.0
0.5886666774749756,21.0,14.0,25.0,24.0,15.0,8.0
0.5899666547775269,15.0,20.0,11.0,19.0,36.0,46.0
0.5912666916847229,10.0,16.0,27.0,15.0,41.0,34.0
0.5925666689872742,5.0,12.0,5.0,5.0,38.0,28.0
0.5938666462898254,18.0,19.0,19.0,37.0,5.0,28.0
0.5951666831970215,9.0,27.0,34.0,51.0,24.0,49.0
0.5964666604995728,0.0,30.0,33.0,64.0,18.0,29.0
0.597766637802124,11.0,27.0,32.0,24.0,27.0,10.0
0.5990666747093201,22.0,25.0,13.0,15.0,27.0,11.0
0.6003666520118713,32.0,28.0,13.0,21.0,26.0,22.0
0.6017000079154968,28.0,27.0,29.0,24.0,14.0,13.0
0.6030166745185852,24.0,26.0,17.0,28.0,15.0,5.0
0.6043166518211365,16.0,14.0,33.0,21.0,27.0,18.0
0.6056166887283325,5.0,12.0,13.0,20.0,48.0,31.0
0.6069166660308838,23.0,10.0,16.0,23.0,44.0,43.0
0.6082166433334351,20.0,16.0,20.0,30.0,5.0,25.0
0.6095166802406311,17.0,47.0,27.0,20.0,37.0,10.0
0.6108166575431824,22.0,36.0,35.0,10.0,5.0,21.0
0.6121166944503784,27.0,25.0,35.0,5.0,11.0,22.0
0.6134166717529297,0.0,7.0,27.0,30.0,39.0,18.0
0.614716649055481,26.0,29.0,44.0,21.0,20.0,17.0
0.6160333156585693,15.0,0.0,0.0,33.0,0.0,16.0
0.6173333525657654,5.0,20.0,25.0,21.0,36.0,5.0
0.6186500191688538,23.0,21.0,54.0,10.0,20.0,28.0
0.619949996471405,10.0,22.0,29.0,17.0,24.0,37.0
0.6212499737739563,10.0,35.0,10.0,8.0,0.0,39.0
0.6225500106811523,11.0,0.0,10.0,0.0,6.0,5.0
0.6238499879837036,45.0,12.0,28.0,10.0,28.0,31.0
0.6251500248908997,25.0,23.0,25.0,20.0,38.0,11.0
0.6264500021934509,5.0,5.0,23.0,16.0,49.0,34.0
0.6277499794960022,0.0,28.0,5.0,12.0,10.0,22.0
0.6290500164031982,14.0,29.0,10.0,5.0,0.0,29.0
0.6303499937057495,23.0,0.0,5.0,11.0,22.0,36.0
0.6316499710083008,22.0,47.0,23.0,17.0,26.0,21.0
0.6329500079154968,31.0,20.0,33.0,33.0,28.0,29.0
0.6342499852180481,5.0,19.0,27.0,49.0,31.0,15.0
0.635616660118103,7.0,33.0,22.0,38.0,33.0,41.0
0.6369166374206543,21.0,37.0,43.0,15.0,21.0,34.0
0.6382166743278503,11.0,24.0,44.0,19.0,16.0,16.0
0.6395166516304016,23.0,16.0,45.0,40.0,16.0,10.0
0.6408166885375977,36.0,23.0,17.0,26.0,17.0,26.0
0.6421166658401489,35.0,10.0,5.0,12.0,46.0,32.0
0.6434166431427002,50.0,17.0,21.0,37.0,28.0,24.0
0.6447166800498962,45.0,19.0,29.0,18.0,10.0,10.0
0.6460166573524475,5.0,19.0,30.0,30.0,49.0,17.0
0.6473166942596436,0.0,19.0,32.0,38.0,10.0,25.0
0.6486166715621948,53.0,10.0,22.0,22.0,35.0,28.0
0.6499166488647461,44.0,10.0,12.0,16.0,66.0,31.0
0.6512166857719421,15.0,11.0,11.0,26.0,34.0,32.0
0.65256667137146,13.0,13.0,10.0,26.0,15.0,21.0
0.6538666486740112,34.0,15.0,0.0,16.0,28.0,17.0
0.6551666855812073,29.0,18.0,7.0,0.0,0.0,10.0
0.6564666628837585,23.0,20.0,22.0,49.0,18.0,29.0
0.6577666401863098,17.0,15.0,47.0,33.0,30.0,30.0
0.6590666770935059,0.0,10.0,54.0,11.0,33.0,22.0
0.6603666543960571,32.0,5.0,41.0,25.0,37.0,23.0
0.6616666913032532,36.0,6.0,19.0,7.0,0.0,24.0
0.6629666686058044,34.0,7.0,59.0,27.0,0.0,21.0
0.6642666459083557,0.0,11.0,5.0,19.0,0.0,19.0
0.6655666828155518,13.0,16.0,0.0,11.0,33.0,21.0
0.666866660118103,5.0,15.0,10.0,7.0,22.0,23.0
0.6681666374206543,5.0,14.0,7.0,9.0,11.0,19.0
0.6695333123207092,5.0,10.0,5.0,12.0,9.0,15.0
0.6708333492279053,11.0,36.0,8.0,0.0,45.0,28.0
0.6721333265304565,18.0,43.0,11.0,3.0,25.0,0.0
0.6734333038330078,20.0,30.0,19.0,7.0,5.0,5.0
0.6747333407402039,22.0,29.0,28.0,15.0,62.0,0.0
0.6760333180427551,23.0,29.0,30.0,23.0,32.0,11.0
0.6773333549499512,25.0,0.0,10.0,30.0,5.0,9.0
0.6786333322525024,13.0,25.0,15.0,24.0,10.0,7.0
0.6799333095550537,26.0,22.0,45.0,19.0,16.0,17.0
0.6812333464622498,40.0,19.0,34.0,34.0,13.0,11.0
0.682533323764801,33.0,5.0,33.0,34.0,10.0,5.0
0.6838333606719971,5.0,16.0,6.0,34.0,5.0,13.0
0.6851333379745483,15.0,5.0,30.0,15.0,5.0,34.0
0.6864833235740662,16.0,16.0,0.0,25.0,5.0,34.0
0.6877833604812622,22.0,11.0,27.0,34.0,22.0,10.0
0.6890833377838135,12.0,5.0,30.0,26.0,31.0,38.0
0.6903833150863647,15.0,18.0,0.0,13.0,40.0,13.0
0.6916833519935608,30.0,16.0,10.0,7.0,30.0,37.0
0.6930000185966492,25.0,15.0,14.0,0.0,21.0,26.0
0.6942833065986633,5.0,43.0,18.0,15.0,18.0,16.0
0.6955833435058594,10.0,39.0,10.0,10.0,19.0,31.0
0.6969000101089478,5.0,21.0,7.0,6.0,16.0,37.0
0.698199987411499,5.0,21.0,5.0,21.0,10.0,0.0
0.699483335018158,5.0,16.0,18.0,36.0,16.0,17.0
0.7007833123207092,10.0,12.0,14.0,40.0,24.0,35.0
0.7020833492279053,16.0,31.0,11.0,34.0,23.0,39.0
0.7034500241279602,16.0,0.0,0.0,18.0,23.0,43.0
0.7047500014305115,16.0,26.0,7.0,8.0,5.0,21.0
0.7060499787330627,5.0,15.0,10.0,10.0,5.0,14.0
0.7073500156402588,15.0,25.0,10.0,46.0,7.0,14.0
0.7086499929428101,24.0,24.0,11.0,25.0,7.0,15.0
0.7099499702453613,27.0,22.0,0.0,5.0,6.0,23.0
0.7112500071525574,30.0,19.0,16.0,35.0,7.0,32.0
0.7125499844551086,28.0,12.0,24.0,58.0,6.0,36.0
0.7138500213623047,5.0,6.0,17.0,42.0,5.0,40.0
0.715149998664856,19.0,11.0,17.0,15.0,5.0,0.0
0.7164499759674072,33.0,19.0,17.0,40.0,6.0,5.0
0.7177500128746033,33.0,15.0,23.0,5.0,15.0,13.0
0.7190499901771545,25.0,11.0,17.0,37.0,43.0,13.0
0.7203999757766724,17.0,46.0,12.0,28.0,37.0,13.0
0.7217000126838684,21.0,40.0,17.0,20.0,47.0,30.0
0.7229999899864197,26.0,34.0,28.0,11.0,5.0,30.0
0.7243000268936157,7.0,23.0,22.0,22.0,28.0,8.0
0.725600004196167,17.0,5.0,16.0,23.0,11.0,17.0
0.7268999814987183,14.0,17.0,5.0,24.0,25.0,45.0
0.7282000184059143,5.0,11.0,8.0,28.0,0.0,49.0
0.7294999957084656,32.0,5.0,11.0,108.0,17.0,11.0
0.7307999730110168,29.0,18.0,15.0,81.0,17.0,26.0
0.7321000099182129,26.0,25.0,15.0,55.0,16.0,31.0
0.7333999872207642,21.0,32.0,17.0,10.0,15.0,32.0
0.7347000241279602,16.0,38.0,14.0,14.0,23.0,0.0
0.7360000014305115,27.0,14.0,16.0,38.0,25.0,21.0
0.7373666763305664,5.0,15.0,10.0,24.0,27.0,10.0
0.7386666536331177,0.0,15.0,5.0,15.0,15.0,30.0
0.7399666905403137,12.0,15.0,37.0,22.0,23.0,23.0
0.741266667842865,27.0,21.0,33.0,5.0,31.0,36.0
0.7425666451454163,43.0,5.0,44.0,10.0,37.0,28.0
0.7438666820526123,45.0,5.0,27.0,25.0,22.0,20.0
0.7451666593551636,30.0,8.0,10.0,43.0,10.0,13.0
0.7464666962623596,16.0,11.0,29.0,69.0,29.0,7.0
0.7477666735649109,7.0,14.0,0.0,42.0,7.0,13.0
0.7490666508674622,13.0,12.0,29.0,16.0,5.0,11.0
0.7503666877746582,18.0,10.0,46.0,39.0,2.0,10.0
0.7516666650772095,23.0,28.0,39.0,5.0,0.0,5.0
0.7529666423797607,5.0,27.0,29.0,29.0,11.0,0.0
0.7543166875839233,0.0,27.0,19.0,19.0,8.0,10.0
0.7556166648864746,6.0,21.0,16.0,10.0,5.0,14.0
0.7569166421890259,14.0,15.0,13.0,0.0,42.0,19.0
0.7582166790962219,22.0,45.0,16.0,5.0,21.0,17.0
0.7595166563987732,14.0,45.0,31.0,39.0,0.0,18.0
0.7608166933059692,6.0,48.0,29.0,34.0,17.0,19.0
0.7621166706085205,8.0,5.0,28.0,33.0,20.0,25.0
0.7634166479110718,10.0,8.0,41.0,32.0,12.0,85.0
0.7647166848182678,16.0,30.0,15.0,0.0,5.0,43.0
0.7660333514213562,17.0,21.0,15.0,22.0,31.0,0.0
0.7673166394233704,17.0,42.0,5.0,25.0,62.0,38.0
0.7686333060264587,5.0,28.0,38.0,0.0,64.0,46.0
0.7699166536331177,15.0,5.0,32.0,25.0,5.0,17.0
0.7712833285331726,19.0,21.0,48.0,34.0,40.0,0.0
0.7725833058357239,12.0,21.0,0.0,48.0,23.0,34.0
0.7738833427429199,5.0,21.0,16.0,45.0,10.0,5.0
0.7751833200454712,25.0,23.0,20.0,33.0,12.0,12.0
0.7764833569526672,49.0,32.0,22.0,19.0,5.0,5.0
0.7777833342552185,29.0,43.0,24.0,5.0,29.0,15.0
0.7790833115577698,9.0,25.0,14.0,5.0,28.0,25.0
0.7803833484649658,9.0,7.0,13.0,5.0,28.0,21.0
0.7816833257675171,10.0,11.0,13.0,6.0,12.0,34.0
0.7829833626747131,5.0,26.0,74.0,10.0,10.0,28.0
0.7842833399772644,0.0,211.0,46.0,15.0,10.0,21.0
0.7855833172798157,39.0,235.0,18.0,60.0,10.0,21.0
0.7868833541870117,52.0,38.0,31.0,42.0,10.0,18.0
0.7882333397865295,49.0,1839.0,1521.0,24.0,4025.0,15.0
0.7895333170890808,46.0,8046.0,13332.0,14036.0,15716.0,4846.0
0.7908333539962769,0.0,31392.0,56176.0,60528.0,50720.0,15464.0
0.7921333312988281,34.0,125120.0,169216.0,133632.0,106368.0,29608.0
0.7934333086013794,104.0,281920.0,428480.0,296896.0,228096.0,78176.0
0.7947333455085754,86.0,472640.0,678400.0,499712.0,342016.0,114240.0
0.7960333228111267,69.0,713472.0,963072.0,668160.0,482624.0,171584.0
0.7973333597183228,54.0,887296.0,1172480.0,808448.0,517056.0,199296.0
0.798633337020874,57.0,936960.0,1368320.0,903680.0,613632.0,199424.0
0.7999333143234253,108.0,1046016.0,1491968.0,906496.0,597248.0,182080.0
0.8012333512306213,159.0,1093888.0,1584640.0,996864.0,687104.0,216768.0
0.8025333285331726,120.0,1126656.0,1682432.0,1071360.0,737792.0,224000.0
0.8038333058357239,155.0,1213440.0,1624064.0,1096192.0,731136.0,264768.0
0.8051999807357788,135.0,1257216.0,1659392.0,1163520.0,713216.0,266560.0
0.8065000176429749,115.0,1230592.0,1694464.0,1105920.0,732416.0,240064.0
0.8077999949455261,115.0,1254656.0,1721856.0,1225216.0,751872.0,265664.0
0.8090999722480774,114.0,1264384.0,1702912.0,1238272.0,753152.0,258624.0
0.8104000091552734,157.0,1269248.0,1684224.0,1043200.0,754432.0,237760.0
0.8116999864578247,220.0,1276416.0,1704192.0,1220096.0,751104.0,238016.0
0.8130000233650208,739.0,1283584.0,1724416.0,1152256.0,747776.0,250432.0
0.814300000667572,442.0,1277184.0,1743360.0,1172992.0,732928.0,226688.0
0.8155999779701233,144.0,1152512.0,1729792.0,1190656.0,718336.0,225536.0
0.8169000148773193,172.0,1168640.0,1607936.0,1096192.0,720640.0,242560.0
0.8181999921798706,159.0,1140736.0,1567744.0,1007616.0,625408.0,215808.0
0.8195000290870667,145.0,1156608.0,1540096.0,1029888.0,681472.0,215488.0
0.8208000063896179,113.0,1076224.0,1549568.0,1023232.0,624640.0,210496.0
0.8221666812896729,179.0,1017856.0,1350656.0,900096.0,615168.0,158592.0
0.8234666585922241,157.0,901632.0,1347328.0,912896.0,539904.0,174720.0
0.8247666954994202,135.0,960000.0,1275904.0,813056.0,525312.0,172480.0
0.8260666728019714,151.0,890112.0,1292544.0,753152.0,542464.0,162688.0
0.8273666501045227,167.0,787200.0,1199104.0,781312.0,489280.0,163456.0
0.8286666870117188,132.0,749312.0,1046528.0,693248.0,425024.0,142592.0
0.82996666431427,96.0,721408.0,974080.0,643840.0,430208.0,136640.0
0.8312666416168213,160.0,662272.0,875008.0,627712.0,381632.0,118896.0
0.8325666785240173,136.0,569344.0,827904.0,535296.0,339584.0,99104.0
0.8338666558265686,152.0,495360.0,679680.0,470976.0,316864.0,83216.0
0.8351666927337646,169.0,441920.0,632576.0,384000.0,245760.0,87248.0
0.8364666700363159,143.0,376704.0,541952.0,355136.0,210304.0,77856.0
0.8377666473388672,162.0,349248.0,462656.0,288128.0,182784.0,47216.0
0.8391333222389221,51.0,298240.0,390848.0,234304.0,168192.0,46592.0
0.8404333591461182,81.0,230528.0,366336.0,217216.0,148096.0,44816.0
0.8417333364486694,43.0,206272.0,289728.0,177024.0,120160.0,39456.0
0.8430333137512207,79.0,190464.0,250496.0,147520.0,90224.0,26872.0
0.8443333506584167,103.0,147712.0,201152.0,133120.0,71840.0,24168.0
0.845633327960968,126.0,130224.0,174592.0,105504.0,76256.0,28664.0
0.8469333052635193,71.0,112592.0,137856.0,116816.0,55808.0,10804.0
0.8482333421707153,40.0,95904.0,145472.0,96944.0,52080.0,9900.0
0.8495333194732666,76.0,82384.0,128400.0,67568.0,47056.0,14172.0
0.8508333563804626,74.0,63392.0,118592.0,89696.0,50288.0,14432.0
0.8521333336830139,43.0,71216.0,103152.0,68864.0,54624.0,11024.0
0.8534333109855652,67.0,68720.0,92432.0,77680.0,31080.0,9884.0
0.8547333478927612,55.0,66208.0,71392.0,56208.0,37424.0,10268.0
0.8561000227928162,59.0,68976.0,90800.0,59088.0,35712.0,9932.0
0.8573833107948303,63.0,68432.0,81152.0,61120.0,30292.0,9396.0
0.8586833477020264,41.0,51792.0,69376.0,41200.0,29644.0,10596.0
0.8599833250045776,20.0,63232.0,63856.0,41760.0,22972.0,11796.0
0.8612833619117737,58.0,52816.0,75456.0,40816.0,29892.0,3404.0
0.8626000285148621,69.0,48000.0,60688.0,41856.0,21368.0,6688.0
0.8639000058174133,25.0,52976.0,55168.0,36624.0,26692.0,6417.0
0.8651833534240723,73.0,56480.0,66336.0,40688.0,25788.0,3850.0
0.8664833307266235,55.0,47696.0,53856.0,39328.0,25344.0,5784.0
0.8677833080291748,46.0,46432.0,53168.0,39104.0,25064.0,4823.0
0.8690833449363708,30.0,37792.0,60704.0,38032.0,21048.0,6641.0
0.8703833222389221,13.0,44576.0,59872.0,30732.0,27840.0,7348.0
0.8716833591461182,32.0,33968.0,59024.0,27196.0,18440.0,4880.0
0.8730499744415283,29.0,34432.0,54896.0,40560.0,30972.0,8460.0
0.8743500113487244,27.0,36288.0,52064.0,29920.0,23844.0,6789.0
0.8756499886512756,32.0,30516.0,48656.0,30124.0,7913.0,5116.0
0.8769500255584717,37.0,35632.0,55456.0,29956.0,18760.0,5784.0
0.878250002861023,8.0,35920.0,44144.0,24712.0,13968.0,4725.0
0.8795499801635742,15.0,28304.0,41312.0,25724.0,18288.0,6433.0
0.8808500170707703,19.0,27264.0,43392.0,25900.0,12268.0,5156.0
0.8821499943733215,24.0,30728.0,37456.0,26384.0,20132.0,3880.0
0.8834499716758728,7.0,28476.0,44000.0,26864.0,15124.0,4842.0
0.8847500085830688,17.0,26228.0,43264.0,20928.0,13216.0,4967.0
0.8860499858856201,15.0,34880.0,36464.0,24420.0,11992.0,9740.0
0.8873500227928162,29.0,33776.0,37744.0,22456.0,18572.0,8912.0
0.8886500000953674,50.0,28928.0,41664.0,21612.0,17760.0,5126.0
0.8900166749954224,62.0,23972.0,42592.0,20060.0,14188.0,1718.0
0.8913166522979736,50.0,27528.0,43536.0,25812.0,18888.0,3619.0
0.8926166892051697,26.0,30940.0,32896.0,26752.0,18432.0,2002.0
0.893916666507721,13.0,25240.0,38928.0,27004.0,12852.0,384.0
0.8952166438102722,42.0,27796.0,29800.0,20280.0,18792.0,5073.0
0.8965166807174683,40.0,30348.0,35856.0,20068.0,13072.0,5439.0
0.8978166580200195,37.0,24592.0,31396.0,23520.0,16156.0,4411.0
0.8991166949272156,52.0,29012.0,34944.0,20340.0,20420.0,3043.0
0.9004166722297668,10.0,25544.0,25148.0,19056.0,15556.0,2312.0
0.9017166495323181,45.0,22076.0,36640.0,20172.0,10864.0,4534.0
0.9030166864395142,81.0,26148.0,24540.0,20692.0,11296.0,3096.0
0.9043166637420654,56.0,30220.0,30804.0,21216.0,16012.0,3826.0
0.9056166410446167,31.0,30732.0,31092.0,21540.0,12264.0,4556.0
0.9069666862487793,37.0,24020.0,33760.0,21864.0,15684.0,3664.0
0.9082666635513306,30.0,23956.0,30176.0,19580.0,12224.0,3505.0
0.9095666408538818,24.0,30756.0,26596.0,22520.0,15664.0,3519.0
0.9108666777610779,48.0,21756.0,36160.0,24436.0,13504.0,4195.0
0.9121666550636292,43.0,30860.0,29888.0,17432.0,15012.0,1624.0
0.9134666919708252,39.0,22640.0,32912.0,12000.0,15848.0,3546.0
0.9147666692733765,37.0,18432.0,27256.0,20528.0,12412.0,3353.0
0.9160666465759277,15.0,19684.0,26528.0,16352.0,8476.0,5502.0
0.9173666834831238,17.0,30632.0,27044.0,15384.0,16252.0,4769.0
0.918666660785675,37.0,32668.0,27564.0,14416.0,11936.0,3884.0
0.9199666380882263,10.0,29284.0,27492.0,20612.0,14320.0,5814.0
0.9212666749954224,47.0,28224.0,29648.0,19424.0,17924.0,5032.0
0.9225666522979736,44.0,29028.0,22988.0,18564.0,15288.0,3182.0
0.9239333271980286,52.0,26656.0,26728.0,15172.0,12652.0,3355.0
0.9252333045005798,36.0,31460.0,30472.0,20180.0,18184.0,2446.0
0.9265333414077759,20.0,38464.0,31184.0,22832.0,14740.0,1178.0
0.9278333187103271,25.0,35584.0,37024.0,23020.0,14488.0,2844.0
0.9291333556175232,25.0,24428.0,34720.0,17272.0,13228.0,5486.0
0.9304333329200745,26.0,30488.0,40912.0,19808.0,14528.0,5090.0
0.9317333102226257,0.0,27972.0,39632.0,24152.0,13908.0,6255.0
0.9330333471298218,10.0,31676.0,33232.0,23400.0,13284.0,4569.0
0.934333324432373,16.0,32016.0,35664.0,23448.0,13284.0,4690.0
0.9356333613395691,27.0,29980.0,40896.0,22996.0,13280.0,3030.0
0.9369333386421204,17.0,35600.0,37680.0,12772.0,15200.0,3623.0
0.9382333159446716,8.0,35104.0,37840.0,25004.0,14396.0,5182.0
0.9395333528518677,41.0,22772.0,43248.0,21800.0,13592.0,2434.0
0.9409000277519226,36.0,38112.0,32928.0,21848.0,14784.0,5813.0
0.9422000050544739,44.0,39904.0,32480.0,25424.0,11452.0,4281.0
0.9434999823570251,0.0,32712.0,34992.0,25196.0,12400.0,7771.0
0.9448000192642212,92.0,27712.0,33008.0,17108.0,11320.0,1281.0
0.9460999965667725,65.0,30264.0,31364.0,28364.0,10724.0,7714.0
0.9473999738693237,38.0,26776.0,34368.0,18140.0,10128.0,7650.0
0.9487000107765198,84.0,27516.0,31552.0,22452.0,13300.0,4454.0
0.949999988079071,24.0,28256.0,35664.0,21492.0,12404.0,7915.0
0.9513000249862671,10.0,42208.0,36464.0,21432.0,11512.0,1672.0
0.9526000022888184,36.0,39840.0,35328.0,20184.0,11756.0,5551.0
0.9538999795913696,22.0,31984.0,39328.0,18936.0,11996.0,3046.0
0.9552000164985657,22.0,38256.0,26404.0,20344.0,15984.0,6561.0
0.9564999938011169,22.0,28312.0,37968.0,19600.0,14712.0,5535.0
0.9578666687011719,10.0,32592.0,33936.0,18860.0,13440.0,5118.0
0.9591666460037231,22.0,30728.0,33440.0,15736.0,16868.0,5870.0
0.9604666829109192,0.0,23980.0,32928.0,26348.0,16060.0,5751.0
0.9617666602134705,34.0,26760.0,36400.0,30160.0,15252.0,5633.0
0.9630666375160217,36.0,34096.0,42768.0,26304.0,13252.0,6742.0
0.9643666744232178,17.0,29232.0,42576.0,24380.0,11256.0,4303.0
0.965666651725769,32.0,30196.0,42544.0,22212.0,15628.0,9296.0
0.9669666886329651,5.0,31164.0,44304.0,25060.0,17664.0,9424.0
0.9682666659355164,37.0,30348.0,41968.0,14352.0,16828.0,3536.0
0.9695666432380676,29.0,29536.0,39632.0,24280.0,17752.0,7530.0
0.9708666801452637,21.0,30356.0,38208.0,26384.0,18676.0,5332.0
0.9721666574478149,13.0,30964.0,39072.0,20600.0,18824.0,8356.0
0.973466694355011,11.0,30828.0,39920.0,31444.0,15628.0,6756.0
0.9748333096504211,10.0,32644.0,40240.0,28456.0,18172.0,8404.0
0.9761166572570801,10.0,34464.0,41376.0,23652.0,20712.0,3871.0
0.9774166941642761,67.0,34960.0,36928.0,29136.0,19284.0,8099.0
0.9787166714668274,82.0,35440.0,32464.0,18620.0,16784.0,7006.0
0.9800333380699158,21.0,38560.0,30620.0,28452.0,16896.0,9580.0
0.9813166856765747,15.0,30532.0,28776.0,33088.0,20204.0,7804.0
0.982616662979126,57.0,35792.0,41728.0,31876.0,21388.0,5965.0
0.9839166402816772,17.0,36080.0,42400.0,28320.0,22572.0,8010.0
0.9852166771888733,26.0,41984.0,40416.0,25836.0,22900.0,7625.0
0.9865166544914246,5.0,43632.0,38432.0,34400.0,18732.0,7240.0
0.9878166913986206,24.0,39680.0,50768.0,35808.0,19764.0,9160.0
0.989133358001709,43.0,36864.0,54384.0,33856.0,18476.0,4093.0
0.9904166460037231,37.0,41264.0,48960.0,34160.0,13680.0,7917.0
0.9917833209037781,84.0,36128.0,47168.0,25600.0,20296.0,9292.0
0.9930833578109741,54.0,32200.0,41248.0,34304.0,22608.0,6710.0
0.9943833351135254,25.0,29528.0,46896.0,25244.0,20924.0,8284.0
0.9956833124160767,35.0,38352.0,51456.0,26696.0,14828.0,4863.0
0.9969833493232727,63.0,33280.0,50672.0,34992.0,17072.0,8896.0
0.998283326625824,48.0,19836.0,48368.0,33376.0,20840.0,6567.0
0.9995833039283752,49.0,43248.0,46080.0,34896.0,20068.0,1727.0
1.0008833408355713,51.0,36784.0,44080.0,23548.0,19292.0,6421.0
1.0021833181381226,23.0,37600.0,41168.0,36160.0,17908.0,8224.0
1.0034832954406738,32.0,36224.0,38256.0,40512.0,22072.0,4665.0
1.0047833919525146,46.0,35824.0,41872.0,31332.0,26232.0,7749.0
1.006083369255066,35.0,35440.0,45504.0,29288.0,24612.0,4336.0
1.0073833465576172,25.0,34992.0,61280.0,28280.0,26276.0,6079.0
1.0087499618530273,34.0,34528.0,59632.0,27536.0,22452.0,7440.0
1.0100500583648682,30.0,32992.0,51824.0,26716.0,22092.0,6240.0
1.0113500356674194,27.0,31440.0,45936.0,25896.0,21732.0,6210.0
1.0126500129699707,30.0,44848.0,56688.0,28388.0,21092.0,8228.0
1.013949990272522,27.0,41680.0,59664.0,30880.0,20452.0,8228.0
1.0152499675750732,24.0,37920.0,58640.0,33696.0,27412.0,9216.0
1.0165499448776245,23.0,42768.0,59952.0,36512.0,25444.0,9016.0
1.0178500413894653,31.0,42304.0,61264.0,35168.0,23476.0,9392.0
1.0191500186920166,34.0,35264.0,73024.0,34656.0,15744.0,9772.0
1.0204499959945679,38.0,42992.0,73696.0,34128.0,30988.0,6517.0
1.0217499732971191,23.0,54176.0,65680.0,38064.0,26968.0,6223.0
1.0230499505996704,26.0,49136.0,53712.0,42000.0,21716.0,7642.0
1.0243500471115112,30.0,42416.0,64496.0,39856.0,22420.0,7798.0
1.0256999731063843,65.0,39120.0,59008.0,43280.0,27844.0,7953.0
1.0269999504089355,46.0,32768.0,67344.0,45568.0,24128.0,9000.0
1.0283000469207764,26.0,36672.0,70512.0,43808.0,23428.0,8724.0
1.0296000242233276,13.0,40560.0,60128.0,42064.0,24316.0,8448.0
1.030900001525879,36.0,53520.0,79840.0,39520.0,25208.0,10272.0
1.0321999788284302,60.0,50992.0,76240.0,45904.0,26232.0,10856.0
1.0334999561309814,49.0,51616.0,75456.0,42160.0,27256.0,11440.0
1.0348000526428223,36.0,48848.0,69216.0,38432.0,28204.0,8352.0
1.0361000299453735,22.0,56096.0,82832.0,46672.0,28728.0,8664.0
1.0374000072479248,10.0,56080.0,86752.0,44224.0,29248.0,6644.0
1.038699984550476,40.0,50960.0,77632.0,54272.0,29312.0,9112.0
1.0399999618530273,39.0,46048.0,65600.0,50880.0,32416.0,10468.0
1.0413000583648682,38.0,44960.0,69104.0,50000.0,35600.0,9284.0
1.0426666736602783,42.0,63040.0,73024.0,49120.0,32236.0,7358.0
1.0439666509628296,32.0,59248.0,62832.0,45136.0,28872.0,9152.0
1.0452666282653809,29.0,43232.0,63856.0,52240.0,42128.0,8152.0
1.0465667247772217,26.0,61600.0,68240.0,48416.0,42480.0,7151.0
1.047866702079773,43.0,54592.0,72624.0,53088.0,42848.0,7100.0
1.0491666793823242,5.0,58560.0,86880.0,53680.0,24040.0,7050.0
1.0504666566848755,23.0,65216.0,84064.0,58656.0,41264.0,12276.0
1.0517666339874268,26.0,63008.0,76736.0,54784.0,37472.0,14008.0
1.053066611289978,37.0,58528.0,82576.0,66080.0,41552.0,13700.0
1.0543667078018188,33.0,52208.0,86816.0,63472.0,38176.0,12472.0
1.0556666851043701,29.0,59920.0,82592.0,60848.0,33216.0,11240.0
1.0569666624069214,46.0,56160.0,85392.0,50128.0,44416.0,11940.0
1.0582666397094727,37.0,66880.0,88176.0,63728.0,32848.0,12312.0
1.0596333742141724,28.0,65536.0,85488.0,65616.0,44528.0,12688.0
1.0609333515167236,15.0,64192.0,86768.0,68224.0,38288.0,9552.0
1.062233328819275,26.0,62272.0,88064.0,58240.0,38960.0,10392.0
1.0635333061218262,37.0,60256.0,97936.0,59152.0,39808.0,11232.0
1.0648332834243774,29.0,58256.0,100144.0,46400.0,40816.0,11844.0
1.0661333799362183,24.0,76224.0,96192.0,69152.0,40224.0,12456.0
1.0674333572387695,27.0,71920.0,89328.0,66080.0,39616.0,11844.0
1.0687333345413208,19.0,64624.0,99008.0,73840.0,45264.0,17640.0
1.070033311843872,48.0,69360.0,93824.0,72304.0,50864.0,17308.0
1.0713332891464233,36.0,83168.0,88640.0,63440.0,50816.0,12388.0
1.0726333856582642,25.0,84656.0,102880.0,74848.0,41184.0,11436.0
1.0739333629608154,57.0,85248.0,103296.0,77568.0,60384.0,18672.0
1.0752333402633667,5.0,77856.0,103712.0,75184.0,57952.0,13376.0
1.0765999555587769,31.0,78256.0,110816.0,66560.0,60416.0,11560.0
1.0779000520706177,40.0,84704.0,116272.0,80928.0,54688.0,14416.0
1.079200029373169,11.0,65344.0,120480.0,74512.0,44992.0,12840.0
1.0805000066757202,19.0,59808.0,110288.0,70688.0,58112.0,12684.0
1.0817999839782715,65.0,87056.0,131776.0,84304.0,61008.0,12528.0
1.0830999612808228,47.0,86048.0,132224.0,76928.0,56800.0,20196.0
1.0844000577926636,39.0,80464.0,125120.0,78656.0,52480.0,21672.0
1.0857000350952148,51.0,84288.0,124736.0,80384.0,64912.0,12480.0
1.0870000123977661,40.0,88128.0,129872.0,82224.0,66880.0,11888.0
1.0882999897003174,39.0,81264.0,134976.0,84064.0,51584.0,19236.0
1.0895999670028687,54.0,80624.0,136192.0,86144.0,56592.0,22388.0
1.09089994430542,24.0,91728.0,129152.0,88208.0,57680.0,23748.0
1.0922000408172607,26.0,97888.0,134464.0,93568.0,59440.0,25152.0
1.093566656112671,21.0,94848.0,135040.0,87376.0,54624.0,19540.0
1.0948666334152222,40.0,92928.0,149824.0,81184.0,49808.0,21132.0
1.0961666107177734,44.0,93264.0,145472.0,83664.0,57216.0,22720.0
1.0974667072296143,5.0,93616.0,128128.0,86144.0,56480.0,24524.0
1.0987666845321655,71.0,100976.0,143168.0,88112.0,55744.0,18156.0
1.1000666618347168,56.0,114560.0,156480.0,90064.0,64016.0,20072.0
1.101366639137268,56.0,111360.0,157952.0,94352.0,65136.0,17540.0
1.1026666164398193,24.0,109488.0,153344.0,97424.0,66240.0,26012.0
1.1039667129516602,31.0,98176.0,148736.0,100496.0,57648.0,24100.0
1.1052666902542114,45.0,119728.0,177536.0,115456.0,67888.0,19552.0
1.1065666675567627,35.0,131904.0,172800.0,121664.0,65856.0,24772.0
1.107866644859314,51.0,117552.0,154432.0,117856.0,78048.0,23676.0
1.1091666221618652,15.0,121984.0,179072.0,96816.0,76880.0,29544.0
1.1105166673660278,44.0,130720.0,179328.0,121904.0,74944.0,25212.0
1.111816644668579,72.0,118928.0,190016.0,124384.0,75424.0,20880.0
1.1131166219711304,81.0,120928.0,169088.0,119664.0,75920.0,22012.0
1.1144167184829712,60.0,125824.0,175040.0,120064.0,73632.0,26224.0
1.1157166957855225,89.0,124896.0,187904.0,120464.0,81392.0,20552.0
1.1170166730880737,16.0,125008.0,187520.0,118720.0,82512.0,26080.0
1.118316650390625,34.0,125120.0,187072.0,116976.0,86640.0,25384.0
1.1196166276931763,37.0,127984.0,202624.0,123600.0,85792.0,25676.0
1.120916724205017,40.0,130832.0,201920.0,130208.0,90464.0,22928.0
1.1222167015075684,5.0,146560.0,201280.0,127856.0,78048.0,20632.0
1.1235166788101196,22.0,147200.0,196800.0,139136.0,75936.0,18340.0
1.124816656112671,39.0,139776.0,198080.0,136768.0,87216.0,27592.0
1.1261166334152222,40.0,133376.0,199424.0,134464.0,96272.0,30012.0
1.1274499893188477,40.0,154112.0,207424.0,138176.0,98128.0,32436.0
1.128749966621399,47.0,155328.0,208832.0,139776.0,93520.0,33408.0
1.1300499439239502,54.0,133696.0,210176.0,141440.0,94304.0,28416.0
1.131350040435791,5.0,143424.0,199552.0,147392.0,96064.0,34368.0
1.1326500177383423,5.0,157248.0,221952.0,153280.0,93168.0,31484.0
1.1339499950408936,61.0,178240.0,220224.0,154368.0,90256.0,28600.0
1.1352499723434448,68.0,167040.0,235968.0,164224.0,103152.0,32064.0
1.136549949645996,52.0,158976.0,227712.0,164928.0,105968.0,31704.0
1.137850046157837,88.0,164160.0,233344.0,154048.0,97568.0,32524.0
1.1391500234603882,10.0,159552.0,239040.0,135296.0,100832.0,33344.0
1.1404500007629395,48.0,163392.0,233984.0,141760.0,101264.0,31244.0
1.1417499780654907,40.0,162176.0,228928.0,154496.0,116448.0,29144.0
1.143049955368042,29.0,181120.0,270848.0,157120.0,123456.0,23628.0
1.1444166898727417,28.0,176192.0,261440.0,153472.0,119856.0,37088.0
1.145716667175293,27.0,194560.0,234048.0,149824.0,118496.0,36208.0
1.1470166444778442,26.0,188928.0,269568.0,159104.0,117120.0,40272.0
1.1483166217803955,44.0,181696.0,267136.0,161344.0,119920.0,40176.0
1.1496167182922363,49.0,190272.0,262848.0,163648.0,122512.0,28280.0
1.1509166955947876,54.0,177536.0,266624.0,171776.0,130288.0,44512.0
1.1522166728973389,65.0,181376.0,252544.0,179840.0,104784.0,39008.0
1.1535166501998901,55.0,185216.0,274624.0,204672.0,116672.0,38512.0
1.1548166275024414,45.0,179008.0,296896.0,195776.0,110656.0,33232.0
1.1561167240142822,33.0,185280.0,299456.0,200960.0,117824.0,38144.0
1.1574167013168335,22.0,191488.0,297536.0,181568.0,127280.0,43072.0
1.1587166786193848,63.0,192576.0,294272.0,201792.0,123072.0,46240.0
1.160016655921936,94.0,183936.0,282944.0,175424.0,126704.0,36240.0
1.1613833904266357,78.0,210560.0,271552.0,190912.0,130320.0,33008.0
1.162683367729187,33.0,211392.0,311296.0,202688.0,135552.0,51136.0
1.1639833450317383,98.0,210368.0,306304.0,203840.0,112816.0,44432.0
1.1652833223342896,56.0,209344.0,319424.0,204160.0,139776.0,34384.0
1.1665832996368408,90.0,211264.0,320576.0,204480.0,144448.0,41632.0
1.167883276939392,110.0,234752.0,339456.0,208640.0,151872.0,42016.0
1.169183373451233,74.0,229312.0,340416.0,223552.0,145088.0,42416.0
1.1704833507537842,26.0,223808.0,327360.0,225920.0,132288.0,42112.0
1.1717833280563354,19.0,230016.0,339392.0,219584.0,129600.0,41808.0
1.1730833053588867,13.0,225856.0,351360.0,213184.0,149696.0,47072.0
1.174383282661438,26.0,226368.0,359744.0,225088.0,141248.0,66208.0
1.1756833791732788,40.0,226880.0,368192.0,232832.0,132800.0,67408.0
1.17698335647583,47.0,250816.0,334720.0,230976.0,147648.0,39264.0
1.1783332824707031,54.0,261696.0,338944.0,229184.0,163008.0,56496.0
1.179633378982544,60.0,269760.0,358336.0,236288.0,164864.0,51968.0
1.1809333562850952,54.0,260864.0,386944.0,239680.0,166720.0,48432.0
1.1822333335876465,62.0,273920.0,409472.0,241344.0,168128.0,49520.0
1.1835333108901978,69.0,290816.0,392000.0,243072.0,169472.0,50592.0
1.184833288192749,77.0,292736.0,421632.0,246784.0,170432.0,53136.0
1.1861333847045898,47.0,287936.0,418368.0,250560.0,182592.0,55680.0
1.1874333620071411,63.0,290176.0,421824.0,265664.0,187072.0,55712.0
1.1887333393096924,69.0,251648.0,421184.0,262592.0,178240.0,64896.0
1.1900333166122437,75.0,283968.0,426624.0,289216.0,189312.0,64416.0
1.191333293914795,36.0,310016.0,459968.0,285632.0,208320.0,63936.0
1.1926333904266357,94.0,307072.0,452800.0,280256.0,202368.0,57616.0
1.193933367729187,85.0,300352.0,455424.0,289216.0,204736.0,48512.0
1.1952667236328125,82.0,293568.0,415936.0,288384.0,179968.0,63680.0
1.1965667009353638,49.0,295808.0,442944.0,290304.0,220288.0,68672.0
1.197866678237915,17.0,301248.0,490112.0,308736.0,182784.0,67264.0
1.1991666555404663,92.0,325632.0,465728.0,322944.0,217408.0,64976.0
1.2004666328430176,71.0,333824.0,474880.0,318336.0,199552.0,62688.0
1.2017666101455688,91.0,304960.0,514816.0,313664.0,198464.0,75040.0
1.2030667066574097,70.0,347008.0,501312.0,307712.0,198912.0,72400.0
1.204366683959961,45.0,363904.0,480000.0,301696.0,203456.0,64720.0
1.2056666612625122,25.0,367616.0,504704.0,313664.0,208000.0,71472.0
1.2069666385650635,63.0,361152.0,510848.0,318784.0,221696.0,72576.0
1.2082666158676147,43.0,361216.0,479104.0,323968.0,220480.0,83088.0
1.2095667123794556,75.0,350848.0,569088.0,324544.0,238592.0,84528.0
1.2108666896820068,62.0,366272.0,560384.0,325120.0,245504.0,65792.0
1.2122166156768799,67.0,369984.0,544000.0,392448.0,228672.0,80352.0
1.2135167121887207,72.0,369024.0,564224.0,387584.0,253312.0,77440.0
1.214833378791809,38.0,368064.0,563712.0,403072.0,260864.0,77840.0
1.2161166667938232,79.0,404608.0,563200.0,358208.0,240896.0,78240.0
1.2174166440963745,59.0,397376.0,583680.0,394752.0,262656.0,68608.0
1.218733310699463,65.0,383424.0,587008.0,422848.0,275264.0,74304.0
1.2200167179107666,100.0,386560.0,614656.0,402240.0,270464.0,91632.0
1.2213166952133179,131.0,389696.0,609024.0,432832.0,271936.0,97072.0
1.2226166725158691,112.0,406144.0,645120.0,436480.0,273408.0,79248.0
1.2239166498184204,165.0,457408.0,653568.0,414720.0,268928.0,81280.0
1.2252333164215088,138.0,471872.0,634880.0,410816.0,264384.0,82464.0
1.2265167236328125,111.0,408512.0,571904.0,406848.0,274048.0,76912.0
1.2278167009353638,109.0,427456.0,626176.0,400640.0,279232.0,75088.0
1.229183316230774,110.0,470400.0,645120.0,428608.0,276928.0,73280.0
1.2304832935333252,93.0,478464.0,671488.0,450752.0,289280.0,94944.0
1.231783390045166,75.0,474880.0,679168.0,475712.0,301696.0,105888.0
1.2330833673477173,69.0,487680.0,695296.0,450816.0,296896.0,104096.0
1.2343833446502686,63.0,485760.0,686336.0,446976.0,297856.0,102960.0
1.2356833219528198,109.0,456256.0,677376.0,443072.0,298816.0,99328.0
1.236983299255371,625.0,465472.0,694528.0,452352.0,297600.0,100064.0
1.2382832765579224,331.0,474688.0,711680.0,466752.0,296320.0,108656.0
1.2395833730697632,38.0,512896.0,728832.0,463680.0,306048.0,109168.0
1.2408833503723145,77.0,538624.0,746240.0,460672.0,315712.0,87024.0
1.2421833276748657,112.0,535552.0,814848.0,484032.0,351872.0,104992.0
1.243483304977417,146.0,541184.0,790528.0,487232.0,352960.0,102352.0
1.2447832822799683,139.0,540160.0,779776.0,490432.0,338816.0,121760.0
1.246150016784668,131.0,538880.0,803328.0,520768.0,335040.0,118832.0
1.2474499940872192,73.0,561920.0,834816.0,527104.0,355648.0,114816.0
1.2487499713897705,79.0,565504.0,833536.0,568832.0,399872.0,120976.0
1.2500499486923218,84.0,559616.0,865792.0,584960.0,400768.0,123744.0
1.2513500452041626,90.0,553728.0,755712.0,510976.0,384192.0,128592.0
1.2526500225067139,127.0,571136.0,875008.0,581120.0,363904.0,125600.0
1.2539499998092651,140.0,588800.0,872960.0,534784.0,370560.0,118416.0
1.2552499771118164,50.0,588800.0,884736.0,574976.0,368064.0,133184.0
1.2565499544143677,107.0,583424.0,881408.0,572416.0,365568.0,107648.0
1.2578500509262085,153.0,578048.0,877824.0,617216.0,386240.0,115200.0
1.2591500282287598,134.0,608512.0,858624.0,592128.0,389888.0,104432.0
1.260450005531311,117.0,611072.0,898560.0,557824.0,394688.0,110208.0
1.2617499828338623,87.0,639232.0,919552.0,624896.0,399488.0,115984.0
1.263116717338562,126.0,623872.0,892928.0,588800.0,396160.0,111360.0
1.2644166946411133,123.0,571904.0,871680.0,624640.0,420032.0,108192.0
1.2657166719436646,128.0,651008.0,899584.0,609280.0,414336.0,114688.0
1.2670166492462158,134.0,607488.0,916480.0,583680.0,345664.0,121184.0
1.268316626548767,155.0,619520.0,935680.0,639744.0,435584.0,128224.0
1.269616723060608,93.0,664576.0,897280.0,655104.0,410944.0,128416.0
1.2709167003631592,75.0,658176.0,930560.0,624384.0,433664.0,143744.0
1.2722166776657104,110.0,638976.0,909824.0,620544.0,404992.0,146432.0
1.2735166549682617,106.0,659712.0,909824.0,623104.0,424832.0,129776.0
1.274816632270813,130.0,639232.0,909568.0,613376.0,377984.0,104944.0
1.2761166095733643,115.0,666880.0,914176.0,606464.0,421568.0,126512.0
1.277416706085205,67.0,604672.0,913152.0,609280.0,392256.0,141504.0
1.2787166833877563,70.0,670976.0,931328.0,596992.0,342912.0,137280.0
1.2800832986831665,73.0,608000.0,949504.0,584448.0,393728.0,137024.0
1.2813832759857178,149.0,624640.0,962816.0,570624.0,392832.0,130096.0
1.2826833724975586,151.0,623616.0,848128.0,561664.0,370176.0,130336.0
1.2839833498001099,86.0,586496.0,907264.0,560896.0,367296.0,127280.0
1.2852833271026611,173.0,600832.0,881408.0,546048.0,349248.0,102800.0
1.2865833044052124,141.0,615424.0,896768.0,540416.0,365760.0,114480.0
1.2878999710083008,110.0,602368.0,911872.0,547328.0,382208.0,110960.0
1.289199948310852,73.0,596992.0,864768.0,542976.0,372416.0,112784.0
1.2905000448226929,80.0,580864.0,851200.0,544768.0,327552.0,113312.0
1.2918000221252441,141.0,589568.0,834560.0,546304.0,350080.0,113824.0
1.2930833101272583,142.0,593408.0,783104.0,530944.0,358208.0,110320.0
1.2943999767303467,142.0,589568.0,790528.0,515648.0,358528.0,106800.0
1.295699954032898,115.0,534016.0,834816.0,529664.0,361984.0,110064.0
1.2970499992370605,92.0,539648.0,793856.0,512512.0,301568.0,112672.0
1.2983499765396118,132.0,500096.0,834560.0,503680.0,333440.0,102912.0
1.299649953842163,155.0,512704.0,705280.0,483136.0,308992.0,111808.0
1.300950050354004,68.0,508480.0,731392.0,492224.0,296704.0,112032.0
1.3022500276565552,79.0,475648.0,721408.0,473984.0,296640.0,83248.0
1.3035666942596436,94.0,516352.0,730368.0,430144.0,313024.0,92192.0
1.3048666715621948,98.0,459776.0,680448.0,472896.0,285632.0,84736.0
1.306166648864746,102.0,416192.0,666112.0,445632.0,259264.0,96176.0
1.3074666261672974,136.0,418176.0,590336.0,419264.0,278144.0,90256.0
1.3087667226791382,110.0,404416.0,605440.0,404416.0,279872.0,84912.0
1.3100666999816895,84.0,415680.0,603648.0,388800.0,251008.0,81600.0
1.3113666772842407,96.0,391232.0,570624.0,423040.0,268928.0,78304.0
1.312666654586792,108.0,373312.0,546304.0,351808.0,245184.0,79232.0
1.3140000104904175,77.0,379008.0,528640.0,355008.0,222208.0,77488.0
1.3152999877929688,162.0,337152.0,520640.0,339328.0,228096.0,75760.0
1.31659996509552,170.0,355840.0,519616.0,312768.0,209728.0,71296.0
1.3178999423980713,177.0,329408.0,488896.0,300160.0,206656.0,56928.0
1.319200038909912,115.0,347968.0,438336.0,288960.0,184704.0,51296.0
1.3205000162124634,54.0,287744.0,459392.0,309696.0,180160.0,62640.0
1.3217999935150146,66.0,264320.0,474048.0,283072.0,170752.0,64528.0
1.323099970817566,90.0,310592.0,389440.0,228544.0,154752.0,50592.0
1.3243999481201172,50.0,276288.0,371072.0,283008.0,142336.0,58144.0
1.325700044631958,79.0,266880.0,387072.0,244864.0,147328.0,48112.0
1.3270000219345093,57.0,233088.0,347200.0,228224.0,129168.0,47184.0
1.3282999992370605,84.0,236608.0,355264.0,233856.0,136128.0,46256.0
1.3295999765396118,77.0,225216.0,320192.0,215296.0,131840.0,46992.0
1.3309166431427002,70.0,198912.0,295616.0,176192.0,127920.0,36848.0
1.3322166204452515,82.0,201536.0,259008.0,194240.0,104064.0,32372.0
1.3335167169570923,68.0,185984.0,270144.0,173376.0,99952.0,36992.0
1.3348166942596436,66.0,159808.0,251584.0,166912.0,102624.0,34096.0
1.3361166715621948,354.0,165120.0,250816.0,148352.0,94656.0,32608.0
1.337416648864746,211.0,133760.0,249536.0,150080.0,85248.0,31884.0
1.3387166261672974,69.0,145280.0,202624.0,144640.0,75664.0,33024.0
1.3400167226791382,110.0,147584.0,200704.0,127792.0,75376.0,20440.0
1.3413166999816895,90.0,125776.0,172736.0,121616.0,88992.0,33824.0
1.3426166772842407,62.0,128096.0,168320.0,115648.0,71248.0,29052.0
1.343916654586792,34.0,114032.0,181312.0,99136.0,73904.0,23104.0
1.3452166318893433,58.0,109056.0,141632.0,107520.0,61632.0,23828.0
1.3465166091918945,45.0,83952.0,126912.0,86880.0,56032.0,20304.0
1.3478666543960571,32.0,102240.0,148096.0,85536.0,53200.0,15268.0
1.3491666316986084,40.0,67712.0,111344.0,79600.0,57872.0,10632.0
1.3504666090011597,48.0,82272.0,105584.0,67216.0,45584.0,19952.0
1.3517667055130005,91.0,79088.0,115856.0,74032.0,39936.0,8352.0
1.3530666828155518,79.0,66656.0,106208.0,67520.0,37776.0,18848.0
1.354366660118103,59.0,59136.0,100624.0,63952.0,43072.0,15952.0
1.3556666374206543,62.0,62752.0,85072.0,50320.0,40928.0,14080.0
1.3569666147232056,65.0,67728.0,75728.0,58400.0,30288.0,16236.0
1.3582667112350464,49.0,54496.0,69232.0,56080.0,34640.0,7764.0
1.3595666885375977,54.0,39792.0,61792.0,48896.0,32704.0,16136.0
1.360866665840149,67.0,41152.0,71232.0,49264.0,24456.0,9772.0
1.3621666431427002,75.0,38976.0,73104.0,36528.0,27736.0,12648.0
1.3634666204452515,68.0,38928.0,52624.0,35776.0,32372.0,6392.0
1.3648333549499512,55.0,38880.0,54144.0,36352.0,23208.0,6047.0
1.3661333322525024,41.0,36208.0,50576.0,30448.0,25804.0,8876.0
1.3674333095550537,52.0,33536.0,46528.0,29944.0,20584.0,5146.0
1.368733286857605,62.0,32476.0,44880.0,31036.0,21208.0,7392.0
1.3700333833694458,77.0,36944.0,39008.0,28940.0,19600.0,7714.0
1.371333360671997,617.0,24928.0,41232.0,20280.0,14104.0,5215.0
1.3726333379745483,324.0,21740.0,38832.0,27252.0,16864.0,8033.0
1.3739333152770996,31.0,25448.0,37344.0,19360.0,11820.0,4851.0
1.3752332925796509,76.0,27724.0,31360.0,23492.0,18840.0,5056.0
1.3765333890914917,38.0,25220.0,39856.0,20784.0,10412.0,2211.0
1.377833366394043,0.0,25200.0,32168.0,20692.0,15008.0,5205.0
1.3791333436965942,21.0,21852.0,26712.0,21316.0,14876.0,4963.0
1.3804333209991455,18.0,18016.0,30080.0,15216.0,11480.0,3391.0
1.3818000555038452,21.0,13120.0,27084.0,10444.0,11976.0,6073.0
1.3831000328063965,7.0,19484.0,24236.0,22096.0,5925.0,3652.0
1.3844000101089478,25.0,17748.0,30240.0,18256.0,9120.0,92.0
1.385699987411499,20.0,15080.0,16164.0,10804.0,8680.0,2516.0
1.3869999647140503,15.0,13528.0,27840.0,7068.0,8236.0,3066.0
1.3882999420166016,11.0,18464.0,22384.0,8916.0,7697.0,2362.0
1.3896000385284424,7.0,12076.0,9172.0,8896.0,7159.0,2498.0
1.3909000158309937,24.0,8496.0,16040.0,8876.0,7270.0,2635.0
1.392199993133545,22.0,13696.0,21852.0,9008.0,7381.0,2559.0
1.3934999704360962,21.0,5665.0,17976.0,8644.0,7880.0,3623.0
1.3947999477386475,70.0,8896.0,17272.0,8284.0,5518.0,3820.0
1.3961000442504883,72.0,10848.0,13308.0,7231.0,7937.0,2874.0
1.3974000215530396,22.0,11044.0,19168.0,6178.0,7389.0,2589.0
1.3987499475479126,29.0,9064.0,15696.0,11448.0,6840.0,3415.0
1.4000500440597534,32.0,9220.0,13340.0,10156.0,7603.0,2796.0
1.4013667106628418,19.0,4746.0,17948.0,14196.0,8364.0,3020.0
1.402649998664856,5.0,9648.0,11796.0,10296.0,5098.0,2126.0
1.4039499759674072,17.0,12756.0,13068.0,6928.0,1725.0,3528.0
1.4052499532699585,29.0,9992.0,14340.0,8484.0,8060.0,1511.0
1.4065500497817993,23.0,11012.0,8173.0,9164.0,8053.0,1152.0
1.4078500270843506,17.0,12960.0,10132.0,9588.0,7517.0,1501.0
1.4091500043869019,24.0,8496.0,12096.0,8316.0,6537.0,1362.0
1.4104499816894531,31.0,7303.0,12292.0,7357.0,4571.0,1223.0
1.4117499589920044,52.0,12580.0,10408.0,4412.0,3206.0,1202.0
1.4130500555038452,62.0,6513.0,10028.0,5228.0,4733.0,1181.0
1.4143667221069336,40.0,6763.0,9004.0,8736.0,4561.0,808.0
1.415683388710022,45.0,8652.0,10116.0,9924.0,4389.0,1768.0
1.4169833660125732,37.0,4515.0,11228.0,7702.0,4898.0,273.0
1.4182833433151245,13.0,4765.0,11916.0,7174.0,4855.0,589.0
1.4195833206176758,61.0,5015.0,10116.0,8932.0,4811.0,905.0
1.420883297920227,86.0,4727.0,5921.0,1705.0,5348.0,415.0
1.4221832752227783,62.0,5402.0,6707.0,4702.0,6494.0,1030.0
1.4234833717346191,76.0,4428.0,7831.0,8364.0,6048.0,1644.0
1.4247833490371704,57.0,3455.0,3645.0,4846.0,5602.0,1994.0
1.4260833263397217,11.0,4895.0,10124.0,4641.0,5673.0,1740.0
1.427383303642273,15.0,5528.0,6993.0,2979.0,1745.0,1486.0
1.4286832809448242,39.0,4209.0,7126.0,2179.0,4260.0,1417.0
1.429983377456665,33.0,4550.0,8592.0,2817.0,1653.0,1963.0
1.431316614151001,17.0,3293.0,5658.0,3455.0,3104.0,2510.0
1.4326332807540894,14.0,3364.0,7890.0,2635.0,5156.0,2664.0
1.4339333772659302,11.0,3435.0,8436.0,1814.0,2933.0,1566.0
1.4352333545684814,5.0,3703.0,4544.0,4022.0,3072.0,1593.0
1.4365333318710327,0.0,3971.0,3883.0,8368.0,5054.0,733.0
1.437833309173584,10.0,3073.0,8092.0,7099.0,2882.0,1923.0
1.4391332864761353,21.0,2175.0,7270.0,4394.0,4484.0,1477.0
1.4404499530792236,40.0,3084.0,5597.0,4905.0,3919.0,1754.0
1.4417500495910645,59.0,5842.0,5067.0,7227.0,3354.0,1606.0
1.4430500268936157,38.0,6842.0,7320.0,5311.0,5140.0,758.0
1.444350004196167,17.0,3639.0,4067.0,6426.0,5299.0,516.0
1.4456499814987183,19.0,7113.0,5360.0,1614.0,1247.0,274.0
1.4469499588012695,21.0,1801.0,4596.0,5174.0,2570.0,32.0
1.448266625404358,5.0,1582.0,780.0,7879.0,6083.0,5098.0
1.4495667219161987,27.0,4249.0,6552.0,2079.0,3881.0,5236.0
1.45086669921875,25.0,1370.0,6483.0,3638.0,2957.0,2883.0
1.4521666765213013,39.0,4398.0,5092.0,5109.0,1663.0,2670.0
1.4534666538238525,20.0,2182.0,7690.0,4066.0,1510.0,1132.0
1.4547666311264038,18.0,2470.0,3516.0,3024.0,2207.0,24.0
1.456066608428955,39.0,2110.0,6728.0,2377.0,2729.0,962.0
1.457366704940796,55.0,2166.0,9392.0,3930.0,2498.0,66.0
1.4586666822433472,71.0,2222.0,2944.0,5458.0,3458.0,2146.0
1.4599666595458984,15.0,1774.0,5678.0,5011.0,3447.0,1929.0
1.4612666368484497,18.0,1327.0,5327.0,2922.0,3436.0,1712.0
1.462566614151001,24.0,3402.0,1364.0,4218.0,2794.0,2284.0
1.4638667106628418,30.0,2267.0,4419.0,1874.0,2151.0,1600.0
1.4652166366577148,18.0,1132.0,3429.0,4479.0,2487.0,915.0
1.4665166139602661,7.0,1330.0,8444.0,3777.0,2782.0,2354.0
1.467816710472107,45.0,1518.0,8256.0,2283.0,2069.0,1316.0
1.4691166877746582,45.0,1705.0,1231.0,2196.0,2439.0,871.0
1.4704166650772095,42.0,3164.0,2720.0,2433.0,2808.0,424.0
1.4717166423797607,37.0,1994.0,1978.0,1592.0,2467.0,41.0
1.473016619682312,57.0,824.0,1886.0,750.0,2126.0,1246.0
1.4743167161941528,64.0,3993.0,1794.0,1887.0,2651.0,1014.0
1.475616693496704,57.0,2172.0,1854.0,3023.0,801.0,2975.0
1.4769166707992554,50.0,1634.0,4430.0,2690.0,2020.0,2632.0
1.4782166481018066,46.0,4154.0,4421.0,1960.0,1134.0,3812.0
1.479516625404358,43.0,3717.0,3459.0,1614.0,1659.0,188.0
1.4808167219161987,28.0,4501.0,589.0,1396.0,2184.0,29.0
1.4821833372116089,13.0,2235.0,3122.0,1670.0,1628.0,1334.0
1.4834833145141602,24.0,2479.0,3677.0,4065.0,1072.0,1597.0
1.4847832918167114,23.0,903.0,1295.0,3572.0,2774.0,1861.0
1.4860833883285522,31.0,4870.0,3947.0,2110.0,2198.0,2052.0
1.4873833656311035,5.0,5327.0,3506.0,3386.0,2156.0,476.0
1.4886833429336548,17.0,4613.0,3594.0,3744.0,2380.0,597.0
1.489983320236206,30.0,1177.0,22.0,4102.0,2605.0,624.0
1.4912832975387573,6.0,2961.0,4556.0,615.0,944.0,441.0
1.4925832748413086,41.0,1305.0,2020.0,1763.0,3786.0,1402.0
1.4938833713531494,30.0,2588.0,1739.0,3364.0,3755.0,1125.0
1.4951833486557007,16.0,1612.0,1458.0,2412.0,2470.0,849.0
1.496483325958252,38.0,2623.0,2447.0,1453.0,2147.0,141.0
1.4977833032608032,25.0,1908.0,5532.0,2597.0,35.0,2454.0
1.4991333484649658,34.0,1194.0,4693.0,2369.0,2655.0,2626.0
1.500433325767517,43.0,662.0,1755.0,2141.0,2097.0,740.0
1.5017333030700684,42.0,129.0,3208.0,1134.0,3856.0,3094.0
1.5030332803726196,41.0,1431.0,4141.0,2948.0,1688.0,50.0
1.5043333768844604,31.0,2733.0,4680.0,5488.0,3747.0,1288.0
1.5056500434875488,17.0,3866.0,4417.0,5279.0,1245.0,3297.0
1.506933331489563,20.0,2039.0,4154.0,2628.0,1477.0,2591.0
1.5082333087921143,24.0,4515.0,2750.0,4354.0,3608.0,1716.0
1.5095499753952026,28.0,4222.0,1714.0,1671.0,1282.0,603.0
1.5108333826065063,41.0,2965.0,677.0,1375.0,2973.0,2992.0
1.5121333599090576,48.0,1190.0,6159.0,3222.0,2446.0,1811.0
1.5134333372116089,56.0,2722.0,8620.0,3895.0,3412.0,100.0
1.5147333145141602,41.0,1779.0,5326.0,3984.0,2663.0,678.0
1.5161000490188599,11.0,836.0,1151.0,2790.0,2506.0,29.0
1.5174000263214111,28.0,1518.0,3784.0,5059.0,2348.0,12.0
1.5187000036239624,23.0,3844.0,4610.0,4383.0,2279.0,75.0
1.5199999809265137,42.0,2958.0,6591.0,4650.0,1678.0,725.0
1.521299958229065,0.0,2072.0,8176.0,1091.0,2768.0,992.0
1.5226000547409058,20.0,3741.0,2298.0,4366.0,828.0,1259.0
1.523900032043457,41.0,1313.0,4376.0,1493.0,660.0,247.0
1.5252000093460083,24.0,7017.0,5855.0,5604.0,4706.0,865.0
1.5264999866485596,47.0,5566.0,5858.0,4633.0,3709.0,5.0
1.5277999639511108,43.0,2039.0,2571.0,341.0,632.0,1365.0
1.529099941253662,33.0,2962.0,5260.0,3385.0,2911.0,1484.0
1.530400037765503,5.0,2653.0,6531.0,1730.0,2651.0,1603.0
1.5317000150680542,41.0,2344.0,5532.0,3361.0,2109.0,678.0
1.5330499410629272,19.0,2963.0,4063.0,5510.0,1567.0,951.0
1.534350037574768,19.0,3517.0,2338.0,4675.0,2496.0,5.0
1.5356500148773193,20.0,2856.0,2291.0,2425.0,2483.0,41.0
1.5369499921798706,10.0,2195.0,2244.0,1093.0,2470.0,627.0
1.5382499694824219,0.0,3024.0,3491.0,3900.0,3209.0,31.0
1.5395499467849731,12.0,4492.0,4131.0,3910.0,1614.0,471.0
1.540850043296814,22.0,5205.0,5208.0,1452.0,3587.0,15.0
1.5421500205993652,32.0,7097.0,1679.0,4614.0,2800.0,121.0
1.5434499979019165,18.0,6744.0,4957.0,4396.0,3173.0,227.0
1.5447499752044678,5.0,3880.0,7300.0,3789.0,1377.0,666.0
1.546049952507019,37.0,1866.0,9384.0,2502.0,1429.0,821.0
1.5473500490188599,41.0,6372.0,4091.0,191.0,1481.0,15.0
1.5486500263214111,5.0,1773.0,5104.0,2613.0,1535.0,54.0
1.5499833822250366,31.0,32.0,5391.0,3732.0,1589.0,159.0
1.551283359527588,32.0,3751.0,5459.0,3901.0,963.0,265.0
1.5525833368301392,34.0,1241.0,5096.0,4562.0,337.0,154.0
1.5538833141326904,10.0,2005.0,5622.0,2660.0,4089.0,43.0
1.5551832914352417,46.0,1825.0,4338.0,316.0,3799.0,36.0
1.5564833879470825,16.0,1645.0,3927.0,3475.0,345.0,186.0
1.5577833652496338,23.0,2019.0,7304.0,1669.0,1476.0,463.0
1.559083342552185,30.0,2394.0,6792.0,1488.0,2597.0,741.0
1.5603833198547363,47.0,6025.0,254.0,1495.0,1663.0,829.0
1.5616832971572876,29.0,5679.0,6832.0,1502.0,1055.0,8.0
1.5629832744598389,11.0,4198.0,3305.0,3536.0,258.0,406.0
1.5642833709716797,29.0,2906.0,1351.0,3989.0,967.0,474.0
1.565583348274231,26.0,1627.0,6321.0,3673.0,33.0,1172.0
1.5669499635696411,23.0,4467.0,5963.0,1767.0,1986.0,1455.0
1.5682499408721924,27.0,4661.0,3160.0,3668.0,2535.0,1690.0
1.5695500373840332,31.0,4277.0,4030.0,1268.0,3084.0,486.0
1.5708500146865845,0.0,1977.0,6094.0,1807.0,2695.0,617.0
1.5721499919891357,21.0,5574.0,3493.0,2345.0,2823.0,24.0
1.573449969291687,42.0,844.0,3189.0,1839.0,654.0,184.0
1.5747499465942383,35.0,2119.0,6099.0,2198.0,2168.0,344.0
1.576050043106079,36.0,995.0,3539.0,2557.0,2010.0,185.0
1.5773500204086304,43.0,913.0,5669.0,4790.0,1852.0,26.0
1.5786499977111816,51.0,1686.0,6904.0,3864.0,1479.0,1321.0
1.579949975013733,38.0,2972.0,6790.0,2938.0,2189.0,1432.0
1.5812499523162842,26.0,2973.0,5313.0,1785.0,2338.0,10.0
1.582550048828125,43.0,867.0,2680.0,1677.0,786.0,1176.0
1.583899974822998,39.0,2398.0,4875.0,1269.0,567.0,26.0
1.5851999521255493,36.0,3229.0,3063.0,860.0,183.0,553.0
1.5865000486373901,6.0,3999.0,3856.0,955.0,1522.0,532.0
1.5878000259399414,15.0,3085.0,3738.0,1050.0,2077.0,290.0
1.5891166925430298,34.0,556.0,4383.0,1609.0,1010.0,48.0
1.590399980545044,5.0,1664.0,2181.0,1461.0,48.0,30.0
1.5916999578475952,28.0,1833.0,3876.0,1312.0,715.0,12.0
1.593000054359436,24.0,3607.0,5478.0,3573.0,53.0,284.0
1.5943167209625244,20.0,3242.0,3065.0,3355.0,905.0,156.0
1.5956000089645386,22.0,1546.0,2786.0,2062.0,27.0,28.0
1.596916675567627,5.0,1351.0,2823.0,3080.0,295.0,41.0
1.5981999635696411,17.0,1718.0,1683.0,2607.0,902.0,53.0
1.5994999408721924,28.0,1619.0,3135.0,2133.0,844.0,780.0
1.600866675376892,24.0,1520.0,2344.0,1380.0,785.0,402.0
1.6021666526794434,10.0,1618.0,1552.0,2374.0,1476.0,25.0
1.6034666299819946,32.0,1716.0,2473.0,2545.0,2167.0,20.0
1.604766607284546,35.0,979.0,3016.0,2222.0,1348.0,15.0
1.6060667037963867,36.0,2153.0,3559.0,1899.0,529.0,34.0
1.607366681098938,22.0,1741.0,3874.0,1325.0,2054.0,53.0
1.6086666584014893,10.0,1328.0,5011.0,1219.0,2169.0,213.0
1.6099666357040405,5.0,1951.0,4783.0,1114.0,1336.0,725.0
1.6112666130065918,16.0,995.0,3511.0,3526.0,605.0,577.0
1.6125667095184326,52.0,1537.0,3138.0,3311.0,2116.0,24.0
1.6138666868209839,68.0,2080.0,2781.0,1248.0,1357.0,607.0
1.6151666641235352,33.0,1310.0,3725.0,3376.0,1189.0,331.0
1.6164666414260864,10.0,2756.0,2326.0,2324.0,1952.0,41.0
1.6178333759307861,69.0,3410.0,1409.0,1644.0,2715.0,30.0
1.6191333532333374,48.0,3192.0,2898.0,1483.0,2513.0,251.0
1.6204333305358887,11.0,1283.0,3479.0,1322.0,43.0,472.0
1.62173330783844,5.0,1322.0,4188.0,1807.0,143.0,258.0
1.6230332851409912,13.0,1259.0,3934.0,1785.0,1279.0,44.0
1.624333381652832,31.0,1196.0,3681.0,790.0,18.0,23.0
1.6256333589553833,25.0,1042.0,3498.0,705.0,1850.0,32.0
1.6269333362579346,26.0,887.0,4508.0,619.0,2770.0,40.0
1.6282333135604858,23.0,1004.0,2579.0,813.0,3009.0,25.0
1.629533290863037,20.0,1121.0,1837.0,1016.0,2206.0,43.0
1.630833387374878,56.0,574.0,2181.0,1219.0,1085.0,47.0
1.6321333646774292,55.0,28.0,1731.0,3680.0,3769.0,36.0
1.6334333419799805,46.0,1446.0,1282.0,4463.0,427.0,27.0
1.634783387184143,48.0,1044.0,1874.0,3582.0,2930.0,19.0
1.6360833644866943,12.0,641.0,1196.0,790.0,838.0,26.0
1.6373833417892456,10.0,1576.0,1870.0,726.0,4111.0,34.0
1.6386833190917969,5.0,2574.0,2023.0,2143.0,4655.0,11.0
1.6399832963943481,5.0,2330.0,1371.0,3219.0,23.0,715.0
1.641283392906189,20.0,2707.0,2394.0,3410.0,914.0,387.0
1.6425833702087402,22.0,2147.0,3418.0,2416.0,281.0,59.0
1.6438833475112915,24.0,1587.0,308.0,2861.0,43.0,11.0
1.6451833248138428,38.0,3067.0,5256.0,2101.0,432.0,682.0
1.646483302116394,0.0,3073.0,5494.0,1321.0,347.0,443.0
1.6477832794189453,40.0,1812.0,4993.0,2804.0,262.0,40.0
1.6490833759307861,36.0,2111.0,4096.0,1750.0,1243.0,53.0
1.6503833532333374,49.0,2411.0,1919.0,1905.0,2223.0,44.0
1.6517499685287476,20.0,587.0,1850.0,2060.0,1679.0,33.0
1.6530499458312988,11.0,2085.0,5079.0,1473.0,716.0,22.0
1.6543500423431396,10.0,2099.0,3092.0,886.0,1246.0,26.0
1.655650019645691,15.0,1611.0,3176.0,2567.0,335.0,30.0
1.6569499969482422,20.0,1644.0,1597.0,2939.0,193.0,32.0
1.6582499742507935,24.0,1677.0,1702.0,2802.0,51.0,34.0
1.6595499515533447,29.0,1292.0,1807.0,2103.0,1688.0,29.0
1.6608500480651855,5.0,906.0,2326.0,1626.0,1483.0,699.0
1.6621500253677368,24.0,1190.0,2487.0,1149.0,558.0,1369.0
1.663450002670288,31.0,1473.0,2648.0,1692.0,1220.0,1681.0
1.6647499799728394,28.0,605.0,2531.0,1245.0,1302.0,43.0
1.6660499572753906,19.0,966.0,481.0,797.0,0.0,22.0
1.6673500537872314,14.0,1326.0,6333.0,2670.0,921.0,27.0
1.6686999797821045,10.0,2314.0,5252.0,3252.0,1737.0,44.0
1.6699999570846558,50.0,2731.0,3239.0,1644.0,1579.0,6.0
1.6713000535964966,42.0,1524.0,3929.0,1246.0,136.0,35.0
1.6726000308990479,44.0,1491.0,3979.0,43.0,2170.0,696.0
1.6739000082015991,5.0,1590.0,5843.0,2189.0,2625.0,551.0
1.6752166748046875,16.0,3922.0,1008.0,1240.0,1174.0,406.0
1.6764999628067017,22.0,3863.0,4721.0,1506.0,581.0,879.0
1.6778000593185425,5.0,1934.0,2639.0,2153.0,1302.0,27.0
1.6791000366210938,49.0,690.0,1654.0,1562.0,1396.0,10.0
1.6804167032241821,38.0,4656.0,1681.0,971.0,1024.0,113.0
1.6816999912261963,20.0,3281.0,3282.0,3299.0,639.0,62.0
1.6829999685287476,17.0,2666.0,2836.0,1657.0,1744.0,11.0
1.6842999458312988,43.0,2079.0,2715.0,15.0,898.0,245.0
1.6856666803359985,49.0,3610.0,2594.0,661.0,52.0,138.0
1.6869666576385498,41.0,2353.0,2467.0,1587.0,434.0,31.0
1.688266634941101,33.0,1732.0,2340.0,1360.0,815.0,39.0
1.6895666122436523,30.0,860.0,950.0,1132.0,748.0,50.0
1.6908667087554932,28.0,10.0,878.0,993.0,681.0,18.0
1.6921666860580444,39.0,506.0,1529.0,743.0,1783.0,813.0
1.6934666633605957,930.0,164.0,2250.0,1045.0,1469.0,840.0
1.694766640663147,474.0,1209.0,2656.0,969.0,1154.0,35.0
1.6960666179656982,19.0,1337.0,287.0,846.0,44.0,21.0
1.697366714477539,52.0,1464.0,4197.0,1358.0,5.0,60.0
1.6986666917800903,509.0,552.0,2984.0,989.0,683.0,41.0
1.6999666690826416,35.0,787.0,2516.0,620.0,628.0,22.0
1.7012666463851929,34.0,1520.0,1222.0,1295.0,573.0,35.0
1.7026333808898926,52.0,17.0,4005.0,1970.0,937.0,44.0
1.7039333581924438,24.0,1696.0,900.0,1462.0,471.0,26.0
1.7052333354949951,33.0,209.0,3030.0,954.0,6.0,13.0
1.7065333127975464,39.0,1407.0,3260.0,1891.0,381.0,15.0
1.7078332901000977,43.0,763.0,2270.0,2827.0,757.0,18.0
1.7091333866119385,5.0,2686.0,3441.0,2811.0,1092.0,44.0
1.7104333639144897,33.0,2870.0,2882.0,1322.0,1427.0,284.0
1.711733341217041,26.0,2267.0,2323.0,2384.0,28.0,525.0
1.7130333185195923,34.0,706.0,2385.0,13.0,658.0,591.0
1.7143332958221436,43.0,2552.0,2824.0,504.0,1440.0,657.0
1.7156333923339844,52.0,1276.0,3264.0,922.0,1104.0,124.0
1.7169333696365356,47.0,997.0,1494.0,482.0,767.0,88.0
1.718233346939087,42.0,1810.0,4795.0,803.0,1293.0,53.0
1.7195833921432495,15.0,1384.0,75.0,1124.0,870.0,373.0
1.7208833694458008,23.0,2307.0,1334.0,1789.0,448.0,211.0
1.722183346748352,31.0,1945.0,3936.0,1548.0,20.0,49.0
1.7234833240509033,23.0,1584.0,2993.0,1081.0,446.0,10.0
1.7247833013534546,19.0,14.0,3136.0,692.0,871.0,27.0
1.7260832786560059,15.0,3245.0,3537.0,565.0,516.0,20.0
1.7273833751678467,18.0,3554.0,1874.0,437.0,162.0,13.0
1.728683352470398,7.0,1338.0,4447.0,804.0,19.0,27.0
1.7299833297729492,6.0,4043.0,1268.0,418.0,44.0,10.0
1.7312833070755005,5.0,1139.0,2489.0,32.0,614.0,20.0
1.7325832843780518,17.0,228.0,3776.0,1722.0,622.0,31.0
1.7338833808898926,8.0,1853.0,1857.0,1674.0,1028.0,27.0
1.7351833581924438,0.0,1868.0,2012.0,598.0,1126.0,23.0
1.736549973487854,12.0,1884.0,3562.0,523.0,1224.0,27.0
1.7378499507904053,24.0,1717.0,23.0,1616.0,725.0,30.0
1.739150047302246,23.0,490.0,2256.0,966.0,665.0,31.0
1.7404500246047974,23.0,912.0,1357.0,741.0,604.0,32.0
1.7417500019073486,43.0,682.0,2901.0,1475.0,317.0,31.0
1.7430499792099,43.0,899.0,2313.0,1132.0,31.0,107.0
1.7443499565124512,24.0,1439.0,3537.0,790.0,322.0,68.0
1.745650053024292,32.0,1271.0,1865.0,527.0,613.0,29.0
1.7469500303268433,22.0,1102.0,2580.0,1639.0,1333.0,34.0
1.7482500076293945,11.0,1909.0,1414.0,2338.0,2053.0,38.0
1.7495499849319458,24.0,1753.0,2204.0,2059.0,1221.0,45.0
1.750849962234497,17.0,1596.0,2112.0,2158.0,389.0,47.0
1.752150058746338,11.0,2268.0,1804.0,2257.0,1148.0,24.0
1.753516674041748,12.0,1872.0,1036.0,495.0,1495.0,68.0
1.7548166513442993,15.0,1476.0,1857.0,519.0,1392.0,34.0
1.7561166286468506,19.0,2006.0,2286.0,45.0,969.0,0.0
1.7574167251586914,14.0,1549.0,2715.0,654.0,419.0,48.0
1.7587167024612427,10.0,1092.0,2965.0,1264.0,250.0,41.0
1.760016679763794,61.0,1368.0,1499.0,1657.0,81.0,32.0
1.7613166570663452,50.0,1643.0,1355.0,1620.0,532.0,380.0
1.7626166343688965,9.0,690.0,1598.0,610.0,298.0,210.0
1.7639166116714478,37.0,474.0,1313.0,2134.0,63.0,39.0
1.7652167081832886,65.0,61.0,1279.0,1857.0,495.0,31.0
1.7665166854858398,57.0,1724.0,899.0,1665.0,1589.0,24.0
1.7678166627883911,29.0,1564.0,3421.0,1473.0,1449.0,433.0
1.7691166400909424,0.0,1404.0,3068.0,2358.0,1230.0,225.0
1.770483374595642,36.0,2460.0,3628.0,676.0,1161.0,18.0
1.7717833518981934,36.0,3308.0,579.0,1195.0,216.0,21.0
1.7730833292007446,46.0,2920.0,2213.0,2044.0,2137.0,38.0
1.774383306503296,17.0,2933.0,5361.0,2071.0,1817.0,59.0
1.7756832838058472,34.0,2946.0,3403.0,2098.0,68.0,80.0
1.776983380317688,58.0,1566.0,915.0,102.0,62.0,56.0
1.7782833576202393,44.0,2650.0,314.0,2786.0,804.0,33.0
1.7795833349227905,30.0,1788.0,3645.0,712.0,983.0,541.0
1.7808833122253418,37.0,2107.0,2057.0,996.0,1494.0,279.0
1.782183289527893,44.0,2964.0,2110.0,2557.0,802.0,17.0
1.7834833860397339,48.0,3803.0,1875.0,2449.0,554.0,839.0
1.7847833633422852,52.0,3274.0,1893.0,30.0,875.0,1084.0
1.7860833406448364,7.0,3422.0,1159.0,2889.0,630.0,75.0
1.787433385848999,12.0,3902.0,626.0,33.0,1266.0,23.0
1.7887333631515503,10.0,1751.0,1006.0,2947.0,50.0,1043.0
1.7900333404541016,17.0,3299.0,773.0,1008.0,18.0,24.0
1.7913333177566528,62.0,15.0,540.0,1552.0,73.0,63.0
1.792633295059204,38.0,2111.0,1033.0,2274.0,97.0,39.0
1.793933391571045,15.0,623.0,712.0,1347.0,1102.0,35.0
1.7952333688735962,5.0,1751.0,391.0,1473.0,1448.0,31.0
1.7965333461761475,5.0,2878.0,227.0,826.0,23.0,34.0
1.7978333234786987,41.0,43.0,64.0,1279.0,1701.0,49.0
1.79913330078125,44.0,509.0,2511.0,1876.0,7.0,30.0
1.8004332780838013,48.0,4310.0,2923.0,283.0,1517.0,10.0
1.801733374595642,32.0,2358.0,717.0,488.0,885.0,11.0
1.8030333518981934,24.0,26.0,740.0,878.0,7.0,13.0
1.8043999671936035,10.0,382.0,2115.0,1267.0,17.0,11.0
1.8056999444961548,18.0,736.0,1619.0,862.0,28.0,10.0
1.8070000410079956,26.0,991.0,2220.0,1502.0,544.0,14.0
1.8083000183105469,30.0,1038.0,1522.0,1477.0,853.0,18.0
1.8095999956130981,34.0,1085.0,1433.0,1452.0,1091.0,22.0
1.8108999729156494,19.0,16.0,1345.0,1507.0,1329.0,41.0
1.8121999502182007,12.0,249.0,1234.0,122.0,1311.0,50.0
1.8135000467300415,5.0,901.0,1122.0,1004.0,1294.0,58.0
1.8148000240325928,35.0,2153.0,1671.0,1276.0,2247.0,53.0
1.816100001335144,36.0,2501.0,1016.0,1548.0,22.0,45.0
1.8173999786376953,37.0,1639.0,362.0,2102.0,32.0,80.0
1.8186999559402466,19.0,2740.0,2085.0,2546.0,468.0,54.0
1.8200000524520874,20.0,1666.0,526.0,26.0,285.0,28.0
1.8213666677474976,26.0,862.0,753.0,1134.0,163.0,39.0
1.8226666450500488,35.0,1804.0,981.0,930.0,41.0,51.0
1.8239666223526,25.0,2268.0,1913.0,778.0,10.0,71.0
1.825266718864441,15.0,2233.0,1399.0,626.0,43.0,66.0
1.8265666961669922,21.0,2198.0,885.0,1008.0,33.0,5.0
1.8278666734695435,27.0,1241.0,2256.0,1456.0,23.0,841.0
1.8291666507720947,1143.0,314.0,54.0,1629.0,35.0,444.0
1.830466628074646,1419.0,685.0,396.0,1005.0,25.0,47.0
1.8317667245864868,38.0,1057.0,739.0,994.0,22.0,23.0
1.833066701889038,43.0,1429.0,1126.0,984.0,731.0,26.0
1.8343666791915894,11.0,1183.0,575.0,1195.0,371.0,32.0
1.8356666564941406,37.0,19.0,25.0,1014.0,11.0,30.0
1.836966633796692,22.0,28.0,2784.0,834.0,29.0,28.0
1.8383166790008545,41.0,635.0,3169.0,775.0,857.0,36.0
1.8396166563034058,97.0,75.0,3239.0,42.0,441.0,12.0
1.840916633605957,67.0,673.0,811.0,39.0,25.0,33.0
1.8422166109085083,38.0,511.0,807.0,36.0,38.0,55.0
1.8435167074203491,15.0,349.0,3098.0,1875.0,10.0,372.0
1.8448166847229004,13.0,1291.0,53.0,1888.0,762.0,213.0
1.8461166620254517,35.0,1060.0,1359.0,1262.0,410.0,54.0
1.847416639328003,40.0,830.0,1136.0,1202.0,58.0,13.0
1.8487166166305542,25.0,26.0,1559.0,1337.0,267.0,68.0
1.850016713142395,20.0,928.0,1716.0,1224.0,476.0,47.0
1.8513166904449463,17.0,693.0,1873.0,1110.0,251.0,32.0
1.8526166677474976,15.0,16.0,58.0,440.0,26.0,691.0
1.8539166450500488,30.0,904.0,1762.0,911.0,35.0,670.0
1.8552833795547485,46.0,1793.0,519.0,25.0,842.0,649.0
1.8565833568572998,37.0,1417.0,1214.0,1295.0,1011.0,185.0
1.857883334159851,28.0,1040.0,1920.0,1272.0,651.0,574.0
1.8591833114624023,28.0,1573.0,2387.0,748.0,569.0,37.0
1.8604832887649536,29.0,510.0,2545.0,1826.0,462.0,32.0
1.8617833852767944,26.0,813.0,530.0,1466.0,10.0,51.0
1.8630833625793457,24.0,1116.0,2131.0,112.0,630.0,70.0
1.864383339881897,10.0,694.0,338.0,69.0,514.0,5.0
1.8656833171844482,0.0,729.0,959.0,459.0,29.0,26.0
1.8669832944869995,10.0,763.0,1810.0,545.0,716.0,10.0
1.8682833909988403,15.0,0.0,1071.0,291.0,1050.0,37.0
1.8695833683013916,21.0,22.0,1289.0,36.0,22.0,22.0
1.8708833456039429,15.0,3124.0,1539.0,1359.0,1162.0,8.0
1.8722333908081055,22.0,2722.0,1790.0,713.0,47.0,11.0
1.8735333681106567,17.0,2063.0,1856.0,68.0,22.0,15.0
1.874833345413208,13.0,702.0,943.0,396.0,608.0,14.0
1.8761333227157593,10.0,784.0,30.0,723.0,24.0,14.0
1.8774499893188477,10.0,1204.0,44.0,650.0,1275.0,17.0
1.878749966621399,32.0,1623.0,178.0,604.0,1313.0,16.0
1.8800333738327026,18.0,1304.0,312.0,33.0,1215.0,15.0
1.881350040435791,5.0,985.0,463.0,1141.0,1117.0,16.0
1.8826333284378052,26.0,1126.0,615.0,795.0,21.0,23.0
1.8839333057403564,29.0,1127.0,451.0,1084.0,5.0,46.0
1.8852499723434448,33.0,706.0,534.0,28.0,1041.0,31.0
1.8865333795547485,37.0,701.0,617.0,25.0,912.0,16.0
1.887850046157837,40.0,1394.0,1960.0,908.0,10.0,43.0
1.8891667127609253,49.0,279.0,2336.0,44.0,1080.0,21.0
1.8904666900634766,357.0,2608.0,1742.0,30.0,1629.0,0.0
1.8917666673660278,207.0,1947.0,1148.0,11.0,822.0,2.0
1.893066644668579,56.0,1273.0,1665.0,938.0,36.0,5.0
1.8943666219711304,83.0,0.0,2182.0,1216.0,514.0,18.0
1.8956667184829712,42.0,19.0,1904.0,1871.0,284.0,22.0
1.8969666957855225,18.0,30.0,1232.0,1727.0,490.0,26.0
1.8982666730880737,15.0,42.0,2210.0,515.0,38.0,11.0
1.899566650390625,30.0,548.0,1499.0,2973.0,556.0,32.0
1.9008666276931763,5.0,1054.0,2143.0,33.0,348.0,37.0
1.902166724205017,11.0,1145.0,879.0,1102.0,36.0,41.0
1.9034667015075684,30.0,852.0,1868.0,657.0,21.0,52.0
1.9047666788101196,10.0,11.0,1964.0,742.0,5.0,5.0
1.9061332941055298,27.0,1381.0,2713.0,828.0,163.0,50.0
1.9074333906173706,23.0,559.0,629.0,2560.0,95.0,271.0
1.9087333679199219,6.0,2488.0,1731.0,2174.0,26.0,495.0
1.9100333452224731,5.0,1978.0,2313.0,759.0,18.0,664.0
1.9113333225250244,0.0,1468.0,729.0,1764.0,10.0,524.0
1.9126332998275757,0.0,1815.0,1196.0,1862.0,29.0,384.0
1.913933277130127,0.0,1752.0,1663.0,34.0,39.0,33.0
1.9152333736419678,2.0,44.0,1274.0,1022.0,32.0,386.0
1.916533350944519,5.0,856.0,2374.0,854.0,26.0,56.0
1.9178333282470703,7.0,2302.0,2531.0,1017.0,19.0,34.0
1.9191333055496216,3.0,432.0,1141.0,1135.0,13.0,11.0
1.9204332828521729,0.0,2583.0,553.0,672.0,68.0,25.0
1.9217333793640137,5.0,436.0,34.0,627.0,54.0,25.0
1.9230833053588867,10.0,1936.0,281.0,914.0,39.0,26.0
1.924383282661438,22.0,469.0,528.0,1561.0,525.0,11.0
1.9256833791732788,18.0,1312.0,434.0,1421.0,1205.0,8.0
1.92698335647583,13.0,1198.0,2129.0,54.0,625.0,5.0
1.9282833337783813,11.0,5.0,2119.0,1435.0,45.0,15.0
1.9295833110809326,10.0,1312.0,953.0,895.0,479.0,43.0
1.9308832883834839,7.0,31.0,1105.0,72.0,412.0,32.0
1.9321833848953247,5.0,753.0,2189.0,583.0,542.0,21.0
1.933483362197876,10.0,1184.0,1890.0,44.0,35.0,18.0
1.9347833395004272,16.0,1672.0,864.0,213.0,10.0,15.0
1.9360833168029785,25.0,1601.0,809.0,383.0,13.0,26.0
1.9373832941055298,18.0,1529.0,683.0,837.0,16.0,0.0
1.9386833906173706,10.0,1134.0,913.0,1276.0,46.0,43.0
1.9400500059127808,13.0,1878.0,1144.0,862.0,1217.0,27.0
1.941349983215332,20.0,905.0,420.0,447.0,1038.0,11.0
1.9426499605178833,12.0,1527.0,252.0,1058.0,5.0,27.0
1.9439500570297241,5.0,2095.0,85.0,552.0,26.0,43.0
1.9452500343322754,24.0,187.0,98.0,45.0,43.0,32.0
1.9465500116348267,0.0,1256.0,110.0,6.0,1182.0,22.0
1.947849988937378,16.0,1229.0,46.0,16.0,889.0,47.0
1.9491499662399292,31.0,3037.0,501.0,27.0,5.0,21.0
1.9504499435424805,25.0,2992.0,2387.0,28.0,1449.0,21.0
1.9517500400543213,33.0,1248.0,1977.0,3289.0,930.0,21.0
1.9530500173568726,23.0,708.0,1567.0,2524.0,5.0,15.0
1.9543499946594238,17.0,1256.0,636.0,36.0,1780.0,10.0
1.955649971961975,13.0,998.0,933.0,1023.0,8.0,14.0
1.9570167064666748,9.0,739.0,15.0,552.0,2083.0,15.0
1.958316683769226,13.0,968.0,130.0,15.0,34.0,17.0
1.9596166610717773,18.0,1150.0,245.0,1231.0,1724.0,10.0
1.9609166383743286,27.0,904.0,444.0,1571.0,20.0,35.0
1.9622166156768799,19.0,1056.0,233.0,1794.0,10.0,61.0
1.9635167121887207,11.0,1161.0,22.0,1516.0,1646.0,30.0
1.964816689491272,23.0,1266.0,642.0,1579.0,1428.0,0.0
1.9661166667938232,36.0,12.0,671.0,1643.0,539.0,25.0
1.9674166440963745,40.0,706.0,481.0,874.0,1599.0,30.0
1.9687166213989258,34.0,1237.0,984.0,1386.0,619.0,35.0
1.9700167179107666,29.0,430.0,503.0,1899.0,714.0,26.0
1.9713166952133179,17.0,943.0,23.0,2063.0,856.0,17.0
1.9726166725158691,47.0,5.0,28.0,15.0,33.0,19.0
1.9739667177200317,5.0,836.0,89.0,1190.0,899.0,21.0
1.975266695022583,10.0,570.0,52.0,203.0,1066.0,17.0
1.9765666723251343,27.0,466.0,15.0,557.0,22.0,20.0
1.9778666496276855,24.0,362.0,29.0,472.0,563.0,24.0
1.9791666269302368,21.0,2080.0,15.0,39.0,1104.0,26.0
1.9804832935333252,40.0,2551.0,2177.0,878.0,11.0,28.0
1.981766700744629,35.0,49.0,1521.0,1156.0,50.0,19.0
1.9830666780471802,30.0,47.0,866.0,500.0,1355.0,551.0
1.9843666553497314,13.0,107.0,911.0,1002.0,918.0,290.0
1.9856833219528198,15.0,782.0,957.0,1218.0,11.0,29.0
1.986966609954834,0.0,1612.0,469.0,1434.0,1104.0,10.0
1.9882667064666748,8.0,1713.0,1177.0,6.0,38.0,23.0
1.989566683769226,49.0,679.0,673.0,36.0,96.0,18.0
1.9909332990646362,38.0,10.0,1636.0,18.0,6.0,14.0
1.9922332763671875,39.0,738.0,1221.0,417.0,10.0,22.0
1.9935333728790283,11.0,34.0,17.0,224.0,38.0,0.0
1.9948333501815796,26.0,548.0,912.0,30.0,235.0,14.0
1.9961333274841309,25.0,1471.0,1788.0,482.0,120.0,28.0
1.9974333047866821,10.0,970.0,982.0,414.0,5.0,21.0
1.9987332820892334,10.0,469.0,2345.0,347.0,12.0,15.0
