,259.1700134277344,260.1700134277344,261.1700134277344,262.1700134277344,263.1700134277344
2.4014832973480225,23.0,192.0,671.0,62.0,18.0
2.403216600418091,17.0,5.0,26.0,65.0,51.0
2.4060332775115967,36.0,6.0,10.0,562.0,26.0
2.408916711807251,25.0,22.0,5.0,702.0,16.0
2.411733388900757,15.0,19.0,22.0,12.0,11.0
2.4145500659942627,41.0,13.0,13.0,36.0,8.0
2.4173667430877686,10.0,15.0,5.0,17.0,12.0
2.4201834201812744,34.0,17.0,22.0,24.0,12.0
2.4230000972747803,0.0,23.0,15.0,18.0,11.0
2.4258832931518555,17.0,22.0,8.0,29.0,11.0
2.4286999702453613,33.0,22.0,19.0,31.0,5.0
2.431516647338867,0.0,22.0,15.0,30.0,9.0
2.434333324432373,20.0,22.0,67.0,29.0,13.0
2.437150001525879,8.0,21.0,49.0,19.0,5.0
2.4399666786193848,12.0,21.0,32.0,10.0,2.0
2.442850112915039,20.0,16.0,15.0,6.0,0.0
2.445666551589966,12.0,23.0,36.0,22.0,5.0
2.4484832286834717,5.0,30.0,10.0,23.0,9.0
2.4512999057769775,9.0,32.0,13.0,24.0,7.0
2.4541165828704834,13.0,33.0,6.0,0.0,0.0
2.4569332599639893,12.0,23.0,8.0,7.0,13.0
2.4597833156585693,15.0,29.0,10.0,18.0,26.0
2.462599992752075,17.0,31.0,21.0,13.0,18.0
2.465416669845581,20.0,34.0,21.0,18.0,10.0
2.468233346939087,5.0,32.0,22.0,23.0,21.0
2.4710500240325928,14.0,18.0,16.0,0.0,19.0
2.4738667011260986,14.0,24.0,17.0,14.0,17.0
2.476749897003174,14.0,29.0,18.0,28.0,5.0
2.4795665740966797,26.0,34.0,21.0,27.0,13.0
2.4823832511901855,41.0,42.0,18.0,5.0,14.0
2.4851999282836914,35.0,37.0,16.0,91.0,16.0
2.4880166053771973,15.0,33.0,15.0,53.0,58.0
2.490833282470703,5.0,43.0,15.0,15.0,45.0
2.493666648864746,21.0,16.0,21.0,59.0,33.0
2.496483325958252,45.0,5.0,14.0,520.0,11.0
2.499300003051758,69.0,72.0,7.0,597.0,28.0
2.5021166801452637,61.0,446.0,38.0,26.0,23.0
2.5049333572387695,0.0,234.0,32.0,47.0,18.0
2.5077500343322754,3.0,22.0,39.0,944.0,35.0
2.5106332302093506,7.0,1287.0,33.0,535.0,33.0
2.5134499073028564,6.0,1745.0,26.0,41.0,21.0
2.5162665843963623,5.0,898.0,17.0,509.0,16.0
2.519083261489868,5.0,25.0,0.0,0.0,12.0
2.521899938583374,6.0,384.0,10.0,25.0,23.0
2.52471661567688,17.0,1026.0,20.0,0.0,33.0
2.527600049972534,44.0,1207.0,25.0,17.0,39.0
2.53041672706604,39.0,989.0,31.0,23.0,39.0
2.533233404159546,35.0,10.0,35.0,26.0,25.0
2.5360500812530518,15.0,15.0,12.0,13.0,23.0
2.5388667583465576,17.0,1209.0,22.0,0.0,0.0
2.5416834354400635,31.0,27.0,32.0,57.0,21.0
2.5445165634155273,18.0,1172.0,47.0,75.0,0.0
2.547333240509033,5.0,155.0,31.0,55.0,12.0
2.550149917602539,24.0,853.0,15.0,36.0,30.0
2.552966594696045,22.0,565.0,14.0,6.0,28.0
2.555783271789551,21.0,895.0,29.0,33.0,21.0
2.5585999488830566,8.0,284.0,17.0,11.0,25.0
2.561483383178711,32.0,703.0,6.0,19.0,12.0
2.564300060272217,20.0,364.0,14.0,28.0,29.0
2.5671167373657227,19.0,26.0,32.0,8.0,30.0
2.5699334144592285,10.0,21.0,18.0,20.0,31.0
2.5727500915527344,10.0,40.0,5.0,19.0,22.0
2.5755667686462402,10.0,24.0,23.0,19.0,13.0
2.5784499645233154,5.0,732.0,22.0,18.0,24.0
2.5812666416168213,0.0,4273.0,22.0,18.0,33.0
2.584083318710327,9.0,12056.0,16.0,25.0,26.0
2.586899995803833,19.0,22272.0,2062.0,32.0,15.0
2.589716672897339,15.0,34736.0,1962.0,27.0,40.0
2.5925333499908447,12.0,78224.0,2238.0,28.0,46.0
2.595416784286499,10.0,95280.0,8248.0,1451.0,52.0
2.598233222961426,16.0,163136.0,16520.0,1921.0,836.0
2.6010499000549316,5.0,221504.0,13288.0,1732.0,663.0
2.6038665771484375,15.0,294272.0,20708.0,4530.0,490.0
2.6066832542419434,10.0,385792.0,16388.0,4630.0,885.0
2.609499931335449,5.0,471552.0,24116.0,4730.0,2572.0
2.6123666763305664,30.0,536832.0,33504.0,1607.0,2897.0
2.6151833534240723,23.0,556032.0,34304.0,5977.0,2251.0
2.618000030517578,17.0,647168.0,42368.0,6143.0,2751.0
2.620816707611084,34.0,750336.0,42464.0,6310.0,1047.0
2.62363338470459,27.0,760832.0,51248.0,5746.0,1145.0
2.6264500617980957,20.0,757760.0,47536.0,11216.0,1242.0
2.629333257675171,21.0,865024.0,53696.0,15092.0,4752.0
2.6321499347686768,202.0,923136.0,39856.0,12220.0,3866.0
2.6349666118621826,103.0,932352.0,49152.0,19236.0,3646.0
2.6377832889556885,5.0,1064448.0,64544.0,20512.0,3634.0
2.6405999660491943,52.0,1019904.0,69040.0,15424.0,4972.0
2.6434166431427,356.0,1063168.0,56336.0,13188.0,6311.0
2.6463000774383545,659.0,1118976.0,57328.0,19972.0,1354.0
2.6491167545318604,506.0,1126400.0,71280.0,20148.0,4335.0
2.651933431625366,353.0,1110784.0,68288.0,10388.0,3099.0
2.654750108718872,0.0,1096960.0,60912.0,20396.0,4427.0
2.657566785812378,633.0,985600.0,65408.0,13544.0,6031.0
2.6603832244873047,330.0,926208.0,51600.0,10252.0,7117.0
2.663249969482422,27.0,814336.0,47120.0,6222.0,2021.0
2.6660666465759277,18.0,821248.0,51728.0,7428.0,4014.0
2.6688833236694336,10.0,658176.0,37728.0,8632.0,1298.0
2.6717000007629395,6.0,552448.0,34736.0,9012.0,1065.0
2.6745166778564453,40.0,482432.0,31196.0,3851.0,831.0
2.677333354949951,45.0,377152.0,28692.0,4411.0,1107.0
2.6802165508270264,47.0,328384.0,23796.0,2535.0,1382.0
2.6830332279205322,49.0,270080.0,17916.0,3489.0,37.0
2.685849905014038,49.0,222720.0,2818.0,2520.0,1618.0
2.688666582107544,24.0,169984.0,7998.0,2132.0,38.0
2.69148325920105,31.0,125936.0,4727.0,1709.0,1676.0
2.6942999362945557,39.0,115936.0,9380.0,550.0,2176.0
2.69718337059021,11.0,93616.0,9112.0,60.0,42.0
2.700000047683716,35.0,63328.0,1314.0,30.0,870.0
2.7028167247772217,39.0,45248.0,3257.0,66.0,1010.0
2.7056334018707275,18.0,37104.0,355.0,49.0,34.0
2.7084500789642334,11.0,28816.0,30.0,31.0,11.0
2.7112667560577393,47.0,20344.0,1538.0,23.0,18.0
2.7141499519348145,57.0,15080.0,1770.0,16.0,38.0
2.7169666290283203,68.0,13248.0,824.0,23.0,44.0
2.719783306121826,48.0,15772.0,978.0,31.0,51.0
2.722599983215332,41.0,10124.0,1392.0,37.0,28.0
2.725416660308838,45.0,5906.0,464.0,39.0,45.0
2.7282333374023438,49.0,7743.0,366.0,41.0,44.0
2.731100082397461,54.0,7105.0,900.0,25.0,39.0
2.733916759490967,56.0,6462.0,47.0,19.0,39.0
2.7367334365844727,49.0,3874.0,949.0,29.0,10.0
2.7395501136779785,27.0,5659.0,747.0,16.0,53.0
2.7423665523529053,9.0,2898.0,611.0,22.0,49.0
2.745183229446411,48.0,3398.0,1057.0,21.0,24.0
2.7480666637420654,37.0,3166.0,655.0,20.0,41.0
2.7508833408355713,84.0,2934.0,34.0,26.0,6.0
2.753700017929077,87.0,4217.0,55.0,33.0,15.0
2.756516695022583,69.0,4376.0,1508.0,25.0,24.0
2.759333372116089,35.0,4535.0,1235.0,18.0,57.0
2.7621500492095947,10.0,5126.0,59.0,20.0,56.0
2.76503324508667,32.0,6456.0,680.0,20.0,32.0
2.767849922180176,58.0,5464.0,369.0,35.0,21.0
2.7706665992736816,42.0,4471.0,472.0,50.0,16.0
2.7734832763671875,54.0,4784.0,575.0,71.0,12.0
2.7762999534606934,10.0,2256.0,22.0,92.0,32.0
2.779116630554199,5.0,1849.0,249.0,1076.0,33.0
2.781949996948242,10.0,5690.0,136.0,551.0,34.0
2.784766674041748,10.0,3589.0,24.0,27.0,29.0
2.787583351135254,8.0,2715.0,29.0,1102.0,25.0
2.7904000282287598,7.0,4447.0,47.0,7.0,17.0
2.7932167053222656,8.0,1792.0,65.0,15.0,12.0
2.7960333824157715,11.0,2679.0,53.0,1036.0,23.0
2.7989165782928467,16.0,974.0,18.0,837.0,35.0
2.8017332553863525,15.0,800.0,20.0,639.0,32.0
2.8045499324798584,14.0,57.0,17.0,18.0,29.0
2.8073666095733643,10.0,5.0,0.0,54.0,28.0
2.81018328666687,13.0,545.0,34.0,616.0,734.0
2.812999963760376,17.0,287.0,22.0,647.0,884.0
2.8158833980560303,0.0,29.0,9.0,714.0,448.0
2.818700075149536,5.0,5.0,11.0,443.0,1286.0
2.821516752243042,10.0,918.0,10.0,581.0,25.0
2.824333429336548,32.0,1530.0,10.0,344.0,607.0
2.8271501064300537,26.0,2103.0,17.0,106.0,44.0
2.8299667835235596,25.0,825.0,17.0,6.0,24.0
2.8328332901000977,27.0,756.0,17.0,404.0,5.0
2.8356499671936035,32.0,409.0,26.0,230.0,532.0
2.8384666442871094,37.0,488.0,34.0,489.0,346.0
2.8412833213806152,17.0,568.0,37.0,267.0,160.0
2.844099998474121,42.0,326.0,39.0,45.0,20.0
2.846916675567627,12.0,607.0,0.0,51.0,19.0
2.8498001098632812,10.0,719.0,29.0,48.0,660.0
2.852616548538208,15.0,831.0,0.0,195.0,356.0
2.855433225631714,12.0,729.0,32.0,342.0,52.0
2.8582499027252197,16.0,349.0,26.0,197.0,45.0
2.8610665798187256,25.0,1219.0,25.0,52.0,25.0
2.8638832569122314,33.0,1025.0,23.0,32.0,5.0
2.8667666912078857,36.0,830.0,21.0,12.0,62.0
2.8695833683013916,18.0,418.0,25.0,866.0,44.0
2.8724000453948975,10.0,5.0,55.0,1269.0,36.0
2.8752167224884033,20.0,33.0,130.0,599.0,22.0
2.878033399581909,16.0,62.0,1040.0,5.0,29.0
2.880850076675415,13.0,202.0,913.0,1227.0,15.0
2.883716583251953,22.0,343.0,2449.0,1888.0,379.0
2.886533260345459,11.0,9984.0,9940.0,4162.0,742.0
2.889349937438965,23.0,31472.0,28112.0,6897.0,17952.0
2.8921666145324707,35.0,62016.0,70432.0,24796.0,39184.0
2.8949832916259766,29.0,176384.0,162048.0,44048.0,85248.0
2.8977999687194824,52.0,289408.0,325184.0,80032.0,148160.0
2.9006834030151367,43.0,548352.0,592384.0,152128.0,292096.0
2.9035000801086426,34.0,885504.0,883712.0,229248.0,334656.0
2.9063167572021484,33.0,1126912.0,1156864.0,302208.0,473920.0
2.9091334342956543,79.0,1463296.0,1488896.0,351744.0,670208.0
2.91195011138916,73.0,1794304.0,1797376.0,425920.0,810496.0
2.914766550064087,51.0,2096384.0,2017792.0,509824.0,844544.0
2.917649984359741,53.0,2452480.0,2385920.0,598784.0,1047296.0
2.920466661453247,65.0,2733056.0,2516992.0,611584.0,1051392.0
2.923283338546753,116.0,2833408.0,2747392.0,648704.0,1142016.0
2.926100015640259,168.0,3133440.0,2937856.0,703488.0,1281536.0
2.9289166927337646,113.0,3298304.0,3232768.0,775168.0,1379072.0
2.9317333698272705,59.0,3451904.0,3354624.0,851200.0,1433088.0
2.9346001148223877,154.0,3746816.0,3508224.0,872192.0,1401856.0
2.9374165534973145,110.0,3956736.0,3608576.0,886016.0,1508608.0
2.9402332305908203,168.0,3791872.0,3554304.0,830976.0,1526272.0
2.943049907684326,227.0,3992576.0,3624960.0,914432.0,1574912.0
2.945866584777832,921.0,4015104.0,3696640.0,879616.0,1550592.0
2.948683261871338,517.0,4021248.0,3721216.0,918528.0,1478400.0
2.951566696166992,113.0,3887104.0,3656704.0,895488.0,1509632.0
2.954383373260498,141.0,3794944.0,3646464.0,872448.0,1454336.0
2.957200050354004,676.0,3565568.0,3491840.0,883456.0,1453824.0
2.9600167274475098,982.0,3651584.0,3352576.0,836096.0,1398272.0
2.9628334045410156,537.0,3513344.0,3247104.0,791808.0,1427200.0
2.9656500816345215,92.0,3166208.0,3044352.0,745984.0,1223936.0
2.9685332775115967,565.0,3253248.0,2970624.0,732672.0,1243136.0
2.9713499546051025,376.0,3025920.0,2883584.0,678912.0,1134848.0
2.9741666316986084,187.0,2751488.0,2503680.0,636416.0,1020672.0
2.9769833087921143,50.0,2479104.0,2270208.0,577536.0,978688.0
2.97979998588562,266.0,2309120.0,2148352.0,534528.0,887552.0
2.982616662979126,57.0,2168832.0,1936896.0,482112.0,785664.0
2.985450029373169,76.0,1968384.0,1757696.0,393344.0,716800.0
2.988266706466675,95.0,1727232.0,1601536.0,390208.0,628224.0
2.9910833835601807,97.0,1495552.0,1451520.0,340224.0,551424.0
2.9939000606536865,123.0,1381632.0,1169920.0,290176.0,489472.0
2.9967167377471924,149.0,1053952.0,935680.0,221120.0,393344.0
2.9995334148406982,830.0,909056.0,850432.0,218368.0,350016.0
3.001333236694336,1150.0,839424.0,727808.0,161664.0,287552.0
3.0024166107177734,1500.0,732928.0,666624.0,133312.0,259392.0
3.003499984741211,871.0,613376.0,597504.0,143744.0,245504.0
3.0045833587646484,956.0,585728.0,556288.0,123808.0,207360.0
3.005666732788086,295.0,522176.0,513280.0,120848.0,223616.0
3.0067501068115234,400.0,510848.0,429248.0,124432.0,152064.0
3.007833242416382,506.0,449728.0,411136.0,112368.0,174272.0
3.0089166164398193,293.0,410752.0,366720.0,89728.0,146112.0
3.009999990463257,80.0,361664.0,354304.0,74096.0,155264.0
3.0110833644866943,117.0,363328.0,357760.0,71904.0,156992.0
3.012166738510132,195.0,323904.0,319936.0,76272.0,135744.0
3.0132501125335693,124.0,316032.0,264256.0,55856.0,98576.0
3.0143332481384277,52.0,298432.0,263872.0,65872.0,102640.0
3.0154166221618652,79.0,254272.0,247488.0,62912.0,99040.0
3.0164999961853027,131.0,260160.0,244416.0,48816.0,83760.0
3.0176334381103516,92.0,239616.0,202816.0,58304.0,95184.0
3.01871657371521,52.0,222720.0,217216.0,46720.0,92976.0
3.0197999477386475,335.0,202944.0,197440.0,41360.0,75248.0
3.020883321762085,617.0,193088.0,193088.0,42064.0,62672.0
3.0219666957855225,350.0,191808.0,156864.0,40208.0,60080.0
3.02305006980896,83.0,171968.0,155584.0,39408.0,66816.0
3.0241498947143555,230.0,148160.0,152512.0,37840.0,64768.0
3.025216579437256,157.0,155584.0,171520.0,36272.0,56688.0
3.0262999534606934,83.0,127280.0,131328.0,30272.0,57776.0
3.027383327484131,87.0,160320.0,154368.0,35664.0,59344.0
3.0284667015075684,91.0,143104.0,118464.0,33152.0,40320.0
3.029550075531006,71.0,174016.0,123744.0,34016.0,60528.0
3.0306334495544434,51.0,127312.0,129152.0,30160.0,55968.0
3.0317165851593018,73.0,138688.0,119344.0,30896.0,61456.0
3.0327999591827393,73.0,130224.0,109920.0,30460.0,48656.0
3.0338833332061768,72.0,112544.0,106624.0,26216.0,38912.0
3.0350332260131836,19.0,95808.0,101200.0,23052.0,43216.0
3.036116600036621,62.0,124224.0,106352.0,26964.0,39456.0
3.0371999740600586,66.0,110480.0,106752.0,24096.0,44496.0
3.038283348083496,12.0,96448.0,107168.0,21224.0,35968.0
3.0393667221069336,87.0,94304.0,88352.0,20112.0,44880.0
3.040450096130371,51.0,93824.0,91456.0,23684.0,32172.0
3.0415332317352295,60.0,98704.0,85696.0,20396.0,30160.0
3.042616605758667,69.0,88544.0,89376.0,17860.0,36112.0
3.0436999797821045,52.0,87360.0,74112.0,22456.0,32880.0
3.044783353805542,22.0,90272.0,71200.0,9864.0,30168.0
3.0458667278289795,1350.0,76016.0,87824.0,18032.0,29556.0
3.046950101852417,877.0,68240.0,61264.0,19496.0,28944.0
3.0480332374572754,405.0,67232.0,79072.0,21144.0,35552.0
3.049116611480713,667.0,76592.0,72096.0,14864.0,34672.0
3.0501999855041504,32.0,63248.0,67984.0,15516.0,25080.0
3.051333427429199,23.0,62704.0,76464.0,20876.0,26904.0
3.0524332523345947,83.0,68704.0,68592.0,17236.0,28928.0
3.0535166263580322,38.0,50192.0,58832.0,12092.0,19428.0
3.0546000003814697,66.0,51392.0,61248.0,12396.0,20104.0
3.0556833744049072,54.0,60992.0,46000.0,15072.0,20832.0
3.0567667484283447,50.0,55744.0,60000.0,15016.0,19016.0
3.057849884033203,46.0,45120.0,57040.0,14960.0,19300.0
3.0589332580566406,60.0,56096.0,50064.0,16072.0,19588.0
3.060016632080078,25.0,61568.0,52544.0,13384.0,15284.0
3.0611000061035156,90.0,57312.0,48064.0,12008.0,24660.0
3.062183380126953,74.0,51392.0,49168.0,9560.0,22640.0
3.0632667541503906,35.0,57424.0,47664.0,11576.0,18356.0
3.064349889755249,51.0,53168.0,49408.0,8820.0,14020.0
3.0654332637786865,28.0,30944.0,41632.0,9552.0,13264.0
3.066516637802124,42.0,46832.0,41232.0,6962.0,12208.0
3.0676000118255615,50.0,35632.0,38032.0,12596.0,14164.0
3.0687332153320312,55.0,46800.0,34128.0,12696.0,11692.0
3.0698165893554688,41.0,47600.0,35392.0,12792.0,10736.0
3.0708999633789062,38.0,45760.0,36400.0,14288.0,12380.0
3.072000026702881,27.0,32944.0,26924.0,9268.0,11652.0
3.0730667114257812,17.0,45824.0,34816.0,7855.0,12860.0
3.0741500854492188,57.0,34288.0,35760.0,10600.0,12604.0
3.075233221054077,59.0,46848.0,41552.0,10324.0,12352.0
3.0763165950775146,55.0,46176.0,36160.0,8616.0,13056.0
3.0774166584014893,39.0,43312.0,42256.0,11716.0,9668.0
3.0785000324249268,39.0,37248.0,34192.0,7991.0,6487.0
3.079566717147827,39.0,38208.0,28352.0,6855.0,9860.0
3.0806500911712646,44.0,22892.0,35552.0,5719.0,9376.0
3.081733226776123,60.0,27184.0,31084.0,4809.0,8896.0
3.0828166007995605,71.0,33344.0,26052.0,6510.0,11804.0
3.083899974822998,58.0,29376.0,26500.0,8212.0,12400.0
3.0849833488464355,46.0,28116.0,27920.0,7417.0,12996.0
3.0861332416534424,40.0,34000.0,20144.0,6622.0,13660.0
3.08721661567688,57.0,29448.0,24392.0,5162.0,14324.0
3.0882999897003174,49.0,24896.0,29664.0,5504.0,9284.0
3.089383363723755,54.0,26988.0,25676.0,5918.0,13104.0
3.0904667377471924,58.0,31300.0,28444.0,5178.0,12324.0
3.09155011177063,12.0,32296.0,23312.0,7189.0,11168.0
3.0926332473754883,29.0,23360.0,29936.0,6873.0,6545.0
3.093716621398926,28.0,20884.0,30960.0,8816.0,13556.0
3.0947999954223633,10.0,28184.0,22968.0,7456.0,13248.0
3.095883369445801,17.0,32912.0,21336.0,6095.0,11748.0
3.0969667434692383,24.0,33104.0,26616.0,10596.0,11712.0
3.098050117492676,55.0,38112.0,16908.0,10708.0,11676.0
3.099133253097534,65.0,25196.0,24732.0,5526.0,11808.0
3.1002166271209717,34.0,27620.0,24060.0,5552.0,7546.0
3.101300001144409,54.0,31892.0,26844.0,6559.0,13260.0
3.102433443069458,71.0,22692.0,19816.0,6834.0,7617.0
3.1035165786743164,35.0,26972.0,27712.0,7109.0,9376.0
3.104616641998291,105.0,28088.0,27888.0,6545.0,7868.0
3.1057000160217285,0.0,23852.0,24836.0,5981.0,8772.0
3.106783390045166,63.0,23884.0,20356.0,6842.0,10612.0
3.1078500747680664,10.0,19496.0,24964.0,5202.0,5544.0
3.108949899673462,65.0,20308.0,21136.0,2957.0,10084.0
3.1100332736968994,19.0,22544.0,20020.0,4610.0,8824.0
3.111116647720337,31.0,24780.0,19272.0,6384.0,10072.0
3.1122000217437744,59.0,29040.0,18524.0,5530.0,9020.0
3.113283395767212,19.0,26916.0,20380.0,4676.0,9552.0
3.1143500804901123,40.0,17136.0,19568.0,2295.0,4763.0
3.115449905395508,53.0,21092.0,18756.0,5466.0,7228.0
3.1165332794189453,39.0,29108.0,22136.0,7694.0,8472.0
3.117616653442383,35.0,33008.0,16912.0,6357.0,9284.0
3.1187000274658203,44.0,23752.0,14340.0,5019.0,10100.0
3.119816780090332,20.0,19408.0,21448.0,2584.0,8792.0
3.1208832263946533,7.0,23172.0,20524.0,4038.0,10628.0
3.121983289718628,39.0,21228.0,22648.0,6190.0,3174.0
3.1230666637420654,34.0,21864.0,19880.0,5040.0,12672.0
3.124133348464966,29.0,16820.0,18592.0,6436.0,7382.0
3.1252334117889404,30.0,19056.0,22960.0,3158.0,8031.0
3.126316785812378,31.0,17628.0,18020.0,3201.0,9288.0
3.1273999214172363,18.0,22360.0,16460.0,960.0,7201.0
3.128483295440674,43.0,19836.0,18576.0,3422.0,7637.0
3.129549980163574,0.0,17316.0,8348.0,65.0,6611.0
3.130650043487549,46.0,13948.0,15260.0,270.0,5585.0
3.131716728210449,24.0,19280.0,17152.0,5471.0,4183.0
3.1328001022338867,32.0,9228.0,11544.0,4773.0,6955.0
3.133883237838745,41.0,7110.0,12732.0,2467.0,3915.0
3.1349833011627197,46.0,9648.0,8492.0,2614.0,3158.0
3.1360833644866943,47.0,10692.0,4189.0,3463.0,1810.0
3.137166738510132,44.0,10288.0,7856.0,3383.0,4473.0
3.1382501125335693,54.0,4974.0,4622.0,626.0,3128.0
3.1393332481384277,79.0,5223.0,5529.0,2144.0,1635.0
3.1404166221618652,5.0,6118.0,5592.0,415.0,1545.0
3.1414999961853027,13.0,2764.0,7804.0,1506.0,3013.0
3.1425833702087402,20.0,2380.0,2065.0,482.0,927.0
3.1436667442321777,21.0,1787.0,3959.0,1606.0,1819.0
3.1447501182556152,23.0,4414.0,3383.0,62.0,731.0
3.1458332538604736,24.0,4001.0,3447.0,451.0,380.0
3.146916627883911,26.0,4010.0,1025.0,6.0,28.0
3.1480000019073486,0.0,3974.0,2397.0,0.0,1246.0
3.149083375930786,21.0,3938.0,1551.0,971.0,920.0
3.1501667499542236,35.0,3187.0,792.0,825.0,594.0
3.151249885559082,31.0,22.0,23.0,41.0,23.0
3.1523332595825195,5.0,1623.0,27.0,861.0,54.0
3.1534833908081055,6.0,1677.0,1516.0,34.0,222.0
3.154566764831543,8.0,2378.0,2576.0,771.0,494.0
3.1556499004364014,10.0,448.0,3108.0,240.0,262.0
3.156733274459839,7.0,2641.0,908.0,565.0,30.0
3.1578166484832764,5.0,477.0,1229.0,37.0,14.0
3.158900022506714,25.0,1645.0,225.0,736.0,518.0
3.1599833965301514,20.0,241.0,862.0,681.0,1093.0
3.161066770553589,18.0,1757.0,1157.0,65.0,555.0
3.1621499061584473,17.0,2065.0,1451.0,27.0,17.0
3.1632332801818848,21.0,2036.0,692.0,26.0,16.0
3.1643166542053223,40.0,2310.0,814.0,28.0,603.0
3.1654000282287598,37.0,10.0,936.0,31.0,5.0
3.1664834022521973,40.0,942.0,786.0,24.0,47.0
3.1675667762756348,7.0,922.0,278.0,17.0,10.0
3.168649911880493,5.0,1320.0,739.0,514.0,17.0
3.169800043106079,25.0,704.0,752.0,283.0,25.0
3.1708834171295166,17.0,31.0,51.0,52.0,26.0
3.171966552734375,33.0,1685.0,340.0,20.0,13.0
3.1730499267578125,15.0,402.0,629.0,32.0,0.0
3.17413330078125,41.0,448.0,1187.0,58.0,20.0
3.1752166748046875,30.0,24.0,1232.0,11.0,16.0
3.176300048828125,26.0,47.0,37.0,35.0,11.0
3.1773834228515625,39.0,69.0,1588.0,23.0,82.0
3.178466558456421,32.0,810.0,1338.0,10.0,60.0
3.1795499324798584,26.0,419.0,1088.0,50.0,37.0
3.180633306503296,34.0,28.0,41.0,33.0,785.0
3.1817166805267334,5.0,69.0,1629.0,44.0,965.0
3.182800054550171,27.0,22.0,857.0,36.0,342.0
3.1838834285736084,73.0,41.0,2240.0,29.0,62.0
3.184966564178467,46.0,560.0,53.0,11.0,1136.0
3.1860499382019043,19.0,891.0,5.0,45.0,830.0
3.187183380126953,23.0,1145.0,40.0,581.0,738.0
3.1882667541503906,45.0,1391.0,149.0,755.0,615.0
3.189349889755249,12.0,1371.0,257.0,42.0,549.0
3.1904332637786865,16.0,317.0,501.0,43.0,13.0
3.191516637802124,10.0,1055.0,260.0,24.0,10.0
3.1926000118255615,28.0,1269.0,19.0,18.0,40.0
3.193683385848999,20.0,1542.0,289.0,13.0,12.0
3.1947667598724365,13.0,998.0,712.0,298.0,19.0
3.195849895477295,36.0,303.0,363.0,584.0,30.0
3.1969332695007324,35.0,1345.0,14.0,515.0,40.0
3.19801664352417,34.0,27.0,17.0,28.0,31.0
3.1991000175476074,5.0,1847.0,37.0,27.0,42.0
