,301.2099914550781,302.2099914550781,303.2099914550781,304.2099914550781,305.2099914550781,306.2099914550781,307.2099914550781,308.2099914550781
5.202166557312012,31.0,179.0,16.0,40.0,12.0,47.0,378.0,11.0
5.204333305358887,0.0,62.0,33.0,6.0,694.0,41.0,31.0,13.0
5.207799911499023,0.0,0.0,1308.0,26.0,0.0,37.0,5.0,33.0
5.21126651763916,15.0,39.0,806.0,11.0,59.0,11.0,28.0,5.0
5.214733123779297,5.0,20.0,304.0,36.0,23.0,21.0,44.0,32.0
5.218200206756592,10.0,33.0,1321.0,45.0,21.0,41.0,60.0,10.0
5.221733570098877,13.0,25.0,1615.0,20.0,24.0,0.0,54.0,11.0
5.225200176239014,12.0,14.0,948.0,11.0,24.0,6.0,6.0,22.0
5.22866678237915,10.0,33.0,13.0,45.0,24.0,12.0,15.0,0.0
5.232133388519287,10.0,22.0,53.0,17.0,31.0,0.0,16.0,5.0
5.235650062561035,10.0,11.0,46.0,19.0,5.0,3.0,19.0,13.0
5.239133358001709,23.0,0.0,0.0,33.0,21.0,6.0,21.0,5.0
5.242599964141846,29.0,25.0,24.0,6.0,30.0,14.0,0.0,0.0
5.246066570281982,14.0,16.0,28.0,33.0,36.0,22.0,9.0,21.0
5.249533176422119,0.0,23.0,25.0,5.0,8.0,15.0,19.0,13.0
5.253066539764404,10.0,27.0,16.0,25.0,32.0,27.0,25.0,5.0
5.256533145904541,27.0,12.0,8.0,5.0,37.0,42.0,46.0,12.0
5.260000228881836,27.0,33.0,28.0,9.0,42.0,52.0,51.0,19.0
5.263466835021973,48.0,21.0,29.0,13.0,10.0,40.0,29.0,21.0
5.266933441162109,38.0,13.0,30.0,5.0,23.0,41.0,62.0,23.0
5.2704668045043945,27.0,5.0,30.0,5.0,50.0,27.0,34.0,25.0
5.273933410644531,7.0,6.0,29.0,22.0,34.0,50.0,27.0,28.0
5.277400016784668,27.0,6.0,21.0,28.0,34.0,6.0,15.0,20.0
5.280866622924805,19.0,6.0,13.0,20.0,27.0,30.0,10.0,11.0
5.284333229064941,10.0,6.0,13.0,30.0,12.0,15.0,10.0,25.0
5.287866592407227,8.0,9.0,54.0,6.0,0.0,5.0,10.0,13.0
5.291333198547363,49.0,11.0,38.0,12.0,10.0,34.0,10.0,26.0
5.2947998046875,41.0,50.0,22.0,17.0,12.0,34.0,5.0,20.0
5.298266887664795,0.0,64.0,11.0,7.0,13.0,33.0,27.0,14.0
5.301733493804932,23.0,44.0,21.0,0.0,53.0,32.0,27.0,26.0
5.305266857147217,0.0,11.0,25.0,8.0,43.0,11.0,27.0,13.0
5.3087334632873535,17.0,17.0,22.0,16.0,55.0,23.0,20.0,0.0
5.31220006942749,26.0,23.0,72.0,14.0,11.0,19.0,5.0,6.0
5.315666675567627,37.0,53.0,54.0,10.0,17.0,11.0,15.0,10.0
5.319133281707764,48.0,40.0,37.0,5.0,11.0,17.0,13.0,5.0
5.3226165771484375,943.0,26.0,39.0,9.0,5.0,24.0,10.0,0.0
5.326083183288574,482.0,162.0,30.0,13.0,35.0,0.0,13.0,30.0
5.329549789428711,21.0,100.0,14.0,22.0,41.0,34.0,16.0,51.0
5.333016872406006,743.0,38.0,5.0,25.0,46.0,11.0,7.0,48.0
5.336483478546143,30.0,0.0,10.0,16.0,6.0,24.0,21.0,16.0
5.340016841888428,41.0,34.0,6.0,21.0,12.0,19.0,23.0,23.0
5.3434834480285645,5.0,24.0,3.0,0.0,20.0,5.0,26.0,0.0
5.346950054168701,0.0,9.0,0.0,22.0,25.0,25.0,34.0,6.0
5.350416660308838,22.0,34.0,10.0,13.0,30.0,18.0,20.0,11.0
5.353883266448975,66.0,28.0,21.0,5.0,34.0,12.0,5.0,11.0
5.35741662979126,52.0,23.0,32.0,11.0,30.0,10.0,0.0,11.0
5.3608832359313965,19.0,5.0,27.0,16.0,26.0,19.0,16.0,33.0
5.364349842071533,18.0,16.0,18.0,5.0,19.0,13.0,17.0,34.0
5.36781644821167,17.0,28.0,26.0,31.0,22.0,6.0,17.0,27.0
5.371349811553955,0.0,26.0,5.0,18.0,23.0,5.0,11.0,16.0
5.37481689453125,47.0,15.0,8.0,5.0,24.0,27.0,5.0,16.0
5.378283500671387,36.0,5.0,11.0,34.0,5.0,27.0,11.0,35.0
5.381750106811523,25.0,26.0,12.0,9.0,10.0,18.0,18.0,23.0
5.38521671295166,15.0,19.0,9.0,5.0,27.0,9.0,12.0,10.0
5.388733386993408,77.0,12.0,5.0,17.0,31.0,22.0,6.0,17.0
5.392199993133545,95.0,9.0,27.0,11.0,42.0,52.0,8.0,25.0
5.395666599273682,61.0,6.0,31.0,5.0,67.0,50.0,11.0,9.0
5.399133205413818,27.0,34.0,29.0,7.0,61.0,19.0,5.0,26.0
5.402599811553955,30.0,29.0,12.0,8.0,55.0,21.0,30.0,31.0
5.40613317489624,6.0,36.0,40.0,12.0,10.0,12.0,15.0,46.0
5.409599781036377,3.0,25.0,46.0,14.0,55.0,9.0,0.0,39.0
5.413066864013672,0.0,14.0,0.0,5.0,43.0,5.0,9.0,32.0
5.416533470153809,3.0,15.0,15.0,7.0,10.0,7.0,0.0,0.0
5.420000076293945,5.0,0.0,31.0,12.0,41.0,10.0,7.0,0.0
5.4235334396362305,3.0,10.0,10.0,14.0,30.0,8.0,17.0,43.0
5.427000045776367,0.0,41.0,13.0,16.0,1279.0,6.0,27.0,37.0
5.430466651916504,0.0,458.0,15.0,1317.0,1419.0,17.0,31.0,31.0
5.433933258056641,28.0,1713.0,6697.0,2360.0,2839.0,3454.0,36.0,31.0
5.437399864196777,40.0,5253.0,7012.0,10736.0,8212.0,2928.0,20.0,0.0
5.4409332275390625,81.0,7398.0,20228.0,22136.0,20284.0,12976.0,5632.0,11.0
5.444399833679199,50.0,13640.0,44752.0,44992.0,35040.0,19480.0,12204.0,1959.0
5.447866439819336,19.0,34992.0,68512.0,78112.0,69216.0,38256.0,16840.0,2189.0
5.451333522796631,10.0,44400.0,114912.0,127888.0,104736.0,72080.0,23208.0,3365.0
5.454800128936768,34.0,83120.0,202176.0,189504.0,161600.0,94432.0,33776.0,4542.0
5.458283424377441,25.0,89520.0,207424.0,234432.0,192256.0,108400.0,38928.0,5980.0
5.461750030517578,16.0,127152.0,274176.0,305920.0,248576.0,120416.0,46928.0,7419.0
5.465216636657715,20.0,148480.0,258176.0,300544.0,245568.0,123504.0,37008.0,12884.0
5.468683242797852,47.0,132800.0,331776.0,347520.0,241152.0,126608.0,50368.0,13432.0
5.472149848937988,30.0,156928.0,312064.0,363968.0,268864.0,126752.0,56864.0,9828.0
5.4756999015808105,13.0,147520.0,290240.0,318976.0,213632.0,108064.0,54832.0,7415.0
5.479166507720947,15.0,129600.0,235072.0,321984.0,215936.0,112768.0,35120.0,10056.0
5.482633113861084,34.0,103136.0,200192.0,226496.0,191680.0,86320.0,31140.0,5975.0
5.486100196838379,33.0,87984.0,163968.0,192128.0,143104.0,59200.0,36800.0,7684.0
5.48960018157959,33.0,78048.0,148096.0,147968.0,123360.0,68176.0,16480.0,7242.0
5.493066787719727,27.0,57280.0,123152.0,120944.0,94288.0,39344.0,14272.0,3170.0
5.496533393859863,20.0,41040.0,94336.0,80608.0,66112.0,38208.0,11384.0,3503.0
5.5,13.0,30176.0,52624.0,47264.0,55984.0,17840.0,7969.0,2764.0
5.503466606140137,0.0,27124.0,48672.0,47440.0,39664.0,26844.0,8964.0,1689.0
5.506999969482422,24.0,14720.0,28464.0,34096.0,24420.0,17028.0,4123.0,28.0
5.510466575622559,43.0,13092.0,22784.0,32612.0,14988.0,14128.0,3900.0,1219.0
5.513933181762695,215.0,6502.0,14632.0,14372.0,19136.0,9520.0,4145.0,325.0
5.517399787902832,466.0,13224.0,17716.0,18444.0,8684.0,14968.0,2200.0,388.0
5.520866870880127,238.0,6756.0,12140.0,12076.0,13932.0,5317.0,3810.0,50.0
5.524383544921875,10.0,6444.0,15612.0,16284.0,3859.0,6576.0,2849.0,149.0
5.527850151062012,67.0,3788.0,7088.0,9512.0,14128.0,3764.0,1501.0,248.0
5.531316757202148,43.0,3195.0,8768.0,6772.0,5817.0,5978.0,1327.0,32.0
5.534783363342285,9.0,2735.0,8151.0,9904.0,4589.0,2759.0,1175.0,20.0
5.538249969482422,20.0,1381.0,3058.0,9492.0,4209.0,1734.0,1024.0,15.0
5.541783332824707,21.0,2944.0,8268.0,4929.0,5412.0,2394.0,10.0,10.0
5.545249938964844,23.0,3626.0,4860.0,4716.0,534.0,3525.0,62.0,5.0
5.5487165451049805,25.0,1695.0,2961.0,5330.0,3907.0,820.0,735.0,15.0
5.552183151245117,5.0,551.0,5091.0,3182.0,6082.0,2348.0,401.0,36.0
5.555650234222412,16.0,3211.0,2720.0,2714.0,1597.0,1741.0,68.0,31.0
5.559183120727539,35.0,1091.0,1196.0,4306.0,1138.0,901.0,5.0,27.0
5.562650203704834,43.0,25.0,1203.0,2534.0,4165.0,592.0,10.0,9.0
5.566116809844971,5.0,1732.0,1436.0,1403.0,491.0,20.0,46.0,15.0
5.569583415985107,43.0,10.0,1172.0,879.0,972.0,41.0,19.0,21.0
5.573050022125244,5.0,308.0,138.0,2520.0,671.0,44.0,66.0,18.0
5.576583385467529,13.0,575.0,264.0,1737.0,74.0,49.0,40.0,15.0
5.580049991607666,11.0,410.0,389.0,865.0,2134.0,53.0,27.0,11.0
5.583516597747803,0.0,963.0,1707.0,93.0,3952.0,76.0,584.0,7.0
5.5869832038879395,5.0,1515.0,1827.0,724.0,3908.0,100.0,622.0,9.0
5.590449810028076,10.0,1342.0,1946.0,9264.0,1271.0,2671.0,753.0,10.0
5.593966484069824,41.0,1815.0,4283.0,9428.0,6613.0,2549.0,883.0,5.0
