,245.0800018310547,246.0800018310547,247.0800018310547,248.0800018310547
2.1012001037597656,0.0,11.0,0.0,29.0
2.102283239364624,34.0,10.0,15.0,19.0
2.1046667098999023,18.0,18.0,0.0,34.0
2.1070666313171387,5.0,43.0,14.0,41.0
2.109466552734375,33.0,24.0,9.0,10.0
2.1118500232696533,11.0,5.0,5.0,20.0
2.1142332553863525,10.0,56.0,41.0,26.0
2.116616725921631,22.0,5.0,30.0,31.0
2.11899995803833,15.0,7.0,18.0,26.0
2.1213834285736084,25.0,16.0,29.0,36.0
2.1237833499908447,5.0,20.0,22.0,41.0
2.126183271408081,7.0,24.0,10.0,75.0
2.1285667419433594,16.0,52.0,19.0,49.0
2.1309499740600586,32.0,47.0,7.0,24.0
2.133333444595337,25.0,41.0,14.0,28.0
2.135716676712036,40.0,24.0,21.0,6.0
2.1380999088287354,38.0,22.0,25.0,11.0
2.1404833793640137,18.0,35.0,19.0,15.0
2.142899990081787,10.0,10.0,29.0,26.0
2.1452832221984863,41.0,34.0,22.0,22.0
2.1476666927337646,38.0,16.0,16.0,10.0
2.150049924850464,35.0,31.0,12.0,20.0
2.152433395385742,29.0,17.0,16.0,15.0
2.1548333168029785,39.0,14.0,19.0,15.0
2.1572165489196777,5.0,28.0,21.0,46.0
2.159616708755493,35.0,25.0,22.0,42.0
2.1619999408721924,29.0,22.0,20.0,38.0
2.1643834114074707,5.0,0.0,18.0,29.0
2.16676664352417,32.0,23.0,17.0,10.0
2.1691665649414062,24.0,46.0,16.0,24.0
2.1715500354766846,22.0,34.0,6.0,31.0
2.173933267593384,30.0,26.0,14.0,24.0
2.176333427429199,19.0,16.0,11.0,20.0
2.1787166595458984,28.0,35.0,7.0,17.0
2.1811165809631348,28.0,35.0,62.0,0.0
2.183500051498413,27.0,25.0,43.0,35.0
2.1858832836151123,26.0,37.0,25.0,42.0
2.1882667541503906,17.0,32.0,22.0,50.0
2.19064998626709,27.0,31.0,10.0,41.0
2.1930665969848633,16.0,69.0,14.0,304.0
2.1954500675201416,5.0,78.0,17.0,181.0
2.197833299636841,27.0,10.0,11.0,57.0
2.200216770172119,19.0,75.0,5.0,22.0
2.2026000022888184,11.0,25.0,20.0,13.0
2.2049832344055176,37.0,63.0,25.0,5.0
2.207366704940796,35.0,29.0,0.0,15.0
2.2097666263580322,28.0,38.0,38.0,25.0
2.2121500968933105,28.0,12.0,15.0,37.0
2.2145333290100098,5.0,5.0,5.0,49.0
2.216933250427246,43.0,22.0,27.0,45.0
2.2193167209625244,5.0,6.0,7.0,28.0
2.2216999530792236,31.0,19.0,11.0,10.0
2.224083423614502,21.0,25.0,5.0,16.0
2.2265000343322754,12.0,31.0,5.0,26.0
2.2288832664489746,28.0,20.0,13.0,0.0
2.231266736984253,17.0,10.0,18.0,30.0
2.233649969100952,11.0,5.0,15.0,32.0
2.2360334396362305,9.0,0.0,11.0,20.0
2.2384166717529297,10.0,11.0,10.0,21.0
2.240799903869629,11.0,21.0,5.0,26.0
2.2432167530059814,12.0,25.0,10.0,24.0
2.2455999851226807,5.0,18.0,18.0,22.0
2.24798321723938,8.0,11.0,14.0,21.0
2.250366687774658,10.0,27.0,10.0,20.0
2.2527499198913574,31.0,5.0,20.0,22.0
2.2551333904266357,34.0,26.0,19.0,24.0
2.257533311843872,32.0,19.0,17.0,12.0
2.2599499225616455,5.0,13.0,11.0,31.0
2.262333393096924,24.0,14.0,10.0,5.0
2.264716625213623,5.0,14.0,32.0,12.0
2.2671000957489014,8.0,11.0,27.0,19.0
2.2694833278656006,38.0,7.0,30.0,10.0
2.2718665599823,46.0,12.0,16.0,38.0
2.274250030517578,24.0,16.0,34.0,31.0
2.2766666412353516,48.0,15.0,23.0,26.0
2.27905011177063,63.0,13.0,12.0,17.0
2.281433343887329,10.0,21.0,13.0,0.0
2.2838165760040283,18.0,29.0,10.0,46.0
2.2862000465393066,19.0,17.0,10.0,39.0
2.288583278656006,19.0,5.0,10.0,32.0
2.290966749191284,12.0,32.0,20.0,24.0
2.2933833599090576,14.0,22.0,31.0,25.0
2.295766592025757,24.0,13.0,15.0,33.0
2.298150062561035,17.0,54.0,0.0,28.0
2.3005332946777344,11.0,265.0,26.0,24.0
2.3029167652130127,10.0,475.0,51.0,1653.0
2.305299997329712,9.0,4636.0,584.0,4328.0
2.307683229446411,10.0,15900.0,2871.0,5485.0
2.3100833892822266,11.0,33600.0,3016.0,12936.0
2.312483310699463,17.0,55920.0,5354.0,15544.0
2.314866781234741,14.0,94544.0,7179.0,25624.0
2.3172500133514404,10.0,140800.0,16112.0,31544.0
2.3196332454681396,0.0,237952.0,19024.0,49744.0
2.322016716003418,10.0,307776.0,16836.0,86112.0
2.324399948120117,13.0,391552.0,32128.0,103600.0
2.3268001079559326,15.0,504768.0,35600.0,107104.0
2.329183340072632,15.0,607232.0,59040.0,166784.0
2.331566572189331,15.0,762368.0,65696.0,162880.0
2.3339500427246094,16.0,706048.0,70448.0,203520.0
2.3363332748413086,17.0,840192.0,72608.0,189952.0
2.338716745376587,0.0,882432.0,86032.0,195584.0
2.3411166667938232,22.0,957440.0,84880.0,193920.0
2.3435165882110596,16.0,914176.0,76256.0,192256.0
2.345900058746338,9.0,978432.0,89424.0,222080.0
2.348283290863037,21.0,906496.0,92128.0,219840.0
2.3506834506988525,33.0,949248.0,88624.0,214208.0
2.3530666828155518,37.0,938496.0,85104.0,205120.0
2.355449914932251,26.0,968192.0,68240.0,203904.0
2.3578333854675293,31.0,892160.0,82944.0,213440.0
2.3602333068847656,42.0,888064.0,81968.0,220736.0
2.362616777420044,29.0,845056.0,86304.0,187776.0
2.365000009536743,15.0,879104.0,73776.0,199104.0
2.3673999309539795,53.0,960256.0,71344.0,202240.0
2.369783401489258,63.0,980992.0,90352.0,232256.0
2.372166633605957,18.0,936448.0,82576.0,228608.0
2.3745501041412354,13.0,942080.0,91680.0,226688.0
2.3769500255584717,70.0,971264.0,91584.0,232896.0
2.379333257675171,15.0,1033472.0,80320.0,227072.0
2.381716728210449,28.0,1083648.0,91056.0,222528.0
2.3840999603271484,68.0,1104640.0,87312.0,217984.0
2.3864834308624268,20.0,1054464.0,92992.0,211904.0
2.388883352279663,24.0,1004800.0,76784.0,205760.0
2.3912665843963623,55.0,982272.0,80944.0,197504.0
2.3936667442321777,67.0,881920.0,81360.0,220608.0
2.396049976348877,39.0,779776.0,81904.0,172736.0
2.3984334468841553,43.0,716288.0,56640.0,150016.0
2.4008166790008545,21.0,640000.0,44624.0,148672.0
2.4031999111175537,34.0,532224.0,47072.0,115616.0
2.405600070953369,5.0,493120.0,37888.0,117616.0
2.4079833030700684,5.0,381568.0,23848.0,88000.0
2.4103832244873047,5.0,302400.0,20200.0,60784.0
2.412766695022583,16.0,247680.0,15520.0,55856.0
2.4151499271392822,27.0,216960.0,22892.0,39520.0
2.4175333976745605,28.0,155712.0,22296.0,25968.0
2.4199166297912598,14.0,98160.0,10568.0,19148.0
2.422300100326538,0.0,92288.0,8163.0,14740.0
2.4246833324432373,0.0,95856.0,6823.0,18768.0
2.427133321762085,20.0,49472.0,2220.0,9272.0
2.429516553878784,55.0,50656.0,5543.0,11552.0
2.4319000244140625,50.0,35840.0,4556.0,8372.0
2.4342832565307617,38.0,44784.0,5082.0,7728.0
2.43666672706604,39.0,33792.0,4790.0,4424.0
2.4390499591827393,12.0,27248.0,1051.0,9740.0
2.4414334297180176,87.0,30300.0,1644.0,7265.0
2.443866729736328,67.0,19232.0,1686.0,1998.0
2.4462499618530273,25.0,18520.0,608.0,6269.0
2.4486334323883057,35.0,23516.0,1022.0,4851.0
2.451016664505005,36.0,16604.0,1486.0,3433.0
2.453416585922241,31.0,15892.0,11.0,4031.0
2.4558000564575195,49.0,17132.0,350.0,1456.0
2.4581832885742188,40.0,19520.0,430.0,1865.0
2.4606165885925293,31.0,9612.0,605.0,2339.0
2.4630000591278076,48.0,14692.0,870.0,2897.0
2.465383291244507,55.0,8996.0,2536.0,962.0
2.467766761779785,44.0,9784.0,2027.0,644.0
2.4701499938964844,0.0,8536.0,15.0,1475.0
2.4725332260131836,17.0,5747.0,1396.0,93.0
2.474916696548462,31.0,7974.0,590.0,1638.0
2.4773499965667725,34.0,8496.0,0.0,1213.0
2.479749917984009,34.0,9020.0,15.0,33.0
2.482133388519287,6.0,7695.0,643.0,2052.0
2.4845166206359863,14.0,7553.0,14.0,2241.0
2.4869000911712646,22.0,5843.0,24.0,34.0
2.489283323287964,20.0,7886.0,37.0,15.0
2.491666555404663,17.0,3666.0,930.0,1918.0
2.4940500259399414,21.0,7796.0,479.0,647.0
2.496500015258789,21.0,678.0,29.0,2714.0
2.4988832473754883,21.0,5125.0,30.0,1749.0
2.5010499954223633,27.0,7126.0,24.0,831.0
2.5019166469573975,29.0,2624.0,12.0,1603.0
2.5027832984924316,29.0,6062.0,0.0,1380.0
2.503649950027466,21.0,4491.0,20.0,394.0
2.5045166015625,13.0,5031.0,41.0,690.0
2.505383253097534,16.0,3448.0,716.0,1872.0
2.5062499046325684,19.0,5527.0,366.0,2480.0
2.5071165561676025,15.0,5543.0,15.0,1249.0
2.507983446121216,10.0,4653.0,16.0,344.0
2.50885009765625,31.0,5482.0,5.0,2152.0
2.509716749191284,75.0,5436.0,27.0,717.0
2.5105834007263184,70.0,5390.0,26.0,32.0
2.511516571044922,25.0,1855.0,26.0,1161.0
2.512383222579956,5.0,3921.0,26.0,951.0
2.5132501125335693,12.0,5585.0,26.0,13.0
2.5141167640686035,14.0,1892.0,746.0,25.0
2.5149834156036377,16.0,2077.0,627.0,1282.0
2.515850067138672,5.0,2012.0,329.0,1108.0
2.516716718673706,7.0,1947.0,32.0,997.0
2.5175833702087402,9.0,5784.0,0.0,721.0
2.5184500217437744,6.0,5301.0,24.0,378.0
2.5193166732788086,5.0,4743.0,22.0,36.0
2.5201833248138428,85.0,2731.0,20.0,761.0
2.521049976348877,91.0,6509.0,28.0,882.0
2.521916627883911,15.0,4494.0,36.0,1003.0
2.5227832794189453,10.0,2492.0,35.0,129.0
2.5236499309539795,5.0,6837.0,35.0,77.0
2.5245165824890137,0.0,6870.0,49.0,26.0
2.525383234024048,12.0,3995.0,10.0,62.0
2.526249885559082,22.0,2565.0,8.0,128.0
2.5271167755126953,21.0,4414.0,5.0,979.0
2.5279834270477295,24.0,2169.0,25.0,888.0
2.528899908065796,27.0,1247.0,15.0,786.0
2.52976655960083,0.0,4366.0,5.0,483.0
2.5306334495544434,5.0,5046.0,22.0,180.0
2.5315001010894775,30.0,2474.0,39.0,102.0
2.5323667526245117,0.0,4507.0,112.0,24.0
2.533233404159546,5.0,3913.0,185.0,323.0
2.53410005569458,20.0,3424.0,576.0,623.0
2.5349833965301514,33.0,4328.0,595.0,1089.0
2.5358333587646484,24.0,2775.0,635.0,967.0
2.5367000102996826,15.0,1221.0,789.0,845.0
2.537566661834717,13.0,1929.0,30.0,32.0
2.538433313369751,11.0,1776.0,15.0,1300.0
2.539299964904785,22.0,1624.0,42.0,922.0
2.5401666164398193,19.0,1308.0,32.0,33.0
2.5410332679748535,16.0,1164.0,38.0,12.0
2.5418999195098877,17.0,1019.0,69.0,52.0
2.542766571044922,18.0,6667.0,49.0,37.0
2.543633222579956,9.0,5999.0,29.0,22.0
2.5445001125335693,0.0,355.0,81.0,5.0
2.545433282852173,21.0,1237.0,10.0,5.0
2.546299934387207,15.0,2299.0,11.0,29.0
2.547166585922241,8.0,861.0,11.0,250.0
2.5480332374572754,28.0,3094.0,10.0,472.0
2.5488998889923096,21.0,2723.0,15.0,1267.0
2.549766778945923,0.0,2353.0,19.0,1476.0
2.550633430480957,40.0,2257.0,24.0,22.0
2.551500082015991,74.0,2160.0,18.0,29.0
2.5523667335510254,37.0,433.0,13.0,45.0
2.5532333850860596,0.0,3735.0,15.0,79.0
2.5541000366210938,43.0,3222.0,16.0,114.0
2.554966688156128,43.0,1893.0,13.0,66.0
2.555833339691162,15.0,4291.0,32.0,18.0
2.5566999912261963,15.0,2226.0,715.0,22.0
2.5575666427612305,14.0,3061.0,583.0,24.0
2.5584332942962646,16.0,3897.0,11.0,25.0
2.559299945831299,27.0,3807.0,32.0,382.0
2.560166597366333,29.0,3345.0,11.0,211.0
2.561033248901367,16.0,1488.0,49.0,40.0
2.5618999004364014,36.0,3129.0,50.0,116.0
2.562816619873047,12.0,1899.0,44.0,193.0
2.563683271408081,10.0,3259.0,22.0,854.0
2.5645499229431152,7.0,4311.0,0.0,780.0
2.5654165744781494,26.0,700.0,10.0,706.0
2.5662832260131836,18.0,5209.0,12.0,19.0
2.567150115966797,10.0,2324.0,38.0,746.0
2.568016767501831,21.0,2509.0,41.0,31.0
2.5688834190368652,18.0,0.0,8.0,68.0
2.5697667598724365,15.0,3273.0,33.0,40.0
2.5706167221069336,12.0,1145.0,9.0,28.0
2.5714833736419678,27.0,2316.0,19.0,16.0
2.572350025177002,28.0,2690.0,30.0,154.0
2.573216676712036,16.0,1641.0,11.0,977.0
2.5740833282470703,14.0,592.0,31.0,1130.0
2.5749499797821045,10.0,3074.0,16.0,32.0
2.5758166313171387,5.0,2380.0,34.0,16.0
2.576683282852173,6.0,786.0,22.0,56.0
2.577549934387207,3.0,1201.0,10.0,40.0
2.5784332752227783,0.0,3039.0,10.0,24.0
2.579349994659424,13.0,3482.0,1458.0,11.0
2.580216646194458,27.0,241.0,1449.0,22.0
2.581083297729492,21.0,2190.0,39.0,33.0
2.5819499492645264,15.0,1750.0,28.0,364.0
2.5828166007995605,37.0,91.0,19.0,203.0
2.5836832523345947,5.0,2362.0,790.0,42.0
2.584549903869629,10.0,427.0,409.0,10.0
2.585416555404663,11.0,1605.0,28.0,33.0
2.5862834453582764,8.0,864.0,1087.0,15.0
2.5871500968933105,5.0,628.0,24.0,31.0
2.5880167484283447,12.0,392.0,17.0,31.0
2.588883399963379,16.0,2493.0,34.0,32.0
2.589750051498413,20.0,2294.0,23.0,22.0
2.5906167030334473,6.0,2351.0,12.0,13.0
2.5914833545684814,20.0,1040.0,20.0,27.0
2.5923500061035156,21.0,2315.0,20.0,40.0
2.59321665763855,22.0,200.0,5.0,146.0
2.594083309173584,21.0,2528.0,0.0,252.0
2.594949960708618,17.0,1757.0,927.0,353.0
2.5958166122436523,29.0,3770.0,931.0,455.0
2.596733331680298,5.0,1987.0,0.0,343.0
2.597599983215332,26.0,0.0,28.0,20.0
2.598466634750366,19.0,2580.0,479.0,15.0
2.5993332862854004,5.0,677.0,35.0,32.0
2.6001999378204346,29.0,1258.0,8.0,10.0
2.6010665893554688,0.0,627.0,26.0,5.0
2.601933240890503,30.0,1164.0,43.0,29.0
2.602799892425537,10.0,1700.0,12.0,27.0
2.6036667823791504,29.0,3388.0,21.0,25.0
2.6045334339141846,35.0,3646.0,19.0,15.0
2.6054000854492188,30.0,867.0,16.0,5.0
2.606266736984253,13.0,1262.0,11.0,5.0
2.607133388519287,32.0,2097.0,5.0,12.0
2.6080000400543213,34.0,3194.0,10.0,19.0
2.6088666915893555,5.0,3319.0,47.0,12.0
2.6097333431243896,17.0,582.0,43.0,5.0
2.610599994659424,0.0,1581.0,21.0,18.0
2.611466646194458,9.0,2716.0,0.0,31.0
2.612333297729492,11.0,1924.0,16.0,30.0
2.613266706466675,12.0,1713.0,33.0,29.0
2.614133358001709,26.0,2581.0,33.0,691.0
2.615000009536743,42.0,26.0,27.0,753.0
2.6158666610717773,45.0,2993.0,20.0,27.0
2.6167333126068115,5.0,1217.0,36.0,24.0
2.6175999641418457,33.0,1845.0,22.0,816.0
2.61846661567688,28.0,14.0,8.0,38.0
2.619333267211914,29.0,269.0,12.0,44.0
2.6201999187469482,27.0,41.0,21.0,31.0
2.6210665702819824,37.0,2244.0,14.0,38.0
2.6219332218170166,47.0,2535.0,48.0,19.0
2.62280011177063,48.0,1467.0,40.0,5.0
2.623666763305664,49.0,338.0,11.0,31.0
2.6245334148406982,49.0,2608.0,62.0,21.0
2.6254000663757324,334.0,2722.0,30.0,12.0
2.6262667179107666,192.0,706.0,52.0,939.0
2.627133369445801,50.0,10.0,36.0,737.0
2.628000020980835,329.0,1776.0,17.0,1106.0
2.628866672515869,609.0,1157.0,22.0,52.0
2.6297333240509033,695.0,996.0,17.0,35.0
2.630666732788086,884.0,2159.0,19.0,17.0
2.63153338432312,790.0,670.0,20.0,9.0
2.6324000358581543,696.0,1879.0,46.0,0.0
2.6332666873931885,2619.0,1352.0,32.0,144.0
2.6341333389282227,4542.0,1770.0,17.0,81.0
2.634999990463257,5365.0,1535.0,10.0,18.0
2.635866641998291,3746.0,882.0,6.0,19.0
2.636733293533325,4032.0,408.0,0.0,19.0
2.6375999450683594,4217.0,22.0,33.0,20.0
2.6384665966033936,7211.0,767.0,35.0,13.0
2.6393332481384277,11712.0,1511.0,38.0,5.0
2.640199899673462,9408.0,1586.0,28.0,10.0
2.641066551208496,7675.0,5.0,255.0,15.0
2.6419334411621094,3833.0,699.0,582.0,10.0
2.6428000926971436,8956.0,2007.0,541.0,60.0
2.6436667442321777,8268.0,1263.0,500.0,62.0
2.644533395767212,7580.0,519.0,569.0,17.0
2.645400047302246,9776.0,1857.0,15.0,18.0
2.6462666988372803,11972.0,885.0,5.0,18.0
2.647200107574463,11100.0,184.0,63.0,574.0
2.648066759109497,10232.0,967.0,20.0,750.0
2.6489334106445312,10116.0,29.0,24.0,927.0
2.6498000621795654,15596.0,774.0,24.0,799.0
2.6506667137145996,16232.0,1520.0,11.0,52.0
2.651533365249634,12060.0,1002.0,36.0,57.0
2.652400016784668,7671.0,0.0,38.0,15.0
2.653266668319702,19536.0,213.0,41.0,6.0
2.6541333198547363,16116.0,426.0,17.0,29.0
2.6549999713897705,9920.0,218.0,29.0,10.0
2.6558666229248047,17328.0,225.0,7.0,132.0
2.656733274459839,14496.0,1610.0,18.0,253.0
2.657599925994873,16712.0,1076.0,30.0,142.0
2.6584665775299072,18224.0,542.0,30.0,31.0
2.6593332290649414,19304.0,32.0,30.0,28.0
2.6602001190185547,16504.0,18.0,6.0,22.0
2.661066770553589,12528.0,5.0,0.0,17.0
2.661933422088623,15428.0,369.0,15.0,22.0
2.6628000736236572,21372.0,733.0,30.0,17.0
2.6636667251586914,23540.0,2715.0,17.0,11.0
2.664599895477295,12816.0,3691.0,5.0,36.0
2.665466785430908,21500.0,2321.0,0.0,37.0
2.6663334369659424,11968.0,1691.0,5.0,14.0
2.6672000885009766,13792.0,768.0,6.0,7.0
2.6680667400360107,13112.0,576.0,20.0,0.0
2.668933391571045,17064.0,384.0,16.0,18.0
2.669800043106079,17740.0,2064.0,11.0,36.0
2.6706666946411133,19164.0,1241.0,13.0,36.0
2.6715333461761475,20588.0,418.0,353.0,19.0
2.6723999977111816,9692.0,2371.0,190.0,324.0
2.673266649246216,15432.0,741.0,27.0,628.0
2.67413330078125,14212.0,1137.0,41.0,327.0
2.674999952316284,12156.0,442.0,50.0,27.0
2.6758666038513184,19792.0,399.0,17.0,16.0
2.6767332553863525,20756.0,36.0,33.0,0.0
2.6775999069213867,20564.0,339.0,18.0,107.0
2.678466558456421,9992.0,20.0,21.0,213.0
2.679333448410034,16844.0,459.0,28.0,117.0
2.6802000999450684,15716.0,1251.0,12.0,21.0
2.6811165809631348,14052.0,1349.0,51.0,36.0
2.681983232498169,15872.0,1448.0,34.0,40.0
2.682849884033203,17688.0,979.0,16.0,36.0
2.6837167739868164,17084.0,423.0,49.0,33.0
2.6845834255218506,18196.0,674.0,76.0,38.0
2.6854500770568848,15504.0,925.0,58.0,43.0
2.686316728591919,12808.0,1325.0,40.0,5.0
2.687183380126953,12516.0,1801.0,51.0,16.0
2.6880500316619873,18244.0,1445.0,14.0,33.0
2.6889166831970215,19132.0,1226.0,29.0,19.0
2.6897833347320557,19724.0,1376.0,18.0,27.0
2.69064998626709,19380.0,1526.0,35.0,34.0
2.691516637802124,18160.0,2020.0,282.0,22.0
2.692383289337158,18316.0,5.0,144.0,11.0
2.6932499408721924,18472.0,1705.0,5.0,46.0
2.6941165924072266,18036.0,3495.0,53.0,39.0
2.6949832439422607,20736.0,1940.0,19.0,32.0
2.695849895477295,20440.0,2333.0,14.0,34.0
2.696716785430908,20144.0,30.0,12.0,27.0
2.6975834369659424,21632.0,833.0,10.0,30.0
2.698516607284546,17004.0,1066.0,14.0,35.0
