,245.0800018310547,246.0800018310547,247.0800018310547,248.0800018310547
2.101083278656006,25.0,24.0,45.0,23.0
2.1023833751678467,35.0,692.0,5.0,7.0
2.104766607284546,33.0,26.0,11.0,468.0
2.107150077819824,18.0,15.0,31.0,238.0
2.109600067138672,42.0,40.0,9.0,8.0
2.111983299255371,31.0,36.0,25.0,33.0
2.1143667697906494,21.0,33.0,20.0,17.0
2.1167500019073486,34.0,21.0,21.0,5.0
2.119133234024048,56.0,10.0,34.0,9.0
2.121516704559326,52.0,17.0,34.0,14.0
2.1238999366760254,48.0,44.0,35.0,276.0
2.126333236694336,31.0,43.0,7.0,151.0
2.1287167072296143,14.0,10.0,0.0,26.0
2.1310999393463135,26.0,23.0,8.0,7.0
2.133483409881592,20.0,20.0,39.0,21.0
2.135883331298828,26.0,16.0,32.0,35.0
2.1382665634155273,20.0,21.0,27.0,44.0
2.1406500339508057,16.0,21.0,23.0,29.0
2.143083333969116,13.0,23.0,34.0,42.0
2.1454665660858154,5.0,14.0,49.0,18.0
2.1478500366210938,26.0,5.0,48.0,44.0
2.150233268737793,27.0,15.0,36.0,24.0
2.1526167392730713,29.0,25.0,44.0,5.0
2.1549999713897705,5.0,20.0,47.0,511.0
2.157383441925049,23.0,15.0,30.0,576.0
2.1598334312438965,0.0,33.0,7.0,79.0
2.1622166633605957,5.0,612.0,12.0,509.0
2.164616584777832,10.0,641.0,17.0,954.0
2.1670000553131104,5.0,67.0,22.0,717.0
2.1693832874298096,25.0,11.0,15.0,480.0
2.171766757965088,27.0,16.0,10.0,469.0
2.174149990081787,25.0,29.0,36.0,62.0
2.1765666007995605,5.0,31.0,18.0,240.0
2.178950071334839,38.0,1238.0,0.0,418.0
2.181333303451538,10.0,1188.0,24.0,8.0
2.1837167739868164,18.0,975.0,10.0,44.0
2.1861000061035156,26.0,0.0,15.0,203.0
2.188483238220215,33.0,444.0,21.0,32.0
2.190866708755493,29.0,0.0,24.0,33.0
2.1932833194732666,0.0,25.0,9.0,0.0
2.195666551589966,35.0,43.0,5.0,2.0
2.198050022125244,17.0,29.0,37.0,5.0
2.2004332542419434,16.0,16.0,27.0,2.0
2.2028167247772217,11.0,29.0,23.0,0.0
2.205199956893921,16.0,26.0,31.0,1097.0
2.207583427429199,21.0,22.0,39.0,895.0
2.2100000381469727,15.0,18.0,47.0,950.0
2.212383270263672,10.0,12.0,20.0,1050.0
2.21476674079895,18.0,33.0,18.0,569.0
2.2171499729156494,27.0,28.0,14.0,1355.0
2.2195334434509277,37.0,24.0,37.0,17.0
2.221916675567627,35.0,12.0,40.0,468.0
2.224299907684326,34.0,11.0,43.0,918.0
2.2267167568206787,34.0,11.0,30.0,533.0
2.229099988937378,34.0,5.0,5.0,535.0
2.231483221054077,38.0,13.0,35.0,45.0
2.2338666915893555,5.0,21.0,24.0,15.0
2.2362499237060547,28.0,16.0,17.0,32.0
2.238633394241333,40.0,12.0,11.0,27.0
2.2410166263580322,47.0,57.0,41.0,23.0
2.2434332370758057,12.0,39.0,43.0,32.0
2.245816707611084,10.0,20.0,0.0,514.0
2.248199939727783,15.0,19.0,32.0,998.0
2.2505834102630615,18.0,48.0,15.0,690.0
2.2529666423797607,22.0,37.0,5.0,37.0
2.255350112915039,0.0,27.0,21.0,73.0
2.2577333450317383,14.0,10.0,37.0,5.0
2.2601499557495117,5.0,36.0,31.0,24.0
2.26253342628479,14.0,15.0,18.0,43.0
2.2649166584014893,15.0,22.0,33.0,27.0
2.2672998905181885,19.0,23.0,33.0,27.0
2.269683361053467,23.0,11.0,37.0,27.0
2.272066593170166,12.0,1128.0,21.0,31.0
2.2744500637054443,0.0,1955.0,5.0,12.0
2.2768666744232178,11.0,7327.0,683.0,1398.0
2.279249906539917,22.0,17644.0,1360.0,1283.0
2.2816333770751953,29.0,26672.0,3194.0,10968.0
2.2840166091918945,20.0,55712.0,8740.0,15012.0
2.286400079727173,11.0,115568.0,10492.0,31152.0
2.288783311843872,0.0,256640.0,16612.0,64016.0
2.2911667823791504,22.0,401344.0,44176.0,113648.0
2.293583393096924,10.0,633088.0,63488.0,158976.0
2.295966625213623,27.0,923904.0,97552.0,232512.0
2.2983500957489014,26.0,1299456.0,130640.0,347968.0
2.3007333278656006,26.0,1920256.0,191104.0,480704.0
2.3031165599823,51.0,2167808.0,192192.0,626176.0
2.305500030517578,49.0,2667520.0,249216.0,728832.0
2.3078832626342773,39.0,2923520.0,258432.0,727040.0
2.31030011177063,52.0,3275776.0,287744.0,812544.0
2.312683343887329,25.0,3564544.0,328640.0,848128.0
2.3150665760040283,63.0,3864576.0,343104.0,939776.0
2.3174500465393066,65.0,4176896.0,365120.0,1031168.0
2.319833278656006,67.0,4099072.0,378816.0,1061376.0
2.322216749191284,64.0,4278272.0,393024.0,1010944.0
2.3245999813079834,67.0,4457472.0,398080.0,1055488.0
2.327016592025757,71.0,4358144.0,405440.0,1068032.0
2.329400062561035,69.0,4548608.0,376064.0,1080576.0
2.3317832946777344,68.0,4557824.0,387968.0,1075968.0
2.3341667652130127,78.0,4540416.0,399808.0,1041664.0
2.336549997329712,88.0,4827136.0,394752.0,1077248.0
2.338933229446411,362.0,4868096.0,389696.0,1113088.0
2.3413166999816895,208.0,4667392.0,402944.0,1100032.0
2.343733310699463,54.0,4850688.0,433408.0,1165056.0
2.346116781234741,11.0,4822016.0,428096.0,1163520.0
2.3485000133514404,119.0,4810752.0,457088.0,1159424.0
2.3508832454681396,96.0,4985856.0,467392.0,1202432.0
2.353266716003418,77.0,4987904.0,449472.0,1214720.0
2.355649948120117,57.0,5105664.0,459712.0,1285120.0
2.3580334186553955,100.0,4936704.0,469952.0,1263360.0
2.360450029373169,96.0,5207040.0,483648.0,1298688.0
2.362833261489868,877.0,5147648.0,481856.0,1289472.0
2.3652167320251465,897.0,5252096.0,465984.0,1300224.0
2.3675999641418457,497.0,5351424.0,470912.0,1306112.0
2.369983434677124,97.0,5450752.0,483776.0,1312000.0
2.3723666667938232,172.0,5405696.0,496704.0,1249024.0
2.3747498989105225,138.0,5232640.0,519360.0,1303552.0
2.377166748046875,104.0,5549056.0,519040.0,1326592.0
2.379549980163574,704.0,5138432.0,469184.0,1150464.0
2.3819334506988525,425.0,4999168.0,471296.0,1246464.0
2.3843166828155518,146.0,5213184.0,424768.0,1108992.0
2.386699914932251,115.0,4732928.0,415424.0,1121536.0
2.3890833854675293,132.0,4564992.0,405120.0,1146624.0
2.3914666175842285,72.0,4557824.0,394432.0,1085696.0
2.393883228302002,99.0,4237312.0,409920.0,1016320.0
2.3962666988372803,127.0,4172800.0,376960.0,1061888.0
2.3986499309539795,182.0,3799040.0,350912.0,912640.0
2.401033401489258,275.0,3972096.0,337728.0,906496.0
2.403416633605957,209.0,3534848.0,325760.0,893440.0
2.4058001041412354,142.0,3499008.0,297600.0,834816.0
2.4081833362579346,166.0,3264512.0,305920.0,738816.0
2.410599946975708,105.0,3041280.0,277440.0,711680.0
2.4129834175109863,53.0,2782208.0,237696.0,636672.0
2.4153666496276855,152.0,2654208.0,245504.0,608512.0
2.4177498817443848,152.0,2357248.0,184192.0,546560.0
2.420133352279663,84.0,2061312.0,181696.0,531456.0
2.4225165843963623,105.0,1859072.0,156608.0,412672.0
2.4249000549316406,126.0,1635328.0,136448.0,365824.0
2.427316665649414,111.0,1344512.0,113360.0,307648.0
2.4296998977661133,50.0,1091840.0,101152.0,244160.0
2.4320833683013916,94.0,915712.0,73824.0,186624.0
2.434466600418091,98.0,751872.0,65184.0,153472.0
2.436850070953369,66.0,605184.0,56400.0,108080.0
2.4392333030700684,56.0,452032.0,41664.0,129568.0
2.4416167736053467,45.0,384896.0,26604.0,99920.0
2.44403338432312,33.0,352768.0,25300.0,84304.0
2.4464166164398193,63.0,272704.0,24360.0,65360.0
2.4488000869750977,25.0,228608.0,22344.0,56960.0
2.451183319091797,43.0,165184.0,24012.0,53040.0
2.453566551208496,62.0,192768.0,18592.0,44160.0
2.4559500217437744,18.0,143424.0,13464.0,45232.0
2.4583332538604736,39.0,149120.0,15208.0,32632.0
2.460750102996826,61.0,139392.0,14804.0,35728.0
2.4631333351135254,40.0,134208.0,5470.0,26184.0
2.4655165672302246,20.0,116432.0,7006.0,27840.0
2.467900037765503,32.0,120912.0,8107.0,34000.0
2.470283269882202,26.0,109648.0,8660.0,29540.0
2.4726667404174805,0.0,103824.0,7503.0,23020.0
2.4750499725341797,25.0,82848.0,6345.0,18708.0
2.477466583251953,59.0,103568.0,8700.0,28892.0
2.4798500537872314,45.0,75312.0,7205.0,29132.0
2.4822332859039307,31.0,89824.0,5711.0,23092.0
2.484616756439209,30.0,95248.0,9380.0,22680.0
2.486999988555908,47.0,75056.0,8980.0,13516.0
2.4893832206726074,65.0,63376.0,4064.0,13580.0
2.4917666912078857,64.0,70336.0,9448.0,13908.0
2.494183301925659,46.0,73520.0,1642.0,14104.0
2.4965667724609375,29.0,72416.0,6225.0,14300.0
2.4989500045776367,63.0,46064.0,6514.0,13440.0
2.5008833408355713,15.0,61312.0,4988.0,12580.0
2.5017499923706055,64.0,72320.0,7131.0,8664.0
2.5026333332061768,28.0,63728.0,6567.0,14032.0
2.503483295440674,47.0,75104.0,6003.0,16808.0
2.504349946975708,34.0,54704.0,4668.0,15612.0
2.505216598510742,17.0,60528.0,7295.0,14020.0
2.5060832500457764,19.0,62256.0,4045.0,15740.0
2.5069499015808105,17.0,54880.0,9404.0,9324.0
2.5078165531158447,13.0,52624.0,10596.0,11552.0
2.508683443069458,10.0,50384.0,3710.0,11752.0
2.509550094604492,13.0,64304.0,7572.0,15584.0
2.5104832649230957,17.0,67600.0,4324.0,19624.0
2.51134991645813,47.0,65888.0,2317.0,5119.0
2.512216567993164,31.0,63328.0,3375.0,13120.0
2.5130832195281982,15.0,63488.0,5408.0,14476.0
2.5139501094818115,1053.0,66192.0,1776.0,12796.0
2.5148167610168457,1074.0,54944.0,7647.0,11968.0
2.51568341255188,67.0,55776.0,5350.0,13620.0
2.516550064086914,73.0,47664.0,6421.0,17156.0
2.5174167156219482,86.0,55440.0,2240.0,13708.0
2.5182833671569824,146.0,52272.0,4841.0,10264.0
2.5191500186920166,95.0,48832.0,5305.0,9952.0
2.520016670227051,44.0,55888.0,5770.0,10748.0
2.520883321762085,83.0,54224.0,5104.0,12844.0
2.521749973297119,48.0,55840.0,2121.0,12708.0
2.5226166248321533,49.0,43808.0,4108.0,10656.0
2.5234832763671875,60.0,58560.0,1580.0,13512.0
2.5243499279022217,59.0,50048.0,2221.0,11000.0
2.525216579437256,54.0,53968.0,2863.0,14036.0
2.52608323097229,48.0,47648.0,3449.0,14744.0
2.526949882507324,47.0,39616.0,2312.0,10920.0
2.527883291244507,61.0,50944.0,1174.0,8844.0
2.528749942779541,18.0,55104.0,4466.0,13864.0
2.529616594314575,11.0,47648.0,3333.0,11928.0
2.5304832458496094,33.0,50608.0,2200.0,10760.0
2.5313498973846436,33.0,41520.0,4813.0,8185.0
2.5322165489196777,34.0,49456.0,5251.0,13028.0
2.533083438873291,17.0,43344.0,4107.0,12212.0
2.533950090408325,0.0,38736.0,3159.0,12836.0
2.5348167419433594,38.0,44112.0,1730.0,15624.0
2.5356833934783936,33.0,47248.0,4795.0,8116.0
2.5365500450134277,28.0,43952.0,4246.0,4328.0
2.537416696548462,68.0,49760.0,3606.0,9748.0
2.538283348083496,50.0,50144.0,829.0,8628.0
2.5391499996185303,32.0,28584.0,2470.0,11776.0
2.5400166511535645,47.0,47552.0,3271.0,10368.0
2.5408833026885986,27.0,41088.0,1933.0,8936.0
2.541749954223633,9.0,36896.0,3285.0,7508.0
2.542616605758667,29.0,44192.0,3313.0,6350.0
2.543483257293701,31.0,42720.0,3597.0,10916.0
2.5443999767303467,34.0,41232.0,1670.0,11220.0
2.545266628265381,22.0,39424.0,2312.0,9724.0
2.546133279800415,48.0,42032.0,2953.0,7256.0
2.546999931335449,49.0,40208.0,3328.0,12068.0
2.5478665828704834,50.0,36128.0,6112.0,9220.0
2.5487332344055176,22.0,41216.0,6701.0,10200.0
2.5495998859405518,37.0,40512.0,1643.0,9720.0
2.550466775894165,28.0,41216.0,3102.0,4409.0
2.551333427429199,27.0,40416.0,4404.0,12804.0
2.5522000789642334,37.0,43376.0,4573.0,9828.0
2.5530667304992676,0.0,30508.0,928.0,4346.0
2.5539333820343018,15.0,37808.0,1976.0,10020.0
2.554816722869873,34.0,41264.0,2200.0,8328.0
2.55566668510437,26.0,39200.0,619.0,5789.0
2.5565333366394043,18.0,36448.0,679.0,7273.0
2.5573999881744385,17.0,30460.0,4718.0,7265.0
2.5582833290100098,17.0,36944.0,4030.0,7257.0
2.559133291244507,13.0,36224.0,2146.0,12944.0
2.559999942779541,10.0,26400.0,2941.0,14672.0
2.560866594314575,30.0,29140.0,3737.0,15228.0
2.561800003051758,40.0,36992.0,1997.0,7770.0
2.562666654586792,47.0,36048.0,1350.0,5430.0
2.563533306121826,19.0,28036.0,3518.0,11336.0
2.5643999576568604,40.0,37392.0,1342.0,5690.0
2.5652666091918945,29.0,31888.0,1272.0,6331.0
2.5661332607269287,19.0,31896.0,3094.0,10828.0
2.566999912261963,63.0,36144.0,221.0,6545.0
2.567866563796997,49.0,33472.0,2265.0,8060.0
2.5687332153320312,34.0,30796.0,3295.0,6662.0
2.5696001052856445,28.0,26180.0,4064.0,9052.0
2.5704667568206787,22.0,36976.0,3256.0,9340.0
2.571333408355713,11.0,25752.0,1976.0,6771.0
2.572200059890747,37.0,26876.0,3267.0,6635.0
2.5730667114257812,472.0,37440.0,3070.0,6499.0
2.5739333629608154,481.0,25396.0,4007.0,6946.0
2.5748000144958496,489.0,32448.0,4814.0,6780.0
2.575666666030884,10.0,31460.0,2014.0,6615.0
2.576533317565918,10.0,26540.0,632.0,5831.0
2.577399969100952,10.0,33664.0,3007.0,7022.0
2.5783333778381348,37.0,25748.0,2168.0,7015.0
2.579200029373169,63.0,27264.0,1329.0,7008.0
2.580066680908203,47.0,34576.0,2824.0,2640.0
2.5809333324432373,31.0,26184.0,2241.0,9688.0
2.5817999839782715,404.0,33776.0,1658.0,5000.0
2.5826666355133057,777.0,38208.0,979.0,2964.0
2.58353328704834,1906.0,32076.0,300.0,8644.0
2.584399938583374,2317.0,30636.0,4332.0,9440.0
2.585266590118408,2439.0,28160.0,3450.0,11060.0
2.5861332416534424,2375.0,27316.0,4502.0,4744.0
2.5869998931884766,2601.0,26808.0,3284.0,7432.0
2.58786678314209,3500.0,26612.0,2066.0,6032.0
2.588733434677124,4089.0,26416.0,1949.0,4817.0
2.589600086212158,1813.0,27140.0,1410.0,5516.0
2.5904667377471924,2324.0,25564.0,1180.0,6214.0
2.5913333892822266,2834.0,23132.0,3260.0,6309.0
2.5922000408172607,1614.0,26884.0,2848.0,6404.0
2.593066692352295,3673.0,27900.0,2435.0,9860.0
2.593933343887329,3699.0,27812.0,2900.0,8316.0
2.5947999954223633,3725.0,27724.0,2701.0,6770.0
2.595733404159546,5273.0,22920.0,996.0,5333.0
2.59660005569458,6820.0,28724.0,2315.0,7596.0
2.5974667072296143,9860.0,16820.0,2027.0,3340.0
2.5983333587646484,10352.0,32396.0,1739.0,2647.0
2.5992000102996826,10620.0,26620.0,1721.0,9828.0
2.600066661834717,2888.0,16860.0,1702.0,6623.0
2.600933313369751,11880.0,24012.0,2303.0,7822.0
2.601799964904785,9320.0,30840.0,2850.0,8078.0
2.6026666164398193,6382.0,20160.0,3397.0,2200.0
2.6035332679748535,11648.0,21672.0,3091.0,6639.0
2.6043999195098877,15916.0,23996.0,3727.0,5019.0
2.605266571044922,14424.0,21512.0,770.0,6122.0
2.606133222579956,9660.0,21624.0,2917.0,3387.0
2.6070001125335693,15016.0,21928.0,2058.0,5281.0
2.6078667640686035,10468.0,22232.0,1491.0,4430.0
2.6087334156036377,11232.0,17492.0,3372.0,3316.0
2.609600067138672,13216.0,27356.0,122.0,3307.0
2.610466718673706,10296.0,13264.0,550.0,3297.0
2.6113333702087402,11884.0,27788.0,978.0,3597.0
2.6122500896453857,13472.0,16280.0,1022.0,3897.0
2.61311674118042,12420.0,14784.0,526.0,4940.0
2.613983392715454,6995.0,24048.0,31.0,5982.0
2.6148667335510254,16244.0,16984.0,1722.0,5321.0
2.6157333850860596,9516.0,14508.0,886.0,5790.0
2.6165833473205566,13656.0,21476.0,50.0,3072.0
2.617466688156128,18052.0,17868.0,1801.0,2727.0
2.618316650390625,13324.0,14260.0,1384.0,6497.0
2.619183301925659,17076.0,14876.0,967.0,1907.0
2.6200499534606934,22384.0,16520.0,1547.0,2085.0
2.6209332942962646,8248.0,18160.0,2127.0,5329.0
2.6217832565307617,20556.0,19288.0,2196.0,3438.0
2.622649908065796,15996.0,12956.0,1780.0,4094.0
2.623533248901367,14316.0,12732.0,1106.0,4238.0
2.6243834495544434,18984.0,12508.0,196.0,4103.0
2.6252501010894775,18024.0,13484.0,2226.0,3969.0
2.6261167526245117,20900.0,14460.0,966.0,2906.0
2.626983404159546,20336.0,18908.0,621.0,1503.0
2.62785005569458,21656.0,20552.0,1494.0,2673.0
2.6287167072296143,14888.0,16280.0,136.0,2657.0
2.629650115966797,22492.0,18088.0,1532.0,2641.0
2.630516767501831,22996.0,18216.0,2377.0,2606.0
2.6313834190368652,27992.0,11992.0,485.0,2572.0
2.6322500705718994,26832.0,15432.0,902.0,2226.0
2.6331167221069336,16372.0,19208.0,1319.0,1630.0
2.6339833736419678,12940.0,15620.0,722.0,2548.0
2.634850025177002,19764.0,19172.0,18.0,2989.0
2.635716676712036,14160.0,19168.0,41.0,3430.0
2.6365833282470703,18872.0,19160.0,64.0,2056.0
2.6374499797821045,11384.0,11244.0,1293.0,3796.0
2.6383166313171387,16880.0,15212.0,1279.0,1780.0
2.639183282852173,16960.0,13352.0,2230.0,1892.0
2.640049934387207,21680.0,11492.0,2569.0,2003.0
2.640916585922241,19844.0,11612.0,1176.0,1914.0
2.6417832374572754,14184.0,12292.0,2499.0,1824.0
2.6426498889923096,14152.0,13124.0,610.0,3027.0
2.643516778945923,15516.0,13960.0,589.0,4170.0
2.644383430480957,13940.0,14248.0,581.0,3752.0
2.645250082015991,18080.0,14540.0,406.0,2627.0
2.6461832523345947,22220.0,8500.0,523.0,3041.0
2.647049903869629,26492.0,18436.0,640.0,1951.0
2.647916555404663,22792.0,14316.0,862.0,3010.0
2.6487834453582764,24556.0,11808.0,789.0,4069.0
2.6496500968933105,17420.0,16284.0,715.0,3502.0
2.6505167484283447,17720.0,13164.0,1283.0,3816.0
2.651383399963379,18892.0,17096.0,1360.0,2771.0
2.652250051498413,15620.0,13100.0,37.0,3327.0
2.6531167030334473,15380.0,9740.0,1038.0,2135.0
2.6539833545684814,15140.0,10716.0,1598.0,1911.0
2.6548500061035156,11104.0,9908.0,29.0,1687.0
2.65571665763855,11404.0,5609.0,706.0,3505.0
2.656583309173584,11704.0,9812.0,514.0,3686.0
2.657449960708618,12596.0,7848.0,323.0,669.0
2.6583166122436523,13492.0,10152.0,1006.0,821.0
2.6591832637786865,12188.0,11700.0,866.0,1470.0
2.6600499153137207,10884.0,6119.0,725.0,971.0
2.660916566848755,13184.0,11448.0,377.0,471.0
2.661783218383789,10452.0,12176.0,28.0,1278.0
2.6626501083374023,8864.0,11512.0,38.0,2581.0
2.663583278656006,11576.0,4521.0,493.0,2782.0
2.66444993019104,10264.0,10204.0,949.0,3515.0
2.665316581726074,8952.0,10900.0,2474.0,2892.0
2.6661832332611084,10676.0,8440.0,2129.0,654.0
2.6670498847961426,9256.0,10720.0,981.0,2575.0
2.667916774749756,7832.0,11504.0,221.0,1366.0
2.66878342628479,6515.0,9036.0,1799.0,2307.0
2.669650077819824,9676.0,5939.0,1383.0,800.0
2.6705167293548584,10848.0,3152.0,272.0,852.0
2.6713833808898926,9904.0,5398.0,1386.0,903.0
2.6722500324249268,5980.0,5113.0,69.0,672.0
2.673116683959961,7020.0,4827.0,838.0,440.0
2.673983335494995,6689.0,5913.0,36.0,13.0
2.6748499870300293,6241.0,6999.0,34.0,648.0
2.6757166385650635,5793.0,1708.0,33.0,40.0
2.6765832901000977,6772.0,9756.0,11.0,328.0
2.677449941635132,5856.0,8780.0,388.0,1828.0
2.678316593170166,4941.0,7010.0,765.0,1634.0
2.6791832447052,5842.0,9892.0,750.0,1013.0
2.6800999641418457,7067.0,7283.0,22.0,125.0
2.68096661567688,5225.0,7763.0,33.0,939.0
2.681833267211914,3382.0,8016.0,735.0,1752.0
2.6826999187469482,4660.0,6312.0,601.0,1062.0
2.6835832595825195,3608.0,6411.0,59.0,371.0
2.6844332218170166,4947.0,9424.0,1005.0,1032.0
2.68530011177063,3229.0,4454.0,709.0,528.0
2.686166763305664,4120.0,6776.0,1698.0,24.0
2.6870334148406982,5010.0,4393.0,1068.0,27.0
2.6879000663757324,3754.0,6172.0,55.0,30.0
2.6887834072113037,5717.0,6343.0,1036.0,94.0
2.689633369445801,2050.0,4772.0,217.0,159.0
2.690500020980835,3273.0,3970.0,524.0,3303.0
2.6913833618164062,3569.0,2863.0,832.0,3603.0
2.6922333240509033,2556.0,2784.0,125.0,592.0
2.6930999755859375,3828.0,3929.0,41.0,2436.0
2.6939666271209717,4572.0,2265.0,31.0,2590.0
2.694833278656006,5316.0,1920.0,58.0,2235.0
2.69569993019104,1945.0,7755.0,973.0,285.0
2.696566581726074,3054.0,8182.0,762.0,797.0
2.697499990463257,1545.0,3858.0,37.0,2615.0
2.698366641998291,2471.0,3145.0,483.0,818.0
2.699233293533325,1179.0,7457.0,929.0,1404.0
