,259.1700134277344,260.1700134277344,261.1700134277344,262.1700134277344,263.1700134277344
2.4013500213623047,0.0,263.0,27.0,5.0,10.0
2.403083324432373,265.0,1220.0,17.0,27.0,5.0
2.405900001525879,5.0,0.0,601.0,27.0,29.0
2.4087166786193848,29.0,24.0,21.0,30.0,5.0
2.411583423614502,32.0,849.0,0.0,5.0,15.0
2.414400100708008,28.0,5.0,121.0,12.0,0.0
2.4172167778015137,24.0,6.0,29.0,19.0,7.0
2.4200332164764404,49.0,7.0,11.0,33.0,13.0
2.4228498935699463,5.0,0.0,16.0,32.0,7.0
2.4256832599639893,61.0,5.0,29.0,17.0,0.0
2.4285166263580322,39.0,7.0,22.0,26.0,11.0
2.431333303451538,14.0,8.0,14.0,10.0,22.0
2.434166669845581,23.0,30.0,56.0,12.0,28.0
2.436983346939087,5.0,24.0,49.0,13.0,13.0
2.4398000240325928,21.0,18.0,17.0,21.0,12.0
2.442650079727173,26.0,35.0,6.0,0.0,23.0
2.445483446121216,31.0,51.0,49.0,8.0,25.0
2.4482998847961426,13.0,195.0,59.0,5.0,5.0
2.4511165618896484,5.0,115.0,34.0,38.0,21.0
2.4539499282836914,28.0,36.0,5.0,29.0,38.0
2.4567666053771973,0.0,24.0,23.0,34.0,24.0
2.4596166610717773,5.0,0.0,30.0,42.0,23.0
2.462433338165283,16.0,12.0,0.0,17.0,17.0
2.465250015258789,5.0,23.0,0.0,12.0,10.0
2.468066692352295,23.0,22.0,0.0,19.0,16.0
2.470883369445801,18.0,21.0,12.0,21.0,24.0
2.4737000465393066,13.0,20.0,24.0,15.0,26.0
2.4765334129333496,21.0,747.0,26.0,8.0,27.0
2.4793500900268555,25.0,395.0,17.0,25.0,18.0
2.4821832180023193,29.0,44.0,7.0,30.0,16.0
2.484999895095825,5.0,656.0,30.0,10.0,13.0
2.487816572189331,5.0,13.0,50.0,8.0,5.0
2.490633249282837,61.0,20.0,42.0,5.0,11.0
2.49346661567688,55.0,18.0,20.0,27.0,21.0
2.4962832927703857,0.0,1185.0,51.0,19.0,31.0
2.4990999698638916,23.0,995.0,10.0,11.0,25.0
2.5019166469573975,26.0,632.0,10.0,24.0,30.0
2.5047333240509033,27.0,1115.0,10.0,18.0,5.0
2.507550001144409,27.0,974.0,8.0,30.0,0.0
2.5104334354400635,19.0,833.0,5.0,34.0,0.0
2.5132501125335693,10.0,61.0,3.0,38.0,0.0
2.516066551208496,21.0,915.0,0.0,11.0,10.0
2.518883228302002,19.0,290.0,8.0,21.0,26.0
2.521699905395508,16.0,20.0,12.0,12.0,18.0
2.5245165824890137,32.0,38.0,13.0,48.0,0.0
2.527383327484131,24.0,362.0,40.0,32.0,17.0
2.5302000045776367,16.0,187.0,34.0,15.0,27.0
2.5330166816711426,0.0,12.0,29.0,10.0,15.0
2.5358333587646484,31.0,517.0,38.0,11.0,18.0
2.5386500358581543,6.0,269.0,35.0,18.0,20.0
2.54146671295166,8.0,21.0,31.0,25.0,8.0
2.5443499088287354,10.0,315.0,27.0,29.0,26.0
2.547166585922241,12.0,778.0,29.0,34.0,34.0
2.549983263015747,10.0,1032.0,5.0,27.0,39.0
2.552799940109253,30.0,881.0,21.0,36.0,16.0
2.555616617202759,34.0,915.0,16.0,12.0,19.0
2.5584332942962646,32.0,927.0,33.0,27.0,23.0
2.561316728591919,22.0,13.0,49.0,43.0,15.0
2.564133405685425,0.0,843.0,57.0,36.0,11.0
2.5669500827789307,0.0,64.0,66.0,44.0,28.0
2.5697667598724365,34.0,29.0,17.0,34.0,5.0
2.5725834369659424,36.0,190.0,35.0,0.0,10.0
2.5754001140594482,24.0,74.0,57.0,16.0,27.0
2.5782666206359863,12.0,0.0,5.0,23.0,23.0
2.581083297729492,10.0,5.0,10.0,32.0,0.0
2.583899974822998,0.0,16.0,0.0,5.0,39.0
2.586716651916504,0.0,11.0,569.0,21.0,23.0
2.5895333290100098,0.0,5.0,688.0,12.0,19.0
2.5923500061035156,5.0,17.0,52.0,8.0,36.0
2.59523344039917,26.0,16.0,35.0,37.0,12.0
2.598050117492676,28.0,43.0,18.0,47.0,24.0
2.6008665561676025,30.0,563.0,12.0,6.0,17.0
2.6036832332611084,35.0,3034.0,250.0,5.0,21.0
2.6064999103546143,39.0,8592.0,125.0,10.0,10.0
2.60931658744812,20.0,16580.0,0.0,0.0,5.0
2.6121833324432373,10.0,27524.0,261.0,12.0,14.0
2.615000009536743,18.0,68672.0,2045.0,24.0,18.0
2.617816686630249,30.0,110560.0,7298.0,87.0,22.0
2.620633363723755,22.0,182528.0,7725.0,2182.0,43.0
2.623466730117798,14.0,272384.0,8408.0,3518.0,55.0
2.6262834072113037,31.0,316480.0,14536.0,3305.0,48.0
2.6291167736053467,13.0,407616.0,19268.0,37.0,41.0
2.6319334506988525,38.0,513472.0,22040.0,3224.0,916.0
2.6347498893737793,49.0,616960.0,24808.0,3844.0,468.0
2.637566566467285,19.0,649984.0,25912.0,4154.0,20.0
2.640383243560791,12.0,697088.0,22948.0,2554.0,1311.0
2.643199920654297,43.0,684544.0,19984.0,3360.0,629.0
2.646083354949951,42.0,689664.0,23776.0,3091.0,479.0
2.648900032043457,42.0,700416.0,32100.0,2821.0,328.0
2.651716709136963,33.0,711168.0,31448.0,5440.0,47.0
2.6545333862304688,14.0,668672.0,34624.0,4783.0,44.0
2.6573500633239746,42.0,692480.0,17660.0,4127.0,41.0
2.6601667404174805,40.0,705792.0,36704.0,4379.0,752.0
2.6630332469940186,22.0,719104.0,34928.0,4180.0,392.0
2.6658499240875244,26.0,789248.0,30824.0,3980.0,32.0
2.6686666011810303,7.0,786688.0,40912.0,4641.0,426.0
2.671483278274536,13.0,810752.0,39232.0,5300.0,53.0
2.674316644668579,29.0,808192.0,32576.0,4624.0,49.0
2.677133321762085,36.0,805376.0,29888.0,3947.0,81.0
2.679966688156128,23.0,751360.0,23440.0,2810.0,808.0
2.682783365249634,20.0,718848.0,25496.0,370.0,826.0
2.6856167316436768,16.0,680448.0,27552.0,2340.0,1128.0
2.6884334087371826,21.0,587264.0,17504.0,3089.0,7.0
2.6912500858306885,36.0,519808.0,24812.0,3837.0,500.0
2.6940667629241943,39.0,427904.0,15576.0,4265.0,0.0
2.6969499588012695,42.0,341504.0,10532.0,2572.0,55.0
2.6997666358947754,23.0,284352.0,10420.0,796.0,47.0
2.7025833129882812,31.0,248000.0,11572.0,505.0,12.0
2.705399990081787,20.0,190912.0,8069.0,672.0,26.0
2.708216667175293,5.0,128816.0,7274.0,604.0,19.0
2.711033344268799,82.0,92400.0,4191.0,535.0,26.0
2.713900089263916,81.0,74976.0,17.0,588.0,34.0
2.716716766357422,16.0,54912.0,2726.0,39.0,29.0
2.7195498943328857,38.0,43424.0,914.0,67.0,24.0
2.7223665714263916,52.0,31520.0,1853.0,12.0,63.0
2.7251832485198975,27.0,26664.0,485.0,47.0,61.0
2.7279999256134033,34.0,19864.0,334.0,37.0,25.0
2.7308666706085205,35.0,12932.0,589.0,10.0,20.0
2.7337000370025635,37.0,16140.0,578.0,36.0,34.0
2.7365167140960693,43.0,12176.0,566.0,18.0,32.0
2.739333391189575,12.0,13364.0,647.0,36.0,41.0
2.742150068283081,32.0,13560.0,544.0,29.0,25.0
2.744966745376587,44.0,13760.0,441.0,154.0,21.0
2.747833251953125,35.0,9080.0,11.0,82.0,5.0
2.750649929046631,29.0,9672.0,400.0,10.0,16.0
2.753483295440674,17.0,10260.0,0.0,10.0,26.0
2.7562999725341797,16.0,7547.0,555.0,0.0,24.0
2.7591166496276855,26.0,8924.0,290.0,3.0,17.0
2.7619333267211914,17.0,6695.0,24.0,5.0,43.0
2.7648167610168457,8.0,9044.0,31.0,8.0,0.0
2.7676334381103516,21.0,7546.0,61.0,10.0,45.0
2.7704501152038574,15.0,6088.0,41.0,11.0,32.0
2.773266553878784,10.0,4484.0,21.0,13.0,10.0
2.77608323097229,10.0,4745.0,23.0,14.0,5.0
2.778899908065796,24.0,1994.0,35.0,22.0,34.0
2.781766653060913,21.0,1037.0,46.0,19.0,5.0
2.784583330154419,18.0,4345.0,28.0,15.0,22.0
2.787416696548462,12.0,3764.0,10.0,22.0,318.0
2.7902333736419678,10.0,3183.0,28.0,9.0,187.0
2.7930500507354736,21.0,3997.0,26.0,12.0,57.0
2.7958667278289795,0.0,2994.0,23.0,10.0,5.0
2.7987332344055176,6.0,1992.0,18.0,8.0,15.0
2.8015499114990234,10.0,4087.0,5.0,7.0,10.0
2.8043665885925293,0.0,3711.0,17.0,5.0,0.0
2.807183265686035,15.0,2826.0,28.0,10.0,27.0
2.809999942779541,9.0,1011.0,53.0,5.0,30.0
2.812833309173584,0.0,1572.0,77.0,0.0,16.0
2.815700054168701,0.0,1939.0,55.0,5.0,1487.0
2.818516731262207,8.0,2306.0,11.0,8.0,1439.0
2.821333408355713,42.0,1823.0,10.0,16.0,29.0
2.8241500854492188,27.0,1189.0,86.0,23.0,35.0
2.8269834518432617,12.0,556.0,51.0,15.0,20.0
2.8297998905181885,0.0,1190.0,16.0,6.0,163.0
2.8326666355133057,5.0,1824.0,13.0,28.0,415.0
2.8354833126068115,24.0,3154.0,26.0,35.0,217.0
2.8382999897003174,26.0,2489.0,18.0,41.0,20.0
2.8411333560943604,21.0,2143.0,10.0,5.0,23.0
2.843950033187866,25.0,1302.0,29.0,5.0,0.0
2.846766710281372,29.0,461.0,26.0,28.0,27.0
2.84963321685791,0.0,803.0,23.0,0.0,8.0
2.852449893951416,40.0,1144.0,20.0,5.0,11.0
2.855266571044922,0.0,1836.0,18.0,627.0,13.0
2.8580832481384277,7.0,1066.0,15.0,587.0,14.0
2.8609166145324707,10.0,297.0,5.0,42.0,12.0
2.8637332916259766,11.0,816.0,24.0,24.0,10.0
2.8666000366210938,13.0,1336.0,47.0,0.0,11.0
2.8694167137145996,22.0,1384.0,52.0,0.0,14.0
2.8722333908081055,30.0,1432.0,61.0,20.0,17.0
2.8750500679016113,27.0,940.0,34.0,10.0,14.0
2.877866744995117,10.0,1554.0,10.0,36.0,11.0
2.88070011138916,5.0,2168.0,30.0,41.0,21.0
2.8835666179656982,14.0,2185.0,15.0,46.0,17.0
2.886383295059204,16.0,1168.0,0.0,66.0,12.0
2.889216661453247,17.0,2005.0,12.0,7.0,14.0
2.892033338546753,9.0,339.0,15.0,27.0,46.0
2.894850015640259,0.0,1555.0,17.0,23.0,44.0
2.8976666927337646,3.0,3366.0,1269.0,18.0,57.0
2.900533437728882,5.0,8924.0,4755.0,20.0,1747.0
2.9033501148223877,23.0,11908.0,5887.0,1816.0,1896.0
2.9061665534973145,22.0,20636.0,8920.0,3850.0,6506.0
2.9089999198913574,37.0,35824.0,25452.0,11148.0,16096.0
2.9118165969848633,0.0,61872.0,58560.0,19212.0,25692.0
2.914633274078369,27.0,91712.0,82208.0,33792.0,43024.0
2.9175000190734863,39.0,166336.0,149184.0,44048.0,73264.0
2.920316696166992,35.0,232128.0,231040.0,54784.0,96528.0
2.923133373260498,12.0,336384.0,309120.0,69360.0,142912.0
2.925966739654541,33.0,396032.0,358144.0,120096.0,187136.0
2.928783416748047,22.0,516032.0,461632.0,109312.0,200640.0
2.9316000938415527,11.0,569088.0,583936.0,145088.0,235200.0
2.934466600418091,18.0,639488.0,556800.0,131520.0,229440.0
2.9372832775115967,7.0,688640.0,652288.0,163136.0,268608.0
2.9400999546051025,48.0,744960.0,645888.0,155904.0,289472.0
2.9429333209991455,41.0,839936.0,766464.0,169088.0,331008.0
2.9457499980926514,35.0,787200.0,774400.0,193536.0,305536.0
2.9485666751861572,290.0,888832.0,761600.0,184896.0,319872.0
2.9514334201812744,264.0,883456.0,760320.0,189888.0,337856.0
2.9542500972747803,27.0,914944.0,785920.0,213312.0,348288.0
2.957066774368286,32.0,915456.0,811776.0,206848.0,359360.0
2.959883451461792,31.0,916480.0,833536.0,209856.0,317888.0
2.9626998901367188,30.0,917504.0,851968.0,197312.0,343232.0
2.9655165672302246,30.0,833792.0,710912.0,171904.0,310784.0
2.968400001525879,22.0,768256.0,733696.0,180672.0,294464.0
2.9712166786193848,14.0,774144.0,660224.0,169344.0,255488.0
2.9740333557128906,54.0,644352.0,561408.0,139072.0,225152.0
2.9768500328063965,45.0,573952.0,515840.0,126128.0,224384.0
2.9796833992004395,6.0,491200.0,449600.0,100064.0,150464.0
2.9825000762939453,24.0,376192.0,324864.0,76272.0,112992.0
2.9853665828704834,43.0,305216.0,283392.0,50096.0,98064.0
2.9881832599639893,62.0,225920.0,198656.0,59344.0,78736.0
2.990999937057495,49.0,178688.0,163648.0,35728.0,59360.0
2.993816614151001,34.0,134208.0,98320.0,22120.0,34560.0
2.996649980545044,404.0,84464.0,75104.0,10308.0,22672.0
2.99946665763855,582.0,78576.0,52432.0,11880.0,23820.0
3.0012333393096924,481.0,63888.0,45440.0,8121.0,12464.0
3.002333402633667,62.0,61856.0,50608.0,6885.0,13120.0
3.0034167766571045,49.0,55664.0,40336.0,5829.0,19300.0
3.004499912261963,64.0,30692.0,38288.0,7737.0,13044.0
3.0055832862854004,18.0,46624.0,37040.0,7617.0,18180.0
3.006666660308838,35.0,32136.0,24316.0,7497.0,7079.0
3.0077500343322754,51.0,45184.0,28236.0,6150.0,18316.0
3.008833408355713,55.0,32548.0,29344.0,4185.0,16284.0
3.0099167823791504,70.0,25212.0,24700.0,5858.0,7512.0
3.010999917984009,5.0,26832.0,23600.0,6191.0,10412.0
3.0120832920074463,68.0,24468.0,16148.0,2962.0,11412.0
3.013166666030884,52.0,24192.0,17696.0,4629.0,11904.0
3.0142500400543213,64.0,26504.0,15200.0,5461.0,5311.0
3.015333414077759,54.0,24864.0,13784.0,5864.0,7719.0
3.016416549682617,19.0,10444.0,15372.0,4122.0,10268.0
3.0174999237060547,40.0,22788.0,22752.0,76.0,5388.0
3.0186500549316406,20.0,22668.0,21868.0,3217.0,5676.0
3.019733428955078,20.0,13428.0,12272.0,4518.0,6698.0
3.0208165645599365,39.0,22368.0,13212.0,5422.0,4642.0
3.021899938583374,10.0,16096.0,9284.0,2372.0,5157.0
3.0229833126068115,13.0,12800.0,8648.0,3484.0,5671.0
3.024066686630249,30.0,17728.0,12148.0,4462.0,5438.0
3.0251500606536865,32.0,15564.0,13204.0,4163.0,5204.0
3.026233434677124,14.0,13256.0,9408.0,1816.0,2016.0
3.0273165702819824,25.0,13380.0,9580.0,423.0,3256.0
3.02839994430542,36.0,11508.0,10848.0,2241.0,4497.0
3.0294833183288574,0.0,13720.0,9484.0,1454.0,4017.0
3.030566692352295,14.0,10348.0,7538.0,667.0,3284.0
3.0316500663757324,0.0,12180.0,7838.0,6250.0,3934.0
3.03273344039917,8.0,14012.0,8384.0,5705.0,4744.0
3.0338165760040283,15.0,13744.0,8932.0,2886.0,2255.0
3.034899950027466,22.0,13476.0,5492.0,3113.0,3630.0
3.0360333919525146,25.0,9476.0,9884.0,2170.0,3624.0
3.037116765975952,27.0,5820.0,11384.0,1189.0,3378.0
3.0381999015808105,32.0,8460.0,6583.0,872.0,2781.0
3.039283275604248,37.0,13240.0,5130.0,1269.0,2183.0
3.0403666496276855,0.0,12228.0,1984.0,644.0,2246.0
3.041450023651123,35.0,10544.0,3557.0,19.0,2309.0
3.0425333976745605,28.0,6077.0,5130.0,2079.0,3414.0
3.043616771697998,23.0,11112.0,7634.0,2220.0,3761.0
3.0446999073028564,36.0,7047.0,9256.0,1557.0,3017.0
3.045783281326294,15.0,6304.0,8604.0,1010.0,1401.0
3.0468666553497314,25.0,7715.0,5925.0,1232.0,861.0
3.047950029373169,46.0,8204.0,6765.0,979.0,1089.0
3.0490334033966064,30.0,9504.0,6559.0,1959.0,1317.0
3.050116777420044,38.0,5675.0,6353.0,1919.0,1936.0
3.0511999130249023,46.0,3806.0,4189.0,1880.0,2556.0
3.0523500442504883,10.0,3808.0,4755.0,661.0,1954.0
3.053433418273926,22.0,4307.0,4936.0,1672.0,1353.0
3.054516553878784,44.0,4806.0,5117.0,955.0,188.0
3.0555999279022217,0.0,2877.0,1559.0,234.0,2443.0
3.056683301925659,5.0,3206.0,4707.0,597.0,2193.0
3.0577666759490967,56.0,5860.0,3097.0,960.0,1633.0
3.058850049972534,28.0,6959.0,1487.0,1702.0,1193.0
3.0599334239959717,0.0,6633.0,5613.0,2237.0,2019.0
3.06101655960083,33.0,7433.0,3900.0,2156.0,1022.0
3.0620999336242676,40.0,6318.0,3647.0,1019.0,25.0
3.063183307647705,25.0,7075.0,6680.0,1663.0,1243.0
3.0642666816711426,25.0,3587.0,2481.0,919.0,1023.0
3.06535005569458,25.0,4657.0,2767.0,33.0,674.0
3.0664334297180176,0.0,4478.0,2978.0,0.0,5.0
3.067516565322876,18.0,6916.0,2190.0,1178.0,1195.0
3.0685999393463135,19.0,6778.0,4225.0,71.0,918.0
3.0697333812713623,20.0,2144.0,7153.0,1684.0,1551.0
3.0708167552948,23.0,4093.0,6538.0,1766.0,1460.0
3.071899890899658,19.0,1956.0,2670.0,288.0,1369.0
3.0729832649230957,15.0,2894.0,5252.0,501.0,602.0
3.074066638946533,20.0,3606.0,3087.0,789.0,1365.0
3.0751500129699707,21.0,2038.0,1849.0,42.0,181.0
3.076233386993408,11.0,2122.0,5126.0,1327.0,394.0
3.0773167610168457,5.0,4051.0,3358.0,1039.0,1194.0
3.078399896621704,0.0,800.0,1021.0,464.0,29.0
3.0794832706451416,49.0,3833.0,5327.0,1367.0,21.0
3.080566644668579,56.0,3194.0,2013.0,383.0,602.0
3.0816500186920166,43.0,5397.0,2606.0,961.0,1182.0
3.082733392715454,13.0,2550.0,1727.0,568.0,1422.0
3.0838167667388916,25.0,3071.0,2320.0,358.0,1709.0
3.08489990234375,47.0,2978.0,1835.0,100.0,55.0
3.086033344268799,17.0,2024.0,1922.0,567.0,157.0
3.0871334075927734,38.0,1070.0,2009.0,187.0,259.0
3.088216781616211,7.0,3140.0,2486.0,105.0,14.0
3.0892999172210693,17.0,3376.0,2964.0,23.0,713.0
3.090383291244507,27.0,3613.0,2545.0,402.0,1412.0
3.0914666652679443,25.0,3000.0,2127.0,348.0,1555.0
3.092550039291382,22.0,2387.0,3256.0,294.0,1952.0
3.0936334133148193,10.0,1971.0,1114.0,810.0,21.0
3.0947165489196777,13.0,2301.0,29.0,816.0,1019.0
3.0957999229431152,7.0,2630.0,4181.0,580.0,1625.0
3.0968832969665527,10.0,4186.0,3467.0,21.0,707.0
3.0979666709899902,13.0,4832.0,4419.0,23.0,990.0
3.0990500450134277,10.0,4985.0,1492.0,25.0,37.0
3.1001334190368652,23.0,1031.0,2884.0,28.0,23.0
3.1012165546417236,43.0,7181.0,615.0,67.0,10.0
3.102299928665161,47.0,1350.0,3221.0,68.0,27.0
3.103450059890747,22.0,3518.0,1572.0,68.0,44.0
3.1045334339141846,28.0,4884.0,1765.0,34.0,60.0
3.105616569519043,31.0,2781.0,847.0,0.0,75.0
3.1066999435424805,0.0,2045.0,837.0,3.0,550.0
3.107783317565918,20.0,3594.0,3036.0,5.0,555.0
3.1088666915893555,10.0,2200.0,2371.0,24.0,29.0
3.109950065612793,19.0,3145.0,1904.0,718.0,496.0
3.1110334396362305,25.0,3954.0,965.0,369.0,964.0
3.112116575241089,27.0,1084.0,922.0,20.0,614.0
3.1131999492645264,26.0,3519.0,1000.0,44.0,46.0
3.114283323287964,25.0,3053.0,908.0,46.0,440.0
3.1153666973114014,13.0,3663.0,815.0,38.0,6.0
3.116450071334839,0.0,646.0,4347.0,30.0,1107.0
3.1175334453582764,23.0,2118.0,4126.0,728.0,560.0
3.1186165809631348,16.0,4677.0,1018.0,599.0,12.0
3.1196999549865723,21.0,690.0,1094.0,909.0,932.0
3.120833396911621,14.0,2919.0,20.0,12.0,156.0
3.1219167709350586,7.0,5792.0,2133.0,19.0,530.0
3.122999906539917,0.0,4348.0,1808.0,5.0,785.0
3.1240832805633545,12.0,2836.0,1484.0,95.0,579.0
3.125166654586792,27.0,2457.0,1290.0,441.0,372.0
3.1262500286102295,23.0,2331.0,2614.0,226.0,303.0
3.127333402633667,19.0,2206.0,3323.0,10.0,233.0
3.1284167766571045,27.0,1566.0,2473.0,30.0,44.0
3.129499912261963,15.0,904.0,599.0,41.0,340.0
3.1305832862854004,11.0,19.0,1172.0,48.0,183.0
3.131666660308838,10.0,3573.0,421.0,78.0,26.0
3.1327500343322754,15.0,3113.0,1608.0,73.0,195.0
3.133833408355713,11.0,4630.0,2795.0,67.0,101.0
3.1349167823791504,6.0,2188.0,3525.0,411.0,6.0
3.135999917984009,15.0,1346.0,1399.0,209.0,37.0
3.1371500492095947,24.0,1842.0,1239.0,6.0,68.0
3.1382334232330322,12.0,1805.0,1614.0,26.0,38.0
3.1393165588378906,0.0,573.0,1886.0,47.0,8.0
3.140399932861328,21.0,2522.0,2158.0,0.0,339.0
3.1414833068847656,24.0,2957.0,2066.0,24.0,181.0
3.142566680908203,27.0,1725.0,1974.0,48.0,22.0
3.1436500549316406,14.0,1111.0,562.0,7.0,22.0
3.144733428955078,0.0,1372.0,811.0,35.0,366.0
3.1458165645599365,39.0,1633.0,1253.0,21.0,330.0
3.146899938583374,41.0,1684.0,410.0,6.0,295.0
3.1479833126068115,40.0,671.0,994.0,17.0,29.0
3.149066686630249,10.0,693.0,29.0,13.0,15.0
3.1501500606536865,21.0,566.0,30.0,272.0,0.0
3.151233434677124,5.0,283.0,30.0,162.0,18.0
3.1523165702819824,21.0,0.0,48.0,52.0,12.0
3.15339994430542,13.0,74.0,318.0,18.0,6.0
3.1545333862304688,5.0,30.0,165.0,37.0,16.0
3.1556167602539062,22.0,15.0,12.0,0.0,26.0
3.1566998958587646,5.0,42.0,20.0,27.0,16.0
3.157783269882202,26.0,32.0,29.0,29.0,5.0
3.1588666439056396,64.0,0.0,24.0,15.0,16.0
3.159950017929077,58.0,44.0,19.0,24.0,16.0
3.1610333919525146,52.0,10.0,728.0,11.0,797.0
3.162116765975952,18.0,15.0,384.0,6.0,741.0
3.1631999015808105,40.0,19.0,41.0,20.0,401.0
3.164283275604248,35.0,25.0,41.0,5.0,61.0
3.1653666496276855,30.0,31.0,199.0,15.0,116.0
3.166450023651123,19.0,46.0,14.0,25.0,38.0
3.1675333976745605,13.0,44.0,591.0,31.0,31.0
3.168616771697998,5.0,0.0,548.0,38.0,0.0
3.1696999073028564,13.0,229.0,637.0,34.0,31.0
3.1708333492279053,21.0,135.0,13.0,46.0,5.0
3.17193341255188,50.0,42.0,773.0,5.0,28.0
3.1730165481567383,53.0,774.0,29.0,17.0,15.0
3.174099922180176,5.0,907.0,18.0,16.0,24.0
3.1751832962036133,17.0,10.0,14.0,0.0,6.0
3.176266670227051,10.0,45.0,36.0,38.0,11.0
3.1773500442504883,14.0,953.0,10.0,26.0,15.0
3.178433418273926,18.0,11.0,40.0,56.0,19.0
3.179516553878784,5.0,10.0,10.0,59.0,22.0
3.1805999279022217,11.0,227.0,38.0,16.0,28.0
3.181683301925659,20.0,1139.0,22.0,11.0,5.0
3.1827666759490967,10.0,995.0,20.0,25.0,5.0
3.183850049972534,0.0,5.0,18.0,39.0,8.0
3.1849334239959717,0.0,13.0,0.0,24.0,17.0
3.18601655960083,0.0,34.0,7.0,10.0,17.0
3.1870999336242676,27.0,37.0,14.0,5.0,17.0
3.1882333755493164,23.0,5.0,35.0,8.0,40.0
3.189316749572754,27.0,584.0,271.0,11.0,30.0
3.1903998851776123,30.0,534.0,141.0,8.0,21.0
3.19148325920105,28.0,12.0,10.0,5.0,44.0
3.1925666332244873,26.0,37.0,23.0,66.0,10.0
3.193650007247925,20.0,19.0,28.0,67.0,24.0
3.1947333812713623,24.0,13.0,47.0,27.0,12.0
3.1958167552948,33.0,380.0,40.0,19.0,8.0
3.196899890899658,47.0,211.0,34.0,10.0,41.0
3.1979832649230957,23.0,42.0,11.0,20.0,29.0
3.199066638946533,0.0,1463.0,16.0,11.0,27.0
