,285.1600036621094,286.1600036621094,287.1600036621094,288.1600036621094,289.1600036621094,290.1600036621094,291.1600036621094
3.001516580581665,30.0,15.0,119.0,0.0,18.0,179.0,506.0
3.003033399581909,48.0,36.0,16.0,914.0,0.0,30.0,1098.0
3.004549980163574,41.0,29.0,26.0,17.0,26.0,746.0,1719.0
3.0060665607452393,0.0,10.0,41.0,14.0,0.0,598.0,0.0
3.0075833797454834,31.0,37.0,25.0,325.0,20.0,8.0,1245.0
3.0090999603271484,15.0,44.0,0.0,5.0,24.0,395.0,24.0
3.0106167793273926,0.0,10.0,10.0,21.0,27.0,198.0,17.0
3.0121333599090576,15.0,15.0,15.0,16.0,10.0,0.0,10.0
3.0136499404907227,5.0,44.0,20.0,17.0,11.0,129.0,10.0
3.015166759490967,9.0,0.0,6.0,18.0,19.0,40.0,10.0
3.016683340072632,13.0,5.0,25.0,21.0,12.0,38.0,932.0
3.018249988555908,5.0,19.0,0.0,5.0,6.0,28.0,994.0
3.0197665691375732,6.0,40.0,39.0,8.0,42.0,48.0,34.0
3.0212833881378174,7.0,29.0,29.0,9.0,352.0,5.0,694.0
3.0227999687194824,6.0,20.0,16.0,10.0,186.0,27.0,605.0
3.0243165493011475,5.0,27.0,44.0,16.0,20.0,22.0,515.0
3.0258333683013916,10.0,32.0,24.0,21.0,46.0,543.0,5.0
3.0273499488830566,8.0,8.0,21.0,22.0,33.0,568.0,49.0
3.028866767883301,5.0,18.0,35.0,21.0,25.0,593.0,518.0
3.030383348464966,8.0,15.0,25.0,19.0,45.0,801.0,36.0
3.031899929046631,10.0,12.0,14.0,17.0,5.0,32.0,16.0
3.033416748046875,0.0,20.0,15.0,0.0,21.0,28.0,60.0
3.0350000858306885,9.0,15.0,14.0,6.0,27.0,10.0,10.0
3.0365166664123535,5.0,10.0,13.0,11.0,18.0,0.0,5.0
3.0380332469940186,0.0,16.0,0.0,10.0,25.0,0.0,10.0
3.0395500659942627,3.0,41.0,18.0,75.0,57.0,45.0,0.0
3.0410666465759277,5.0,47.0,11.0,54.0,46.0,23.0,5.0
3.0425832271575928,12.0,15.0,19.0,33.0,35.0,0.0,10.0
3.044100046157837,18.0,9.0,12.0,56.0,22.0,17.0,11.0
3.045616626739502,14.0,18.0,5.0,15.0,10.0,1616.0,12.0
3.047133445739746,15.0,12.0,0.0,24.0,26.0,2298.0,414.0
3.048650026321411,16.0,5.0,12.0,58.0,30.0,828.0,228.0
3.050166606903076,17.0,22.0,0.0,28.0,38.0,286.0,42.0
3.0517332553863525,17.0,16.0,25.0,26.0,32.0,10.0,5.0
3.0532500743865967,5.0,10.0,32.0,10.0,27.0,607.0,336.0
3.0547666549682617,25.0,20.0,14.0,11.0,12.0,21.0,175.0
3.0562832355499268,0.0,31.0,16.0,9.0,24.0,272.0,14.0
3.057800054550171,13.0,35.0,17.0,29.0,19.0,13.0,528.0
3.059316635131836,5.0,20.0,24.0,49.0,14.0,52.0,572.0
3.060833215713501,13.0,5.0,30.0,39.0,21.0,61.0,36.0
3.062350034713745,11.0,8.0,27.0,29.0,20.0,6.0,428.0
3.06386661529541,0.0,11.0,0.0,28.0,19.0,0.0,38.0
3.0653998851776123,0.0,13.0,0.0,26.0,16.0,17.0,383.0
3.0669000148773193,14.0,15.0,34.0,25.0,5.0,0.0,653.0
3.068483352661133,29.0,16.0,14.0,27.0,14.0,5.0,29.0
3.069999933242798,19.0,16.0,28.0,7.0,24.0,18.0,113.0
3.071516752243042,16.0,20.0,15.0,21.0,17.0,570.0,12.0
3.073033332824707,34.0,31.0,39.0,40.0,20.0,304.0,916.0
3.074549913406372,26.0,41.0,41.0,35.0,24.0,38.0,893.0
3.076066732406616,17.0,5.0,44.0,30.0,27.0,31.0,5.0
3.0775833129882812,13.0,20.0,5.0,30.0,30.0,11.0,755.0
3.0790998935699463,9.0,35.0,27.0,20.0,30.0,16.0,17.0
3.0806167125701904,5.0,13.0,20.0,0.0,28.0,21.0,26.0
3.0821332931518555,0.0,33.0,14.0,12.0,38.0,30.0,0.0
3.0836501121520996,12.0,5.0,33.0,24.0,44.0,39.0,26.0
3.085216760635376,10.0,63.0,0.0,25.0,56.0,30.0,33.0
3.086733341217041,5.0,53.0,44.0,27.0,5.0,20.0,41.0
3.088266611099243,24.0,5.0,42.0,18.0,19.0,218.0,15.0
3.08976674079895,17.0,21.0,41.0,38.0,45.0,119.0,7.0
3.0912833213806152,10.0,33.0,28.0,24.0,18.0,20.0,4.0
3.0927999019622803,8.0,16.0,20.0,10.0,17.0,7.0,0.0
3.0943334102630615,5.0,29.0,40.0,48.0,17.0,18.0,31.0
3.0958333015441895,12.0,17.0,10.0,18.0,0.0,601.0,30.0
3.0973498821258545,0.0,16.0,46.0,45.0,18.0,307.0,29.0
3.0988667011260986,12.0,28.0,29.0,48.0,61.0,12.0,751.0
3.1003832817077637,5.0,30.0,11.0,5.0,55.0,15.0,378.0
3.10194993019104,13.0,39.0,5.0,0.0,30.0,13.0,5.0
3.1034834384918213,13.0,28.0,11.0,11.0,39.0,72.0,26.0
3.1050000190734863,16.0,17.0,5.0,6.0,7.0,65.0,22.0
3.1065165996551514,18.0,39.0,14.0,0.0,5.0,56.0,14.0
3.1080334186553955,0.0,24.0,24.0,12.0,6.0,46.0,5.0
3.1095499992370605,33.0,17.0,22.0,6.0,6.0,37.0,317.0
3.1110665798187256,26.0,28.0,20.0,0.0,16.0,33.0,173.0
3.1125833988189697,21.0,27.0,12.0,36.0,12.0,30.0,30.0
3.1140999794006348,36.0,27.0,40.0,29.0,8.0,20.0,33.0
3.1156165599823,41.0,29.0,38.0,12.0,9.0,10.0,30.0
3.117133378982544,24.0,33.0,37.0,24.0,10.0,40.0,29.0
3.118649959564209,6.0,38.0,35.0,25.0,19.0,221.0,28.0
3.1202332973480225,37.0,36.0,37.0,21.0,50.0,660.0,45.0
3.1217501163482666,7.0,21.0,31.0,17.0,54.0,581.0,6.0
3.1232666969299316,25.0,7.0,38.0,5.0,70.0,20.0,37.0
3.1247832775115967,6.0,11.0,18.0,3.0,0.0,634.0,25.0
3.126300096511841,33.0,15.0,10.0,0.0,53.0,59.0,72.0
3.127816677093506,30.0,33.0,32.0,6.0,38.0,47.0,52.0
3.129333257675171,40.0,28.0,29.0,11.0,19.0,26.0,29.0
3.130850076675415,26.0,34.0,27.0,10.0,19.0,5.0,41.0
3.13236665725708,32.0,40.0,21.0,22.0,20.0,34.0,32.0
3.133883237838745,30.0,32.0,15.0,36.0,28.0,31.0,24.0
3.1354000568389893,18.0,25.0,24.0,34.0,21.0,29.0,0.0
3.1369667053222656,38.0,15.0,18.0,10.0,15.0,14.0,38.0
3.1384832859039307,9.0,39.0,369.0,48.0,15.0,0.0,29.0
3.140000104904175,24.0,15.0,371.0,22.0,29.0,24.0,20.0
3.14151668548584,39.0,12.0,36.0,16.0,5.0,47.0,15.0
3.143033266067505,5.0,16.0,47.0,41.0,42.0,31.0,13.0
3.144550085067749,0.0,31.0,18.0,29.0,30.0,15.0,13.0
3.146066665649414,20.0,27.0,1149.0,22.0,35.0,14.0,13.0
3.147583246231079,5.0,11.0,1462.0,26.0,22.0,36.0,20.0
3.1491000652313232,11.0,18.0,51.0,30.0,21.0,5.0,13.0
3.1506166458129883,9.0,25.0,35.0,32.0,20.0,5.0,5.0
3.1521332263946533,11.0,27.0,15.0,17.0,26.0,5.0,6.0
3.153716564178467,18.0,24.0,15.0,15.0,37.0,5.0,7.0
3.155233383178711,35.0,21.0,14.0,6.0,49.0,5.0,12.0
3.156749963760376,30.0,12.0,5.0,12.0,6.0,5.0,17.0
3.15826678276062,31.0,16.0,3.0,18.0,36.0,5.0,32.0
3.159783363342285,0.0,20.0,0.0,33.0,5.0,10.0,46.0
3.16129994392395,41.0,0.0,19.0,17.0,6.0,14.0,36.0
3.1628167629241943,40.0,10.0,24.0,0.0,6.0,24.0,26.0
3.1643333435058594,24.0,12.0,24.0,25.0,33.0,18.0,8.0
3.1658499240875244,28.0,14.0,25.0,18.0,30.0,11.0,24.0
3.1673667430877686,5.0,15.0,18.0,24.0,29.0,47.0,27.0
3.1688833236694336,5.0,19.0,33.0,14.0,10.0,37.0,6.0
3.170466661453247,7.0,40.0,8.0,5.0,29.0,27.0,5.0
3.171983242034912,9.0,39.0,10.0,20.0,15.0,32.0,16.0
3.1735000610351562,11.0,28.0,47.0,5.0,17.0,7.0,6.0
3.1750166416168213,11.0,6.0,53.0,14.0,24.0,13.0,32.0
3.1765332221984863,10.0,33.0,5.0,6.0,23.0,18.0,18.0
3.1780500411987305,15.0,22.0,14.0,6.0,22.0,17.0,5.0
3.1795666217803955,19.0,27.0,18.0,5.0,30.0,22.0,10.0
3.1810834407806396,17.0,24.0,22.0,3.0,0.0,27.0,5.0
3.1826000213623047,15.0,21.0,5.0,0.0,15.0,54.0,0.0
3.1841166019439697,11.0,64.0,33.0,16.0,30.0,48.0,4.0
3.185633420944214,0.0,67.0,25.0,18.0,15.0,5.0,8.0
3.1872000694274902,24.0,43.0,16.0,19.0,0.0,5.0,5.0
3.1887166500091553,11.0,0.0,34.0,14.0,0.0,22.0,3.0
3.1902332305908203,11.0,5.0,41.0,13.0,37.0,12.0,0.0
3.1917500495910645,8.0,25.0,48.0,12.0,24.0,0.0,5.0
3.1932666301727295,5.0,22.0,15.0,25.0,10.0,14.0,6.0
3.1947834491729736,33.0,19.0,27.0,0.0,15.0,18.0,6.0
3.1963000297546387,41.0,24.0,36.0,24.0,16.0,21.0,15.0
3.1978166103363037,30.0,6.0,0.0,5.0,5.0,21.0,16.0
3.199333429336548,17.0,6.0,0.0,11.0,18.0,21.0,17.0
3.200850009918213,25.0,5.0,32.0,21.0,24.0,31.0,15.0
3.202366590499878,29.0,9.0,45.0,21.0,24.0,32.0,12.0
3.2039499282836914,21.0,12.0,65.0,21.0,12.0,34.0,0.0
3.2054667472839355,17.0,17.0,42.0,24.0,12.0,15.0,11.0
3.2069833278656006,21.0,0.0,27.0,26.0,0.0,11.0,15.0
3.2084999084472656,10.0,5.0,34.0,29.0,10.0,14.0,24.0
3.2100167274475098,12.0,12.0,28.0,10.0,19.0,10.0,32.0
3.211533308029175,6.0,6.0,21.0,20.0,34.0,31.0,31.0
3.21304988861084,0.0,32.0,31.0,1109.0,33.0,21.0,16.0
3.214566707611084,3.0,40.0,5.0,954.0,19.0,11.0,16.0
3.216083288192749,6.0,49.0,24.0,30.0,5.0,11.0,5.0
3.217600107192993,9.0,63.0,30.0,34.0,20.0,6.0,11.0
3.219116687774658,7.0,10.0,37.0,32.0,5.0,0.0,0.0
3.2206666469573975,5.0,5.0,37.0,39.0,0.0,6.0,30.0
3.2221999168395996,10.0,15.0,29.0,46.0,24.0,12.0,30.0
3.2237167358398438,27.0,8.0,20.0,0.0,26.0,27.0,30.0
3.225233316421509,22.0,0.0,5.0,36.0,28.0,31.0,26.0
3.226749897003174,17.0,5.0,20.0,33.0,34.0,20.0,21.0
3.228266716003418,26.0,13.0,36.0,54.0,14.0,16.0,28.0
3.229783296585083,18.0,20.0,44.0,27.0,45.0,51.0,27.0
3.231300115585327,11.0,29.0,53.0,6.0,32.0,28.0,27.0
3.232816696166992,28.0,25.0,38.0,6.0,13.0,5.0,18.0
3.2343332767486572,33.0,21.0,27.0,5.0,73.0,19.0,10.0
3.2358500957489014,5.0,13.0,608.0,1341.0,566.0,5.0,0.0
3.2373666763305664,13.0,1264.0,633.0,1480.0,1021.0,24.0,247.0
3.23895001411438,25.0,1071.0,1082.0,1620.0,1475.0,409.0,495.0
3.240466594696045,22.0,3069.0,2978.0,4282.0,2217.0,794.0,272.0
3.241983413696289,17.0,2826.0,2678.0,3578.0,2789.0,1258.0,49.0
3.243499994277954,26.0,7444.0,6311.0,4157.0,4570.0,2245.0,41.0
3.245016574859619,35.0,6524.0,9328.0,8464.0,3888.0,2094.0,941.0
3.2465333938598633,5.0,4709.0,7970.0,14404.0,11908.0,5269.0,2147.0
3.2480499744415283,6.0,8436.0,15264.0,12792.0,15044.0,7330.0,2370.0
3.2495665550231934,27.0,18220.0,25268.0,29132.0,18316.0,8408.0,2223.0
3.2510833740234375,14.0,23452.0,32600.0,37808.0,23404.0,8772.0,5016.0
3.2525999546051025,10.0,21988.0,31560.0,59536.0,26908.0,8272.0,4370.0
3.2541167736053467,5.0,32492.0,54880.0,54480.0,38720.0,15548.0,3585.0
3.255683422088623,29.0,31552.0,70096.0,66256.0,47408.0,17128.0,2925.0
3.257200002670288,25.0,37696.0,90112.0,77136.0,65952.0,23400.0,2820.0
3.258716583251953,20.0,43824.0,108928.0,98800.0,62144.0,32236.0,4757.0
3.2602334022521973,47.0,56048.0,111328.0,117984.0,76720.0,28440.0,5131.0
3.2617499828338623,43.0,66832.0,140800.0,140800.0,80704.0,29212.0,5505.0
3.2632665634155273,17.0,77696.0,137344.0,139456.0,84688.0,29984.0,7336.0
3.2647833824157715,0.0,72192.0,162240.0,155648.0,103456.0,41888.0,13820.0
3.2662999629974365,0.0,112224.0,191104.0,179648.0,125136.0,47392.0,13748.0
3.2678167819976807,30.0,114768.0,176704.0,193664.0,134016.0,55280.0,16060.0
3.269350051879883,22.0,117984.0,207936.0,195520.0,131520.0,44192.0,15044.0
3.2708499431610107,34.0,123248.0,214912.0,242560.0,140736.0,59680.0,14040.0
3.27239990234375,34.0,136704.0,221888.0,241920.0,148160.0,57024.0,15356.0
3.273916721343994,35.0,134336.0,217280.0,264448.0,155520.0,58640.0,16956.0
3.275433301925659,20.0,141760.0,227456.0,269184.0,171328.0,58880.0,16932.0
3.2769665718078613,5.0,130656.0,241088.0,242816.0,181696.0,64544.0,15212.0
3.2784667015075684,9.0,136000.0,270784.0,264576.0,166912.0,65120.0,13492.0
3.2799999713897705,13.0,141376.0,259392.0,278720.0,165376.0,65696.0,11568.0
3.2815165519714355,18.0,155904.0,262144.0,273152.0,167552.0,61728.0,15836.0
3.2830166816711426,24.0,150848.0,276864.0,288000.0,168192.0,60896.0,15608.0
3.2845499515533447,31.0,150528.0,253120.0,258752.0,170816.0,60048.0,10936.0
3.2860500812530518,39.0,159488.0,275264.0,263040.0,173376.0,71344.0,14960.0
3.287566661834717,35.0,140544.0,260224.0,254592.0,151680.0,71664.0,15264.0
3.2891499996185303,37.0,140800.0,231168.0,238336.0,168832.0,57104.0,13584.0
3.2906832695007324,33.0,145984.0,208768.0,250944.0,149120.0,47248.0,10564.0
3.2922000885009766,31.0,132992.0,201024.0,203200.0,149632.0,49216.0,15280.0
3.2936999797821045,34.0,110704.0,199872.0,198208.0,109648.0,38208.0,10216.0
3.2952165603637695,38.0,102672.0,182784.0,167552.0,103408.0,40624.0,9536.0
3.296750068664551,29.0,93280.0,148288.0,159296.0,92240.0,37744.0,9724.0
3.2982499599456787,20.0,74640.0,156032.0,143808.0,89040.0,49056.0,7724.0
3.299783229827881,53.0,67920.0,131392.0,118512.0,59168.0,25464.0,5639.0
3.301283359527588,46.0,57840.0,94912.0,119648.0,65104.0,21672.0,7587.0
3.302799940109253,33.0,52384.0,87392.0,64080.0,46608.0,26844.0,2354.0
3.304316759109497,19.0,46128.0,85120.0,72624.0,59040.0,14364.0,5386.0
3.3059000968933105,26.0,35536.0,67712.0,72528.0,50432.0,18468.0,1580.0
3.3074166774749756,29.0,37376.0,47424.0,47264.0,44288.0,18784.0,3332.0
3.3089332580566406,32.0,37664.0,39760.0,49328.0,22796.0,13252.0,2712.0
3.3104500770568848,10.0,30320.0,37456.0,52848.0,24160.0,11044.0,2312.0
3.31196665763855,38.0,24392.0,30352.0,32204.0,20512.0,4988.0,2730.0
3.313483238220215,31.0,16804.0,27460.0,28756.0,17908.0,4840.0,3147.0
3.315000057220459,40.0,12148.0,21020.0,29076.0,14464.0,7772.0,1031.0
3.316516637802124,39.0,20284.0,19920.0,16200.0,14832.0,6304.0,1434.0
3.318033218383789,39.0,9884.0,19592.0,20964.0,10380.0,2910.0,853.0
3.319550037384033,36.0,10032.0,12024.0,7922.0,13164.0,3966.0,31.0
3.3210666179656982,32.0,6879.0,8010.0,15116.0,6629.0,3218.0,28.0
3.3226499557495117,5.0,8876.0,9952.0,9088.0,9684.0,3231.0,1677.0
3.324166774749756,0.0,4750.0,9336.0,9180.0,5979.0,3846.0,1627.0
3.325683355331421,5.0,7136.0,5989.0,9004.0,6952.0,2475.0,1484.0
3.327199935913086,10.0,7059.0,6862.0,5429.0,5307.0,1743.0,558.0
3.32871675491333,10.0,5083.0,7308.0,7129.0,3797.0,1680.0,684.0
3.330233335494995,10.0,5331.0,7754.0,7243.0,1071.0,1460.0,45.0
3.33174991607666,16.0,5520.0,4343.0,5336.0,3716.0,1240.0,31.0
3.3332667350769043,45.0,4437.0,6300.0,5713.0,3322.0,0.0,71.0
3.3347833156585693,46.0,3092.0,7436.0,4587.0,3739.0,162.0,11.0
3.3362998962402344,22.0,3841.0,3963.0,4827.0,1413.0,1600.0,6.0
3.3378167152404785,15.0,2604.0,1860.0,2193.0,2980.0,424.0,10.0
3.339383363723755,5.0,4703.0,52.0,5639.0,2365.0,807.0,11.0
3.34089994430542,10.0,229.0,5584.0,4085.0,4034.0,988.0,12.0
3.342416763305664,32.0,1064.0,6330.0,2154.0,3482.0,671.0,10.0
3.343933343887329,26.0,2746.0,5116.0,3325.0,2120.0,870.0,0.0
3.345449924468994,19.0,718.0,4312.0,1282.0,2636.0,721.0,13.0
3.3469667434692383,18.0,950.0,2032.0,3937.0,951.0,572.0,27.0
3.3484833240509033,9.0,12.0,1660.0,4999.0,2954.0,458.0,21.0
3.3499999046325684,0.0,816.0,4182.0,2774.0,28.0,238.0,177.0
3.3515167236328125,12.0,1621.0,1134.0,2412.0,1475.0,17.0,113.0
3.3530333042144775,26.0,1159.0,1450.0,1611.0,3617.0,39.0,49.0
3.3545665740966797,28.0,645.0,3960.0,792.0,667.0,24.0,34.0
3.356116771697998,6.0,1008.0,1577.0,2065.0,1201.0,510.0,19.0
3.3576500415802,15.0,962.0,1027.0,900.0,1238.0,481.0,21.0
3.3591666221618652,28.0,917.0,1728.0,2156.0,1243.0,262.0,432.0
3.3606834411621094,22.0,1844.0,1552.0,1757.0,1248.0,42.0,221.0
3.3622000217437744,16.0,1725.0,4488.0,2242.0,24.0,250.0,11.0
3.3637166023254395,0.0,16.0,4216.0,1009.0,2148.0,307.0,5.0
3.3652334213256836,0.0,1007.0,3251.0,901.0,1182.0,278.0,19.0
3.3667500019073486,0.0,1156.0,3596.0,1253.0,2419.0,297.0,25.0
3.3682665824890137,51.0,1563.0,3087.0,647.0,1043.0,26.0,30.0
3.369783401489258,59.0,374.0,2910.0,802.0,573.0,19.0,16.0
3.371299982070923,47.0,11.0,6.0,957.0,1286.0,12.0,11.0
3.372816562652588,34.0,349.0,1613.0,742.0,37.0,9.0,28.0
3.3743999004364014,19.0,15.0,884.0,528.0,693.0,5.0,41.0
3.3759167194366455,9.0,59.0,761.0,514.0,1004.0,28.0,39.0
3.3774333000183105,22.0,24.0,823.0,33.0,719.0,14.0,868.0
3.3789501190185547,25.0,282.0,1413.0,1339.0,433.0,0.0,926.0
3.3804666996002197,32.0,158.0,2131.0,1737.0,39.0,49.0,15.0
3.3819832801818848,15.0,35.0,1684.0,28.0,34.0,616.0,30.0
3.383500099182129,28.0,27.0,683.0,24.0,30.0,327.0,18.0
3.385016679763794,24.0,18.0,2519.0,1043.0,957.0,38.0,15.0
3.386533260345459,37.0,27.0,3283.0,490.0,945.0,12.0,12.0
3.388050079345703,31.0,11.0,795.0,1111.0,655.0,19.0,18.0
3.389566659927368,25.0,18.0,1294.0,873.0,45.0,12.0,24.0
3.3911333084106445,6.0,26.0,879.0,35.0,132.0,18.0,318.0
3.3926498889923096,0.0,29.0,29.0,13.0,25.0,24.0,613.0
3.3941667079925537,60.0,32.0,1580.0,237.0,34.0,7.0,589.0
3.395699977874756,65.0,6.0,0.0,118.0,44.0,517.0,317.0
3.397200107574463,24.0,30.0,640.0,0.0,30.0,261.0,45.0
3.398716688156128,37.0,40.0,1381.0,1017.0,15.0,5.0,539.0
3.400233268737793,10.0,50.0,918.0,1701.0,30.0,38.0,1033.0
3.401750087738037,14.0,59.0,1791.0,2102.0,45.0,32.0,2090.0
3.403266668319702,5.0,51.0,5.0,1037.0,35.0,26.0,1434.0
3.404783248901367,21.0,43.0,1827.0,1631.0,26.0,5.0,778.0
3.4063000679016113,35.0,52.0,845.0,1892.0,50.0,17.0,2378.0
3.407883405685425,40.0,6.0,1845.0,1212.0,494.0,30.0,1535.0
3.40939998626709,0.0,335.0,10.0,695.0,1223.0,34.0,1512.0
3.410916566848755,27.0,184.0,381.0,30.0,921.0,28.0,1262.0
3.412433385848999,33.0,34.0,47.0,10.0,785.0,21.0,522.0
3.413949966430664,32.0,0.0,589.0,5.0,1530.0,19.0,995.0
3.415466785430908,32.0,127.0,662.0,0.0,151.0,20.0,1729.0
3.4169833660125732,32.0,254.0,884.0,15.0,6.0,20.0,1724.0
3.4184999465942383,32.0,236.0,5.0,31.0,0.0,15.0,1436.0
3.4200167655944824,24.0,60.0,688.0,3193.0,65.0,10.0,1460.0
3.4215333461761475,0.0,20.0,724.0,3080.0,17.0,11.0,1724.0
3.4230499267578125,29.0,34.0,1421.0,1649.0,73.0,0.0,1309.0
3.424616575241089,34.0,29.0,1186.0,801.0,36.0,41.0,10.0
3.426133394241333,14.0,24.0,1480.0,536.0,118.0,23.0,947.0
3.427649974822998,40.0,49.0,34.0,921.0,66.0,5.0,159.0
3.429166555404663,51.0,42.0,1664.0,628.0,14.0,33.0,848.0
3.4306833744049072,7.0,35.0,470.0,446.0,15.0,38.0,17.0
3.4321999549865723,34.0,10.0,647.0,818.0,15.0,44.0,791.0
3.4337167739868164,5.0,12.0,12.0,412.0,10.0,31.0,384.0
3.4352333545684814,10.0,0.0,591.0,5.0,5.0,0.0,0.0
3.4367499351501465,33.0,16.0,320.0,0.0,19.0,30.0,887.0
3.4382667541503906,21.0,31.0,49.0,493.0,34.0,25.0,8.0
3.4397833347320557,25.0,26.0,26.0,13.0,687.0,19.0,0.0
3.441366672515869,45.0,13.0,21.0,29.0,640.0,12.0,22.0
3.442883253097534,49.0,0.0,17.0,45.0,16.0,18.0,14.0
3.4444000720977783,22.0,5.0,39.0,39.0,15.0,36.0,5.0
3.4459166526794434,32.0,14.0,60.0,10.0,605.0,38.0,6.0
3.4474332332611084,36.0,22.0,33.0,403.0,1208.0,41.0,466.0
3.4489500522613525,0.0,44.0,5.0,952.0,1129.0,31.0,241.0
3.4504666328430176,24.0,65.0,22.0,701.0,10.0,55.0,16.0
3.4519834518432617,33.0,57.0,31.0,559.0,24.0,33.0,6.0
3.4535000324249268,31.0,61.0,40.0,1247.0,46.0,10.0,7.0
3.455016613006592,10.0,64.0,6.0,30.0,35.0,8.0,10.0
3.456533432006836,5.0,31.0,17.0,175.0,25.0,69.0,12.0
3.4581000804901123,11.0,18.0,9.0,7.0,7.0,48.0,866.0
3.4596166610717773,5.0,10.0,0.0,8.0,15.0,27.0,698.0
3.4611332416534424,12.0,14.0,17.0,17.0,28.0,18.0,715.0
3.4626500606536865,18.0,40.0,35.0,27.0,17.0,10.0,44.0
3.4641666412353516,0.0,35.0,247.0,21.0,29.0,17.0,14.0
3.4656832218170166,15.0,17.0,459.0,19.0,15.0,24.0,14.0
3.4672000408172607,5.0,26.0,229.0,17.0,21.0,30.0,14.0
3.468716621398926,22.0,35.0,0.0,14.0,27.0,30.0,11.0
3.47023344039917,39.0,29.0,19.0,10.0,0.0,35.0,9.0
3.471750020980835,36.0,22.0,38.0,27.0,13.0,40.0,7.0
3.4732666015625,33.0,34.0,10.0,29.0,60.0,24.0,5.0
3.4748332500457764,11.0,12.0,25.0,0.0,36.0,7.0,14.0
3.4763667583465576,41.0,26.0,39.0,3.0,12.0,0.0,16.0
3.4778833389282227,34.0,18.0,22.0,5.0,0.0,8.0,18.0
3.4793999195098877,58.0,10.0,16.0,13.0,16.0,18.0,0.0
3.480916738510132,5.0,11.0,29.0,20.0,5.0,46.0,24.0
3.482433319091797,16.0,11.0,17.0,19.0,14.0,29.0,0.0
3.483949899673462,11.0,5.0,5.0,17.0,24.0,11.0,24.0
3.485466718673706,5.0,24.0,21.0,18.0,30.0,17.0,30.0
3.486983299255371,24.0,42.0,22.0,18.0,27.0,17.0,36.0
3.4885001182556152,17.0,37.0,15.0,6.0,38.0,16.0,27.0
3.4900166988372803,10.0,5.0,20.0,13.0,28.0,0.0,18.0
3.4915332794189453,20.0,21.0,26.0,20.0,18.0,16.0,39.0
3.493116617202759,26.0,0.0,17.0,29.0,5.0,14.0,24.0
3.494633436203003,67.0,24.0,13.0,28.0,5.0,14.0,20.0
3.496150016784668,75.0,41.0,27.0,28.0,5.0,12.0,16.0
3.497666597366333,17.0,51.0,117.0,15.0,11.0,20.0,32.0
3.499183416366577,14.0,28.0,69.0,14.0,17.0,52.0,0.0
3.500699996948242,26.0,27.0,21.0,43.0,17.0,46.0,52.0
3.5022165775299072,6.0,39.0,18.0,49.0,16.0,25.0,82.0
3.5037333965301514,70.0,23.0,21.0,314.0,0.0,26.0,45.0
3.5052499771118164,65.0,19.0,27.0,580.0,5.0,9.0,38.0
3.5067665576934814,61.0,27.0,5.0,299.0,11.0,11.0,14.0
3.5082833766937256,38.0,35.0,30.0,18.0,17.0,13.0,32.0
3.509850025177002,5.0,20.0,28.0,33.0,32.0,20.0,30.0
3.511366605758667,26.0,5.0,17.0,21.0,32.0,0.0,28.0
3.512883424758911,22.0,14.0,36.0,628.0,33.0,11.0,34.0
3.514400005340576,0.0,24.0,26.0,837.0,36.0,5.0,46.0
3.515916585922241,43.0,5.0,15.0,222.0,40.0,32.0,50.0
3.5174334049224854,37.0,16.0,5.0,32.0,10.0,31.0,29.0
3.5189499855041504,38.0,0.0,0.0,24.0,38.0,21.0,29.0
3.5204665660858154,36.0,37.0,8.0,235.0,45.0,20.0,18.0
3.5219833850860596,35.0,37.0,16.0,446.0,49.0,10.0,25.0
3.5234999656677246,14.0,22.0,26.0,732.0,8.0,24.0,10.0
3.5250167846679688,27.0,34.0,16.0,1018.0,12.0,31.0,45.0
3.526599884033203,19.0,33.0,15.0,863.0,16.0,6.0,53.0
3.5281167030334473,16.0,33.0,15.0,810.0,0.0,6.0,20.0
3.5296332836151123,13.0,39.0,15.0,602.0,9.0,5.0,32.0
3.5311501026153564,28.0,21.0,5.0,394.0,18.0,15.0,17.0
3.5326666831970215,29.0,16.0,8.0,1282.0,21.0,18.0,20.0
3.5341832637786865,34.0,9.0,11.0,1142.0,25.0,8.0,10.0
3.5357000827789307,30.0,28.0,30.0,1127.0,35.0,25.0,30.0
3.5372166633605957,35.0,29.0,43.0,502.0,37.0,19.0,38.0
3.5387332439422607,41.0,30.0,34.0,1210.0,18.0,13.0,44.0
3.540250062942505,5.0,32.0,47.0,314.0,33.0,9.0,5.0
3.54176664352417,10.0,17.0,22.0,539.0,32.0,5.0,5.0
3.5433332920074463,15.0,28.0,45.0,764.0,31.0,8.0,28.0
3.5448501110076904,48.0,17.0,18.0,363.0,5.0,10.0,7.0
3.5463666915893555,54.0,17.0,30.0,5.0,5.0,18.0,29.0
3.5478832721710205,11.0,20.0,986.0,534.0,20.0,11.0,19.0
3.5494000911712646,9.0,24.0,1016.0,530.0,36.0,5.0,0.0
3.5509166717529297,31.0,21.0,26.0,527.0,28.0,13.0,19.0
3.5524332523345947,11.0,19.0,1043.0,542.0,24.0,20.0,19.0
3.553950071334839,25.0,8.0,10.0,13.0,35.0,30.0,6.0
3.555466651916504,25.0,44.0,36.0,10.0,21.0,34.0,35.0
3.556983232498169,15.0,51.0,6.0,22.0,7.0,33.0,44.0
3.558500051498413,5.0,573.0,9.0,17.0,9.0,32.0,42.0
3.5600833892822266,67.0,637.0,12.0,11.0,0.0,31.0,31.0
3.5615999698638916,42.0,34.0,9.0,17.0,18.0,10.0,29.0
3.5631165504455566,16.0,35.0,5.0,5.0,18.0,12.0,46.0
3.564633369445801,62.0,46.0,5.0,15.0,5.0,5.0,20.0
3.566149950027466,15.0,15.0,11.0,18.0,0.0,10.0,19.0
3.56766676902771,56.0,24.0,16.0,21.0,0.0,12.0,18.0
3.569183349609375,0.0,22.0,18.0,0.0,0.0,14.0,5.0
3.57069993019104,24.0,29.0,20.0,34.0,12.0,10.0,10.0
3.572216749191284,18.0,14.0,22.0,5.0,25.0,5.0,21.0
3.573733329772949,32.0,21.0,26.0,5.0,20.0,5.0,16.0
3.5752499103546143,5.0,28.0,29.0,5.0,5.0,0.0,10.0
3.5768165588378906,22.0,21.0,9.0,9.0,44.0,10.0,0.0
3.5783333778381348,16.0,15.0,16.0,12.0,31.0,20.0,23.0
3.5798499584198,9.0,5.0,11.0,9.0,15.0,15.0,45.0
3.581366777420044,24.0,33.0,5.0,5.0,0.0,10.0,47.0
3.582883358001709,0.0,31.0,13.0,40.0,10.0,15.0,36.0
3.584399938583374,13.0,42.0,21.0,27.0,20.0,18.0,34.0
3.585916757583618,27.0,18.0,28.0,14.0,30.0,21.0,30.0
3.587433338165283,45.0,22.0,24.0,13.0,25.0,14.0,24.0
3.5889499187469482,33.0,38.0,19.0,11.0,20.0,6.0,29.0
3.5904667377471924,43.0,21.0,28.0,24.0,10.0,5.0,35.0
3.5919833183288574,18.0,5.0,37.0,26.0,27.0,0.0,25.0
3.593549966812134,14.0,10.0,50.0,12.0,5.0,13.0,14.0
3.595083236694336,37.0,5.0,6.0,0.0,15.0,91.0,0.0
3.59660005569458,5.0,0.0,22.0,28.0,26.0,56.0,30.0
3.598116636276245,32.0,5.0,15.0,0.0,0.0,21.0,28.0
