,303.1099853515625,304.1099853515625,305.1099853515625,306.1099853515625,307.1099853515625,308.1099853515625
0.5012999773025513,11.0,24.0,10.0,10.0,47.0,0.0
0.5026000142097473,54.0,13.0,7.0,24.0,63.0,0.0
0.5038999915122986,10.0,0.0,36.0,100.0,917.0,5.0
0.5052000284194946,57.0,40.0,12.0,35.0,0.0,5.0
0.5065000057220459,50.0,40.0,11.0,6.0,12.0,51.0
0.5077999830245972,21.0,16.0,5.0,28.0,13.0,58.0
0.5091000199317932,49.0,15.0,8.0,49.0,32.0,0.0
0.5103999972343445,40.0,35.0,9.0,11.0,26.0,15.0
0.5116999745368958,28.0,7.0,10.0,14.0,17.0,22.0
0.5130000114440918,24.0,31.0,34.0,11.0,22.0,37.0
0.5142999887466431,10.0,23.0,29.0,13.0,27.0,41.0
0.5156000256538391,7.0,22.0,25.0,26.0,15.0,7.0
0.5169000029563904,11.0,13.0,17.0,24.0,0.0,24.0
0.5182666778564453,11.0,5.0,0.0,39.0,6.0,34.0
0.5195666551589966,10.0,15.0,14.0,29.0,6.0,50.0
0.5208666920661926,9.0,17.0,26.0,19.0,8.0,45.0
0.5221666693687439,8.0,19.0,29.0,7.0,10.0,21.0
0.5234666466712952,7.0,34.0,52.0,9.0,14.0,5.0
0.5247666835784912,18.0,34.0,69.0,7.0,18.0,5.0
0.5260666608810425,30.0,5.0,5.0,5.0,0.0,0.0
0.5273666381835938,28.0,8.0,11.0,9.0,3.0,13.0
0.5286666750907898,33.0,18.0,22.0,19.0,5.0,19.0
0.5299666523933411,30.0,55.0,23.0,35.0,10.0,11.0
0.5312666893005371,15.0,56.0,24.0,65.0,18.0,24.0
0.5325666666030884,19.0,0.0,33.0,50.0,26.0,5.0
0.5338666439056396,5.0,16.0,38.0,21.0,28.0,12.0
0.5352333188056946,23.0,23.0,38.0,36.0,30.0,22.0
0.5365333557128906,21.0,25.0,39.0,19.0,0.0,5.0
0.5378333330154419,18.0,31.0,30.0,19.0,16.0,13.0
0.5391333103179932,16.0,40.0,0.0,6.0,25.0,9.0
0.5404333472251892,13.0,10.0,44.0,19.0,12.0,8.0
0.5417333245277405,13.0,21.0,38.0,12.0,0.0,6.0
0.5430333614349365,14.0,31.0,26.0,18.0,14.0,14.0
0.5443333387374878,25.0,31.0,31.0,24.0,0.0,12.0
0.5456333160400391,26.0,31.0,30.0,28.0,21.0,10.0
0.5469333529472351,28.0,31.0,10.0,19.0,19.0,16.0
0.5482333302497864,18.0,29.0,5.0,0.0,17.0,8.0
0.5495333075523376,29.0,28.0,16.0,27.0,22.0,0.0
0.5508333444595337,40.0,14.0,17.0,22.0,6.0,27.0
0.5521833300590515,34.0,0.0,21.0,5.0,13.0,28.0
0.5534999966621399,0.0,12.0,21.0,5.0,19.0,20.0
0.5547833442687988,47.0,0.0,21.0,33.0,16.0,12.0
0.5560833215713501,15.0,27.0,14.0,26.0,13.0,28.0
0.5573833584785461,5.0,20.0,14.0,34.0,14.0,32.0
0.5586833357810974,17.0,13.0,14.0,18.0,15.0,35.0
0.5599833130836487,59.0,12.0,5.0,0.0,22.0,26.0
0.5612833499908447,34.0,10.0,8.0,0.0,22.0,15.0
0.5626000165939331,8.0,21.0,11.0,21.0,17.0,58.0
0.5638833045959473,28.0,22.0,0.0,32.0,18.0,57.0
0.5651833415031433,13.0,24.0,5.0,18.0,18.0,10.0
0.5664833188056946,9.0,34.0,17.0,29.0,18.0,11.0
0.5677833557128906,5.0,36.0,29.0,24.0,22.0,12.0
0.5691499710083008,28.0,5.0,18.0,14.0,37.0,13.0
0.5704500079154968,37.0,6.0,8.0,6.0,42.0,14.0
0.5717499852180481,22.0,15.0,21.0,29.0,29.0,14.0
0.5730500221252441,0.0,29.0,34.0,15.0,21.0,10.0
0.5743499994277954,11.0,33.0,41.0,0.0,12.0,6.0
0.5756499767303467,23.0,23.0,29.0,46.0,22.0,3.0
0.5769500136375427,26.0,21.0,8.0,34.0,49.0,0.0
0.578249990940094,22.0,19.0,15.0,15.0,49.0,13.0
0.57955002784729,31.0,15.0,31.0,30.0,47.0,7.0
0.5808500051498413,5.0,11.0,16.0,0.0,38.0,0.0
0.5821499824523926,41.0,46.0,29.0,10.0,29.0,33.0
0.5834500193595886,10.0,41.0,20.0,38.0,11.0,41.0
0.5847499966621399,10.0,26.0,11.0,29.0,11.0,35.0
0.5861166715621948,15.0,5.0,0.0,23.0,11.0,22.0
0.5874166488647461,16.0,20.0,35.0,39.0,11.0,28.0
0.5887166857719421,30.0,28.0,22.0,0.0,11.0,16.0
0.5900166630744934,26.0,20.0,15.0,33.0,10.0,5.0
0.5913166403770447,22.0,18.0,23.0,10.0,15.0,11.0
0.5926166772842407,0.0,19.0,44.0,14.0,12.0,17.0
0.593916654586792,23.0,0.0,40.0,18.0,9.0,25.0
0.595216691493988,0.0,59.0,29.0,23.0,28.0,27.0
0.5965166687965393,0.0,47.0,57.0,29.0,26.0,13.0
0.5978166460990906,0.0,35.0,5.0,5.0,14.0,0.0
0.5991166830062866,17.0,11.0,24.0,31.0,32.0,14.0
0.6004166603088379,19.0,26.0,12.0,22.0,18.0,17.0
0.6017166376113892,28.0,21.0,14.0,12.0,69.0,19.0
0.6030833125114441,37.0,19.0,15.0,10.0,67.0,13.0
0.6043833494186401,35.0,17.0,24.0,13.0,44.0,9.0
0.6056833267211914,28.0,12.0,33.0,15.0,22.0,5.0
0.6069833040237427,38.0,16.0,39.0,19.0,40.0,17.0
0.6082833409309387,49.0,19.0,33.0,21.0,5.0,16.0
0.60958331823349,59.0,10.0,47.0,23.0,27.0,15.0
0.610883355140686,69.0,0.0,57.0,23.0,8.0,18.0
0.6121833324432373,58.0,25.0,23.0,0.0,29.0,16.0
0.6134833097457886,21.0,17.0,43.0,15.0,17.0,14.0
0.6147833466529846,49.0,9.0,38.0,0.0,5.0,30.0
0.6160833239555359,5.0,21.0,49.0,59.0,54.0,51.0
0.6173833608627319,18.0,24.0,46.0,45.0,38.0,44.0
0.6186833381652832,32.0,27.0,36.0,11.0,22.0,5.0
0.620033323764801,11.0,5.0,35.0,21.0,39.0,18.0
0.6213333606719971,30.0,23.0,40.0,31.0,25.0,0.0
0.6226333379745483,43.0,63.0,45.0,20.0,11.0,13.0
0.6239333152770996,29.0,51.0,13.0,27.0,19.0,16.0
0.6252333521842957,15.0,42.0,22.0,24.0,28.0,18.0
0.6265333294868469,18.0,15.0,0.0,22.0,33.0,43.0
0.6278333067893982,21.0,25.0,7.0,19.0,39.0,41.0
0.6291333436965942,17.0,17.0,11.0,21.0,5.0,31.0
0.6304333209991455,21.0,36.0,12.0,18.0,34.0,13.0
0.6317333579063416,26.0,32.0,12.0,16.0,29.0,5.0
0.6330333352088928,24.0,29.0,11.0,5.0,26.0,5.0
0.6343333125114441,22.0,38.0,21.0,5.0,24.0,8.0
0.6356333494186401,26.0,45.0,30.0,5.0,17.0,11.0
0.6370000243186951,31.0,42.0,31.0,11.0,11.0,15.0
0.6383000016212463,5.0,38.0,32.0,41.0,27.0,14.0
0.6395999789237976,32.0,5.0,25.0,48.0,17.0,23.0
0.6409000158309937,5.0,68.0,27.0,42.0,7.0,14.0
0.6421999931335449,15.0,48.0,29.0,50.0,22.0,5.0
0.6434999704360962,17.0,29.0,10.0,58.0,13.0,15.0
0.6448000073432922,45.0,36.0,16.0,15.0,5.0,15.0
0.6460999846458435,33.0,38.0,11.0,5.0,24.0,22.0
0.6474000215530396,22.0,34.0,5.0,35.0,7.0,6.0
0.6486999988555908,22.0,31.0,6.0,5.0,10.0,5.0
0.6499999761581421,0.0,10.0,0.0,37.0,14.0,13.0
0.6513000130653381,10.0,29.0,0.0,30.0,10.0,21.0
0.6525999903678894,13.0,30.0,11.0,0.0,5.0,22.0
0.6539666652679443,16.0,33.0,23.0,22.0,18.0,24.0
0.6552666425704956,18.0,36.0,17.0,0.0,16.0,49.0
0.6565666794776917,21.0,15.0,11.0,12.0,18.0,62.0
0.6578666567802429,13.0,5.0,5.0,0.0,13.0,0.0
0.659166693687439,14.0,22.0,24.0,16.0,13.0,21.0
0.6604666709899902,15.0,26.0,38.0,5.0,12.0,23.0
0.6617666482925415,23.0,26.0,55.0,9.0,20.0,26.0
0.6630666851997375,29.0,5.0,51.0,12.0,28.0,29.0
0.6643666625022888,35.0,10.0,34.0,6.0,24.0,33.0
0.6656666398048401,37.0,26.0,17.0,0.0,28.0,38.0
0.6669666767120361,6.0,16.0,17.0,10.0,26.0,36.0
0.6682666540145874,17.0,5.0,28.0,19.0,24.0,5.0
0.6695666909217834,24.0,0.0,23.0,25.0,0.0,32.0
0.6709166765213013,31.0,7.0,17.0,38.0,19.0,16.0
0.6722166538238525,32.0,3.0,26.0,24.0,21.0,0.0
0.6735166907310486,34.0,0.0,19.0,10.0,10.0,10.0
0.6748166680335999,5.0,18.0,15.0,45.0,12.0,31.0
0.6761166453361511,52.0,41.0,5.0,11.0,13.0,32.0
0.6774166822433472,10.0,33.0,37.0,10.0,13.0,25.0
0.6787166595458984,13.0,43.0,37.0,44.0,10.0,17.0
0.6800166964530945,16.0,37.0,12.0,16.0,7.0,11.0
0.6813166737556458,13.0,32.0,15.0,5.0,28.0,5.0
0.682616651058197,10.0,11.0,17.0,22.0,26.0,26.0
0.6839166879653931,18.0,11.0,14.0,28.0,25.0,29.0
0.6852166652679443,26.0,39.0,11.0,41.0,5.0,36.0
0.6865166425704956,22.0,30.0,39.0,23.0,18.0,21.0
0.6878833174705505,30.0,33.0,24.0,5.0,39.0,9.0
0.6891833543777466,28.0,37.0,8.0,23.0,30.0,0.0
0.6904833316802979,16.0,35.0,42.0,10.0,36.0,17.0
0.6917833089828491,0.0,34.0,16.0,100.0,5.0,35.0
0.6930833458900452,43.0,39.0,25.0,77.0,12.0,36.0
0.6943833231925964,37.0,44.0,35.0,53.0,19.0,26.0
0.6956833600997925,0.0,26.0,10.0,6.0,5.0,28.0
0.6969833374023438,5.0,26.0,22.0,29.0,10.0,0.0
0.698283314704895,14.0,19.0,26.0,33.0,15.0,5.0
0.6995833516120911,10.0,5.0,29.0,12.0,36.0,6.0
0.7008833289146423,36.0,28.0,28.0,11.0,31.0,32.0
0.7021833062171936,26.0,19.0,7.0,5.0,5.0,22.0
0.7034833431243896,15.0,5.0,0.0,25.0,16.0,12.0
0.7048500180244446,21.0,8.0,5.0,25.0,13.0,35.0
0.7061499953269958,5.0,10.0,10.0,17.0,5.0,46.0
0.7074499726295471,5.0,43.0,14.0,0.0,8.0,40.0
0.7087500095367432,16.0,38.0,7.0,13.0,10.0,44.0
0.7100499868392944,11.0,11.0,0.0,27.0,11.0,47.0
0.7113500237464905,5.0,14.0,19.0,16.0,11.0,37.0
0.7126500010490417,36.0,21.0,37.0,5.0,17.0,12.0
0.713949978351593,36.0,5.0,29.0,0.0,15.0,26.0
0.7152500152587891,7.0,17.0,21.0,0.0,13.0,26.0
0.7165499925613403,36.0,21.0,21.0,15.0,8.0,37.0
0.7178500294685364,36.0,24.0,5.0,16.0,10.0,35.0
0.7191500067710876,0.0,28.0,12.0,17.0,18.0,46.0
0.7204499840736389,30.0,26.0,32.0,0.0,15.0,51.0
0.7218000292778015,0.0,21.0,16.0,6.0,12.0,0.0
0.7231000065803528,0.0,15.0,0.0,11.0,9.0,44.0
0.724399983882904,0.0,22.0,13.0,16.0,5.0,5.0
0.7257000207901001,22.0,20.0,39.0,14.0,0.0,33.0
0.7269999980926514,19.0,18.0,40.0,39.0,18.0,50.0
0.7282999753952026,16.0,22.0,50.0,43.0,19.0,31.0
0.729616641998291,40.0,26.0,17.0,28.0,21.0,21.0
0.73089998960495,43.0,0.0,30.0,55.0,19.0,29.0
0.732200026512146,28.0,14.0,51.0,0.0,17.0,30.0
0.7335000038146973,12.0,5.0,26.0,26.0,5.0,26.0
0.7347999811172485,23.0,22.0,0.0,14.0,22.0,23.0
0.7361000180244446,5.0,29.0,5.0,22.0,17.0,16.0
0.7373999953269958,33.0,41.0,25.0,25.0,25.0,12.0
0.7387666702270508,26.0,21.0,31.0,29.0,9.0,12.0
0.740066647529602,6.0,0.0,24.0,17.0,18.0,17.0
0.7413666844367981,12.0,5.0,16.0,6.0,6.0,22.0
0.7426666617393494,18.0,17.0,10.0,25.0,19.0,11.0
0.7439666390419006,22.0,33.0,33.0,16.0,30.0,0.0
0.7452666759490967,25.0,23.0,33.0,39.0,28.0,5.0
0.746566653251648,12.0,13.0,13.0,25.0,40.0,10.0
0.747866690158844,60.0,28.0,17.0,11.0,52.0,33.0
0.7491666674613953,80.0,14.0,23.0,18.0,0.0,30.0
0.7504666447639465,58.0,18.0,22.0,18.0,16.0,29.0
0.7517666816711426,11.0,8.0,22.0,12.0,33.0,12.0
0.7530666589736938,46.0,6.0,10.0,5.0,11.0,15.0
0.7543666958808899,37.0,36.0,35.0,5.0,25.0,11.0
0.7557333111763,18.0,36.0,32.0,8.0,11.0,6.0
0.7570333480834961,0.0,19.0,18.0,11.0,5.0,14.0
0.7583333253860474,18.0,23.0,12.0,9.0,13.0,15.0
0.7596333622932434,18.0,25.0,11.0,7.0,9.0,16.0
0.7609333395957947,18.0,28.0,11.0,8.0,5.0,16.0
0.762233316898346,28.0,35.0,23.0,6.0,24.0,9.0
0.763533353805542,25.0,30.0,26.0,6.0,25.0,7.0
0.7648333311080933,23.0,26.0,6.0,5.0,19.0,5.0
0.7661333084106445,28.0,7.0,16.0,0.0,13.0,26.0
0.7674333453178406,39.0,29.0,25.0,31.0,18.0,25.0
0.7687333226203918,35.0,17.0,34.0,38.0,0.0,25.0
0.7700333595275879,31.0,5.0,45.0,34.0,27.0,17.0
0.7713333368301392,13.0,17.0,35.0,37.0,0.0,34.0
0.772683322429657,22.0,12.0,5.0,40.0,18.0,5.0
0.773983359336853,8.0,6.0,40.0,37.0,32.0,7.0
0.7752833366394043,7.0,0.0,10.0,38.0,43.0,17.0
0.7765833139419556,6.0,5.0,5.0,34.0,15.0,14.0
0.7778833508491516,18.0,0.0,8.0,16.0,12.0,22.0
0.7791833281517029,15.0,8.0,11.0,18.0,82.0,13.0
0.7804999947547913,12.0,7.0,14.0,9.0,66.0,5.0
0.7817833423614502,17.0,5.0,16.0,0.0,16.0,12.0
0.7830833196640015,23.0,0.0,6.0,29.0,14.0,9.0
0.7843833565711975,21.0,27.0,14.0,31.0,33.0,5.0
0.7856833338737488,18.0,21.0,22.0,33.0,44.0,17.0
0.7869833111763,35.0,15.0,33.0,25.0,0.0,30.0
0.7882833480834961,35.0,1137.0,58.0,30.0,8.0,27.0
0.789650022983551,10.0,1042.0,83.0,446.0,15.0,25.0
0.7909500002861023,24.0,1802.0,2510.0,2837.0,2826.0,2435.0
0.7922499775886536,32.0,11740.0,14200.0,10044.0,4021.0,2901.0
0.7935500144958496,5.0,29872.0,36352.0,19332.0,14812.0,5509.0
0.7948499917984009,22.0,78224.0,60736.0,40912.0,25484.0,4902.0
0.7961500287055969,37.0,124000.0,116176.0,60512.0,49536.0,4296.0
0.7974500060081482,35.0,167616.0,205632.0,110592.0,70704.0,13980.0
0.7987499833106995,37.0,242752.0,237696.0,138240.0,92864.0,23664.0
0.8000500202178955,37.0,310976.0,307648.0,153664.0,135296.0,44784.0
0.8013499975204468,37.0,306432.0,327552.0,188928.0,130656.0,40656.0
0.802649974822998,33.0,392704.0,339264.0,221376.0,158848.0,49968.0
0.8039500117301941,33.0,447296.0,496640.0,242432.0,188416.0,51616.0
0.8052499890327454,33.0,401792.0,456320.0,242560.0,176320.0,51808.0
0.8066166639328003,30.0,418240.0,483840.0,237888.0,176832.0,57920.0
0.8079166412353516,48.0,434752.0,474496.0,259200.0,178304.0,54080.0
0.8092166781425476,47.0,444416.0,470528.0,256832.0,187456.0,50224.0
0.8105166554450989,45.0,404544.0,457088.0,254528.0,192640.0,53552.0
0.8118166923522949,48.0,426880.0,464320.0,254080.0,186944.0,56752.0
0.8131166696548462,51.0,421696.0,477568.0,246656.0,174400.0,60912.0
0.8144166469573975,70.0,414976.0,484608.0,241216.0,192640.0,59936.0
0.8157166838645935,52.0,425664.0,469760.0,235776.0,188672.0,61744.0
0.8170166611671448,35.0,409280.0,473152.0,233792.0,176448.0,46320.0
0.818316638469696,84.0,419328.0,477376.0,231808.0,179904.0,65120.0
0.8196166753768921,6.0,388608.0,466752.0,241792.0,178240.0,41472.0
0.8209166526794434,52.0,388864.0,444096.0,242496.0,175488.0,56832.0
0.8222166895866394,66.0,321408.0,400000.0,231296.0,145856.0,48304.0
0.8235833048820496,47.0,350528.0,369920.0,204672.0,172672.0,36304.0
0.8248833417892456,44.0,331904.0,406976.0,190720.0,130032.0,44416.0
0.8261833190917969,40.0,274240.0,310784.0,179904.0,125216.0,35376.0
0.8274833559989929,57.0,221248.0,265344.0,139776.0,110256.0,33104.0
0.8287833333015442,36.0,221952.0,257984.0,123232.0,96512.0,31004.0
0.8300833106040955,15.0,219968.0,230080.0,109696.0,86080.0,21192.0
0.8313833475112915,53.0,156288.0,174720.0,91088.0,55472.0,8800.0
0.8326833248138428,58.0,131584.0,180480.0,93776.0,48368.0,24004.0
0.8339833617210388,64.0,130896.0,126560.0,80480.0,59520.0,16788.0
0.8352833390235901,11.0,118320.0,103248.0,70272.0,47152.0,11268.0
0.8365833163261414,35.0,68320.0,98160.0,50768.0,47088.0,11308.0
0.8378833532333374,48.0,74384.0,77424.0,25304.0,22720.0,12144.0
0.8391833305358887,49.0,64512.0,66048.0,44192.0,16380.0,6992.0
0.8405333161354065,49.0,48576.0,45104.0,19084.0,20980.0,4608.0
0.8418333530426025,22.0,36848.0,41904.0,24640.0,18732.0,5380.0
0.8431333303451538,60.0,36672.0,31400.0,21816.0,11828.0,4261.0
0.8444333076477051,30.0,24572.0,30984.0,21280.0,14596.0,5015.0
0.8457333445549011,12.0,25676.0,21440.0,14024.0,9436.0,2388.0
0.8470333218574524,71.0,19064.0,23272.0,7894.0,6878.0,1193.0
0.8483333587646484,51.0,18300.0,10496.0,7270.0,6636.0,2019.0
0.8496333360671997,32.0,8640.0,7966.0,10180.0,8760.0,1008.0
0.850933313369751,33.0,13536.0,18872.0,9580.0,4959.0,49.0
0.852233350276947,37.0,13928.0,19396.0,9992.0,5040.0,2047.0
0.8535333275794983,11.0,13068.0,10588.0,10532.0,3438.0,1635.0
0.8548333048820496,41.0,10724.0,8264.0,6305.0,2750.0,1222.0
0.8561333417892456,27.0,8380.0,14388.0,5312.0,4878.0,1630.0
0.8575000166893005,12.0,11624.0,13288.0,5715.0,2897.0,1562.0
0.8587999939918518,28.0,12072.0,6945.0,4229.0,2736.0,1446.0
0.8600999712944031,24.0,8380.0,4768.0,3792.0,1360.0,1330.0
0.8614000082015991,27.0,6027.0,9528.0,4350.0,3569.0,242.0
0.8626999855041504,30.0,8192.0,9404.0,4908.0,4937.0,24.0
0.8640000224113464,32.0,8656.0,11356.0,6999.0,4718.0,658.0
0.8652999997138977,39.0,6117.0,7245.0,1062.0,2596.0,544.0
0.866599977016449,46.0,8456.0,5864.0,6446.0,1644.0,429.0
0.867900013923645,0.0,6049.0,6914.0,7151.0,2248.0,110.0
0.8691999912261963,26.0,7271.0,4897.0,3549.0,3479.0,259.0
0.8705000281333923,54.0,8492.0,4100.0,3308.0,2542.0,245.0
0.8718000054359436,70.0,7934.0,4952.0,3311.0,1604.0,232.0
0.8730999827384949,82.0,6699.0,6409.0,3385.0,3838.0,104.0
0.8744666576385498,38.0,6868.0,6953.0,3458.0,1926.0,369.0
0.8757666945457458,52.0,5026.0,7724.0,423.0,2226.0,31.0
0.8770666718482971,24.0,5319.0,8179.0,3302.0,3184.0,1332.0
0.8783666491508484,21.0,8452.0,3043.0,3732.0,1685.0,1303.0
0.8796666860580444,52.0,7124.0,3360.0,3963.0,1359.0,100.0
0.8809666633605957,27.0,5798.0,5881.0,1620.0,2023.0,55.0
0.882266640663147,16.0,1916.0,5703.0,3902.0,1737.0,11.0
0.883566677570343,5.0,7976.0,3616.0,2868.0,1451.0,13.0
0.8848666548728943,26.0,7926.0,5182.0,2931.0,1960.0,14.0
0.8861666917800903,46.0,10196.0,3165.0,2578.0,1208.0,27.0
0.8874666690826416,59.0,6808.0,3385.0,3570.0,1143.0,28.0
0.8887666463851929,5.0,7386.0,3858.0,3736.0,1184.0,46.0
0.8900666832923889,80.0,5742.0,3064.0,2743.0,1224.0,48.0
0.8914166688919067,0.0,3348.0,2270.0,256.0,1573.0,29.0
0.892716646194458,15.0,7313.0,4738.0,3053.0,1295.0,10.0
0.894016683101654,12.0,3287.0,1568.0,4700.0,1017.0,10.0
0.8953166604042053,19.0,5233.0,4363.0,2989.0,244.0,36.0
0.8966166377067566,29.0,5020.0,5576.0,1331.0,1194.0,33.0
0.8979166746139526,38.0,6007.0,930.0,1912.0,1151.0,30.0
0.8992166519165039,6.0,5999.0,4011.0,2224.0,1000.0,57.0
0.9005166888237,12.0,5992.0,3866.0,291.0,751.0,34.0
0.9018166661262512,18.0,6325.0,2584.0,1487.0,1376.0,11.0
0.9031333327293396,14.0,6659.0,1406.0,2683.0,303.0,26.0
0.9044166803359985,21.0,7029.0,1393.0,673.0,470.0,41.0
0.9057166576385498,13.0,7142.0,1380.0,1398.0,1041.0,22.0
0.9070166945457458,5.0,5482.0,2157.0,2413.0,822.0,22.0
0.908383309841156,34.0,3822.0,2934.0,2430.0,1646.0,23.0
0.909683346748352,49.0,5473.0,3721.0,2540.0,1504.0,11.0
0.9109833240509033,40.0,7124.0,2582.0,1002.0,395.0,0.0
0.9122833609580994,18.0,10412.0,2635.0,1172.0,1467.0,529.0
0.9135833382606506,17.0,9868.0,641.0,2414.0,1539.0,269.0
0.9148833155632019,21.0,9680.0,3263.0,1689.0,784.0,9.0
0.916183352470398,47.0,11712.0,3773.0,2485.0,30.0,25.0
0.9174833297729492,64.0,7410.0,1853.0,689.0,641.0,40.0
0.9187833070755005,43.0,4796.0,1662.0,279.0,910.0,19.0
0.9200833439826965,10.0,4730.0,1685.0,1703.0,1659.0,19.0
0.9213833212852478,10.0,10180.0,2544.0,4478.0,1137.0,19.0
0.9226833581924438,10.0,8240.0,5899.0,3422.0,811.0,57.0
0.9239833354949951,5.0,11296.0,6786.0,1751.0,486.0,46.0
0.92535001039505,0.0,9820.0,1035.0,1319.0,1101.0,35.0
0.9266499876976013,17.0,10260.0,4387.0,1494.0,1060.0,289.0
0.9279500246047974,17.0,7601.0,4538.0,1294.0,1019.0,544.0
0.9292500019073486,15.0,11240.0,1921.0,266.0,38.0,390.0
0.9305499792098999,12.0,9324.0,3081.0,916.0,0.0,29.0
0.931850016117096,34.0,7407.0,4325.0,464.0,1396.0,36.0
0.9331499934196472,41.0,4550.0,3081.0,11.0,1470.0,274.0
0.9344499707221985,21.0,15108.0,3623.0,2579.0,1159.0,5.0
0.9357500076293945,32.0,15900.0,4165.0,2240.0,38.0,46.0
0.9370499849319458,26.0,10364.0,3027.0,4083.0,652.0,34.0
0.9383500218391418,47.0,12972.0,1974.0,1912.0,803.0,24.0
0.9396499991416931,50.0,11152.0,1890.0,1395.0,955.0,13.0
0.9409499764442444,6.0,12220.0,1805.0,21.0,702.0,49.0
0.9423166513442993,29.0,7254.0,2545.0,1323.0,1068.0,44.0
0.9436166882514954,51.0,14748.0,1773.0,569.0,13.0,38.0
0.9449166655540466,11.0,8192.0,1001.0,1346.0,1356.0,296.0
0.9462166428565979,18.0,13292.0,1521.0,2123.0,315.0,154.0
0.947516679763794,0.0,5153.0,1305.0,2031.0,364.0,12.0
0.9488166570663452,35.0,12432.0,4341.0,2384.0,2062.0,80.0
0.9501166939735413,21.0,10848.0,3814.0,2607.0,1459.0,40.0
0.9514166712760925,7.0,9548.0,1592.0,815.0,3054.0,0.0
0.9527166485786438,40.0,8059.0,1082.0,1121.0,1913.0,66.0
0.9540166854858398,0.0,8908.0,1520.0,3127.0,3245.0,15.0
0.9553166627883911,13.0,9760.0,2590.0,1455.0,1520.0,46.0
0.9566166400909424,12.0,8932.0,3660.0,2577.0,2162.0,51.0
0.9579166769981384,11.0,9208.0,5242.0,633.0,2586.0,55.0
0.9592666625976562,30.0,6457.0,6435.0,509.0,979.0,24.0
0.9605666399002075,15.0,9712.0,2137.0,1058.0,2668.0,17.0
0.9618666768074036,0.0,9432.0,609.0,768.0,2292.0,54.0
0.9631666541099548,32.0,9156.0,4783.0,1995.0,251.0,396.0
0.9644666910171509,27.0,6811.0,1081.0,2610.0,3314.0,552.0
0.9657666683197021,22.0,6404.0,2944.0,1925.0,1379.0,570.0
0.9670666456222534,12.0,6592.0,4481.0,793.0,677.0,588.0
0.9683666825294495,30.0,7698.0,1938.0,1297.0,3352.0,652.0
0.9696666598320007,14.0,9948.0,2200.0,1748.0,1485.0,69.0
0.970966637134552,13.0,10368.0,2462.0,2319.0,788.0,26.0
0.972266674041748,5.0,9804.0,4015.0,1661.0,2771.0,357.0
0.9735666513442993,6.0,6362.0,3800.0,1004.0,1926.0,579.0
0.9748666882514954,6.0,12232.0,2614.0,1613.0,925.0,936.0
0.9762333035469055,3.0,6061.0,3346.0,1614.0,742.0,486.0
0.9775333404541016,0.0,4296.0,4386.0,1839.0,610.0,35.0
0.9788333177566528,5.0,7823.0,5425.0,1907.0,217.0,29.0
0.9801333546638489,10.0,5368.0,1290.0,1837.0,72.0,367.0
0.9814333319664001,28.0,5898.0,4575.0,1097.0,818.0,213.0
0.9827333092689514,28.0,4175.0,807.0,961.0,1565.0,59.0
0.9840333461761475,28.0,3408.0,2906.0,1391.0,1879.0,22.0
0.9853333234786987,33.0,6625.0,4893.0,848.0,24.0,10.0
0.9866333603858948,29.0,4324.0,4663.0,305.0,12.0,9.0
0.987933337688446,25.0,5296.0,3381.0,158.0,0.0,7.0
0.9892333149909973,7.0,8002.0,3067.0,11.0,322.0,12.0
0.9905333518981934,22.0,3247.0,1721.0,614.0,644.0,16.0
0.9918333292007446,15.0,5651.0,3285.0,2815.0,1061.0,22.0
0.9932000041007996,9.0,7889.0,4837.0,1416.0,930.0,41.0
0.9944999814033508,5.0,2789.0,4615.0,16.0,798.0,60.0
0.9958000183105469,19.0,4811.0,2886.0,1165.0,1298.0,50.0
0.9970999956130981,71.0,1206.0,4303.0,1484.0,2207.0,31.0
0.9983999729156494,65.0,4024.0,2917.0,1973.0,3117.0,11.0
0.9997000098228455,39.0,2284.0,1531.0,1034.0,2202.0,988.0
1.0010000467300415,14.0,3738.0,6466.0,3295.0,464.0,780.0
1.0023000240325928,53.0,1525.0,5745.0,1901.0,21.0,1173.0
1.003600001335144,9.0,2032.0,4169.0,506.0,1819.0,755.0
1.0048999786376953,46.0,2540.0,3591.0,1842.0,33.0,34.0
1.0061999559402466,10.0,4385.0,4991.0,1844.0,1127.0,0.0
1.0075000524520874,14.0,4454.0,730.0,1845.0,1617.0,50.0
1.0088000297546387,28.0,5456.0,5784.0,1675.0,2108.0,277.0
1.0101499557495117,13.0,4636.0,1224.0,2563.0,1870.0,503.0
1.0114500522613525,15.0,3388.0,6723.0,2617.0,581.0,1079.0
1.0127500295639038,8.0,3417.0,4180.0,2557.0,2374.0,826.0
1.014050006866455,17.0,5628.0,4849.0,1182.0,307.0,5.0
1.0153499841690063,19.0,5936.0,3059.0,2219.0,1830.0,385.0
1.0166499614715576,22.0,2613.0,3039.0,668.0,1795.0,765.0
1.0179500579833984,19.0,6370.0,5084.0,2326.0,2505.0,95.0
1.0192500352859497,34.0,3029.0,4374.0,3334.0,3626.0,960.0
1.020566701889038,28.0,2702.0,3665.0,3626.0,199.0,28.0
1.0218499898910522,23.0,942.0,1269.0,1294.0,2499.0,26.0
1.0231666564941406,30.0,4916.0,3265.0,2205.0,866.0,797.0
1.0244499444961548,37.0,5135.0,5260.0,3764.0,108.0,39.0
1.0257666110992432,15.0,4691.0,495.0,965.0,2809.0,24.0
1.0270832777023315,5.0,1433.0,7127.0,2590.0,429.0,10.0
1.0283833742141724,18.0,4497.0,5365.0,4265.0,962.0,7.0
1.0296833515167236,24.0,4232.0,6826.0,320.0,2598.0,17.0
1.030983328819275,29.0,4706.0,7629.0,36.0,2479.0,8.0
1.0322833061218262,27.0,2038.0,6158.0,1396.0,468.0,0.0
1.0335832834243774,33.0,2864.0,5773.0,1921.0,2431.0,16.0
1.0348833799362183,23.0,3690.0,4183.0,2446.0,3107.0,1007.0
1.0361833572387695,12.0,2775.0,3956.0,4751.0,2067.0,908.0
1.0374833345413208,19.0,3470.0,3926.0,4204.0,2490.0,478.0
1.038783311843872,27.0,2982.0,3896.0,925.0,3048.0,49.0
1.0400832891464233,11.0,820.0,4349.0,1273.0,1936.0,249.0
1.0413833856582642,21.0,2790.0,4802.0,1709.0,1481.0,450.0
1.0427333116531372,38.0,372.0,6043.0,2097.0,2405.0,320.0
1.0440499782562256,31.0,2547.0,5511.0,2485.0,2401.0,5.0
1.0453499555587769,18.0,3119.0,5094.0,2209.0,2108.0,21.0
1.0466500520706177,5.0,2002.0,3437.0,2102.0,1872.0,621.0
1.047950029373169,10.0,3198.0,8948.0,1995.0,1637.0,863.0
1.0492500066757202,11.0,5290.0,8512.0,1384.0,465.0,1106.0
1.0505499839782715,10.0,5755.0,7914.0,774.0,2633.0,622.0
1.0518499612808228,10.0,2265.0,4001.0,2880.0,690.0,1508.0
1.0531500577926636,10.0,3441.0,7826.0,1924.0,1228.0,1062.0
1.0544500350952148,0.0,2713.0,5358.0,968.0,1590.0,616.0
1.0557500123977661,14.0,1902.0,5198.0,1223.0,1951.0,742.0
1.0570499897003174,16.0,4410.0,5360.0,1477.0,2493.0,1523.0
1.0583499670028687,18.0,2685.0,5889.0,2194.0,2352.0,1452.0
1.0597000122070312,22.0,960.0,6781.0,2612.0,1705.0,1381.0
1.0610166788101196,26.0,7670.0,4959.0,3031.0,3782.0,2159.0
1.062316656112671,10.0,5719.0,3137.0,2700.0,3636.0,600.0
1.0636166334152222,15.0,8018.0,7001.0,2370.0,3162.0,8.0
1.0649166107177734,65.0,4793.0,6102.0,1798.0,2285.0,799.0
1.0662167072296143,56.0,3303.0,5203.0,2667.0,2107.0,38.0
1.0675166845321655,14.0,8752.0,6587.0,2268.0,2765.0,929.0
1.0688166618347168,13.0,4071.0,6637.0,1869.0,2872.0,0.0
1.070116639137268,10.0,8720.0,7571.0,346.0,3016.0,3339.0
1.0714166164398193,45.0,6699.0,5287.0,4441.0,3219.0,3374.0
1.0727167129516602,31.0,4997.0,7894.0,4991.0,1703.0,408.0
1.0740166902542114,17.0,5915.0,6701.0,7084.0,1484.0,656.0
1.0753166675567627,60.0,4181.0,9624.0,6268.0,3538.0,789.0
1.0766500234603882,43.0,6087.0,9860.0,3090.0,2886.0,1085.0
1.0779666900634766,27.0,6170.0,7267.0,2571.0,2234.0,863.0
1.0792666673660278,11.0,5058.0,7341.0,5823.0,4998.0,640.0
1.080566644668579,0.0,7324.0,6611.0,5592.0,5218.0,0.0
1.0818666219711304,17.0,11084.0,5881.0,5360.0,4600.0,1235.0
1.0831667184829712,17.0,10468.0,10948.0,5733.0,3123.0,405.0
1.0844666957855225,16.0,12644.0,9964.0,6106.0,3830.0,30.0
1.0857666730880737,13.0,7275.0,4088.0,7424.0,2501.0,22.0
1.087066650390625,10.0,6872.0,8296.0,2736.0,4044.0,439.0
1.0883666276931763,39.0,9352.0,12504.0,6241.0,3277.0,855.0
1.089666724205017,50.0,10984.0,8756.0,5144.0,2510.0,448.0
1.0909667015075684,33.0,11988.0,6712.0,5055.0,2342.0,40.0
1.0922666788101196,35.0,12728.0,7897.0,3659.0,2730.0,8.0
1.0936167240142822,16.0,12620.0,9084.0,4516.0,3119.0,630.0
1.0949333906173706,36.0,5044.0,8472.0,5374.0,7276.0,498.0
1.0962333679199219,29.0,9480.0,12200.0,5630.0,7465.0,367.0
1.0975333452224731,5.0,7203.0,9944.0,3684.0,3017.0,290.0
1.0988333225250244,37.0,7449.0,7690.0,7713.0,5764.0,1665.0
1.1001332998275757,28.0,11568.0,6860.0,7103.0,8308.0,3041.0
1.101433277130127,21.0,13748.0,14864.0,7031.0,5181.0,2135.0
1.1027333736419678,16.0,14484.0,14984.0,7499.0,6020.0,6.0
1.104033350944519,13.0,16560.0,14116.0,7967.0,6858.0,831.0
1.1053333282470703,10.0,5085.0,7725.0,5185.0,4729.0,2448.0
1.1066333055496216,27.0,8860.0,14544.0,4381.0,5705.0,2036.0
1.1079332828521729,43.0,14532.0,14180.0,7532.0,6273.0,763.0
1.1092333793640137,59.0,11536.0,13816.0,4413.0,5295.0,1325.0
1.1105833053588867,37.0,14628.0,11140.0,8696.0,7242.0,864.0
1.111899971961975,27.0,8732.0,17132.0,9948.0,4212.0,404.0
1.1131999492645264,47.0,11716.0,17384.0,8436.0,4831.0,919.0
1.1145000457763672,23.0,15076.0,16736.0,5158.0,6695.0,1109.0
1.1158000230789185,5.0,13108.0,13580.0,10084.0,5265.0,1299.0
1.1171000003814697,42.0,14204.0,17036.0,8001.0,5409.0,1512.0
1.118399977684021,8.0,15304.0,11540.0,9248.0,5553.0,0.0
1.1196999549865723,34.0,14828.0,15276.0,12024.0,7512.0,1655.0
1.121000051498413,46.0,15384.0,16756.0,11760.0,5407.0,1457.0
1.1223000288009644,5.0,11996.0,18700.0,11496.0,3302.0,1658.0
1.1236000061035156,34.0,14752.0,13884.0,12060.0,3478.0,1062.0
1.124899983406067,21.0,17512.0,14168.0,4388.0,4626.0,466.0
1.1261999607086182,15.0,15228.0,16096.0,13200.0,5774.0,634.0
1.1275333166122437,5.0,14204.0,22440.0,9116.0,6399.0,2196.0
1.128849983215332,26.0,16732.0,22780.0,11048.0,7023.0,3725.0
1.1301499605178833,10.0,13888.0,14776.0,10268.0,5351.0,2899.0
1.1314500570297241,5.0,11000.0,15488.0,10740.0,6067.0,3439.0
1.1327500343322754,60.0,15612.0,16956.0,6481.0,9112.0,1054.0
1.1340500116348267,46.0,10764.0,16968.0,8840.0,8068.0,1729.0
1.135349988937378,69.0,12668.0,16980.0,11196.0,7172.0,2287.0
1.1366499662399292,23.0,13116.0,18284.0,10916.0,6321.0,1478.0
1.1379499435424805,26.0,14448.0,19588.0,10968.0,8472.0,669.0
1.1392500400543213,15.0,15780.0,21400.0,11208.0,12148.0,872.0
1.1405500173568726,5.0,15064.0,21136.0,9636.0,10688.0,1479.0
1.1418499946594238,38.0,15180.0,19544.0,8066.0,8532.0,2087.0
1.143149971961975,27.0,16336.0,17956.0,11780.0,9112.0,2429.0
1.1445000171661377,52.0,11956.0,22756.0,12184.0,9692.0,2652.0
1.145816683769226,54.0,16060.0,22172.0,11820.0,8148.0,1018.0
1.1471166610717773,15.0,21016.0,19384.0,13260.0,6605.0,1478.0
1.1484166383743286,47.0,19352.0,29816.0,14700.0,7700.0,1938.0
1.1497166156768799,28.0,20032.0,28652.0,8936.0,8796.0,1755.0
1.1510167121887207,24.0,20568.0,34864.0,13004.0,7294.0,1571.0
1.152316689491272,19.0,21108.0,16784.0,9984.0,7099.0,3490.0
1.1536166667938232,18.0,24400.0,15736.0,13992.0,6903.0,2799.0
1.1549166440963745,15.0,26872.0,29912.0,12980.0,12112.0,2108.0
1.1562166213989258,8.0,23816.0,27476.0,11964.0,11528.0,4726.0
1.1575167179107666,0.0,20760.0,30992.0,11888.0,9308.0,5671.0
1.1588166952133179,3.0,23748.0,34752.0,11812.0,6013.0,4006.0
1.1601166725158691,6.0,20412.0,33456.0,14636.0,7754.0,2326.0
1.1614500284194946,54.0,20752.0,37184.0,14728.0,8684.0,5607.0
1.1627833843231201,73.0,23668.0,22320.0,14820.0,9612.0,2631.0
1.1640666723251343,54.0,30148.0,25372.0,16872.0,9648.0,5655.0
1.1653666496276855,27.0,30264.0,31376.0,17616.0,6962.0,1587.0
1.1666666269302368,21.0,14796.0,36224.0,18364.0,10596.0,3702.0
1.1679832935333252,14.0,27360.0,38448.0,17928.0,14232.0,4769.0
1.169266700744629,10.0,18824.0,34432.0,18740.0,12032.0,1772.0
1.1705666780471802,6.0,24080.0,36736.0,18768.0,10688.0,3424.0
1.1718833446502686,42.0,22664.0,39040.0,18800.0,11060.0,3800.0
1.1731666326522827,51.0,26948.0,34096.0,24772.0,11436.0,3098.0
1.174466609954834,17.0,26788.0,30984.0,24352.0,9760.0,2395.0
1.1757667064666748,31.0,30848.0,32596.0,18592.0,11672.0,2490.0
1.177066683769226,15.0,19440.0,34208.0,27856.0,13580.0,2585.0
1.1784166097640991,18.0,25816.0,34288.0,16936.0,14808.0,3041.0
1.1797332763671875,20.0,26156.0,34352.0,17456.0,13960.0,678.0
1.1810333728790283,5.0,29916.0,35936.0,24812.0,13116.0,6028.0
1.1823333501815796,13.0,28776.0,36000.0,21896.0,17092.0,6411.0
1.1836333274841309,7.0,32420.0,36064.0,21460.0,17148.0,4137.0
1.1849333047866821,0.0,32180.0,38240.0,21148.0,17204.0,5093.0
1.1862332820892334,5.0,30488.0,46912.0,20840.0,15796.0,2028.0
1.1875333786010742,11.0,32864.0,46464.0,20304.0,13528.0,4368.0
1.1888333559036255,23.0,34288.0,53888.0,19768.0,19516.0,2973.0
1.1901333332061768,27.0,35712.0,51136.0,20828.0,19020.0,4087.0
1.191433310508728,38.0,36016.0,50544.0,21888.0,18528.0,5202.0
1.1927332878112793,49.0,32004.0,56928.0,21460.0,21212.0,9124.0
1.1940333843231201,0.0,36512.0,40128.0,28560.0,14156.0,10392.0
1.1953833103179932,18.0,38688.0,47248.0,27484.0,20584.0,7819.0
1.1966999769210815,0.0,37904.0,54352.0,26408.0,20304.0,5372.0
1.1979999542236328,34.0,37136.0,51296.0,26864.0,20020.0,9140.0
1.1993000507354736,22.0,38208.0,46016.0,24964.0,23448.0,10504.0
1.200600028038025,25.0,32784.0,49152.0,23060.0,13040.0,4338.0
1.2019000053405762,48.0,40928.0,54656.0,37552.0,16352.0,7962.0
1.2031999826431274,35.0,38528.0,60144.0,41200.0,17472.0,10420.0
1.2044999599456787,23.0,46080.0,60240.0,34304.0,19560.0,6144.0
1.2058000564575195,5.0,52416.0,51808.0,40352.0,20976.0,8512.0
1.2071000337600708,27.0,48832.0,55712.0,39600.0,15432.0,5808.0
1.208400011062622,19.0,49232.0,59632.0,33712.0,29112.0,9364.0
1.2096999883651733,36.0,36768.0,65360.0,39136.0,28084.0,7988.0
1.2109999656677246,16.0,48704.0,62208.0,42432.0,17852.0,4613.0
1.21233332157135,8.0,52464.0,59072.0,41760.0,17780.0,4552.0
1.2136499881744385,12.0,62816.0,63760.0,40688.0,25132.0,8924.0
1.2149499654769897,15.0,59088.0,66384.0,41920.0,20900.0,4384.0
1.216249942779541,18.0,53680.0,71360.0,43168.0,25624.0,8412.0
1.2175500392913818,21.0,58960.0,72480.0,43264.0,20228.0,6887.0
1.218850016593933,15.0,59840.0,71056.0,44304.0,31376.0,7695.0
1.2201499938964844,31.0,58976.0,73808.0,45344.0,28728.0,8504.0
1.2214499711990356,32.0,57280.0,76560.0,45872.0,31972.0,7791.0
1.222749948501587,33.0,55408.0,74080.0,40048.0,33712.0,7823.0
1.2240500450134277,13.0,58768.0,71616.0,40576.0,30544.0,7855.0
1.225350022315979,31.0,58944.0,83216.0,41104.0,36192.0,6736.0
1.2266499996185303,15.0,59120.0,85520.0,45984.0,40304.0,7768.0
1.2279499769210815,8.0,59024.0,88352.0,45456.0,37760.0,11032.0
1.2293000221252441,27.0,64208.0,93776.0,44944.0,38352.0,8604.0
1.2306166887283325,33.0,63632.0,107696.0,55856.0,36848.0,6179.0
1.2319166660308838,40.0,63072.0,105152.0,55088.0,41312.0,14584.0
1.233216643333435,33.0,82208.0,109184.0,57632.0,41344.0,11816.0
1.2345166206359863,32.0,80320.0,109536.0,58608.0,30704.0,12400.0
1.2358167171478271,32.0,87424.0,109888.0,60992.0,31576.0,7674.0
1.2371166944503784,32.0,81040.0,112240.0,59104.0,45632.0,12028.0
1.2384166717529297,38.0,81216.0,102448.0,57216.0,44304.0,11552.0
1.239716649055481,44.0,85824.0,92656.0,55504.0,36336.0,5440.0
1.2410166263580322,45.0,79040.0,114384.0,56960.0,51264.0,12532.0
1.242316722869873,67.0,102768.0,117248.0,54368.0,35216.0,11840.0
1.2436167001724243,83.0,104000.0,116320.0,61216.0,51056.0,13292.0
1.2449166774749756,91.0,86752.0,116512.0,59184.0,54464.0,14088.0
1.2462667226791382,57.0,106208.0,119824.0,57152.0,53552.0,14884.0
1.2475833892822266,16.0,94080.0,123152.0,77200.0,54208.0,13896.0
1.2488833665847778,6.0,92384.0,131392.0,79504.0,44880.0,12912.0
1.250183343887329,58.0,96448.0,130352.0,76768.0,57056.0,12068.0
1.2514833211898804,33.0,101472.0,129312.0,81088.0,54256.0,12892.0
1.2527832984924316,62.0,100496.0,133248.0,81520.0,49840.0,17168.0
1.254083275794983,53.0,91824.0,137216.0,77632.0,45536.0,18960.0
1.2553833723068237,36.0,101120.0,136384.0,86784.0,41232.0,17596.0
1.256683349609375,55.0,102688.0,149952.0,92496.0,65792.0,18224.0
1.2579833269119263,17.0,104240.0,163968.0,95920.0,59600.0,19840.0
1.2592833042144775,56.0,121600.0,154048.0,80496.0,56912.0,16428.0
1.2605832815170288,50.0,131136.0,160192.0,85120.0,54384.0,15596.0
1.2618833780288696,26.0,137984.0,166336.0,89744.0,51840.0,14764.0
1.2632166147232056,32.0,122800.0,145920.0,92960.0,59552.0,15128.0
1.264549970626831,39.0,135488.0,187520.0,86544.0,67280.0,15492.0
1.2658499479293823,36.0,126464.0,179776.0,86976.0,70640.0,20780.0
1.2671500444412231,34.0,133888.0,174336.0,93792.0,55648.0,19764.0
1.2684500217437744,27.0,132736.0,163456.0,93072.0,64176.0,18752.0
1.2697499990463257,31.0,137600.0,200448.0,118960.0,68048.0,20340.0
1.271049976348877,26.0,127776.0,193920.0,114304.0,78896.0,19268.0
1.2723499536514282,21.0,143616.0,179904.0,102224.0,73664.0,18196.0
1.273650050163269,24.0,153216.0,186816.0,110496.0,65056.0,22904.0
1.2749500274658203,28.0,144000.0,193792.0,113888.0,83728.0,24080.0
1.2762500047683716,19.0,157568.0,194432.0,105840.0,70304.0,29232.0
1.2775499820709229,40.0,131024.0,210944.0,104368.0,77328.0,28864.0
1.2788499593734741,79.0,138240.0,207488.0,105488.0,81776.0,26036.0
1.2801833152770996,51.0,145472.0,203520.0,86752.0,76432.0,22908.0
1.281499981880188,24.0,153664.0,199552.0,105184.0,71072.0,22992.0
1.2827999591827393,73.0,180864.0,200000.0,123184.0,75408.0,23072.0
1.28410005569458,32.0,170944.0,208448.0,125360.0,76480.0,19720.0
1.2854000329971313,73.0,161728.0,188224.0,109376.0,77552.0,16364.0
1.2867000102996826,31.0,157376.0,219968.0,115360.0,74672.0,17252.0
1.2879999876022339,38.0,156480.0,213184.0,118144.0,71792.0,15264.0
1.2892999649047852,52.0,155584.0,204416.0,110624.0,75568.0,13276.0
1.2905999422073364,22.0,166464.0,211648.0,96992.0,72272.0,18384.0
1.2919000387191772,38.0,144832.0,183488.0,118576.0,75360.0,23356.0
1.2932000160217285,52.0,149312.0,195584.0,116224.0,69104.0,23132.0
1.2944999933242798,59.0,162752.0,202304.0,123440.0,78544.0,23220.0
1.295799970626831,38.0,157312.0,201024.0,108496.0,82576.0,19824.0
1.2971500158309937,60.0,150208.0,189632.0,102672.0,74448.0,23928.0
1.298466682434082,78.0,147776.0,197568.0,124720.0,83200.0,26324.0
1.2997666597366333,31.0,128480.0,184320.0,101760.0,74528.0,17800.0
1.3010666370391846,41.0,148032.0,171008.0,89040.0,67632.0,19456.0
1.3023666143417358,59.0,145600.0,199232.0,101696.0,79792.0,21852.0
1.3036667108535767,56.0,134272.0,166592.0,79472.0,63856.0,19576.0
1.304966688156128,42.0,149632.0,175296.0,101136.0,63760.0,17304.0
1.3062666654586792,5.0,139264.0,160832.0,97632.0,69920.0,20652.0
1.3075666427612305,28.0,127184.0,161472.0,98976.0,67040.0,18776.0
1.3088666200637817,6.0,108064.0,175872.0,84880.0,64176.0,18956.0
1.3101667165756226,76.0,112432.0,155712.0,100944.0,44944.0,19136.0
1.3114666938781738,77.0,96096.0,137792.0,86944.0,55792.0,17600.0
1.312766671180725,54.0,101552.0,145088.0,84656.0,61424.0,19556.0
1.3141167163848877,16.0,107008.0,138368.0,72976.0,68112.0,12604.0
1.315433382987976,34.0,111952.0,134016.0,62768.0,45504.0,18288.0
1.3167333602905273,27.0,107200.0,144320.0,72256.0,51616.0,11276.0
1.3180333375930786,25.0,107088.0,147904.0,68768.0,41408.0,8117.0
1.3193333148956299,31.0,84768.0,117600.0,78240.0,52960.0,17896.0
1.3206332921981812,25.0,92160.0,100528.0,54624.0,37104.0,13384.0
1.321933388710022,18.0,69648.0,111440.0,65888.0,37376.0,14992.0
1.3232333660125732,58.0,90256.0,100464.0,63824.0,48720.0,12156.0
1.3245333433151245,75.0,80912.0,87888.0,65072.0,44480.0,6213.0
1.3258333206176758,43.0,73952.0,84256.0,64800.0,40368.0,8074.0
1.327133297920227,10.0,69168.0,91248.0,47504.0,26116.0,6874.0
1.3284332752227783,41.0,66768.0,86688.0,59808.0,27952.0,5673.0
1.3297333717346191,45.0,57152.0,82688.0,44976.0,39328.0,7536.0
1.331066608428955,42.0,51872.0,74880.0,37264.0,34608.0,5952.0
1.3323999643325806,45.0,59616.0,69184.0,39008.0,26548.0,4369.0
1.3336999416351318,34.0,61680.0,59968.0,30612.0,27560.0,4475.0
1.3350000381469727,27.0,46176.0,74624.0,38688.0,23268.0,4581.0
1.336300015449524,23.0,44960.0,55584.0,27840.0,20208.0,5585.0
1.3375999927520752,35.0,47440.0,55232.0,17692.0,24932.0,6825.0
1.3388999700546265,18.0,33584.0,57744.0,31088.0,15988.0,8065.0
1.3401999473571777,17.0,37952.0,48384.0,33728.0,20928.0,5928.0
1.3415000438690186,16.0,38304.0,44560.0,21652.0,18836.0,3790.0
1.3428000211715698,27.0,37424.0,43600.0,26068.0,19548.0,4135.0
1.344099998474121,22.0,29608.0,43136.0,21004.0,13960.0,5446.0
1.3453999757766724,16.0,31420.0,42656.0,30048.0,14960.0,4199.0
1.3466999530792236,41.0,29200.0,35456.0,11312.0,9872.0,4888.0
1.3480333089828491,37.0,30956.0,34560.0,19548.0,10236.0,3238.0
1.3493499755859375,29.0,23444.0,32976.0,21976.0,13504.0,2409.0
1.3506499528884888,12.0,28556.0,22288.0,15044.0,12864.0,2861.0
1.3519500494003296,29.0,21564.0,19392.0,15800.0,10744.0,3313.0
1.3532500267028809,10.0,29520.0,21900.0,14240.0,8628.0,3045.0
1.3545500040054321,34.0,21144.0,21524.0,13872.0,7538.0,2777.0
1.3558499813079834,30.0,11172.0,21148.0,13504.0,9508.0,1928.0
1.3571499586105347,15.0,15876.0,22560.0,10652.0,7523.0,2406.0
1.3584500551223755,38.0,15840.0,23484.0,10932.0,4962.0,2884.0
1.3597500324249268,36.0,16884.0,11984.0,6232.0,8185.0,2370.0
1.361050009727478,35.0,14316.0,19584.0,9968.0,5967.0,1601.0
1.3623499870300293,25.0,13708.0,14392.0,11108.0,3732.0,2108.0
1.3636499643325806,7.0,6077.0,12808.0,6484.0,4093.0,2701.0
1.3650000095367432,7.0,12064.0,16600.0,9112.0,5492.0,2397.0
1.3663166761398315,6.0,12324.0,17624.0,8101.0,4109.0,2240.0
1.3676166534423828,29.0,9420.0,13716.0,6087.0,4603.0,2213.0
1.368916630744934,22.0,10548.0,10900.0,8004.0,5092.0,425.0
1.3702166080474854,15.0,6376.0,8840.0,4481.0,6155.0,737.0
1.3715167045593262,29.0,8332.0,8412.0,2436.0,6442.0,43.0
1.3728166818618774,32.0,4350.0,8656.0,6254.0,3385.0,3116.0
1.3741166591644287,35.0,5370.0,8132.0,4971.0,6070.0,2697.0
1.37541663646698,30.0,6270.0,6378.0,6182.0,2705.0,2116.0
1.3767166137695312,0.0,5642.0,9696.0,1324.0,1383.0,3300.0
1.378016710281372,34.0,1917.0,9908.0,969.0,3473.0,2257.0
1.3793166875839233,37.0,6636.0,4452.0,7433.0,2985.0,17.0
1.3806166648864746,25.0,2039.0,6725.0,7071.0,2819.0,598.0
1.3819500207901,42.0,7608.0,8248.0,4098.0,726.0,54.0
1.3832833766937256,28.0,1634.0,4639.0,1050.0,1829.0,379.0
1.3845833539962769,13.0,6720.0,5559.0,2383.0,2932.0,703.0
1.3858833312988281,42.0,4992.0,6479.0,3500.0,3799.0,583.0
1.3871833086013794,27.0,4614.0,4168.0,2926.0,2075.0,463.0
1.3884832859039307,12.0,5361.0,6013.0,2351.0,737.0,9.0
1.3897833824157715,48.0,3798.0,4191.0,3257.0,635.0,664.0
1.3910833597183228,14.0,3747.0,4346.0,627.0,25.0,1094.0
1.392383337020874,45.0,2928.0,6678.0,2596.0,1098.0,1178.0
1.3936833143234253,54.0,3340.0,7413.0,2276.0,2171.0,22.0
1.3949832916259766,32.0,3117.0,2032.0,1956.0,2715.0,1094.0
1.3962833881378174,47.0,2894.0,5186.0,2919.0,3483.0,10.0
1.3975833654403687,21.0,2027.0,1467.0,1809.0,1054.0,12.0
1.3989167213439941,0.0,3835.0,2532.0,2759.0,2598.0,1033.0
1.4002333879470825,22.0,3276.0,3585.0,2613.0,1613.0,27.0
1.4015333652496338,21.0,4010.0,4751.0,2466.0,1838.0,993.0
1.402833342552185,18.0,4029.0,4242.0,2136.0,1742.0,168.0
1.4041333198547363,15.0,4048.0,4932.0,54.0,1616.0,454.0
1.4054332971572876,25.0,3565.0,4619.0,590.0,1491.0,342.0
1.4067332744598389,24.0,3083.0,4306.0,3270.0,390.0,231.0
1.4080333709716797,26.0,3868.0,4936.0,4330.0,720.0,131.0
1.409350037574768,36.0,2422.0,5565.0,217.0,1050.0,32.0
1.4106333255767822,37.0,817.0,3612.0,534.0,1089.0,13.0
1.4119499921798706,24.0,857.0,3109.0,3999.0,679.0,15.0
1.4132332801818848,26.0,3419.0,1351.0,3399.0,1061.0,24.0
1.4145333766937256,28.0,3851.0,3805.0,3606.0,898.0,33.0
1.4158833026885986,0.0,2292.0,3541.0,101.0,735.0,54.0
1.417199969291687,31.0,2551.0,3277.0,1705.0,378.0,42.0
1.4184999465942383,15.0,1126.0,4477.0,23.0,21.0,30.0
1.419800043106079,25.0,3481.0,528.0,888.0,852.0,51.0
1.4211000204086304,41.0,558.0,1202.0,2686.0,943.0,35.0
1.4223999977111816,45.0,2678.0,929.0,2379.0,1284.0,18.0
1.423699975013733,23.0,2044.0,1031.0,833.0,952.0,475.0
1.4250166416168213,19.0,1792.0,2171.0,16.0,620.0,931.0
1.4263166189193726,31.0,1532.0,1950.0,118.0,511.0,1230.0
1.4276167154312134,10.0,1819.0,1729.0,435.0,264.0,49.0
1.4289166927337646,5.0,1676.0,1598.0,1316.0,16.0,39.0
1.4301999807357788,36.0,1425.0,1419.0,1751.0,1049.0,128.0
1.4315166473388672,45.0,1327.0,3358.0,843.0,701.0,76.0
1.4328333139419556,38.0,1624.0,2948.0,1542.0,353.0,25.0
1.434149980545044,36.0,982.0,4290.0,2429.0,639.0,31.0
1.4354499578475952,35.0,663.0,4062.0,2384.0,324.0,37.0
1.436733365058899,47.0,21.0,13.0,1392.0,941.0,28.0
1.4380333423614502,45.0,1559.0,326.0,3148.0,479.0,0.0
1.4393500089645386,19.0,1530.0,3345.0,2804.0,18.0,307.0
1.4406499862670898,67.0,1500.0,519.0,2100.0,9.0,158.0
1.4419499635696411,52.0,1892.0,1136.0,2177.0,0.0,8.0
1.4432333707809448,36.0,1696.0,1176.0,475.0,60.0,15.0
1.444533348083496,21.0,1500.0,2361.0,1026.0,432.0,23.0
1.4458333253860474,54.0,2796.0,2068.0,371.0,804.0,22.0
1.44718337059021,24.0,31.0,1307.0,564.0,503.0,21.0
1.448449969291687,5.0,3931.0,546.0,752.0,201.0,20.0
1.4497833251953125,23.0,24.0,1614.0,940.0,40.0,19.0
1.4510833024978638,41.0,18.0,889.0,5.0,210.0,14.0
1.452383279800415,41.0,1667.0,956.0,34.0,380.0,11.0
1.4536833763122559,32.0,1348.0,1762.0,49.0,337.0,7.0
1.4549833536148071,36.0,2012.0,1466.0,785.0,294.0,154.0
1.4562833309173584,25.0,1368.0,890.0,926.0,758.0,300.0
1.4575833082199097,5.0,1591.0,458.0,801.0,379.0,171.0
1.458883285522461,16.0,1149.0,291.0,301.0,0.0,42.0
1.4601833820343018,0.0,450.0,578.0,636.0,883.0,5.0
1.461483359336853,22.0,31.0,2707.0,783.0,1492.0,0.0
1.4627833366394043,10.0,1001.0,2619.0,27.0,1855.0,11.0
1.4640833139419556,15.0,2231.0,3160.0,180.0,2058.0,142.0
1.4653832912445068,15.0,1785.0,3013.0,334.0,17.0,77.0
1.4666999578475952,15.0,1381.0,1821.0,189.0,25.0,12.0
1.468000054359436,13.0,24.0,1668.0,43.0,38.0,726.0
1.4693000316619873,11.0,1232.0,672.0,29.0,26.0,768.0
1.4706000089645386,26.0,1935.0,861.0,15.0,49.0,607.0
1.4718999862670898,16.0,10.0,1049.0,771.0,409.0,421.0
1.4731999635696411,7.0,1001.0,1000.0,398.0,219.0,11.0
1.4744999408721924,6.0,14.0,952.0,25.0,30.0,750.0
1.4758000373840332,5.0,160.0,17.0,15.0,515.0,413.0
1.4771000146865845,10.0,82.0,794.0,501.0,465.0,76.0
1.4783999919891357,14.0,29.0,1418.0,20.0,488.0,33.0
1.479699969291687,18.0,845.0,1410.0,49.0,511.0,26.0
1.4809999465942383,15.0,876.0,1301.0,55.0,264.0,764.0
1.482300043106079,12.0,908.0,1102.0,60.0,17.0,687.0
1.4836666584014893,0.0,33.0,683.0,185.0,14.0,19.0
1.4849666357040405,6.0,1425.0,1509.0,309.0,11.0,18.0
1.4862666130065918,12.0,1063.0,1756.0,186.0,0.0,134.0
1.4875667095184326,44.0,426.0,2003.0,63.0,10.0,249.0
1.4888666868209839,39.0,441.0,1232.0,0.0,10.0,914.0
1.4901666641235352,30.0,455.0,53.0,895.0,10.0,487.0
1.4914666414260864,55.0,241.0,363.0,1412.0,588.0,60.0
1.4927666187286377,0.0,27.0,42.0,1000.0,297.0,66.0
1.4940667152404785,19.0,29.0,291.0,1356.0,5.0,24.0
1.4953666925430298,16.0,136.0,1115.0,405.0,843.0,24.0
1.496666669845581,13.0,134.0,1474.0,391.0,427.0,24.0
1.4979666471481323,10.0,89.0,5.0,24.0,10.0,222.0
1.4992666244506836,30.0,43.0,385.0,51.0,1179.0,483.0
1.5006166696548462,25.0,29.0,1461.0,30.0,1729.0,257.0
1.5019166469573975,19.0,809.0,83.0,9.0,1327.0,31.0
1.5032333135604858,24.0,659.0,11.0,357.0,502.0,42.0
1.5045167207717896,28.0,91.0,672.0,182.0,647.0,18.0
1.5058166980743408,24.0,878.0,1527.0,6.0,609.0,13.0
1.5071333646774292,19.0,1316.0,2381.0,600.0,572.0,37.0
1.5084166526794434,15.0,769.0,1666.0,422.0,22.0,68.0
1.5097166299819946,10.0,38.0,753.0,417.0,22.0,48.0
1.511016607284546,5.0,21.0,0.0,17.0,0.0,28.0
1.5123167037963867,13.0,736.0,556.0,660.0,8.0,12.0
1.513616681098938,22.0,661.0,13.0,1303.0,16.0,15.0
1.5149166584014893,17.0,586.0,673.0,1311.0,19.0,17.0
1.5162166357040405,13.0,5.0,359.0,1320.0,23.0,15.0
1.5175833702087402,10.0,2110.0,44.0,276.0,185.0,17.0
1.5188833475112915,7.0,1644.0,470.0,29.0,120.0,18.0
1.5201833248138428,15.0,51.0,895.0,19.0,55.0,0.0
1.521483302116394,9.0,1764.0,472.0,38.0,54.0,21.0
1.5227832794189453,38.0,210.0,48.0,5.0,53.0,42.0
1.5240833759307861,33.0,15.0,35.0,291.0,65.0,42.0
1.5253833532333374,28.0,338.0,90.0,170.0,334.0,33.0
1.5266833305358887,0.0,619.0,144.0,48.0,759.0,24.0
1.52798330783844,13.0,900.0,355.0,35.0,404.0,43.0
1.5292832851409912,24.0,1410.0,395.0,22.0,48.0,28.0
1.530583381652832,29.0,1224.0,201.0,395.0,29.0,13.0
1.5318833589553833,14.0,1186.0,6.0,768.0,18.0,19.0
1.5331833362579346,24.0,993.0,1049.0,419.0,54.0,25.0
1.5345499515533447,14.0,800.0,1104.0,70.0,26.0,10.0
1.5358500480651855,0.0,658.0,1160.0,23.0,51.0,9.0
1.5371500253677368,20.0,1304.0,968.0,15.0,26.0,40.0
1.538450002670288,40.0,5.0,776.0,170.0,0.0,35.0
1.5397499799728394,34.0,874.0,972.0,89.0,40.0,30.0
1.5410499572753906,34.0,936.0,1350.0,8.0,0.0,42.0
1.5423500537872314,7.0,835.0,33.0,14.0,416.0,38.0
1.5436500310897827,6.0,40.0,1638.0,21.0,229.0,34.0
1.544950008392334,13.0,1777.0,6.0,29.0,42.0,16.0
1.5462499856948853,0.0,1344.0,927.0,30.0,5.0,24.0
1.5475499629974365,17.0,502.0,24.0,31.0,1128.0,24.0
1.5488500595092773,19.0,25.0,11.0,384.0,906.0,5.0
1.5501500368118286,22.0,469.0,18.0,195.0,546.0,0.0
1.5514999628067017,25.0,244.0,560.0,6.0,34.0,44.0
1.5528000593185425,29.0,19.0,671.0,11.0,314.0,49.0
1.5541000366210938,30.0,97.0,33.0,634.0,18.0,37.0
1.555400013923645,32.0,175.0,14.0,716.0,15.0,15.0
1.5566999912261963,25.0,147.0,538.0,384.0,29.0,17.0
1.5579999685287476,17.0,26.0,19.0,52.0,29.0,28.0
1.5592999458312988,18.0,111.0,747.0,1282.0,22.0,39.0
1.5606000423431396,13.0,196.0,389.0,943.0,6.0,43.0
1.561900019645691,7.0,636.0,31.0,5.0,362.0,25.0
1.5631999969482422,43.0,798.0,18.0,44.0,189.0,21.0
1.5644999742507935,46.0,30.0,649.0,83.0,16.0,11.0
1.5657999515533447,49.0,1207.0,1279.0,54.0,61.0,724.0
1.5671000480651855,38.0,652.0,1080.0,26.0,5.0,369.0
1.5684666633605957,22.0,25.0,787.0,27.0,27.0,13.0
1.569766640663147,0.0,50.0,494.0,28.0,121.0,23.0
1.5710666179656982,27.0,35.0,886.0,48.0,215.0,52.0
1.572366714477539,23.0,19.0,8.0,29.0,123.0,17.0
1.5736666917800903,18.0,287.0,541.0,11.0,31.0,23.0
1.5749666690826416,11.0,555.0,121.0,23.0,58.0,22.0
1.5762666463851929,8.0,1772.0,639.0,35.0,32.0,10.0
1.5775666236877441,5.0,908.0,640.0,190.0,26.0,39.0
1.578866720199585,11.0,44.0,505.0,519.0,19.0,45.0
1.5801666975021362,8.0,1156.0,370.0,1213.0,17.0,66.0
1.5814666748046875,5.0,1707.0,424.0,1556.0,14.0,48.0
1.5827666521072388,5.0,2097.0,5.0,25.0,10.0,30.0
1.58406662940979,5.0,6.0,676.0,647.0,6.0,5.0
1.5854333639144897,8.0,1442.0,17.0,156.0,17.0,15.0
1.586733341217041,10.0,1196.0,1052.0,18.0,29.0,25.0
1.5880333185195923,12.0,2440.0,1085.0,5.0,43.0,21.0
1.5893332958221436,14.0,1400.0,5.0,17.0,31.0,46.0
1.5906333923339844,13.0,78.0,811.0,15.0,18.0,29.0
1.5919333696365356,12.0,52.0,126.0,12.0,14.0,13.0
1.593233346939087,24.0,627.0,32.0,40.0,10.0,24.0
1.5945333242416382,23.0,163.0,69.0,853.0,9.0,8.0
1.5958333015441895,25.0,356.0,1233.0,756.0,7.0,24.0
1.5971332788467407,21.0,51.0,1157.0,0.0,6.0,21.0
1.5984333753585815,18.0,351.0,1081.0,56.0,5.0,17.0
1.5997333526611328,22.0,43.0,308.0,24.0,6.0,12.0
1.601033329963684,0.0,468.0,31.0,5.0,6.0,6.0
1.6023833751678467,26.0,320.0,35.0,16.0,33.0,0.0
1.603683352470398,18.0,172.0,488.0,27.0,396.0,0.0
1.6049833297729492,29.0,260.0,339.0,19.0,716.0,0.0
1.6062833070755005,5.0,37.0,473.0,5.0,596.0,5.0
1.6075832843780518,39.0,344.0,790.0,6.0,7.0,11.0
1.6088833808898926,23.0,74.0,991.0,14.0,30.0,10.0
1.6101833581924438,11.0,40.0,824.0,23.0,503.0,15.0
1.6114833354949951,0.0,6.0,1102.0,38.0,40.0,19.0
1.6127833127975464,0.0,3.0,15.0,54.0,516.0,18.0
1.6140832901000977,17.0,0.0,881.0,30.0,12.0,16.0
1.6153833866119385,10.0,13.0,24.0,6.0,12.0,63.0
1.6166833639144897,22.0,26.0,12.0,15.0,370.0,52.0
1.617983341217041,10.0,73.0,0.0,13.0,208.0,5.0
1.6193499565124512,25.0,53.0,9.0,21.0,10.0,14.0
1.620650053024292,30.0,34.0,18.0,29.0,768.0,39.0
1.6219500303268433,35.0,31.0,862.0,217.0,396.0,22.0
1.6232500076293945,17.0,29.0,949.0,130.0,25.0,5.0
1.6245499849319458,0.0,169.0,1036.0,43.0,851.0,24.0
1.625849962234497,11.0,105.0,42.0,41.0,426.0,21.0
1.627150058746338,0.0,40.0,18.0,6.0,0.0,17.0
1.6284500360488892,5.0,37.0,16.0,12.0,596.0,14.0
1.6297500133514404,10.0,23.0,14.0,0.0,10.0,11.0
1.6310499906539917,25.0,614.0,11.0,10.0,1127.0,14.0
1.632349967956543,39.0,731.0,16.0,16.0,1740.0,16.0
1.6336499452590942,33.0,874.0,21.0,23.0,2509.0,18.0
1.634950041770935,28.0,775.0,704.0,14.0,335.0,21.0
1.6363166570663452,46.0,336.0,589.0,6.0,26.0,32.0
1.6376166343688965,19.0,681.0,0.0,12.0,18.0,0.0
1.6389166116714478,26.0,1090.0,29.0,18.0,614.0,41.0
1.6402167081832886,23.0,35.0,455.0,12.0,317.0,18.0
1.6415166854858398,19.0,539.0,8.0,5.0,21.0,40.0
1.6428166627883911,15.0,526.0,475.0,23.0,82.0,25.0
1.6441166400909424,11.0,271.0,12.0,30.0,186.0,27.0
1.6454166173934937,9.0,16.0,129.0,20.0,100.0,29.0
1.6467167139053345,11.0,32.0,67.0,10.0,13.0,31.0
1.6480166912078857,13.0,18.0,5.0,893.0,7.0,34.0
1.649316668510437,14.0,5.0,174.0,741.0,22.0,16.0
1.6506166458129883,15.0,162.0,440.0,16.0,849.0,17.0
1.6519166231155396,12.0,86.0,245.0,18.0,664.0,23.0
1.6532666683197021,8.0,10.0,50.0,1000.0,561.0,43.0
1.6545666456222534,15.0,39.0,29.0,963.0,11.0,35.0
1.6558833122253418,14.0,38.0,33.0,25.0,0.0,27.0
1.6571667194366455,13.0,38.0,38.0,1104.0,11.0,18.0
1.6584666967391968,17.0,172.0,213.0,13.0,9.0,16.0
1.659766674041748,21.0,89.0,113.0,32.0,6.0,5.0
1.6610666513442993,23.0,5.0,13.0,50.0,12.0,3.0
1.6623666286468506,25.0,18.0,18.0,29.0,224.0,0.0
1.6636667251586914,22.0,31.0,23.0,58.0,120.0,21.0
1.6649667024612427,32.0,24.0,925.0,29.0,16.0,18.0
1.666266679763794,30.0,16.0,1102.0,0.0,29.0,15.0
1.6675666570663452,23.0,8.0,973.0,23.0,11.0,5.0
1.6688666343688965,43.0,0.0,1002.0,15.0,254.0,14.0
1.6702333688735962,48.0,90.0,5.0,6.0,532.0,24.0
1.6715333461761475,0.0,74.0,20.0,3.0,586.0,43.0
1.6728333234786987,12.0,58.0,5.0,0.0,42.0,63.0
1.67413330078125,29.0,49.0,762.0,0.0,10.0,51.0
1.6754332780838013,6.0,16.0,895.0,0.0,22.0,37.0
1.676733374595642,12.0,0.0,41.0,41.0,52.0,24.0
1.6780333518981934,18.0,19.0,358.0,26.0,10.0,14.0
1.6793333292007446,16.0,38.0,210.0,10.0,13.0,30.0
1.680633306503296,13.0,37.0,62.0,1248.0,15.0,0.0
1.6819332838058472,0.0,36.0,364.0,642.0,8.0,32.0
1.683233380317688,36.0,28.0,443.0,37.0,23.0,6.0
1.6845333576202393,34.0,37.0,29.0,0.0,19.0,15.0
1.6858333349227905,27.0,22.0,344.0,960.0,14.0,24.0
1.6871999502182007,31.0,6.0,59.0,1169.0,15.0,16.0
1.6885000467300415,35.0,28.0,29.0,84.0,15.0,26.0
1.6898000240325928,28.0,50.0,329.0,33.0,14.0,17.0
1.691100001335144,44.0,51.0,173.0,5.0,14.0,13.0
1.6923999786376953,35.0,52.0,17.0,49.0,14.0,8.0
1.6936999559402466,27.0,23.0,347.0,1349.0,23.0,13.0
1.6950000524520874,23.0,1463.0,31.0,1058.0,32.0,18.0
1.6963000297546387,23.0,2552.0,18.0,454.0,0.0,12.0
1.69760000705719,22.0,2164.0,17.0,1313.0,11.0,5.0
1.6988999843597412,9.0,15.0,15.0,25.0,23.0,9.0
1.7001999616622925,18.0,11.0,6.0,51.0,26.0,13.0
1.7015000581741333,27.0,46.0,17.0,1324.0,369.0,5.0
1.7028000354766846,15.0,51.0,5.0,11.0,713.0,19.0
1.7041499614715576,11.0,19.0,296.0,43.0,684.0,12.0
1.7054500579833984,0.0,14.0,151.0,20.0,5.0,5.0
1.7067667245864868,7.0,8.0,6.0,34.0,40.0,0.0
1.708050012588501,8.0,11.0,30.0,47.0,501.0,14.0
1.7093499898910522,9.0,573.0,53.0,535.0,37.0,29.0
1.7106499671936035,0.0,311.0,533.0,288.0,64.0,39.0
1.711966633796692,6.0,49.0,1012.0,41.0,45.0,18.0
1.7132666110992432,24.0,28.0,643.0,37.0,35.0,17.0
1.7145500183105469,18.0,442.0,321.0,33.0,25.0,9.0
1.7158666849136353,25.0,225.0,889.0,24.0,21.0,0.0
1.7171666622161865,31.0,9.0,353.0,15.0,19.0,10.0
1.7184666395187378,5.0,83.0,426.0,28.0,17.0,6.0
1.719766616821289,23.0,19.0,28.0,40.0,17.0,21.0
1.7210832834243774,40.0,117.0,25.0,736.0,5.0,36.0
1.7223833799362183,32.0,72.0,28.0,373.0,8.0,29.0
1.7236833572387695,38.0,27.0,5.0,10.0,10.0,31.0
1.7249833345413208,24.0,16.0,0.0,50.0,12.0,18.0
1.726283311843872,17.0,5.0,0.0,5.0,13.0,23.0
1.7275832891464233,42.0,17.0,11.0,10.0,13.0,18.0
1.7288833856582642,44.0,27.0,269.0,15.0,13.0,19.0
1.7301833629608154,57.0,36.0,527.0,22.0,17.0,17.0
1.7314833402633667,49.0,7.0,587.0,28.0,9.0,14.0
1.732783317565918,5.0,14.0,323.0,37.0,0.0,22.0
1.7340832948684692,5.0,22.0,185.0,47.0,859.0,27.0
1.73538339138031,45.0,26.0,47.0,39.0,708.0,32.0
1.7366833686828613,40.0,30.0,0.0,25.0,6.0,0.0
1.7380332946777344,64.0,0.0,0.0,29.0,661.0,10.0
1.7393333911895752,5.0,44.0,0.0,14.0,17.0,29.0
1.7406500577926636,36.0,41.0,7.0,16.0,31.0,24.0
1.7419333457946777,42.0,12.0,13.0,16.0,49.0,27.0
1.7432500123977661,48.0,93.0,23.0,57.0,59.0,31.0
1.7445333003997803,44.0,47.0,26.0,49.0,57.0,0.0
1.7458332777023315,39.0,0.0,219.0,157.0,55.0,12.0
1.7471333742141724,51.0,224.0,110.0,86.0,34.0,31.0
1.7484333515167236,0.0,448.0,0.0,15.0,48.0,16.0
1.749750018119812,38.0,752.0,33.0,13.0,62.0,0.0
1.7510333061218262,40.0,380.0,389.0,10.0,34.0,18.0
1.7523332834243774,23.0,8.0,812.0,62.0,22.0,20.0
1.7536333799362183,34.0,20.0,414.0,71.0,18.0,22.0
1.7549999952316284,10.0,33.0,16.0,80.0,12.0,5.0
1.7562999725341797,36.0,12.0,516.0,0.0,5.0,15.0
1.757599949836731,28.0,10.0,5.0,14.0,15.0,25.0
1.7589000463485718,19.0,8.0,85.0,451.0,15.0,15.0
1.760200023651123,27.0,14.0,165.0,565.0,15.0,32.0
1.7615000009536743,17.0,7.0,115.0,328.0,23.0,0.0
1.7627999782562256,11.0,0.0,66.0,5.0,23.0,13.0
1.7640999555587769,5.0,0.0,57.0,278.0,23.0,15.0
1.7654000520706177,32.0,0.0,48.0,148.0,16.0,70.0
1.766700029373169,42.0,10.0,40.0,18.0,10.0,46.0
1.7680000066757202,43.0,21.0,32.0,47.0,19.0,23.0
1.7692999839782715,9.0,32.0,43.0,45.0,28.0,5.0
1.7705999612808228,17.0,35.0,53.0,43.0,30.0,10.0
1.7719666957855225,37.0,5.0,19.0,25.0,21.0,17.0
1.7732666730880737,39.0,5.0,0.0,196.0,12.0,25.0
1.774566650390625,24.0,5.0,7.0,368.0,39.0,19.0
1.7758666276931763,12.0,48.0,1513.0,358.0,33.0,13.0
1.777166724205017,10.0,29.0,1368.0,15.0,27.0,21.0
1.7784667015075684,7.0,10.0,1198.0,29.0,19.0,13.0
1.7797666788101196,23.0,5.0,41.0,24.0,46.0,5.0
1.781066656112671,33.0,36.0,279.0,30.0,29.0,44.0
1.7823666334152222,43.0,32.0,430.0,52.0,11.0,29.0
1.7836666107177734,46.0,28.0,0.0,26.0,17.0,14.0
1.7849667072296143,14.0,12.0,0.0,0.0,48.0,18.0
1.7862666845321655,35.0,475.0,11.0,14.0,38.0,32.0
1.7875666618347168,35.0,255.0,23.0,34.0,25.0,24.0
1.7889167070388794,36.0,35.0,14.0,40.0,55.0,14.0
1.7902166843414307,33.0,35.0,5.0,20.0,18.0,14.0
1.791516661643982,30.0,35.0,13.0,0.0,17.0,23.0
1.7928166389465332,19.0,48.0,30.0,0.0,39.0,0.0
1.7941166162490845,8.0,35.0,46.0,8.0,19.0,31.0
1.7954167127609253,24.0,23.0,35.0,16.0,0.0,23.0
1.7967166900634766,40.0,0.0,22.0,11.0,21.0,15.0
1.7980166673660278,20.0,10.0,27.0,5.0,39.0,16.0
1.799316644668579,0.0,19.0,33.0,12.0,38.0,17.0
1.8006166219711304,9.0,12.0,12.0,24.0,41.0,21.0
1.8019167184829712,17.0,5.0,16.0,36.0,0.0,19.0
1.8032166957855225,23.0,5.0,21.0,33.0,45.0,17.0
1.8045166730880737,18.0,10.0,12.0,31.0,45.0,26.0
1.8058832883834839,16.0,26.0,20.0,441.0,15.0,35.0
1.8071833848953247,13.0,13.0,28.0,571.0,14.0,34.0
1.808483362197876,17.0,0.0,531.0,583.0,10.0,33.0
1.8097833395004272,5.0,40.0,273.0,20.0,18.0,48.0
1.8110833168029785,29.0,29.0,14.0,210.0,18.0,16.0
1.8123832941055298,25.0,18.0,21.0,655.0,18.0,13.0
1.8136833906173706,7.0,46.0,27.0,852.0,21.0,38.0
1.8149833679199219,21.0,5.0,20.0,33.0,24.0,5.0
1.8162833452224731,26.0,21.0,13.0,39.0,13.0,17.0
1.8175833225250244,16.0,26.0,42.0,36.0,33.0,30.0
1.8188832998275757,14.0,781.0,21.0,19.0,0.0,21.0
1.820183277130127,0.0,959.0,0.0,41.0,18.0,12.0
1.8214833736419678,6.0,40.0,21.0,36.0,41.0,5.0
1.822849988937378,11.0,43.0,21.0,31.0,5.0,46.0
1.8241499662399292,0.0,665.0,16.0,0.0,36.0,87.0
1.8254499435424805,32.0,40.0,35.0,12.0,9.0,58.0
1.8267500400543213,28.0,41.0,27.0,7.0,24.0,29.0
1.8280500173568726,59.0,794.0,18.0,63.0,46.0,23.0
1.8293499946594238,40.0,323.0,11.0,42.0,36.0,7.0
1.830649971961975,18.0,425.0,26.0,22.0,8.0,29.0
1.8319499492645264,43.0,34.0,13.0,33.0,24.0,15.0
1.8332500457763672,23.0,12.0,0.0,29.0,40.0,12.0
1.8345500230789185,37.0,388.0,33.0,25.0,23.0,14.0
1.8358500003814697,11.0,17.0,162.0,13.0,36.0,11.0
1.837149977684021,0.0,652.0,84.0,34.0,22.0,7.0
1.8384499549865723,14.0,884.0,5.0,66.0,21.0,5.0
1.8398000001907349,0.0,640.0,39.0,53.0,13.0,6.0
1.8410999774932861,43.0,10.0,794.0,41.0,10.0,6.0
1.8423999547958374,29.0,318.0,412.0,41.0,5.0,0.0
1.8437000513076782,15.0,6.0,31.0,20.0,9.0,5.0
1.8450000286102295,43.0,23.0,46.0,22.0,13.0,28.0
1.8463000059127808,0.0,19.0,45.0,24.0,14.0,316.0
1.847599983215332,42.0,207.0,22.0,26.0,14.0,158.0
1.8488999605178833,5.0,109.0,21.0,6.0,12.0,0.0
1.8502000570297241,16.0,10.0,21.0,6.0,10.0,64.0
1.8515000343322754,44.0,0.0,17.0,6.0,53.0,20.0
1.8528000116348267,28.0,13.0,14.0,7.0,295.0,23.0
1.854099988937378,11.0,10.0,24.0,15.0,157.0,29.0
1.8553999662399292,29.0,38.0,19.0,36.0,18.0,21.0
1.856766700744629,29.0,558.0,14.0,31.0,25.0,11.0
1.8580666780471802,56.0,286.0,39.0,31.0,50.0,16.0
1.8593666553497314,54.0,14.0,22.0,32.0,52.0,10.0
1.8606666326522827,77.0,1238.0,5.0,24.0,22.0,32.0
1.861966609954834,25.0,655.0,40.0,14.0,40.0,28.0
1.8632667064666748,54.0,73.0,32.0,17.0,17.0,25.0
1.864566683769226,25.0,543.0,24.0,34.0,645.0,12.0
1.8658666610717773,42.0,680.0,35.0,130.0,330.0,0.0
1.8671666383743286,6.0,297.0,22.0,71.0,15.0,7.0
1.8684666156768799,60.0,44.0,8.0,11.0,13.0,0.0
1.8697667121887207,33.0,11.0,44.0,12.0,35.0,29.0
1.871066689491272,5.0,113.0,28.0,5.0,24.0,31.0
1.8723666667938232,11.0,72.0,19.0,25.0,13.0,45.0
1.8737167119979858,15.0,31.0,11.0,42.0,30.0,37.0
1.8750333786010742,11.0,50.0,23.0,34.0,0.0,30.0
1.8763166666030884,6.0,43.0,46.0,5.0,17.0,15.0
1.8776166439056396,24.0,5.0,52.0,6.0,11.0,33.0
1.878933310508728,24.0,0.0,37.0,24.0,5.0,35.0
1.8802167177200317,7.0,9.0,297.0,13.0,6.0,5.0
1.881516695022583,37.0,18.0,557.0,12.0,7.0,45.0
1.8828166723251343,25.0,18.0,451.0,10.0,7.0,10.0
1.8841166496276855,13.0,17.0,229.0,5.0,6.0,44.0
1.885433316230774,27.0,32.0,7.0,11.0,11.0,33.0
1.8867167234420776,23.0,47.0,747.0,11.0,11.0,38.0
1.888016700744629,19.0,47.0,539.0,0.0,10.0,38.0
1.8893166780471802,0.0,29.0,42.0,9.0,5.0,38.0
1.8906832933425903,23.0,48.0,791.0,18.0,6.0,42.0
1.8919833898544312,36.0,45.0,505.0,13.0,0.0,25.0
1.8932833671569824,50.0,42.0,353.0,8.0,3.0,30.0
1.8945833444595337,7.0,633.0,0.0,28.0,5.0,35.0
1.895883321762085,50.0,678.0,27.0,47.0,5.0,12.0
1.8971832990646362,12.0,32.0,15.0,42.0,32.0,0.0
1.8984832763671875,15.0,21.0,12.0,31.0,18.0,23.0
1.8997833728790283,38.0,10.0,520.0,83.0,5.0,14.0
1.9010833501815796,22.0,0.0,302.0,339.0,31.0,5.0
1.9023833274841309,24.0,23.0,84.0,213.0,43.0,25.0
1.9036833047866821,0.0,42.0,29.0,86.0,54.0,15.0
1.9049832820892334,9.0,35.0,55.0,56.0,40.0,5.0
1.9062833786010742,17.0,28.0,42.0,6.0,26.0,17.0
1.9076499938964844,33.0,27.0,28.0,0.0,12.0,18.0
1.9089499711990356,26.0,938.0,29.0,56.0,41.0,55.0
1.910249948501587,19.0,887.0,92.0,0.0,13.0,69.0
1.9115500450134277,23.0,25.0,61.0,5.0,27.0,32.0
1.912850022315979,26.0,0.0,31.0,5.0,23.0,63.0
1.9141499996185303,30.0,10.0,18.0,10.0,38.0,26.0
1.9154499769210815,23.0,22.0,5.0,10.0,5.0,29.0
1.9167499542236328,16.0,19.0,15.0,10.0,90.0,18.0
1.9180500507354736,0.0,26.0,26.0,20.0,74.0,8.0
1.919350028038025,7.0,32.0,29.0,17.0,58.0,38.0
1.9206500053405762,13.0,253.0,22.0,13.0,34.0,28.0
1.9219499826431274,5.0,138.0,0.0,19.0,62.0,17.0
1.9232499599456787,14.0,24.0,16.0,25.0,69.0,22.0
1.9246000051498413,15.0,1471.0,5.0,16.0,77.0,16.0
1.9258999824523926,15.0,1392.0,5.0,8.0,77.0,0.0
1.9271999597549438,10.0,19.0,5.0,15.0,84.0,13.0
1.9285000562667847,23.0,47.0,663.0,22.0,26.0,26.0
1.929800033569336,25.0,15.0,828.0,5.0,16.0,32.0
1.9311000108718872,29.0,198.0,48.0,17.0,40.0,38.0
1.9323999881744385,12.0,102.0,16.0,21.0,5.0,28.0
1.9336999654769897,17.0,5.0,87.0,0.0,31.0,11.0
1.934999942779541,12.0,34.0,0.0,15.0,6.0,26.0
1.9363000392913818,0.0,23.0,39.0,31.0,0.0,19.0
1.937600016593933,7.0,15.0,30.0,28.0,22.0,12.0
1.9388999938964844,11.0,7.0,22.0,25.0,48.0,16.0
1.9401999711990356,15.0,39.0,42.0,29.0,44.0,7.0
1.9415667057037354,38.0,25.0,101.0,10.0,40.0,18.0
1.9428666830062866,40.0,11.0,161.0,31.0,30.0,13.0
1.944166660308838,43.0,27.0,93.0,28.0,32.0,7.0
1.9454666376113892,43.0,494.0,25.0,26.0,34.0,14.0
1.9467666149139404,22.0,256.0,32.0,10.0,33.0,15.0
1.9480667114257812,66.0,17.0,40.0,19.0,32.0,15.0
1.9493666887283325,0.0,13.0,34.0,28.0,19.0,0.0
1.9506666660308838,16.0,0.0,28.0,28.0,26.0,10.0
1.951966643333435,16.0,35.0,491.0,45.0,11.0,12.0
1.9532666206359863,27.0,42.0,458.0,33.0,30.0,14.0
1.9545667171478271,5.0,33.0,10.0,22.0,37.0,15.0
1.9558666944503784,11.0,16.0,78.0,18.0,27.0,16.0
1.9571666717529297,16.0,29.0,32.0,12.0,17.0,24.0
1.9585167169570923,11.0,509.0,86.0,5.0,34.0,26.0
1.9598333835601807,6.0,1323.0,28.0,28.0,28.0,29.0
1.961133360862732,14.0,1054.0,17.0,311.0,24.0,108.0
1.962416648864746,19.0,46.0,6.0,168.0,17.0,63.0
1.9637166261672974,28.0,1849.0,10.0,25.0,35.0,17.0
1.9650167226791382,28.0,931.0,13.0,193.0,33.0,41.0
1.9663333892822266,29.0,17.0,30.0,29.0,6.0,29.0
1.9676166772842407,43.0,14.0,26.0,15.0,5.0,23.0
1.968916654586792,37.0,19.0,41.0,22.0,10.0,16.0
1.9702166318893433,31.0,1090.0,271.0,29.0,39.0,11.0
1.9715166091918945,10.0,565.0,141.0,5.0,44.0,6.0
1.9728167057037354,22.0,40.0,10.0,21.0,14.0,12.0
1.9741166830062866,0.0,825.0,16.0,28.0,26.0,16.0
1.9754832983016968,0.0,0.0,13.0,35.0,16.0,21.0
1.976783275604248,36.0,29.0,32.0,17.0,32.0,26.0
1.9780833721160889,28.0,17.0,25.0,0.0,0.0,19.0
1.9793833494186401,21.0,5.0,17.0,39.0,25.0,10.0
1.9806833267211914,24.0,16.0,5.0,22.0,8.0,5.0
1.9819833040237427,22.0,16.0,20.0,12.0,31.0,0.0
1.983283281326294,7.0,16.0,14.0,29.0,21.0,6.0
1.9845833778381348,9.0,18.0,7.0,34.0,11.0,11.0
1.985883355140686,8.0,21.0,23.0,5.0,928.0,11.0
1.9871833324432373,0.0,15.0,39.0,6.0,478.0,11.0
1.9884833097457886,12.0,9.0,55.0,27.0,29.0,16.0
1.9897832870483398,11.0,17.0,34.0,30.0,17.0,21.0
1.9910833835601807,18.0,25.0,48.0,34.0,31.0,17.0
1.9924499988555908,25.0,31.0,35.0,29.0,25.0,12.0
1.993749976158142,45.0,27.0,30.0,34.0,25.0,15.0
1.9950499534606934,36.0,22.0,0.0,16.0,22.0,18.0
1.9963500499725342,31.0,13.0,5.0,41.0,5.0,11.0
1.9976500272750854,17.0,5.0,0.0,39.0,6.0,23.0
