,319.2099914550781,320.2099914550781,321.2099914550781,322.2099914550781,323.2099914550781,324.2099914550781,325.2099914550781
4.501916885375977,399.0,212.0,176.0,233.0,143.0,153.0,127.0
4.504300117492676,168.0,160.0,843.0,129.0,211.0,106.0,127.0
4.507400035858154,1391.0,241.0,136.0,100.0,171.0,86.0,194.0
4.510433197021484,144.0,172.0,126.0,163.0,69.0,91.0,120.0
4.513466835021973,1164.0,156.0,199.0,112.0,115.0,83.0,176.0
4.516499996185303,168.0,132.0,76.0,107.0,155.0,75.0,115.0
4.519533157348633,176.0,129.0,105.0,147.0,143.0,51.0,92.0
4.522616863250732,189.0,162.0,59.0,85.0,74.0,157.0,114.0
4.5256500244140625,350.0,126.0,80.0,122.0,54.0,145.0,57.0
4.528683185577393,244.0,90.0,101.0,76.0,120.0,102.0,59.0
4.531716823577881,138.0,125.0,142.0,97.0,170.0,124.0,72.0
4.534749984741211,146.0,115.0,122.0,58.0,145.0,82.0,80.0
4.537783145904541,776.0,105.0,100.0,79.0,117.0,133.0,76.0
4.540883541107178,830.0,134.0,123.0,100.0,125.0,133.0,71.0
4.543916702270508,148.0,164.0,147.0,102.0,109.0,77.0,73.0
4.546949863433838,150.0,176.0,104.0,129.0,85.0,130.0,74.0
4.549983501434326,137.0,180.0,62.0,114.0,83.0,119.0,79.0
4.553016662597656,124.0,135.0,96.0,99.0,112.0,123.0,83.0
4.556116580963135,105.0,130.0,130.0,88.0,142.0,40.0,90.0
4.559150218963623,170.0,126.0,116.0,78.0,162.0,73.0,89.0
4.562183380126953,864.0,108.0,101.0,102.0,67.0,69.0,74.0
4.565216541290283,756.0,90.0,616.0,75.0,44.0,91.0,60.0
4.5682501792907715,1229.0,75.0,356.0,48.0,122.0,51.0,74.0
4.571283340454102,122.0,61.0,96.0,67.0,63.0,48.0,88.0
4.57438325881958,78.0,78.0,63.0,67.0,104.0,76.0,58.0
4.577416896820068,144.0,73.0,99.0,67.0,59.0,68.0,29.0
4.580450057983398,87.0,68.0,72.0,81.0,89.0,60.0,44.0
4.5834832191467285,57.0,66.0,49.0,95.0,88.0,39.0,39.0
4.586516857147217,64.0,70.0,26.0,39.0,29.0,40.0,35.0
4.589583396911621,60.0,36.0,32.0,35.0,47.0,11.0,46.0
4.592649936676025,82.0,58.0,39.0,32.0,56.0,17.0,52.0
4.5956830978393555,350.0,62.0,66.0,13.0,11.0,29.0,22.0
4.598716735839844,210.0,153.0,60.0,38.0,55.0,41.0,38.0
4.601749897003174,70.0,662.0,54.0,62.0,57.0,40.0,56.0
4.604783535003662,60.0,787.0,42.0,76.0,60.0,40.0,49.0
4.607850074768066,287.0,13.0,97.0,52.0,78.0,41.0,54.0
4.6108832359313965,177.0,56.0,64.0,29.0,78.0,34.0,43.0
4.613916873931885,68.0,22.0,32.0,58.0,36.0,30.0,33.0
4.616950035095215,64.0,28.0,21.0,36.0,37.0,62.0,34.0
4.619983196258545,39.0,29.0,336.0,15.0,21.0,95.0,36.0
4.623016834259033,39.0,31.0,187.0,22.0,31.0,75.0,31.0
4.6260833740234375,40.0,36.0,38.0,39.0,41.0,22.0,26.0
4.629116535186768,37.0,36.0,1262.0,20.0,38.0,33.0,40.0
4.632150173187256,50.0,36.0,1275.0,23.0,36.0,80.0,19.0
4.635183334350586,63.0,32.0,840.0,32.0,47.0,136.0,36.0
4.638216495513916,43.0,28.0,55.0,993.0,54.0,89.0,101.0
4.6412835121154785,22.0,1232.0,721.0,1869.0,62.0,43.0,82.0
4.644316673278809,31.0,1879.0,1420.0,1830.0,889.0,2461.0,63.0
4.647349834442139,41.0,2662.0,2119.0,3877.0,1715.0,2988.0,1399.0
4.650383472442627,66.0,3354.0,7421.0,14080.0,4407.0,2204.0,1059.0
4.653416633605957,57.0,8636.0,23364.0,25556.0,9236.0,9924.0,5954.0
4.656449794769287,49.0,13600.0,47744.0,58096.0,37200.0,21760.0,11700.0
4.65951681137085,22.0,41472.0,100112.0,108432.0,66448.0,51488.0,9440.0
4.66254997253418,48.0,87888.0,179392.0,188544.0,113856.0,85616.0,25012.0
4.66558313369751,74.0,132800.0,339072.0,303296.0,213824.0,129488.0,37472.0
4.668616771697998,85.0,187904.0,490496.0,474880.0,317632.0,163136.0,58480.0
4.671649932861328,503.0,278464.0,626688.0,674304.0,437120.0,293312.0,75168.0
4.674716472625732,487.0,350208.0,881152.0,904704.0,603136.0,302592.0,89312.0
4.677750110626221,176.0,440640.0,1101312.0,1038848.0,661248.0,420864.0,121568.0
4.680783271789551,79.0,525824.0,1256448.0,1156096.0,797696.0,495232.0,132480.0
4.683816432952881,98.0,529664.0,1367808.0,1297408.0,882176.0,504832.0,123712.0
4.686850070953369,70.0,616448.0,1494528.0,1435392.0,951040.0,562688.0,114144.0
4.689883232116699,43.0,591104.0,1618944.0,1412352.0,960768.0,546816.0,152256.0
4.6929497718811035,1495.0,647424.0,1598208.0,1437696.0,950784.0,523328.0,159872.0
4.695983409881592,801.0,639232.0,1663232.0,1509120.0,956928.0,557824.0,150912.0
4.699016571044922,108.0,692992.0,1654272.0,1531392.0,962816.0,556544.0,157312.0
4.70205020904541,77.0,704512.0,1596160.0,1513216.0,1006592.0,572160.0,148608.0
4.70508337020874,558.0,681984.0,1594368.0,1459712.0,1001472.0,578304.0,155264.0
4.7081499099731445,72.0,613632.0,1498368.0,1495808.0,960000.0,517952.0,157184.0
4.711183547973633,511.0,585728.0,1472512.0,1365504.0,854784.0,502720.0,147264.0
4.714216709136963,561.0,563968.0,1332736.0,1269248.0,824320.0,511936.0,134208.0
4.717249870300293,94.0,595968.0,1315328.0,1212928.0,750848.0,435072.0,115696.0
4.720283508300781,64.0,534016.0,1243904.0,1202944.0,732160.0,435456.0,133696.0
4.723316669464111,93.0,500800.0,1196288.0,1073408.0,661760.0,424128.0,109168.0
4.726383209228516,96.0,469184.0,1092352.0,1095168.0,716800.0,382656.0,117904.0
4.729416847229004,99.0,452416.0,1129728.0,1004800.0,649216.0,403776.0,96144.0
4.732450008392334,102.0,417472.0,1032192.0,985856.0,655360.0,355072.0,109904.0
4.735483169555664,124.0,417152.0,972288.0,958464.0,574976.0,321344.0,82560.0
4.738516807556152,201.0,373376.0,972288.0,871936.0,562688.0,297536.0,83584.0
4.741583347320557,130.0,382080.0,909568.0,889088.0,551424.0,308288.0,86160.0
4.744616508483887,60.0,338752.0,868864.0,832256.0,500800.0,308608.0,78320.0
4.747650146484375,1536.0,358144.0,827136.0,783616.0,484672.0,292608.0,82624.0
4.750683307647705,1113.0,355008.0,830464.0,784896.0,460608.0,272896.0,74416.0
4.753716468811035,689.0,360896.0,833280.0,754944.0,509824.0,289024.0,72192.0
4.756750106811523,64.0,334784.0,806400.0,770816.0,457920.0,270400.0,86432.0
4.759816646575928,467.0,341632.0,790528.0,757504.0,454976.0,272384.0,78128.0
4.762849807739258,801.0,316992.0,749568.0,742656.0,484032.0,245248.0,90352.0
4.765883445739746,75.0,317760.0,735744.0,745728.0,449088.0,259712.0,87184.0
4.768916606903076,886.0,326080.0,745728.0,708096.0,446080.0,242880.0,75280.0
4.771949768066406,850.0,312960.0,748032.0,719616.0,430784.0,254144.0,76048.0
4.775016784667969,922.0,299840.0,672768.0,705280.0,458560.0,260800.0,68784.0
4.778049945831299,66.0,280128.0,730624.0,659200.0,417728.0,238144.0,58992.0
4.781083106994629,48.0,303872.0,669952.0,668928.0,405952.0,211328.0,54208.0
4.784116744995117,114.0,298240.0,635136.0,592384.0,375104.0,234176.0,67360.0
4.787149906158447,87.0,256896.0,557824.0,574976.0,311616.0,176064.0,44912.0
4.7901835441589355,60.0,205120.0,521856.0,476544.0,314176.0,207552.0,44144.0
4.79325008392334,56.0,193536.0,455872.0,455232.0,274048.0,144000.0,51392.0
4.79628324508667,48.0,172288.0,403840.0,389376.0,225344.0,145280.0,33632.0
4.799316883087158,46.0,134784.0,347520.0,313600.0,216704.0,121344.0,27768.0
4.801700115203857,61.0,130080.0,314048.0,290304.0,183936.0,90512.0,30096.0
4.803216457366943,77.0,110064.0,253696.0,253568.0,186368.0,110992.0,21888.0
4.8047332763671875,87.0,93920.0,230656.0,233088.0,141120.0,77200.0,24964.0
4.806250095367432,93.0,107264.0,227840.0,198528.0,121072.0,52000.0,21784.0
4.807783126831055,42.0,95648.0,226368.0,194880.0,143872.0,49344.0,16340.0
4.809299945831299,46.0,69168.0,173120.0,156800.0,93808.0,56416.0,13968.0
4.810816764831543,72.0,60848.0,159616.0,139264.0,81616.0,49184.0,10496.0
4.812333106994629,73.0,52400.0,148864.0,158400.0,85072.0,47712.0,14440.0
4.813849925994873,52.0,64656.0,134272.0,137856.0,77632.0,42240.0,10776.0
4.815366744995117,30.0,44112.0,124768.0,115584.0,68816.0,44816.0,11108.0
4.816883563995361,76.0,56464.0,100800.0,92192.0,78576.0,28360.0,9056.0
4.818399906158447,58.0,42944.0,95952.0,83632.0,46432.0,34912.0,7824.0
4.819916725158691,775.0,30144.0,92784.0,84000.0,43152.0,23472.0,9892.0
4.8214335441589355,401.0,32644.0,64960.0,63328.0,35584.0,25640.0,1441.0
4.8229498863220215,27.0,23944.0,60416.0,50400.0,44544.0,21608.0,5525.0
4.824533462524414,50.0,31400.0,73440.0,68176.0,31260.0,22028.0,3138.0
4.8260498046875,78.0,25908.0,62064.0,47888.0,30972.0,12532.0,2665.0
4.827566623687744,41.0,19436.0,46224.0,39088.0,33376.0,13396.0,3348.0
4.829083442687988,5.0,22472.0,57136.0,37904.0,22284.0,14304.0,4031.0
4.830599784851074,37.0,18284.0,41856.0,37648.0,23204.0,12156.0,3696.0
4.832116603851318,70.0,11496.0,34608.0,36336.0,21544.0,8664.0,2491.0
4.8336334228515625,88.0,7595.0,40544.0,35008.0,20320.0,12304.0,1621.0
4.835149765014648,23.0,20288.0,29940.0,39472.0,19092.0,14936.0,3359.0
4.836666584014893,23.0,13596.0,36256.0,24076.0,12444.0,14396.0,2316.0
4.838183403015137,115.0,13196.0,34448.0,26952.0,22904.0,12724.0,1673.0
4.839700222015381,76.0,11436.0,23220.0,19576.0,12060.0,9280.0,1715.0
4.841266632080078,37.0,8744.0,29092.0,21568.0,13412.0,7587.0,1132.0
4.842783451080322,33.0,13092.0,26780.0,22928.0,14528.0,9912.0,1293.0
4.844316482543945,29.0,8464.0,21024.0,13628.0,15108.0,7037.0,967.0
4.8458333015441895,38.0,12332.0,25452.0,25256.0,15688.0,13620.0,1058.0
4.8473334312438965,39.0,5599.0,22396.0,21516.0,10228.0,12648.0,1471.0
4.848849773406982,41.0,8400.0,19296.0,20072.0,19264.0,10800.0,1777.0
4.850366592407227,55.0,11356.0,23148.0,18500.0,9248.0,5036.0,1504.0
4.851900100708008,51.0,7154.0,16700.0,23716.0,7434.0,8948.0,399.0
4.853400230407715,71.0,8840.0,20132.0,16216.0,13612.0,4284.0,1020.0
4.854916572570801,214.0,4285.0,22528.0,13708.0,15644.0,8836.0,1641.0
4.856433391571045,109.0,8026.0,7815.0,20204.0,14600.0,6106.0,1645.0
4.858016490936279,5.0,3256.0,23184.0,13496.0,9472.0,7527.0,247.0
4.859533309936523,0.0,7121.0,17568.0,13180.0,14408.0,5174.0,374.0
4.861050128936768,45.0,6334.0,17748.0,16996.0,6863.0,7519.0,500.0
4.8625664710998535,36.0,5547.0,16700.0,17132.0,5359.0,2587.0,1145.0
4.864083290100098,26.0,8092.0,9224.0,13760.0,4755.0,4019.0,823.0
4.865600109100342,50.0,4361.0,14792.0,15716.0,6174.0,3972.0,502.0
4.867116451263428,39.0,2890.0,14104.0,17620.0,9648.0,4312.0,1297.0
4.868633270263672,29.0,2395.0,15400.0,16856.0,10544.0,4652.0,871.0
4.870150089263916,40.0,3882.0,14572.0,8908.0,5341.0,723.0,445.0
4.871666431427002,51.0,3983.0,16288.0,9772.0,11920.0,2248.0,402.0
4.873183250427246,48.0,4083.0,18164.0,9956.0,9432.0,3772.0,733.0
4.874750137329102,41.0,8520.0,10288.0,9068.0,8232.0,5388.0,2111.0
4.876283168792725,44.0,9112.0,14372.0,6971.0,7261.0,5160.0,2115.0
4.877799987792969,51.0,6891.0,12152.0,14780.0,8512.0,4933.0,877.0
4.879316806793213,53.0,6286.0,12708.0,13960.0,6739.0,4277.0,2135.0
4.880833148956299,46.0,3380.0,13264.0,10076.0,7622.0,3621.0,1664.0
4.882349967956543,36.0,4353.0,11728.0,14192.0,6800.0,4690.0,976.0
4.883866786956787,25.0,6665.0,10196.0,13008.0,4926.0,5053.0,1171.0
4.885383129119873,13.0,8244.0,10720.0,6641.0,9044.0,2160.0,1367.0
4.886899948120117,25.0,2322.0,10752.0,18412.0,8264.0,2206.0,24.0
4.888416767120361,38.0,7100.0,9880.0,10592.0,7484.0,2728.0,969.0
4.889933109283447,5.0,4537.0,9008.0,6425.0,9052.0,1801.0,1915.0
4.891449928283691,24.0,3039.0,13904.0,8976.0,4264.0,399.0,713.0
4.893016815185547,22.0,7604.0,12824.0,9912.0,4846.0,4947.0,625.0
4.894533157348633,20.0,8536.0,12508.0,7902.0,3427.0,5470.0,268.0
4.896049976348877,31.0,6810.0,15676.0,5893.0,4482.0,5082.0,662.0
4.897566795349121,6.0,4993.0,8792.0,10488.0,5036.0,3435.0,771.0
4.899083137512207,35.0,6022.0,6095.0,12636.0,5591.0,2046.0,1142.0
4.900599956512451,56.0,5525.0,11112.0,10504.0,4343.0,1366.0,19.0
4.902116775512695,38.0,5593.0,10636.0,11768.0,2700.0,4141.0,546.0
4.903633117675781,22.0,5599.0,6580.0,6112.0,3706.0,1399.0,1074.0
4.905149936676025,66.0,5303.0,12288.0,12424.0,4711.0,4412.0,1703.0
4.9066667556762695,49.0,7222.0,10804.0,3047.0,4925.0,668.0,1277.0
4.9081830978393555,58.0,3196.0,7999.0,5115.0,2762.0,4468.0,52.0
4.909766674041748,67.0,1991.0,7634.0,4855.0,3230.0,3520.0,1197.0
4.911283493041992,40.0,1730.0,4868.0,5037.0,4829.0,2806.0,1277.0
4.912799835205078,78.0,2347.0,2999.0,5219.0,4240.0,1964.0,57.0
4.914316654205322,64.0,2964.0,9512.0,5260.0,4781.0,3795.0,128.0
4.915833473205566,91.0,5268.0,12496.0,3897.0,5322.0,2524.0,29.0
4.917349815368652,27.0,4942.0,11264.0,5018.0,1509.0,2157.0,48.0
4.9188666343688965,945.0,4259.0,6092.0,4443.0,4661.0,31.0,845.0
4.920383453369141,1065.0,2069.0,7006.0,3867.0,1364.0,2691.0,820.0
4.921899795532227,39.0,4221.0,8708.0,3743.0,3460.0,2594.0,424.0
4.923416614532471,679.0,764.0,9868.0,3618.0,4213.0,416.0,29.0
4.924933433532715,21.0,1590.0,1826.0,4130.0,326.0,1296.0,29.0
4.926499843597412,19.0,3248.0,9056.0,7762.0,4892.0,1071.0,64.0
4.928016662597656,30.0,613.0,5301.0,8328.0,783.0,621.0,34.0
4.9295334815979,781.0,3519.0,4786.0,3548.0,2452.0,1063.0,5.0
4.931049823760986,675.0,3178.0,3163.0,2180.0,5138.0,1569.0,61.0
4.9325666427612305,874.0,2082.0,4417.0,3531.0,1791.0,2291.0,43.0
4.934083461761475,72.0,815.0,4065.0,5352.0,3061.0,2304.0,201.0
4.9355998039245605,11.0,10.0,3714.0,5040.0,3050.0,544.0,576.0
4.937116622924805,60.0,2889.0,3159.0,2867.0,641.0,2386.0,530.0
4.938633441925049,46.0,2198.0,3581.0,6290.0,3949.0,1317.0,484.0
4.940149784088135,51.0,2504.0,4004.0,5791.0,4011.0,1408.0,543.0
4.941666603088379,8.0,1849.0,4048.0,5569.0,166.0,1498.0,230.0
4.9432501792907715,59.0,17.0,4273.0,2565.0,6178.0,20.0,128.0
4.944766521453857,50.0,2343.0,4177.0,5179.0,1301.0,2226.0,25.0
4.946283340454102,55.0,1059.0,4081.0,4044.0,3001.0,1567.0,33.0
4.947800159454346,67.0,1142.0,5389.0,3259.0,500.0,1599.0,17.0
4.949316501617432,31.0,1697.0,4319.0,4612.0,1791.0,1631.0,23.0
4.950833320617676,39.0,961.0,3249.0,1499.0,1812.0,1218.0,29.0
4.95235013961792,36.0,1643.0,4403.0,2397.0,1834.0,743.0,32.0
4.953866481781006,50.0,2325.0,5304.0,2762.0,1773.0,269.0,35.0
4.95538330078125,0.0,2801.0,6242.0,3128.0,1713.0,48.0,28.0
4.956900119781494,33.0,1288.0,5634.0,3853.0,712.0,2647.0,243.0
4.95841646194458,1061.0,1327.0,3332.0,4579.0,1004.0,3409.0,458.0
4.960000038146973,542.0,1366.0,4290.0,4723.0,1988.0,2309.0,481.0
4.961516857147217,24.0,1299.0,4691.0,4867.0,2972.0,1434.0,505.0
4.963033199310303,50.0,1232.0,3968.0,2918.0,3120.0,110.0,38.0
4.964550018310547,628.0,1683.0,3245.0,2060.0,3269.0,2594.0,75.0
4.966066837310791,5.0,1373.0,3917.0,3006.0,2290.0,516.0,33.0
4.967583179473877,35.0,1063.0,4590.0,3671.0,2221.0,1195.0,6.0
4.969099998474121,0.0,3088.0,1507.0,2737.0,1629.0,54.0,31.0
4.970616817474365,5.0,3920.0,2005.0,1804.0,1277.0,405.0,55.0
4.972133159637451,17.0,4753.0,2503.0,3592.0,1491.0,756.0,42.0
4.973649978637695,30.0,435.0,3698.0,4021.0,760.0,685.0,30.0
4.9751667976379395,252.0,727.0,4232.0,4450.0,995.0,614.0,22.0
4.976733207702637,154.0,672.0,1053.0,2145.0,1231.0,1918.0,10.0
4.978250026702881,57.0,1160.0,2704.0,2892.0,641.0,1280.0,11.0
4.979783535003662,27.0,593.0,3388.0,3626.0,50.0,642.0,13.0
4.981299877166748,29.0,27.0,3765.0,2715.0,1119.0,1680.0,42.0
4.982800006866455,90.0,706.0,1517.0,3531.0,1137.0,988.0,33.0
4.984316825866699,58.0,591.0,4400.0,4048.0,1156.0,238.0,24.0
4.985833168029785,26.0,40.0,3262.0,3460.0,74.0,12.0,42.0
4.987349987030029,52.0,2514.0,2124.0,2872.0,412.0,35.0,30.0
4.988866806030273,0.0,2411.0,1153.0,39.0,1368.0,27.0,18.0
4.990383148193359,19.0,1282.0,181.0,2361.0,2639.0,19.0,31.0
4.9918999671936035,14.0,10.0,2758.0,2473.0,3215.0,1073.0,35.0
4.993466854095459,36.0,677.0,2862.0,3110.0,459.0,1367.0,39.0
4.994999885559082,31.0,1505.0,2493.0,3317.0,20.0,577.0,11.0
4.996516704559326,26.0,1465.0,2569.0,3525.0,831.0,1378.0,37.0
4.99803352355957,12.0,1426.0,3910.0,2615.0,2816.0,1766.0,35.0
