,303.1099853515625,304.1099853515625,305.1099853515625,306.1099853515625,307.1099853515625,308.1099853515625
0.5012999773025513,5.0,28.0,5.0,11.0,26.0,19.0
0.5026000142097473,37.0,42.0,13.0,37.0,12.0,20.0
0.5038999915122986,31.0,29.0,5.0,0.0,23.0,0.0
0.5052000284194946,28.0,22.0,27.0,0.0,5.0,11.0
0.5065000057220459,25.0,37.0,21.0,30.0,11.0,21.0
0.5077999830245972,23.0,5.0,16.0,24.0,26.0,25.0
0.5091000199317932,22.0,5.0,20.0,29.0,20.0,33.0
0.5103999972343445,32.0,38.0,24.0,34.0,35.0,27.0
0.5116999745368958,36.0,10.0,35.0,0.0,38.0,22.0
0.5130000114440918,41.0,17.0,47.0,10.0,31.0,11.0
0.5142999887466431,30.0,25.0,45.0,18.0,10.0,0.0
0.5156000256538391,11.0,49.0,0.0,35.0,49.0,21.0
0.5169000029563904,20.0,53.0,25.0,34.0,0.0,15.0
0.5182666778564453,29.0,0.0,6.0,23.0,13.0,14.0
0.5195666551589966,38.0,5.0,11.0,42.0,5.0,20.0
0.5208666920661926,27.0,23.0,17.0,23.0,18.0,26.0
0.5221666693687439,40.0,0.0,15.0,30.0,7.0,35.0
0.5234666466712952,33.0,26.0,5.0,45.0,6.0,0.0
0.5247666835784912,26.0,13.0,10.0,36.0,5.0,33.0
0.5260666608810425,13.0,0.0,20.0,27.0,10.0,20.0
0.5273666381835938,0.0,22.0,30.0,19.0,15.0,9.0
0.5286666750907898,42.0,15.0,39.0,12.0,10.0,12.0
0.5299666523933411,26.0,17.0,34.0,18.0,5.0,7.0
0.5312666893005371,33.0,5.0,27.0,15.0,6.0,31.0
0.5325666666030884,23.0,0.0,17.0,13.0,5.0,40.0
0.5338666439056396,16.0,7.0,8.0,5.0,5.0,29.0
0.5352333188056946,0.0,5.0,14.0,15.0,7.0,0.0
0.5365333557128906,11.0,15.0,0.0,13.0,17.0,10.0
0.5378333330154419,16.0,20.0,17.0,0.0,28.0,21.0
0.5391333103179932,10.0,13.0,15.0,7.0,26.0,24.0
0.5404333472251892,41.0,5.0,25.0,13.0,32.0,0.0
0.5417333245277405,42.0,25.0,8.0,9.0,24.0,34.0
0.5430333614349365,12.0,13.0,5.0,6.0,16.0,0.0
0.5443333387374878,26.0,26.0,10.0,39.0,28.0,13.0
0.5456333160400391,0.0,24.0,15.0,33.0,5.0,5.0
0.5469333529472351,0.0,23.0,25.0,0.0,17.0,16.0
0.5482333302497864,30.0,29.0,21.0,0.0,16.0,25.0
0.5495333075523376,32.0,15.0,11.0,37.0,15.0,35.0
0.5508333444595337,33.0,5.0,5.0,34.0,15.0,23.0
0.5522000193595886,16.0,34.0,19.0,6.0,14.0,12.0
0.5534833073616028,49.0,29.0,32.0,0.0,13.0,15.0
0.5547833442687988,5.0,23.0,26.0,31.0,6.0,0.0
0.5560833215713501,13.0,8.0,26.0,22.0,0.0,5.0
0.5573833584785461,8.0,10.0,13.0,29.0,13.0,11.0
0.5586833357810974,19.0,37.0,0.0,0.0,18.0,67.0
0.5599833130836487,30.0,19.0,5.0,15.0,9.0,33.0
0.5612999796867371,32.0,0.0,41.0,31.0,0.0,0.0
0.562583327293396,23.0,24.0,29.0,5.0,17.0,15.0
0.5638833045959473,34.0,0.0,18.0,20.0,11.0,22.0
0.5651833415031433,35.0,6.0,0.0,22.0,6.0,7.0
0.5665000081062317,37.0,26.0,21.0,23.0,13.0,9.0
0.5677833557128906,15.0,5.0,11.0,25.0,10.0,11.0
0.5691499710083008,32.0,5.0,7.0,47.0,18.0,5.0
0.5704500079154968,10.0,23.0,33.0,26.0,11.0,0.0
0.5717499852180481,24.0,10.0,32.0,5.0,5.0,7.0
0.5730500221252441,32.0,15.0,15.0,16.0,5.0,14.0
0.5743499994277954,13.0,8.0,16.0,18.0,2.0,42.0
0.5756499767303467,15.0,19.0,25.0,21.0,0.0,31.0
0.5769500136375427,14.0,0.0,9.0,20.0,0.0,22.0
0.578249990940094,12.0,24.0,14.0,19.0,0.0,0.0
0.57955002784729,23.0,15.0,24.0,23.0,0.0,21.0
0.5808500051498413,14.0,5.0,5.0,28.0,0.0,5.0
0.5821499824523926,5.0,32.0,10.0,10.0,15.0,20.0
0.5834500193595886,5.0,18.0,15.0,34.0,14.0,5.0
0.5847499966621399,5.0,15.0,13.0,36.0,13.0,11.0
0.5860999822616577,0.0,11.0,11.0,39.0,16.0,17.0
0.5874000191688538,31.0,19.0,12.0,55.0,19.0,21.0
0.588699996471405,18.0,15.0,18.0,39.0,12.0,25.0
0.5899999737739563,5.0,29.0,24.0,24.0,6.0,30.0
0.5913000106811523,42.0,25.0,20.0,25.0,5.0,35.0
0.5925999879837036,25.0,21.0,21.0,0.0,25.0,30.0
0.5939000248908997,742.0,19.0,11.0,0.0,46.0,22.0
0.5952000021934509,572.0,32.0,9.0,0.0,30.0,25.0
0.5964999794960022,5.0,0.0,8.0,20.0,15.0,28.0
0.5978000164031982,25.0,12.0,11.0,25.0,11.0,23.0
0.5990999937057495,22.0,19.0,11.0,31.0,15.0,0.0
0.6003999710083008,10.0,17.0,10.0,5.0,20.0,24.0
0.6017000079154968,20.0,18.0,9.0,5.0,18.0,37.0
0.6030666828155518,16.0,19.0,5.0,11.0,16.0,31.0
0.604366660118103,20.0,20.0,0.0,12.0,25.0,16.0
0.6056666374206543,5.0,22.0,5.0,10.0,21.0,19.0
0.6069666743278503,5.0,25.0,11.0,14.0,17.0,10.0
0.6082666516304016,9.0,0.0,5.0,19.0,6.0,6.0
0.6095666885375977,13.0,60.0,0.0,27.0,6.0,18.0
0.6108666658401489,17.0,44.0,7.0,31.0,7.0,11.0
0.6121666431427002,21.0,25.0,14.0,12.0,6.0,17.0
0.6134666800498962,19.0,6.0,21.0,42.0,5.0,20.0
0.6147666573524475,18.0,15.0,35.0,5.0,11.0,23.0
0.6160666942596436,25.0,20.0,32.0,27.0,18.0,11.0
0.6173666715621948,5.0,15.0,45.0,33.0,16.0,31.0
0.6186666488647461,26.0,10.0,10.0,13.0,11.0,27.0
0.620033323764801,32.0,10.0,40.0,10.0,29.0,24.0
0.6213333606719971,37.0,18.0,6.0,11.0,27.0,0.0
0.6226333379745483,14.0,14.0,20.0,41.0,0.0,12.0
0.6239333152770996,0.0,23.0,41.0,41.0,25.0,36.0
0.6252333521842957,10.0,20.0,35.0,5.0,16.0,39.0
0.6265333294868469,20.0,26.0,29.0,5.0,8.0,22.0
0.6278333067893982,23.0,48.0,29.0,39.0,13.0,13.0
0.6291333436965942,10.0,56.0,24.0,29.0,13.0,10.0
0.6304333209991455,6.0,64.0,19.0,20.0,0.0,9.0
0.6317333579063416,5.0,7.0,18.0,5.0,13.0,8.0
0.6330333352088928,20.0,15.0,13.0,18.0,8.0,5.0
0.6343333125114441,20.0,11.0,5.0,19.0,0.0,13.0
0.6356333494186401,30.0,5.0,0.0,21.0,0.0,13.0
0.636983335018158,16.0,15.0,3.0,24.0,0.0,13.0
0.6382833123207092,28.0,30.0,6.0,0.0,30.0,19.0
0.6395999789237976,26.0,30.0,28.0,30.0,38.0,17.0
0.6408833265304565,23.0,5.0,27.0,7.0,32.0,16.0
0.6421833038330078,21.0,27.0,26.0,27.0,27.0,22.0
0.6434833407402039,17.0,15.0,0.0,6.0,12.0,19.0
0.6447833180427551,6.0,8.0,5.0,28.0,10.0,17.0
0.6460833549499512,17.0,17.0,33.0,38.0,32.0,13.0
0.6474000215530396,32.0,0.0,0.0,32.0,32.0,9.0
0.6486833095550537,21.0,0.0,24.0,10.0,15.0,5.0
0.6499833464622498,10.0,0.0,0.0,16.0,32.0,10.0
0.651283323764801,10.0,16.0,8.0,28.0,25.0,8.0
0.6525833606719971,5.0,17.0,11.0,17.0,22.0,5.0
0.6539499759674072,7.0,19.0,15.0,6.0,20.0,5.0
0.6552500128746033,10.0,30.0,42.0,10.0,5.0,16.0
0.6565499901771545,12.0,0.0,28.0,14.0,8.0,41.0
0.6578500270843506,14.0,41.0,15.0,0.0,39.0,44.0
0.6591500043869019,5.0,32.0,22.0,16.0,29.0,34.0
0.6604499816894531,19.0,5.0,29.0,8.0,23.0,17.0
0.6617500185966492,16.0,22.0,6.0,0.0,38.0,28.0
0.6630499958992004,8.0,39.0,8.0,5.0,53.0,40.0
0.6643499732017517,0.0,5.0,10.0,10.0,5.0,18.0
0.6656500101089478,27.0,39.0,10.0,5.0,5.0,23.0
0.666949987411499,23.0,8.0,8.0,34.0,8.0,16.0
0.6682500243186951,18.0,23.0,25.0,24.0,0.0,10.0
0.6695500016212463,11.0,5.0,31.0,14.0,16.0,13.0
0.6709166765213013,21.0,32.0,28.0,12.0,17.0,17.0
0.6722166538238525,0.0,16.0,12.0,37.0,18.0,0.0
0.6735166907310486,12.0,0.0,10.0,30.0,21.0,0.0
0.6748166680335999,13.0,2.0,22.0,24.0,25.0,0.0
0.6761166453361511,9.0,5.0,17.0,20.0,12.0,0.0
0.6774166822433472,6.0,5.0,18.0,5.0,17.0,0.0
0.6787166595458984,16.0,6.0,5.0,27.0,22.0,5.0
0.6800166964530945,23.0,68.0,19.0,39.0,30.0,11.0
0.6813166737556458,30.0,52.0,10.0,0.0,20.0,12.0
0.682616651058197,32.0,36.0,12.0,14.0,10.0,18.0
0.6839166879653931,35.0,38.0,20.0,11.0,11.0,50.0
0.6852166652679443,35.0,10.0,5.0,17.0,15.0,49.0
0.6865166425704956,36.0,7.0,15.0,8.0,19.0,48.0
0.6878666877746582,29.0,7.0,21.0,36.0,12.0,10.0
0.6891666650772095,23.0,8.0,20.0,46.0,5.0,11.0
0.6904666423797607,38.0,5.0,20.0,22.0,9.0,17.0
0.6917666792869568,15.0,10.0,25.0,24.0,14.0,22.0
0.6930666565895081,28.0,10.0,41.0,32.0,7.0,21.0
0.6943666934967041,21.0,10.0,36.0,30.0,22.0,0.0
0.6956666707992554,16.0,22.0,16.0,29.0,31.0,6.0
0.6969666481018066,12.0,29.0,11.0,0.0,41.0,18.0
0.6982666850090027,22.0,22.0,7.0,5.0,20.0,11.0
0.699566662311554,20.0,14.0,0.0,2.0,0.0,15.0
0.7008666396141052,18.0,29.0,14.0,0.0,29.0,17.0
0.7021666765213013,21.0,16.0,18.0,31.0,19.0,20.0
0.7034666538238525,21.0,15.0,0.0,34.0,9.0,26.0
0.7048333287239075,20.0,15.0,10.0,26.0,11.0,17.0
0.7061333060264587,5.0,12.0,21.0,23.0,36.0,9.0
0.7074333429336548,39.0,10.0,42.0,14.0,21.0,7.0
0.708733320236206,27.0,8.0,29.0,9.0,5.0,5.0
0.7100333571434021,15.0,6.0,16.0,5.0,35.0,0.0
0.7113333344459534,18.0,32.0,50.0,12.0,6.0,241.0
0.7126333117485046,14.0,38.0,38.0,17.0,17.0,124.0
0.7139333486557007,10.0,44.0,28.0,22.0,13.0,6.0
0.715233325958252,7.0,15.0,38.0,17.0,9.0,69.0
0.716533362865448,5.0,33.0,21.0,16.0,10.0,33.0
0.7178333401679993,13.0,41.0,26.0,21.0,12.0,24.0
0.7191333174705505,17.0,32.0,8.0,22.0,38.0,44.0
0.7204333543777466,22.0,34.0,23.0,22.0,25.0,28.0
0.7218000292778015,11.0,0.0,35.0,15.0,13.0,10.0
0.7231000065803528,10.0,38.0,5.0,8.0,33.0,0.0
0.724399983882904,10.0,42.0,23.0,36.0,15.0,16.0
0.7257000207901001,7.0,10.0,15.0,48.0,21.0,10.0
0.7269999980926514,13.0,19.0,11.0,41.0,7.0,0.0
0.7282999753952026,20.0,23.0,26.0,19.0,3.0,5.0
0.7296000123023987,25.0,5.0,35.0,29.0,0.0,9.0
0.73089998960495,31.0,177.0,45.0,8.0,2.0,7.0
0.732200026512146,0.0,107.0,5.0,20.0,5.0,9.0
0.7335000038146973,48.0,37.0,8.0,33.0,5.0,11.0
0.7347999811172485,22.0,53.0,37.0,24.0,5.0,10.0
0.7361000180244446,42.0,20.0,23.0,15.0,5.0,10.0
0.7373999953269958,23.0,15.0,19.0,15.0,5.0,10.0
0.7387666702270508,5.0,10.0,16.0,28.0,15.0,34.0
0.740066647529602,2.0,14.0,20.0,5.0,18.0,32.0
0.7413666844367981,0.0,0.0,10.0,17.0,15.0,30.0
0.7426666617393494,22.0,19.0,0.0,13.0,13.0,0.0
0.7439666390419006,17.0,25.0,5.0,0.0,5.0,40.0
0.7452666759490967,5.0,33.0,0.0,19.0,20.0,38.0
0.746566653251648,0.0,5.0,12.0,27.0,8.0,36.0
0.747866690158844,51.0,10.0,25.0,5.0,12.0,31.0
0.7491666674613953,42.0,13.0,27.0,12.0,6.0,18.0
0.7504666447639465,0.0,17.0,30.0,20.0,13.0,0.0
0.7517666816711426,23.0,20.0,25.0,21.0,26.0,35.0
0.7530666589736938,16.0,23.0,20.0,0.0,27.0,39.0
0.7543666958808899,15.0,16.0,40.0,5.0,28.0,42.0
0.7557166814804077,15.0,9.0,20.0,5.0,32.0,0.0
0.757016658782959,18.0,25.0,0.0,13.0,10.0,29.0
0.758316695690155,21.0,12.0,15.0,22.0,27.0,25.0
0.7596166729927063,22.0,10.0,21.0,42.0,26.0,18.0
0.7609166502952576,10.0,23.0,21.0,33.0,16.0,0.0
0.7622166872024536,11.0,17.0,21.0,23.0,12.0,15.0
0.7635166645050049,13.0,12.0,29.0,23.0,13.0,15.0
0.7648166418075562,7.0,17.0,31.0,36.0,14.0,18.0
0.7661166787147522,18.0,20.0,5.0,7.0,7.0,11.0
0.7674166560173035,29.0,23.0,23.0,17.0,0.0,19.0
0.7687166929244995,37.0,30.0,21.0,20.0,23.0,0.0
0.7700166702270508,42.0,0.0,26.0,24.0,17.0,16.0
0.771316647529602,20.0,33.0,28.0,15.0,11.0,5.0
0.772683322429657,15.0,35.0,10.0,26.0,14.0,0.0
0.773983359336853,10.0,38.0,7.0,0.0,17.0,0.0
0.7752833366394043,5.0,5.0,18.0,5.0,20.0,27.0
0.7765833139419556,0.0,62.0,23.0,11.0,8.0,22.0
0.7778833508491516,5.0,35.0,17.0,10.0,10.0,28.0
0.7791833281517029,10.0,20.0,15.0,15.0,13.0,20.0
0.7804833054542542,15.0,36.0,16.0,0.0,0.0,12.0
0.7817833423614502,20.0,5.0,17.0,18.0,30.0,1157.0
0.7830833196640015,16.0,1960.0,724.0,56.0,1986.0,1005.0
0.7843833565711975,16.0,8500.0,8660.0,4997.0,10320.0,1496.0
0.7856833338737488,34.0,26336.0,53328.0,29268.0,27896.0,13140.0
0.7869833111763,26.0,93232.0,127680.0,83904.0,71984.0,24424.0
0.7882833480834961,19.0,215936.0,371840.0,191104.0,160640.0,50576.0
0.789650022983551,46.0,464576.0,701184.0,401920.0,297408.0,87776.0
0.7909500002861023,99.0,703232.0,1091328.0,572416.0,447296.0,122560.0
0.7922499775886536,349.0,929536.0,1271808.0,748800.0,547072.0,158976.0
0.7935500144958496,769.0,1138688.0,1544448.0,809472.0,598784.0,176448.0
0.7948499917984009,1264.0,1194240.0,1707520.0,903424.0,677120.0,223616.0
0.7961500287055969,1145.0,1360640.0,1895168.0,1016576.0,775680.0,218944.0
0.7974500060081482,159.0,1411840.0,1894400.0,1007360.0,805120.0,263360.0
0.7987499833106995,124.0,1506048.0,1905664.0,1158400.0,769024.0,256000.0
0.8000500202178955,143.0,1565184.0,1917184.0,1091584.0,839936.0,246400.0
0.8013499975204468,111.0,1603584.0,2090240.0,1140480.0,820480.0,228096.0
0.802649974822998,187.0,1566208.0,2101248.0,1102592.0,797696.0,258048.0
0.8039500117301941,217.0,1518080.0,2126848.0,1152256.0,775168.0,245248.0
0.8052499890327454,227.0,1470208.0,2002432.0,1180416.0,805888.0,218560.0
0.8066166639328003,1366.0,1580800.0,2024192.0,1140480.0,838656.0,241344.0
0.8079166412353516,1394.0,1630464.0,2129920.0,1212416.0,804608.0,255744.0
0.8092166781425476,189.0,1605376.0,2121728.0,1205504.0,770304.0,238784.0
0.8105166554450989,121.0,1461248.0,1986048.0,1141504.0,796928.0,222272.0
0.8118166923522949,736.0,1555200.0,2102272.0,1155584.0,792832.0,233088.0
0.8131166696548462,875.0,1499904.0,1890304.0,1115904.0,753920.0,239680.0
0.8144166469573975,150.0,1486080.0,1948160.0,1115648.0,756224.0,235712.0
0.8157333135604858,248.0,1416192.0,1810944.0,1011456.0,799488.0,231744.0
0.8170333504676819,181.0,1288960.0,1858816.0,998912.0,710912.0,223616.0
0.8183333277702332,171.0,1410048.0,1798912.0,980480.0,770304.0,232960.0
0.8196166753768921,161.0,1270784.0,1698048.0,882688.0,645120.0,208000.0
0.8209333419799805,455.0,1184768.0,1738752.0,938240.0,668672.0,189568.0
0.8222333192825317,342.0,1216256.0,1544704.0,878336.0,598272.0,172224.0
0.8235666751861572,228.0,1169664.0,1555456.0,833792.0,548608.0,201536.0
0.8248500227928162,185.0,1141760.0,1468672.0,779776.0,593920.0,173888.0
0.8261666893959045,142.0,1086720.0,1485056.0,726272.0,531968.0,167040.0
0.8274499773979187,128.0,1088768.0,1381632.0,810752.0,520576.0,160704.0
0.8287666440010071,186.0,1011712.0,1369856.0,800256.0,561408.0,145408.0
0.8300666809082031,159.0,997120.0,1341440.0,793856.0,536064.0,152384.0
0.8313666582107544,132.0,1093888.0,1462528.0,752128.0,549120.0,159296.0
0.8326666951179504,238.0,1084928.0,1495552.0,772096.0,613376.0,177408.0
0.8339666724205017,243.0,1056512.0,1487104.0,791808.0,645632.0,185344.0
0.835266649723053,249.0,1172736.0,1605376.0,843776.0,636928.0,186432.0
0.836566686630249,211.0,1191168.0,1664768.0,873984.0,674560.0,183744.0
0.8378499746322632,174.0,1225472.0,1617152.0,974848.0,700160.0,193536.0
0.8391833305358887,231.0,1221376.0,1791232.0,923392.0,691200.0,193792.0
0.8404833078384399,226.0,1282816.0,1774592.0,986880.0,652544.0,194048.0
0.841783344745636,221.0,1270528.0,1740288.0,966144.0,668672.0,208768.0
0.8430833220481873,202.0,1214976.0,1726720.0,923648.0,685056.0,206080.0
0.8443833589553833,183.0,1279744.0,1773056.0,981248.0,711424.0,203456.0
0.8456833362579346,173.0,1241856.0,1616128.0,950016.0,710656.0,210944.0
0.8469833135604858,163.0,1220864.0,1628160.0,933120.0,709632.0,201792.0
0.8482833504676819,117.0,1151232.0,1644032.0,882944.0,627712.0,209408.0
0.8495833277702332,109.0,1194240.0,1643008.0,910336.0,607488.0,179584.0
0.8508833050727844,98.0,1119232.0,1540096.0,815872.0,618240.0,193600.0
0.8521833419799805,87.0,1106432.0,1529600.0,877568.0,614144.0,183104.0
0.8534833192825317,157.0,1024512.0,1477120.0,840448.0,573440.0,185024.0
0.8547833561897278,146.0,997376.0,1441536.0,735744.0,550144.0,173568.0
0.8561499714851379,135.0,965120.0,1418752.0,746496.0,575488.0,169792.0
0.857450008392334,171.0,994304.0,1306880.0,726528.0,518400.0,152832.0
0.8587499856948853,163.0,868352.0,1215232.0,639232.0,478912.0,158784.0
0.8600500226020813,155.0,864256.0,1192448.0,667392.0,443328.0,134976.0
0.8613499999046326,153.0,837120.0,1091072.0,654080.0,459264.0,130432.0
0.8626499772071838,109.0,812800.0,1052928.0,577792.0,415552.0,116192.0
0.8639500141143799,137.0,743936.0,1050624.0,575232.0,387264.0,117264.0
0.8652499914169312,137.0,709376.0,975360.0,532480.0,381888.0,111440.0
0.8665500283241272,164.0,659712.0,875008.0,483648.0,347584.0,99968.0
0.8678500056266785,171.0,597760.0,875264.0,483968.0,338240.0,108784.0
0.8691499829292297,356.0,579840.0,831488.0,414272.0,269184.0,89120.0
0.8704500198364258,255.0,598528.0,761344.0,428096.0,305664.0,88800.0
0.871749997138977,154.0,515328.0,659968.0,380160.0,276416.0,90496.0
0.873116672039032,118.0,448128.0,704256.0,405568.0,229824.0,75792.0
0.8744166493415833,190.0,452736.0,638464.0,351232.0,223424.0,64944.0
0.8757166862487793,138.0,449920.0,597248.0,344192.0,243712.0,64416.0
0.8770166635513306,86.0,403648.0,548096.0,328576.0,227648.0,67696.0
0.8783166408538818,123.0,425600.0,564992.0,305408.0,223040.0,68448.0
0.8796166777610779,119.0,375424.0,558848.0,280896.0,206144.0,59520.0
0.8809166550636292,116.0,385216.0,522048.0,299072.0,194304.0,60160.0
0.8822166919708252,142.0,381504.0,474368.0,284032.0,173376.0,63680.0
0.8835166692733765,84.0,335808.0,475904.0,242176.0,215936.0,56928.0
0.8848166465759277,118.0,325824.0,463744.0,260928.0,169984.0,59536.0
0.8861166834831238,65.0,308800.0,451712.0,230848.0,184384.0,46192.0
0.887416660785675,43.0,305408.0,396608.0,220736.0,168576.0,46624.0
0.8887166380882263,66.0,264960.0,391744.0,232000.0,145088.0,36448.0
0.8900833129882812,55.0,250368.0,394944.0,221824.0,147520.0,50288.0
0.8913833498954773,45.0,263808.0,396160.0,190080.0,147264.0,36448.0
0.8926833271980286,70.0,271232.0,331008.0,186368.0,141504.0,42000.0
0.8939833045005798,95.0,278592.0,364288.0,193280.0,138944.0,37936.0
0.8952833414077759,95.0,258944.0,342464.0,175360.0,142400.0,35136.0
0.8965833187103271,58.0,228416.0,311808.0,166336.0,123712.0,33680.0
0.8978833556175232,78.0,231168.0,370688.0,170432.0,129264.0,32236.0
0.8991833329200745,99.0,242432.0,325440.0,168704.0,132224.0,33056.0
0.9004833102226257,107.0,215872.0,337600.0,166976.0,108576.0,33888.0
0.9017833471298218,79.0,213952.0,290560.0,144064.0,125056.0,32848.0
0.903083324432373,84.0,204864.0,271552.0,169920.0,116432.0,38320.0
0.9043833613395691,89.0,209792.0,300416.0,166016.0,102544.0,37040.0
0.9056833386421204,88.0,214720.0,288832.0,155264.0,100352.0,35760.0
0.9070333242416382,93.0,210752.0,277184.0,160512.0,102896.0,27164.0
0.9083333611488342,65.0,187776.0,241280.0,142592.0,103776.0,37280.0
0.9096333384513855,40.0,207104.0,258496.0,145216.0,103392.0,31548.0
0.9109333157539368,60.0,210752.0,269760.0,138176.0,103024.0,35424.0
0.9122333526611328,75.0,192960.0,269440.0,144384.0,98912.0,30836.0
0.9135333299636841,90.0,171584.0,257920.0,150976.0,94800.0,29340.0
0.9148333072662354,74.0,191424.0,266880.0,131712.0,97824.0,27304.0
0.9161333441734314,49.0,171200.0,275904.0,143488.0,100864.0,31608.0
0.9174333214759827,20.0,178176.0,257536.0,144960.0,90240.0,35920.0
0.9187333583831787,69.0,185088.0,259840.0,149952.0,97536.0,34672.0
0.92003333568573,90.0,191296.0,262080.0,138240.0,90112.0,33168.0
0.9213333129882812,77.0,182336.0,241792.0,127696.0,97824.0,24152.0
0.9226333498954773,31.0,173312.0,231232.0,130656.0,85360.0,25056.0
0.9240000247955322,80.0,161728.0,223424.0,123296.0,89792.0,30720.0
0.9253000020980835,48.0,167168.0,225088.0,123376.0,74976.0,34192.0
0.9265999794006348,57.0,172672.0,200832.0,126048.0,99360.0,31256.0
0.9279000163078308,49.0,164416.0,217280.0,128704.0,95648.0,29076.0
0.9291999936103821,56.0,161984.0,228544.0,127984.0,98752.0,35328.0
0.9304999709129333,178.0,180928.0,239744.0,126080.0,77472.0,20400.0
0.9318000078201294,123.0,175488.0,240640.0,124192.0,79280.0,36800.0
0.9330999851226807,68.0,181888.0,231488.0,116512.0,101360.0,26032.0
0.9344000220298767,17.0,175552.0,233408.0,138240.0,110224.0,36912.0
0.935699999332428,81.0,163840.0,235776.0,133184.0,89104.0,24732.0
0.9369999766349792,90.0,178688.0,237952.0,128736.0,96512.0,28996.0
0.9383000135421753,50.0,164608.0,240192.0,124304.0,99824.0,28108.0
0.9395999908447266,46.0,165952.0,238848.0,124448.0,95168.0,33440.0
0.9409666657447815,57.0,156608.0,237504.0,128256.0,93008.0,31980.0
0.9422666430473328,83.0,188288.0,239936.0,132032.0,95392.0,30512.0
0.9435666799545288,82.0,184384.0,234944.0,125408.0,92768.0,25060.0
0.9448666572570801,53.0,173312.0,229888.0,118768.0,90144.0,29848.0
0.9461666941642761,25.0,180608.0,219456.0,121424.0,91744.0,27860.0
0.9474666714668274,45.0,160512.0,239552.0,133376.0,96896.0,25868.0
0.9487666487693787,64.0,165248.0,229824.0,120256.0,102032.0,34576.0
0.9500666856765747,83.0,169920.0,220096.0,107120.0,74896.0,35392.0
0.951366662979126,76.0,158912.0,216320.0,129104.0,81280.0,27060.0
0.9526666402816772,53.0,163200.0,251776.0,109424.0,102816.0,27900.0
0.9539666771888733,75.0,167488.0,243264.0,136320.0,96544.0,27208.0
0.9552666544914246,35.0,170048.0,234688.0,108272.0,98864.0,31820.0
0.9565666913986206,44.0,172608.0,236928.0,124368.0,91472.0,31664.0
0.9579333066940308,50.0,174144.0,239104.0,116464.0,95872.0,27844.0
0.9592333436012268,53.0,185216.0,240640.0,123968.0,100272.0,31860.0
0.9605333209037781,23.0,169344.0,245120.0,138560.0,99936.0,35536.0
0.9618333578109741,42.0,153536.0,243520.0,133056.0,109776.0,34016.0
0.9631333351135254,55.0,186560.0,241856.0,135680.0,82816.0,30012.0
0.9644333124160767,60.0,196544.0,246592.0,135872.0,101184.0,31128.0
0.9657333493232727,64.0,196928.0,251392.0,136064.0,96560.0,26756.0
0.967033326625824,67.0,180608.0,255616.0,132992.0,91504.0,24936.0
0.9683333039283752,28.0,188864.0,224768.0,138496.0,91872.0,27900.0
0.9696333408355713,30.0,165888.0,226496.0,135168.0,92256.0,31708.0
0.9709333181381226,48.0,173504.0,263552.0,131840.0,81376.0,33232.0
0.9722333550453186,72.0,181184.0,254208.0,145664.0,88720.0,25744.0
0.9735333323478699,89.0,174080.0,244864.0,151616.0,96080.0,28192.0
0.9748833179473877,75.0,179072.0,251840.0,143616.0,103280.0,31092.0
0.9761833548545837,12.0,184000.0,258752.0,136704.0,98544.0,26800.0
0.977483332157135,97.0,179200.0,256960.0,132096.0,112304.0,30660.0
0.9787833094596863,112.0,193728.0,245888.0,146304.0,108400.0,23664.0
0.9800833463668823,128.0,159872.0,240704.0,135616.0,94352.0,22780.0
0.9813833236694336,72.0,188928.0,249792.0,140672.0,107600.0,28500.0
0.9826833605766296,34.0,176704.0,254784.0,146304.0,117072.0,27512.0
0.9839833378791809,103.0,198400.0,258944.0,150144.0,85904.0,26528.0
0.9852833151817322,306.0,195008.0,259008.0,144256.0,114064.0,36176.0
0.9865833520889282,180.0,200000.0,259072.0,141056.0,84832.0,36368.0
0.9878833293914795,55.0,184000.0,281856.0,137856.0,100224.0,26428.0
0.9891833066940308,29.0,191936.0,286016.0,148352.0,99760.0,24152.0
0.9904833436012268,91.0,199808.0,289792.0,131840.0,114928.0,31800.0
0.9918500185012817,88.0,196352.0,285568.0,132096.0,106992.0,26940.0
0.993149995803833,34.0,191360.0,269440.0,136832.0,93680.0,31244.0
0.9944499731063843,37.0,211584.0,255744.0,137152.0,113408.0,31788.0
0.9957500100135803,41.0,207040.0,244480.0,145216.0,91728.0,32336.0
0.9970499873161316,67.0,206976.0,267776.0,149376.0,87744.0,29816.0
0.9983500242233276,52.0,197824.0,273152.0,121344.0,88144.0,34736.0
0.9996500015258789,37.0,197632.0,283968.0,136192.0,101168.0,34544.0
1.0009499788284302,72.0,183104.0,277888.0,142400.0,114192.0,31712.0
1.0022499561309814,61.0,189056.0,296384.0,143936.0,111824.0,33776.0
1.0035500526428223,51.0,181376.0,244992.0,145536.0,124432.0,30920.0
1.0048500299453735,26.0,188416.0,249984.0,149376.0,118240.0,36800.0
1.0061500072479248,47.0,195456.0,314816.0,153216.0,108832.0,26292.0
1.007449984550476,69.0,199040.0,288192.0,144704.0,111264.0,26916.0
1.0088167190551758,17.0,203840.0,258240.0,136256.0,96000.0,24100.0
1.010116696357727,51.0,200704.0,274496.0,144576.0,120000.0,27336.0
1.0114166736602783,56.0,197632.0,250112.0,152960.0,105632.0,31940.0
1.0127166509628296,61.0,189440.0,260864.0,149248.0,116112.0,33904.0
1.0140166282653809,62.0,181248.0,271680.0,148736.0,110944.0,31508.0
1.0153167247772217,53.0,191680.0,271936.0,147776.0,113200.0,38064.0
1.016616702079773,96.0,200256.0,272128.0,146816.0,107232.0,24580.0
1.0179166793823242,74.0,213888.0,263296.0,150208.0,119904.0,36272.0
1.0192166566848755,51.0,206976.0,284416.0,153600.0,130528.0,36672.0
1.0205166339874268,39.0,200064.0,325568.0,167296.0,130208.0,33680.0
1.021816611289978,28.0,201856.0,325056.0,170112.0,100976.0,33136.0
1.0231167078018188,31.0,203648.0,279040.0,169728.0,109120.0,32608.0
1.0244166851043701,34.0,196992.0,306240.0,147904.0,106176.0,34064.0
1.0257833003997803,17.0,210176.0,286976.0,166784.0,119616.0,35520.0
1.0270832777023315,40.0,235584.0,287424.0,175744.0,121776.0,34896.0
1.0283833742141724,46.0,238464.0,287808.0,164928.0,110400.0,48704.0
1.0296833515167236,43.0,220288.0,291840.0,170112.0,129456.0,52720.0
1.030983328819275,55.0,244992.0,300416.0,159360.0,120960.0,39040.0
1.0322833061218262,82.0,234880.0,308928.0,162048.0,121296.0,37376.0
1.0335832834243774,87.0,233088.0,304640.0,160512.0,121632.0,34128.0
1.0348833799362183,11.0,212992.0,301760.0,174720.0,116400.0,34976.0
1.0361833572387695,79.0,193344.0,298816.0,174592.0,114528.0,35584.0
1.0374833345413208,26.0,240832.0,331392.0,178048.0,112672.0,36192.0
1.038783311843872,38.0,216256.0,325568.0,158080.0,126736.0,37904.0
1.0400832891464233,111.0,213056.0,319680.0,167872.0,134400.0,36560.0
1.0413833856582642,75.0,240768.0,328000.0,177664.0,124272.0,35216.0
1.0427500009536743,84.0,216512.0,314752.0,188928.0,124144.0,41600.0
1.0440499782562256,19.0,226432.0,319424.0,195392.0,125584.0,30352.0
1.0453499555587769,43.0,236352.0,324096.0,187776.0,127024.0,42800.0
1.0466500520706177,43.0,210176.0,322560.0,196928.0,126272.0,54816.0
1.047950029373169,61.0,244096.0,320960.0,179904.0,120976.0,47792.0
1.0492500066757202,60.0,266944.0,330176.0,199808.0,136000.0,41264.0
1.0505499839782715,59.0,277952.0,339392.0,187584.0,142784.0,38048.0
1.0518499612808228,76.0,250176.0,374528.0,175296.0,144384.0,51936.0
1.0531500577926636,83.0,237312.0,368320.0,178240.0,130336.0,51744.0
1.0544500350952148,28.0,274560.0,356544.0,179008.0,149248.0,33040.0
1.0557500123977661,60.0,246272.0,325376.0,179200.0,149952.0,40608.0
1.0570499897003174,92.0,231168.0,336256.0,179456.0,127184.0,36912.0
1.0583499670028687,126.0,253632.0,342208.0,171456.0,123872.0,36016.0
1.0597167015075684,119.0,261184.0,358400.0,178176.0,136512.0,35072.0
1.0610166788101196,72.0,259584.0,357376.0,172352.0,132736.0,34128.0
1.062316656112671,94.0,282240.0,367616.0,171008.0,129440.0,37056.0
1.0636166334152222,39.0,281216.0,370240.0,169728.0,155648.0,36784.0
1.0649166107177734,105.0,269632.0,361600.0,208064.0,152896.0,36528.0
1.0662167072296143,53.0,285504.0,352960.0,203392.0,150272.0,37792.0
1.0675166845321655,78.0,279424.0,374144.0,232256.0,157184.0,44016.0
1.0688166618347168,66.0,279104.0,377600.0,230272.0,154560.0,49728.0
1.070116639137268,88.0,301184.0,366016.0,207744.0,140032.0,43520.0
1.0714166164398193,98.0,252864.0,354368.0,228352.0,156992.0,37312.0
1.0727167129516602,108.0,259968.0,363200.0,218624.0,155264.0,42608.0
1.0740166902542114,88.0,310912.0,371968.0,223424.0,165440.0,43536.0
1.0753166675567627,76.0,281152.0,423360.0,190208.0,159936.0,43872.0
1.0766832828521729,87.0,308032.0,444480.0,251648.0,137216.0,44208.0
1.0779833793640137,102.0,316224.0,425600.0,252992.0,124896.0,43696.0
1.079283356666565,58.0,304896.0,415424.0,212928.0,139520.0,44752.0
1.0805833339691162,54.0,317440.0,411072.0,234752.0,154112.0,45824.0
1.0818833112716675,90.0,305664.0,415168.0,235200.0,147328.0,34944.0
1.0831832885742188,131.0,313536.0,427968.0,245824.0,140544.0,41168.0
1.0844833850860596,109.0,303936.0,384000.0,242560.0,155200.0,47392.0
1.0857833623886108,102.0,292800.0,427072.0,229952.0,155520.0,39552.0
1.087083339691162,95.0,289280.0,443904.0,237376.0,155904.0,45728.0
1.0883833169937134,135.0,319616.0,436096.0,198208.0,182400.0,51904.0
1.0896832942962646,39.0,314048.0,439680.0,231360.0,177600.0,50400.0
1.0909833908081055,26.0,308480.0,423232.0,236544.0,183872.0,49376.0
1.0922833681106567,5.0,311104.0,431488.0,213632.0,160128.0,48352.0
1.093649983406067,86.0,313728.0,438144.0,251968.0,186816.0,50752.0
1.0949499607086182,94.0,341312.0,444800.0,245696.0,170560.0,53168.0
1.096250057220459,103.0,350336.0,458880.0,266752.0,179840.0,51392.0
1.0975500345230103,111.0,332352.0,468032.0,241216.0,174784.0,49616.0
1.0988500118255615,875.0,317952.0,463232.0,254336.0,200256.0,46288.0
1.1001499891281128,755.0,319040.0,469568.0,268672.0,195008.0,54912.0
1.101449966430664,60.0,336064.0,468608.0,261888.0,179392.0,41376.0
1.1027499437332153,61.0,313024.0,467648.0,253056.0,188352.0,53344.0
1.1040500402450562,88.0,349952.0,461312.0,266880.0,195776.0,55488.0
1.1053500175476074,69.0,357696.0,465728.0,265664.0,184448.0,59712.0
1.1066499948501587,62.0,339840.0,462592.0,244352.0,196224.0,50912.0
1.10794997215271,42.0,353600.0,459456.0,246016.0,178944.0,50224.0
1.1092499494552612,112.0,364224.0,483968.0,255040.0,202368.0,49536.0
1.110616683959961,93.0,359232.0,491072.0,264000.0,179136.0,49360.0
1.1119166612625122,76.0,364608.0,498240.0,295104.0,182144.0,49200.0
1.1132166385650635,81.0,368192.0,493056.0,292096.0,185216.0,53664.0
1.1145166158676147,120.0,363520.0,495104.0,288256.0,215744.0,51184.0
1.1158167123794556,125.0,358912.0,499840.0,306240.0,239040.0,48704.0
1.1171166896820068,83.0,362496.0,491136.0,258240.0,218240.0,53568.0
1.118416666984558,34.0,347968.0,482368.0,277632.0,188736.0,58448.0
1.1197166442871094,56.0,347264.0,528896.0,252480.0,202368.0,67264.0
1.1210166215896606,78.0,360128.0,536320.0,299584.0,202816.0,68048.0
1.1223167181015015,52.0,365568.0,559872.0,288256.0,192640.0,59152.0
1.1236166954040527,63.0,371008.0,527616.0,263360.0,191936.0,63904.0
1.124916672706604,64.0,381056.0,520512.0,291136.0,196672.0,64912.0
1.1262166500091553,65.0,391104.0,513344.0,291136.0,227200.0,67088.0
1.127583384513855,75.0,431168.0,536320.0,338432.0,222848.0,60176.0
1.1288833618164062,85.0,418560.0,554240.0,319040.0,201664.0,45584.0
1.1301833391189575,88.0,386624.0,572416.0,300608.0,221760.0,60064.0
1.1314833164215088,62.0,435776.0,618240.0,319040.0,233792.0,55392.0
1.13278329372406,61.0,371904.0,598272.0,317440.0,228736.0,68624.0
1.1340833902359009,104.0,420032.0,523264.0,294464.0,223744.0,60352.0
1.1353833675384521,87.0,395904.0,587008.0,312064.0,225792.0,61600.0
1.1366833448410034,135.0,423232.0,567296.0,354816.0,251008.0,71024.0
1.1379833221435547,116.0,409664.0,611584.0,358976.0,255552.0,78480.0
1.139283299446106,136.0,421696.0,571904.0,308288.0,229120.0,72576.0
1.1405832767486572,181.0,435328.0,616960.0,329920.0,225024.0,69872.0
1.141883373260498,150.0,433152.0,638720.0,339840.0,219648.0,67184.0
1.1431833505630493,120.0,428096.0,618496.0,299264.0,241920.0,74768.0
1.1445499658584595,56.0,423040.0,614144.0,326400.0,260800.0,74336.0
1.1458499431610107,99.0,412864.0,593408.0,337152.0,245824.0,73904.0
1.1471500396728516,121.0,402624.0,572928.0,335680.0,234176.0,72928.0
1.1484500169754028,101.0,447680.0,624640.0,345792.0,244608.0,70400.0
1.149749994277954,103.0,474432.0,620032.0,335040.0,230528.0,64544.0
1.1510499715805054,92.0,459520.0,615424.0,324288.0,256064.0,76272.0
1.1523499488830566,81.0,453440.0,610304.0,350400.0,247808.0,67584.0
1.1536500453948975,91.0,446976.0,654080.0,352832.0,253248.0,89888.0
1.1549500226974487,103.0,489536.0,638208.0,355264.0,292608.0,91488.0
1.15625,70.0,493824.0,622080.0,362304.0,283008.0,62496.0
1.1575499773025513,96.0,502976.0,658432.0,372416.0,290112.0,72464.0
1.1588499546051025,88.0,478848.0,658944.0,365312.0,256832.0,76752.0
1.1601500511169434,80.0,484736.0,666880.0,358144.0,285440.0,83024.0
1.1615166664123535,79.0,466048.0,598528.0,340864.0,250112.0,80752.0
1.1627999544143677,78.0,488000.0,650752.0,369280.0,276096.0,78464.0
1.1641000509262085,66.0,488704.0,696320.0,372800.0,287040.0,77696.0
1.1654000282287598,54.0,489408.0,724992.0,372096.0,287104.0,88144.0
1.1667166948318481,54.0,504768.0,718080.0,389888.0,289664.0,89120.0
1.1680166721343994,60.0,487232.0,747264.0,383872.0,258176.0,94176.0
1.1692999601364136,67.0,469632.0,671488.0,377792.0,270336.0,79408.0
1.1706000566482544,64.0,499520.0,711680.0,383040.0,261888.0,76080.0
1.1719000339508057,62.0,528128.0,751872.0,381056.0,271744.0,76528.0
1.173200011253357,79.0,546304.0,728064.0,379072.0,281536.0,76096.0
1.1745166778564453,97.0,508416.0,699392.0,396800.0,286528.0,85984.0
1.1758166551589966,40.0,525312.0,752128.0,402368.0,282432.0,84432.0
1.1770999431610107,135.0,554752.0,775168.0,406016.0,278336.0,87264.0
1.1784332990646362,111.0,541184.0,766976.0,414976.0,296128.0,90112.0
1.1797332763671875,91.0,546560.0,766208.0,423936.0,312064.0,86096.0
1.1810333728790283,99.0,551680.0,765440.0,418752.0,315520.0,82096.0
1.1823333501815796,101.0,558848.0,834304.0,416320.0,306304.0,86992.0
1.1836333274841309,102.0,566016.0,844032.0,426624.0,297088.0,91888.0
1.1849333047866821,154.0,573440.0,829440.0,419392.0,295552.0,110160.0
1.1862332820892334,137.0,587776.0,809984.0,429056.0,314624.0,102768.0
1.1875333786010742,120.0,583424.0,849408.0,421632.0,298432.0,78944.0
1.1888333559036255,144.0,586240.0,826368.0,414208.0,282304.0,103088.0
1.1901333332061768,104.0,579840.0,847104.0,421504.0,328256.0,100416.0
1.191433310508728,133.0,573440.0,833792.0,428864.0,314752.0,100800.0
1.1927332878112793,103.0,614400.0,820736.0,424192.0,324160.0,99664.0
1.1940333843231201,74.0,651520.0,785152.0,419456.0,299968.0,94576.0
1.1953999996185303,104.0,662016.0,844800.0,433088.0,323712.0,97616.0
1.1966999769210815,76.0,632064.0,842752.0,446720.0,334144.0,100656.0
1.1979999542236328,152.0,630272.0,840448.0,490048.0,359104.0,100928.0
1.1993000507354736,131.0,667648.0,847104.0,505408.0,364288.0,101200.0
1.200600028038025,111.0,607744.0,854016.0,472384.0,351936.0,102976.0
1.2019000053405762,123.0,643840.0,933888.0,481792.0,326400.0,104736.0
1.2031999826431274,104.0,623104.0,944128.0,491200.0,359872.0,98144.0
1.2044999599456787,90.0,582400.0,869632.0,476224.0,336128.0,103536.0
1.2058000564575195,75.0,665344.0,889088.0,503552.0,388032.0,106528.0
1.2071000337600708,95.0,692992.0,958976.0,500096.0,375808.0,109536.0
1.208400011062622,114.0,661760.0,928000.0,504960.0,351104.0,104816.0
1.2096999883651733,183.0,681984.0,934400.0,505600.0,351488.0,100112.0
1.2109999656677246,149.0,613632.0,884480.0,501056.0,360768.0,112560.0
1.2123667001724243,114.0,641280.0,915456.0,522112.0,369216.0,118768.0
1.2136666774749756,131.0,656384.0,914432.0,510848.0,392640.0,120832.0
1.2149666547775269,148.0,671232.0,947200.0,499584.0,398848.0,124096.0
1.2162666320800781,115.0,687104.0,984832.0,502720.0,395136.0,105328.0
1.2175666093826294,82.0,702976.0,1029376.0,494528.0,393792.0,112368.0
1.2188667058944702,172.0,724736.0,991232.0,486400.0,392448.0,123296.0
1.2201666831970215,169.0,711168.0,1015296.0,501632.0,382400.0,120800.0
1.2214666604995728,161.0,711424.0,936448.0,499712.0,369984.0,116368.0
1.222766637802124,153.0,723968.0,1032960.0,570880.0,403072.0,133568.0
1.2240666151046753,159.0,736256.0,1020672.0,550912.0,396288.0,105392.0
1.2253667116165161,101.0,734720.0,991744.0,530688.0,417728.0,112960.0
1.2266666889190674,144.0,733440.0,972800.0,547840.0,397952.0,113440.0
1.2279666662216187,187.0,763904.0,1046272.0,558336.0,418176.0,100512.0
1.2293332815170288,206.0,761600.0,1073920.0,568832.0,423168.0,130768.0
1.2306333780288696,233.0,665088.0,1014016.0,576000.0,428160.0,139904.0
1.231933355331421,146.0,685824.0,1002752.0,574464.0,402368.0,115120.0
1.2332333326339722,169.0,791040.0,1015040.0,563456.0,409344.0,118736.0
1.2345333099365234,490.0,742912.0,990720.0,552448.0,410816.0,108176.0
1.2358332872390747,334.0,759808.0,1044224.0,542720.0,412352.0,123344.0
1.2371333837509155,177.0,776192.0,1059584.0,561920.0,392832.0,126912.0
1.2384333610534668,129.0,728832.0,1028864.0,579072.0,406016.0,128576.0
1.239733338356018,206.0,761856.0,1041152.0,594432.0,419264.0,129872.0
1.2410333156585693,238.0,697856.0,1071104.0,580096.0,434496.0,114480.0
1.2423332929611206,134.0,771072.0,1059328.0,575232.0,451520.0,122512.0
1.2436333894729614,214.0,749056.0,1040896.0,570368.0,387200.0,116048.0
1.2449333667755127,105.0,766720.0,1039872.0,527616.0,427264.0,119008.0
1.2462999820709229,293.0,734976.0,1039104.0,557824.0,425664.0,97360.0
1.2475999593734741,313.0,718336.0,1041664.0,563456.0,418560.0,121200.0
1.248900055885315,332.0,701952.0,1044480.0,569344.0,390400.0,103440.0
1.2502000331878662,130.0,771840.0,1051392.0,574208.0,424384.0,128304.0
1.2515000104904175,187.0,781568.0,1067264.0,566528.0,425984.0,114448.0
1.2527999877929688,244.0,747520.0,1083392.0,558592.0,446848.0,137536.0
1.25409996509552,256.0,763392.0,1070080.0,581888.0,433856.0,121184.0
1.2553999423980713,127.0,694528.0,1000448.0,536576.0,402240.0,132544.0
1.256700038909912,290.0,760832.0,1068032.0,538880.0,413824.0,119168.0
1.2580000162124634,144.0,778752.0,1075456.0,533248.0,404160.0,110624.0
1.2592999935150146,210.0,695808.0,1026304.0,527360.0,409344.0,105280.0
1.260599970817566,73.0,778752.0,994560.0,560896.0,378752.0,123712.0
1.2618999481201172,164.0,767488.0,1056512.0,563712.0,359424.0,110784.0
1.2632499933242798,89.0,732928.0,979712.0,571136.0,401408.0,112864.0
1.264549970626831,150.0,710400.0,964608.0,556544.0,379456.0,103312.0
1.2658499479293823,140.0,757760.0,989952.0,532992.0,398464.0,127024.0
1.2671500444412231,129.0,720640.0,992256.0,573952.0,363776.0,134144.0
1.2684500217437744,157.0,715776.0,918528.0,554752.0,397824.0,107728.0
1.2697499990463257,185.0,754176.0,1009152.0,529408.0,370880.0,121120.0
1.271049976348877,80.0,724480.0,999168.0,574976.0,412288.0,111072.0
1.2723499536514282,138.0,696576.0,944640.0,505088.0,355520.0,109440.0
1.273650050163269,89.0,709120.0,1022464.0,557824.0,397376.0,115920.0
1.2749500274658203,163.0,720128.0,919040.0,503552.0,368128.0,94784.0
1.2762500047683716,166.0,665344.0,986368.0,526848.0,383616.0,117680.0
1.2775499820709229,137.0,639232.0,937472.0,549376.0,361536.0,89920.0
1.2788666486740112,98.0,648448.0,870656.0,493184.0,334720.0,95200.0
1.2801833152770996,59.0,653312.0,858112.0,501952.0,380544.0,113872.0
1.2814832925796509,98.0,642304.0,886528.0,451136.0,322688.0,117248.0
1.2827833890914917,55.0,655616.0,825856.0,469376.0,316544.0,92144.0
1.284083366394043,120.0,638720.0,844800.0,465216.0,354944.0,91024.0
1.2853833436965942,111.0,594432.0,850944.0,466112.0,329792.0,98992.0
1.2866833209991455,102.0,563968.0,790528.0,467072.0,313216.0,104672.0
1.2879832983016968,81.0,595200.0,761344.0,430528.0,315200.0,84240.0
1.289283275604248,96.0,539648.0,774656.0,428160.0,274560.0,98656.0
1.2905833721160889,111.0,516992.0,798464.0,436800.0,308672.0,99728.0
1.2918833494186401,81.0,524544.0,767744.0,421440.0,312512.0,98688.0
1.2931833267211914,59.0,532736.0,744448.0,390720.0,303104.0,76224.0
1.2944833040237427,108.0,521088.0,719360.0,382208.0,246016.0,83760.0
1.295783281326294,88.0,506304.0,637440.0,406528.0,273280.0,71376.0
1.2971500158309937,68.0,532736.0,653312.0,395200.0,289344.0,78624.0
1.298449993133545,97.0,446912.0,635136.0,366272.0,268096.0,74112.0
1.2997499704360962,120.0,487040.0,620032.0,361280.0,258112.0,76432.0
1.3010499477386475,103.0,449216.0,679424.0,370304.0,225600.0,65344.0
1.3023500442504883,86.0,426304.0,590336.0,317184.0,237440.0,63184.0
1.3036500215530396,133.0,406848.0,576000.0,326144.0,218112.0,59008.0
1.3049499988555908,136.0,373952.0,601344.0,287232.0,205952.0,67472.0
1.306249976158142,85.0,399360.0,573952.0,318784.0,227136.0,63824.0
1.3075499534606934,47.0,362752.0,540672.0,292160.0,202304.0,60160.0
1.3088500499725342,147.0,338304.0,540672.0,258368.0,186944.0,59280.0
1.3101500272750854,88.0,352064.0,546048.0,281152.0,186368.0,66640.0
1.3114500045776367,28.0,332352.0,470528.0,259264.0,167616.0,64416.0
1.312749981880188,155.0,345344.0,423616.0,251008.0,179328.0,67072.0
1.3141167163848877,118.0,306752.0,470336.0,230208.0,185984.0,49744.0
1.315416693687439,70.0,298432.0,414656.0,244928.0,165760.0,56592.0
1.3167166709899902,79.0,291904.0,396544.0,228288.0,147776.0,50112.0
1.3180166482925415,83.0,287040.0,371904.0,192832.0,127984.0,55312.0
1.3193166255950928,82.0,267392.0,381248.0,193728.0,153728.0,28520.0
1.3206167221069336,70.0,247744.0,380416.0,196160.0,158336.0,40480.0
1.3219166994094849,58.0,245376.0,343424.0,191808.0,152448.0,37040.0
1.3232166767120361,44.0,226176.0,322432.0,164096.0,131968.0,38224.0
1.3245166540145874,60.0,218496.0,315008.0,133440.0,111936.0,33056.0
1.3258166313171387,43.0,214272.0,312512.0,152832.0,132480.0,30900.0
1.32711660861969,26.0,190016.0,276032.0,140224.0,120848.0,27384.0
1.3284167051315308,27.0,172288.0,284288.0,136384.0,105984.0,35024.0
1.329716682434082,72.0,180032.0,235072.0,128864.0,87472.0,23744.0
1.3310832977294922,66.0,180416.0,217408.0,138432.0,97744.0,20256.0
1.3323832750320435,59.0,175680.0,226432.0,106896.0,78208.0,24548.0
1.3336833715438843,52.0,130208.0,188480.0,106944.0,83408.0,18092.0
1.3349833488464355,79.0,136768.0,160896.0,107760.0,88448.0,22288.0
1.3362833261489868,79.0,139648.0,184960.0,87552.0,65328.0,22964.0
1.337583303451538,89.0,134656.0,151424.0,78976.0,67408.0,19868.0
1.3388832807540894,99.0,122352.0,169472.0,83232.0,75744.0,20016.0
1.3401833772659302,49.0,94912.0,150656.0,83280.0,63600.0,20308.0
1.3414833545684814,68.0,98480.0,130480.0,67520.0,52272.0,15124.0
1.3427833318710327,67.0,84752.0,134464.0,80144.0,58384.0,17648.0
1.344083309173584,57.0,95056.0,130848.0,82688.0,51792.0,19684.0
1.3453832864761353,24.0,105776.0,116592.0,67616.0,36464.0,15408.0
1.346683382987976,41.0,86160.0,99888.0,63280.0,52480.0,11948.0
1.3480499982833862,33.0,79664.0,110464.0,54032.0,34000.0,9704.0
1.3493499755859375,76.0,72960.0,118768.0,50400.0,38544.0,15440.0
1.3506499528884888,71.0,64128.0,95056.0,55888.0,37712.0,8248.0
1.3519500494003296,18.0,60144.0,85312.0,51136.0,39840.0,10092.0
1.3532500267028809,47.0,51056.0,82448.0,41488.0,36928.0,7348.0
1.3545500040054321,69.0,49168.0,64640.0,47200.0,40016.0,9748.0
1.3558499813079834,51.0,45952.0,69968.0,28748.0,27536.0,3458.0
1.3571499586105347,15.0,53936.0,71568.0,39824.0,32392.0,7155.0
1.3584500551223755,33.0,40048.0,75760.0,35472.0,28104.0,8332.0
1.3597500324249268,27.0,47968.0,53184.0,32376.0,23128.0,6768.0
1.361050009727478,28.0,50784.0,43232.0,35840.0,24920.0,7982.0
1.3623499870300293,45.0,27776.0,54608.0,21964.0,21160.0,3411.0
1.3636499643325806,44.0,35984.0,57680.0,35072.0,14120.0,6053.0
1.3650166988372803,43.0,23560.0,44880.0,33360.0,21392.0,4306.0
1.3663166761398315,25.0,27220.0,48144.0,29680.0,19316.0,5701.0
1.3676166534423828,31.0,33488.0,42560.0,22344.0,11436.0,4384.0
1.368916630744934,38.0,23320.0,34832.0,22828.0,14064.0,7173.0
1.3702166080474854,37.0,22504.0,32056.0,24636.0,10112.0,8296.0
1.3715167045593262,36.0,26996.0,34512.0,13928.0,11924.0,3011.0
1.3728166818618774,0.0,22408.0,35408.0,25112.0,11160.0,4322.0
1.3741166591644287,20.0,26576.0,33504.0,12504.0,9652.0,1603.0
1.37541663646698,27.0,17512.0,24640.0,15736.0,14420.0,2223.0
1.3767166137695312,43.0,18684.0,31608.0,19428.0,18704.0,2844.0
1.378016710281372,73.0,19596.0,19136.0,10592.0,18312.0,3219.0
1.3793166875839233,60.0,21372.0,29684.0,12664.0,14356.0,2864.0
1.3806166648864746,40.0,13656.0,28988.0,14736.0,12736.0,3007.0
1.3819832801818848,38.0,20492.0,23280.0,14600.0,9524.0,3150.0
1.3832833766937256,21.0,16592.0,15880.0,14088.0,9736.0,1415.0
1.3845833539962769,24.0,15568.0,27276.0,13532.0,8792.0,1568.0
1.3858833312988281,468.0,11408.0,22820.0,12976.0,3439.0,1720.0
1.3871833086013794,460.0,16236.0,21432.0,8804.0,8576.0,3654.0
1.3884832859039307,28.0,9128.0,19184.0,16240.0,4698.0,3316.0
1.3897833824157715,16.0,15808.0,19456.0,16608.0,11056.0,1590.0
1.3910833597183228,15.0,16932.0,10776.0,8119.0,10196.0,1370.0
1.392383337020874,20.0,10424.0,15568.0,9908.0,10220.0,1150.0
1.3936833143234253,26.0,11184.0,10576.0,6976.0,10892.0,2031.0
1.3949832916259766,66.0,10884.0,15592.0,6890.0,11592.0,2911.0
1.3962833881378174,70.0,8024.0,12232.0,7153.0,6427.0,2456.0
1.3975833654403687,17.0,11072.0,14076.0,7417.0,7290.0,2527.0
1.3989499807357788,42.0,9212.0,14916.0,7616.0,7419.0,2599.0
1.40024995803833,65.0,4599.0,16032.0,8724.0,6196.0,1763.0
1.401550054550171,19.0,13824.0,12464.0,8488.0,5713.0,1016.0
1.402833342552185,39.0,5807.0,8078.0,8248.0,2725.0,269.0
1.4041333198547363,80.0,12588.0,12260.0,6846.0,4328.0,54.0
1.4054332971572876,24.0,5517.0,13300.0,6575.0,4644.0,2925.0
1.4067332744598389,34.0,9084.0,14988.0,4812.0,5586.0,1996.0
1.4080333709716797,15.0,11676.0,13508.0,6672.0,6529.0,1066.0
1.409333348274231,57.0,8111.0,15080.0,5620.0,2832.0,314.0
1.4106333255767822,96.0,4543.0,13072.0,5495.0,5457.0,1459.0
1.4119333028793335,71.0,7636.0,6920.0,9980.0,5903.0,2089.0
1.4132332801818848,39.0,9972.0,9972.0,8820.0,5931.0,2927.0
1.4145499467849731,451.0,6444.0,11640.0,3784.0,5478.0,2506.0
1.4158999919891357,527.0,10888.0,9748.0,3190.0,5901.0,2275.0
1.417199969291687,604.0,6813.0,5993.0,7017.0,6325.0,2045.0
1.4184999465942383,23.0,4836.0,5269.0,4460.0,5055.0,1050.0
1.419800043106079,18.0,10636.0,9048.0,5449.0,2686.0,2834.0
1.4211000204086304,55.0,5825.0,10380.0,4020.0,3199.0,1355.0
1.4223999977111816,35.0,5018.0,10176.0,3313.0,2604.0,2515.0
1.423699975013733,42.0,5037.0,7138.0,3334.0,2845.0,1698.0
1.4249999523162842,32.0,4263.0,8904.0,3355.0,3086.0,1886.0
1.426300048828125,23.0,5146.0,11164.0,5421.0,6298.0,2640.0
1.4276000261306763,25.0,4917.0,8724.0,4149.0,6053.0,2218.0
1.4289000034332275,28.0,4689.0,4655.0,2877.0,1346.0,1449.0
1.4301999807357788,31.0,5520.0,6590.0,5441.0,2499.0,679.0
1.43149995803833,30.0,5472.0,7218.0,2842.0,3265.0,219.0
1.4328666925430298,16.0,5425.0,6226.0,6336.0,1680.0,1858.0
1.434166669845581,35.0,5179.0,6585.0,4537.0,2134.0,1562.0
1.4354666471481323,17.0,4590.0,5173.0,7072.0,2589.0,1430.0
1.4367666244506836,26.0,5494.0,3761.0,2059.0,2212.0,2061.0
1.4380667209625244,35.0,7716.0,7144.0,11856.0,1836.0,2078.0
1.4393666982650757,29.0,662.0,7558.0,10480.0,1858.0,2095.0
1.440666675567627,52.0,3909.0,3062.0,3461.0,1880.0,1498.0
1.4419666528701782,26.0,5480.0,9156.0,5231.0,3353.0,1097.0
1.4432666301727295,0.0,4257.0,9052.0,1255.0,3038.0,10.0
1.4445666074752808,30.0,6037.0,3873.0,5772.0,2723.0,902.0
1.4458667039871216,43.0,9948.0,11216.0,5665.0,1904.0,307.0
1.4471666812896729,30.0,8576.0,9840.0,3031.0,1330.0,769.0
1.4484666585922241,18.0,2025.0,6957.0,4126.0,756.0,1231.0
1.4498167037963867,57.0,5625.0,4776.0,3486.0,1237.0,952.0
1.451116681098938,59.0,1825.0,9716.0,4231.0,1717.0,673.0
1.4524166584014893,20.0,5953.0,4708.0,3572.0,1206.0,1261.0
1.4537166357040405,65.0,4493.0,8336.0,2912.0,694.0,1850.0
1.4550166130065918,71.0,3947.0,3813.0,2490.0,1107.0,1321.0
1.4563167095184326,0.0,4254.0,7082.0,2783.0,1521.0,793.0
1.4576166868209839,13.0,4265.0,5314.0,3077.0,2615.0,1432.0
1.4589166641235352,46.0,2277.0,4110.0,2763.0,2284.0,1663.0
1.4602166414260864,9.0,4326.0,2907.0,2450.0,1953.0,1894.0
1.4615166187286377,64.0,1398.0,3996.0,4156.0,4084.0,1180.0
1.4628167152404785,41.0,5929.0,9324.0,1130.0,2192.0,1448.0
1.4641166925430298,43.0,7078.0,10604.0,4501.0,301.0,572.0
1.465416669845581,46.0,2873.0,5320.0,5885.0,2994.0,2102.0
1.4667832851409912,26.0,3571.0,4537.0,2718.0,2670.0,3367.0
1.468083381652832,0.0,3602.0,3058.0,3370.0,4745.0,1693.0
1.4693833589553833,15.0,4732.0,4364.0,2551.0,5267.0,20.0
1.4706833362579346,31.0,4514.0,5670.0,3457.0,3502.0,2661.0
1.4719833135604858,43.0,4297.0,5291.0,3358.0,3963.0,2082.0
1.473283290863037,25.0,4077.0,6614.0,2835.0,3206.0,1502.0
1.474583387374878,16.0,3695.0,6792.0,3884.0,2794.0,2624.0
1.4758833646774292,19.0,3313.0,5681.0,3765.0,2382.0,2426.0
1.4771833419799805,5.0,3603.0,2938.0,1864.0,3944.0,585.0
1.4784833192825317,24.0,3894.0,3741.0,3959.0,4036.0,3858.0
1.479783296585083,696.0,4232.0,4113.0,1764.0,4128.0,23.0
1.4810832738876343,351.0,4569.0,2473.0,3185.0,4474.0,5126.0
1.482383370399475,6.0,2041.0,5818.0,4572.0,1423.0,1094.0
1.4837499856948853,102.0,3744.0,7326.0,1305.0,2321.0,847.0
1.4850499629974365,33.0,3231.0,5638.0,2697.0,3020.0,2128.0
1.4863500595092773,29.0,3682.0,7462.0,3020.0,2743.0,210.0
1.4876500368118286,0.0,6679.0,7183.0,3343.0,2910.0,1433.0
1.4889500141143799,17.0,5946.0,7417.0,5700.0,3078.0,1511.0
1.4902499914169312,37.0,11016.0,7599.0,5086.0,1390.0,1590.0
1.4915499687194824,425.0,8972.0,8964.0,4472.0,3954.0,1371.0
1.4928499460220337,232.0,1892.0,5396.0,7438.0,2836.0,1345.0
1.4941500425338745,40.0,4304.0,5425.0,1760.0,1717.0,1320.0
1.4954500198364258,0.0,6801.0,6099.0,5732.0,2643.0,1018.0
1.496749997138977,55.0,4468.0,8436.0,4913.0,3325.0,725.0
1.4980499744415283,34.0,5544.0,8143.0,4743.0,3227.0,1466.0
1.4993499517440796,25.0,3346.0,6320.0,7077.0,3129.0,263.0
1.5006999969482422,17.0,4430.0,8704.0,2823.0,3433.0,143.0
1.5020166635513306,15.0,2140.0,6002.0,3292.0,3434.0,23.0
1.5032999515533447,31.0,4970.0,9488.0,8460.0,2808.0,439.0
1.5046000480651855,21.0,2441.0,6527.0,6208.0,3326.0,856.0
1.5059000253677368,12.0,2815.0,6575.0,6118.0,3807.0,589.0
1.507200002670288,14.0,3189.0,5890.0,1534.0,3988.0,322.0
1.5084999799728394,16.0,1791.0,5614.0,838.0,4222.0,1152.0
1.5097999572753906,21.0,3578.0,5399.0,5071.0,3409.0,1431.0
1.5111000537872314,38.0,6428.0,5634.0,3081.0,2917.0,1199.0
1.5124000310897827,36.0,6323.0,5869.0,2961.0,2425.0,1010.0
1.513700008392334,39.0,2976.0,3332.0,5829.0,1824.0,821.0
1.5149999856948853,43.0,7313.0,7550.0,370.0,5190.0,1142.0
1.5162999629974365,44.0,4590.0,7045.0,2578.0,5187.0,1462.0
1.5176666975021362,9.0,4333.0,4476.0,2572.0,1679.0,1500.0
1.5189666748046875,29.0,4923.0,8268.0,2849.0,2968.0,936.0
1.5202666521072388,28.0,4208.0,4038.0,2718.0,4334.0,1783.0
1.52156662940979,27.0,3494.0,8632.0,2587.0,3499.0,5.0
1.5228667259216309,54.0,3701.0,7899.0,3689.0,3700.0,441.0
1.5241667032241821,60.0,3909.0,7254.0,2863.0,2919.0,587.0
1.5254666805267334,83.0,5579.0,7626.0,2037.0,1265.0,298.0
1.5267666578292847,61.0,3856.0,7998.0,3459.0,1341.0,9.0
1.528066635131836,39.0,2133.0,10304.0,3576.0,1649.0,232.0
1.5293666124343872,19.0,4528.0,3987.0,2775.0,1956.0,454.0
1.530666708946228,19.0,3110.0,7166.0,2563.0,3195.0,582.0
1.5319666862487793,25.0,4683.0,8126.0,2350.0,2991.0,710.0
1.5332666635513306,20.0,4020.0,5011.0,3315.0,2788.0,1341.0
1.5346332788467407,15.0,3748.0,5310.0,2499.0,3869.0,1272.0
1.5359333753585815,53.0,3476.0,5610.0,1683.0,3795.0,1203.0
1.5372333526611328,55.0,3050.0,4830.0,7215.0,3721.0,1079.0
1.538533329963684,12.0,2624.0,4051.0,7554.0,600.0,0.0
1.5398333072662354,26.0,6539.0,10492.0,5085.0,3800.0,29.0
1.5411332845687866,48.0,6563.0,10412.0,8376.0,1748.0,2725.0
1.5424333810806274,38.0,2547.0,7590.0,1474.0,3702.0,3245.0
1.5437333583831787,29.0,5949.0,6109.0,1543.0,2148.0,45.0
1.54503333568573,28.0,8009.0,8208.0,6787.0,2568.0,20.0
1.5463333129882812,27.0,6195.0,7859.0,1216.0,2480.0,898.0
1.5476332902908325,24.0,5315.0,7137.0,3697.0,3919.0,745.0
1.5489333868026733,21.0,3829.0,6577.0,7181.0,2494.0,375.0
1.5502333641052246,14.0,4316.0,7758.0,1359.0,1069.0,5.0
1.5515999794006348,0.0,4967.0,6431.0,3583.0,1239.0,965.0
1.552899956703186,6.0,5162.0,4981.0,1552.0,1408.0,48.0
1.5542000532150269,15.0,3995.0,8288.0,2668.0,1200.0,1206.0
1.5555000305175781,25.0,4871.0,6662.0,3783.0,991.0,737.0
1.5568000078201294,29.0,5746.0,5036.0,5735.0,1223.0,958.0
1.5580999851226807,13.0,5960.0,5512.0,5366.0,1454.0,1179.0
1.559399962425232,19.0,4675.0,6068.0,1600.0,1187.0,11.0
1.5607000589370728,25.0,5041.0,6623.0,4962.0,920.0,31.0
1.562000036239624,54.0,6040.0,6407.0,6802.0,833.0,321.0
1.5633000135421753,48.0,2103.0,6502.0,3864.0,746.0,610.0
1.5645999908447266,32.0,4166.0,6598.0,4510.0,1537.0,315.0
1.5658999681472778,54.0,5776.0,6385.0,5897.0,2104.0,19.0
1.567199945449829,18.0,3436.0,6171.0,3642.0,2132.0,42.0
1.5685499906539917,28.0,4053.0,5613.0,3791.0,2160.0,37.0
1.569849967956543,27.0,4671.0,5054.0,3940.0,1022.0,56.0
1.5711499452590942,27.0,3723.0,8147.0,5706.0,3135.0,39.0
1.572450041770935,23.0,2511.0,6420.0,1176.0,3972.0,22.0
1.5737500190734863,20.0,1300.0,4692.0,5213.0,1130.0,474.0
1.5750499963760376,16.0,4399.0,9444.0,3655.0,1616.0,538.0
1.5763499736785889,27.0,2714.0,7828.0,2487.0,1496.0,739.0
1.5776499509811401,38.0,3422.0,4710.0,2459.0,1376.0,826.0
1.578950047492981,35.0,4669.0,8328.0,3789.0,1911.0,948.0
1.5802667140960693,36.0,6089.0,5053.0,2190.0,1866.0,1069.0
1.5815666913986206,43.0,4877.0,5116.0,5342.0,5007.0,537.0
1.5828666687011719,24.0,5430.0,5103.0,6183.0,4670.0,5.0
1.5841666460037231,48.0,5921.0,4646.0,1995.0,2208.0,8.0
1.5854833126068115,23.0,1985.0,4189.0,4919.0,1403.0,11.0
1.5867832899093628,32.0,1496.0,2737.0,3024.0,1221.0,376.0
1.5880833864212036,17.0,5806.0,5729.0,3368.0,1989.0,742.0
1.5893833637237549,17.0,4532.0,5725.0,2034.0,35.0,1144.0
1.5906833410263062,16.0,5615.0,5119.0,5931.0,143.0,1546.0
1.5919833183288574,18.0,4671.0,3321.0,6390.0,252.0,989.0
1.5932832956314087,21.0,3726.0,5909.0,2415.0,1174.0,476.0
1.5945833921432495,11.0,5160.0,5181.0,5561.0,898.0,987.0
1.5958833694458008,22.0,5117.0,4102.0,6620.0,1646.0,15.0
1.597183346748352,33.0,4678.0,5262.0,4331.0,1127.0,1881.0
1.5984833240509033,41.0,2031.0,4971.0,6531.0,609.0,1600.0
1.5997833013534546,19.0,2828.0,4680.0,4817.0,620.0,1877.0
1.6010832786560059,32.0,3625.0,4066.0,5184.0,632.0,729.0
1.6024500131607056,14.0,6050.0,6081.0,1539.0,327.0,703.0
1.6037499904632568,12.0,4823.0,5305.0,1360.0,22.0,1169.0
1.605049967765808,15.0,3596.0,4530.0,1952.0,636.0,882.0
1.6063499450683594,24.0,4749.0,3110.0,1971.0,1518.0,676.0
1.6076500415802002,22.0,6126.0,1691.0,1749.0,5021.0,0.0
1.6089500188827515,21.0,1930.0,3639.0,1527.0,3799.0,42.0
1.6102499961853027,21.0,4651.0,3244.0,1825.0,3882.0,260.0
1.611549973487854,21.0,3507.0,2848.0,3735.0,21.0,265.0
1.6128499507904053,15.0,6402.0,3638.0,3847.0,2757.0,828.0
1.614150047302246,10.0,5283.0,3524.0,1635.0,458.0,417.0
1.6154500246047974,18.0,4241.0,3410.0,4949.0,3480.0,6.0
1.6167500019073486,37.0,3538.0,2422.0,3828.0,2136.0,785.0
1.6180499792099,35.0,4074.0,5673.0,3484.0,1460.0,17.0
1.6194167137145996,34.0,3630.0,4919.0,1185.0,2518.0,643.0
1.6207166910171509,15.0,5360.0,7076.0,4967.0,1091.0,55.0
1.6220166683197021,24.0,4046.0,6523.0,3238.0,2006.0,437.0
1.6233166456222534,33.0,2732.0,4928.0,5094.0,1920.0,747.0
1.6246166229248047,14.0,602.0,6366.0,2345.0,1679.0,1007.0
1.6259167194366455,37.0,1182.0,5137.0,3873.0,2326.0,43.0
1.6272166967391968,37.0,4719.0,5477.0,3169.0,1760.0,31.0
1.628516674041748,27.0,5347.0,5309.0,2484.0,1194.0,21.0
1.6298166513442993,17.0,3368.0,6066.0,3203.0,931.0,237.0
1.6311166286468506,40.0,4252.0,5666.0,3269.0,1749.0,454.0
1.6324167251586914,20.0,4568.0,5266.0,3334.0,636.0,2742.0
1.6337167024612427,10.0,3305.0,4746.0,2804.0,1635.0,2536.0
1.635016679763794,0.0,954.0,3627.0,2274.0,1224.0,378.0
1.6363667249679565,9.0,1818.0,5969.0,1455.0,812.0,15.0
1.6376667022705078,7.0,917.0,4562.0,2251.0,737.0,0.0
1.638966679573059,5.0,16.0,5726.0,3046.0,661.0,12.0
1.6402666568756104,34.0,2336.0,3563.0,3292.0,2170.0,25.0
1.6415666341781616,30.0,6168.0,3063.0,3427.0,3151.0,24.0
1.642866611480713,31.0,5554.0,4162.0,3562.0,2902.0,23.0
1.6441667079925537,23.0,2712.0,4067.0,3649.0,1916.0,25.0
1.645466685295105,24.0,4679.0,3947.0,3737.0,2285.0,217.0
1.6467666625976562,43.0,4304.0,3826.0,3048.0,2505.0,124.0
1.6480666399002075,41.0,1708.0,3781.0,4709.0,2725.0,32.0
1.6493666172027588,38.0,5232.0,3737.0,1032.0,953.0,523.0
1.6506667137145996,58.0,32.0,5057.0,1528.0,4430.0,1016.0
1.6519666910171509,0.0,1160.0,5618.0,138.0,4596.0,1449.0
1.653333306312561,78.0,2198.0,4589.0,1323.0,892.0,1234.0
1.6546332836151123,26.0,3765.0,8952.0,5298.0,1911.0,1279.0
1.6559333801269531,29.0,3202.0,8064.0,6993.0,1437.0,1022.0
1.6572333574295044,28.0,1471.0,3706.0,3331.0,797.0,5.0
1.6585333347320557,14.0,4081.0,4985.0,1171.0,744.0,1153.0
1.659833312034607,28.0,2635.0,1456.0,3684.0,1085.0,998.0
1.6611332893371582,48.0,1338.0,1630.0,5397.0,1391.0,113.0
1.662433385848999,46.0,3950.0,3997.0,3464.0,1280.0,1250.0
1.6637333631515503,44.0,3157.0,4002.0,22.0,1278.0,37.0
1.6650333404541016,31.0,3987.0,2012.0,270.0,1387.0,31.0
1.6663333177566528,60.0,2252.0,5622.0,3027.0,1496.0,1293.0
1.667633295059204,22.0,2298.0,5146.0,3382.0,1146.0,68.0
1.668933391571045,18.0,1739.0,3139.0,2406.0,797.0,721.0
1.670300006866455,15.0,1438.0,2459.0,737.0,1332.0,1055.0
1.6715999841690063,10.0,1138.0,1675.0,28.0,1868.0,438.0
1.6728999614715576,21.0,3429.0,2087.0,818.0,20.0,836.0
1.6742000579833984,10.0,3420.0,2498.0,1284.0,2084.0,1449.0
1.6755000352859497,16.0,2650.0,4312.0,1750.0,1615.0,50.0
1.676800012588501,22.0,4758.0,3853.0,1349.0,1519.0,331.0
1.6780999898910522,14.0,1383.0,3122.0,1295.0,1431.0,697.0
1.6793999671936035,5.0,4842.0,4276.0,3262.0,1451.0,546.0
1.6806999444961548,7.0,2890.0,3753.0,3312.0,1127.0,341.0
1.6820000410079956,9.0,1953.0,4663.0,953.0,803.0,909.0
1.6833000183105469,11.0,2317.0,5572.0,2518.0,1205.0,692.0
1.6845999956130981,13.0,2331.0,4238.0,3196.0,1196.0,10.0
1.6858999729156494,6.0,2346.0,2904.0,1915.0,1188.0,0.0
1.687250018119812,0.0,298.0,2321.0,697.0,305.0,53.0
1.6885499954223633,9.0,3976.0,3020.0,65.0,614.0,369.0
1.6898666620254517,17.0,4965.0,3719.0,2174.0,924.0,987.0
1.6911499500274658,14.0,3687.0,3852.0,1858.0,78.0,1313.0
1.6924500465393066,11.0,3103.0,4168.0,2511.0,461.0,5.0
1.693750023841858,13.0,2033.0,3821.0,3714.0,843.0,63.0
1.6950500011444092,72.0,2616.0,1310.0,51.0,693.0,24.0
1.6963499784469604,63.0,2665.0,2733.0,3611.0,789.0,505.0
1.6976499557495117,55.0,2562.0,4156.0,520.0,885.0,490.0
1.6989500522613525,5.0,2459.0,1322.0,2941.0,571.0,256.0
1.7002500295639038,13.0,3178.0,1777.0,1232.0,256.0,32.0
1.7015666961669922,25.0,2752.0,4766.0,2278.0,6.0,49.0
1.7028666734695435,38.0,2327.0,350.0,2272.0,157.0,34.0
1.704216718673706,42.0,10.0,2854.0,3532.0,308.0,19.0
1.7055166959762573,22.0,4290.0,5972.0,2402.0,787.0,51.0
1.7068166732788086,18.0,1824.0,6707.0,1271.0,795.0,54.0
1.7081166505813599,46.0,3047.0,3180.0,2827.0,803.0,39.0
1.7094166278839111,24.0,2736.0,21.0,859.0,937.0,25.0
1.710716724395752,19.0,1729.0,2229.0,767.0,1072.0,42.0
1.7120167016983032,46.0,2182.0,1644.0,913.0,1013.0,20.0
1.7133166790008545,40.0,2636.0,3569.0,982.0,1757.0,50.0
1.7146166563034058,34.0,3644.0,3383.0,1051.0,2501.0,32.0
1.715916633605957,53.0,244.0,6022.0,1099.0,3057.0,18.0
1.7172166109085083,36.0,3227.0,5226.0,1386.0,792.0,27.0
1.7185167074203491,20.0,3648.0,5048.0,3141.0,1365.0,36.0
1.7198166847229004,65.0,1345.0,6827.0,3268.0,932.0,25.0
1.7211833000183105,19.0,3146.0,2021.0,3484.0,1064.0,31.0
1.7224832773208618,7.0,3531.0,2051.0,2705.0,539.0,37.0
1.7237833738327026,22.0,3371.0,4283.0,1927.0,15.0,25.0
1.725083351135254,0.0,2870.0,3755.0,1412.0,496.0,13.0
1.7263833284378052,26.0,34.0,2706.0,2210.0,1018.0,30.0
1.7276833057403564,34.0,4751.0,3037.0,1048.0,1020.0,13.0
1.7289832830429077,43.0,2451.0,4322.0,2302.0,33.0,9.0
1.7302833795547485,11.0,1288.0,3698.0,904.0,557.0,23.0
1.7315833568572998,25.0,2359.0,2566.0,1941.0,1058.0,416.0
1.732883334159851,13.0,1666.0,3801.0,3450.0,1559.0,437.0
1.7341833114624023,0.0,900.0,4017.0,2555.0,835.0,459.0
1.7354832887649536,0.0,2192.0,3704.0,1456.0,1511.0,147.0
1.7367833852767944,13.0,3485.0,3391.0,2695.0,1260.0,92.0
1.7381333112716675,33.0,2918.0,4672.0,2454.0,47.0,37.0
1.7394332885742188,57.0,3860.0,2523.0,1222.0,1184.0,26.0
1.7407333850860596,35.0,724.0,2265.0,1815.0,588.0,16.0
1.7420333623886108,36.0,519.0,3801.0,2895.0,1497.0,35.0
1.743333339691162,43.0,4212.0,3724.0,2800.0,2062.0,27.0
1.7446333169937134,50.0,2692.0,5072.0,2309.0,1423.0,20.0
1.7459332942962646,21.0,1070.0,3894.0,1817.0,1020.0,272.0
1.7472333908081055,32.0,3281.0,2774.0,726.0,26.0,168.0
1.7485333681106567,43.0,3080.0,1654.0,883.0,987.0,65.0
1.749833345413208,44.0,3575.0,4183.0,1406.0,1042.0,37.0
1.7511333227157593,21.0,2004.0,4449.0,1929.0,1097.0,8.0
1.7524333000183105,51.0,2042.0,3226.0,1582.0,1426.0,174.0
1.7537332773208618,18.0,4344.0,3135.0,1235.0,1597.0,139.0
1.7551000118255615,29.0,4662.0,3661.0,1704.0,11.0,128.0
1.7563999891281128,40.0,2369.0,1480.0,2063.0,830.0,71.0
1.757699966430664,0.0,2692.0,2410.0,2122.0,1031.0,14.0
1.7589999437332153,5.0,3432.0,1290.0,2180.0,1496.0,5.0
1.7603000402450562,6.0,475.0,2312.0,2132.0,1063.0,21.0
1.7616000175476074,77.0,2246.0,2845.0,2085.0,1559.0,50.0
1.7628999948501587,170.0,2513.0,2212.0,1836.0,1738.0,35.0
1.76419997215271,111.0,4169.0,1973.0,1479.0,7.0,21.0
1.7654999494552612,52.0,3618.0,1734.0,1881.0,1824.0,18.0
1.766800045967102,24.0,3987.0,2858.0,1932.0,1024.0,16.0
1.7681000232696533,29.0,348.0,3002.0,1278.0,1477.0,15.0
1.7694000005722046,34.0,1745.0,2475.0,1035.0,231.0,15.0
1.7706999778747559,53.0,3588.0,3319.0,788.0,1538.0,21.0
1.7720667123794556,49.0,2179.0,1717.0,640.0,229.0,28.0
1.7733666896820068,18.0,3227.0,2472.0,1008.0,43.0,31.0
1.774666666984558,143.0,951.0,2112.0,1004.0,2232.0,26.0
1.7759666442871094,98.0,353.0,1976.0,999.0,1813.0,22.0
1.7772666215896606,52.0,1879.0,1839.0,819.0,1630.0,14.0
1.7785667181015015,0.0,2431.0,1653.0,638.0,949.0,18.0
1.7798666954040527,10.0,1524.0,1912.0,1123.0,1343.0,12.0
1.781166672706604,13.0,2416.0,1945.0,2522.0,1737.0,95.0
1.7824666500091553,17.0,3108.0,1979.0,2047.0,289.0,52.0
1.7837666273117065,11.0,2599.0,1831.0,1571.0,2426.0,9.0
1.7850667238235474,5.0,3513.0,1513.0,528.0,27.0,45.0
1.7863667011260986,18.0,419.0,1194.0,1333.0,2016.0,43.0
1.78766667842865,32.0,717.0,3062.0,0.0,277.0,29.0
1.78903329372406,38.0,408.0,2597.0,1599.0,687.0,26.0
1.7903333902359009,41.0,1853.0,2133.0,1671.0,1097.0,19.0
1.7916333675384521,28.0,1971.0,2500.0,971.0,28.0,13.0
1.7929333448410034,5.0,2088.0,3868.0,271.0,1295.0,9.0
1.7942333221435547,54.0,525.0,3591.0,2284.0,1268.0,5.0
1.795533299446106,13.0,2361.0,3314.0,1535.0,1241.0,38.0
1.7968332767486572,36.0,2783.0,2087.0,1667.0,1322.0,25.0
1.798133373260498,5.0,2517.0,2651.0,1701.0,24.0,12.0
1.7994333505630493,16.0,2251.0,3693.0,1735.0,54.0,40.0
1.8007333278656006,27.0,2984.0,4414.0,1408.0,780.0,25.0
1.8020333051681519,36.0,735.0,4888.0,1152.0,775.0,10.0
1.8033332824707031,46.0,2268.0,5336.0,1561.0,580.0,16.0
1.804633378982544,30.0,31.0,2394.0,1346.0,384.0,22.0
1.805983304977417,15.0,2674.0,1924.0,1131.0,999.0,43.0
1.8072832822799683,21.0,969.0,1312.0,611.0,951.0,41.0
1.808583378791809,27.0,1133.0,2522.0,266.0,903.0,40.0
1.8098833560943604,8.0,1431.0,2276.0,1034.0,1392.0,0.0
1.8111833333969116,19.0,1064.0,2030.0,124.0,1092.0,4.0
1.812483310699463,30.0,1711.0,1296.0,2654.0,792.0,8.0
1.8137832880020142,10.0,2021.0,2287.0,3552.0,667.0,592.0
1.815083384513855,5.0,2978.0,2781.0,3137.0,725.0,305.0
1.8163833618164062,30.0,3397.0,3387.0,5.0,31.0,18.0
1.8176833391189575,37.0,3475.0,1954.0,1821.0,1694.0,33.0
1.8189833164215088,45.0,1380.0,3267.0,1846.0,1772.0,0.0
1.82028329372406,38.0,1328.0,7018.0,2196.0,1794.0,36.0
1.8215833902359009,10.0,1373.0,5782.0,31.0,839.0,963.0
1.822950005531311,0.0,1731.0,2589.0,331.0,19.0,494.0
1.8242499828338623,40.0,2089.0,7677.0,14.0,2810.0,25.0
1.8255499601364136,32.0,1846.0,1921.0,667.0,2864.0,11.0
1.8268500566482544,25.0,1738.0,2722.0,681.0,840.0,18.0
1.8281500339508057,20.0,1539.0,2768.0,696.0,980.0,26.0
1.829450011253357,52.0,1340.0,2710.0,1260.0,0.0,24.0
1.8307499885559082,36.0,1868.0,2651.0,2160.0,0.0,25.0
1.8320499658584595,20.0,2093.0,2099.0,2617.0,529.0,27.0
1.8333499431610107,25.0,2319.0,1547.0,21.0,46.0,206.0
1.8346500396728516,13.0,1986.0,2882.0,2645.0,770.0,134.0
1.8359500169754028,15.0,1653.0,1782.0,22.0,703.0,62.0
1.837249994277954,17.0,1303.0,2083.0,2315.0,635.0,334.0
1.8385499715805054,10.0,953.0,1815.0,1440.0,10.0,176.0
1.839916706085205,8.0,1875.0,1448.0,566.0,407.0,18.0
1.8412166833877563,31.0,1726.0,771.0,1334.0,40.0,552.0
1.8425166606903076,54.0,2049.0,1704.0,1109.0,10.0,606.0
1.8438166379928589,36.0,1936.0,2637.0,1590.0,1133.0,147.0
1.8451166152954102,18.0,1514.0,3212.0,1425.0,574.0,76.0
1.846416711807251,44.0,1092.0,1747.0,1259.0,15.0,45.0
1.8477166891098022,56.0,1015.0,283.0,26.0,7.0,25.0
1.8490166664123535,29.0,1071.0,2992.0,749.0,0.0,341.0
1.8503166437149048,5.0,1126.0,3221.0,2021.0,5.0,185.0
1.851616621017456,11.0,993.0,1624.0,1299.0,10.0,29.0
1.8529167175292969,18.0,861.0,3370.0,2737.0,894.0,22.0
1.8542166948318481,0.0,461.0,4287.0,2392.0,1187.0,14.0
1.8555166721343994,22.0,2744.0,1703.0,876.0,10.0,900.0
1.8568832874298096,17.0,1869.0,41.0,1585.0,1349.0,481.0
1.8581833839416504,15.0,993.0,4115.0,1402.0,1693.0,62.0
1.8594833612442017,13.0,1329.0,3299.0,1219.0,991.0,461.0
1.860783338546753,0.0,1664.0,1679.0,952.0,289.0,27.0
1.8620833158493042,31.0,209.0,1445.0,1987.0,35.0,22.0
1.8633832931518555,27.0,1290.0,904.0,1736.0,15.0,285.0
1.8646833896636963,19.0,2370.0,1907.0,1564.0,149.0,162.0
1.8660000562667847,53.0,893.0,2509.0,1130.0,1463.0,38.0
1.867300033569336,44.0,43.0,3119.0,1401.0,1442.0,51.0
1.8686000108718872,13.0,2713.0,3730.0,1673.0,41.0,172.0
1.8698999881744385,133.0,1212.0,1068.0,877.0,10.0,292.0
1.8711999654769897,73.0,303.0,2052.0,801.0,845.0,161.0
1.872499942779541,13.0,1555.0,4127.0,995.0,1702.0,30.0
1.8738332986831665,6.0,1894.0,3289.0,1000.0,1337.0,19.0
1.8751167058944702,23.0,1063.0,1695.0,1765.0,972.0,871.0
1.8764333724975586,21.0,9.0,2430.0,1286.0,1727.0,872.0
1.8777166604995728,26.0,1269.0,2592.0,807.0,284.0,1193.0
1.879016637802124,36.0,1334.0,2754.0,2407.0,1776.0,0.0
1.8803333044052124,26.0,1398.0,2738.0,2677.0,2646.0,6.0
1.8816332817077637,16.0,778.0,2722.0,2730.0,1381.0,67.0
1.8829333782196045,35.0,3264.0,710.0,814.0,1956.0,33.0
1.8842333555221558,40.0,4097.0,1321.0,548.0,1047.0,43.0
1.885533332824707,52.0,2115.0,1828.0,1116.0,943.0,19.0
1.8868333101272583,20.0,1102.0,1377.0,560.0,901.0,68.0
1.8881332874298096,5.0,1306.0,926.0,674.0,1177.0,41.0
1.8894333839416504,22.0,2563.0,1689.0,15.0,934.0,15.0
1.8907500505447388,23.0,2647.0,2451.0,764.0,691.0,34.0
1.89205002784729,18.0,2983.0,23.0,763.0,34.0,41.0
1.8933500051498413,22.0,480.0,968.0,761.0,29.0,5.0
1.8946499824523926,18.0,563.0,374.0,728.0,24.0,43.0
1.8959499597549438,23.0,647.0,841.0,1972.0,613.0,37.0
1.8972500562667847,53.0,935.0,1308.0,1849.0,324.0,31.0
1.898550033569336,33.0,826.0,1209.0,1726.0,36.0,15.0
1.8998500108718872,13.0,717.0,1111.0,21.0,878.0,0.0
1.9011499881744385,10.0,656.0,1086.0,65.0,790.0,17.0
1.9024499654769897,13.0,595.0,1286.0,1961.0,1290.0,34.0
1.903749942779541,33.0,1638.0,1487.0,471.0,649.0,312.0
1.9050500392913818,26.0,1222.0,2388.0,1283.0,855.0,179.0
1.9063999652862549,19.0,806.0,3234.0,36.0,672.0,47.0
1.9077166318893433,16.0,1468.0,3442.0,1898.0,638.0,5.0
1.9090166091918945,26.0,1355.0,3726.0,1339.0,20.0,7.0
1.9103167057037354,23.0,947.0,3140.0,1665.0,34.0,5.0
1.9116166830062866,20.0,506.0,2553.0,52.0,581.0,247.0
1.912916660308838,22.0,65.0,2167.0,1928.0,430.0,787.0
1.9142166376113892,24.0,361.0,3109.0,2854.0,280.0,436.0
1.9155166149139404,30.0,693.0,2515.0,250.0,41.0,85.0
1.9168167114257812,0.0,1026.0,1143.0,1441.0,16.0,13.0
1.9181166887283325,11.0,2327.0,3052.0,1018.0,32.0,353.0
1.9194166660308838,22.0,1320.0,2768.0,22.0,48.0,494.0
1.920716643333435,19.0,313.0,2094.0,485.0,538.0,635.0
1.9220166206359863,17.0,2618.0,2253.0,215.0,293.0,33.0
1.9233499765396118,0.0,54.0,1508.0,294.0,49.0,36.0
1.9246833324432373,10.0,485.0,3281.0,374.0,144.0,44.0
1.9259833097457886,7.0,2367.0,2536.0,197.0,239.0,52.0
1.9272832870483398,5.0,1180.0,1790.0,20.0,1556.0,114.0
1.9285833835601807,15.0,3469.0,1161.0,32.0,1567.0,62.0
1.929883360862732,26.0,2722.0,55.0,44.0,176.0,11.0
1.9311833381652832,20.0,3774.0,417.0,768.0,1226.0,83.0
1.9324833154678345,20.0,2205.0,779.0,715.0,26.0,17.0
1.9337832927703857,13.0,1388.0,1063.0,662.0,1095.0,5.0
1.9350833892822266,25.0,992.0,832.0,1134.0,632.0,9.0
1.9363833665847778,21.0,251.0,360.0,1607.0,52.0,9.0
1.937683343887329,21.0,2599.0,1485.0,1515.0,5.0,9.0
1.9389833211898804,21.0,2570.0,1010.0,1211.0,890.0,5.0
1.9403166770935059,14.0,889.0,535.0,906.0,452.0,10.0
1.9416500329971313,10.0,1644.0,887.0,1575.0,15.0,16.0
1.9429500102996826,6.0,2400.0,1238.0,1101.0,21.0,13.0
1.9442499876022339,40.0,1803.0,1311.0,569.0,20.0,11.0
1.9455499649047852,28.0,1207.0,1921.0,37.0,38.0,0.0
1.9468499422073364,16.0,1035.0,1794.0,791.0,96.0,30.0
1.9481500387191772,11.0,35.0,3325.0,1545.0,155.0,36.0
1.9494500160217285,18.0,638.0,3772.0,1446.0,284.0,29.0
1.9507499933242798,14.0,853.0,2407.0,1009.0,413.0,24.0
1.952049970626831,10.0,2051.0,30.0,571.0,225.0,22.0
1.9533499479293823,16.0,1676.0,2843.0,1066.0,38.0,465.0
1.9546500444412231,10.0,1263.0,2023.0,2103.0,10.0,237.0
1.9559500217437744,5.0,1784.0,772.0,1266.0,628.0,9.0
1.9572833776474,18.0,2305.0,3702.0,429.0,937.0,37.0
1.9586000442504883,11.0,809.0,3759.0,20.0,1246.0,20.0
1.9599000215530396,28.0,1518.0,5333.0,1876.0,1358.0,13.0
1.9611999988555908,42.0,1855.0,1032.0,1035.0,444.0,6.0
1.962499976158142,38.0,1939.0,2926.0,38.0,573.0,8.0
1.9637999534606934,5.0,1292.0,2274.0,14.0,22.0,10.0
1.9651000499725342,24.0,741.0,2714.0,135.0,371.0,25.0
1.9664000272750854,37.0,789.0,3418.0,256.0,768.0,15.0
1.9677000045776367,0.0,838.0,28.0,371.0,38.0,5.0
1.968999981880188,0.0,951.0,2862.0,486.0,24.0,6.0
1.9702999591827393,0.0,494.0,4102.0,571.0,22.0,8.0
1.97160005569458,10.0,37.0,2279.0,674.0,20.0,17.0
1.9729000329971313,10.0,1219.0,667.0,778.0,1843.0,27.0
1.9742499589920044,10.0,282.0,2755.0,12.0,1997.0,48.0
1.9755666255950928,23.0,271.0,1150.0,839.0,635.0,34.0
1.9768667221069336,25.0,259.0,1143.0,433.0,683.0,20.0
1.9781666994094849,10.0,344.0,1458.0,26.0,658.0,48.0
1.9794666767120361,10.0,429.0,1182.0,282.0,753.0,5.0
1.9807666540145874,11.0,2992.0,2092.0,538.0,849.0,18.0
1.9820666313171387,12.0,2917.0,5.0,552.0,485.0,51.0
1.98336660861969,13.0,2360.0,1751.0,566.0,34.0,17.0
1.9846667051315308,16.0,1490.0,953.0,66.0,1025.0,578.0
1.985966682434082,16.0,2687.0,1989.0,13.0,19.0,302.0
1.9872666597366333,15.0,2434.0,1088.0,0.0,775.0,25.0
1.9885666370391846,5.0,2732.0,1748.0,20.0,48.0,12.0
1.9898666143417358,17.0,1006.0,2408.0,895.0,45.0,15.0
1.9912166595458984,22.0,765.0,1810.0,1213.0,29.0,18.0
1.9925333261489868,65.0,1996.0,1793.0,832.0,18.0,18.0
1.993833303451538,62.0,2274.0,1106.0,32.0,1364.0,10.0
1.9951332807540894,0.0,252.0,1534.0,1683.0,1326.0,706.0
1.9964333772659302,7.0,1849.0,2512.0,2017.0,24.0,775.0
1.9977333545684814,29.0,1383.0,2493.0,1607.0,1161.0,844.0
