,335.2099914550781,336.2099914550781,337.2099914550781,338.2099914550781,339.2099914550781,340.2099914550781,341.2099914550781,342.2099914550781,343.2099914550781,344.2099914550781,345.2099914550781
5.702383518218994,1130.0,5.0,5.0,0.0,21.0,58.0,13.0,27.0,36.0,18.0,40.0
5.704766750335693,138.0,23.0,0.0,22.0,15.0,0.0,24.0,6.0,28.0,23.0,25.0
5.707149982452393,22.0,31.0,23.0,25.0,23.0,493.0,47.0,14.0,36.0,27.0,0.0
5.709533214569092,23.0,26.0,23.0,14.0,19.0,30.0,17.0,12.0,28.0,18.0,37.0
5.711916446685791,32.0,5.0,13.0,36.0,15.0,470.0,5.0,6.0,21.0,468.0,42.0
5.714300155639648,39.0,11.0,26.0,44.0,38.0,30.0,58.0,12.0,5.0,244.0,21.0
5.716683387756348,47.0,17.0,12.0,15.0,33.0,10.0,39.0,12.0,10.0,19.0,11.0
5.719133377075195,5.0,13.0,34.0,8.0,27.0,5.0,18.0,11.0,25.0,9.0,51.0
5.7215166091918945,23.0,19.0,40.0,24.0,10.0,0.0,19.0,17.0,25.0,5.0,0.0
5.723899841308594,24.0,36.0,51.0,22.0,36.0,40.0,12.0,24.0,7.0,5.0,11.0
5.726283550262451,24.0,23.0,17.0,21.0,24.0,30.0,5.0,21.0,38.0,13.0,7.0
5.72866678237915,16.0,10.0,51.0,26.0,27.0,19.0,25.0,31.0,26.0,27.0,19.0
5.73105001449585,16.0,12.0,24.0,15.0,31.0,29.0,41.0,5.0,36.0,19.0,18.0
5.733433246612549,15.0,17.0,36.0,28.0,32.0,45.0,24.0,30.0,24.0,12.0,17.0
5.735866546630859,12.0,22.0,15.0,11.0,26.0,37.0,7.0,36.0,11.0,32.0,24.0
5.738249778747559,39.0,27.0,33.0,27.0,16.0,30.0,27.0,33.0,17.0,52.0,19.0
5.740633487701416,35.0,78.0,15.0,15.0,0.0,28.0,21.0,11.0,18.0,38.0,14.0
5.743016719818115,31.0,48.0,0.0,16.0,10.0,27.0,14.0,25.0,6.0,25.0,0.0
5.7453999519348145,24.0,18.0,11.0,5.0,19.0,13.0,8.0,38.0,7.0,24.0,17.0
5.747783184051514,22.0,15.0,11.0,5.0,0.0,0.0,23.0,31.0,11.0,10.0,9.0
5.750166893005371,14.0,0.0,8.0,6.0,4.0,7.0,30.0,38.0,8.0,0.0,18.0
5.752616882324219,26.0,3.0,5.0,6.0,7.0,37.0,40.0,11.0,5.0,5.0,27.0
5.755000114440918,10.0,5.0,10.0,12.0,12.0,68.0,39.0,35.0,0.0,8.0,25.0
5.757383346557617,0.0,27.0,12.0,11.0,48.0,74.0,0.0,29.0,36.0,10.0,27.0
5.759766578674316,10.0,25.0,16.0,17.0,39.0,6.0,10.0,24.0,21.0,5.0,26.0
5.762149810791016,6.0,18.0,12.0,15.0,44.0,12.0,24.0,19.0,5.0,0.0,25.0
5.764533519744873,6.0,34.0,19.0,12.0,0.0,31.0,48.0,5.0,31.0,0.0,22.0
5.766916751861572,6.0,5.0,26.0,35.0,31.0,28.0,34.0,17.0,24.0,0.0,18.0
5.769350051879883,27.0,5.0,18.0,36.0,22.0,26.0,19.0,21.0,16.0,3.0,16.0
5.771733283996582,28.0,0.0,11.0,29.0,13.0,16.0,51.0,24.0,9.0,6.0,23.0
5.774116516113281,19.0,3.0,16.0,35.0,15.0,5.0,23.0,10.0,21.0,18.0,29.0
5.776500225067139,11.0,5.0,37.0,38.0,26.0,37.0,17.0,15.0,15.0,16.0,33.0
5.778883457183838,5.0,7.0,37.0,37.0,31.0,24.0,15.0,21.0,9.0,19.0,30.0
5.781266689300537,15.0,0.0,23.0,36.0,36.0,11.0,13.0,22.0,15.0,18.0,15.0
5.783649921417236,33.0,22.0,5.0,25.0,29.0,15.0,7.0,23.0,22.0,18.0,0.0
5.786099910736084,56.0,28.0,25.0,11.0,27.0,18.0,21.0,11.0,23.0,5.0,18.0
5.788483142852783,40.0,7.0,15.0,9.0,0.0,0.0,17.0,0.0,24.0,10.0,31.0
5.790866851806641,25.0,22.0,5.0,5.0,18.0,6.0,14.0,33.0,35.0,24.0,43.0
5.79325008392334,51.0,0.0,17.0,0.0,24.0,12.0,11.0,16.0,28.0,43.0,38.0
5.795633316040039,8.0,9.0,22.0,30.0,30.0,29.0,8.0,19.0,21.0,38.0,36.0
5.798016548156738,15.0,30.0,27.0,24.0,26.0,32.0,6.0,22.0,0.0,34.0,10.0
5.8003997802734375,22.0,12.0,12.0,24.0,25.0,43.0,6.0,39.0,32.0,27.0,27.0
5.802833557128906,17.0,9.0,14.0,0.0,24.0,12.0,5.0,19.0,28.0,21.0,6.0
5.8052167892456055,12.0,5.0,0.0,13.0,22.0,37.0,10.0,0.0,16.0,41.0,45.0
5.807600021362305,25.0,10.0,26.0,11.0,6.0,35.0,15.0,44.0,5.0,5.0,37.0
5.809983253479004,11.0,5.0,85.0,9.0,0.0,31.0,30.0,11.0,12.0,10.0,29.0
5.812366485595703,0.0,3.0,47.0,18.0,23.0,28.0,30.0,17.0,19.0,6.0,6.0
5.8147501945495605,32.0,0.0,10.0,16.0,18.0,17.0,30.0,0.0,26.0,0.0,27.0
5.81713342666626,18.0,7.0,10.0,13.0,15.0,7.0,26.0,12.0,23.0,5.0,22.0
5.819583415985107,17.0,0.0,15.0,9.0,28.0,5.0,13.0,24.0,21.0,9.0,16.0
5.821966648101807,16.0,14.0,5.0,5.0,7.0,5.0,0.0,19.0,26.0,13.0,10.0
5.824349880218506,12.0,23.0,9.0,24.0,34.0,5.0,0.0,15.0,22.0,0.0,22.0
5.826733112335205,7.0,31.0,12.0,27.0,31.0,15.0,0.0,27.0,17.0,6.0,14.0
5.8291168212890625,10.0,21.0,17.0,0.0,29.0,12.0,20.0,23.0,22.0,46.0,12.0
5.831500053405762,12.0,6.0,23.0,15.0,5.0,8.0,14.0,18.0,27.0,39.0,19.0
5.833883285522461,16.0,6.0,21.0,6.0,39.0,30.0,8.0,5.0,5.0,18.0,15.0
5.836333274841309,21.0,6.0,18.0,8.0,0.0,25.0,25.0,19.0,10.0,45.0,11.0
5.838716506958008,19.0,22.0,23.0,10.0,29.0,21.0,47.0,9.0,28.0,36.0,18.0
5.841100215911865,13.0,36.0,13.0,13.0,8.0,24.0,38.0,18.0,10.0,27.0,0.0
5.8434834480285645,43.0,49.0,16.0,15.0,16.0,0.0,29.0,30.0,13.0,42.0,16.0
5.845866680145264,33.0,25.0,18.0,19.0,11.0,23.0,53.0,0.0,16.0,42.0,13.0
5.848249912261963,23.0,0.0,31.0,16.0,15.0,15.0,24.0,6.0,34.0,28.0,10.0
5.850633144378662,19.0,28.0,35.0,13.0,19.0,40.0,38.0,21.0,38.0,14.0,12.0
5.853066444396973,17.0,27.0,12.0,14.0,21.0,26.0,19.0,48.0,42.0,48.0,13.0
5.85545015335083,15.0,15.0,25.0,19.0,23.0,16.0,7.0,56.0,674.0,6.0,18.0
5.857833385467529,11.0,30.0,50.0,12.0,11.0,38.0,34.0,56.0,609.0,39.0,23.0
5.8602166175842285,6.0,0.0,38.0,5.0,7.0,39.0,17.0,10.0,0.0,41.0,31.0
5.862599849700928,6.0,37.0,57.0,8.0,12.0,53.0,17.0,44.0,1002.0,54.0,29.0
5.864983558654785,5.0,42.0,19.0,18.0,11.0,19.0,21.0,78.0,10.0,27.0,12.0
5.867366790771484,3.0,39.0,18.0,27.0,10.0,13.0,9.0,31.0,939.0,30.0,35.0
5.869800090789795,0.0,16.0,12.0,28.0,39.0,5.0,327.0,43.0,276.0,34.0,18.0
5.872200012207031,0.0,45.0,24.0,41.0,75.0,5.0,644.0,25.0,460.0,25.0,30.0
5.8745832443237305,10.0,8.0,17.0,54.0,50.0,5.0,664.0,48.0,927.0,16.0,14.0
5.87696647644043,9.0,22.0,11.0,44.0,26.0,32.0,11.0,22.0,1393.0,0.0,5.0
5.879350185394287,17.0,0.0,24.0,25.0,37.0,22.0,44.0,10.0,975.0,17.0,12.0
5.881733417510986,17.0,22.0,21.0,26.0,25.0,11.0,42.0,12.0,557.0,9.0,26.0
5.8841166496276855,16.0,33.0,17.0,16.0,17.0,5.0,37.0,11.0,910.0,14.0,23.0
5.886499881744385,46.0,25.0,19.0,46.0,24.0,36.0,32.0,28.0,832.0,19.0,21.0
5.888949871063232,54.0,12.0,6.0,58.0,16.0,26.0,45.0,35.0,754.0,5.0,531.0
5.891333103179932,21.0,0.0,24.0,0.0,22.0,15.0,37.0,679.0,12.0,14.0,642.0
5.893716812133789,24.0,18.0,15.0,10.0,33.0,45.0,388.0,555.0,883.0,23.0,182.0
5.896100044250488,50.0,0.0,29.0,10.0,0.0,5.0,739.0,98.0,454.0,6.0,5.0
5.8984832763671875,33.0,38.0,26.0,14.0,26.0,56.0,877.0,36.0,25.0,29.0,23.0
5.900866508483887,19.0,47.0,33.0,5.0,21.0,33.0,7.0,387.0,1540.0,24.0,17.0
5.903250217437744,6.0,26.0,8.0,8.0,17.0,18.0,17.0,1392.0,1684.0,18.0,15.0
5.905683517456055,11.0,25.0,16.0,10.0,5.0,5.0,16.0,1322.0,1828.0,24.0,6.0
5.908066749572754,10.0,33.0,0.0,16.0,24.0,5.0,0.0,2056.0,40.0,21.0,35.0
5.910449981689453,10.0,42.0,10.0,15.0,5.0,21.0,13.0,3679.0,1616.0,17.0,28.0
5.912833213806152,9.0,0.0,25.0,13.0,15.0,17.0,27.0,3844.0,421.0,15.0,28.0
5.915216445922852,11.0,28.0,19.0,8.0,25.0,21.0,30.0,4008.0,1296.0,13.0,29.0
5.917600154876709,8.0,26.0,0.0,38.0,19.0,13.0,34.0,4175.0,1143.0,21.0,544.0
5.919983386993408,5.0,42.0,31.0,32.0,17.0,5.0,666.0,4533.0,1538.0,64.0,743.0
5.922433376312256,6.0,38.0,34.0,5.0,14.0,19.0,610.0,4890.0,936.0,46.0,693.0
5.924816608428955,7.0,41.0,18.0,5.0,16.0,21.0,42.0,3293.0,565.0,28.0,38.0
5.927199840545654,16.0,15.0,31.0,3.0,11.0,22.0,22.0,5958.0,1540.0,24.0,0.0
5.929583549499512,12.0,6.0,38.0,0.0,5.0,8.0,6.0,7138.0,15.0,21.0,20.0
5.931966781616211,7.0,18.0,10.0,13.0,6.0,16.0,35.0,8320.0,499.0,31.0,40.0
5.93435001373291,5.0,5.0,15.0,27.0,6.0,24.0,11.0,5581.0,63.0,21.0,24.0
5.936733245849609,14.0,8.0,12.0,25.0,5.0,16.0,15.0,3314.0,363.0,10.0,44.0
5.93916654586792,17.0,11.0,8.0,24.0,12.0,21.0,18.0,3655.0,711.0,5.0,0.0
5.941549777984619,15.0,15.0,17.0,5.0,21.0,25.0,23.0,3488.0,587.0,5.0,13.0
5.943933486938477,11.0,17.0,16.0,35.0,29.0,28.0,27.0,3202.0,24.0,14.0,11.0
5.946316719055176,0.0,18.0,21.0,46.0,50.0,22.0,19.0,2405.0,34.0,15.0,17.0
5.948699951171875,0.0,28.0,26.0,39.0,41.0,327.0,12.0,1265.0,11.0,15.0,16.0
5.951083183288574,10.0,1232.0,33.0,33.0,629.0,632.0,19.0,2072.0,1106.0,36.0,15.0
5.953466892242432,21.0,1020.0,1410.0,313.0,1216.0,1999.0,390.0,675.0,1443.0,63.0,17.0
5.955916881561279,17.0,769.0,3734.0,2637.0,1756.0,1771.0,2359.0,1516.0,1459.0,64.0,5.0
5.9583001136779785,13.0,1124.0,2833.0,4668.0,7263.0,3155.0,2426.0,3499.0,1205.0,65.0,23.0
5.960683345794678,11.0,4981.0,9384.0,4799.0,14452.0,8624.0,4620.0,4374.0,951.0,1183.0,17.0
5.963066577911377,8.0,7826.0,18868.0,18848.0,21312.0,10216.0,12444.0,4009.0,6165.0,1264.0,11.0
5.965449810028076,18.0,13860.0,34672.0,34896.0,22364.0,20540.0,15116.0,13008.0,5631.0,1344.0,33.0
5.967833518981934,28.0,22752.0,50640.0,39392.0,39648.0,32256.0,28744.0,12364.0,6425.0,1090.0,1390.0
5.970216751098633,28.0,27200.0,68352.0,78240.0,61280.0,52992.0,46656.0,17380.0,13788.0,835.0,3271.0
5.972650051116943,12.0,49008.0,102800.0,108224.0,95232.0,56112.0,52240.0,30948.0,17992.0,7321.0,2756.0
5.975033283233643,28.0,65808.0,144192.0,147968.0,119968.0,91040.0,66192.0,38832.0,17164.0,12016.0,4820.0
5.977416515350342,35.0,106992.0,208640.0,163072.0,170048.0,117856.0,117216.0,57392.0,33472.0,7807.0,7255.0
5.979800224304199,0.0,123008.0,215360.0,235840.0,210624.0,172992.0,130464.0,66320.0,32208.0,11164.0,4717.0
5.982183456420898,32.0,158016.0,316672.0,278528.0,231680.0,198720.0,126480.0,69664.0,40544.0,21576.0,2178.0
5.984566688537598,0.0,176192.0,327488.0,299648.0,222208.0,163776.0,145472.0,67744.0,37712.0,23188.0,5849.0
5.986949920654297,57.0,189440.0,324288.0,322368.0,283840.0,224704.0,179776.0,90608.0,35552.0,15392.0,6916.0
5.9893999099731445,46.0,187776.0,359936.0,371456.0,299200.0,223232.0,166272.0,88960.0,37136.0,15040.0,9464.0
5.991783142089844,78.0,198464.0,396096.0,401920.0,329280.0,243776.0,202944.0,87296.0,38720.0,20192.0,9108.0
5.994166851043701,17.0,209216.0,396736.0,399168.0,310528.0,228480.0,193216.0,85872.0,43168.0,15272.0,7534.0
5.9965500831604,32.0,216064.0,397376.0,370112.0,291840.0,213184.0,167424.0,84448.0,41360.0,14812.0,8824.0
5.9989333152771,14.0,196672.0,401984.0,356288.0,292224.0,220992.0,183872.0,79168.0,39568.0,14356.0,3939.0
6.001316547393799,17.0,177344.0,379840.0,326912.0,316096.0,214144.0,156992.0,75664.0,36768.0,13364.0,7415.0
6.003699779510498,21.0,180672.0,319680.0,311744.0,242752.0,198336.0,145216.0,53472.0,37472.0,12736.0,8158.0
6.006133556365967,17.0,171008.0,287680.0,236992.0,225984.0,166464.0,130624.0,68928.0,23120.0,12108.0,1029.0
6.008516788482666,13.0,135040.0,243776.0,253952.0,169472.0,154368.0,105808.0,44096.0,32056.0,8824.0,6682.0
6.010900020599365,35.0,112352.0,203840.0,199744.0,163968.0,124496.0,83840.0,46576.0,22824.0,7712.0,1983.0
6.0132832527160645,51.0,96032.0,177344.0,145920.0,140672.0,120832.0,73520.0,32052.0,19628.0,7257.0,385.0
6.015666484832764,52.0,86848.0,159552.0,126784.0,110784.0,85040.0,48400.0,25864.0,9032.0,4795.0,13.0
6.018050193786621,53.0,64144.0,108640.0,96960.0,84128.0,64832.0,45904.0,17448.0,12204.0,3667.0,1549.0
6.02043342590332,54.0,46768.0,100016.0,83264.0,56944.0,41536.0,35248.0,21656.0,6329.0,2083.0,798.0
6.022883415222168,59.0,36448.0,68960.0,58496.0,60688.0,32240.0,23780.0,7728.0,2969.0,3625.0,46.0
6.025266647338867,46.0,33088.0,49632.0,42016.0,35936.0,23792.0,17568.0,6827.0,2564.0,3696.0,2315.0
6.027649879455566,27.0,19888.0,31676.0,40048.0,33520.0,24952.0,8768.0,6202.0,1071.0,2623.0,2239.0
6.030033111572266,17.0,12168.0,28692.0,27284.0,18304.0,11244.0,14196.0,6300.0,2081.0,404.0,514.0
6.032416820526123,45.0,11724.0,29304.0,17852.0,13476.0,19372.0,7337.0,1350.0,535.0,589.0,34.0
6.034800052642822,30.0,6733.0,11364.0,9680.0,6833.0,10684.0,1084.0,3469.0,1357.0,22.0,40.0
6.0371832847595215,21.0,5369.0,9764.0,8496.0,10872.0,2739.0,5154.0,2984.0,2179.0,292.0,8.0
6.039616584777832,12.0,8138.0,14960.0,6853.0,5087.0,5427.0,3863.0,2981.0,1513.0,45.0,40.0
6.041999816894531,38.0,5188.0,5662.0,9984.0,5838.0,4630.0,2287.0,16.0,23.0,38.0,26.0
6.044383525848389,5.0,2063.0,8064.0,7575.0,7173.0,5136.0,5583.0,3550.0,916.0,5.0,10.0
6.046766757965088,16.0,7045.0,4631.0,6702.0,7619.0,4909.0,1030.0,2420.0,817.0,0.0,24.0
6.049149990081787,51.0,1403.0,6493.0,3598.0,4001.0,3696.0,916.0,5.0,26.0,16.0,38.0
6.051533222198486,27.0,4342.0,6934.0,1997.0,1825.0,4060.0,2756.0,2000.0,1257.0,33.0,31.0
6.0539164543151855,34.0,3469.0,6241.0,5076.0,3307.0,1703.0,1572.0,1307.0,576.0,34.0,39.0
6.056350231170654,42.0,955.0,4699.0,782.0,4789.0,3813.0,916.0,74.0,742.0,36.0,48.0
6.058750152587891,46.0,2455.0,5108.0,6432.0,3674.0,5692.0,259.0,2069.0,587.0,33.0,46.0
6.06113338470459,15.0,1251.0,5401.0,2213.0,3322.0,4302.0,495.0,47.0,432.0,31.0,5.0
6.063516616821289,6.0,2673.0,5694.0,1094.0,2988.0,946.0,731.0,2372.0,564.0,27.0,24.0
6.065899848937988,50.0,264.0,3057.0,6135.0,3550.0,1782.0,599.0,2148.0,21.0,11.0,13.0
6.068283557891846,22.0,1546.0,3324.0,3418.0,3094.0,2997.0,851.0,66.0,625.0,46.0,29.0
6.070666790008545,61.0,1743.0,3111.0,3791.0,2316.0,1580.0,1102.0,1534.0,208.0,400.0,32.0
6.073050022125244,50.0,1298.0,3734.0,2770.0,2551.0,2488.0,560.0,893.0,26.0,212.0,40.0
6.075483322143555,40.0,18.0,2433.0,2758.0,3876.0,3395.0,18.0,861.0,49.0,24.0,33.0
6.077866554260254,8.0,661.0,297.0,608.0,3403.0,13.0,5.0,938.0,38.0,17.0,27.0
6.080249786376953,8.0,1304.0,819.0,1000.0,1591.0,1124.0,12.0,667.0,27.0,55.0,27.0
6.0826334953308105,23.0,1804.0,712.0,1487.0,2671.0,2487.0,26.0,396.0,28.0,45.0,5.0
6.08501672744751,14.0,891.0,731.0,12.0,69.0,696.0,430.0,26.0,15.0,34.0,41.0
6.087399959564209,6.0,852.0,750.0,2138.0,3931.0,1461.0,237.0,574.0,24.0,33.0,38.0
6.089783191680908,25.0,1490.0,897.0,1168.0,2961.0,28.0,44.0,822.0,29.0,23.0,36.0
6.092233180999756,33.0,1884.0,796.0,1187.0,665.0,900.0,0.0,417.0,34.0,43.0,41.0
6.094616889953613,0.0,165.0,696.0,1206.0,1758.0,1094.0,4.0,11.0,6.0,24.0,45.0
6.0970001220703125,8.0,990.0,859.0,832.0,1748.0,43.0,8.0,24.0,0.0,5.0,26.0
6.099383354187012,15.0,39.0,1022.0,907.0,2111.0,44.0,397.0,21.0,12.0,0.0,45.0
6.101766586303711,0.0,33.0,962.0,1635.0,204.0,46.0,219.0,37.0,12.0,23.0,33.0
6.10414981842041,10.0,27.0,633.0,1203.0,2923.0,26.0,42.0,21.0,33.0,5.0,40.0
6.106533527374268,19.0,16.0,1653.0,770.0,1828.0,21.0,5.0,5.0,53.0,21.0,17.0
6.108966827392578,5.0,5.0,2197.0,1055.0,32.0,32.0,74.0,21.0,27.0,24.0,5.0
6.111350059509277,8.0,3.0,35.0,1086.0,2197.0,31.0,22.0,32.0,0.0,35.0,23.0
6.113733291625977,11.0,0.0,2536.0,694.0,1670.0,23.0,11.0,23.0,5.0,0.0,39.0
6.116116523742676,24.0,16.0,485.0,1563.0,35.0,15.0,6.0,19.0,14.0,0.0,35.0
6.118500232696533,28.0,26.0,1765.0,1401.0,2621.0,10.0,0.0,26.0,17.0,0.0,5.0
6.120883464813232,28.0,290.0,1464.0,1497.0,238.0,5.0,804.0,24.0,21.0,18.0,43.0
6.123266696929932,29.0,161.0,1922.0,582.0,1169.0,26.0,665.0,23.0,5.0,37.0,26.0
6.125716686248779,18.0,33.0,549.0,1852.0,7.0,16.0,53.0,93.0,26.0,79.0,17.0
6.1280999183654785,31.0,71.0,6.0,1086.0,451.0,6.0,661.0,53.0,16.0,43.0,19.0
6.130483150482178,11.0,248.0,1871.0,1698.0,11.0,24.0,17.0,13.0,23.0,6.0,12.0
6.132866859436035,19.0,425.0,19.0,0.0,44.0,14.0,36.0,37.0,19.0,28.0,5.0
6.135250091552734,27.0,240.0,1743.0,1131.0,31.0,5.0,875.0,26.0,51.0,49.0,15.0
6.137633323669434,28.0,55.0,16.0,40.0,22.0,5.0,974.0,15.0,61.0,46.0,24.0
6.140016555786133,19.0,16.0,2566.0,31.0,12.0,36.0,1048.0,0.0,71.0,28.0,29.0
6.142449855804443,29.0,11.0,1095.0,22.0,298.0,570.0,0.0,10.0,19.0,10.0,14.0
6.144833564758301,15.0,6.0,738.0,8.0,1126.0,291.0,595.0,24.0,35.0,14.0,35.0
6.147216796875,16.0,3.0,381.0,370.0,1342.0,12.0,51.0,18.0,50.0,38.0,0.0
6.149600028991699,16.0,0.0,545.0,185.0,11.0,48.0,720.0,11.0,23.0,38.0,0.0
6.151983261108398,11.0,7.0,708.0,0.0,0.0,8.0,46.0,23.0,47.0,13.0,0.0
6.154366493225098,10.0,14.0,34.0,636.0,683.0,959.0,5.0,35.0,24.0,21.0,8.0
6.156750202178955,23.0,10.0,236.0,658.0,817.0,1071.0,27.0,30.0,0.0,29.0,8.0
6.1591668128967285,23.0,5.0,439.0,601.0,469.0,0.0,19.0,24.0,8.0,15.0,7.0
6.161550045013428,44.0,25.0,486.0,569.0,6.0,1295.0,11.0,17.0,15.0,37.0,21.0
6.163933277130127,105.0,18.0,250.0,537.0,810.0,448.0,11.0,14.0,38.0,44.0,13.0
6.166316509246826,130.0,12.0,13.0,15.0,25.0,744.0,10.0,11.0,36.0,5.0,6.0
6.168700218200684,61.0,14.0,80.0,832.0,12.0,483.0,15.0,35.0,34.0,22.0,24.0
6.171083450317383,0.0,15.0,148.0,67.0,22.0,10.0,11.0,62.0,39.0,37.0,5.0
6.173466682434082,14.0,10.0,485.0,12.0,18.0,659.0,6.0,46.0,30.0,13.0,20.0
6.17591667175293,0.0,11.0,362.0,688.0,12.0,482.0,26.0,30.0,21.0,28.0,35.0
6.178299903869629,16.0,5.0,239.0,0.0,14.0,257.0,50.0,16.0,18.0,0.0,20.0
6.180683135986328,11.0,7.0,724.0,453.0,398.0,43.0,74.0,18.0,5.0,8.0,5.0
6.1830668449401855,5.0,9.0,631.0,38.0,202.0,19.0,81.0,19.0,14.0,16.0,6.0
6.185450077056885,0.0,12.0,539.0,5.0,5.0,12.0,51.0,5.0,23.0,26.0,6.0
6.187833309173584,21.0,25.0,49.0,32.0,5.0,22.0,22.0,5.0,12.0,15.0,11.0
6.190216541290283,41.0,38.0,54.0,42.0,15.0,39.0,29.0,11.0,23.0,18.0,15.0
6.192649841308594,41.0,41.0,58.0,51.0,11.0,34.0,33.0,14.0,11.0,13.0,17.0
6.195033550262451,41.0,36.0,31.0,365.0,6.0,0.0,38.0,17.0,11.0,0.0,19.0
6.19741678237915,12.0,28.0,41.0,198.0,780.0,28.0,10.0,29.0,11.0,10.0,23.0
