,486.2099914550781,487.2099914550781,488.2099914550781,489.2099914550781,490.2099914550781,491.2099914550781,492.2099914550781,493.2099914550781
5.101733207702637,21.0,39.0,13.0,74.0,8.0,24.0,10.0,36.0
5.103466510772705,5.0,22.0,73.0,10.0,11.0,105.0,44.0,23.0
5.105199813842773,53.0,50.0,31.0,11.0,17.0,57.0,24.0,12.0
5.106933116912842,33.0,8.0,19.0,26.0,16.0,43.0,16.0,31.0
5.108666896820068,43.0,22.0,43.0,13.0,15.0,38.0,0.0,17.0
5.110400199890137,19.0,24.0,42.0,24.0,19.0,16.0,5.0,22.0
5.112133502960205,22.0,20.0,41.0,22.0,6.0,39.0,3.0,13.0
5.113866806030273,47.0,15.0,24.0,20.0,25.0,15.0,0.0,5.0
5.115600109100342,22.0,17.0,24.0,20.0,20.0,31.0,8.0,17.0
5.117400169372559,19.0,19.0,24.0,25.0,15.0,30.0,6.0,30.0
5.119133472442627,15.0,20.0,19.0,10.0,0.0,16.0,5.0,32.0
5.120866775512695,38.0,21.0,14.0,12.0,0.0,8.0,5.0,16.0
5.122600078582764,41.0,10.0,7.0,14.0,0.0,0.0,5.0,0.0
5.124333381652832,51.0,0.0,10.0,26.0,11.0,34.0,38.0,15.0
5.1260666847229,14.0,5.0,11.0,21.0,22.0,44.0,34.0,30.0
5.127799987792969,55.0,11.0,20.0,16.0,37.0,43.0,5.0,29.0
5.129533290863037,51.0,17.0,16.0,5.0,39.0,11.0,19.0,25.0
5.1312665939331055,12.0,16.0,12.0,36.0,41.0,23.0,43.0,20.0
5.132999897003174,15.0,12.0,27.0,29.0,50.0,15.0,14.0,10.0
5.1347832679748535,24.0,22.0,40.0,29.0,0.0,5.0,15.0,0.0
5.136516571044922,28.0,22.0,39.0,33.0,5.0,15.0,16.0,5.0
5.13824987411499,20.0,23.0,0.0,27.0,22.0,14.0,13.0,23.0
5.139983177185059,5.0,14.0,16.0,41.0,5.0,12.0,6.0,23.0
5.141716480255127,0.0,5.0,15.0,16.0,19.0,0.0,7.0,30.0
5.143449783325195,10.0,25.0,20.0,0.0,33.0,6.0,7.0,24.0
5.145183563232422,16.0,20.0,17.0,28.0,21.0,12.0,7.0,13.0
5.14691686630249,11.0,5.0,6.0,16.0,0.0,19.0,7.0,39.0
5.148666858673096,16.0,15.0,20.0,5.0,38.0,11.0,6.0,6.0
5.150383472442627,21.0,26.0,34.0,11.0,17.0,10.0,5.0,49.0
5.152183532714844,49.0,37.0,28.0,7.0,49.0,27.0,47.0,16.0
5.153916835784912,39.0,23.0,13.0,9.0,28.0,34.0,44.0,29.0
5.1556501388549805,29.0,5.0,43.0,10.0,30.0,25.0,23.0,30.0
5.157383441925049,36.0,20.0,35.0,20.0,27.0,17.0,32.0,0.0
5.159116744995117,5.0,18.0,28.0,20.0,14.0,23.0,39.0,15.0
5.1608500480651855,26.0,17.0,15.0,20.0,5.0,29.0,58.0,44.0
5.162583351135254,22.0,0.0,22.0,11.0,10.0,39.0,62.0,26.0
5.164316654205322,6.0,10.0,14.0,31.0,10.0,47.0,19.0,5.0
5.166049957275391,8.0,14.0,6.0,34.0,6.0,50.0,13.0,17.0
5.167783260345459,10.0,14.0,42.0,29.0,49.0,32.0,15.0,19.0
5.169583320617676,60.0,14.0,25.0,5.0,39.0,29.0,6.0,20.0
5.171316623687744,63.0,13.0,7.0,30.0,13.0,23.0,50.0,13.0
5.1730499267578125,41.0,9.0,19.0,35.0,20.0,18.0,44.0,6.0
5.174783229827881,7.0,5.0,19.0,46.0,22.0,6.0,22.0,20.0
5.176516532897949,9.0,13.0,49.0,19.0,27.0,12.0,40.0,17.0
5.178249835968018,22.0,14.0,35.0,29.0,24.0,22.0,17.0,9.0
5.179983139038086,18.0,15.0,22.0,45.0,21.0,5.0,0.0,0.0
5.181716442108154,15.0,33.0,26.0,5.0,25.0,35.0,27.0,20.0
5.183450222015381,16.0,51.0,13.0,24.0,22.0,32.0,11.0,5.0
5.185233116149902,17.0,63.0,11.0,5.0,20.0,24.0,0.0,19.0
5.186966896057129,19.0,0.0,14.0,8.0,7.0,5.0,21.0,33.0
5.188716888427734,20.0,38.0,18.0,10.0,0.0,6.0,17.0,28.0
5.190433502197266,13.0,13.0,15.0,17.0,5.0,17.0,14.0,24.0
5.192166805267334,17.0,26.0,11.0,24.0,5.0,16.0,10.0,20.0
5.193900108337402,21.0,38.0,6.0,12.0,5.0,15.0,13.0,41.0
5.195633411407471,22.0,12.0,12.0,0.0,8.0,15.0,17.0,29.0
5.197366714477539,11.0,20.0,5.0,10.0,11.0,25.0,24.0,17.0
5.199100017547607,16.0,12.0,0.0,10.0,15.0,35.0,24.0,38.0
5.202600002288818,29.0,15.0,30.0,10.0,20.0,26.0,24.0,20.0
5.206066608428955,27.0,18.0,20.0,21.0,25.0,17.0,0.0,23.0
5.209533214569092,9.0,20.0,10.0,27.0,6.0,25.0,12.0,27.0
5.2129998207092285,22.0,22.0,16.0,43.0,9.0,22.0,20.0,10.0
5.216466903686523,38.0,6.0,23.0,107.0,11.0,20.0,42.0,20.0
5.21999979019165,26.0,20.0,41.0,65.0,14.0,12.0,50.0,42.0
5.223466873168945,20.0,33.0,36.0,24.0,17.0,46.0,0.0,40.0
5.226933479309082,25.0,42.0,39.0,19.0,17.0,60.0,41.0,34.0
5.230400085449219,15.0,15.0,0.0,41.0,21.0,5.0,27.0,5.0
5.2338666915893555,5.0,8.0,29.0,36.0,25.0,27.0,5.0,17.0
5.237400054931641,21.0,30.0,0.0,62.0,27.0,20.0,9.0,46.0
5.240866661071777,21.0,11.0,32.0,61.0,10.0,25.0,12.0,25.0
5.244333267211914,0.0,36.0,26.0,29.0,20.0,34.0,14.0,40.0
5.247799873352051,35.0,23.0,21.0,19.0,15.0,7.0,41.0,34.0
5.2512664794921875,60.0,50.0,10.0,44.0,10.0,10.0,31.0,26.0
5.254799842834473,36.0,43.0,21.0,0.0,21.0,13.0,22.0,17.0
5.258266448974609,8.0,33.0,13.0,13.0,27.0,14.0,21.0,22.0
5.261733531951904,83.0,27.0,24.0,26.0,24.0,14.0,37.0,26.0
5.265200138092041,42.0,0.0,20.0,24.0,26.0,31.0,5.0,17.0
5.268666744232178,10.0,28.0,15.0,23.0,28.0,27.0,0.0,8.0
5.272200107574463,90.0,11.0,8.0,28.0,11.0,26.0,45.0,24.0
5.2756667137146,34.0,9.0,18.0,0.0,0.0,30.0,41.0,24.0
5.279133319854736,39.0,7.0,5.0,15.0,5.0,11.0,32.0,26.0
5.282599925994873,14.0,9.0,17.0,31.0,15.0,8.0,12.0,28.0
5.28606653213501,28.0,24.0,38.0,30.0,12.0,5.0,7.0,5.0
5.289599895477295,10.0,43.0,38.0,21.0,9.0,16.0,23.0,5.0
5.293066501617432,35.0,34.0,26.0,35.0,16.0,21.0,19.0,25.0
5.296533107757568,31.0,25.0,14.0,17.0,23.0,0.0,31.0,18.0
5.300000190734863,32.0,17.0,22.0,20.0,22.0,22.0,24.0,11.0
5.303500175476074,33.0,36.0,74.0,22.0,24.0,9.0,19.0,8.0
5.307000160217285,35.0,23.0,85.0,20.0,33.0,7.0,15.0,5.0
5.310466766357422,13.0,23.0,57.0,22.0,42.0,5.0,16.0,36.0
5.313933372497559,28.0,15.0,0.0,25.0,30.0,11.0,16.0,43.0
5.317399978637695,21.0,7.0,30.0,24.0,17.0,10.0,12.0,31.0
5.320883274078369,31.0,12.0,15.0,24.0,5.0,12.0,19.0,20.0
5.324349880218506,30.0,16.0,15.0,0.0,5.0,12.0,19.0,22.0
5.327816486358643,29.0,11.0,15.0,25.0,5.0,11.0,20.0,21.0
5.3312835693359375,27.0,5.0,11.0,10.0,13.0,17.0,26.0,21.0
5.334750175476074,30.0,33.0,9.0,12.0,51.0,9.0,23.0,25.0
5.338283538818359,34.0,27.0,7.0,28.0,46.0,0.0,21.0,15.0
5.341750144958496,9.0,22.0,10.0,17.0,0.0,19.0,17.0,5.0
5.345216751098633,24.0,5.0,12.0,36.0,8.0,12.0,13.0,29.0
5.3486833572387695,6.0,27.0,38.0,36.0,15.0,5.0,19.0,18.0
5.352149963378906,17.0,33.0,49.0,30.0,15.0,12.0,15.0,0.0
5.355683326721191,53.0,14.0,44.0,12.0,7.0,28.0,11.0,9.0
5.359149932861328,49.0,45.0,38.0,12.0,19.0,32.0,32.0,17.0
5.362616539001465,15.0,5.0,16.0,11.0,23.0,21.0,38.0,29.0
5.366083145141602,55.0,33.0,12.0,17.0,20.0,21.0,5.0,20.0
5.3695502281188965,25.0,44.0,19.0,24.0,6.0,6.0,25.0,10.0
5.373083114624023,16.0,9.0,20.0,61.0,12.0,46.0,8.0,38.0
5.376550197601318,7.0,40.0,29.0,50.0,20.0,52.0,25.0,33.0
5.380016803741455,24.0,39.0,33.0,40.0,9.0,10.0,20.0,48.0
5.383483409881592,23.0,34.0,37.0,30.0,21.0,23.0,15.0,11.0
5.3869500160217285,20.0,33.0,55.0,23.0,21.0,16.0,0.0,11.0
5.390466690063477,26.0,33.0,0.0,7.0,22.0,18.0,21.0,10.0
5.393933296203613,23.0,34.0,38.0,13.0,23.0,21.0,5.0,18.0
5.39739990234375,23.0,51.0,12.0,19.0,25.0,16.0,5.0,18.0
5.400866508483887,23.0,68.0,7.0,14.0,31.0,11.0,5.0,18.0
5.404333114624023,11.0,81.0,26.0,10.0,29.0,0.0,35.0,11.0
5.407866477966309,25.0,93.0,8.0,32.0,28.0,27.0,33.0,8.0
5.4113335609436035,20.0,63.0,0.0,81.0,23.0,47.0,0.0,5.0
5.41480016708374,31.0,33.0,31.0,43.0,18.0,30.0,38.0,14.0
5.418266773223877,33.0,35.0,29.0,5.0,5.0,8.0,29.0,10.0
5.421733379364014,5.0,12.0,30.0,24.0,8.0,6.0,55.0,5.0
5.425266742706299,7.0,17.0,16.0,21.0,11.0,0.0,23.0,5.0
5.4287333488464355,39.0,27.0,12.0,19.0,16.0,11.0,22.0,5.0
5.432199954986572,33.0,20.0,35.0,31.0,21.0,17.0,14.0,22.0
5.435666561126709,44.0,27.0,52.0,32.0,42.0,27.0,13.0,39.0
5.439199924468994,17.0,19.0,44.0,33.0,28.0,36.0,20.0,55.0
5.442666530609131,9.0,10.0,2264.0,168.0,13.0,41.0,23.0,46.0
5.446133136749268,55.0,3625.0,3531.0,1410.0,1651.0,2547.0,42.0,35.0
5.4496002197265625,0.0,6765.0,7249.0,8592.0,7403.0,2733.0,2162.0,24.0
5.453066825866699,72.0,6714.0,14804.0,12200.0,7631.0,7531.0,4411.0,1239.0
5.456550121307373,26.0,6002.0,28048.0,19772.0,22760.0,11136.0,4553.0,1411.0
5.46001672744751,41.0,17492.0,35920.0,47616.0,30472.0,9496.0,9916.0,740.0
5.4634833335876465,35.0,20156.0,51200.0,73616.0,40192.0,23464.0,13112.0,2304.0
5.466949939727783,42.0,24240.0,70064.0,70656.0,57296.0,41088.0,13244.0,3999.0
5.47041654586792,31.0,28328.0,76848.0,90064.0,67328.0,47472.0,20516.0,4250.0
5.473966598510742,21.0,44560.0,108736.0,113504.0,83584.0,44976.0,21120.0,4500.0
5.477433204650879,52.0,50368.0,105440.0,106784.0,88016.0,50448.0,13616.0,3067.0
5.480899810791016,33.0,58752.0,107168.0,113296.0,88256.0,46992.0,22168.0,3926.0
5.4843668937683105,13.0,53744.0,107296.0,103840.0,90304.0,43536.0,22176.0,6035.0
5.487850189208984,66.0,49248.0,121840.0,100480.0,94432.0,40048.0,17388.0,6272.0
5.491333484649658,53.0,42320.0,86544.0,90432.0,80128.0,46016.0,13768.0,4921.0
5.494800090789795,68.0,34208.0,80048.0,92544.0,72944.0,43088.0,15692.0,3328.0
5.498266696929932,40.0,31264.0,69280.0,73584.0,56576.0,26572.0,11480.0,3115.0
5.501733303070068,16.0,23512.0,51088.0,57440.0,42176.0,17212.0,5432.0,674.0
5.505199909210205,47.0,19048.0,30404.0,32188.0,26380.0,15604.0,3941.0,2037.0
5.50873327255249,0.0,13672.0,30700.0,28764.0,15252.0,7664.0,5757.0,3624.0
5.512199878692627,40.0,7481.0,12208.0,17564.0,16604.0,12392.0,2210.0,330.0
5.515666484832764,10.0,5995.0,16276.0,12356.0,7448.0,3503.0,1793.0,35.0
5.519133567810059,5.0,4843.0,10976.0,15296.0,7817.0,2222.0,736.0,21.0
5.522600173950195,0.0,1553.0,4066.0,7608.0,8146.0,2117.0,40.0,15.0
5.526116847991943,4.0,3225.0,5434.0,6799.0,3125.0,1738.0,941.0,10.0
5.52958345413208,7.0,4085.0,6703.0,2515.0,4892.0,1360.0,17.0,5.0
5.533050060272217,29.0,1202.0,2336.0,4048.0,1919.0,1473.0,1818.0,6.0
5.5365166664123535,29.0,1513.0,1195.0,1996.0,5653.0,942.0,1382.0,7.0
5.53998327255249,29.0,23.0,2843.0,3725.0,559.0,1898.0,5.0,17.0
5.543516635894775,11.0,632.0,1943.0,5275.0,2121.0,1809.0,1659.0,14.0
5.546983242034912,19.0,1074.0,1131.0,1597.0,1624.0,24.0,19.0,10.0
5.550449848175049,32.0,21.0,1359.0,1282.0,1480.0,501.0,5.0,13.0
5.5539164543151855,0.0,1535.0,1586.0,2192.0,0.0,11.0,1510.0,20.0
5.557449817657471,10.0,881.0,1854.0,1057.0,772.0,19.0,10.0,14.0
5.560916900634766,46.0,39.0,1650.0,2624.0,620.0,18.0,40.0,8.0
5.564383506774902,48.0,30.0,1446.0,632.0,615.0,15.0,2233.0,32.0
5.567850112915039,0.0,31.0,7.0,98.0,57.0,18.0,1261.0,19.0
5.571316719055176,34.0,456.0,1277.0,31.0,43.0,21.0,21.0,6.0
5.574850082397461,70.0,233.0,14.0,1468.0,30.0,10.0,12.0,6.0
5.578316688537598,37.0,10.0,905.0,1694.0,38.0,0.0,1107.0,5.0
5.581783294677734,5.0,30.0,489.0,997.0,46.0,7.0,22.0,15.0
5.585249900817871,7.0,357.0,1259.0,983.0,51.0,14.0,13.0,13.0
5.588716506958008,41.0,512.0,851.0,29.0,505.0,38.0,13.0,11.0
5.592233180999756,27.0,668.0,442.0,770.0,649.0,1112.0,12.0,14.0
5.595699787139893,15.0,40.0,780.0,656.0,558.0,1288.0,12.0,40.0
