,325.2099914550781,326.2099914550781,327.2099914550781,328.2099914550781,329.2099914550781,330.2099914550781,331.2099914550781,332.2099914550781
2.301949977874756,19.0,41.0,16.0,24.0,26.0,16.0,16.0,25.0
2.3045833110809326,5.0,18.0,51.0,0.0,23.0,208.0,16.0,0.0
2.3078665733337402,11.0,38.0,35.0,24.0,10.0,29.0,15.0,17.0
2.3111166954040527,33.0,15.0,37.0,23.0,22.0,68.0,16.0,15.0
2.314366579055786,35.0,45.0,32.0,22.0,19.0,34.0,17.0,13.0
2.3176167011260986,25.0,32.0,13.0,12.0,16.0,43.0,14.0,11.0
2.320866584777832,16.0,6.0,10.0,28.0,10.0,13.0,26.0,0.0
2.3241333961486816,13.0,29.0,42.0,29.0,5.0,0.0,24.0,20.0
2.327383279800415,24.0,17.0,56.0,22.0,15.0,38.0,11.0,0.0
2.3306334018707275,17.0,15.0,35.0,14.0,14.0,0.0,31.0,26.0
2.333883285522461,10.0,11.0,10.0,30.0,13.0,25.0,52.0,27.0
2.3371334075927734,14.0,15.0,0.0,5.0,15.0,19.0,49.0,6.0
2.3404500484466553,15.0,27.0,10.0,17.0,11.0,33.0,13.0,40.0
2.3436999320983887,17.0,28.0,7.0,26.0,8.0,27.0,19.0,29.0
2.346950054168701,19.0,0.0,6.0,20.0,7.0,22.0,0.0,19.0
2.3501999378204346,21.0,6.0,3.0,0.0,7.0,14.0,23.0,27.0
2.353450059890747,29.0,22.0,0.0,15.0,6.0,31.0,5.0,26.0
2.356766700744629,0.0,19.0,17.0,10.0,5.0,29.0,10.0,15.0
2.3600165843963623,9.0,16.0,22.0,5.0,5.0,28.0,10.0,0.0
2.363266706466675,17.0,0.0,28.0,20.0,6.0,24.0,11.0,0.0
2.366516590118408,9.0,0.0,350.0,25.0,19.0,20.0,18.0,0.0
2.3697667121887207,0.0,21.0,190.0,10.0,14.0,50.0,39.0,48.0
2.3730833530426025,5.0,18.0,30.0,214.0,10.0,206.0,41.0,47.0
2.376333236694336,11.0,15.0,2847.0,419.0,1365.0,109.0,43.0,31.0
2.3795833587646484,17.0,812.0,5724.0,2225.0,854.0,12.0,17.0,15.0
2.382833242416382,15.0,2014.0,10112.0,6131.0,343.0,1037.0,1018.0,705.0
2.3860833644866943,0.0,3819.0,6940.0,6700.0,4336.0,1498.0,926.0,1399.0
2.389349937438965,14.0,5720.0,10580.0,8648.0,10052.0,6427.0,2314.0,2022.0
2.3926000595092773,27.0,6280.0,17888.0,17408.0,7063.0,6826.0,3699.0,2070.0
2.3958499431610107,17.0,6840.0,23772.0,23008.0,20196.0,10780.0,5083.0,1438.0
2.3991000652313232,0.0,17964.0,25720.0,32756.0,23452.0,9680.0,5903.0,1930.0
2.4023499488830566,12.0,21272.0,34112.0,24856.0,29928.0,8576.0,6724.0,2422.0
2.405600070953369,22.0,15632.0,42752.0,38640.0,30272.0,10432.0,7567.0,3393.0
2.408916711807251,7.0,18148.0,46400.0,51072.0,37072.0,13128.0,8408.0,4364.0
2.4121665954589844,5.0,26436.0,59104.0,48288.0,38304.0,16312.0,14472.0,4219.0
2.415416717529297,16.0,23308.0,51952.0,53184.0,38592.0,26540.0,21032.0,6353.0
2.4186666011810303,27.0,28696.0,54272.0,55408.0,37040.0,25992.0,18468.0,5124.0
2.4219167232513428,27.0,28216.0,58272.0,51936.0,35488.0,26072.0,16284.0,3896.0
2.4252333641052246,27.0,25020.0,62288.0,48464.0,43728.0,30028.0,15072.0,5509.0
2.428483247756958,30.0,36064.0,79168.0,63488.0,48176.0,38208.0,19404.0,7123.0
2.4317333698272705,5.0,40816.0,77744.0,78512.0,44496.0,36496.0,26804.0,12672.0
2.434983253479004,10.0,36512.0,108576.0,87728.0,68480.0,42592.0,27356.0,11960.0
2.4382333755493164,0.0,38992.0,98352.0,94736.0,82976.0,42368.0,25388.0,5251.0
2.4415500164031982,9.0,43456.0,107536.0,93680.0,81104.0,43024.0,25796.0,7824.0
2.4447999000549316,19.0,47936.0,111520.0,93856.0,82576.0,47776.0,27328.0,10396.0
2.448050022125244,67.0,45040.0,110384.0,109456.0,64736.0,47776.0,28864.0,14280.0
2.4512999057769775,45.0,52816.0,103120.0,110112.0,78224.0,47776.0,28372.0,12776.0
2.45455002784729,23.0,50688.0,111040.0,110784.0,77568.0,48640.0,27880.0,16104.0
2.4578166007995605,24.0,48576.0,118976.0,108048.0,76912.0,49504.0,25236.0,17148.0
2.461066722869873,12.0,42288.0,115856.0,108288.0,83984.0,40496.0,22592.0,6102.0
2.4643332958221436,27.0,50128.0,125168.0,108528.0,68592.0,48000.0,30552.0,8500.0
2.467583417892456,20.0,43328.0,103904.0,99920.0,74560.0,45552.0,30228.0,18140.0
2.4708333015441895,29.0,36528.0,92560.0,102528.0,85200.0,38448.0,29564.0,14908.0
2.474133253097534,10.0,53728.0,114704.0,105136.0,66208.0,43312.0,29756.0,9872.0
2.4773833751678467,14.0,50512.0,96656.0,98016.0,74176.0,34576.0,29948.0,14240.0
2.48063325881958,18.0,51040.0,90320.0,90896.0,64720.0,42720.0,28048.0,12024.0
2.4838833808898926,11.0,42768.0,94352.0,99856.0,66384.0,43904.0,25300.0,9480.0
2.487133264541626,5.0,46496.0,98384.0,104160.0,59120.0,32320.0,22312.0,6632.0
2.4904332160949707,40.0,46640.0,81664.0,90272.0,57456.0,36688.0,22968.0,9248.0
2.4937000274658203,45.0,42560.0,85984.0,105472.0,65824.0,38080.0,26224.0,10772.0
2.4969499111175537,30.0,37504.0,86592.0,85280.0,55312.0,29044.0,23620.0,12296.0
2.5002167224884033,16.0,29840.0,66592.0,74416.0,58272.0,23428.0,26476.0,11748.0
2.5034666061401367,23.0,35376.0,82992.0,71792.0,48528.0,31356.0,22272.0,6561.0
2.506716728210449,19.0,36672.0,68176.0,66240.0,44416.0,25432.0,22116.0,9680.0
2.510016679763794,33.0,34560.0,72304.0,52224.0,39728.0,26060.0,17476.0,4318.0
2.5132665634155273,47.0,32452.0,58752.0,57632.0,44928.0,26692.0,13788.0,4070.0
2.51651668548584,53.0,33872.0,58272.0,42896.0,37632.0,22304.0,19684.0,9588.0
2.5197665691375732,13.0,19736.0,59792.0,37456.0,31032.0,19332.0,17348.0,4197.0
2.5230166912078857,47.0,26516.0,42592.0,47360.0,32864.0,21908.0,13552.0,4699.0
2.5263333320617676,21.0,25160.0,30340.0,43104.0,38624.0,13356.0,9176.0,6152.0
2.529583215713501,15.0,19384.0,41568.0,33520.0,24688.0,13524.0,10048.0,4177.0
2.5328333377838135,5.0,14448.0,35840.0,33952.0,22008.0,11404.0,3494.0,2857.0
2.536083221435547,5.0,10000.0,24100.0,17904.0,15024.0,16584.0,10232.0,1412.0
2.5393333435058594,13.0,7234.0,19460.0,24868.0,16532.0,5489.0,8520.0,763.0
2.542649984359741,9.0,4806.0,18168.0,14892.0,9812.0,3050.0,4837.0,1101.0
2.5459001064300537,6.0,3460.0,16720.0,13584.0,11052.0,6375.0,5736.0,1598.0
2.549149990081787,10.0,8264.0,7701.0,8880.0,6942.0,2693.0,5513.0,1106.0
2.5524001121520996,10.0,1974.0,10268.0,11032.0,12136.0,2042.0,2736.0,614.0
2.555649995803833,24.0,791.0,9852.0,6399.0,8376.0,4418.0,1604.0,1413.0
2.558966636657715,26.0,3284.0,5363.0,7110.0,2123.0,874.0,1580.0,256.0
2.5622167587280273,15.0,3614.0,3911.0,7597.0,2458.0,1523.0,973.0,1203.0
2.5654666423797607,13.0,2260.0,3823.0,4585.0,4569.0,901.0,1299.0,559.0
2.5687167644500732,11.0,15.0,5522.0,3932.0,1715.0,1274.0,851.0,28.0
2.5719666481018066,15.0,939.0,3032.0,3889.0,354.0,1648.0,1129.0,549.0
2.5752499103546143,16.0,112.0,3194.0,2612.0,3063.0,1824.0,799.0,1070.0
2.578533411026001,17.0,110.0,806.0,565.0,3410.0,472.0,51.0,702.0
2.5817832946777344,13.0,24.0,1510.0,709.0,1804.0,822.0,18.0,308.0
2.585033416748047,10.0,521.0,1361.0,2189.0,5.0,915.0,860.0,5.0
2.5882833003997803,30.0,403.0,866.0,10.0,17.0,751.0,443.0,18.0
2.5915334224700928,18.0,697.0,79.0,382.0,790.0,586.0,26.0,23.0
2.5947999954223633,6.0,933.0,41.0,698.0,760.0,37.0,936.0,23.0
2.598050117492676,0.0,773.0,908.0,20.0,6.0,1026.0,468.0,24.0
2.601300001144409,13.0,614.0,511.0,52.0,584.0,527.0,0.0,954.0
2.6045498847961426,15.0,486.0,1116.0,84.0,1162.0,27.0,15.0,1162.0
2.607800006866455,7.0,522.0,1060.0,458.0,56.0,764.0,99.0,30.0
2.611116647720337,0.0,13.0,946.0,832.0,20.0,103.0,397.0,435.0
2.6143667697906494,12.0,679.0,9.0,612.0,24.0,600.0,206.0,14.0
2.617616653442383,17.0,41.0,30.0,1622.0,28.0,40.0,15.0,20.0
2.6208667755126953,23.0,29.0,51.0,1499.0,19.0,1700.0,50.0,5.0
2.6241166591644287,26.0,28.0,33.0,54.0,19.0,1320.0,656.0,50.0
2.6274333000183105,19.0,27.0,14.0,1608.0,128.0,24.0,480.0,30.0
2.630683422088623,21.0,6.0,904.0,12.0,1154.0,1089.0,304.0,11.0
2.6339333057403564,18.0,37.0,456.0,837.0,1270.0,0.0,77.0,17.0
2.637183427810669,17.0,18.0,8.0,1055.0,66.0,5.0,0.0,19.0
2.6404333114624023,20.0,0.0,22.0,249.0,18.0,22.0,41.0,21.0
2.643749952316284,23.0,16.0,37.0,399.0,284.0,10.0,35.0,14.0
2.6470000743865967,6.0,32.0,230.0,45.0,153.0,45.0,18.0,9.0
2.65024995803833,33.0,19.0,123.0,35.0,23.0,415.0,12.0,5.0
2.6535000801086426,22.0,6.0,17.0,86.0,6.0,213.0,6.0,2.0
2.656749963760376,14.0,43.0,170.0,48.0,113.0,11.0,37.0,0.0
2.660066604614258,19.0,37.0,324.0,10.0,221.0,556.0,391.0,0.0
2.6633167266845703,19.0,15.0,187.0,45.0,259.0,49.0,383.0,0.0
2.6665666103363037,19.0,10.0,50.0,31.0,135.0,0.0,22.0,0.0
2.669816732406616,6.0,18.0,22.0,56.0,12.0,18.0,39.0,8.0
2.6730666160583496,0.0,0.0,32.0,6.0,14.0,40.0,46.0,16.0
2.676316738128662,20.0,19.0,5.0,12.0,17.0,0.0,53.0,20.0
2.679616689682007,23.0,0.0,16.0,61.0,15.0,10.0,46.0,17.0
2.6828665733337402,22.0,3.0,28.0,48.0,14.0,20.0,302.0,17.0
2.6861166954040527,21.0,6.0,20.0,5.0,475.0,21.0,574.0,18.0
2.689366579055786,25.0,655.0,22.0,20.0,251.0,21.0,553.0,0.0
2.6926167011260986,10.0,340.0,24.0,135.0,27.0,12.0,64.0,53.0
2.6959333419799805,30.0,25.0,17.0,71.0,42.0,46.0,8.0,43.0
2.699183225631714,25.0,50.0,11.0,6.0,49.0,97.0,270.0,28.0
2.7024333477020264,58.0,36.0,23.0,21.0,39.0,51.0,14.0,8.0
2.7056832313537598,57.0,11.0,30.0,0.0,30.0,5.0,26.0,14.0
2.7089333534240723,42.0,18.0,40.0,10.0,0.0,7.0,23.0,21.0
2.712249994277954,0.0,12.0,234.0,17.0,29.0,28.0,21.0,14.0
2.7155001163482666,11.0,21.0,340.0,22.0,17.0,0.0,25.0,34.0
2.71875,43.0,16.0,446.0,5.0,35.0,17.0,45.0,32.0
2.7219998836517334,19.0,20.0,90.0,11.0,326.0,18.0,334.0,21.0
2.725250005722046,43.0,25.0,6.0,19.0,175.0,36.0,167.0,40.0
2.7285499572753906,12.0,21.0,25.0,12.0,24.0,54.0,0.0,29.0
2.731800079345703,11.0,17.0,7.0,5.0,28.0,57.0,456.0,19.0
2.7350499629974365,48.0,19.0,25.0,29.0,57.0,28.0,16.0,10.0
2.738300085067749,43.0,22.0,30.0,28.0,32.0,0.0,570.0,26.0
2.7415499687194824,12.0,23.0,35.0,27.0,7.0,12.0,0.0,24.0
2.7448666095733643,34.0,0.0,33.0,11.0,23.0,0.0,633.0,20.0
2.7481167316436768,36.0,5.0,0.0,29.0,20.0,5.0,35.0,16.0
2.75136661529541,46.0,5.0,27.0,47.0,26.0,11.0,0.0,33.0
2.7546167373657227,40.0,27.0,54.0,56.0,16.0,10.0,0.0,26.0
2.757866621017456,10.0,175.0,38.0,69.0,5.0,13.0,0.0,20.0
2.7611167430877686,12.0,93.0,22.0,82.0,18.0,14.0,11.0,30.0
2.7644333839416504,12.0,11.0,10.0,411.0,285.0,15.0,23.0,0.0
2.767683267593384,12.0,21.0,12.0,213.0,551.0,14.0,23.0,41.0
2.7709333896636963,8.0,23.0,44.0,16.0,288.0,13.0,24.0,31.0
2.7741832733154297,16.0,11.0,26.0,7.0,26.0,116.0,0.0,21.0
2.777433395385742,25.0,0.0,9.0,23.0,746.0,65.0,30.0,15.0
2.780733346939087,28.0,2.0,17.0,39.0,372.0,15.0,266.0,10.0
2.7839832305908203,36.0,5.0,31.0,34.0,953.0,16.0,367.0,12.0
2.787233352661133,0.0,2.0,45.0,30.0,705.0,14.0,467.0,15.0
2.790483236312866,41.0,0.0,43.0,0.0,458.0,5.0,594.0,22.0
2.7937333583831787,20.0,32.0,35.0,13.0,236.0,23.0,720.0,29.0
2.7970499992370605,0.0,27.0,11.0,31.0,14.0,14.0,178.0,41.0
2.800299882888794,32.0,9.0,23.0,0.0,658.0,5.0,1895.0,32.0
2.8035500049591064,30.0,39.0,20.0,6.0,332.0,25.0,1496.0,23.0
2.80679988861084,28.0,47.0,17.0,12.0,6.0,46.0,1096.0,38.0
2.8100500106811523,5.0,10.0,18.0,17.0,540.0,36.0,3847.0,1835.0
2.813349962234497,12.0,58.0,18.0,18.0,641.0,31.0,4562.0,1509.0
2.8166167736053467,20.0,5.0,15.0,7.0,896.0,19.0,5469.0,1552.0
2.81986665725708,19.0,14.0,13.0,13.0,916.0,36.0,7957.0,1731.0
2.8231167793273926,19.0,23.0,12.0,33.0,935.0,32.0,13656.0,1289.0
2.826366662979126,20.0,15.0,5.0,22.0,944.0,39.0,18900.0,848.0
2.8296666145324707,33.0,7.0,43.0,12.0,953.0,25.0,19188.0,1503.0
2.832916736602783,34.0,5.0,54.0,32.0,846.0,12.0,18452.0,1438.0
2.8361666202545166,30.0,15.0,14.0,26.0,738.0,13.0,26828.0,1484.0
2.839416742324829,26.0,13.0,38.0,20.0,30.0,15.0,27544.0,804.0
2.8426666259765625,0.0,11.0,24.0,899.0,804.0,33.0,40832.0,2203.0
2.845916748046875,29.0,18.0,19.0,802.0,1578.0,52.0,37872.0,1576.0
2.849233388900757,36.0,26.0,15.0,33.0,1291.0,1008.0,29236.0,949.0
2.8524832725524902,14.0,27.0,12.0,15.0,1397.0,1409.0,42416.0,1724.0
2.8557333946228027,7.0,20.0,10.0,540.0,44.0,1188.0,38544.0,2499.0
2.858983278274536,0.0,14.0,12.0,25.0,2040.0,11.0,38672.0,3228.0
2.8622334003448486,16.0,10.0,15.0,23.0,434.0,35.0,36416.0,3958.0
2.8655500411987305,13.0,25.0,6.0,26.0,1355.0,1074.0,35696.0,5224.0
2.868799924850464,11.0,20.0,28.0,23.0,708.0,15.0,21060.0,4467.0
2.8720500469207764,14.0,14.0,24.0,20.0,1521.0,49.0,35824.0,3710.0
2.8752999305725098,18.0,14.0,20.0,25.0,1031.0,687.0,41200.0,4156.0
2.8785500526428223,5.0,13.0,19.0,20.0,1076.0,179.0,40704.0,715.0
2.88183331489563,28.0,6.0,19.0,15.0,382.0,23.0,32528.0,1883.0
2.8850834369659424,47.0,7.0,21.0,20.0,1556.0,39.0,34976.0,2673.0
2.888333320617676,40.0,16.0,36.0,26.0,1866.0,10.0,20744.0,3449.0
2.8915834426879883,26.0,11.0,22.0,38.0,746.0,12.0,23796.0,501.0
2.8948333263397217,0.0,6.0,9.0,34.0,0.0,26.0,23908.0,1649.0
2.8981165885925293,28.0,3.0,23.0,11.0,55.0,17.0,15232.0,1685.0
2.901366710662842,10.0,0.0,22.0,36.0,25.0,10.0,15944.0,10.0
2.904616594314575,10.0,0.0,21.0,14.0,5.0,5.0,14584.0,1725.0
2.9078667163848877,10.0,3.0,24.0,49.0,41.0,28.0,6650.0,1332.0
2.911116600036621,16.0,7.0,27.0,24.0,0.0,34.0,11432.0,143.0
2.9143834114074707,21.0,6.0,38.0,0.0,21.0,40.0,5196.0,2001.0
2.917633295059204,0.0,5.0,48.0,18.0,12.0,25.0,6355.0,2641.0
2.9209001064300537,5.0,17.0,40.0,7.0,0.0,10.0,6076.0,1161.0
2.924149990081787,6.0,17.0,32.0,11.0,5.0,0.0,5333.0,639.0
2.9274001121520996,8.0,17.0,26.0,20.0,34.0,14.0,6439.0,13.0
2.9307000637054443,29.0,18.0,26.0,6.0,31.0,0.0,5880.0,613.0
2.9339499473571777,42.0,11.0,16.0,54.0,32.0,40.0,5321.0,46.0
2.9372000694274902,32.0,17.0,33.0,435.0,17.0,46.0,3779.0,32.0
2.9404499530792236,22.0,15.0,25.0,368.0,40.0,34.0,2476.0,18.0
2.943700075149536,43.0,11.0,23.0,25.0,25.0,21.0,4296.0,35.0
2.9469499588012695,33.0,0.0,22.0,0.0,25.0,23.0,1961.0,35.0
2.9502665996551514,23.0,0.0,25.0,0.0,11.0,38.0,3021.0,14.0
2.953516721725464,13.0,0.0,29.0,18.0,25.0,43.0,1824.0,13.0
2.9567666053771973,5.0,33.0,21.0,9.0,6.0,5.0,2354.0,13.0
2.9600167274475098,5.0,33.0,13.0,0.0,38.0,54.0,931.0,25.0
2.963266611099243,15.0,20.0,27.0,41.0,31.0,27.0,25.0,38.0
2.966583251953125,20.0,54.0,19.0,30.0,31.0,0.0,1194.0,24.0
2.9698333740234375,31.0,0.0,12.0,27.0,31.0,65.0,879.0,10.0
2.973083257675171,21.0,25.0,16.0,25.0,11.0,41.0,563.0,17.0
2.9763333797454834,18.0,15.0,12.0,25.0,6.0,22.0,756.0,20.0
2.979583263397217,8.0,5.0,8.0,25.0,17.0,8.0,32.0,23.0
2.9828999042510986,28.0,5.0,12.0,6.0,18.0,0.0,33.0,26.0
2.986150026321411,32.0,0.0,15.0,20.0,20.0,29.0,16.0,7.0
2.9893999099731445,5.0,9.0,5.0,34.0,16.0,25.0,22.0,5.0
2.992650032043457,5.0,35.0,30.0,23.0,13.0,22.0,28.0,0.0
2.9958999156951904,18.0,29.0,20.0,126.0,5.0,19.0,23.0,0.0
