,319.2099914550781,320.2099914550781,321.2099914550781,322.2099914550781,323.2099914550781,324.2099914550781,325.2099914550781
4.50178337097168,365.0,231.0,286.0,148.0,196.0,148.0,202.0
4.504383563995361,249.0,215.0,104.0,87.0,159.0,216.0,202.0
4.50748348236084,284.0,183.0,201.0,109.0,142.0,140.0,126.0
4.51051664352417,290.0,238.0,112.0,130.0,78.0,221.0,142.0
4.5135498046875,251.0,132.0,123.0,109.0,80.0,135.0,144.0
4.516583442687988,213.0,159.0,138.0,87.0,153.0,29.0,104.0
4.519616603851318,242.0,65.0,153.0,125.0,139.0,122.0,151.0
4.522716522216797,155.0,119.0,245.0,120.0,124.0,151.0,141.0
4.525750160217285,194.0,148.0,175.0,114.0,101.0,97.0,130.0
4.528783321380615,233.0,151.0,106.0,120.0,80.0,102.0,116.0
4.531816482543945,109.0,55.0,122.0,119.0,117.0,78.0,144.0
4.534850120544434,217.0,72.0,166.0,127.0,112.0,77.0,140.0
4.537883281707764,179.0,89.0,116.0,89.0,129.0,76.0,98.0
4.540983200073242,142.0,47.0,81.0,139.0,132.0,91.0,116.0
4.544033527374268,91.0,50.0,1149.0,73.0,85.0,50.0,55.0
4.547066688537598,177.0,53.0,938.0,76.0,31.0,39.0,100.0
4.550099849700928,178.0,54.0,82.0,106.0,70.0,97.0,75.0
4.553133487701416,116.0,56.0,255.0,71.0,88.0,42.0,51.0
4.556166648864746,55.0,69.0,428.0,115.0,74.0,115.0,91.0
4.55923318862915,61.0,71.0,56.0,53.0,64.0,95.0,101.0
4.562266826629639,93.0,72.0,133.0,65.0,61.0,103.0,79.0
4.565299987792969,310.0,64.0,211.0,17.0,49.0,58.0,52.0
4.568333148956299,202.0,71.0,89.0,56.0,65.0,69.0,31.0
4.571366786956787,94.0,46.0,63.0,30.0,81.0,62.0,51.0
4.574433326721191,64.0,32.0,38.0,49.0,76.0,61.0,5.0
4.5774664878845215,39.0,55.0,58.0,53.0,68.0,60.0,68.0
4.58050012588501,51.0,40.0,44.0,34.0,60.0,75.0,10.0
4.58353328704834,63.0,24.0,61.0,38.0,39.0,91.0,29.0
4.58656644821167,50.0,42.0,62.0,36.0,114.0,84.0,17.0
4.589600086212158,38.0,43.0,64.0,35.0,116.0,114.0,31.0
4.5926666259765625,61.0,50.0,22.0,57.0,11.0,117.0,45.0
4.595699787139893,58.0,58.0,48.0,64.0,15.0,36.0,31.0
4.598733425140381,55.0,72.0,37.0,44.0,55.0,29.0,17.0
4.601766586303711,167.0,87.0,27.0,52.0,40.0,54.0,21.0
4.604800224304199,105.0,19.0,64.0,0.0,44.0,32.0,26.0
4.6078667640686035,43.0,49.0,12.0,18.0,49.0,6.0,13.0
4.610899925231934,22.0,6.0,12.0,27.0,19.0,25.0,9.0
4.613933563232422,26.0,56.0,57.0,23.0,28.0,34.0,5.0
4.616966724395752,40.0,37.0,28.0,32.0,40.0,44.0,16.0
4.619999885559082,33.0,12.0,19.0,41.0,30.0,43.0,21.0
4.62303352355957,47.0,27.0,10.0,40.0,17.0,37.0,34.0
4.626100063323975,56.0,43.0,39.0,70.0,11.0,78.0,42.0
4.629133224487305,48.0,54.0,68.0,59.0,39.0,187.0,36.0
4.632166862487793,39.0,66.0,97.0,48.0,34.0,116.0,30.0
4.635200023651123,62.0,44.0,99.0,75.0,50.0,44.0,22.0
4.638233184814453,86.0,48.0,20.0,57.0,32.0,36.0,5.0
4.641300201416016,56.0,53.0,20.0,51.0,41.0,62.0,42.0
4.644333362579346,26.0,20.0,20.0,26.0,35.0,21.0,32.0
4.647366523742676,20.0,15.0,30.0,23.0,30.0,26.0,22.0
4.650400161743164,17.0,77.0,40.0,16.0,61.0,51.0,357.0
4.653433322906494,22.0,56.0,0.0,10.0,55.0,699.0,692.0
4.656466484069824,25.0,147.0,29.0,16.0,49.0,811.0,650.0
4.659533500671387,12.0,85.0,59.0,23.0,41.0,27.0,40.0
4.662566661834717,0.0,23.0,1159.0,1275.0,34.0,50.0,33.0
4.665599822998047,26.0,860.0,2581.0,1164.0,3710.0,1977.0,81.0
4.668633460998535,18.0,3111.0,8616.0,3570.0,4998.0,3188.0,968.0
4.671666622161865,11.0,12368.0,23244.0,15152.0,10104.0,6901.0,3739.0
4.6747331619262695,27.0,15448.0,31192.0,40144.0,30764.0,16772.0,2816.0
4.677766799926758,44.0,32768.0,79120.0,96032.0,68768.0,26616.0,15304.0
4.680799961090088,60.0,64352.0,195776.0,180224.0,97424.0,70960.0,21496.0
4.683833122253418,57.0,135872.0,318528.0,330816.0,187776.0,123936.0,36928.0
4.686866760253906,51.0,214528.0,509952.0,461888.0,319872.0,188224.0,56160.0
4.689899921417236,45.0,260160.0,711168.0,672768.0,486144.0,274432.0,78880.0
4.692966461181641,55.0,364864.0,942080.0,886016.0,611840.0,350592.0,85616.0
4.696000099182129,54.0,471168.0,1132288.0,1081344.0,723968.0,409536.0,119600.0
4.699033260345459,53.0,534528.0,1410816.0,1309184.0,864768.0,471104.0,135360.0
4.702066898345947,69.0,611840.0,1504768.0,1364224.0,968448.0,532992.0,156544.0
4.705100059509277,32.0,704256.0,1668096.0,1533952.0,982784.0,580096.0,156416.0
4.708166599273682,89.0,732416.0,1657088.0,1572352.0,1016064.0,576512.0,180544.0
4.71120023727417,102.0,719360.0,1773568.0,1571840.0,1018112.0,571392.0,170240.0
4.7142333984375,115.0,728832.0,1681152.0,1629184.0,998656.0,568576.0,162368.0
4.71726655960083,83.0,636160.0,1576960.0,1381376.0,939264.0,549632.0,153344.0
4.720300197601318,51.0,687872.0,1529600.0,1358080.0,951552.0,536832.0,151616.0
4.723333358764648,52.0,627968.0,1584640.0,1459968.0,915200.0,439296.0,142592.0
4.726399898529053,71.0,591616.0,1475328.0,1320448.0,861440.0,490496.0,140160.0
4.729433536529541,493.0,569600.0,1311488.0,1294080.0,801536.0,469184.0,132864.0
4.732466697692871,298.0,575744.0,1408000.0,1277184.0,844288.0,473856.0,133440.0
4.735499858856201,103.0,563712.0,1310976.0,1234688.0,784640.0,448576.0,117696.0
4.7385334968566895,77.0,490944.0,1262848.0,1241856.0,728576.0,430272.0,132736.0
4.741600036621094,35.0,515840.0,1283840.0,1192960.0,705024.0,405376.0,98576.0
4.744633197784424,58.0,456512.0,1159936.0,1158144.0,679168.0,394816.0,98896.0
4.747666835784912,81.0,461760.0,1083136.0,973568.0,655872.0,341376.0,102016.0
4.750699996948242,275.0,418816.0,982272.0,870912.0,595456.0,320704.0,105264.0
4.753733158111572,470.0,358336.0,893952.0,853248.0,508800.0,337728.0,81744.0
4.7567667961120605,1212.0,333248.0,843776.0,728320.0,503488.0,306432.0,77504.0
4.759833335876465,1038.0,344576.0,723456.0,697600.0,423424.0,245824.0,65904.0
4.762866497039795,104.0,293760.0,677376.0,611584.0,324352.0,194176.0,52864.0
4.765900135040283,1349.0,244736.0,566528.0,505216.0,309824.0,176960.0,51296.0
4.768933296203613,85.0,175936.0,414528.0,393024.0,248384.0,149248.0,35472.0
4.771966457366943,95.0,151616.0,349504.0,330560.0,213760.0,116880.0,31068.0
4.775033473968506,58.0,122864.0,264256.0,234688.0,149248.0,83024.0,19956.0
4.778066635131836,76.0,94544.0,215744.0,195776.0,112096.0,69808.0,16308.0
4.781099796295166,46.0,73360.0,181504.0,136384.0,86864.0,51184.0,9216.0
4.784133434295654,33.0,52880.0,114672.0,104480.0,86560.0,36384.0,7451.0
4.787166595458984,47.0,53440.0,105328.0,88544.0,48720.0,28796.0,12728.0
4.790200233459473,61.0,34048.0,63920.0,71120.0,48880.0,23092.0,4186.0
4.793266773223877,63.0,21340.0,64080.0,58144.0,35680.0,23264.0,6676.0
4.796299934387207,65.0,18876.0,55920.0,33088.0,21100.0,23740.0,5365.0
4.799333095550537,52.0,19256.0,47376.0,51200.0,23936.0,13992.0,1710.0
4.8017168045043945,26.0,13164.0,38096.0,34176.0,10020.0,18232.0,3047.0
4.803216457366943,73.0,8600.0,42000.0,26184.0,22168.0,11916.0,2155.0
4.8047332763671875,19.0,11396.0,43200.0,32424.0,19116.0,7906.0,4611.0
4.806250095367432,27.0,12124.0,37760.0,33136.0,18992.0,12864.0,2642.0
4.807833194732666,189.0,11692.0,34880.0,38752.0,20344.0,11272.0,673.0
4.80935001373291,115.0,11260.0,31524.0,36880.0,20004.0,11308.0,2785.0
4.810866832733154,40.0,13980.0,40032.0,27308.0,19664.0,12440.0,1566.0
4.81238317489624,83.0,12744.0,28476.0,22776.0,18088.0,9332.0,2654.0
4.8139166831970215,21.0,11512.0,27436.0,23772.0,16508.0,12232.0,1545.0
4.815433502197266,17.0,12412.0,26056.0,15348.0,12196.0,9944.0,1481.0
4.8169331550598145,184.0,8039.0,26440.0,23688.0,13780.0,10764.0,1479.0
4.818466663360596,119.0,10208.0,24268.0,29176.0,15248.0,6855.0,1298.0
4.81998348236084,53.0,13520.0,19252.0,24324.0,18944.0,6138.0,1118.0
4.821499824523926,15.0,9164.0,22148.0,15988.0,18800.0,3419.0,187.0
4.822999954223633,57.0,9832.0,25048.0,14688.0,14512.0,7554.0,1069.0
4.824550151824951,30.0,13736.0,23952.0,18644.0,11752.0,7297.0,474.0
4.826066493988037,42.0,9576.0,20704.0,17236.0,14520.0,7176.0,507.0
4.827583312988281,55.0,12784.0,21740.0,20796.0,12020.0,2860.0,539.0
4.829100131988525,158.0,3474.0,17632.0,12652.0,13196.0,4802.0,1190.0
4.830616474151611,96.0,6682.0,19008.0,19924.0,9956.0,6564.0,1736.0
4.8321332931518555,34.0,7725.0,19092.0,17296.0,7198.0,4850.0,2281.0
4.833666801452637,36.0,5062.0,14184.0,10676.0,6069.0,3135.0,1581.0
4.8351664543151855,76.0,4790.0,15160.0,12624.0,9212.0,4340.0,1169.0
4.83668327331543,50.0,6624.0,6581.0,12572.0,6854.0,4768.0,757.0
4.838200092315674,11.0,5592.0,11572.0,12520.0,8424.0,5197.0,1863.0
4.839733123779297,35.0,4560.0,14268.0,12464.0,9184.0,5631.0,858.0
4.841266632080078,5.0,4910.0,16460.0,10560.0,7027.0,4989.0,533.0
4.842783451080322,36.0,5261.0,14140.0,10772.0,5697.0,4347.0,493.0
4.844299793243408,41.0,2971.0,16644.0,10988.0,4367.0,2843.0,236.0
4.845816612243652,47.0,2973.0,9068.0,5934.0,4742.0,4765.0,1103.0
4.8473334312438965,42.0,2974.0,11852.0,11144.0,4084.0,2260.0,966.0
4.848849773406982,38.0,4205.0,11220.0,9784.0,6523.0,2913.0,829.0
4.850366592407227,35.0,5251.0,5799.0,11156.0,7002.0,2498.0,556.0
4.851883411407471,33.0,6296.0,10504.0,6171.0,5285.0,2382.0,588.0
4.853400230407715,31.0,5535.0,8880.0,8868.0,5877.0,2266.0,619.0
4.854916572570801,10.0,4774.0,11068.0,6955.0,5032.0,2310.0,538.0
4.856433391571045,32.0,3071.0,9244.0,6175.0,5158.0,2354.0,18.0
4.858016490936279,54.0,2081.0,9764.0,8696.0,3984.0,1814.0,485.0
4.859533309936523,60.0,1527.0,5385.0,7812.0,6165.0,1991.0,626.0
4.861050128936768,44.0,972.0,8384.0,6928.0,5629.0,2167.0,767.0
4.8625664710998535,58.0,2100.0,7736.0,6681.0,2900.0,1957.0,512.0
4.864083290100098,36.0,2286.0,8256.0,6944.0,3675.0,2561.0,42.0
4.865600109100342,15.0,2471.0,5048.0,7207.0,2105.0,1930.0,84.0
4.867116451263428,25.0,2408.0,2004.0,4927.0,1938.0,1300.0,33.0
4.868633270263672,5.0,2345.0,7885.0,2764.0,1771.0,688.0,641.0
4.870150089263916,24.0,2582.0,5396.0,7506.0,4595.0,2246.0,802.0
4.871666431427002,19.0,1682.0,9412.0,2960.0,3382.0,3125.0,1791.0
4.873183250427246,15.0,2900.0,11796.0,6384.0,2169.0,3007.0,912.0
4.874766826629639,23.0,1499.0,10384.0,2691.0,2274.0,464.0,33.0
4.876283168792725,32.0,2416.0,11004.0,3142.0,2379.0,3343.0,667.0
4.877799987792969,31.0,3334.0,6509.0,3593.0,3753.0,47.0,338.0
4.879316806793213,20.0,3372.0,5206.0,4369.0,3817.0,2305.0,701.0
4.880833148956299,65.0,4310.0,5070.0,5314.0,3881.0,1333.0,68.0
4.882349967956543,48.0,5248.0,6229.0,5382.0,6249.0,3667.0,577.0
4.883866786956787,32.0,130.0,6389.0,5346.0,4317.0,2494.0,312.0
4.885383129119873,5.0,6250.0,6549.0,5310.0,2385.0,2648.0,812.0
4.886899948120117,0.0,437.0,8065.0,6559.0,2536.0,1475.0,1311.0
4.888416767120361,15.0,2260.0,6830.0,9664.0,6750.0,1553.0,1307.0
4.889933109283447,30.0,4853.0,5595.0,9316.0,6126.0,1632.0,726.0
4.891483306884766,31.0,3092.0,6612.0,6029.0,4951.0,2052.0,591.0
4.893016815185547,39.0,1332.0,6141.0,6800.0,3082.0,1631.0,493.0
4.894533157348633,47.0,2660.0,5670.0,7571.0,3882.0,1211.0,25.0
4.896049976348877,19.0,3989.0,6006.0,7961.0,3314.0,2902.0,483.0
4.897566795349121,29.0,4781.0,7914.0,8352.0,2378.0,2565.0,940.0
4.899099826812744,43.0,4380.0,8964.0,9132.0,1442.0,2228.0,1265.0
4.900599956512451,30.0,3978.0,7584.0,9760.0,2417.0,2120.0,1589.0
4.902116775512695,18.0,2461.0,6205.0,10392.0,5193.0,2012.0,83.0
4.903633117675781,100.0,1478.0,9120.0,6959.0,6317.0,2283.0,1584.0
4.9051666259765625,62.0,3377.0,9192.0,7346.0,2734.0,1000.0,1626.0
4.9066667556762695,25.0,3752.0,7182.0,7732.0,3989.0,1623.0,0.0
4.9081830978393555,41.0,3263.0,5171.0,7479.0,2161.0,2246.0,451.0
4.909766674041748,22.0,2774.0,8588.0,7225.0,2821.0,2451.0,39.0
4.911283493041992,10.0,801.0,7625.0,6798.0,3481.0,2656.0,105.0
4.912799835205078,10.0,3889.0,6664.0,6633.0,6040.0,1131.0,170.0
4.914316654205322,0.0,1276.0,8628.0,6874.0,6788.0,610.0,5.0
4.915833473205566,32.0,3257.0,8516.0,6574.0,3250.0,914.0,226.0
4.917349815368652,27.0,4626.0,9284.0,4954.0,3183.0,664.0,132.0
4.9188666343688965,21.0,3609.0,6682.0,5829.0,3373.0,3737.0,39.0
4.920383453369141,14.0,1115.0,2242.0,7176.0,3658.0,4525.0,19.0
4.921899795532227,15.0,1986.0,1910.0,7047.0,3943.0,2296.0,0.0
4.923416614532471,16.0,829.0,1718.0,5538.0,5285.0,1029.0,23.0
4.924933433532715,32.0,2443.0,1526.0,6637.0,5880.0,699.0,46.0
4.926516532897949,50.0,1918.0,3650.0,3692.0,691.0,370.0,98.0
4.928033351898193,41.0,2197.0,3088.0,4168.0,720.0,42.0,60.0
4.9295501708984375,30.0,2581.0,2526.0,5822.0,4238.0,402.0,23.0
4.931066513061523,20.0,2349.0,4217.0,3747.0,5875.0,1095.0,17.0
4.932583332061768,33.0,2116.0,6436.0,4584.0,3092.0,1047.0,10.0
4.934100151062012,46.0,2619.0,6203.0,5467.0,1370.0,999.0,240.0
4.935616493225098,23.0,856.0,6154.0,2397.0,2893.0,729.0,470.0
4.937133312225342,0.0,820.0,1457.0,3506.0,2426.0,459.0,684.0
4.938650131225586,38.0,3454.0,4936.0,4616.0,992.0,2329.0,342.0
4.940166473388672,19.0,3040.0,5661.0,3174.0,2529.0,1183.0,0.0
4.941683292388916,13.0,2114.0,4425.0,1731.0,336.0,37.0,32.0
4.943266868591309,8.0,1548.0,3531.0,2257.0,784.0,2007.0,386.0
4.9447832107543945,36.0,2189.0,1117.0,2257.0,3490.0,2155.0,740.0
4.946300029754639,37.0,2166.0,1100.0,2257.0,2259.0,1282.0,765.0
4.947816848754883,39.0,382.0,1800.0,2623.0,3985.0,662.0,789.0
4.949333190917969,34.0,1531.0,2500.0,2989.0,3670.0,43.0,25.0
4.950850009918213,30.0,816.0,5315.0,1633.0,3433.0,744.0,22.0
4.952366828918457,36.0,435.0,5099.0,2295.0,3377.0,871.0,45.0
4.953883171081543,24.0,610.0,4575.0,2957.0,1924.0,998.0,35.0
4.955399990081787,41.0,786.0,3604.0,2685.0,1683.0,866.0,26.0
4.956916809082031,37.0,845.0,5407.0,2412.0,2871.0,735.0,16.0
4.958433151245117,33.0,567.0,4226.0,4076.0,2479.0,827.0,0.0
4.960000038146973,29.0,704.0,3546.0,3935.0,1425.0,919.0,2.0
4.961516857147217,25.0,841.0,4019.0,6492.0,3157.0,144.0,5.0
4.963033199310303,669.0,636.0,5503.0,5679.0,1078.0,804.0,681.0
4.964550018310547,687.0,431.0,1929.0,1686.0,539.0,698.0,378.0
4.966083526611328,22.0,601.0,1947.0,1221.0,594.0,384.0,76.0
4.967599868774414,27.0,770.0,3158.0,2699.0,1307.0,24.0,329.0
4.969099998474121,44.0,51.0,3324.0,2105.0,670.0,41.0,31.0
4.970616817474365,38.0,158.0,4194.0,2671.0,33.0,59.0,27.0
4.972133159637451,32.0,265.0,4766.0,1780.0,329.0,5.0,23.0
4.973666667938232,49.0,201.0,634.0,3049.0,624.0,34.0,13.0
4.9751667976379395,540.0,137.0,3326.0,3521.0,14.0,64.0,38.0
4.976749897003174,283.0,105.0,4072.0,1665.0,1136.0,320.0,5.0
4.978266716003418,26.0,72.0,2623.0,2529.0,2652.0,445.0,29.0
4.979783535003662,482.0,639.0,1051.0,2749.0,3273.0,569.0,17.0
4.981299877166748,244.0,581.0,2727.0,3197.0,674.0,461.0,5.0
4.982816696166992,6.0,523.0,2522.0,3355.0,1591.0,27.0,14.0
4.984333515167236,25.0,1541.0,567.0,489.0,1566.0,892.0,23.0
4.985849857330322,14.0,1329.0,406.0,3707.0,645.0,519.0,53.0
4.987366676330566,15.0,1118.0,2228.0,3153.0,1522.0,325.0,34.0
4.9888834953308105,17.0,5.0,511.0,1919.0,2158.0,5.0,15.0
4.9903998374938965,11.0,75.0,683.0,1158.0,1210.0,349.0,24.0
4.991916656494141,5.0,38.0,954.0,3581.0,2639.0,26.0,33.0
4.993500232696533,12.0,63.0,1224.0,2713.0,865.0,417.0,10.0
4.995016574859619,20.0,88.0,1340.0,1844.0,1179.0,211.0,10.0
4.996533393859863,16.0,68.0,2085.0,1199.0,38.0,5.0,30.0
4.998050212860107,12.0,48.0,2108.0,998.0,1115.0,246.0,23.0
