,316.2099914550781,317.2099914550781,318.2099914550781,319.2099914550781,320.2099914550781,321.2099914550781,322.2099914550781
2.051500082015991,10.0,19.0,340.0,32.0,17.0,0.0,32.0
2.0530166625976562,15.0,1362.0,41.0,17.0,14.0,51.0,18.0
2.0545332431793213,26.0,5.0,26.0,10.0,15.0,28.0,28.0
2.0560500621795654,17.0,10.0,50.0,39.0,52.0,27.0,30.0
2.0575666427612305,7.0,24.0,42.0,33.0,34.0,16.0,32.0
2.0590832233428955,42.0,33.0,35.0,28.0,16.0,17.0,5.0
2.0606000423431396,34.0,19.0,20.0,23.0,29.0,18.0,20.0
2.0621166229248047,38.0,6.0,35.0,10.0,17.0,12.0,32.0
2.063633441925049,23.0,32.0,228.0,18.0,5.0,5.0,18.0
2.065150022506714,5.0,21.0,117.0,44.0,5.0,5.0,5.0
2.066666603088379,10.0,10.0,6.0,22.0,5.0,24.0,12.0
2.0682499408721924,5.0,11.0,55.0,0.0,39.0,22.0,11.0
2.0697667598724365,5.0,41.0,10.0,38.0,915.0,19.0,10.0
2.0712833404541016,5.0,32.0,31.0,10.0,931.0,43.0,8.0
2.0727999210357666,12.0,22.0,51.0,29.0,0.0,38.0,6.0
2.0743167400360107,11.0,37.0,48.0,32.0,21.0,25.0,14.0
2.075833320617676,9.0,42.0,55.0,0.0,19.0,47.0,9.0
2.077349901199341,5.0,21.0,42.0,5.0,18.0,30.0,5.0
2.078866720199585,0.0,33.0,29.0,37.0,16.0,22.0,5.0
2.08038330078125,0.0,10.0,29.0,15.0,31.0,26.0,5.0
2.081899881362915,15.0,33.0,16.0,21.0,514.0,19.0,8.0
2.083416700363159,16.0,31.0,12.0,5.0,260.0,5.0,10.0
2.0849833488464355,43.0,21.0,38.0,41.0,7.0,3.0,14.0
2.0864999294281006,42.0,36.0,30.0,36.0,23.0,0.0,18.0
2.0880167484283447,0.0,16.0,21.0,31.0,466.0,6.0,29.0
2.0895333290100098,15.0,19.0,0.0,11.0,394.0,44.0,25.0
2.091049909591675,5.0,14.0,28.0,31.0,0.0,25.0,21.0
2.092566728591919,23.0,22.0,20.0,46.0,0.0,6.0,10.0
2.094099998474121,17.0,30.0,13.0,37.0,42.0,18.0,5.0
2.095599889755249,11.0,30.0,31.0,55.0,32.0,15.0,21.0
2.097116708755493,19.0,16.0,20.0,72.0,21.0,5.0,10.0
2.098633289337158,14.0,0.0,10.0,57.0,29.0,22.0,15.0
2.1001501083374023,21.0,9.0,19.0,42.0,37.0,29.0,20.0
2.101733446121216,5.0,18.0,29.0,32.0,33.0,36.0,5.0
2.103250026702881,0.0,0.0,6.0,24.0,5.0,37.0,27.0
2.104766607284546,10.0,10.0,22.0,19.0,23.0,47.0,13.0
2.10628342628479,24.0,11.0,41.0,13.0,21.0,11.0,30.0
2.107800006866455,20.0,11.0,30.0,29.0,21.0,0.0,19.0
2.10931658744812,15.0,19.0,10.0,23.0,35.0,10.0,36.0
2.1108334064483643,11.0,20.0,36.0,16.0,1066.0,12.0,31.0
2.1123499870300293,7.0,16.0,15.0,22.0,843.0,13.0,27.0
2.1138665676116943,10.0,19.0,16.0,27.0,13.0,5.0,31.0
2.1153833866119385,11.0,17.0,11.0,27.0,11.0,14.0,23.0
2.1168999671936035,11.0,14.0,6.0,21.0,5.0,22.0,16.0
2.11846661567688,16.0,33.0,18.0,22.0,61.0,15.0,22.0
2.119983434677124,16.0,31.0,259.0,23.0,38.0,8.0,19.0
2.121500015258789,22.0,23.0,137.0,44.0,15.0,22.0,15.0
2.123016595840454,20.0,15.0,14.0,42.0,323.0,36.0,34.0
2.1245334148406982,18.0,22.0,72.0,41.0,1874.0,38.0,35.0
2.1260499954223633,5.0,29.0,228.0,20.0,1604.0,308.0,0.0
2.1275665760040283,24.0,33.0,135.0,0.0,360.0,549.0,52.0
2.1290833950042725,0.0,5.0,42.0,32.0,2310.0,554.0,36.0
2.1305999755859375,11.0,22.0,34.0,28.0,1960.0,559.0,19.0
2.1321332454681396,24.0,15.0,65.0,23.0,1945.0,302.0,11.0
2.1336333751678467,18.0,7.0,15.0,15.0,2068.0,44.0,17.0
2.13521671295166,12.0,21.0,43.0,25.0,2190.0,472.0,23.0
2.136733293533325,22.0,0.0,16.0,35.0,259.0,496.0,68.0
2.1382501125335693,28.0,6.0,14.0,1302.0,1625.0,520.0,39.0
2.1397666931152344,33.0,27.0,11.0,1190.0,3136.0,21.0,10.0
2.1412832736968994,33.0,22.0,11.0,409.0,2178.0,15.0,257.0
2.1428000926971436,34.0,17.0,11.0,35.0,2740.0,2121.0,131.0
2.1443166732788086,27.0,17.0,17.0,36.0,1853.0,2201.0,5.0
2.1458332538604736,20.0,17.0,16.0,28.0,4097.0,1367.0,329.0
2.1473500728607178,12.0,17.0,15.0,19.0,4781.0,1617.0,860.0
2.148866653442383,32.0,18.0,19.0,23.0,2835.0,1867.0,444.0
2.150383234024048,38.0,18.0,632.0,172.0,2579.0,1748.0,29.0
2.151933431625366,30.0,18.0,518.0,321.0,4107.0,1629.0,19.0
2.1534667015075684,22.0,20.0,52.0,293.0,1489.0,2200.0,166.0
2.1549999713897705,0.0,22.0,35.0,27.0,2732.0,1656.0,572.0
2.1565001010894775,14.0,24.0,17.0,25.0,15.0,1112.0,539.0
2.1580166816711426,12.0,27.0,21.0,23.0,3466.0,1817.0,515.0
2.1595332622528076,24.0,20.0,25.0,5.0,2300.0,906.0,492.0
2.1610500812530518,29.0,13.0,0.0,252.0,1825.0,294.0,35.0
2.162566661834717,33.0,10.0,29.0,969.0,2361.0,5.0,357.0
2.164099931716919,5.0,37.0,22.0,816.0,2165.0,664.0,73.0
2.165600061416626,25.0,35.0,15.0,663.0,737.0,1322.0,422.0
2.167116641998291,43.0,21.0,28.0,517.0,927.0,1150.0,771.0
2.168633222579956,14.0,15.0,41.0,506.0,1116.0,1691.0,584.0
2.1702165603637695,25.0,16.0,59.0,262.0,2224.0,1343.0,18.0
2.1717333793640137,27.0,15.0,52.0,18.0,2436.0,994.0,16.0
2.1732499599456787,19.0,13.0,37.0,0.0,2649.0,2193.0,57.0
2.174766778945923,11.0,13.0,12.0,3.0,1208.0,1764.0,45.0
2.176283359527588,69.0,9.0,21.0,6.0,1950.0,33.0,33.0
2.177799940109253,58.0,5.0,31.0,51.0,2692.0,1486.0,11.0
2.179316759109497,61.0,37.0,37.0,402.0,879.0,63.0,10.0
2.180833339691162,35.0,34.0,42.0,220.0,1355.0,2149.0,8.0
2.182349920272827,44.0,32.0,10.0,37.0,1830.0,1259.0,25.0
2.1838667392730713,11.0,34.0,17.0,23.0,7.0,415.0,20.0
2.1853833198547363,35.0,32.0,39.0,343.0,1171.0,435.0,14.0
2.1869499683380127,20.0,30.0,44.0,714.0,3695.0,2135.0,11.0
2.1884665489196777,5.0,13.0,11.0,366.0,3167.0,1587.0,41.0
2.189983367919922,32.0,32.0,14.0,18.0,154.0,1038.0,39.0
2.191499948501587,6.0,24.0,23.0,10.0,2625.0,896.0,62.0
2.193016767501831,17.0,16.0,16.0,13.0,841.0,753.0,234.0
2.194533348083496,38.0,27.0,8.0,15.0,561.0,11.0,132.0
2.196049928665161,23.0,20.0,29.0,834.0,6.0,1180.0,30.0
2.1975667476654053,13.0,24.0,19.0,1252.0,763.0,2349.0,18.0
2.1990833282470703,56.0,20.0,16.0,1558.0,1821.0,2657.0,12.0
2.2005999088287354,56.0,16.0,19.0,5.0,1953.0,1217.0,5.0
2.2021334171295166,26.0,11.0,19.0,74.0,2027.0,1967.0,706.0
2.203700065612793,33.0,5.0,18.0,0.0,1804.0,1443.0,1029.0
2.205216646194458,19.0,6.0,14.0,154.0,1229.0,2114.0,598.0
2.206733226776123,23.0,12.0,10.0,308.0,2652.0,2616.0,167.0
2.208250045776367,28.0,5.0,0.0,371.0,3071.0,2386.0,232.0
2.2097666263580322,10.0,15.0,5.0,434.0,2399.0,938.0,65.0
2.2112834453582764,15.0,22.0,12.0,220.0,2437.0,1239.0,12.0
2.2128000259399414,20.0,30.0,19.0,5.0,2475.0,0.0,1922.0
2.2143166065216064,20.0,27.0,24.0,10.0,723.0,457.0,1919.0
2.2158334255218506,19.0,24.0,29.0,15.0,1271.0,914.0,620.0
2.2173500061035156,22.0,12.0,36.0,521.0,1819.0,35.0,0.0
2.2188665866851807,24.0,14.0,43.0,700.0,3648.0,692.0,53.0
2.220433235168457,14.0,16.0,16.0,837.0,3463.0,352.0,42.0
2.221950054168701,30.0,15.0,47.0,24.0,717.0,12.0,39.0
2.223466634750366,5.0,13.0,55.0,10.0,1726.0,1013.0,36.0
2.2249832153320312,5.0,27.0,11.0,34.0,16.0,747.0,47.0
2.2265000343322754,30.0,23.0,12.0,33.0,672.0,15.0,59.0
2.2280166149139404,29.0,20.0,57.0,25.0,752.0,72.0,43.0
2.2295334339141846,28.0,56.0,0.0,5.0,18.0,53.0,28.0
2.2310500144958496,27.0,31.0,9.0,0.0,547.0,33.0,21.0
2.2325665950775146,31.0,5.0,21.0,13.0,954.0,875.0,31.0
2.234083414077759,32.0,55.0,40.0,6.0,435.0,744.0,33.0
2.235599994659424,25.0,56.0,31.0,22.0,222.0,28.0,36.0
2.2371833324432373,42.0,10.0,21.0,27.0,8.0,36.0,33.0
2.2386999130249023,15.0,21.0,32.0,21.0,192.0,765.0,33.0
2.2402167320251465,26.0,41.0,31.0,24.0,28.0,846.0,13.0
2.2417333126068115,15.0,7.0,24.0,8.0,41.0,876.0,23.0
2.2432498931884766,35.0,667.0,17.0,5.0,55.0,19.0,28.0
2.2447667121887207,34.0,725.0,11.0,21.0,40.0,0.0,6.0
2.2462832927703857,33.0,783.0,5.0,32.0,24.0,523.0,9.0
2.24780011177063,19.0,530.0,6.0,43.0,20.0,84.0,11.0
2.249316692352295,5.0,16.0,6.0,26.0,15.0,10.0,14.0
2.25083327293396,11.0,7.0,5.0,18.0,17.0,482.0,28.0
2.252350091934204,17.0,360.0,21.0,22.0,19.0,0.0,51.0
2.2539167404174805,9.0,714.0,56.0,21.0,6.0,12.0,42.0
2.2554333209991455,0.0,715.0,41.0,28.0,23.0,94.0,33.0
2.2569499015808105,6.0,716.0,25.0,35.0,14.0,28.0,20.0
2.2584667205810547,12.0,601.0,21.0,31.0,5.0,29.0,49.0
2.2599833011627197,28.0,486.0,10.0,28.0,20.0,29.0,10.0
2.2614998817443848,23.0,489.0,9.0,37.0,40.0,15.0,17.0
2.263016700744629,19.0,491.0,7.0,44.0,33.0,17.0,9.0
2.264533281326294,273.0,5.0,7.0,51.0,25.0,32.0,10.0
2.266050100326538,147.0,16.0,7.0,43.0,16.0,41.0,18.0
2.267566680908203,21.0,26.0,12.0,35.0,5.0,48.0,26.0
2.269083261489868,10.0,1280.0,9.0,35.0,27.0,27.0,38.0
2.2706499099731445,20.0,1328.0,5.0,5.0,17.0,5.0,33.0
2.272183418273926,17.0,779.0,12.0,10.0,7.0,45.0,5.0
2.273699998855591,33.0,823.0,18.0,14.0,9.0,25.0,44.0
2.275216579437256,43.0,867.0,15.0,103.0,46.0,35.0,7.0
2.2767333984375,5.0,1232.0,12.0,79.0,46.0,45.0,7.0
2.278249979019165,11.0,22.0,20.0,55.0,47.0,27.0,6.0
2.27976655960083,0.0,980.0,306.0,10.0,5.0,5.0,11.0
2.281283378601074,10.0,498.0,160.0,5.0,25.0,32.0,16.0
2.2827999591827393,19.0,15.0,14.0,27.0,17.0,23.0,18.0
2.2843167781829834,22.0,16.0,565.0,12.0,12.0,0.0,14.0
2.2858333587646484,23.0,16.0,283.0,11.0,6.0,0.0,10.0
2.2873499393463135,23.0,16.0,0.0,12.0,42.0,12.0,13.0
2.28891658782959,26.0,16.0,12.0,13.0,23.0,0.0,16.0
2.290433406829834,30.0,16.0,20.0,0.0,5.0,12.0,18.0
2.291949987411499,35.0,15.0,37.0,0.0,52.0,5.0,5.0
2.293466567993164,30.0,2598.0,23.0,29.0,19.0,5.0,24.0
2.294983386993408,25.0,2442.0,0.0,17.0,0.0,16.0,27.0
2.2964999675750732,35.0,688.0,20.0,5.0,13.0,17.0,40.0
2.2980165481567383,22.0,2084.0,26.0,25.0,26.0,18.0,34.0
2.2995500564575195,10.0,409.0,18.0,24.0,18.0,15.0,20.0
2.302799940109253,29.0,2199.0,10.0,29.0,22.0,11.0,23.0
2.3060998916625977,39.0,27.0,33.0,29.0,26.0,35.0,28.0
2.3093667030334473,6.0,1907.0,40.0,29.0,26.0,65.0,32.0
2.3126165866851807,29.0,1288.0,47.0,63.0,25.0,52.0,33.0
2.315866708755493,10.0,1313.0,29.0,32.0,24.0,35.0,24.0
2.3191165924072266,22.0,1703.0,42.0,0.0,23.0,17.0,15.0
2.3224167823791504,34.0,1537.0,38.0,35.0,39.0,18.0,6.0
2.325666666030884,29.0,0.0,34.0,5.0,55.0,10.0,16.0
2.328916549682617,23.0,454.0,28.0,5.0,46.0,35.0,22.0
2.3321666717529297,0.0,909.0,21.0,22.0,50.0,46.0,28.0
2.335416555404663,0.0,352.0,32.0,18.0,36.0,57.0,22.0
2.338716745376587,5.0,25.0,42.0,20.0,54.0,17.0,13.0
2.3419666290283203,18.0,24.0,31.0,22.0,5.0,23.0,50.0
2.34523344039917,27.0,34.0,20.0,0.0,0.0,43.0,57.0
2.3484833240509033,35.0,10.0,5.0,7.0,9.0,26.0,0.0
2.351733446121216,7.0,26.0,21.0,7.0,17.0,9.0,30.0
2.354983329772949,34.0,29.0,28.0,7.0,28.0,19.0,9.0
2.3582499027252197,47.0,17.0,25.0,22.0,38.0,30.0,37.0
2.3615000247955322,28.0,5.0,23.0,19.0,32.0,9.0,34.0
2.3647499084472656,42.0,32.0,21.0,15.0,16.0,34.0,27.0
2.368000030517578,5.0,0.0,19.0,11.0,0.0,0.0,25.0
2.3712666034698486,0.0,5.0,12.0,6.0,0.0,9.0,24.0
2.3745501041412354,10.0,810.0,32.0,0.0,0.0,41.0,5.0
2.3777999877929688,12.0,419.0,33.0,0.0,5.0,0.0,5.0
2.3810501098632812,14.0,29.0,34.0,0.0,10.0,15.0,8.0
2.3842999935150146,16.0,5.0,29.0,32.0,42.0,5.0,10.0
2.387550115585327,17.0,18.0,5.0,69.0,21.0,21.0,17.0
2.3908333778381348,9.0,5.0,5.0,64.0,0.0,14.0,24.0
2.394083261489868,0.0,12.0,5.0,6.0,21.0,7.0,24.0
2.3973333835601807,11.0,10.0,11.0,39.0,6.0,0.0,24.0
2.400583267211914,21.0,33.0,16.0,0.0,17.0,0.0,22.0
2.4038333892822266,21.0,29.0,13.0,5.0,9.0,0.0,21.0
2.4071500301361084,21.0,25.0,10.0,31.0,0.0,25.0,28.0
2.410399913787842,12.0,18.0,8.0,717.0,5.0,34.0,17.0
2.4136500358581543,22.0,17.0,6.0,928.0,5.0,5.0,27.0
2.4168999195098877,33.0,11.0,3.0,24.0,5.0,10.0,13.0
2.4201500415802,5.0,5.0,0.0,10.0,165.0,12.0,0.0
2.423449993133545,51.0,25.0,8.0,15.0,82.0,11.0,10.0
2.4267001152038574,97.0,46.0,16.0,14.0,0.0,6.0,45.0
2.429949998855591,89.0,99.0,21.0,18.0,0.0,10.0,31.0
2.433199882507324,40.0,64.0,26.0,44.0,34.0,13.0,17.0
2.4364500045776367,43.0,30.0,11.0,31.0,35.0,9.0,36.0
2.4397666454315186,21.0,6.0,29.0,18.0,5.0,5.0,5.0
2.443016767501831,52.0,34.0,17.0,27.0,12.0,16.0,46.0
2.4462666511535645,0.0,46.0,5.0,28.0,36.0,28.0,21.0
2.449516773223877,16.0,24.0,20.0,30.0,29.0,20.0,7.0
2.4527666568756104,10.0,0.0,17.0,21.0,21.0,12.0,5.0
2.456016778945923,17.0,28.0,5.0,10.0,13.0,26.0,44.0
2.4593167304992676,24.0,16.0,20.0,20.0,5.0,16.0,37.0
2.462566614151001,21.0,5.0,15.0,19.0,33.0,6.0,46.0
2.4658167362213135,17.0,20.0,22.0,17.0,25.0,12.0,42.0
2.469066619873047,17.0,39.0,24.0,20.0,17.0,18.0,5.0
2.4723167419433594,20.0,28.0,25.0,0.0,27.0,44.0,41.0
2.475633382797241,5.0,17.0,10.0,21.0,17.0,48.0,33.0
2.4788832664489746,12.0,22.0,23.0,35.0,9.0,41.0,33.0
2.482133388519287,6.0,14.0,0.0,50.0,0.0,20.0,17.0
2.4853832721710205,0.0,20.0,0.0,0.0,3.0,23.0,5.0
2.488633394241333,14.0,15.0,33.0,19.0,5.0,21.0,6.0
2.491950035095215,13.0,20.0,22.0,5.0,27.0,19.0,7.0
2.4951999187469482,21.0,23.0,11.0,17.0,24.0,29.0,19.0
2.4984500408172607,20.0,5.0,16.0,5.0,22.0,61.0,21.0
2.501699924468994,19.0,27.0,21.0,18.0,40.0,55.0,22.0
2.5049500465393066,15.0,23.0,17.0,9.0,0.0,49.0,10.0
2.508216619491577,5.0,25.0,13.0,0.0,13.0,14.0,31.0
2.5114667415618896,10.0,27.0,17.0,14.0,6.0,37.0,0.0
2.514716625213623,5.0,43.0,25.0,20.0,0.0,14.0,10.0
2.5179667472839355,0.0,0.0,37.0,0.0,0.0,12.0,0.0
2.521216630935669,17.0,30.0,0.0,30.0,24.0,15.0,15.0
2.524533271789551,35.0,15.0,22.0,24.0,23.0,12.0,10.0
2.5277833938598633,42.0,0.0,8.0,22.0,22.0,13.0,5.0
2.5310332775115967,29.0,24.0,36.0,19.0,16.0,14.0,9.0
2.534283399581909,0.0,5.0,31.0,67.0,0.0,21.0,5.0
2.5375332832336426,11.0,15.0,16.0,55.0,15.0,20.0,0.0
2.540783405303955,0.0,18.0,13.0,42.0,15.0,14.0,8.0
2.5440833568573,0.0,23.0,38.0,19.0,10.0,12.0,15.0
2.547333240509033,14.0,18.0,43.0,0.0,15.0,17.0,21.0
2.550600051879883,11.0,14.0,19.0,31.0,16.0,21.0,16.0
2.553849935531616,8.0,20.0,0.0,32.0,17.0,19.0,10.0
2.5571000576019287,8.0,16.0,20.0,6.0,17.0,24.0,5.0
2.5604000091552734,7.0,12.0,15.0,20.0,21.0,22.0,8.0
2.563649892807007,11.0,17.0,10.0,36.0,26.0,19.0,11.0
2.5669000148773193,10.0,21.0,14.0,11.0,29.0,24.0,10.0
2.5701498985290527,8.0,24.0,18.0,0.0,21.0,30.0,15.0
2.5734000205993652,18.0,15.0,20.0,39.0,11.0,30.0,19.0
2.57669997215271,17.0,5.0,22.0,5.0,31.0,17.0,18.0
2.5799500942230225,16.0,9.0,24.0,31.0,22.0,5.0,19.0
2.583216667175293,37.0,12.0,31.0,17.0,16.0,11.0,20.0
2.5864665508270264,21.0,25.0,8.0,10.0,8.0,17.0,11.0
2.589716672897339,5.0,13.0,12.0,5.0,0.0,14.0,0.0
2.5930166244506836,37.0,0.0,6.0,0.0,3.0,11.0,10.0
2.596266746520996,31.0,7.0,13.0,11.0,6.0,24.0,20.0
2.5995166301727295,25.0,13.0,20.0,22.0,20.0,21.0,20.0
2.602766752243042,5.0,15.0,16.0,23.0,35.0,18.0,22.0
2.6060166358947754,29.0,22.0,12.0,24.0,38.0,15.0,10.0
2.60931658744812,24.0,14.0,8.0,34.0,10.0,11.0,36.0
2.6125667095184326,20.0,5.0,31.0,44.0,53.0,8.0,37.0
2.615816593170166,29.0,17.0,32.0,5.0,5.0,5.0,21.0
2.6190667152404785,22.0,14.0,10.0,28.0,22.0,0.0,6.0
2.622333288192749,16.0,10.0,20.0,31.0,0.0,14.0,35.0
2.6255834102630615,0.0,12.0,5.0,30.0,62.0,10.0,24.0
2.628849983215332,31.0,0.0,18.0,29.0,51.0,21.0,17.0
2.6321165561676025,15.0,5.0,28.0,29.0,34.0,12.0,0.0
2.635366678237915,0.0,0.0,37.0,5.0,21.0,14.0,26.0
2.6386165618896484,10.0,0.0,32.0,45.0,38.0,27.0,46.0
2.641866683959961,11.0,7.0,27.0,11.0,48.0,43.0,29.0
2.6451666355133057,16.0,16.0,22.0,28.0,5.0,27.0,38.0
2.648416757583618,20.0,30.0,34.0,11.0,6.0,11.0,22.0
2.6516666412353516,29.0,23.0,5.0,22.0,7.0,44.0,27.0
2.654916763305664,17.0,17.0,17.0,0.0,36.0,29.0,31.0
2.6581666469573975,5.0,20.0,20.0,0.0,44.0,35.0,33.0
2.6614832878112793,7.0,13.0,22.0,5.0,7.0,26.0,36.0
2.664733409881592,8.0,5.0,14.0,0.0,23.0,33.0,7.0
2.667983293533325,269.0,12.0,31.0,18.0,12.0,21.0,30.0
2.6712334156036377,286.0,10.0,27.0,20.0,11.0,0.0,11.0
2.674483299255371,24.0,27.0,23.0,21.0,13.0,0.0,29.0
2.6777665615081787,20.0,43.0,19.0,20.0,14.0,31.0,0.0
2.681016683578491,27.0,41.0,17.0,18.0,10.0,32.0,14.0
2.6842665672302246,34.0,40.0,24.0,31.0,5.0,22.0,11.0
2.687516689300537,0.0,27.0,6.0,29.0,5.0,36.0,18.0
2.6907665729522705,24.0,16.0,10.0,0.0,5.0,5.0,25.0
2.6940667629241943,34.0,6.0,5.0,18.0,15.0,23.0,28.0
2.6973166465759277,27.0,25.0,9.0,5.0,19.0,0.0,34.0
2.7005667686462402,30.0,18.0,13.0,15.0,30.0,17.0,30.0
2.7038166522979736,44.0,22.0,14.0,26.0,26.0,15.0,25.0
2.707066774368286,10.0,0.0,46.0,0.0,21.0,28.0,10.0
2.710383415222168,57.0,13.0,38.0,17.0,12.0,35.0,6.0
2.7136332988739014,5.0,27.0,31.0,24.0,0.0,35.0,20.0
2.716883420944214,24.0,11.0,58.0,31.0,9.0,5.0,22.0
2.7201333045959473,32.0,37.0,11.0,30.0,17.0,39.0,24.0
2.7233834266662598,20.0,40.0,13.0,30.0,29.0,6.0,23.0
2.726633310317993,27.0,30.0,18.0,27.0,34.0,5.0,18.0
2.729949951171875,12.0,12.0,0.0,17.0,6.0,18.0,39.0
2.7332000732421875,24.0,10.0,0.0,19.0,49.0,11.0,35.0
2.736449956893921,16.0,11.0,0.0,21.0,53.0,5.0,0.0
2.7397000789642334,7.0,18.0,6.0,11.0,29.0,47.0,20.0
2.742949962615967,22.0,0.0,30.0,0.0,5.0,43.0,29.0
2.7462499141693115,21.0,13.0,38.0,20.0,27.0,32.0,37.0
2.749500036239624,16.0,31.0,28.0,10.0,29.0,26.0,37.0
2.7527499198913574,11.0,20.0,25.0,62.0,15.0,17.0,39.0
2.75600004196167,13.0,0.0,0.0,47.0,25.0,30.0,48.0
2.7592499256134033,14.0,3.0,5.0,52.0,5.0,36.0,51.0
2.762566566467285,23.0,5.0,9.0,36.0,19.0,24.0,15.0
2.7658166885375977,22.0,8.0,12.0,19.0,22.0,12.0,14.0
2.769066572189331,20.0,11.0,16.0,5.0,18.0,21.0,12.0
2.7723166942596436,14.0,12.0,19.0,20.0,17.0,10.0,24.0
2.775566577911377,28.0,12.0,41.0,36.0,27.0,13.0,12.0
2.7788333892822266,41.0,13.0,66.0,20.0,22.0,14.0,0.0
2.78208327293396,39.0,855.0,92.0,5.0,18.0,24.0,19.0
2.7853333950042725,37.0,775.0,63.0,11.0,20.0,19.0,15.0
2.788583278656006,0.0,45.0,31.0,14.0,0.0,13.0,11.0
2.7918334007263184,9.0,60.0,10.0,18.0,3.0,34.0,23.0
2.7951500415802,17.0,14.0,44.0,17.0,5.0,44.0,5.0
2.7983999252319336,25.0,0.0,46.0,15.0,6.0,36.0,30.0
2.801650047302246,34.0,11.0,29.0,14.0,6.0,18.0,35.0
2.8048999309539795,0.0,12.0,0.0,12.0,31.0,47.0,41.0
2.808150053024292,0.0,6.0,7.0,11.0,28.0,5.0,29.0
2.8113999366760254,0.0,22.0,14.0,10.0,24.0,47.0,24.0
2.81469988822937,8.0,42.0,18.0,11.0,21.0,34.0,28.0
2.8179500102996826,9.0,832.0,21.0,28.0,18.0,11.0,32.0
2.821216583251953,10.0,747.0,8.0,23.0,28.0,25.0,10.0
2.8244667053222656,12.0,383.0,5.0,19.0,13.0,53.0,45.0
2.827716588973999,13.0,18.0,0.0,33.0,33.0,53.0,5.0
2.831016778945923,15.0,22.0,34.0,39.0,6.0,39.0,18.0
2.8342666625976562,16.0,5.0,28.0,8.0,31.0,69.0,15.0
2.8375167846679688,25.0,190.0,21.0,42.0,24.0,22.0,23.0
2.840766668319702,35.0,130.0,16.0,15.0,18.0,27.0,15.0
2.8440165519714355,84.0,70.0,10.0,15.0,16.0,28.0,21.0
2.8473334312438965,677.0,19.0,14.0,15.0,0.0,7.0,27.0
2.85058331489563,372.0,48.0,17.0,5.0,16.0,40.0,23.0
2.8538334369659424,66.0,20.0,25.0,16.0,10.0,17.0,20.0
2.857083320617676,113.0,53.0,0.0,25.0,5.0,10.0,26.0
2.8603334426879883,36.0,29.0,39.0,21.0,22.0,0.0,22.0
2.863633394241333,45.0,44.0,51.0,19.0,11.0,35.0,18.0
2.8668832778930664,5.0,60.0,29.0,17.0,0.0,30.0,24.0
2.870133399963379,21.0,26.0,6.0,5.0,18.0,45.0,30.0
2.8733832836151123,28.0,5.0,35.0,24.0,18.0,20.0,36.0
2.876633405685425,17.0,11.0,13.0,30.0,17.0,29.0,11.0
2.8799500465393066,36.0,17.0,20.0,0.0,19.0,5.0,25.0
2.88319993019104,55.0,23.0,32.0,21.0,21.0,24.0,33.0
2.8864500522613525,36.0,17.0,5.0,24.0,10.0,30.0,19.0
2.889699935913086,17.0,10.0,27.0,16.0,12.0,15.0,41.0
2.8929500579833984,5.0,26.0,12.0,58.0,5.0,0.0,0.0
2.896199941635132,16.0,43.0,35.0,64.0,8.0,0.0,22.0
2.8994998931884766,8.0,39.0,28.0,69.0,10.0,0.0,24.0
2.902750015258789,37.0,22.0,17.0,23.0,29.0,34.0,19.0
2.9059998989105225,32.0,22.0,7.0,11.0,30.0,52.0,13.0
2.909250020980835,17.0,37.0,8.0,23.0,22.0,70.0,20.0
2.9125165939331055,39.0,10.0,8.0,31.0,16.0,20.0,16.0
2.9158167839050293,44.0,22.0,7.0,0.0,10.0,24.0,13.0
2.9190666675567627,41.0,10.0,5.0,12.0,31.0,28.0,10.0
2.922316551208496,38.0,14.0,32.0,21.0,34.0,0.0,49.0
2.9255666732788086,42.0,6.0,27.0,10.0,39.0,30.0,60.0
2.928816556930542,46.0,0.0,5.0,7.0,9.0,12.0,27.0
2.932133436203003,31.0,16.0,10.0,11.0,24.0,7.0,63.0
2.9353833198547363,44.0,16.0,29.0,15.0,20.0,10.0,40.0
2.938633441925049,25.0,16.0,43.0,0.0,16.0,15.0,21.0
2.9418833255767822,27.0,11.0,34.0,6.0,0.0,20.0,5.0
2.9451334476470947,41.0,6.0,18.0,0.0,6.0,23.0,5.0
2.9484500885009766,12.0,16.0,11.0,28.0,36.0,21.0,6.0
2.95169997215271,14.0,37.0,20.0,39.0,29.0,20.0,14.0
2.9549500942230225,7.0,42.0,13.0,29.0,21.0,0.0,24.0
2.958199977874756,10.0,5.0,6.0,31.0,15.0,0.0,35.0
2.9614500999450684,13.0,21.0,5.0,0.0,31.0,11.0,28.0
2.964750051498413,16.0,19.0,42.0,28.0,6.0,10.0,5.0
2.9679999351501465,16.0,17.0,34.0,55.0,7.0,13.0,0.0
2.971250057220459,12.0,31.0,5.0,44.0,13.0,10.0,7.0
2.9744999408721924,7.0,5.0,16.0,31.0,9.0,7.0,4.0
2.977750062942505,20.0,0.0,42.0,14.0,5.0,10.0,0.0
2.9809999465942383,26.0,5.0,12.0,21.0,11.0,12.0,11.0
2.98431658744812,21.0,6.0,26.0,20.0,15.0,60.0,12.0
2.9875667095184326,16.0,3.0,39.0,5.0,66.0,54.0,13.0
2.990816593170166,6.0,0.0,13.0,11.0,39.0,5.0,5.0
2.9940667152404785,22.0,3.0,45.0,31.0,12.0,5.0,22.0
