,302.1300048828125,303.1300048828125,304.1300048828125,305.1300048828125,306.1300048828125,307.1300048828125
1.9012999534606934,5.0,19.0,43.0,0.0,23.0,189.0
1.9026000499725342,15.0,11.0,54.0,630.0,23.0,18.0
1.9039000272750854,21.0,41.0,17.0,19.0,39.0,70.0
1.9052000045776367,15.0,11.0,660.0,41.0,37.0,55.0
1.906499981880188,10.0,30.0,349.0,37.0,12.0,14.0
1.9077999591827393,5.0,48.0,38.0,45.0,32.0,11.0
1.90910005569458,0.0,27.0,169.0,29.0,51.0,0.0
1.9104000329971313,16.0,5.0,10.0,44.0,5.0,13.0
1.9117000102996826,22.0,40.0,21.0,49.0,16.0,41.0
1.9129999876022339,43.0,49.0,17.0,52.0,29.0,35.0
1.9142999649047852,33.0,33.0,12.0,41.0,21.0,30.0
1.9155999422073364,72.0,7.0,7.0,29.0,13.0,30.0
1.9169000387191772,62.0,34.0,10.0,26.0,17.0,45.0
1.9182666540145874,13.0,0.0,15.0,23.0,22.0,5.0
1.9195666313171387,30.0,0.0,17.0,15.0,23.0,31.0
1.92086660861969,16.0,21.0,26.0,43.0,24.0,22.0
1.9221667051315308,12.0,13.0,29.0,312.0,5.0,12.0
1.923466682434082,7.0,6.0,70.0,581.0,34.0,19.0
1.9247666597366333,11.0,20.0,49.0,296.0,38.0,22.0
1.9260666370391846,14.0,17.0,28.0,10.0,0.0,32.0
1.9273666143417358,39.0,13.0,30.0,484.0,0.0,24.0
1.9286667108535767,34.0,9.0,34.0,12.0,24.0,16.0
1.929966688156128,0.0,5.0,39.0,19.0,27.0,11.0
1.9312666654586792,10.0,7.0,985.0,84.0,31.0,6.0
1.9325666427612305,14.0,13.0,791.0,8.0,30.0,13.0
1.9338666200637817,12.0,11.0,28.0,28.0,28.0,19.0
1.9352166652679443,10.0,12.0,37.0,47.0,23.0,15.0
1.9365166425704956,10.0,0.0,18.0,29.0,67.0,11.0
1.9378166198730469,11.0,8.0,45.0,19.0,64.0,21.0
1.9391167163848877,11.0,28.0,298.0,26.0,61.0,0.0
1.940416693687439,18.0,47.0,153.0,47.0,8.0,15.0
1.9417166709899902,25.0,42.0,8.0,32.0,0.0,30.0
1.9430166482925415,298.0,0.0,20.0,17.0,17.0,28.0
1.9443166255950928,162.0,10.0,32.0,9.0,10.0,43.0
1.9456167221069336,26.0,13.0,26.0,0.0,18.0,41.0
1.9469166994094849,45.0,14.0,24.0,28.0,14.0,25.0
1.9482166767120361,5.0,30.0,34.0,44.0,18.0,8.0
1.9495166540145874,28.0,28.0,22.0,48.0,15.0,47.0
1.9508166313171387,0.0,31.0,10.0,18.0,13.0,27.0
1.9521833658218384,5.0,10.0,34.0,27.0,0.0,14.0
1.9534833431243896,6.0,5.0,5.0,18.0,35.0,34.0
1.954783320426941,33.0,0.0,43.0,602.0,24.0,18.0
1.9560832977294922,33.0,12.0,81.0,456.0,13.0,22.0
1.9573832750320435,10.0,7.0,75.0,9.0,29.0,0.0
1.9586833715438843,15.0,40.0,16.0,16.0,21.0,10.0
1.9599833488464355,21.0,30.0,25.0,26.0,50.0,0.0
1.9612833261489868,21.0,19.0,12.0,26.0,28.0,8.0
1.962583303451538,28.0,11.0,0.0,27.0,5.0,15.0
1.9638832807540894,25.0,35.0,848.0,187.0,0.0,10.0
1.9651833772659302,22.0,5.0,741.0,103.0,108.0,9.0
1.9664833545684814,5.0,27.0,55.0,19.0,69.0,8.0
1.9677833318710327,26.0,7.0,226.0,31.0,30.0,10.0
1.9691333770751953,0.0,25.0,122.0,17.0,27.0,5.0
1.9704333543777466,0.0,31.0,18.0,27.0,17.0,13.0
1.9717333316802979,0.0,18.0,26.0,58.0,35.0,7.0
1.9730333089828491,25.0,5.0,13.0,29.0,17.0,0.0
1.9743332862854004,24.0,27.0,0.0,0.0,0.0,17.0
1.9756333827972412,24.0,23.0,5.0,23.0,26.0,34.0
1.9769333600997925,12.0,13.0,18.0,5.0,11.0,42.0
1.9782333374023438,18.0,13.0,16.0,15.0,35.0,0.0
1.979533314704895,24.0,12.0,1008.0,8.0,30.0,5.0
1.9808332920074463,16.0,22.0,504.0,0.0,24.0,43.0
1.982133388519287,15.0,21.0,0.0,16.0,0.0,11.0
1.9834333658218384,8.0,19.0,31.0,16.0,22.0,13.0
1.9847333431243896,0.0,23.0,0.0,15.0,43.0,44.0
1.9860999584197998,18.0,25.0,14.0,7.0,41.0,51.0
1.9874000549316406,10.0,20.0,28.0,15.0,25.0,18.0
1.988700032234192,16.0,15.0,27.0,13.0,28.0,16.0
1.9900000095367432,22.0,15.0,26.0,10.0,32.0,13.0
1.9912999868392944,22.0,13.0,231.0,8.0,21.0,0.0
1.9925999641418457,22.0,12.0,124.0,6.0,27.0,8.0
1.993899941444397,31.0,10.0,16.0,11.0,6.0,15.0
1.9952000379562378,25.0,5.0,45.0,18.0,12.0,31.0
1.996500015258789,19.0,17.0,28.0,23.0,5.0,25.0
1.9977999925613403,35.0,19.0,10.0,30.0,27.0,18.0
1.9990999698638916,35.0,21.0,5.0,28.0,33.0,5.0
2.0004000663757324,34.0,17.0,0.0,16.0,13.0,5.0
2.001699924468994,33.0,10.0,5.0,10.0,26.0,5.0
2.0030667781829834,17.0,8.0,10.0,5.0,27.0,12.0
2.004366636276245,25.0,14.0,21.0,0.0,15.0,17.0
2.005666732788086,0.0,28.0,31.0,11.0,28.0,17.0
2.0069665908813477,15.0,30.0,22.0,12.0,0.0,17.0
2.0082666873931885,12.0,32.0,18.0,13.0,24.0,9.0
2.0095667839050293,9.0,27.0,10.0,27.0,10.0,0.0
2.010866641998291,10.0,22.0,16.0,40.0,17.0,22.0
2.012166738510132,10.0,27.0,22.0,32.0,0.0,16.0
2.0134665966033936,10.0,44.0,28.0,0.0,23.0,17.0
2.0147666931152344,9.0,0.0,0.0,10.0,14.0,18.0
2.016066551208496,11.0,0.0,36.0,0.0,0.0,32.0
2.017366647720337,12.0,50.0,16.0,16.0,7.0,37.0
2.0186667442321777,26.0,35.0,22.0,11.0,13.0,0.0
2.020033359527588,21.0,23.0,22.0,5.0,7.0,22.0
2.0213332176208496,15.0,0.0,22.0,7.0,0.0,26.0
2.0226333141326904,46.0,6.0,19.0,0.0,0.0,26.0
2.0239334106445312,29.0,5.0,17.0,12.0,0.0,13.0
2.025233268737793,13.0,5.0,16.0,10.0,32.0,10.0
2.026533365249634,28.0,5.0,26.0,13.0,29.0,7.0
2.0278332233428955,24.0,28.0,24.0,16.0,16.0,10.0
2.0291333198547363,19.0,19.0,15.0,19.0,8.0,12.0
2.030433416366577,30.0,10.0,22.0,22.0,0.0,17.0
2.031733274459839,26.0,38.0,13.0,60.0,16.0,0.0
2.0330333709716797,5.0,28.0,17.0,45.0,15.0,11.0
2.0343332290649414,5.0,36.0,28.0,31.0,13.0,23.0
2.0356333255767822,42.0,0.0,51.0,13.0,64.0,0.0
2.0369832515716553,36.0,5.0,31.0,39.0,48.0,0.0
2.038283348083496,13.0,13.0,10.0,24.0,32.0,0.0
2.039583444595337,62.0,21.0,859.0,17.0,18.0,34.0
2.0408833026885986,40.0,24.0,907.0,10.0,54.0,32.0
2.0421833992004395,23.0,18.0,22.0,13.0,0.0,30.0
2.043483257293701,5.0,12.0,695.0,16.0,5.0,33.0
2.044783353805542,5.0,31.0,17.0,18.0,32.0,11.0
2.046083450317383,5.0,49.0,5.0,19.0,31.0,40.0
2.0473833084106445,45.0,28.0,0.0,12.0,30.0,23.0
2.0486834049224854,25.0,6.0,4.0,21.0,17.0,6.0
2.049983263015747,5.0,24.0,8.0,28.0,5.0,22.0
2.051283359527588,5.0,21.0,9.0,17.0,10.0,18.0
2.0525832176208496,12.0,18.0,5.0,7.0,5.0,21.0
2.053950071334839,29.0,5.0,1058.0,15.0,28.0,24.0
2.0552499294281006,20.0,10.0,827.0,23.0,16.0,18.0
2.0565500259399414,11.0,198.0,27.0,21.0,5.0,12.0
2.057849884033203,21.0,102.0,27.0,10.0,28.0,24.0
2.059149980545044,21.0,6.0,462.0,0.0,18.0,16.0
2.0604500770568848,21.0,561.0,582.0,28.0,12.0,23.0
2.0617499351501465,16.0,1533.0,6.0,13.0,5.0,30.0
2.0630500316619873,8.0,2681.0,25.0,45.0,29.0,54.0
2.064349889755249,15.0,4604.0,261.0,36.0,43.0,49.0
2.06564998626709,16.0,3598.0,138.0,27.0,45.0,6.0
2.0669500827789307,17.0,3522.0,15.0,7.0,39.0,27.0
2.0682499408721924,9.0,4802.0,0.0,6.0,31.0,25.0
2.069550037384033,0.0,3381.0,71.0,45.0,32.0,29.0
2.0708999633789062,30.0,4190.0,0.0,25.0,46.0,26.0
2.072200059890747,33.0,5230.0,1043.0,5.0,13.0,24.0
2.073499917984009,32.0,6105.0,1260.0,47.0,21.0,5.0
2.0748000144958496,14.0,7582.0,22.0,52.0,29.0,6.0
2.0761001110076904,37.0,2335.0,864.0,48.0,23.0,11.0
2.077399969100952,48.0,4287.0,11.0,43.0,16.0,30.0
2.078700065612793,59.0,12836.0,567.0,25.0,36.0,21.0
2.0799999237060547,10.0,9920.0,291.0,15.0,18.0,11.0
2.0813000202178955,17.0,7088.0,15.0,5.0,0.0,9.0
2.0826001167297363,0.0,10644.0,12.0,830.0,28.0,7.0
2.083899974822998,11.0,9760.0,118.0,423.0,10.0,0.0
2.085200071334839,9.0,8876.0,223.0,15.0,24.0,0.0
2.0864999294281006,7.0,8884.0,318.0,17.0,38.0,5.0
2.08786678314209,5.0,6853.0,412.0,15.0,698.0,10.0
2.0891666412353516,29.0,2720.0,58.0,12.0,657.0,7.0
2.0904667377471924,24.0,11808.0,36.0,35.0,15.0,14.0
2.091766595840454,19.0,15012.0,14.0,30.0,8.0,9.0
2.093066692352295,31.0,9632.0,1171.0,25.0,131.0,5.0
2.0943665504455566,23.0,12236.0,1700.0,22.0,43.0,20.0
2.0956666469573975,13.0,9876.0,1143.0,18.0,63.0,20.0
2.0969667434692383,35.0,5472.0,22.0,25.0,0.0,19.0
2.0982666015625,17.0,8944.0,1581.0,0.0,29.0,15.0
2.099566698074341,0.0,10736.0,748.0,24.0,17.0,22.0
2.1008665561676025,15.0,11392.0,19.0,15.0,6.0,14.0
2.1021666526794434,10.0,10896.0,25.0,6.0,5.0,6.0
2.103466749191284,5.0,12976.0,20.0,9.0,5.0,32.0
2.1048166751861572,10.0,4853.0,15.0,12.0,0.0,32.0
2.106116771697998,8.0,9548.0,8.0,9.0,18.0,32.0
2.1074166297912598,7.0,8468.0,0.0,5.0,16.0,6.0
2.1087167263031006,6.0,14216.0,15.0,17.0,22.0,21.0
2.1100165843963623,5.0,1268.0,30.0,14.0,28.0,41.0
2.1113333702087402,0.0,2537.0,615.0,10.0,22.0,10.0
2.112616777420044,10.0,5956.0,657.0,750.0,16.0,11.0
2.1139166355133057,8.0,7750.0,700.0,378.0,1013.0,32.0
2.1152167320251465,5.0,9236.0,765.0,5.0,507.0,5.0
2.116516590118408,12.0,8488.0,831.0,77.0,0.0,14.0
2.117816686630249,18.0,6509.0,24.0,62.0,6.0,24.0
2.11911678314209,52.0,10704.0,52.0,46.0,29.0,49.0
2.1204166412353516,47.0,10556.0,537.0,17.0,10.0,39.0
2.1217832565307617,36.0,10404.0,611.0,275.0,31.0,30.0
2.1230833530426025,5.0,7817.0,194.0,225.0,67.0,24.0
2.1243834495544434,9.0,6760.0,1151.0,176.0,46.0,11.0
2.125683307647705,33.0,11008.0,1077.0,26.0,26.0,0.0
2.126983404159546,22.0,10316.0,1004.0,15.0,31.0,15.0
2.1282832622528076,21.0,5446.0,12.0,653.0,28.0,10.0
2.1295833587646484,40.0,9512.0,35.0,337.0,25.0,21.0
2.13088321685791,0.0,10092.0,1127.0,22.0,38.0,39.0
2.132183313369751,16.0,7761.0,560.0,19.0,44.0,47.0
2.133483409881592,7.0,5429.0,767.0,14.0,47.0,19.0
2.1347832679748535,4.0,7204.0,415.0,15.0,16.0,0.0
2.1360833644866943,0.0,8980.0,63.0,22.0,24.0,21.0
2.137383222579956,0.0,7961.0,714.0,28.0,383.0,21.0
2.138733386993408,444.0,5635.0,24.0,41.0,200.0,17.0
2.14003324508667,238.0,7640.0,15.0,48.0,16.0,13.0
2.1413333415985107,33.0,9644.0,615.0,0.0,5.0,18.0
2.1426334381103516,26.0,7840.0,1393.0,76.0,11.0,7.0
2.1439332962036133,73.0,6108.0,714.0,0.0,8.0,6.0
2.145233392715454,32.0,7891.0,35.0,7.0,5.0,5.0
2.146533250808716,23.0,2824.0,28.0,6.0,37.0,13.0
2.1478333473205566,13.0,6493.0,43.0,5.0,37.0,12.0
2.1491334438323975,341.0,4785.0,767.0,82.0,38.0,22.0
2.150433301925659,171.0,1415.0,815.0,47.0,10.0,31.0
2.1517333984375,0.0,7800.0,817.0,12.0,10.0,21.0
2.1530332565307617,826.0,1018.0,0.0,6.0,33.0,11.0
2.1543333530426025,426.0,2802.0,766.0,0.0,5.0,7.0
2.1556999683380127,27.0,3293.0,0.0,5.0,14.0,18.0
2.1570000648498535,1107.0,2389.0,5.0,18.0,11.0,29.0
2.1582999229431152,434.0,1968.0,17.0,42.0,0.0,28.0
2.159600019454956,12.0,1409.0,30.0,587.0,5.0,0.0
2.160900115966797,153.0,2683.0,36.0,1295.0,23.0,33.0
2.1621999740600586,313.0,785.0,43.0,1029.0,41.0,5.0
2.1635000705718994,689.0,1729.0,32.0,25.0,41.0,27.0
2.164799928665161,1061.0,2158.0,22.0,47.0,30.0,17.0
2.166100025177002,935.0,821.0,9.0,12.0,21.0,0.0
2.1673998832702637,7.0,1191.0,16.0,376.0,11.0,36.0
2.1686999797821045,1489.0,45.0,12.0,397.0,18.0,23.0
2.1700000762939453,740.0,10.0,7.0,26.0,29.0,27.0
2.171299934387207,1393.0,19.0,11.0,5.0,0.0,31.0
2.172666549682617,823.0,165.0,14.0,7.0,11.0,21.0
2.173966646194458,106.0,664.0,25.0,24.0,22.0,13.0
2.175266742706299,31.0,955.0,31.0,30.0,5.0,5.0
2.1765666007995605,38.0,704.0,37.0,49.0,8.0,10.0
2.1778666973114014,16.0,758.0,32.0,35.0,7.0,14.0
2.179166555404663,46.0,811.0,16.0,22.0,6.0,14.0
2.180466651916504,15.0,30.0,38.0,5.0,7.0,12.0
2.1817667484283447,1273.0,36.0,0.0,21.0,8.0,10.0
2.1830666065216064,1121.0,377.0,10.0,492.0,43.0,68.0
2.1843667030334473,714.0,21.0,34.0,569.0,51.0,54.0
2.185666561126709,891.0,0.0,35.0,931.0,16.0,41.0
2.18696665763855,0.0,105.0,37.0,622.0,23.0,14.0
2.1882667541503906,1132.0,77.0,49.0,313.0,63.0,5.0
2.189633369445801,1459.0,49.0,36.0,26.0,47.0,107.0
2.1909332275390625,10.0,38.0,23.0,39.0,34.0,90.0
2.1922333240509033,15.0,0.0,24.0,0.0,44.0,24.0
2.193533420562744,13.0,12.0,25.0,30.0,23.0,74.0
2.194833278656006,643.0,188.0,33.0,23.0,0.0,53.0
2.1961333751678467,1067.0,113.0,10.0,39.0,5.0,28.0
2.1974332332611084,1490.0,38.0,50.0,13.0,7.0,79.0
2.198733329772949,39.0,51.0,37.0,8.0,9.0,0.0
2.20003342628479,1391.0,49.0,0.0,12.0,10.0,13.0
2.2013332843780518,128.0,29.0,30.0,15.0,11.0,27.0
2.2026333808898926,1017.0,8.0,22.0,1084.0,9.0,9.0
2.2039332389831543,934.0,24.0,14.0,1237.0,7.0,12.0
2.205233335494995,1151.0,12.0,10.0,22.0,22.0,15.0
2.206583261489868,713.0,0.0,5.0,7.0,22.0,0.0
2.207883358001709,0.0,10.0,8.0,31.0,18.0,23.0
2.209199905395508,15.0,9.0,10.0,32.0,13.0,14.0
2.2104833126068115,7.0,7.0,14.0,12.0,8.0,6.0
2.2117834091186523,0.0,415.0,18.0,9.0,30.0,6.0
2.213083267211914,27.0,222.0,17.0,6.0,26.0,5.0
2.214400053024292,726.0,29.0,38.0,0.0,0.0,5.0
2.2156832218170166,736.0,22.0,34.0,26.0,18.0,3.0
2.2169833183288574,1005.0,18.0,30.0,32.0,16.0,0.0
2.2182834148406982,15.0,14.0,32.0,45.0,0.0,0.0
2.21958327293396,27.0,10.0,35.0,29.0,16.0,5.0
2.220883369445801,0.0,10.0,317.0,18.0,14.0,6.0
2.2221832275390625,5.0,10.0,166.0,23.0,11.0,26.0
2.2235500812530518,19.0,10.0,14.0,17.0,8.0,18.0
2.2248499393463135,18.0,14.0,33.0,11.0,5.0,11.0
2.2261500358581543,17.0,17.0,11.0,19.0,10.0,8.0
2.227449893951416,10.0,33.0,91.0,10.0,8.0,5.0
2.228749990463257,34.0,48.0,48.0,0.0,6.0,0.0
2.2300500869750977,57.0,79.0,5.0,16.0,28.0,0.0
2.2313499450683594,64.0,52.0,0.0,5.0,34.0,0.0
2.2326500415802,70.0,26.0,24.0,12.0,5.0,7.0
2.233949899673462,34.0,0.0,12.0,5.0,45.0,7.0
2.2352499961853027,12.0,19.0,15.0,16.0,5.0,7.0
2.2365500926971436,15.0,51.0,17.0,19.0,11.0,0.0
2.2378499507904053,18.0,36.0,18.0,32.0,1107.0,6.0
2.239150047302246,0.0,21.0,18.0,42.0,935.0,13.0
2.240499973297119,9.0,0.0,15.0,35.0,11.0,21.0
2.24180006980896,63.0,8.0,12.0,11.0,30.0,28.0
2.2430999279022217,47.0,16.0,49.0,15.0,30.0,14.0
2.2444000244140625,31.0,13.0,42.0,37.0,45.0,0.0
2.245699882507324,374.0,10.0,6.0,26.0,48.0,11.0
2.246999979019165,362.0,19.0,22.0,14.0,51.0,23.0
2.248300075531006,350.0,12.0,10.0,17.0,35.0,35.0
2.2495999336242676,183.0,5.0,10.0,25.0,19.0,28.0
2.2509000301361084,15.0,10.0,5.0,5.0,21.0,21.0
2.25219988822937,36.0,14.0,0.0,12.0,22.0,15.0
2.253499984741211,8.0,17.0,14.0,28.0,23.0,17.0
2.2548000812530518,5.0,19.0,33.0,26.0,21.0,13.0
2.2560999393463135,29.0,13.0,99.0,24.0,19.0,14.0
2.2574665546417236,0.0,22.0,66.0,15.0,48.0,117.0
2.2587666511535645,19.0,22.0,32.0,22.0,45.0,66.0
2.2600667476654053,19.0,10.0,14.0,28.0,5.0,15.0
2.261366605758667,24.0,13.0,36.0,10.0,17.0,13.0
2.262666702270508,0.0,15.0,37.0,12.0,29.0,15.0
2.2639665603637695,5.0,21.0,38.0,26.0,22.0,15.0
2.2652666568756104,10.0,23.0,0.0,19.0,14.0,15.0
2.266566753387451,30.0,11.0,48.0,27.0,10.0,10.0
2.267866611480713,29.0,0.0,78.0,176.0,6.0,5.0
2.2691667079925537,12.0,46.0,47.0,120.0,26.0,11.0
2.2704665660858154,6.0,75.0,16.0,64.0,22.0,19.0
2.2717666625976562,16.0,104.0,7.0,10.0,18.0,26.0
2.273066759109497,27.0,48.0,19.0,53.0,12.0,30.0
2.27441668510437,16.0,17.0,16.0,0.0,14.0,23.0
2.275716781616211,6.0,25.0,12.0,23.0,16.0,16.0
2.2770166397094727,16.0,0.0,17.0,32.0,5.0,25.0
2.2783167362213135,5.0,5.0,14.0,41.0,0.0,16.0
2.279616594314575,12.0,11.0,690.0,26.0,0.0,7.0
2.280916690826416,18.0,6.0,360.0,10.0,11.0,0.0
2.282233238220215,17.0,0.0,31.0,26.0,26.0,28.0
2.2835166454315186,38.0,10.0,29.0,16.0,16.0,28.0
2.2848167419433594,24.0,19.0,27.0,12.0,6.0,22.0
2.286116600036621,10.0,21.0,14.0,28.0,22.0,31.0
2.287416696548462,8.0,0.0,15.0,44.0,0.0,19.0
2.2887165546417236,5.0,10.0,10.0,388.0,31.0,38.0
2.2900166511535645,29.0,17.0,185.0,218.0,43.0,33.0
2.2913832664489746,25.0,28.0,104.0,48.0,23.0,29.0
2.2926833629608154,12.0,30.0,23.0,18.0,11.0,16.0
2.293983221054077,7.0,22.0,57.0,0.0,11.0,10.0
2.295283317565918,5.0,14.0,15.0,6.0,6.0,18.0
2.296583414077759,26.0,27.0,0.0,41.0,0.0,12.0
2.2978832721710205,29.0,19.0,66.0,29.0,24.0,6.0
