,580.6400146484375,581.6400146484375,582.6400146484375,583.6400146484375,584.6400146484375,585.6400146484375,586.6400146484375,587.6400146484375
3.701733350753784,18.0,40.0,5.0,21.0,11.0,52.0,33.0,85.0
3.7034666538238525,5.0,34.0,0.0,43.0,18.0,64.0,32.0,26.0
3.705199956893921,9.0,5.0,32.0,10.0,62.0,25.0,12.0,34.0
3.7069332599639893,26.0,22.0,17.0,10.0,52.0,48.0,16.0,25.0
3.7086665630340576,37.0,0.0,28.0,11.0,42.0,15.0,5.0,22.0
3.710400104522705,33.0,7.0,44.0,16.0,24.0,5.0,2.0,37.0
3.7121334075927734,11.0,14.0,0.0,33.0,19.0,49.0,0.0,16.0
3.713866710662842,27.0,20.0,45.0,28.0,28.0,38.0,12.0,31.0
3.71560001373291,36.0,12.0,41.0,47.0,37.0,14.0,12.0,11.0
3.717400074005127,5.0,5.0,74.0,53.0,7.0,14.0,12.0,5.0
3.7191333770751953,0.0,10.0,0.0,18.0,33.0,15.0,14.0,23.0
3.7208666801452637,24.0,14.0,20.0,17.0,17.0,15.0,18.0,17.0
3.722599983215332,27.0,0.0,0.0,52.0,25.0,15.0,17.0,15.0
3.7243332862854004,28.0,37.0,10.0,30.0,17.0,32.0,17.0,10.0
3.7260665893554688,29.0,38.0,15.0,16.0,6.0,34.0,7.0,5.0
3.727799892425537,22.0,45.0,15.0,17.0,21.0,37.0,33.0,22.0
3.7295334339141846,29.0,12.0,8.0,19.0,20.0,8.0,47.0,16.0
3.731266736984253,32.0,19.0,10.0,19.0,19.0,5.0,46.0,25.0
3.7330000400543213,21.0,22.0,13.0,20.0,20.0,10.0,11.0,16.0
3.734800100326538,15.0,18.0,13.0,13.0,21.0,56.0,36.0,13.0
3.7365334033966064,7.0,14.0,33.0,11.0,18.0,66.0,21.0,20.0
3.738266706466675,36.0,7.0,26.0,20.0,16.0,33.0,39.0,15.0
3.740000009536743,49.0,0.0,19.0,13.0,20.0,0.0,11.0,9.0
3.7417333126068115,32.0,23.0,11.0,9.0,24.0,22.0,20.0,40.0
3.74346661567688,0.0,45.0,18.0,6.0,20.0,36.0,29.0,39.0
3.7451999187469482,0.0,46.0,0.0,24.0,16.0,29.0,12.0,29.0
3.7469332218170166,41.0,49.0,15.0,32.0,16.0,23.0,13.0,25.0
3.748666763305664,31.0,16.0,19.0,27.0,0.0,21.0,15.0,0.0
3.7504000663757324,34.0,15.0,24.0,23.0,7.0,11.0,17.0,18.0
3.75219988822937,12.0,6.0,19.0,5.0,8.0,17.0,24.0,10.0
3.7539334297180176,36.0,20.0,15.0,23.0,9.0,8.0,0.0,29.0
3.755666732788086,32.0,35.0,46.0,25.0,19.0,12.0,17.0,43.0
3.7574000358581543,20.0,44.0,41.0,5.0,27.0,16.0,11.0,61.0
3.7591333389282227,28.0,23.0,41.0,21.0,35.0,8.0,5.0,41.0
3.760866641998291,44.0,5.0,24.0,24.0,35.0,0.0,24.0,32.0
3.7625999450683594,52.0,45.0,9.0,26.0,6.0,6.0,19.0,22.0
3.7643332481384277,16.0,15.0,19.0,0.0,25.0,12.0,15.0,43.0
3.766066551208496,19.0,32.0,24.0,8.0,11.0,16.0,12.0,44.0
3.7678000926971436,5.0,14.0,25.0,6.0,0.0,20.0,20.0,46.0
3.769583225250244,18.0,10.0,0.0,5.0,22.0,20.0,29.0,11.0
3.7713167667388916,7.0,5.0,27.0,8.0,15.0,21.0,25.0,11.0
3.77305006980896,6.0,16.0,12.0,11.0,26.0,22.0,21.0,16.0
3.7747833728790283,6.0,6.0,6.0,18.0,38.0,22.0,23.0,9.0
3.7765166759490967,11.0,8.0,13.0,31.0,0.0,29.0,41.0,41.0
3.778249979019165,41.0,11.0,21.0,34.0,6.0,9.0,39.0,25.0
3.7799832820892334,42.0,11.0,0.0,20.0,13.0,18.0,16.0,10.0
3.7817165851593018,18.0,7.0,14.0,5.0,46.0,10.0,5.0,0.0
3.78344988822937,20.0,14.0,28.0,19.0,40.0,28.0,2.0,0.0
3.7852165699005127,36.0,22.0,18.0,19.0,42.0,20.0,0.0,5.0
3.78695011138916,16.0,15.0,15.0,19.0,17.0,12.0,5.0,30.0
3.7886834144592285,13.0,8.0,6.0,21.0,5.0,16.0,2.0,36.0
3.790416717529297,15.0,0.0,11.0,24.0,44.0,20.0,0.0,6.0
3.7921500205993652,27.0,71.0,11.0,22.0,10.0,5.0,7.0,27.0
3.7938833236694336,44.0,61.0,11.0,20.0,38.0,21.0,7.0,17.0
3.795616626739502,43.0,30.0,15.0,17.0,23.0,11.0,0.0,34.0
3.7973499298095703,40.0,5.0,20.0,6.0,11.0,15.0,17.0,38.0
3.7990832328796387,37.0,54.0,0.0,21.0,41.0,16.0,14.0,5.0
3.800816774368286,10.0,48.0,6.0,6.0,0.0,44.0,11.0,9.0
3.8025999069213867,32.0,0.0,12.0,23.0,12.0,49.0,29.0,13.0
3.804349899291992,28.0,24.0,21.0,29.0,40.0,11.0,60.0,16.0
3.8060667514801025,39.0,44.0,21.0,34.0,0.0,43.0,65.0,22.0
3.807800054550171,31.0,26.0,18.0,16.0,20.0,30.0,23.0,16.0
3.8095333576202393,0.0,20.0,19.0,11.0,31.0,35.0,48.0,11.0
3.8112666606903076,30.0,13.0,20.0,35.0,20.0,10.0,29.0,0.0
3.813016653060913,22.0,22.0,20.0,33.0,23.0,11.0,44.0,21.0
3.8147332668304443,29.0,31.0,21.0,10.0,26.0,19.0,24.0,13.0
3.8164665699005127,18.0,30.0,16.0,15.0,19.0,20.0,18.0,11.0
3.81820011138916,28.0,11.0,12.0,15.0,27.0,20.0,12.0,7.0
3.8199665546417236,12.0,12.0,12.0,15.0,13.0,9.0,6.0,8.0
3.821700096130371,29.0,16.0,12.0,25.0,0.0,15.0,19.0,10.0
3.8234333992004395,30.0,26.0,18.0,24.0,42.0,21.0,15.0,10.0
3.825166702270508,15.0,31.0,24.0,24.0,27.0,20.0,11.0,24.0
3.826900005340576,23.0,16.0,45.0,5.0,12.0,14.0,12.0,14.0
3.8286333084106445,22.0,0.0,37.0,12.0,20.0,0.0,14.0,5.0
3.830366611480713,20.0,10.0,11.0,14.0,18.0,17.0,17.0,10.0
3.8320999145507812,24.0,7.0,47.0,16.0,16.0,17.0,18.0,11.0
3.8338332176208496,27.0,5.0,25.0,5.0,14.0,15.0,19.0,12.0
3.8356332778930664,6.0,10.0,46.0,11.0,17.0,13.0,30.0,10.0
3.8373665809631348,5.0,7.0,73.0,20.0,19.0,21.0,31.0,5.0
3.839099884033203,51.0,10.0,45.0,22.0,18.0,17.0,32.0,0.0
3.8408334255218506,46.0,14.0,16.0,6.0,12.0,14.0,16.0,10.0
3.842566728591919,53.0,21.0,12.0,0.0,15.0,6.0,45.0,5.0
3.8443000316619873,35.0,18.0,29.0,0.0,17.0,5.0,30.0,0.0
3.8460333347320557,30.0,16.0,16.0,0.0,17.0,22.0,14.0,13.0
3.847766637802124,30.0,13.0,15.0,0.0,35.0,17.0,6.0,12.0
3.8494999408721924,34.0,11.0,0.0,9.0,42.0,12.0,15.0,11.0
3.8512332439422607,17.0,13.0,16.0,18.0,49.0,20.0,12.0,10.0
3.8530166149139404,0.0,13.0,0.0,15.0,46.0,5.0,10.0,0.0
3.854749917984009,40.0,9.0,7.0,25.0,0.0,2.0,14.0,20.0
3.8564999103546143,12.0,5.0,19.0,36.0,70.0,0.0,12.0,38.0
3.8582167625427246,14.0,5.0,18.0,31.0,22.0,7.0,10.0,27.0
3.85996675491333,18.0,5.0,18.0,26.0,22.0,12.0,55.0,6.0
3.8617000579833984,18.0,13.0,16.0,5.0,10.0,27.0,61.0,44.0
3.863433361053467,19.0,30.0,19.0,22.0,0.0,16.0,33.0,17.0
3.865166664123535,8.0,40.0,21.0,34.0,3.0,5.0,42.0,26.0
3.8668999671936035,29.0,39.0,13.0,20.0,6.0,32.0,50.0,24.0
3.868633270263672,50.0,16.0,5.0,7.0,9.0,10.0,29.0,15.0
3.8703832626342773,50.0,11.0,18.0,0.0,5.0,39.0,16.0,21.0
3.8721165657043457,12.0,46.0,5.0,2.0,0.0,29.0,0.0,27.0
3.873850107192993,25.0,19.0,19.0,5.0,15.0,19.0,19.0,30.0
3.8755834102630615,61.0,5.0,21.0,42.0,31.0,15.0,23.0,23.0
3.87731671333313,32.0,16.0,23.0,42.0,25.0,31.0,28.0,22.0
3.8790500164031982,16.0,14.0,18.0,34.0,0.0,21.0,33.0,22.0
3.8807833194732666,16.0,12.0,12.0,5.0,14.0,0.0,27.0,26.0
3.882516622543335,19.0,5.0,50.0,40.0,5.0,21.0,23.0,22.0
3.8842499256134033,0.0,6.0,42.0,35.0,29.0,39.0,16.0,18.0
3.886033296585083,14.0,6.0,50.0,44.0,28.0,29.0,22.0,23.0
3.8877832889556885,11.0,0.0,32.0,10.0,27.0,26.0,14.0,29.0
3.889516592025757,19.0,6.0,25.0,8.0,16.0,15.0,5.0,26.0
3.891249895095825,13.0,12.0,5.0,7.0,5.0,5.0,11.0,25.0
3.8929834365844727,7.0,16.0,39.0,7.0,11.0,29.0,17.0,24.0
3.894716739654541,6.0,18.0,6.0,7.0,13.0,10.0,28.0,5.0
3.8964500427246094,6.0,21.0,6.0,0.0,12.0,10.0,20.0,15.0
3.8981833457946777,11.0,20.0,10.0,5.0,11.0,6.0,12.0,17.0
3.899916648864746,16.0,18.0,13.0,8.0,7.0,13.0,14.0,20.0
3.9016499519348145,10.0,10.0,16.0,11.0,12.0,21.0,16.0,5.0
3.9034500122070312,5.0,34.0,32.0,5.0,13.0,31.0,11.0,23.0
3.9051833152770996,19.0,32.0,47.0,5.0,13.0,23.0,10.0,27.0
3.906916618347168,19.0,49.0,50.0,10.0,16.0,15.0,8.0,16.0
3.9086499214172363,11.0,0.0,28.0,5.0,20.0,20.0,21.0,32.0
3.9103832244873047,19.0,12.0,30.0,0.0,13.0,25.0,27.0,29.0
3.912116765975952,23.0,25.0,33.0,14.0,7.0,0.0,28.0,26.0
3.9138500690460205,27.0,0.0,0.0,17.0,15.0,34.0,58.0,21.0
3.915583372116089,24.0,12.0,17.0,21.0,8.0,8.0,51.0,17.0
3.9173166751861572,21.0,27.0,13.0,19.0,0.0,30.0,13.0,25.0
3.9190499782562256,21.0,28.0,17.0,5.0,6.0,33.0,11.0,33.0
3.9208500385284424,22.0,9.0,22.0,30.0,12.0,11.0,30.0,30.0
3.9225833415985107,10.0,38.0,27.0,50.0,11.0,33.0,30.0,48.0
3.924316644668579,30.0,53.0,23.0,31.0,10.0,15.0,29.0,6.0
3.9260499477386475,0.0,209.0,19.0,12.0,630.0,64.0,9.0,10.0
3.927783250808716,441.0,144.0,379.0,38.0,3116.0,47.0,37.0,8.0
3.929516553878784,881.0,80.0,610.0,64.0,4002.0,30.0,210.0,30.0
3.9312500953674316,879.0,1180.0,953.0,1127.0,3169.0,44.0,383.0,37.0
3.9329833984375,1124.0,2670.0,920.0,958.0,2753.0,354.0,201.0,0.0
3.9347167015075684,1368.0,5247.0,3118.0,788.0,4930.0,663.0,20.0,0.0
3.9364500045776367,2030.0,6527.0,5421.0,3947.0,4167.0,2193.0,705.0,9.0
3.9382333755493164,2692.0,7808.0,6975.0,6856.0,4486.0,2614.0,1103.0,19.0
3.9399666786193848,4327.0,5420.0,4389.0,6763.0,1944.0,2349.0,563.0,18.0
3.941699981689453,4676.0,10412.0,10940.0,8860.0,7900.0,1499.0,23.0,18.0
3.9434332847595215,5025.0,17808.0,9720.0,7399.0,8556.0,371.0,3470.0,5.0
3.94516658782959,6376.0,20700.0,11264.0,9764.0,11536.0,6407.0,2957.0,1435.0
3.946899890899658,7726.0,17200.0,15512.0,10684.0,9084.0,5950.0,2190.0,2381.0
3.9486334323883057,7718.0,20436.0,19824.0,11600.0,7064.0,5412.0,1466.0,1289.0
3.950366735458374,12344.0,23672.0,22512.0,12292.0,10736.0,6168.0,4614.0,505.0
3.9521000385284424,14600.0,21976.0,17524.0,12984.0,9288.0,5763.0,5836.0,401.0
3.953866720199585,12696.0,25804.0,26968.0,14684.0,13584.0,5358.0,5659.0,432.0
3.9556000232696533,10792.0,24492.0,24144.0,14796.0,12052.0,4623.0,416.0,463.0
3.9573333263397217,13512.0,23180.0,17692.0,14616.0,15544.0,5006.0,5802.0,29.0
3.95906662940979,12444.0,20488.0,20320.0,14436.0,15712.0,5010.0,4334.0,626.0
3.9607999324798584,15284.0,17796.0,23872.0,12364.0,15880.0,5013.0,4575.0,438.0
3.9625332355499268,15028.0,22408.0,18748.0,22864.0,15784.0,3566.0,5369.0,251.0
3.964266777038574,14772.0,22820.0,19572.0,20684.0,15172.0,5512.0,2275.0,19.0
3.9660000801086426,15528.0,23236.0,25016.0,17968.0,16452.0,5220.0,1244.0,12.0
3.967733383178711,9052.0,25424.0,26800.0,15748.0,14108.0,4929.0,6294.0,5.0
3.9694666862487793,14108.0,24584.0,23552.0,23700.0,16992.0,4862.0,2679.0,72.0
3.971266746520996,14080.0,23744.0,19568.0,24208.0,8452.0,4795.0,5115.0,139.0
3.9730000495910645,8232.0,21504.0,28388.0,21128.0,17916.0,4568.0,3195.0,1559.0
3.974733352661133,15324.0,25880.0,16120.0,20348.0,14052.0,4341.0,3916.0,1899.0
3.976466655731201,17664.0,24548.0,20936.0,18108.0,20924.0,5867.0,2197.0,1439.0
3.9781999588012695,18940.0,23220.0,21424.0,22624.0,10696.0,2002.0,2421.0,1317.0
3.979933261871338,15972.0,25952.0,19324.0,18840.0,13476.0,2268.0,869.0,589.0
3.9816665649414062,16844.0,23744.0,19032.0,11280.0,10656.0,5661.0,2241.0,1360.0
3.9834001064300537,13644.0,32140.0,18276.0,18404.0,13368.0,6924.0,3613.0,883.0
3.985133409500122,8672.0,34912.0,17520.0,13860.0,9232.0,5042.0,3063.0,947.0
3.9868667125701904,11280.0,22572.0,15244.0,12784.0,10656.0,3765.0,2365.0,17.0
3.9886667728424072,10228.0,21844.0,15396.0,19784.0,12828.0,3767.0,2511.0,1265.0
3.9904000759124756,13532.0,18040.0,15552.0,12372.0,12412.0,4583.0,2656.0,650.0
3.992133378982544,4417.0,22848.0,12152.0,11072.0,12000.0,3168.0,3082.0,672.0
3.9938666820526123,13208.0,19188.0,13144.0,10904.0,14748.0,2999.0,3508.0,668.0
3.9955999851226807,6435.0,14024.0,8292.0,5434.0,8304.0,2829.0,3116.0,52.0
3.997333288192749,5276.0,21256.0,11300.0,7100.0,5169.0,3186.0,902.0,27.0
3.9990665912628174,4859.0,21224.0,11392.0,14676.0,6641.0,3652.0,1361.0,19.0
4.000800132751465,4584.0,9916.0,9212.0,11676.0,5362.0,1569.0,3060.0,12.0
4.002533435821533,4308.0,14248.0,8160.0,6144.0,3522.0,1683.0,1612.0,6.0
4.004266738891602,4081.0,13596.0,7107.0,10028.0,2450.0,2356.0,1335.0,49.0
4.006050109863281,3855.0,10136.0,9356.0,6507.0,6031.0,2510.0,248.0,38.0
4.00778341293335,4268.0,11480.0,9652.0,5274.0,5372.0,1445.0,1537.0,28.0
4.009516716003418,4682.0,9560.0,5421.0,3402.0,3560.0,2533.0,712.0,853.0
4.011250019073486,2276.0,7510.0,3060.0,4557.0,3203.0,17.0,97.0,459.0
4.012983322143555,3792.0,5353.0,5512.0,4486.0,4319.0,1408.0,469.0,64.0
4.014716625213623,655.0,5944.0,6389.0,2487.0,2267.0,49.0,77.0,60.0
4.0164666175842285,3154.0,3640.0,5156.0,5846.0,1716.0,11.0,58.0,59.0
4.01818323135376,3652.0,5758.0,3890.0,1800.0,2331.0,666.0,38.0,19.0
4.019916534423828,933.0,6214.0,3147.0,1798.0,2137.0,443.0,25.0,31.0
4.021683216094971,3489.0,3904.0,65.0,4192.0,1404.0,235.0,51.0,33.0
4.023416519165039,3788.0,6735.0,4588.0,4132.0,1486.0,27.0,33.0,17.0
4.025149822235107,4902.0,32.0,3214.0,4071.0,1570.0,49.0,16.0,39.0
4.026883125305176,1801.0,2688.0,1643.0,1692.0,1653.0,44.0,33.0,24.0
4.028616428375244,681.0,1395.0,2104.0,17.0,1578.0,196.0,49.0,55.0
4.030350208282471,2334.0,3262.0,1572.0,1695.0,12.0,116.0,43.0,0.0
4.032083511352539,515.0,1104.0,29.0,1742.0,530.0,36.0,37.0,50.0
4.033816814422607,1484.0,2484.0,1480.0,1933.0,14.0,20.0,12.0,10.0
4.035550117492676,1374.0,19.0,527.0,1061.0,5.0,18.0,9.0,15.0
4.037283420562744,16.0,417.0,1269.0,10.0,390.0,16.0,7.0,20.0
4.039083480834961,281.0,672.0,1561.0,266.0,25.0,15.0,16.0,36.0
4.040816783905029,8.0,508.0,699.0,1318.0,16.0,15.0,16.0,25.0
4.042550086975098,13.0,344.0,1104.0,397.0,22.0,18.0,17.0,15.0
4.044283390045166,25.0,590.0,1835.0,131.0,11.0,20.0,13.0,14.0
4.046016693115234,73.0,835.0,21.0,10.0,0.0,24.0,10.0,14.0
4.047749996185303,122.0,888.0,35.0,702.0,26.0,20.0,9.0,9.0
4.049499988555908,75.0,735.0,10.0,591.0,25.0,15.0,8.0,5.0
4.0512166023254395,28.0,30.0,14.0,47.0,24.0,17.0,7.0,21.0
4.052949905395508,28.0,670.0,18.0,0.0,37.0,12.0,6.0,16.0
4.054683208465576,11.0,57.0,46.0,24.0,168.0,8.0,10.0,12.0
4.056449890136719,32.0,15.0,41.0,36.0,90.0,31.0,14.0,14.0
4.058183193206787,30.0,384.0,27.0,36.0,13.0,24.0,0.0,17.0
4.0599164962768555,10.0,10.0,16.0,59.0,11.0,18.0,2.0,5.0
4.061649799346924,39.0,15.0,102.0,53.0,44.0,11.0,5.0,22.0
4.063383102416992,43.0,20.0,61.0,46.0,18.0,5.0,13.0,31.0
4.065116882324219,22.0,5.0,20.0,7.0,43.0,17.0,29.0,28.0
4.066850185394287,0.0,51.0,0.0,6.0,26.0,32.0,33.0,25.0
4.0685834884643555,16.0,31.0,22.0,5.0,8.0,25.0,10.0,5.0
4.070316791534424,13.0,11.0,28.0,5.0,24.0,29.0,46.0,21.0
4.072116851806641,10.0,29.0,30.0,20.0,35.0,20.0,42.0,42.0
4.073850154876709,10.0,48.0,32.0,24.0,31.0,28.0,29.0,29.0
4.075583457946777,28.0,41.0,42.0,10.0,26.0,36.0,17.0,23.0
4.077316761016846,47.0,34.0,32.0,10.0,13.0,29.0,27.0,27.0
4.079050064086914,37.0,27.0,23.0,37.0,20.0,33.0,5.0,0.0
4.080783367156982,32.0,5.0,23.0,46.0,22.0,17.0,20.0,29.0
4.082516670227051,27.0,2.0,34.0,55.0,16.0,35.0,35.0,15.0
4.084249973297119,24.0,0.0,13.0,21.0,10.0,23.0,0.0,11.0
4.0859832763671875,22.0,5.0,6.0,37.0,7.0,12.0,18.0,14.0
4.087716579437256,39.0,10.0,16.0,59.0,5.0,35.0,23.0,17.0
4.089516639709473,5.0,23.0,48.0,35.0,8.0,33.0,28.0,40.0
4.091249942779541,33.0,37.0,26.0,43.0,11.0,21.0,29.0,44.0
4.092983245849609,42.0,31.0,5.0,51.0,15.0,21.0,5.0,30.0
4.094716548919678,48.0,26.0,27.0,18.0,19.0,22.0,10.0,21.0
4.096449851989746,29.0,10.0,8.0,19.0,18.0,13.0,16.0,24.0
4.0981831550598145,31.0,13.0,30.0,22.0,17.0,12.0,21.0,12.0
4.099916458129883,33.0,16.0,7.0,31.0,15.0,0.0,26.0,26.0
4.101650238037109,10.0,15.0,12.0,5.0,12.0,11.0,20.0,19.0
4.103383541107178,23.0,27.0,12.0,34.0,11.0,0.0,15.0,22.0
4.105116844177246,20.0,26.0,13.0,64.0,18.0,29.0,24.0,20.0
4.106916904449463,26.0,26.0,10.0,46.0,5.0,39.0,5.0,19.0
4.108650207519531,26.0,26.0,8.0,27.0,36.0,50.0,13.0,30.0
4.1103835105896,25.0,35.0,10.0,55.0,27.0,39.0,21.0,41.0
4.112116813659668,12.0,5.0,13.0,6.0,31.0,26.0,19.0,5.0
4.113850116729736,0.0,47.0,6.0,26.0,36.0,10.0,17.0,16.0
4.115583419799805,34.0,10.0,0.0,24.0,10.0,40.0,5.0,28.0
4.117316722869873,0.0,22.0,5.0,36.0,66.0,42.0,25.0,31.0
4.119050025939941,11.0,50.0,21.0,20.0,46.0,25.0,9.0,22.0
4.12078332901001,0.0,34.0,29.0,5.0,26.0,36.0,20.0,5.0
4.122516632080078,0.0,29.0,37.0,7.0,24.0,17.0,23.0,12.0
4.124316692352295,13.0,25.0,22.0,10.0,24.0,8.0,24.0,9.0
4.126049995422363,21.0,46.0,7.0,16.0,38.0,27.0,13.0,6.0
4.127783298492432,31.0,10.0,37.0,23.0,26.0,10.0,68.0,17.0
4.1295166015625,30.0,21.0,32.0,35.0,15.0,18.0,145.0,9.0
4.131249904632568,29.0,5.0,29.0,28.0,0.0,27.0,146.0,0.0
4.132983207702637,23.0,73.0,26.0,26.0,28.0,18.0,25.0,9.0
4.134716510772705,28.0,56.0,34.0,24.0,31.0,19.0,23.0,24.0
4.136449813842773,33.0,40.0,13.0,36.0,40.0,6.0,9.0,24.0
4.138183116912842,10.0,25.0,23.0,24.0,22.0,13.0,7.0,19.0
4.139983177185059,10.0,14.0,41.0,13.0,11.0,12.0,5.0,25.0
4.141716480255127,12.0,10.0,32.0,38.0,43.0,12.0,5.0,31.0
4.143449783325195,7.0,19.0,9.0,10.0,37.0,17.0,6.0,20.0
4.145183563232422,10.0,27.0,6.0,7.0,48.0,23.0,13.0,10.0
4.14691686630249,10.0,42.0,20.0,23.0,1116.0,20.0,20.0,15.0
4.148650169372559,10.0,31.0,16.0,9.0,1263.0,10.0,28.0,10.0
4.150400161743164,47.0,21.0,12.0,14.0,40.0,32.0,21.0,16.0
4.152116775512695,42.0,28.0,12.0,20.0,52.0,48.0,15.0,22.0
4.153850078582764,32.0,34.0,12.0,15.0,22.0,55.0,12.0,21.0
4.155600070953369,43.0,41.0,22.0,11.0,5.0,45.0,14.0,20.0
4.157350063323975,22.0,5.0,32.0,13.0,13.0,24.0,16.0,11.0
4.15910005569458,23.0,45.0,29.0,15.0,19.0,13.0,17.0,7.0
4.160833358764648,21.0,5.0,42.0,56.0,14.0,24.0,19.0,18.0
4.16254997253418,50.0,24.0,35.0,56.0,9.0,10.0,21.0,16.0
4.164299964904785,30.0,43.0,28.0,23.0,21.0,18.0,25.0,27.0
4.1660332679748535,10.0,29.0,15.0,33.0,19.0,26.0,24.0,20.0
4.167749881744385,15.0,17.0,6.0,49.0,17.0,13.0,23.0,24.0
4.16949987411499,27.0,5.0,6.0,7.0,23.0,0.0,0.0,24.0
4.171233177185059,6.0,20.0,0.0,62.0,29.0,20.0,11.0,24.0
4.172966480255127,5.0,35.0,16.0,31.0,32.0,37.0,24.0,15.0
4.1747331619262695,5.0,57.0,11.0,6.0,42.0,51.0,12.0,5.0
4.176466464996338,24.0,62.0,5.0,20.0,50.0,14.0,10.0,25.0
4.178199768066406,44.0,14.0,6.0,10.0,44.0,49.0,24.0,32.0
4.179933547973633,40.0,20.0,3.0,0.0,15.0,35.0,23.0,44.0
4.181666851043701,26.0,10.0,0.0,5.0,8.0,24.0,22.0,39.0
4.1834001541137695,42.0,5.0,34.0,10.0,46.0,5.0,34.0,34.0
4.185133457183838,10.0,0.0,31.0,18.0,22.0,25.0,10.0,43.0
4.186866760253906,24.0,15.0,28.0,26.0,10.0,35.0,33.0,22.0
4.188600063323975,31.0,10.0,15.0,34.0,34.0,32.0,50.0,19.0
4.19035005569458,11.0,11.0,21.0,27.0,15.0,29.0,6.0,10.0
4.192083358764648,19.0,21.0,28.0,21.0,21.0,20.0,11.0,15.0
4.193816661834717,8.0,31.0,40.0,20.0,28.0,5.0,20.0,20.0
4.195549964904785,5.0,19.0,43.0,14.0,24.0,13.0,39.0,16.0
4.1972832679748535,22.0,7.0,28.0,9.0,27.0,10.0,31.0,41.0
