,275.1099853515625,276.1099853515625,277.1099853515625,278.1099853515625,279.1099853515625
1.9010833501815796,12.0,33.0,10.0,7.0,32.0
1.902166724205017,18.0,8.0,29.0,5.0,36.0
1.903249979019165,0.0,22.0,21.0,25.0,977.0
1.9043333530426025,14.0,31.0,0.0,16.0,85.0
1.9054166078567505,29.0,32.0,12.0,17.0,20.0
1.906499981880188,15.0,34.0,13.0,15.0,10.0
1.9075833559036255,42.0,23.0,5.0,21.0,33.0
1.9086666107177734,43.0,13.0,8.0,27.0,24.0
1.909749984741211,5.0,16.0,11.0,22.0,16.0
1.9108333587646484,16.0,19.0,8.0,18.0,11.0
1.9119166135787964,5.0,14.0,5.0,38.0,0.0
1.9129999876022339,25.0,10.0,31.0,37.0,16.0
1.9140833616256714,25.0,18.0,34.0,16.0,21.0
1.9151666164398193,23.0,19.0,22.0,18.0,6.0
1.9162499904632568,21.0,20.0,10.0,5.0,5.0
1.9174000024795532,41.0,16.0,5.0,27.0,5.0
1.9184833765029907,0.0,12.0,5.0,49.0,14.0
1.9195666313171387,7.0,31.0,18.0,47.0,17.0
1.9206500053405762,33.0,27.0,16.0,12.0,20.0
1.9217333793640137,13.0,23.0,24.0,26.0,18.0
1.9228166341781616,0.0,19.0,19.0,41.0,16.0
1.9239000082015991,7.0,16.0,13.0,34.0,12.0
1.9249833822250366,14.0,13.0,26.0,11.0,32.0
1.9260666370391846,20.0,32.0,24.0,5.0,37.0
1.927150011062622,26.0,38.0,0.0,31.0,39.0
1.9282333850860596,48.0,38.0,26.0,15.0,42.0
1.9293166399002075,31.0,31.0,25.0,33.0,45.0
1.930400013923645,14.0,24.0,21.0,10.0,25.0
1.9314833879470825,5.0,36.0,36.0,34.0,5.0
1.9325666427612305,41.0,0.0,23.0,35.0,0.0
1.933650016784668,5.0,11.0,11.0,9.0,0.0
1.9347833395004272,7.0,11.0,0.0,23.0,49.0
1.9358667135238647,10.0,11.0,25.0,7.0,25.0
1.9369499683380127,16.0,12.0,0.0,14.0,0.0
1.9380333423614502,23.0,18.0,23.0,21.0,51.0
1.9391167163848877,0.0,25.0,289.0,24.0,0.0
1.9401999711990356,33.0,15.0,150.0,28.0,5.0
1.9412833452224731,44.0,5.0,11.0,19.0,11.0
1.9423667192459106,28.0,31.0,19.0,11.0,55.0
1.9434499740600586,36.0,12.0,28.0,17.0,37.0
1.944533348083496,42.0,22.0,32.0,20.0,20.0
1.9456167221069336,13.0,0.0,9.0,24.0,20.0
1.9466999769210815,0.0,18.0,38.0,23.0,25.0
1.947783350944519,11.0,36.0,11.0,23.0,13.0
1.9488667249679565,13.0,42.0,8.0,16.0,6.0
1.9499499797821045,16.0,11.0,11.0,5.0,12.0
1.9510833024978638,0.0,0.0,15.0,22.0,22.0
1.9521833658218384,0.0,14.0,13.0,0.0,36.0
1.9532666206359863,0.0,11.0,12.0,5.0,32.0
1.9543499946594238,5.0,8.0,14.0,0.0,11.0
1.9554333686828613,2.0,27.0,16.0,26.0,21.0
1.9565166234970093,0.0,19.0,16.0,31.0,27.0
1.9575999975204468,7.0,12.0,17.0,5.0,34.0
1.9586833715438843,15.0,20.0,7.0,27.0,10.0
1.9597666263580322,16.0,23.0,15.0,17.0,35.0
1.9608500003814697,18.0,17.0,7.0,18.0,32.0
1.9619333744049072,17.0,11.0,0.0,20.0,30.0
1.9630166292190552,16.0,13.0,17.0,16.0,23.0
1.9641000032424927,10.0,0.0,16.0,12.0,23.0
1.9651833772659302,14.0,10.0,18.0,23.0,18.0
1.9662666320800781,18.0,492.0,13.0,14.0,13.0
1.9673500061035156,14.0,515.0,11.0,5.0,27.0
1.968483328819275,11.0,98.0,13.0,5.0,19.0
1.9695667028427124,0.0,561.0,15.0,20.0,11.0
1.9706499576568604,0.0,12.0,23.0,17.0,12.0
1.9717333316802979,11.0,52.0,19.0,15.0,44.0
1.9728167057037354,0.0,400.0,14.0,10.0,77.0
1.9738999605178833,4.0,5.0,0.0,5.0,97.0
1.975000023841858,8.0,5.0,17.0,18.0,7.0
1.9760667085647583,44.0,18.0,20.0,19.0,11.0
1.9771499633789062,48.0,25.0,24.0,20.0,22.0
1.9782333374023438,256.0,33.0,21.0,5.0,5.0
1.9793167114257812,140.0,21.0,32.0,15.0,19.0
1.9803999662399292,25.0,7.0,25.0,22.0,9.0
1.9814833402633667,19.0,39.0,17.0,29.0,0.0
1.9825667142868042,13.0,31.0,13.0,17.0,0.0
1.9836499691009521,5.0,23.0,24.0,5.0,0.0
1.9847333431243896,8.0,12.0,35.0,15.0,22.0
1.985883355140686,39.0,22.0,29.0,7.0,31.0
1.986966609954834,43.0,31.0,41.0,0.0,26.0
1.9880499839782715,5.0,34.0,31.0,13.0,22.0
1.989133358001709,33.0,6.0,22.0,26.0,43.0
1.990216612815857,29.0,0.0,29.0,18.0,39.0
1.9912999868392944,35.0,24.0,29.0,11.0,35.0
1.992383360862732,30.0,0.0,34.0,5.0,17.0
1.9934666156768799,26.0,0.0,27.0,0.0,5.0
1.9945499897003174,23.0,0.0,21.0,0.0,34.0
1.9956333637237549,11.0,29.0,18.0,0.0,22.0
1.9967166185379028,0.0,32.0,10.0,51.0,12.0
1.9977999925613403,14.0,16.0,16.0,48.0,12.0
1.9988833665847778,18.0,0.0,22.0,45.0,25.0
1.9999666213989258,14.0,24.0,16.0,26.0,0.0
2.0010499954223633,10.0,14.0,10.0,8.0,0.0
2.002183437347412,36.0,5.0,10.0,11.0,10.0
2.0032665729522705,29.0,16.0,11.0,11.0,21.0
2.004349946975708,22.0,10.0,14.0,15.0,36.0
2.0054500102996826,25.0,5.0,17.0,20.0,39.0
2.006516695022583,15.0,5.0,13.0,19.0,37.0
2.0076000690460205,5.0,17.0,10.0,0.0,35.0
2.008683443069458,8.0,36.0,15.0,22.0,33.0
2.0097665786743164,11.0,46.0,12.0,31.0,23.0
2.010849952697754,5.0,29.0,11.0,0.0,31.0
2.0119333267211914,0.0,19.0,23.0,10.0,22.0
2.013016700744629,17.0,24.0,35.0,31.0,34.0
2.0141000747680664,16.0,23.0,30.0,10.0,10.0
2.015183448791504,10.0,0.0,25.0,10.0,5.0
2.0162665843963623,5.0,23.0,36.0,17.0,12.0
2.0173499584198,20.0,21.0,41.0,17.0,6.0
2.0184333324432373,36.0,19.0,43.0,19.0,0.0
2.019583225250244,53.0,65.0,37.0,17.0,18.0
2.0206665992736816,38.0,35.0,32.0,15.0,15.0
2.021749973297119,49.0,5.0,21.0,29.0,23.0
2.0228333473205566,35.0,9.0,14.0,21.0,19.0
2.023916721343994,38.0,36.0,7.0,13.0,5.0
2.0250000953674316,21.0,32.0,24.0,5.0,47.0
2.02608323097229,36.0,29.0,20.0,10.0,53.0
2.0271666049957275,0.0,0.0,26.0,15.0,18.0
2.028249979019165,33.0,20.0,26.0,7.0,19.0
2.0293333530426025,46.0,28.0,26.0,9.0,15.0
2.03041672706604,19.0,7.0,13.0,10.0,20.0
2.0315001010894775,15.0,34.0,598.0,5.0,15.0
2.032583236694336,12.0,16.0,361.0,37.0,10.0
2.0336666107177734,9.0,28.0,123.0,38.0,20.0
2.034749984741211,32.0,14.0,0.0,37.0,24.0
2.0358667373657227,71.0,0.0,38.0,22.0,28.0
2.0369832515716553,49.0,12.0,10.0,5.0,23.0
2.0380666255950928,27.0,6.0,21.0,26.0,0.0
2.0391499996185303,7.0,0.0,5.0,5.0,24.0
2.0402333736419678,0.0,257.0,14.0,5.0,33.0
2.0413167476654053,13.0,131.0,32.0,42.0,0.0
2.0423998832702637,18.0,5.0,24.0,28.0,16.0
2.043483257293701,16.0,40.0,16.0,38.0,21.0
2.0445666313171387,0.0,21.0,32.0,7.0,30.0
2.045650005340576,24.0,24.0,21.0,48.0,39.0
2.0467333793640137,31.0,28.0,34.0,30.0,28.0
2.047816753387451,37.0,29.0,16.0,13.0,18.0
2.0488998889923096,30.0,14.0,27.0,35.0,47.0
2.049983263015747,20.0,0.0,0.0,0.0,33.0
2.0510666370391846,5.0,210.0,181.0,0.0,20.0
2.052150011062622,26.0,112.0,101.0,18.0,40.0
2.053283214569092,23.0,14.0,21.0,51.0,31.0
2.0543665885925293,12.0,13.0,27.0,38.0,5.0
2.055449962615967,20.0,33.0,12.0,40.0,5.0
2.0565333366394043,25.0,7.0,44.0,42.0,11.0
2.057616710662842,30.0,10.0,38.0,20.0,18.0
2.0587000846862793,25.0,10.0,7.0,15.0,14.0
2.059799909591675,37.0,11.0,18.0,42.0,8.0
2.060866594314575,6.0,14.0,14.0,13.0,21.0
2.0619499683380127,16.0,17.0,9.0,9.0,35.0
2.06303334236145,27.0,835.0,5.0,23.0,25.0
2.0641167163848877,5.0,687.0,20.0,11.0,16.0
2.065200090408325,8.0,26.0,18.0,23.0,20.0
2.0662832260131836,12.0,983.0,26.0,12.0,10.0
2.067383289337158,17.0,14.0,18.0,13.0,12.0
2.0684499740600586,23.0,34.0,20.0,14.0,15.0
2.069533348083496,26.0,12.0,38.0,13.0,21.0
2.070683240890503,30.0,317.0,376.0,20.0,20.0
2.0717666149139404,31.0,164.0,714.0,16.0,19.0
2.072849988937378,33.0,10.0,771.0,13.0,21.0
2.0739333629608154,22.0,21.0,828.0,36.0,10.0
2.075016736984253,32.0,10.0,1055.0,38.0,5.0
2.0761001110076904,53.0,665.0,1281.0,37.0,0.0
2.077183246612549,31.0,356.0,1766.0,36.0,10.0
2.0782666206359863,9.0,48.0,1680.0,0.0,15.0
2.079349994659424,34.0,1141.0,1595.0,537.0,21.0
2.0804333686828613,13.0,2235.0,2404.0,933.0,1118.0
2.081516742706299,42.0,2413.0,3214.0,913.0,2836.0
2.0826001167297363,21.0,4744.0,4030.0,904.0,2570.0
2.0836832523345947,0.0,6818.0,6486.0,780.0,2697.0
2.0847666263580322,21.0,8844.0,8940.0,657.0,3850.0
2.0858500003814697,35.0,12540.0,10648.0,1002.0,5004.0
2.0869998931884766,0.0,20572.0,17680.0,2387.0,11852.0
2.088083267211914,23.0,33760.0,29624.0,3938.0,12412.0
2.0891666412353516,9.0,28924.0,29344.0,4423.0,14392.0
2.090250015258789,308.0,41776.0,33472.0,4907.0,21636.0
2.0913333892822266,172.0,49024.0,61280.0,11296.0,29156.0
2.092416763305664,36.0,67200.0,62624.0,13176.0,30392.0
2.0934998989105225,5.0,75696.0,93232.0,13012.0,50480.0
2.09458327293396,345.0,108144.0,101200.0,14300.0,47952.0
2.0956666469573975,289.0,139072.0,133504.0,16828.0,59712.0
2.096750020980835,167.0,163392.0,168832.0,19356.0,73872.0
2.0978333950042725,46.0,210304.0,179392.0,22392.0,103568.0
2.09891676902771,25.0,234624.0,256704.0,32832.0,101232.0
2.0999999046325684,18.0,296064.0,257728.0,44720.0,144256.0
2.101083278656006,11.0,344704.0,290816.0,47568.0,161344.0
2.1021666526794434,105.0,391232.0,395200.0,59504.0,170432.0
2.103250026702881,64.0,434368.0,387200.0,67632.0,200384.0
2.1043999195098877,23.0,512000.0,442816.0,61728.0,241280.0
2.105466604232788,58.0,559616.0,529664.0,93248.0,255808.0
2.1065666675567627,611.0,659200.0,559360.0,101600.0,298048.0
2.1076500415802,329.0,707840.0,654336.0,101056.0,289408.0
2.1087167263031006,48.0,763904.0,768512.0,109216.0,340288.0
2.109800100326538,81.0,876032.0,768000.0,109456.0,373248.0
2.1108832359313965,432.0,920320.0,835328.0,109696.0,408896.0
2.111966609954834,280.0,954624.0,897792.0,123232.0,384320.0
2.1130499839782715,127.0,1019648.0,978176.0,150848.0,441920.0
2.114133358001709,95.0,1037056.0,996608.0,159360.0,485376.0
2.1152334213256836,615.0,1184512.0,1094912.0,150656.0,481792.0
2.116300106048584,701.0,1245440.0,1160704.0,142016.0,511296.0
2.1173832416534424,419.0,1256448.0,1153280.0,174464.0,533248.0
2.11846661567688,115.0,1289472.0,1270272.0,186368.0,534016.0
2.1195499897003174,109.0,1390592.0,1323264.0,205824.0,549888.0
2.120683431625366,98.0,1456896.0,1289984.0,189376.0,559104.0
2.1217832565307617,87.0,1494784.0,1337088.0,185920.0,568064.0
2.122866630554199,162.0,1476352.0,1384192.0,182464.0,625664.0
2.1239500045776367,160.0,1577728.0,1407488.0,204992.0,617472.0
2.125033378601074,220.0,1579264.0,1473536.0,216832.0,609280.0
2.1261167526245117,239.0,1580800.0,1454848.0,231168.0,663296.0
2.12719988822937,175.0,1733376.0,1557504.0,239744.0,658176.0
2.1282832622528076,189.0,1756160.0,1609728.0,241408.0,683776.0
2.129366636276245,203.0,1701888.0,1650688.0,236800.0,684032.0
2.1304500102996826,243.0,1640960.0,1483520.0,225408.0,684288.0
2.13153338432312,226.0,1794560.0,1590272.0,230656.0,661504.0
2.1326167583465576,175.0,1689856.0,1588224.0,233600.0,763392.0
2.133699893951416,137.0,1899008.0,1648128.0,236544.0,764672.0
2.1347832679748535,180.0,1794304.0,1660928.0,249344.0,672256.0
2.135866641998291,224.0,1774592.0,1714176.0,264704.0,749824.0
2.1369500160217285,820.0,1863936.0,1680128.0,258432.0,705792.0
2.1380999088287354,872.0,1836288.0,1668608.0,261248.0,761088.0
2.139183282852173,925.0,1808896.0,1644032.0,269568.0,742400.0
2.1402666568756104,823.0,1825024.0,1684224.0,263936.0,734976.0
2.141350030899048,183.0,1891840.0,1687552.0,258368.0,739328.0
2.1424334049224854,188.0,1882624.0,1690880.0,213184.0,743936.0
2.143516778945923,142.0,1869824.0,1714176.0,260864.0,717824.0
2.1445999145507812,163.0,1849600.0,1709312.0,231680.0,753664.0
2.1456832885742188,134.0,1829376.0,1704704.0,261184.0,715776.0
2.1467666625976562,222.0,1786880.0,1652736.0,233472.0,740608.0
2.1478500366210938,685.0,1898752.0,1782272.0,257792.0,694272.0
2.1489334106445312,734.0,2015488.0,1824000.0,260544.0,747264.0
2.1500167846679688,335.0,1981952.0,1757184.0,263040.0,756224.0
2.151099920272827,239.0,1973504.0,1754880.0,258176.0,749312.0
2.1521832942962646,177.0,1989632.0,1803520.0,253248.0,759808.0
2.153266668319702,295.0,2013184.0,1748992.0,256128.0,759808.0
2.1543500423431396,207.0,1853696.0,1739520.0,256704.0,759808.0
2.1554832458496094,229.0,1833984.0,1719552.0,257280.0,763648.0
2.156566619873047,189.0,1929216.0,1673216.0,260288.0,767488.0
2.1576499938964844,353.0,2002944.0,1716480.0,261568.0,779008.0
2.158733367919922,542.0,2030080.0,1760000.0,262784.0,764928.0
2.1598167419433594,383.0,2029312.0,1753088.0,261568.0,750592.0
2.160916566848755,223.0,1988864.0,1746176.0,284672.0,766464.0
2.1619832515716553,246.0,2028288.0,1755136.0,285376.0,782336.0
2.1630666255950928,389.0,2010880.0,1754112.0,242176.0,777472.0
2.1641499996185303,201.0,1888000.0,1753088.0,248384.0,800256.0
2.1652333736419678,307.0,2082048.0,1771520.0,253312.0,807424.0
2.1663167476654053,424.0,2010624.0,1790208.0,283136.0,786176.0
2.1673998832702637,474.0,1936640.0,1724416.0,274496.0,764928.0
2.168483257293701,525.0,2007040.0,1735680.0,258304.0,753664.0
2.1695666313171387,943.0,1944576.0,1746944.0,253312.0,773888.0
2.170650005340576,1175.0,1992704.0,1720320.0,272640.0,794112.0
2.171799898147583,176.0,1986304.0,1693696.0,255680.0,796160.0
2.1728832721710205,242.0,2000128.0,1859072.0,260032.0,765184.0
2.173966646194458,285.0,2013952.0,1828608.0,264448.0,791552.0
2.1750500202178955,254.0,2012672.0,1926400.0,263040.0,768256.0
2.176133394241333,257.0,2011648.0,1806592.0,261632.0,744704.0
2.1772167682647705,611.0,2011392.0,1758976.0,270400.0,768768.0
2.178299903869629,724.0,2001920.0,1901568.0,271168.0,756480.0
2.1793832778930664,888.0,2032384.0,1835264.0,272000.0,821760.0
2.180466651916504,221.0,2065152.0,1830144.0,281600.0,832256.0
2.1815500259399414,390.0,2089472.0,1802240.0,281152.0,862208.0
2.182633399963379,586.0,2045696.0,1774336.0,290048.0,843264.0
2.1837167739868164,286.0,2102272.0,1835776.0,299520.0,844032.0
2.184799909591675,241.0,2030336.0,1735936.0,254272.0,780032.0
2.1858832836151123,257.0,1948160.0,1876992.0,280832.0,826368.0
2.18696665763855,273.0,2075904.0,1850624.0,275008.0,719360.0
2.1880500316619873,224.0,1974784.0,1783040.0,288320.0,754176.0
2.189199924468994,271.0,2046720.0,1946880.0,283904.0,779264.0
2.1902832984924316,365.0,2015744.0,1725696.0,279488.0,774656.0
2.191366672515869,301.0,1921792.0,1812480.0,253184.0,784896.0
2.1924500465393066,237.0,1946368.0,1834752.0,288704.0,785920.0
2.193533420562744,540.0,1971200.0,1812992.0,260480.0,786688.0
2.1946165561676025,399.0,1955584.0,1755904.0,294720.0,766720.0
2.19569993019104,257.0,1940224.0,1698560.0,269824.0,793344.0
2.1967833042144775,276.0,1936384.0,1726720.0,281792.0,779264.0
2.197866678237915,368.0,1932288.0,1754624.0,276864.0,743424.0
2.1989500522613525,644.0,1953792.0,1733120.0,268032.0,756480.0
2.20003342628479,530.0,1975296.0,1711360.0,268992.0,769536.0
2.2011165618896484,417.0,1976064.0,1751296.0,229952.0,773888.0
2.202199935913086,378.0,1908736.0,1809152.0,256320.0,736256.0
2.2032833099365234,340.0,1891072.0,1615616.0,243072.0,698880.0
2.204366683959961,905.0,1808128.0,1703168.0,268352.0,701952.0
2.2054834365844727,1056.0,1787392.0,1692160.0,264256.0,719616.0
2.206583261489868,215.0,1805824.0,1601024.0,258944.0,692736.0
2.2076666355133057,294.0,1753344.0,1581824.0,253632.0,719104.0
2.2087666988372803,1337.0,1788672.0,1586944.0,232576.0,720128.0
2.2098333835601807,1345.0,1824000.0,1633024.0,245376.0,682240.0
2.210916757583618,1854.0,1728512.0,1608192.0,253376.0,715264.0
2.2120165824890137,141.0,1662208.0,1583616.0,230912.0,697600.0
2.213083267211914,957.0,1783296.0,1520640.0,239616.0,659712.0
2.2141666412353516,240.0,1702144.0,1537024.0,222016.0,670464.0
2.215250015258789,216.0,1728256.0,1543424.0,237440.0,649984.0
2.2163333892822266,391.0,1676800.0,1440512.0,235712.0,612096.0
2.217416763305664,617.0,1632256.0,1485824.0,241344.0,658432.0
2.2184998989105225,964.0,1675008.0,1494528.0,204352.0,607232.0
2.21958327293396,963.0,1654784.0,1460736.0,232960.0,622336.0
2.2206666469573975,222.0,1562624.0,1357056.0,209408.0,636672.0
2.221766710281372,243.0,1602560.0,1441024.0,201792.0,630784.0
2.222899913787842,244.0,1531648.0,1404416.0,207232.0,578048.0
2.2239832878112793,227.0,1537536.0,1297152.0,205504.0,603904.0
2.225066661834717,210.0,1544704.0,1389312.0,203840.0,566016.0
2.2261500358581543,206.0,1496320.0,1301760.0,206400.0,575744.0
2.227233409881592,234.0,1491712.0,1303296.0,199872.0,558080.0
2.2283167839050293,261.0,1417728.0,1237504.0,180416.0,555776.0
2.2293999195098877,169.0,1455872.0,1256704.0,179392.0,513024.0
2.230483293533325,246.0,1407232.0,1294080.0,179968.0,552448.0
2.2315666675567627,323.0,1284608.0,1204480.0,176704.0,529408.0
2.2326500415802,846.0,1392384.0,1188096.0,173440.0,549120.0
2.2337334156036377,545.0,1351936.0,1164544.0,160704.0,554496.0
2.234816551208496,244.0,1349376.0,1162240.0,168896.0,493568.0
2.2358999252319336,204.0,1348608.0,1159936.0,169280.0,498432.0
2.236983299255371,171.0,1194496.0,1186816.0,171840.0,478464.0
2.2380666732788086,272.0,1324288.0,1101056.0,174400.0,500864.0
2.239150047302246,166.0,1260800.0,1125376.0,167808.0,467328.0
2.240299940109253,208.0,1285888.0,1180416.0,161280.0,465600.0
2.2413833141326904,250.0,1209600.0,1110528.0,175296.0,488320.0
2.242466688156128,159.0,1176064.0,1088768.0,174912.0,472192.0
2.2435500621795654,193.0,1095680.0,1017600.0,181824.0,477952.0
2.244633436203003,211.0,1172480.0,1111040.0,162944.0,431104.0
2.2457165718078613,229.0,1122304.0,1039104.0,156288.0,456512.0
2.246799945831299,248.0,1121280.0,1041152.0,146368.0,434944.0
2.2478833198547363,267.0,1120256.0,998144.0,135424.0,422720.0
2.248966693878174,145.0,1037056.0,995328.0,139776.0,467072.0
2.2500500679016113,152.0,1139456.0,1003008.0,147520.0,391360.0
2.251133441925049,212.0,1066240.0,1001984.0,148608.0,423680.0
2.2522165775299072,142.0,1007104.0,928000.0,108448.0,388928.0
2.2532999515533447,202.0,1003008.0,974592.0,123664.0,427712.0
2.2543833255767822,186.0,982528.0,869888.0,116448.0,369024.0
2.2554666996002197,112.0,906752.0,849152.0,135360.0,357248.0
2.2566165924072266,226.0,909312.0,877312.0,133248.0,381952.0
2.257699966430664,215.0,927744.0,840192.0,135936.0,341248.0
2.2587833404541016,205.0,921088.0,753152.0,123184.0,356992.0
2.259866714477539,131.0,935680.0,834560.0,115824.0,334528.0
2.2609500885009766,147.0,814848.0,798464.0,113600.0,305792.0
2.262033224105835,155.0,782592.0,693248.0,104272.0,316672.0
2.2631165981292725,137.0,814080.0,765440.0,117824.0,324288.0
2.26419997215271,126.0,803840.0,711936.0,129072.0,293312.0
2.2652833461761475,116.0,765440.0,705792.0,95488.0,293888.0
2.266366720199585,133.0,733184.0,674048.0,95120.0,272832.0
2.2674500942230225,151.0,685824.0,651520.0,106768.0,272192.0
2.268533229827881,190.0,650752.0,587008.0,88144.0,252288.0
2.2696166038513184,170.0,631808.0,553728.0,91296.0,226048.0
2.270699977874756,150.0,583680.0,544000.0,84336.0,241088.0
2.2717833518981934,155.0,590336.0,528640.0,83696.0,216576.0
2.272866725921631,160.0,623360.0,484608.0,69328.0,217856.0
2.2740166187286377,105.0,546816.0,463168.0,70880.0,206016.0
2.275099992752075,135.0,456192.0,439232.0,60064.0,175488.0
2.2761833667755127,90.0,493952.0,404096.0,59968.0,160256.0
2.27726674079895,45.0,417792.0,388416.0,66064.0,158592.0
2.2783501148223877,172.0,393280.0,369472.0,54992.0,172160.0
2.279433250427246,299.0,367808.0,351616.0,42160.0,134272.0
2.2805166244506836,197.0,375616.0,314176.0,48560.0,136960.0
2.281599998474121,95.0,341824.0,299904.0,35808.0,116432.0
2.2826833724975586,70.0,313088.0,259584.0,45200.0,126624.0
2.283766746520996,95.0,263872.0,254976.0,34240.0,108480.0
2.2848498821258545,34.0,249280.0,230016.0,27928.0,94848.0
2.285933256149292,86.0,226752.0,231744.0,39152.0,75648.0
2.2870166301727295,37.0,225856.0,200576.0,40944.0,82752.0
2.288100004196167,43.0,197760.0,180928.0,29452.0,72144.0
2.2891833782196045,49.0,177216.0,160576.0,18144.0,69984.0
2.290316581726074,58.0,142592.0,139648.0,23404.0,54208.0
2.291416645050049,70.0,131392.0,137856.0,23572.0,66176.0
2.2925000190734863,59.0,103840.0,128176.0,14600.0,39232.0
2.293583393096924,48.0,109072.0,103136.0,11364.0,38464.0
2.2946667671203613,60.0,89840.0,90464.0,16996.0,39088.0
2.2957499027252197,58.0,84832.0,70960.0,16784.0,27908.0
2.2968332767486572,48.0,90928.0,78928.0,9352.0,27132.0
2.2979166507720947,51.0,59600.0,57680.0,5752.0,22752.0
2.2990000247955322,55.0,59504.0,61088.0,11352.0,22184.0
2.3000833988189697,86.0,60112.0,64016.0,5417.0,24396.0
2.3011667728424072,79.0,42928.0,49088.0,3676.0,15852.0
2.3022499084472656,63.0,51024.0,52896.0,3564.0,21140.0
2.303333282470703,47.0,47760.0,42672.0,4331.0,13884.0
2.3044166564941406,72.0,33872.0,31920.0,3892.0,15536.0
2.305500030517578,46.0,32976.0,25328.0,3453.0,10048.0
2.3065834045410156,70.0,33840.0,28536.0,4032.0,10288.0
2.3077332973480225,53.0,26972.0,19804.0,1625.0,9640.0
2.30881667137146,114.0,23296.0,18712.0,3129.0,9900.0
2.3099000453948975,82.0,17768.0,20064.0,4633.0,10160.0
2.310983419418335,51.0,24096.0,18276.0,3726.0,8002.0
2.3120665550231934,74.0,20868.0,16484.0,2358.0,9312.0
2.313149929046631,51.0,17272.0,14024.0,1593.0,8736.0
2.3142333030700684,81.0,22156.0,13684.0,2067.0,4081.0
2.315316677093506,126.0,21388.0,14076.0,2712.0,8083.0
2.3164000511169434,107.0,13680.0,13752.0,2102.0,1193.0
2.317483425140381,59.0,21624.0,13428.0,1349.0,2781.0
2.3185665607452393,53.0,12504.0,14956.0,1150.0,6220.0
2.3196499347686768,35.0,18044.0,16448.0,950.0,5576.0
2.3207333087921143,59.0,13916.0,16096.0,1299.0,8005.0
2.3218166828155518,86.0,10968.0,15744.0,1148.0,3303.0
2.3229000568389893,75.0,12492.0,9976.0,938.0,2011.0
2.3239834308624268,22.0,11364.0,8740.0,728.0,5439.0
2.3251166343688965,19.0,11328.0,9860.0,608.0,4684.0
2.326200008392334,27.0,11392.0,8984.0,1048.0,761.0
2.3273000717163086,35.0,8868.0,8111.0,99.0,4160.0
2.328366756439209,35.0,9644.0,4905.0,1712.0,1536.0
2.3294498920440674,35.0,10420.0,13184.0,1327.0,4575.0
2.330533266067505,36.0,5458.0,11880.0,1527.0,3819.0
2.3316166400909424,37.0,12632.0,7197.0,1887.0,3389.0
2.33270001411438,22.0,5543.0,9008.0,1758.0,1443.0
2.3337833881378174,8.0,8111.0,3501.0,1630.0,1362.0
2.334866762161255,83.0,7790.0,3261.0,671.0,1442.0
2.3359498977661133,64.0,5425.0,3021.0,906.0,1522.0
2.337033271789551,34.0,8740.0,3534.0,454.0,4547.0
2.3381166458129883,17.0,5926.0,4046.0,48.0,5274.0
2.339200019836426,42.0,7255.0,3402.0,10.0,1682.0
2.3402833938598633,67.0,8744.0,2758.0,1939.0,2806.0
2.341399908065796,65.0,4401.0,5585.0,2490.0,2654.0
2.3424832820892334,52.0,5293.0,4594.0,2047.0,2504.0
2.343566656112671,28.0,6485.0,3604.0,11.0,2355.0
2.3446500301361084,68.0,7839.0,3661.0,1720.0,1132.0
2.345733404159546,50.0,8848.0,3087.0,923.0,1366.0
2.3468167781829834,32.0,5154.0,2699.0,310.0,1248.0
2.347899913787842,61.0,7760.0,2311.0,43.0,1131.0
2.3489832878112793,30.0,4673.0,4575.0,296.0,1895.0
2.350066661834717,31.0,3882.0,3696.0,236.0,2128.0
2.3511500358581543,30.0,3091.0,2818.0,70.0,2361.0
2.352233409881592,49.0,3902.0,5019.0,831.0,2154.0
2.3533167839050293,68.0,4712.0,3023.0,1063.0,1948.0
2.3543999195098877,67.0,5121.0,3648.0,10.0,1614.0
2.355483293533325,16.0,1545.0,1130.0,38.0,1281.0
2.3565666675567627,54.0,5566.0,2019.0,970.0,1677.0
2.3576500415802,36.0,1493.0,2784.0,71.0,755.0
2.358799934387207,18.0,5272.0,3635.0,609.0,1145.0
2.3598833084106445,13.0,3061.0,7063.0,707.0,1535.0
2.360966682434082,69.0,7296.0,8288.0,44.0,1415.0
2.3620500564575195,63.0,6344.0,3144.0,39.0,1295.0
2.363133430480957,76.0,3473.0,2370.0,41.0,1360.0
2.3642165660858154,42.0,7068.0,2574.0,394.0,1625.0
2.365299940109253,26.0,2296.0,2249.0,222.0,1524.0
2.3663833141326904,25.0,2655.0,2338.0,50.0,1423.0
2.367466688156128,40.0,3181.0,2426.0,52.0,729.0
2.3685500621795654,26.0,3503.0,4475.0,13.0,35.0
2.369633436203003,13.0,2825.0,4077.0,825.0,96.0
2.3707165718078613,48.0,3576.0,4101.0,875.0,42.0
2.371799945831299,35.0,3995.0,2182.0,42.0,44.0
2.3728833198547363,10.0,3102.0,3550.0,1052.0,596.0
2.373966693878174,25.0,2208.0,3515.0,303.0,520.0
2.3751165866851807,26.0,2586.0,3921.0,1282.0,1239.0
2.376199960708618,27.0,2378.0,2974.0,785.0,1120.0
2.3772833347320557,32.0,2571.0,2679.0,454.0,1002.0
2.378366708755493,29.0,2764.0,3684.0,382.0,806.0
2.3794500827789307,26.0,4121.0,2434.0,799.0,1040.0
2.380533218383789,30.0,4714.0,3824.0,643.0,35.0
2.3816165924072266,48.0,5543.0,1702.0,337.0,160.0
2.382699966430664,47.0,2329.0,2750.0,32.0,758.0
2.3837833404541016,40.0,4202.0,3558.0,451.0,395.0
2.384866714477539,33.0,2163.0,2708.0,871.0,32.0
2.3859500885009766,39.0,2454.0,2564.0,1090.0,424.0
2.387033224105835,53.0,2744.0,2419.0,1414.0,815.0
2.3881165981292725,64.0,2295.0,1694.0,1745.0,551.0
2.38919997215271,76.0,1847.0,969.0,65.0,868.0
2.3902833461761475,16.0,1371.0,1688.0,18.0,1039.0
2.391366720199585,53.0,1622.0,2407.0,11.0,1209.0
2.3924999237060547,26.0,1872.0,2718.0,778.0,1788.0
2.393583297729492,46.0,1382.0,2194.0,763.0,2728.0
2.3946666717529297,38.0,2680.0,2894.0,748.0,2227.0
2.395750045776367,18.0,3843.0,1221.0,521.0,993.0
2.3968334197998047,0.0,4656.0,1330.0,5.0,1371.0
2.397916555404663,23.0,2204.0,3111.0,337.0,46.0
2.3989999294281006,36.0,1298.0,3882.0,61.0,1114.0
2.400083303451538,31.0,1381.0,3949.0,62.0,385.0
2.4011666774749756,27.0,2514.0,5003.0,62.0,34.0
2.402250051498413,19.0,2372.0,3711.0,45.0,1606.0
2.4033334255218506,17.0,2231.0,2420.0,28.0,810.0
2.404416561126709,15.0,1637.0,1267.0,45.0,15.0
2.4054999351501465,10.0,1742.0,2820.0,341.0,1397.0
2.406583309173584,6.0,2822.0,2672.0,638.0,2753.0
2.4076666831970215,14.0,3903.0,2524.0,493.0,3189.0
2.408783435821533,23.0,3406.0,3645.0,811.0,463.0
2.4098665714263916,30.0,3451.0,3675.0,756.0,1550.0
2.410949945449829,37.0,3495.0,3706.0,35.0,602.0
2.4120333194732666,52.0,35.0,1924.0,23.0,880.0
2.413116693496704,55.0,3824.0,482.0,383.0,549.0
2.4142000675201416,35.0,2168.0,3786.0,24.0,2360.0
2.415283441543579,48.0,2694.0,2478.0,150.0,2162.0
2.4163665771484375,5.0,3220.0,542.0,100.0,82.0
2.417449951171875,61.0,5583.0,1300.0,50.0,1605.0
2.4185333251953125,0.0,4780.0,3151.0,53.0,5.0
2.41961669921875,42.0,2572.0,3295.0,36.0,63.0
2.4207000732421875,75.0,3189.0,2600.0,20.0,710.0
2.421783447265625,17.0,3633.0,1882.0,31.0,41.0
2.4228665828704834,24.0,5708.0,652.0,24.0,1599.0
2.423949956893921,90.0,5661.0,1220.0,19.0,1318.0
2.4250333309173584,48.0,1202.0,1789.0,15.0,1779.0
2.4261832237243652,35.0,6278.0,2586.0,43.0,414.0
2.4272665977478027,22.0,6042.0,2328.0,31.0,667.0
2.4283499717712402,38.0,5606.0,5551.0,19.0,1179.0
2.4294333457946777,40.0,1878.0,4719.0,29.0,989.0
2.4305167198181152,47.0,4784.0,5236.0,39.0,30.0
2.4316000938415527,13.0,1946.0,2819.0,33.0,858.0
2.432683229446411,28.0,2474.0,5553.0,28.0,1687.0
2.4337666034698486,12.0,5992.0,2723.0,32.0,1556.0
2.434849977493286,14.0,626.0,4681.0,36.0,76.0
2.4359333515167236,17.0,1887.0,5379.0,33.0,1434.0
2.437016725540161,20.0,2098.0,3540.0,31.0,1500.0
2.4381000995635986,23.0,2045.0,3322.0,26.0,1085.0
2.439183235168457,21.0,1992.0,3104.0,21.0,1066.0
2.4402666091918945,10.0,2466.0,3058.0,1315.0,2025.0
2.441349983215332,36.0,998.0,3011.0,1482.0,5.0
2.442483425140381,30.0,2910.0,3147.0,1064.0,560.0
2.4435832500457764,25.0,2245.0,3283.0,26.0,1114.0
2.444666624069214,17.0,1581.0,1960.0,41.0,1105.0
2.4457499980926514,10.0,3330.0,4338.0,49.0,1095.0
2.446833372116089,51.0,3698.0,3631.0,34.0,13.0
2.4479167461395264,40.0,1180.0,4458.0,27.0,54.0
2.4489998817443848,31.0,4499.0,2758.0,37.0,1415.0
2.4500832557678223,12.0,1724.0,4223.0,48.0,1323.0
2.4511666297912598,14.0,527.0,2600.0,51.0,1180.0
2.4522500038146973,5.0,1550.0,2842.0,55.0,1037.0
2.4533333778381348,17.0,1637.0,3060.0,83.0,561.0
2.4544167518615723,29.0,1723.0,3278.0,367.0,1331.0
2.4554998874664307,53.0,1452.0,1675.0,210.0,1526.0
2.456583261489868,39.0,388.0,3323.0,54.0,1721.0
2.4576666355133057,33.0,2982.0,3909.0,125.0,2163.0
2.458750009536743,30.0,5646.0,2088.0,197.0,2282.0
2.45989990234375,28.0,4730.0,2521.0,78.0,2146.0
2.4609832763671875,60.0,3204.0,2953.0,1068.0,24.0
2.462066650390625,61.0,3843.0,749.0,544.0,1820.0
2.4631500244140625,94.0,3944.0,4138.0,21.0,695.0
2.4642333984375,5.0,4044.0,3130.0,37.0,2360.0
2.4653167724609375,10.0,2692.0,2399.0,333.0,1086.0
2.466399908065796,23.0,3473.0,3690.0,629.0,1723.0
2.4674832820892334,18.0,2081.0,4089.0,794.0,1868.0
2.468566656112671,14.0,5839.0,3113.0,780.0,2014.0
2.4696500301361084,10.0,4992.0,2138.0,710.0,1429.0
2.470733404159546,19.0,4144.0,1248.0,38.0,845.0
2.4718167781829834,15.0,1300.0,2687.0,33.0,879.0
2.472899913787842,10.0,1201.0,3198.0,28.0,1388.0
2.4739832878112793,25.0,1103.0,4539.0,1240.0,1265.0
2.475066661834717,47.0,2535.0,3443.0,1280.0,1142.0
2.4761500358581543,38.0,3966.0,3235.0,673.0,1696.0
2.477283239364624,38.0,4664.0,4655.0,66.0,1211.0
2.4783666133880615,28.0,996.0,2233.0,45.0,725.0
2.479466676712036,25.0,3242.0,5751.0,30.0,592.0
2.4805333614349365,23.0,3582.0,4788.0,15.0,459.0
2.481616735458374,30.0,5161.0,2151.0,328.0,30.0
2.4827001094818115,37.0,4965.0,5798.0,187.0,1450.0
2.48378324508667,46.0,5117.0,79.0,46.0,1494.0
2.4848666191101074,38.0,4872.0,4704.0,1437.0,1538.0
2.485949993133545,30.0,4627.0,8440.0,1496.0,1236.0
2.4870333671569824,0.0,3437.0,3428.0,44.0,2259.0
2.48811674118042,8.0,2937.0,3356.0,781.0,2371.0
2.4892001152038574,38.0,2801.0,4691.0,930.0,2483.0
2.490283250808716,24.0,2665.0,2083.0,531.0,1582.0
2.4913666248321533,10.0,2467.0,4464.0,132.0,2984.0
2.492449998855591,19.0,2778.0,3288.0,367.0,2991.0
2.4935998916625977,10.0,2919.0,4074.0,602.0,2621.0
2.494683265686035,32.0,3060.0,4860.0,304.0,822.0
2.4957666397094727,25.0,3205.0,1052.0,6.0,2647.0
2.49685001373291,19.0,3603.0,5423.0,17.0,2499.0
2.4979333877563477,17.0,2591.0,3300.0,974.0,2412.0
2.499016761779785,92.0,1580.0,2139.0,1206.0,3122.0
