,303.1099853515625,304.1099853515625,305.1099853515625,306.1099853515625,307.1099853515625,308.1099853515625
0.5012999773025513,6.0,7.0,8.0,20.0,0.0,24.0
0.5026000142097473,11.0,15.0,10.0,43.0,39.0,26.0
0.5038999915122986,67.0,25.0,12.0,35.0,58.0,59.0
0.5052000284194946,36.0,15.0,19.0,27.0,25.0,32.0
0.5065000057220459,24.0,5.0,20.0,10.0,28.0,7.0
0.5077999830245972,30.0,20.0,20.0,35.0,0.0,26.0
0.5091000199317932,10.0,6.0,47.0,20.0,58.0,22.0
0.5103999972343445,5.0,6.0,39.0,30.0,39.0,18.0
0.5116999745368958,15.0,27.0,31.0,33.0,10.0,45.0
0.5130000114440918,15.0,29.0,18.0,11.0,30.0,36.0
0.5142999887466431,15.0,30.0,10.0,5.0,17.0,27.0
0.5156000256538391,8.0,8.0,15.0,39.0,33.0,39.0
0.5169000029563904,21.0,6.0,11.0,18.0,27.0,40.0
0.5182666778564453,17.0,14.0,16.0,32.0,22.0,42.0
0.5195666551589966,12.0,25.0,27.0,42.0,17.0,15.0
0.5208666920661926,6.0,25.0,24.0,20.0,9.0,11.0
0.5221666693687439,0.0,24.0,0.0,22.0,0.0,5.0
0.5234666466712952,20.0,12.0,28.0,0.0,7.0,30.0
0.5247666835784912,16.0,23.0,25.0,11.0,8.0,24.0
0.5260666608810425,6.0,20.0,19.0,21.0,0.0,18.0
0.5273666381835938,15.0,28.0,12.0,30.0,0.0,23.0
0.5286666750907898,0.0,24.0,5.0,30.0,12.0,14.0
0.5299666523933411,27.0,6.0,12.0,17.0,9.0,20.0
0.5312666893005371,25.0,25.0,22.0,14.0,5.0,25.0
0.5325666666030884,23.0,5.0,21.0,10.0,13.0,6.0
0.5338666439056396,12.0,27.0,20.0,18.0,17.0,5.0
0.5352166891098022,15.0,22.0,16.0,5.0,9.0,33.0
0.5365166664123535,18.0,47.0,11.0,14.0,0.0,15.0
0.5378166437149048,10.0,50.0,5.0,23.0,7.0,5.0
0.5391166806221008,13.0,5.0,17.0,25.0,13.0,6.0
0.5404166579246521,16.0,21.0,8.0,22.0,12.0,15.0
0.5417166948318481,8.0,5.0,0.0,5.0,11.0,14.0
0.5430166721343994,0.0,9.0,0.0,46.0,20.0,14.0
0.5443166494369507,22.0,12.0,6.0,59.0,13.0,13.0
0.5456166863441467,0.0,10.0,11.0,21.0,5.0,7.0
0.546916663646698,21.0,5.0,11.0,40.0,11.0,13.0
0.5482166409492493,0.0,0.0,11.0,15.0,16.0,18.0
0.5495333075523376,28.0,25.0,11.0,22.0,20.0,16.0
0.5508166551589966,18.0,30.0,11.0,62.0,23.0,11.0
0.5521833300590515,10.0,35.0,24.0,60.0,9.0,11.0
0.5534833073616028,5.0,15.0,21.0,0.0,11.0,10.0
0.5547833442687988,5.0,27.0,18.0,10.0,12.0,13.0
0.5560833215713501,5.0,14.0,34.0,19.0,12.0,44.0
0.5573833584785461,5.0,0.0,33.0,17.0,5.0,39.0
0.5586833357810974,12.0,5.0,6.0,25.0,7.0,26.0
0.5599833130836487,16.0,31.0,43.0,24.0,17.0,18.0
0.5612833499908447,25.0,21.0,0.0,12.0,26.0,48.0
0.562583327293396,36.0,11.0,5.0,15.0,32.0,35.0
0.5638833045959473,30.0,13.0,13.0,18.0,38.0,55.0
0.5651833415031433,23.0,22.0,7.0,5.0,6.0,10.0
0.5664833188056946,55.0,11.0,0.0,6.0,52.0,23.0
0.5677833557128906,42.0,0.0,6.0,16.0,5.0,0.0
0.5691333413124084,28.0,34.0,12.0,12.0,50.0,15.0
0.5704333186149597,18.0,52.0,23.0,13.0,18.0,20.0
0.5717333555221558,11.0,71.0,12.0,14.0,5.0,25.0
0.573033332824707,28.0,30.0,0.0,24.0,5.0,29.0
0.5743333101272583,29.0,44.0,17.0,0.0,7.0,5.0
0.5756333470344543,30.0,24.0,0.0,15.0,18.0,29.0
0.5769333243370056,20.0,50.0,19.0,0.0,31.0,8.0
0.5782333612442017,13.0,7.0,10.0,18.0,32.0,7.0
0.5795333385467529,5.0,54.0,8.0,12.0,33.0,17.0
0.5808333158493042,30.0,0.0,5.0,23.0,41.0,26.0
0.5821333527565002,35.0,5.0,12.0,23.0,45.0,19.0
0.5834333300590515,13.0,10.0,19.0,23.0,0.0,11.0
0.5847333073616028,16.0,19.0,20.0,6.0,44.0,8.0
0.5860999822616577,0.0,28.0,20.0,0.0,12.0,5.0
0.5874000191688538,7.0,26.0,0.0,26.0,38.0,15.0
0.588699996471405,11.0,16.0,5.0,11.0,0.0,0.0
0.5899999737739563,14.0,0.0,10.0,0.0,0.0,6.0
0.5913000106811523,20.0,6.0,5.0,6.0,5.0,12.0
0.5925999879837036,26.0,25.0,0.0,11.0,17.0,31.0
0.5939000248908997,0.0,16.0,16.0,13.0,20.0,38.0
0.5952000021934509,37.0,7.0,20.0,15.0,36.0,28.0
0.5964999794960022,21.0,5.0,24.0,16.0,34.0,28.0
0.5978000164031982,26.0,9.0,12.0,17.0,31.0,24.0
0.5990999937057495,16.0,13.0,0.0,26.0,5.0,17.0
0.6003999710083008,23.0,28.0,15.0,16.0,5.0,12.0
0.6017000079154968,21.0,35.0,11.0,5.0,33.0,11.0
0.6030499935150146,10.0,17.0,33.0,39.0,26.0,19.0
0.6043499708175659,21.0,0.0,31.0,28.0,30.0,16.0
0.605650007724762,10.0,14.0,10.0,5.0,10.0,13.0
0.6069499850273132,24.0,27.0,6.0,14.0,10.0,12.0
0.6082500219345093,27.0,18.0,17.0,13.0,9.0,11.0
0.6095499992370605,30.0,8.0,0.0,12.0,21.0,22.0
0.6108499765396118,0.0,15.0,3.0,18.0,27.0,0.0
0.6121666431427002,25.0,15.0,5.0,24.0,76.0,8.0
0.6134499907493591,22.0,19.0,6.0,0.0,84.0,15.0
0.6147500276565552,18.0,17.0,11.0,23.0,18.0,25.0
0.6160500049591064,984.0,16.0,15.0,17.0,8.0,19.0
0.6173499822616577,782.0,0.0,24.0,17.0,11.0,22.0
0.6186500191688538,10.0,18.0,17.0,17.0,6.0,25.0
0.6200166940689087,13.0,21.0,10.0,0.0,12.0,11.0
0.62131667137146,5.0,15.0,5.0,28.0,6.0,29.0
0.6226166486740112,0.0,21.0,5.0,7.0,0.0,0.0
0.6239166855812073,8.0,21.0,5.0,11.0,10.0,28.0
0.6252166628837585,13.0,20.0,11.0,0.0,8.0,27.0
0.6265166401863098,17.0,23.0,9.0,36.0,6.0,25.0
0.6278166770935059,27.0,29.0,6.0,47.0,11.0,22.0
0.6291166543960571,43.0,28.0,9.0,5.0,16.0,19.0
0.6304166913032532,38.0,27.0,5.0,15.0,19.0,11.0
0.6317166686058044,26.0,31.0,0.0,17.0,21.0,7.0
0.6330166459083557,15.0,34.0,29.0,11.0,11.0,24.0
0.6343166828155518,37.0,39.0,38.0,16.0,10.0,0.0
0.635616660118103,28.0,0.0,32.0,20.0,10.0,18.0
0.6369666457176208,12.0,15.0,18.0,22.0,10.0,23.0
0.6382666826248169,46.0,16.0,10.0,16.0,12.0,28.0
0.6395666599273682,21.0,15.0,5.0,10.0,12.0,6.0
0.6408666372299194,36.0,10.0,0.0,5.0,16.0,17.0
0.6421666741371155,27.0,10.0,12.0,11.0,18.0,7.0
0.6434666514396667,19.0,10.0,24.0,13.0,20.0,25.0
0.6447666883468628,25.0,12.0,53.0,13.0,24.0,27.0
0.6460666656494141,15.0,15.0,66.0,13.0,23.0,29.0
0.6473666429519653,5.0,22.0,21.0,6.0,26.0,0.0
0.6486666798591614,17.0,19.0,20.0,18.0,28.0,11.0
0.6499666571617126,29.0,16.0,20.0,22.0,27.0,21.0
0.6512666940689087,18.0,0.0,12.0,21.0,10.0,11.0
0.65256667137146,7.0,3.0,14.0,10.0,66.0,42.0
0.6539333462715149,40.0,5.0,16.0,7.0,33.0,40.0
0.6552333235740662,22.0,10.0,11.0,8.0,0.0,26.0
0.6565333604812622,24.0,19.0,5.0,8.0,16.0,11.0
0.6578333377838135,25.0,39.0,5.0,7.0,15.0,10.0
0.6591333150863647,30.0,48.0,5.0,6.0,22.0,29.0
0.6604333519935608,24.0,30.0,8.0,5.0,5.0,24.0
0.6617333292961121,18.0,24.0,11.0,10.0,10.0,26.0
0.6630333065986633,13.0,0.0,14.0,11.0,14.0,17.0
0.6643333435058594,16.0,12.0,32.0,11.0,10.0,0.0
0.6656333208084106,18.0,28.0,34.0,17.0,9.0,0.0
0.6669333577156067,18.0,35.0,14.0,22.0,7.0,0.0
0.668233335018158,18.0,5.0,23.0,0.0,22.0,5.0
0.6695333123207092,17.0,18.0,46.0,21.0,24.0,3.0
0.6708999872207642,16.0,0.0,33.0,32.0,12.0,0.0
0.6722000241279602,15.0,5.0,27.0,24.0,0.0,9.0
0.6735000014305115,17.0,6.0,18.0,6.0,40.0,18.0
0.6747999787330627,19.0,0.0,8.0,3.0,31.0,12.0
0.6761000156402588,0.0,37.0,19.0,0.0,13.0,5.0
0.6773999929428101,10.0,18.0,23.0,16.0,22.0,24.0
0.6786999702453613,21.0,0.0,21.0,23.0,30.0,16.0
0.6800000071525574,33.0,35.0,19.0,22.0,30.0,0.0
0.6812999844551086,28.0,16.0,5.0,20.0,30.0,10.0
0.6826000213623047,31.0,11.0,27.0,17.0,16.0,15.0
0.683899998664856,15.0,17.0,36.0,44.0,6.0,8.0
0.6851999759674072,0.0,19.0,17.0,53.0,12.0,0.0
0.6865000128746033,16.0,7.0,11.0,28.0,5.0,23.0
0.6878499984741211,24.0,33.0,17.0,18.0,26.0,38.0
0.6891499757766724,16.0,37.0,28.0,24.0,36.0,27.0
0.6904500126838684,10.0,14.0,39.0,23.0,40.0,0.0
0.6917499899864197,32.0,34.0,19.0,22.0,23.0,11.0
0.6930500268936157,0.0,23.0,0.0,30.0,16.0,28.0
0.694350004196167,16.0,13.0,53.0,6.0,37.0,5.0
0.6956666707992554,5.0,12.0,18.0,44.0,0.0,0.0
0.6969500184059143,14.0,10.0,10.0,26.0,6.0,20.0
0.6982499957084656,13.0,14.0,27.0,16.0,11.0,33.0
0.6995499730110168,12.0,18.0,20.0,19.0,43.0,46.0
0.7008500099182129,19.0,21.0,14.0,5.0,46.0,28.0
0.7021499872207642,17.0,40.0,25.0,10.0,17.0,13.0
0.7034500241279602,15.0,41.0,28.0,15.0,16.0,26.0
0.7048166394233704,13.0,13.0,30.0,13.0,22.0,16.0
0.7061166763305664,10.0,16.0,23.0,11.0,14.0,10.0
0.7074166536331177,45.0,21.0,17.0,19.0,5.0,11.0
0.7087166905403137,53.0,29.0,10.0,20.0,8.0,11.0
0.710016667842865,28.0,0.0,13.0,28.0,10.0,22.0
0.7113166451454163,16.0,0.0,0.0,36.0,10.0,28.0
0.7126166820526123,9.0,11.0,32.0,0.0,10.0,0.0
0.7139166593551636,12.0,5.0,63.0,23.0,8.0,21.0
0.7152166962623596,15.0,0.0,38.0,0.0,5.0,36.0
0.7165166735649109,17.0,10.0,13.0,5.0,56.0,5.0
0.7178166508674622,16.0,5.0,13.0,10.0,30.0,33.0
0.7191166877746582,21.0,0.0,13.0,8.0,5.0,20.0
0.7204166650772095,26.0,14.0,9.0,5.0,0.0,10.0
0.7217666506767273,0.0,10.0,5.0,38.0,3.0,6.0
0.7230666875839233,28.0,5.0,3.0,36.0,6.0,15.0
0.7243666648864746,19.0,9.0,0.0,21.0,0.0,10.0
0.7256666421890259,0.0,13.0,27.0,5.0,13.0,5.0
0.7269666790962219,0.0,15.0,33.0,24.0,11.0,24.0
0.7282666563987732,7.0,16.0,23.0,23.0,9.0,23.0
0.7295666933059692,14.0,17.0,18.0,22.0,19.0,22.0
0.7308666706085205,13.0,17.0,13.0,0.0,15.0,14.0
0.7321666479110718,11.0,7.0,7.0,36.0,10.0,6.0
0.7334666848182678,0.0,23.0,0.0,5.0,5.0,15.0
0.7347666621208191,25.0,22.0,12.0,7.0,3.0,15.0
0.7360666394233704,20.0,21.0,15.0,10.0,0.0,15.0
0.7373666763305664,15.0,40.0,19.0,9.0,5.0,23.0
0.7387333512306213,8.0,25.0,21.0,40.0,10.0,23.0
0.7400333285331726,0.0,10.0,21.0,33.0,8.0,23.0
0.7413333058357239,0.0,21.0,22.0,45.0,5.0,22.0
0.7426333427429199,5.0,18.0,38.0,15.0,23.0,6.0
0.7439333200454712,8.0,29.0,45.0,16.0,14.0,19.0
0.7452333569526672,11.0,37.0,43.0,7.0,5.0,32.0
0.7465333342552185,10.0,6.0,5.0,21.0,30.0,33.0
0.7478333115577698,5.0,5.0,47.0,0.0,28.0,5.0
0.7491333484649658,40.0,11.0,40.0,14.0,25.0,35.0
0.7504333257675171,52.0,11.0,40.0,0.0,24.0,22.0
0.7517333626747131,19.0,10.0,12.0,8.0,22.0,10.0
0.7530333399772644,5.0,13.0,17.0,15.0,16.0,24.0
0.7543333172798157,15.0,16.0,45.0,27.0,10.0,5.0
0.7556833624839783,23.0,14.0,8.0,26.0,5.0,17.0
0.7569833397865295,26.0,17.0,10.0,25.0,8.0,7.0
0.7582833170890808,29.0,19.0,40.0,5.0,10.0,5.0
0.7595833539962769,11.0,10.0,10.0,10.0,12.0,8.0
0.7608833312988281,31.0,24.0,5.0,0.0,28.0,10.0
0.7621833086013794,29.0,24.0,0.0,48.0,29.0,5.0
0.7634833455085754,26.0,23.0,4.0,39.0,33.0,0.0
0.7647833228111267,40.0,21.0,7.0,43.0,31.0,5.0
0.7660833597183228,16.0,18.0,11.0,37.0,17.0,7.0
0.767383337020874,13.0,28.0,14.0,15.0,18.0,8.0
0.7686833143234253,22.0,21.0,11.0,27.0,20.0,4.0
0.7699833512306213,15.0,13.0,8.0,16.0,5.0,0.0
0.7712833285331726,15.0,5.0,31.0,54.0,17.0,12.0
0.7726500034332275,14.0,9.0,29.0,55.0,22.0,7.0
0.7739499807357788,5.0,0.0,26.0,56.0,25.0,0.0
0.7752500176429749,21.0,5.0,28.0,11.0,27.0,7.0
0.7765499949455261,13.0,46.0,0.0,29.0,11.0,4.0
0.7778499722480774,5.0,42.0,19.0,29.0,0.0,0.0
0.7791500091552734,17.0,10.0,19.0,42.0,50.0,18.0
0.7804499864578247,13.0,26.0,19.0,40.0,39.0,25.0
0.7817500233650208,28.0,8.0,23.0,38.0,44.0,22.0
0.783050000667572,29.0,27.0,26.0,18.0,57.0,20.0
0.7843499779701233,30.0,23.0,0.0,17.0,19.0,18.0
0.7856500148773193,30.0,18.0,41.0,13.0,24.0,14.0
0.7869499921798706,19.0,511.0,456.0,40.0,454.0,18.0
0.7882500290870667,8.0,3203.0,1235.0,976.0,465.0,15.0
0.7896000146865845,27.0,17188.0,3911.0,4180.0,4607.0,2064.0
0.7908999919891357,11.0,28728.0,31400.0,14720.0,6617.0,2247.0
0.7922000288963318,25.0,60944.0,61856.0,28112.0,20336.0,10052.0
0.7935000061988831,10.0,111600.0,95984.0,51920.0,41216.0,17392.0
0.7947999835014343,21.0,144640.0,146944.0,92096.0,78672.0,20696.0
0.7961000204086304,32.0,225344.0,220480.0,122400.0,90144.0,19076.0
0.7973999977111816,29.0,271360.0,246976.0,169472.0,99248.0,30728.0
0.7986999750137329,26.0,340800.0,312064.0,180992.0,116208.0,32200.0
0.800000011920929,21.0,369280.0,319232.0,202112.0,126800.0,33664.0
0.8012999892234802,15.0,378816.0,350272.0,190592.0,121392.0,36368.0
0.8026000261306763,35.0,384128.0,344640.0,174528.0,129904.0,40000.0
0.8039000034332275,58.0,380864.0,377216.0,204224.0,130560.0,38464.0
0.8051999807357788,51.0,377536.0,356032.0,171840.0,136384.0,39120.0
0.8065666556358337,33.0,380992.0,334848.0,180992.0,121200.0,39760.0
0.8078666925430298,47.0,344256.0,338816.0,208832.0,137344.0,42992.0
0.809166669845581,42.0,382848.0,342784.0,208576.0,133312.0,46224.0
0.8104666471481323,20.0,305600.0,342400.0,182976.0,133184.0,34544.0
0.8117666840553284,24.0,355072.0,346432.0,196160.0,130288.0,36352.0
0.8130666613578796,28.0,366976.0,359808.0,187712.0,135744.0,40224.0
0.8143666386604309,89.0,346176.0,301248.0,185792.0,133120.0,39360.0
0.815666675567627,107.0,323584.0,309376.0,187456.0,130496.0,25980.0
0.8169666528701782,85.0,317440.0,317248.0,172672.0,131968.0,32420.0
0.8182666897773743,64.0,284288.0,315904.0,173760.0,113744.0,36384.0
0.8195666670799255,33.0,285120.0,294528.0,166976.0,116640.0,37248.0
0.8208666443824768,33.0,304960.0,280448.0,160064.0,109200.0,29376.0
0.8221666812896729,47.0,238464.0,253184.0,146688.0,87744.0,23692.0
0.8235333561897278,30.0,231488.0,246784.0,143680.0,93024.0,35088.0
0.824833333492279,20.0,187840.0,217792.0,107376.0,90624.0,25300.0
0.8261333107948303,10.0,197056.0,199872.0,98752.0,69088.0,21048.0
0.8274333477020264,23.0,197696.0,189120.0,93792.0,62304.0,17880.0
0.8287333250045776,36.0,158592.0,151680.0,95200.0,59504.0,18756.0
0.8300333619117737,44.0,147392.0,140800.0,78736.0,41872.0,9384.0
0.831333339214325,45.0,107392.0,133760.0,57344.0,32108.0,10120.0
0.8326333165168762,24.0,102848.0,105824.0,63664.0,38832.0,5147.0
0.8339333534240723,38.0,80400.0,73584.0,44736.0,29388.0,7368.0
0.8352333307266235,28.0,54800.0,71120.0,37872.0,23048.0,5223.0
0.8365333080291748,40.0,47968.0,50928.0,24144.0,18584.0,4853.0
0.8378333449363708,51.0,42960.0,48528.0,17312.0,11852.0,3175.0
0.8391333222389221,60.0,40192.0,41712.0,17064.0,16464.0,645.0
0.8404833078384399,10.0,23372.0,34240.0,18440.0,13820.0,2006.0
0.841783344745636,31.0,28620.0,25752.0,8041.0,9420.0,2559.0
0.8430833220481873,23.0,18856.0,23212.0,7125.0,5311.0,2220.0
0.8443833589553833,29.0,13280.0,16620.0,9908.0,7771.0,1719.0
0.8456833362579346,35.0,17724.0,17688.0,12028.0,6840.0,3487.0
0.8469833135604858,0.0,19280.0,15336.0,2391.0,7239.0,3672.0
0.8482833504676819,7.0,11124.0,7638.0,9084.0,2450.0,810.0
0.8495833277702332,20.0,14128.0,8336.0,4905.0,4585.0,915.0
0.8508833050727844,16.0,14424.0,13776.0,4065.0,3025.0,1654.0
0.8521833419799805,16.0,5110.0,7734.0,3743.0,5238.0,732.0
0.8534833192825317,16.0,10116.0,7201.0,3590.0,1322.0,56.0
0.8547833561897278,35.0,10808.0,11616.0,3547.0,3055.0,1038.0
0.856083333492279,31.0,13900.0,8572.0,2016.0,18.0,546.0
0.857450008392334,5.0,12520.0,8392.0,485.0,2202.0,1390.0
0.8587499856948853,31.0,11920.0,5968.0,4565.0,3152.0,425.0
0.8600500226020813,15.0,3352.0,9248.0,5792.0,3643.0,5.0
0.8613499999046326,30.0,8178.0,6012.0,1620.0,1735.0,43.0
0.8626499772071838,41.0,10464.0,4019.0,7271.0,761.0,706.0
0.8639500141143799,19.0,6862.0,4873.0,4438.0,3199.0,1131.0
0.8652499914169312,47.0,10900.0,2267.0,2572.0,1796.0,568.0
0.8665500283241272,23.0,4397.0,2480.0,1515.0,1683.0,5.0
0.8678500056266785,5.0,6188.0,997.0,5400.0,1571.0,936.0
0.8691499829292297,22.0,6824.0,7432.0,2141.0,10.0,26.0
0.8704500198364258,15.0,6709.0,7124.0,1715.0,1235.0,14.0
0.871749997138977,7.0,4199.0,11220.0,2224.0,1883.0,17.0
0.8730499744415283,18.0,1957.0,2377.0,2217.0,173.0,14.0
0.8744000196456909,23.0,4589.0,4363.0,1612.0,1029.0,15.0
0.8756999969482422,28.0,5443.0,2412.0,2240.0,2024.0,16.0
0.8769999742507935,25.0,2709.0,1583.0,2869.0,1355.0,26.0
0.8783000111579895,12.0,6402.0,2830.0,2909.0,2833.0,36.0
0.8795999884605408,15.0,6601.0,2468.0,2948.0,175.0,206.0
0.8809000253677368,10.0,315.0,2105.0,2133.0,2133.0,106.0
0.8822000026702881,5.0,9580.0,1877.0,1548.0,40.0,5.0
0.8834999799728394,9.0,10272.0,2712.0,2530.0,2459.0,19.0
0.8848000168800354,5.0,4142.0,2112.0,1238.0,1971.0,15.0
0.8860999941825867,0.0,6882.0,1512.0,3256.0,1056.0,10.0
0.8873999714851379,0.0,4928.0,1992.0,24.0,2204.0,15.0
0.888700008392334,12.0,6382.0,2473.0,403.0,1581.0,20.0
0.8899999856948853,24.0,6108.0,1001.0,2266.0,958.0,20.0
0.8913666605949402,20.0,5894.0,1860.0,1510.0,2614.0,18.0
0.8926666378974915,23.0,5715.0,2319.0,755.0,2267.0,14.0
0.8939666748046875,16.0,2944.0,3603.0,4105.0,1044.0,10.0
0.8952666521072388,5.0,6581.0,5765.0,3371.0,1114.0,37.0
0.8965666890144348,8.0,7659.0,5903.0,1433.0,1178.0,32.0
0.8978666663169861,12.0,6808.0,1019.0,198.0,338.0,28.0
0.8991666436195374,16.0,6337.0,2470.0,1473.0,328.0,333.0
0.9004666805267334,29.0,2959.0,1389.0,1600.0,318.0,876.0
0.9017666578292847,21.0,7929.0,1532.0,1998.0,21.0,611.0
0.9030666947364807,12.0,7398.0,1675.0,1933.0,11.0,345.0
0.904366672039032,0.0,7888.0,2214.0,1066.0,0.0,45.0
0.9056666493415833,3.0,3802.0,1908.0,6.0,21.0,36.0
0.9069666862487793,6.0,4551.0,1601.0,2219.0,11.0,5.0
0.9083166718482971,22.0,8024.0,1272.0,2588.0,0.0,33.0
0.9096166491508484,21.0,5456.0,1872.0,2959.0,304.0,42.0
0.9109166860580444,0.0,6380.0,2472.0,2347.0,155.0,56.0
0.9122166633605957,8.0,2257.0,3234.0,2294.0,6.0,28.0
0.913516640663147,15.0,4758.0,2341.0,0.0,65.0,20.0
0.914816677570343,17.0,5977.0,1448.0,825.0,268.0,26.0
0.9161166548728943,18.0,5880.0,1619.0,40.0,158.0,35.0
0.9174166917800903,16.0,5783.0,776.0,918.0,48.0,36.0
0.9187333583831787,14.0,2868.0,1470.0,1384.0,309.0,37.0
0.9200166463851929,17.0,5386.0,2164.0,1294.0,570.0,5.0
0.9213166832923889,0.0,4404.0,1650.0,1346.0,552.0,39.0
0.9226166605949402,6.0,4209.0,1136.0,1902.0,158.0,12.0
0.9239166378974915,11.0,4014.0,1589.0,2135.0,17.0,37.0
0.9252833127975464,12.0,7079.0,1722.0,1090.0,33.0,31.0
0.9265833497047424,13.0,5541.0,1981.0,920.0,54.0,24.0
0.9279000163078308,10.0,4003.0,1827.0,144.0,374.0,5.0
0.9291999936103821,8.0,4647.0,1716.0,1026.0,206.0,8.0
0.9304999709129333,27.0,8592.0,1605.0,870.0,39.0,14.0
0.9318000078201294,25.0,8332.0,1681.0,715.0,14.0,11.0
0.9330833554267883,15.0,8073.0,1757.0,784.0,248.0,9.0
0.9344000220298767,5.0,4442.0,2479.0,844.0,137.0,15.0
0.9356833100318909,11.0,5808.0,3201.0,904.0,26.0,41.0
0.9369999766349792,34.0,5319.0,196.0,142.0,55.0,36.0
0.9383000135421753,29.0,9084.0,1162.0,1038.0,38.0,30.0
0.9395999908447266,23.0,10176.0,1792.0,662.0,21.0,32.0
0.9408833384513855,0.0,3331.0,907.0,334.0,278.0,34.0
0.9422500133514404,23.0,4571.0,22.0,5.0,1036.0,26.0
0.9435499906539917,6.0,4766.0,1469.0,17.0,787.0,18.0
0.9448500275611877,5.0,5578.0,2208.0,29.0,0.0,14.0
0.946150004863739,8.0,3961.0,2939.0,1316.0,1533.0,0.0
0.9474499821662903,16.0,4278.0,1645.0,1374.0,0.0,8.0
0.9487500190734863,24.0,4594.0,767.0,29.0,1172.0,16.0
0.9500499963760376,26.0,3765.0,1409.0,1407.0,1663.0,0.0
0.9513499736785889,14.0,4197.0,1658.0,0.0,45.0,7.0
0.9526500105857849,8.0,3558.0,4365.0,240.0,822.0,14.0
0.9539499878883362,54.0,5707.0,4640.0,25.0,1214.0,10.0
0.9552500247955322,44.0,6943.0,841.0,51.0,1008.0,6.0
0.9565666913986206,73.0,6291.0,3571.0,344.0,907.0,7.0
0.9578666687011719,25.0,4629.0,188.0,672.0,1410.0,8.0
0.9592000246047974,19.0,2967.0,3074.0,506.0,306.0,23.0
0.9605000019073486,52.0,4136.0,569.0,341.0,1518.0,14.0
0.9617999792098999,46.0,2605.0,792.0,22.0,1594.0,5.0
0.9630833268165588,17.0,4292.0,2643.0,345.0,373.0,6.0
0.9643833041191101,13.0,4077.0,2924.0,669.0,2155.0,7.0
0.9656833410263062,22.0,3862.0,3037.0,345.0,1526.0,7.0
0.9669833183288574,22.0,4149.0,2138.0,21.0,334.0,6.0
0.9682833552360535,21.0,4562.0,2296.0,738.0,1138.0,0.0
0.9695833325386047,46.0,4810.0,2102.0,1270.0,121.0,22.0
0.970883309841156,40.0,5058.0,685.0,1338.0,661.0,37.0
0.972183346748352,35.0,4989.0,3127.0,966.0,11.0,45.0
0.9734833240509033,24.0,4921.0,2037.0,16.0,1593.0,11.0
0.9748333096504211,22.0,3993.0,3040.0,209.0,802.0,30.0
0.9761499762535095,28.0,373.0,1939.0,402.0,10.0,15.0
0.9774500131607056,24.0,6604.0,1333.0,212.0,61.0,0.0
0.9787499904632568,0.0,2277.0,727.0,21.0,47.0,10.0
0.9800500273704529,15.0,3983.0,1380.0,38.0,34.0,5.0
0.9813500046730042,28.0,5113.0,2033.0,1674.0,43.0,0.0
0.9826499819755554,19.0,3955.0,1640.0,858.0,52.0,0.0
0.9839500188827515,10.0,4260.0,1988.0,41.0,34.0,0.0
0.9852499961853027,17.0,4837.0,539.0,5.0,16.0,20.0
0.986549973487854,0.0,2493.0,1047.0,1178.0,1092.0,20.0
0.98785001039505,0.0,5518.0,1334.0,1212.0,1093.0,8.0
0.9891499876976013,0.0,2121.0,1621.0,19.0,5.0,20.0
0.9904500246047974,13.0,4742.0,4337.0,778.0,1247.0,11.0
0.9917833209037781,26.0,2863.0,2196.0,1537.0,711.0,31.0
0.9931166768074036,35.0,2938.0,54.0,533.0,175.0,23.0
0.9944166541099548,5.0,1933.0,3117.0,966.0,26.0,22.0
0.9957166910171509,28.0,2449.0,3361.0,1399.0,1382.0,23.0
0.9970166683197021,9.0,2966.0,2984.0,417.0,691.0,0.0
0.9983166456222534,16.0,2499.0,2413.0,986.0,0.0,14.0
0.9996166825294495,10.0,1719.0,1630.0,28.0,156.0,27.0
1.0009167194366455,8.0,611.0,2633.0,5.0,312.0,23.0
1.0022166967391968,5.0,1469.0,1033.0,1321.0,563.0,51.0
1.003516674041748,10.0,2265.0,2540.0,1938.0,814.0,59.0
1.0048166513442993,11.0,3061.0,2049.0,1386.0,412.0,24.0
1.0061166286468506,19.0,2626.0,1471.0,443.0,10.0,10.0
1.0074167251586914,18.0,2397.0,894.0,676.0,540.0,21.0
1.0087499618530273,16.0,2437.0,2056.0,909.0,27.0,20.0
1.0100666284561157,7.0,2558.0,758.0,1459.0,0.0,25.0
1.0113667249679565,23.0,2679.0,1367.0,1249.0,10.0,35.0
1.0126667022705078,39.0,1044.0,3328.0,1038.0,268.0,171.0
1.013966679573059,38.0,4002.0,2820.0,27.0,155.0,178.0
1.0152666568756104,8.0,3723.0,2235.0,1429.0,42.0,185.0
1.0165666341781616,17.0,1985.0,1980.0,1746.0,705.0,7.0
1.017866611480713,40.0,1032.0,458.0,2063.0,490.0,709.0
1.0191667079925537,0.0,4447.0,1939.0,2280.0,275.0,603.0
1.020466685295105,5.0,712.0,827.0,2015.0,0.0,17.0
1.0217666625976562,31.0,3413.0,1675.0,5.0,1387.0,321.0
1.0230666399002075,0.0,1579.0,2537.0,309.0,1666.0,30.0
1.0243666172027588,16.0,2379.0,2084.0,1281.0,1171.0,18.0
1.0256999731063843,31.0,3191.0,2864.0,1073.0,1871.0,10.0
1.0270333290100098,12.0,3546.0,2355.0,865.0,1112.0,26.0
1.028333306312561,11.0,1650.0,2217.0,828.0,1627.0,11.0
1.0296332836151123,17.0,2816.0,3684.0,1392.0,970.0,16.0
1.0309333801269531,13.0,5650.0,3676.0,18.0,313.0,20.0
1.0322333574295044,8.0,5870.0,3481.0,861.0,1267.0,19.0
1.0335333347320557,26.0,3860.0,2190.0,2161.0,924.0,28.0
1.034833312034607,29.0,3364.0,637.0,1611.0,581.0,25.0
1.0361332893371582,6.0,2432.0,3307.0,336.0,1849.0,26.0
1.037433385848999,23.0,4946.0,1566.0,993.0,939.0,26.0
1.0387333631515503,40.0,1074.0,2314.0,1650.0,28.0,19.0
1.0400333404541016,25.0,2287.0,3897.0,1642.0,28.0,19.0
1.0413333177566528,38.0,2857.0,745.0,1634.0,1199.0,18.0
1.0426666736602783,12.0,1938.0,3298.0,1654.0,905.0,787.0
1.0439833402633667,24.0,2278.0,909.0,1891.0,611.0,890.0
1.045283317565918,11.0,2630.0,2009.0,1008.0,1596.0,179.0
1.0465832948684692,0.0,2981.0,3081.0,3706.0,1670.0,18.0
1.04788339138031,24.0,4178.0,3845.0,3631.0,1754.0,479.0
1.0491833686828613,24.0,511.0,4665.0,620.0,1841.0,261.0
1.0504833459854126,21.0,2190.0,388.0,2553.0,908.0,44.0
1.0517833232879639,16.0,5039.0,2735.0,985.0,1516.0,873.0
1.0530833005905151,8.0,2679.0,2318.0,887.0,1208.0,643.0
1.0543832778930664,0.0,1712.0,1734.0,1545.0,671.0,412.0
1.0556833744049072,5.0,3546.0,3130.0,2343.0,14.0,45.0
1.0569833517074585,40.0,2670.0,2563.0,3033.0,411.0,36.0
1.0582833290100098,31.0,1794.0,2011.0,372.0,474.0,477.0
1.0596166849136353,13.0,3305.0,1837.0,1141.0,537.0,22.0
1.0609166622161865,5.0,3359.0,2510.0,2814.0,2005.0,24.0
1.0622166395187378,710.0,4446.0,2823.0,1418.0,2029.0,25.0
1.063516616821289,909.0,801.0,3137.0,2298.0,2389.0,27.0
1.0648167133331299,6.0,2662.0,3064.0,24.0,613.0,10.0
1.0661166906356812,5.0,3270.0,1524.0,728.0,841.0,44.0
1.0674166679382324,30.0,3323.0,2894.0,2497.0,549.0,48.0
1.0687166452407837,15.0,3375.0,4263.0,2353.0,3708.0,29.0
1.070016622543335,12.0,5004.0,3205.0,2210.0,2918.0,11.0
1.0713167190551758,28.0,4857.0,2146.0,2264.0,1695.0,14.0
1.072616696357727,27.0,4566.0,3350.0,1994.0,1486.0,37.0
1.0739166736602783,0.0,4274.0,2081.0,881.0,1162.0,35.0
1.0752166509628296,0.0,4870.0,3930.0,3548.0,1009.0,28.0
1.0765833854675293,0.0,2992.0,5562.0,2578.0,856.0,21.0
1.0778833627700806,10.0,5581.0,4626.0,2180.0,431.0,99.0
1.0791833400726318,30.0,5656.0,5475.0,3097.0,5.0,65.0
1.080483317375183,25.0,2480.0,719.0,2358.0,1082.0,31.0
1.0817832946777344,27.0,3955.0,3351.0,1448.0,2158.0,36.0
1.0830833911895752,28.0,1645.0,5174.0,538.0,2443.0,40.0
1.0843833684921265,28.0,4397.0,3227.0,2283.0,1351.0,40.0
1.0856833457946777,19.0,2536.0,2714.0,2685.0,1735.0,11.0
1.086983323097229,10.0,2470.0,2202.0,2970.0,1307.0,39.0
1.0882833003997803,28.0,2405.0,4031.0,4029.0,3879.0,67.0
1.0895832777023315,38.0,2669.0,3678.0,3682.0,3280.0,155.0
1.0908833742141724,44.0,2572.0,3326.0,3196.0,3226.0,84.0
1.0921833515167236,10.0,2474.0,3670.0,2584.0,2724.0,13.0
1.0935332775115967,36.0,4147.0,4014.0,2311.0,353.0,34.0
1.0948333740234375,21.0,4057.0,2945.0,638.0,1087.0,55.0
1.0961333513259888,0.0,3968.0,1877.0,2634.0,1822.0,9.0
1.09743332862854,12.0,6037.0,3451.0,3302.0,1742.0,22.0
1.0987333059310913,18.0,5599.0,4393.0,2953.0,863.0,36.0
1.1000332832336426,26.0,5160.0,1260.0,2037.0,801.0,686.0
1.1013333797454834,10.0,2218.0,4339.0,3675.0,739.0,882.0
1.1026333570480347,17.0,4869.0,9368.0,287.0,1135.0,1079.0
1.103933334350586,0.0,6686.0,7882.0,2334.0,1531.0,1357.0
1.1052333116531372,13.0,4795.0,2754.0,1570.0,1224.0,1471.0
1.1065332889556885,19.0,2905.0,2297.0,2333.0,917.0,961.0
1.1078333854675293,27.0,3282.0,6919.0,2319.0,1498.0,151.0
1.1091333627700806,22.0,3590.0,6151.0,3128.0,2371.0,41.0
1.1104999780654907,16.0,4244.0,7737.0,3937.0,2139.0,776.0
1.111799955368042,18.0,6575.0,5768.0,4022.0,1906.0,968.0
1.1131000518798828,14.0,5588.0,7477.0,1818.0,990.0,490.0
1.114400029182434,10.0,4601.0,5807.0,2151.0,1338.0,11.0
1.1157000064849854,35.0,7236.0,7439.0,4089.0,1687.0,35.0
1.1169999837875366,38.0,6746.0,7564.0,1584.0,1897.0,804.0
1.118299961090088,5.0,6256.0,7689.0,6096.0,2107.0,1461.0
1.1196000576019287,55.0,3527.0,8572.0,4730.0,1856.0,1442.0
1.12090003490448,10.0,4312.0,9672.0,2421.0,1696.0,1801.0
1.1222000122070312,21.0,9932.0,5876.0,6690.0,1537.0,1136.0
1.1234999895095825,5.0,9152.0,5550.0,3532.0,3065.0,353.0
1.1247999668121338,36.0,5277.0,9684.0,5382.0,2882.0,29.0
1.126099944114685,86.0,7181.0,7389.0,5331.0,3495.0,285.0
1.1274499893188477,84.0,6950.0,11004.0,5280.0,1544.0,889.0
1.128749966621399,54.0,5854.0,7558.0,4698.0,2277.0,462.0
1.1300499439239502,25.0,4758.0,7986.0,3759.0,852.0,34.0
1.131350040435791,22.0,5913.0,9268.0,6033.0,1270.0,485.0
1.1326500177383423,10.0,5824.0,9920.0,5137.0,3888.0,30.0
1.1339499950408936,21.0,5735.0,9304.0,5076.0,3291.0,244.0
1.1352499723434448,31.0,9200.0,10728.0,5015.0,2694.0,458.0
1.136549949645996,38.0,7649.0,9868.0,6583.0,3034.0,25.0
1.137850046157837,44.0,6098.0,9012.0,2307.0,2954.0,595.0
1.1391500234603882,47.0,9076.0,9804.0,4801.0,2874.0,996.0
1.1404500007629395,51.0,9128.0,7741.0,7347.0,15.0,682.0
1.1417499780654907,49.0,8952.0,11312.0,3217.0,1987.0,729.0
1.143049955368042,7.0,8108.0,9952.0,4431.0,3958.0,776.0
1.1444166898727417,48.0,7567.0,4784.0,6228.0,2838.0,680.0
1.145716667175293,0.0,5739.0,9260.0,4480.0,4445.0,585.0
1.1470166444778442,26.0,7412.0,9868.0,6379.0,2029.0,195.0
1.1483166217803955,42.0,9832.0,6328.0,5168.0,4093.0,35.0
1.1496167182922363,5.0,2530.0,7209.0,3958.0,4032.0,390.0
1.1509166955947876,49.0,7029.0,8090.0,5893.0,3004.0,316.0
1.1522166728973389,18.0,7885.0,8856.0,6614.0,4508.0,241.0
1.1535166501998901,50.0,8368.0,9384.0,1565.0,4486.0,1070.0
1.1548166275024414,17.0,7893.0,9916.0,1461.0,2593.0,899.0
1.1561167240142822,42.0,7416.0,9400.0,6988.0,4200.0,973.0
1.1574167013168335,21.0,7840.0,8208.0,5049.0,3562.0,5.0
1.1587166786193848,11.0,7514.0,8600.0,4378.0,3087.0,24.0
1.160016655921936,40.0,7187.0,8996.0,6153.0,2612.0,20.0
1.1613667011260986,10.0,8030.0,11220.0,6918.0,3658.0,15.0
1.16266667842865,6.0,8872.0,10904.0,7603.0,6658.0,534.0
1.1639666557312012,19.0,8752.0,11584.0,8332.0,7263.0,1053.0
1.1652666330337524,15.0,7864.0,12268.0,5846.0,3086.0,1101.0
1.1665666103363037,15.0,8544.0,12144.0,10736.0,7105.0,886.0
1.1678667068481445,18.0,12220.0,11192.0,3495.0,3399.0,672.0
1.1691666841506958,15.0,10496.0,15460.0,6530.0,4765.0,660.0
1.170466661453247,13.0,8772.0,13576.0,10692.0,4752.0,648.0
1.1717666387557983,7.0,9636.0,11692.0,8312.0,4937.0,324.0
1.1730666160583496,12.0,9096.0,14716.0,8084.0,4761.0,0.0
1.1743667125701904,17.0,9340.0,15844.0,7364.0,4584.0,1524.0
1.1756666898727417,13.0,9584.0,6021.0,3442.0,4894.0,1659.0
1.176966667175293,7.0,13556.0,16144.0,10052.0,6125.0,3044.0
1.1783332824707031,0.0,15168.0,16500.0,10308.0,6149.0,1930.0
1.179633378982544,27.0,8400.0,8964.0,8151.0,3230.0,1099.0
1.1809333562850952,32.0,14236.0,18504.0,10048.0,7123.0,1782.0
1.1822333335876465,0.0,15980.0,13164.0,7593.0,7199.0,2269.0
1.1835333108901978,5.0,12960.0,22016.0,7763.0,6696.0,2454.0
1.184833288192749,19.0,14656.0,13528.0,7475.0,6193.0,1049.0
1.1861333847045898,10.0,17160.0,12700.0,7187.0,5201.0,58.0
1.1874333620071411,10.0,15220.0,19812.0,6138.0,3981.0,2347.0
1.1887333393096924,9.0,16700.0,15772.0,6515.0,2762.0,1129.0
1.1900333166122437,8.0,18180.0,23800.0,6893.0,3895.0,1553.0
1.191333293914795,16.0,12652.0,21088.0,8740.0,4378.0,2251.0
1.1926333904266357,24.0,15080.0,13704.0,8174.0,4860.0,894.0
1.193933367729187,19.0,14500.0,18028.0,7608.0,6530.0,625.0
1.19528329372406,13.0,11072.0,17116.0,5983.0,6086.0,156.0
1.1965833902359009,12.0,14664.0,18308.0,8162.0,5641.0,206.0
1.1978833675384521,23.0,21560.0,18276.0,8324.0,6477.0,256.0
1.1991833448410034,5.0,22244.0,18248.0,9264.0,7313.0,2409.0
1.2004833221435547,13.0,23444.0,15688.0,10204.0,4301.0,2823.0
1.201783299446106,0.0,19332.0,21924.0,11636.0,10944.0,1698.0
1.2030832767486572,9.0,18012.0,21888.0,11104.0,11652.0,635.0
1.204383373260498,17.0,20748.0,16912.0,10572.0,9968.0,2368.0
1.2056833505630493,16.0,21736.0,18644.0,11108.0,10740.0,2818.0
1.2069833278656006,15.0,16548.0,18976.0,11944.0,9668.0,2052.0
1.2082833051681519,15.0,11360.0,19304.0,12776.0,10160.0,1588.0
1.2095832824707031,38.0,20856.0,22676.0,12148.0,10012.0,2181.0
1.210883378982544,35.0,18644.0,27736.0,11520.0,9544.0,1713.0
1.2122166156768799,5.0,17920.0,28868.0,10660.0,9492.0,1245.0
1.2135167121887207,6.0,19748.0,27508.0,9800.0,9436.0,1096.0
1.214816689491272,32.0,21572.0,26464.0,11864.0,9596.0,2083.0
1.2161166667938232,19.0,21400.0,26928.0,17492.0,9276.0,1649.0
1.2174166440963745,6.0,21224.0,27668.0,18212.0,8956.0,1215.0
1.2187166213989258,33.0,17560.0,28296.0,16664.0,8640.0,2841.0
1.2200167179107666,25.0,21008.0,32176.0,21080.0,9608.0,4467.0
1.2213166952133179,26.0,21752.0,21820.0,12104.0,8892.0,4409.0
1.2226166725158691,33.0,22496.0,30028.0,20456.0,8178.0,2745.0
1.2239166498184204,33.0,22168.0,26404.0,18764.0,13428.0,2544.0
1.2252166271209717,32.0,30636.0,23784.0,17464.0,12452.0,3240.0
1.2265167236328125,11.0,28776.0,32108.0,11700.0,11076.0,3937.0
1.2278167009353638,18.0,31300.0,40640.0,18008.0,14920.0,5247.0
1.229183316230774,28.0,33936.0,39296.0,20344.0,12076.0,936.0
1.2304832935333252,14.0,36880.0,26120.0,20436.0,9228.0,4209.0
1.231783390045166,17.0,34240.0,31408.0,17352.0,11296.0,3997.0
1.2330833673477173,5.0,33024.0,24424.0,21280.0,13364.0,3071.0
1.2343833446502686,11.0,31796.0,34016.0,19900.0,10756.0,4905.0
1.2356833219528198,17.0,23796.0,40352.0,20592.0,10548.0,4410.0
1.236983299255371,33.0,29156.0,36560.0,16904.0,9032.0,2489.0
1.2382832765579224,40.0,29400.0,34448.0,19712.0,8836.0,6079.0
1.2395833730697632,30.0,27684.0,36720.0,23076.0,8640.0,1168.0
1.2408833503723145,20.0,25968.0,39536.0,15692.0,21000.0,3384.0
1.2421833276748657,33.0,30984.0,42352.0,18884.0,20768.0,5237.0
1.243483304977417,35.0,29200.0,41520.0,24700.0,12808.0,4022.0
1.2447832822799683,23.0,30764.0,34960.0,21680.0,14744.0,3446.0
1.2461333274841309,32.0,32328.0,35440.0,14932.0,12084.0,4463.0
1.2474333047866821,42.0,25224.0,39408.0,16056.0,11468.0,2997.0
1.2487332820892334,22.0,34480.0,43616.0,21376.0,17856.0,5209.0
1.2500333786010742,0.0,40368.0,48096.0,24160.0,19328.0,5974.0
1.2513333559036255,26.0,41536.0,45296.0,26944.0,20864.0,5146.0
1.2526333332061768,19.0,36608.0,47056.0,23012.0,16088.0,7394.0
1.253933310508728,12.0,27952.0,40304.0,23516.0,22884.0,7332.0
1.2552332878112793,14.0,48160.0,41696.0,17632.0,15756.0,4086.0
1.2565333843231201,16.0,25872.0,44416.0,30092.0,16028.0,5264.0
1.2578333616256714,23.0,42016.0,44032.0,28980.0,14092.0,5948.0
1.2591333389282227,30.0,41312.0,43664.0,28380.0,13080.0,6913.0
1.260433316230774,24.0,40032.0,46192.0,25216.0,12072.0,7879.0
1.2617332935333252,18.0,38768.0,48720.0,30352.0,14640.0,3503.0
1.263100028038025,33.0,35552.0,51920.0,25336.0,17208.0,4987.0
1.2644000053405762,23.0,48176.0,54864.0,27508.0,21328.0,6933.0
1.2656999826431274,19.0,48544.0,57024.0,28680.0,25448.0,7142.0
1.2669999599456787,15.0,54560.0,55552.0,29856.0,24628.0,7351.0
1.2683000564575195,16.0,52768.0,57248.0,28636.0,19328.0,5645.0
1.2696000337600708,17.0,50976.0,55840.0,28436.0,23868.0,5100.0
1.270900011062622,18.0,53408.0,54416.0,28716.0,19264.0,4956.0
1.2721999883651733,19.0,49504.0,54000.0,28996.0,20864.0,6547.0
1.2734999656677246,40.0,54448.0,53568.0,38656.0,22464.0,6594.0
1.2747999429702759,42.0,61472.0,59520.0,42224.0,23560.0,7292.0
1.2761000394821167,43.0,67264.0,61648.0,38272.0,24652.0,6047.0
1.277400016784668,15.0,61760.0,73168.0,31516.0,26616.0,7818.0
1.2786999940872192,54.0,58656.0,68608.0,37648.0,27640.0,3830.0
1.2800500392913818,9.0,68816.0,64048.0,36192.0,31140.0,10716.0
1.281350016593933,5.0,69024.0,67472.0,40144.0,20020.0,9436.0
1.2826499938964844,24.0,62224.0,67216.0,44048.0,29880.0,7489.0
1.2839499711990356,35.0,77408.0,71888.0,46704.0,32816.0,7198.0
1.285249948501587,26.0,51184.0,70512.0,36544.0,31824.0,7783.0
1.2865500450134277,18.0,74912.0,69152.0,32576.0,25624.0,5702.0
1.287850022315979,9.0,59968.0,71920.0,48112.0,31932.0,6355.0
1.2891499996185303,36.0,81840.0,70880.0,45824.0,22920.0,7162.0
1.2904499769210815,42.0,77664.0,69824.0,45600.0,33344.0,11640.0
1.2917499542236328,35.0,81680.0,88144.0,46416.0,31816.0,10964.0
1.2930500507354736,35.0,70544.0,85088.0,47232.0,32472.0,10288.0
1.294350028038025,27.0,71520.0,87536.0,46992.0,30100.0,10436.0
1.2956500053405762,836.0,80832.0,88176.0,46928.0,37200.0,12684.0
1.2969833612442017,635.0,74592.0,88800.0,46848.0,33392.0,7665.0
1.298283338546753,0.0,77792.0,96592.0,46048.0,29584.0,8384.0
1.2995833158493042,15.0,74336.0,76576.0,37248.0,29688.0,6156.0
1.3008832931518555,513.0,76240.0,92320.0,41120.0,30432.0,8620.0
1.3021833896636963,22.0,78144.0,87664.0,44992.0,31176.0,10292.0
1.3034833669662476,37.0,75520.0,98704.0,56640.0,32404.0,13496.0
1.3047833442687988,10.0,87408.0,89840.0,60944.0,32156.0,11244.0
1.30608332157135,23.0,91232.0,91136.0,57360.0,31908.0,13672.0
1.3073832988739014,41.0,96816.0,97424.0,45936.0,30264.0,6415.0
1.3086832761764526,29.0,93744.0,100176.0,40800.0,28620.0,11748.0
1.3099833726882935,26.0,69968.0,96336.0,57712.0,39920.0,11032.0
1.3112833499908447,22.0,97936.0,92480.0,34144.0,45840.0,13476.0
1.312583327293396,24.0,89088.0,97552.0,50992.0,45024.0,9920.0
1.3139499425888062,26.0,63248.0,94656.0,47232.0,30112.0,8992.0
1.315250039100647,21.0,78016.0,92656.0,53168.0,31288.0,8062.0
1.3165500164031982,12.0,75968.0,90656.0,43504.0,28604.0,9768.0
1.3178499937057495,19.0,80896.0,73824.0,50000.0,28656.0,9652.0
1.3191499710083008,25.0,77440.0,72960.0,50304.0,29436.0,7306.0
1.320449948310852,20.0,76960.0,89472.0,52096.0,30216.0,6338.0
1.3217500448226929,14.0,85840.0,73728.0,35776.0,30884.0,10632.0
1.3230500221252441,57.0,60048.0,81360.0,45904.0,31556.0,8408.0
1.3243499994277954,55.0,68192.0,84864.0,47216.0,25596.0,7993.0
1.3256499767303467,12.0,66064.0,88752.0,37472.0,26460.0,9140.0
1.326949954032898,42.0,65648.0,63440.0,37072.0,28928.0,7089.0
1.3282500505447388,10.0,67264.0,69936.0,36656.0,28984.0,6080.0
1.32955002784729,13.0,65968.0,70400.0,40368.0,29044.0,5071.0
1.3309166431427002,14.0,64656.0,79424.0,32104.0,21868.0,7450.0
1.3322166204452515,15.0,62208.0,77280.0,33552.0,23472.0,9740.0
1.3335167169570923,11.0,56928.0,65824.0,35008.0,25076.0,10344.0
1.3348166942596436,19.0,63456.0,82352.0,34832.0,17376.0,10012.0
1.3361166715621948,13.0,63824.0,65776.0,34656.0,31256.0,10328.0
1.337416648864746,7.0,48048.0,55056.0,35184.0,25792.0,8372.0
1.3387166261672974,12.0,58704.0,69072.0,35712.0,31128.0,5048.0
1.3400167226791382,16.0,47968.0,49872.0,28220.0,17048.0,7830.0
1.3413166999816895,19.0,41696.0,53168.0,28608.0,14520.0,8524.0
1.3426166772842407,26.0,52816.0,48192.0,22292.0,23480.0,5601.0
1.343916654586792,29.0,50896.0,53776.0,25096.0,15888.0,4565.0
1.3452166318893433,31.0,42912.0,50480.0,27900.0,13268.0,3495.0
1.3465166091918945,34.0,54048.0,44432.0,25416.0,19664.0,3483.0
1.3478666543960571,36.0,40160.0,36352.0,19388.0,13152.0,3471.0
1.3491666316986084,24.0,30504.0,38240.0,27208.0,11928.0,3078.0
1.3504666090011597,17.0,40400.0,46352.0,27176.0,15016.0,3386.0
1.3517667055130005,5.0,26944.0,43760.0,13244.0,14148.0,3694.0
1.3530666828155518,9.0,41440.0,42592.0,21208.0,13276.0,4041.0
1.354366660118103,19.0,36080.0,35552.0,24084.0,14524.0,4389.0
1.3556666374206543,29.0,36272.0,31848.0,16856.0,13688.0,3925.0
1.3569666147232056,33.0,24692.0,31700.0,13492.0,13904.0,3462.0
1.3582667112350464,28.0,39136.0,36528.0,16032.0,11760.0,3751.0
1.3595666885375977,17.0,25752.0,22164.0,13796.0,9616.0,2214.0
1.360866665840149,10.0,22412.0,34384.0,10452.0,7834.0,1788.0
1.3621666431427002,17.0,24448.0,26716.0,13484.0,11912.0,2294.0
1.3634666204452515,22.0,17896.0,23092.0,12160.0,6360.0,2319.0
1.3648333549499512,22.0,22336.0,27216.0,15824.0,13224.0,2344.0
1.3661333322525024,13.0,23544.0,21504.0,17312.0,9724.0,639.0
1.3674333095550537,12.0,19172.0,16736.0,6750.0,8280.0,2089.0
1.368733286857605,10.0,20796.0,22164.0,11984.0,5785.0,2889.0
1.3700333833694458,9.0,22420.0,20704.0,13856.0,5961.0,1497.0
1.371333360671997,8.0,14968.0,13852.0,6625.0,7885.0,1239.0
1.3726333379745483,26.0,7752.0,16820.0,8640.0,6748.0,1647.0
1.3739333152770996,62.0,12488.0,18984.0,7732.0,5610.0,2055.0
1.3752332925796509,60.0,14864.0,16232.0,8160.0,4384.0,1935.0
1.3765333890914917,23.0,12764.0,15992.0,5437.0,4324.0,1816.0
1.377833366394043,13.0,16732.0,12284.0,7295.0,4264.0,1138.0
1.3791333436965942,50.0,7424.0,9944.0,9152.0,5325.0,1408.0
1.3804333209991455,5.0,9100.0,11000.0,7590.0,6826.0,1678.0
1.381783366203308,12.0,7874.0,10148.0,4383.0,2069.0,1472.0
1.3830833435058594,27.0,13676.0,9296.0,3888.0,7861.0,1139.0
1.3843833208084106,23.0,12752.0,6943.0,4148.0,2765.0,577.0
1.385683298110962,19.0,9628.0,4590.0,4408.0,4791.0,15.0
1.3869832754135132,13.0,14344.0,6138.0,3961.0,3809.0,24.0
1.388283371925354,7.0,16940.0,7687.0,3565.0,4406.0,64.0
1.3895833492279053,5.0,5084.0,8065.0,3168.0,3663.0,626.0
1.3908833265304565,11.0,6972.0,7483.0,2267.0,1985.0,332.0
1.3921833038330078,8.0,5953.0,7106.0,1366.0,1923.0,37.0
1.393483281135559,5.0,6641.0,1478.0,4163.0,1641.0,36.0
1.3947833776474,42.0,8232.0,5182.0,3455.0,1091.0,35.0
1.3960833549499512,43.0,3507.0,5442.0,1254.0,3495.0,10.0
1.3973833322525024,10.0,2118.0,7706.0,4527.0,2932.0,5.0
1.3987499475479126,53.0,3894.0,6915.0,4137.0,2484.0,0.0
1.4000500440597534,46.0,5665.0,6124.0,3746.0,2736.0,27.0
1.4013500213623047,36.0,6517.0,6106.0,4791.0,0.0,19.0
1.402649998664856,25.0,3865.0,6206.0,3185.0,956.0,11.0
1.4039499759674072,16.0,1103.0,6305.0,2146.0,1757.0,17.0
1.4052499532699585,28.0,2699.0,5544.0,1835.0,1100.0,11.0
1.4065500497817993,6.0,7416.0,2219.0,1643.0,443.0,11.0
1.4078500270843506,11.0,5797.0,6173.0,2092.0,491.0,10.0
1.4091500043869019,15.0,5847.0,3994.0,2540.0,538.0,5.0
1.4104499816894531,10.0,2514.0,4422.0,1853.0,186.0,281.0
1.4117499589920044,5.0,2961.0,4949.0,1166.0,141.0,143.0
1.4130500555038452,10.0,3256.0,1088.0,3126.0,96.0,5.0
1.4143500328063965,9.0,329.0,3030.0,339.0,1119.0,12.0
1.4156999588012695,8.0,5348.0,2227.0,453.0,1599.0,295.0
1.4170000553131104,7.0,4626.0,2932.0,578.0,814.0,179.0
1.4183000326156616,5.0,2418.0,1197.0,62.0,28.0,62.0
1.419600009918213,28.0,1345.0,875.0,560.0,30.0,1603.0
1.4208999872207642,48.0,27.0,998.0,1057.0,888.0,1327.0
1.4221999645233154,44.0,1982.0,822.0,726.0,454.0,19.0
1.4235166311264038,0.0,2580.0,647.0,1388.0,20.0,58.0
1.4248000383377075,0.0,697.0,2241.0,712.0,454.0,19.0
1.4261000156402588,26.0,1841.0,3015.0,36.0,46.0,25.0
1.42739999294281,43.0,972.0,3183.0,1457.0,28.0,27.0
1.4286999702453613,43.0,2186.0,972.0,698.0,10.0,0.0
1.4299999475479126,35.0,1676.0,380.0,1325.0,1783.0,3.0
1.4313000440597534,21.0,1015.0,928.0,17.0,2084.0,5.0
1.4326666593551636,18.0,1189.0,722.0,1232.0,2727.0,11.0
1.4339666366577148,23.0,1111.0,517.0,735.0,2064.0,17.0
1.4352666139602661,17.0,1034.0,885.0,825.0,1402.0,23.0
1.436566710472107,22.0,1273.0,777.0,955.0,39.0,17.0
1.4378666877746582,33.0,2472.0,668.0,127.0,1268.0,12.0
1.4391666650772095,25.0,2216.0,576.0,1217.0,899.0,6.0
1.4404666423797607,16.0,1805.0,946.0,2117.0,456.0,228.0
1.441766619682312,41.0,462.0,1284.0,1835.0,12.0,117.0
1.4430667161941528,13.0,1216.0,648.0,1554.0,479.0,5.0
1.444366693496704,11.0,1537.0,12.0,829.0,5.0,5.0
1.4456666707992554,28.0,3527.0,564.0,331.0,448.0,13.0
1.4469666481018066,29.0,2756.0,393.0,1054.0,231.0,36.0
1.448266625404358,20.0,485.0,222.0,1022.0,14.0,23.0
1.4496166706085205,29.0,435.0,924.0,990.0,489.0,9.0
1.4509166479110718,20.0,1565.0,465.0,876.0,250.0,0.0
1.452216625213623,22.0,11.0,5.0,734.0,10.0,8.0
1.4535167217254639,21.0,476.0,690.0,69.0,26.0,15.0
1.4548166990280151,11.0,458.0,756.0,51.0,25.0,10.0
1.4561166763305664,53.0,782.0,822.0,32.0,890.0,13.0
1.4574166536331177,50.0,919.0,582.0,0.0,1137.0,15.0
1.458716630935669,46.0,525.0,189.0,426.0,1362.0,25.0
1.4600166082382202,38.0,132.0,853.0,511.0,6.0,41.0
1.461316704750061,23.0,81.0,828.0,596.0,23.0,25.0
1.4626166820526123,27.0,29.0,1403.0,522.0,0.0,10.0
1.4639166593551636,19.0,1098.0,1244.0,822.0,10.0,159.0
1.4652166366577148,10.0,1453.0,1085.0,881.0,19.0,89.0
1.4665833711624146,6.0,25.0,17.0,940.0,788.0,19.0
1.4678833484649658,9.0,312.0,623.0,1220.0,397.0,319.0
1.469183325767517,11.0,1087.0,29.0,25.0,5.0,618.0
1.4704833030700684,9.0,1109.0,34.0,967.0,492.0,326.0
1.4717832803726196,7.0,65.0,39.0,0.0,276.0,34.0
1.4730833768844604,20.0,581.0,43.0,1357.0,1313.0,35.0
1.4743833541870117,13.0,1098.0,25.0,1075.0,1111.0,36.0
1.475683331489563,5.0,911.0,7.0,970.0,25.0,25.0
1.4769833087921143,16.0,724.0,921.0,626.0,834.0,13.0
1.4782832860946655,21.0,1095.0,847.0,18.0,775.0,0.0
1.4795833826065063,16.0,2513.0,11.0,1237.0,717.0,8.0
1.4808833599090576,10.0,2738.0,451.0,5.0,367.0,14.0
1.4821833372116089,39.0,45.0,952.0,28.0,16.0,20.0
1.4835333824157715,37.0,687.0,555.0,14.0,905.0,27.0
1.4848333597183228,18.0,832.0,953.0,10.0,1471.0,34.0
1.486133337020874,19.0,426.0,1350.0,5.0,922.0,34.0
1.4874333143234253,30.0,20.0,359.0,13.0,10.0,15.0
1.4887332916259766,42.0,61.0,19.0,20.0,22.0,0.0
1.4900333881378174,38.0,14.0,2461.0,37.0,722.0,40.0
1.4913333654403687,36.0,7.0,2488.0,34.0,494.0,22.0
1.49263334274292,33.0,0.0,587.0,31.0,266.0,20.0
1.4939333200454712,23.0,259.0,88.0,26.0,17.0,17.0
1.4952332973480225,20.0,518.0,84.0,13.0,20.0,12.0
1.4965332746505737,28.0,272.0,22.0,0.0,22.0,17.0
1.4978333711624146,9.0,26.0,894.0,2225.0,309.0,21.0
1.4991333484649658,24.0,1077.0,615.0,2220.0,161.0,19.0
1.500499963760376,39.0,570.0,337.0,568.0,12.0,16.0
1.5017999410629272,6.0,62.0,1086.0,1240.0,730.0,15.0
1.503100037574768,30.0,63.0,440.0,865.0,822.0,13.0
1.5044000148773193,21.0,64.0,22.0,636.0,485.0,5.0
1.5056999921798706,10.0,74.0,323.0,406.0,723.0,8.0
1.5069999694824219,0.0,51.0,174.0,0.0,960.0,10.0
1.5082999467849731,16.0,27.0,25.0,599.0,466.0,39.0
1.509600043296814,17.0,1068.0,447.0,20.0,35.0,29.0
1.5109000205993652,18.0,539.0,494.0,16.0,577.0,20.0
1.5121999979019165,54.0,10.0,542.0,12.0,320.0,5.0
1.5134999752044678,45.0,550.0,707.0,33.0,62.0,25.0
1.514799952507019,41.0,86.0,39.0,751.0,10.0,26.0
1.5161000490188599,37.0,58.0,731.0,882.0,10.0,22.0
1.517449975013733,10.0,30.0,42.0,605.0,116.0,27.0
1.5187499523162842,28.0,22.0,25.0,489.0,907.0,0.0
1.520050048828125,19.0,18.0,18.0,880.0,812.0,19.0
1.5213500261306763,0.0,14.0,11.0,36.0,531.0,38.0
1.5226500034332275,12.0,10.0,8.0,31.0,631.0,25.0
1.5239499807357788,12.0,465.0,11.0,657.0,6.0,13.0
1.52524995803833,55.0,244.0,22.0,340.0,17.0,0.0
1.526550054550171,53.0,23.0,11.0,23.0,26.0,5.0
1.5278500318527222,0.0,26.0,0.0,60.0,27.0,10.0
1.5291500091552734,28.0,100.0,178.0,23.0,27.0,0.0
1.5304499864578247,42.0,173.0,654.0,35.0,20.0,5.0
1.531749963760376,38.0,112.0,361.0,0.0,5.0,10.0
1.5330499410629272,25.0,52.0,67.0,473.0,12.0,15.0
1.534416675567627,23.0,28.0,32.0,354.0,10.0,501.0
1.5357166528701782,40.0,5.0,23.0,235.0,18.0,710.0
1.5370166301727295,38.0,31.0,28.0,617.0,14.0,437.0
1.5383166074752808,6.0,60.0,38.0,759.0,35.0,6.0
1.5396167039871216,7.0,46.0,916.0,44.0,38.0,45.0
1.5409166812896729,7.0,31.0,1508.0,27.0,741.0,22.0
1.5422166585922241,10.0,13.0,1175.0,25.0,924.0,30.0
1.5435166358947754,12.0,35.0,1216.0,18.0,30.0,10.0
1.5448166131973267,13.0,20.0,22.0,10.0,0.0,21.0
1.5461167097091675,22.0,5.0,10.0,21.0,31.0,31.0
1.5474166870117188,16.0,24.0,469.0,33.0,52.0,19.0
1.54871666431427,10.0,520.0,90.0,36.0,36.0,22.0
1.5500166416168213,15.0,824.0,1057.0,39.0,20.0,25.0
1.551383376121521,20.0,750.0,1102.0,23.0,13.0,28.0
1.5526833534240723,25.0,17.0,512.0,7.0,5.0,33.0
1.5539833307266235,13.0,6.0,11.0,27.0,25.0,13.0
1.5552833080291748,0.0,10.0,14.0,971.0,5.0,6.0
1.556583285331726,23.0,13.0,692.0,833.0,31.0,17.0
1.557883381843567,33.0,530.0,1094.0,164.0,5.0,15.0
1.5591833591461182,0.0,270.0,1380.0,31.0,353.0,8.0
1.5604833364486694,5.0,10.0,5.0,39.0,280.0,20.0
1.5617833137512207,43.0,59.0,12.0,22.0,207.0,30.0
1.563083291053772,0.0,40.0,966.0,6.0,17.0,39.0
1.5643833875656128,11.0,37.0,26.0,29.0,13.0,22.0
1.565683364868164,45.0,33.0,28.0,12.0,21.0,32.0
1.5669833421707153,42.0,5.0,127.0,26.0,0.0,22.0
1.568333387374878,42.0,18.0,72.0,12.0,26.0,12.0
1.5696333646774292,43.0,71.0,18.0,731.0,0.0,0.0
1.5709333419799805,21.0,123.0,19.0,763.0,62.0,12.0
1.5722333192825317,26.0,67.0,20.0,21.0,40.0,9.0
1.573533296585083,30.0,11.0,59.0,542.0,18.0,31.0
1.5748332738876343,15.0,8.0,52.0,66.0,20.0,19.0
1.576133370399475,49.0,5.0,46.0,33.0,36.0,7.0
1.5774333477020264,45.0,7.0,51.0,32.0,37.0,20.0
1.5787333250045776,42.0,24.0,68.0,30.0,39.0,32.0
1.580033302307129,24.0,479.0,45.0,23.0,5.0,0.0
1.5813332796096802,0.0,588.0,22.0,15.0,22.0,22.0
1.582633376121521,20.0,59.0,340.0,13.0,23.0,6.0
1.5839333534240723,11.0,43.0,192.0,11.0,24.0,10.0
1.5852999687194824,5.0,26.0,44.0,17.0,28.0,7.0
1.5865999460220337,26.0,27.0,36.0,23.0,33.0,11.0
1.5879000425338745,0.0,26.0,23.0,34.0,19.0,22.0
1.5892000198364258,11.0,26.0,23.0,180.0,5.0,31.0
1.590499997138977,12.0,26.0,19.0,702.0,10.0,39.0
1.5917999744415283,26.0,37.0,15.0,500.0,13.0,20.0
1.5930999517440796,31.0,1143.0,9.0,298.0,15.0,18.0
1.5944000482559204,0.0,577.0,17.0,490.0,17.0,62.0
1.5957000255584717,12.0,10.0,16.0,324.0,19.0,41.0
1.597000002861023,5.0,395.0,14.0,28.0,20.0,20.0
1.5982999801635742,8.0,38.0,15.0,42.0,35.0,27.0
1.5995999574661255,11.0,294.0,15.0,0.0,23.0,35.0
1.6009000539779663,5.0,507.0,227.0,12.0,10.0,13.0
1.6022499799728394,5.0,37.0,131.0,174.0,39.0,10.0
1.6035499572753906,5.0,13.0,35.0,337.0,21.0,11.0
1.6048500537872314,8.0,12.0,23.0,566.0,13.0,11.0
1.6061500310897827,10.0,18.0,12.0,296.0,5.0,6.0
1.607450008392334,11.0,52.0,5.0,26.0,15.0,0.0
1.6087499856948853,10.0,34.0,0.0,17.0,0.0,28.0
1.6100499629974365,8.0,16.0,10.0,7.0,13.0,443.0
1.6113500595092773,23.0,24.0,19.0,129.0,0.0,226.0
1.6126500368118286,38.0,15.0,150.0,74.0,31.0,10.0
1.6139500141143799,33.0,5.0,281.0,19.0,210.0,19.0
1.6152499914169312,13.0,13.0,183.0,12.0,388.0,11.0
1.6165499687194824,25.0,293.0,11.0,357.0,496.0,0.0
1.6178499460220337,7.0,573.0,11.0,328.0,15.0,35.0
1.6192166805267334,36.0,389.0,21.0,65.0,14.0,37.0
1.6205166578292847,29.0,5.0,6.0,86.0,13.0,67.0
1.621816635131836,26.0,21.0,35.0,13.0,39.0,47.0
1.6231166124343872,19.0,5.0,23.0,49.0,28.0,5.0
1.624416708946228,10.0,31.0,11.0,34.0,17.0,5.0
1.6257166862487793,5.0,698.0,530.0,30.0,15.0,21.0
1.6270166635513306,3.0,1453.0,279.0,26.0,5.0,17.0
1.6283166408538818,0.0,1121.0,27.0,34.0,19.0,13.0
1.629616618156433,29.0,91.0,8.0,28.0,32.0,14.0
1.630916714668274,31.0,18.0,5.0,21.0,56.0,14.0
1.6322166919708252,21.0,14.0,11.0,6.0,41.0,10.0
1.6335166692733765,16.0,20.0,37.0,7.0,38.0,24.0
1.6348166465759277,13.0,18.0,28.0,16.0,29.0,19.0
1.6361666917800903,10.0,16.0,19.0,13.0,21.0,14.0
1.6374666690826416,31.0,11.0,5.0,10.0,20.0,11.0
1.6387666463851929,38.0,6.0,33.0,18.0,18.0,12.0
1.6400666236877441,13.0,37.0,19.0,25.0,20.0,13.0
1.641366720199585,22.0,46.0,5.0,30.0,22.0,16.0
1.6426666975021362,45.0,55.0,3.0,21.0,17.0,15.0
1.6439666748046875,26.0,0.0,0.0,12.0,12.0,13.0
1.6452666521072388,8.0,62.0,10.0,14.0,5.0,14.0
1.64656662940979,20.0,35.0,20.0,15.0,17.0,14.0
1.6478667259216309,35.0,0.0,26.0,41.0,42.0,7.0
1.6491667032241821,32.0,40.0,30.0,34.0,67.0,0.0
1.6504666805267334,15.0,5.0,24.0,0.0,48.0,15.0
1.6517666578292847,26.0,33.0,17.0,16.0,27.0,8.0
1.6531333923339844,17.0,45.0,11.0,7.0,58.0,0.0
1.6544333696365356,22.0,24.0,20.0,17.0,15.0,5.0
1.655733346939087,27.0,0.0,24.0,6.0,15.0,8.0
1.6570333242416382,33.0,53.0,87.0,23.0,42.0,10.0
1.6583333015441895,42.0,28.0,581.0,40.0,23.0,15.0
1.6596332788467407,52.0,53.0,586.0,29.0,5.0,11.0
1.6609333753585815,16.0,40.0,592.0,18.0,16.0,6.0
1.6622333526611328,7.0,27.0,35.0,721.0,25.0,22.0
1.663533329963684,50.0,17.0,21.0,551.0,34.0,25.0
1.6648333072662354,32.0,6.0,14.0,19.0,21.0,27.0
1.6661332845687866,13.0,58.0,58.0,1005.0,20.0,29.0
1.6674333810806274,5.0,75.0,294.0,38.0,34.0,34.0
1.6687333583831787,28.0,92.0,881.0,29.0,11.0,39.0
1.6700832843780518,17.0,11.0,458.0,18.0,19.0,10.0
1.6713833808898926,0.0,169.0,35.0,0.0,26.0,19.0
1.6726833581924438,16.0,155.0,15.0,5.0,19.0,18.0
1.6739833354949951,26.0,80.0,25.0,10.0,24.0,16.0
1.6752833127975464,27.0,5.0,38.0,18.0,26.0,11.0
1.6765832901000977,27.0,31.0,30.0,17.0,39.0,6.0
1.6778833866119385,0.0,0.0,11.0,49.0,24.0,13.0
1.6791833639144897,16.0,42.0,7.0,45.0,10.0,28.0
1.680483341217041,5.0,21.0,35.0,11.0,27.0,35.0
1.6817833185195923,19.0,0.0,42.0,6.0,37.0,30.0
1.6830832958221436,15.0,236.0,42.0,15.0,12.0,12.0
1.6843833923339844,25.0,135.0,30.0,23.0,0.0,16.0
1.6856833696365356,12.0,34.0,18.0,30.0,14.0,13.0
1.6870499849319458,17.0,12.0,23.0,24.0,28.0,10.0
1.688349962234497,12.0,6.0,27.0,26.0,24.0,24.0
1.689650058746338,5.0,0.0,34.0,28.0,20.0,25.0
1.6909500360488892,12.0,8.0,36.0,10.0,6.0,26.0
1.6922500133514404,45.0,16.0,0.0,15.0,8.0,37.0
1.6935499906539917,36.0,15.0,6.0,30.0,10.0,34.0
1.694849967956543,46.0,13.0,12.0,28.0,25.0,31.0
1.6961499452590942,33.0,10.0,26.0,30.0,18.0,31.0
1.697450041770935,25.0,17.0,24.0,31.0,11.0,30.0
1.6987500190734863,15.0,23.0,19.0,40.0,150.0,44.0
1.7000499963760376,35.0,141.0,14.0,0.0,80.0,11.0
1.7013499736785889,5.0,76.0,19.0,16.0,10.0,17.0
1.7026499509811401,29.0,10.0,23.0,13.0,11.0,17.0
1.7039999961853027,72.0,8.0,52.0,19.0,12.0,36.0
1.705299973487854,53.0,5.0,295.0,18.0,13.0,55.0
1.7065999507904053,15.0,0.0,538.0,17.0,5.0,31.0
1.707900047302246,10.0,3.0,280.0,5.0,7.0,7.0
1.7092000246047974,42.0,5.0,22.0,22.0,9.0,10.0
1.7105000019073486,47.0,15.0,19.0,0.0,5.0,42.0
1.7117999792099,19.0,25.0,72.0,7.0,0.0,40.0
1.7130999565124512,22.0,31.0,12.0,14.0,26.0,42.0
1.714400053024292,16.0,17.0,5.0,13.0,34.0,45.0
1.7157000303268433,0.0,18.0,18.0,9.0,41.0,29.0
1.7170000076293945,14.0,19.0,22.0,5.0,40.0,41.0
1.7182999849319458,10.0,27.0,11.0,29.0,30.0,39.0
1.719599962234497,7.0,36.0,0.0,28.0,548.0,24.0
1.7209666967391968,10.0,539.0,12.0,26.0,279.0,5.0
1.722266674041748,11.0,613.0,23.0,28.0,10.0,22.0
1.7235666513442993,11.0,24.0,23.0,28.0,21.0,14.0
1.7248666286468506,12.0,348.0,22.0,27.0,44.0,5.0
1.7261667251586914,12.0,618.0,23.0,21.0,20.0,22.0
1.7274667024612427,0.0,29.0,15.0,20.0,20.0,55.0
1.728766679763794,38.0,5.0,7.0,0.0,20.0,45.0
1.7300666570663452,21.0,0.0,12.0,5.0,27.0,35.0
1.7313666343688965,5.0,18.0,10.0,16.0,0.0,13.0
1.7326666116714478,10.0,29.0,21.0,22.0,13.0,45.0
1.7339667081832886,16.0,42.0,17.0,32.0,17.0,41.0
1.7352666854858398,21.0,17.0,12.0,31.0,21.0,20.0
1.7365666627883911,27.0,5.0,5.0,30.0,5.0,55.0
1.7379332780838013,24.0,25.0,16.0,6.0,39.0,34.0
1.739233374595642,21.0,31.0,26.0,5.0,22.0,30.0
1.7405333518981934,5.0,38.0,35.0,18.0,6.0,38.0
1.7418333292007446,22.0,27.0,43.0,31.0,28.0,11.0
1.743133306503296,39.0,13.0,43.0,57.0,21.0,30.0
1.7444332838058472,34.0,7.0,26.0,33.0,22.0,12.0
1.745733380317688,27.0,25.0,10.0,10.0,22.0,36.0
1.7470333576202393,21.0,7.0,7.0,28.0,24.0,10.0
1.7483333349227905,16.0,313.0,16.0,47.0,25.0,5.0
1.7496333122253418,10.0,159.0,26.0,47.0,10.0,0.0
1.750933289527893,13.0,5.0,24.0,28.0,32.0,65.0
1.7522333860397339,15.0,7.0,22.0,10.0,20.0,43.0
1.7535333633422852,17.0,40.0,0.0,45.0,0.0,20.0
1.7548832893371582,19.0,28.0,115.0,36.0,13.0,12.0
1.756183385848999,11.0,790.0,68.0,52.0,22.0,6.0
1.7574833631515503,12.0,986.0,20.0,453.0,31.0,41.0
1.7587833404541016,16.0,476.0,121.0,481.0,29.0,48.0
1.7600833177566528,16.0,11.0,29.0,487.0,54.0,50.0
1.761383295059204,16.0,31.0,66.0,14.0,53.0,16.0
1.762683391571045,5.0,0.0,26.0,19.0,5.0,25.0
1.7639833688735962,17.0,18.0,29.0,29.0,42.0,15.0
1.7652833461761475,11.0,14.0,47.0,48.0,12.0,0.0
1.7665833234786987,11.0,10.0,7.0,33.0,19.0,31.0
1.76788330078125,11.0,60.0,35.0,17.0,10.0,15.0
1.7691832780838013,6.0,941.0,58.0,11.0,35.0,0.0
1.770483374595642,0.0,812.0,44.0,5.0,38.0,5.0
1.7718499898910522,0.0,10.0,29.0,17.0,38.0,18.0
1.7731499671936035,5.0,21.0,39.0,0.0,38.0,30.0
1.7744499444961548,26.0,20.0,13.0,21.0,37.0,25.0
1.7757500410079956,15.0,11.0,27.0,6.0,23.0,19.0
1.7770500183105469,5.0,9.0,24.0,34.0,9.0,34.0
1.7783499956130981,21.0,7.0,15.0,41.0,42.0,6.0
1.7796499729156494,20.0,6.0,5.0,5.0,26.0,21.0
1.7809499502182007,18.0,5.0,0.0,11.0,10.0,64.0
1.7822500467300415,15.0,7.0,31.0,25.0,10.0,50.0
1.7835500240325928,15.0,8.0,256.0,30.0,10.0,18.0
1.784850001335144,21.0,9.0,142.0,35.0,26.0,25.0
1.7861499786376953,19.0,0.0,28.0,21.0,22.0,32.0
1.7874499559402466,16.0,15.0,18.0,8.0,38.0,18.0
1.7888000011444092,0.0,29.0,6.0,31.0,0.0,32.0
1.7900999784469604,10.0,231.0,23.0,30.0,10.0,32.0
1.7913999557495117,20.0,126.0,8.0,34.0,0.0,32.0
1.7927000522613525,16.0,21.0,8.0,36.0,16.0,16.0
1.794016718864441,31.0,56.0,12.0,37.0,17.0,25.0
1.7953166961669922,28.0,139.0,16.0,51.0,17.0,17.0
1.7965999841690063,25.0,7.0,11.0,8.0,11.0,18.0
1.7978999614715576,5.0,39.0,5.0,32.0,12.0,16.0
1.7992000579833984,24.0,31.0,11.0,5.0,26.0,27.0
1.8005000352859497,44.0,19.0,16.0,6.0,15.0,20.0
1.801800012588501,41.0,29.0,22.0,6.0,5.0,13.0
1.8030999898910522,13.0,33.0,25.0,10.0,30.0,10.0
1.8043999671936035,13.0,27.0,31.0,13.0,12.0,8.0
1.8057667016983032,12.0,21.0,10.0,14.0,23.0,5.0
1.8070666790008545,15.0,31.0,31.0,15.0,144.0,13.0
1.8083666563034058,15.0,32.0,18.0,22.0,264.0,21.0
1.809666633605957,0.0,34.0,5.0,19.0,155.0,14.0
1.8109666109085083,5.0,36.0,18.0,15.0,46.0,7.0
1.8122667074203491,12.0,10.0,17.0,0.0,15.0,0.0
1.8135666847229004,17.0,20.0,15.0,25.0,38.0,5.0
1.8148666620254517,11.0,44.0,0.0,19.0,5.0,44.0
1.816166639328003,5.0,32.0,23.0,5.0,5.0,58.0
1.8174666166305542,10.0,20.0,36.0,15.0,26.0,10.0
1.818766713142395,14.0,25.0,21.0,25.0,17.0,5.0
1.8200666904449463,26.0,10.0,28.0,10.0,45.0,31.0
1.8213666677474976,28.0,19.0,33.0,6.0,43.0,28.0
1.8227167129516602,30.0,34.0,38.0,23.0,12.0,25.0
1.8240166902542114,5.0,26.0,17.0,25.0,39.0,33.0
1.8253166675567627,0.0,18.0,5.0,15.0,11.0,18.0
1.826616644859314,21.0,37.0,898.0,10.0,37.0,34.0
1.8279166221618652,5.0,22.0,895.0,5.0,25.0,50.0
1.829216718673706,23.0,8.0,18.0,9.0,17.0,30.0
1.8305166959762573,10.0,10.0,47.0,13.0,18.0,10.0
1.8318166732788086,0.0,0.0,0.0,13.0,26.0,11.0
1.8331166505813599,12.0,29.0,28.0,27.0,35.0,37.0
1.8344166278839111,25.0,31.0,24.0,41.0,30.0,18.0
1.835716724395752,21.0,21.0,20.0,38.0,5.0,0.0
1.8370167016983032,11.0,16.0,29.0,39.0,50.0,34.0
1.8383166790008545,0.0,11.0,12.0,26.0,53.0,11.0
1.8396832942962646,23.0,0.0,19.0,14.0,84.0,43.0
1.8409833908081055,15.0,50.0,26.0,10.0,38.0,15.0
1.8422833681106567,13.0,46.0,33.0,10.0,5.0,36.0
1.843583345413208,25.0,42.0,85.0,34.0,16.0,46.0
1.8448833227157593,5.0,19.0,61.0,17.0,11.0,16.0
1.8461833000183105,12.0,38.0,37.0,0.0,26.0,13.0
1.8474832773208618,5.0,186.0,55.0,15.0,19.0,21.0
1.8487833738327026,19.0,515.0,15.0,11.0,12.0,0.0
1.850083351135254,25.0,534.0,29.0,10.0,5.0,6.0
1.8513833284378052,30.0,36.0,40.0,18.0,17.0,24.0
1.8526833057403564,13.0,0.0,5.0,25.0,19.0,20.0
1.8539832830429077,12.0,42.0,15.0,31.0,35.0,5.0
1.8552833795547485,11.0,83.0,36.0,0.0,30.0,44.0
1.8566333055496216,0.0,69.0,42.0,33.0,25.0,38.0
1.8579332828521729,18.0,627.0,48.0,46.0,29.0,10.0
1.8592333793640137,35.0,313.0,66.0,13.0,61.0,5.0
1.860533356666565,45.0,0.0,44.0,0.0,58.0,32.0
1.8618333339691162,20.0,0.0,21.0,26.0,19.0,5.0
1.8631333112716675,9.0,40.0,5.0,28.0,15.0,15.0
1.8644332885742188,22.0,5.0,0.0,30.0,49.0,12.0
1.8657333850860596,0.0,20.0,9.0,22.0,41.0,0.0
1.8670333623886108,5.0,37.0,17.0,15.0,26.0,15.0
1.868333339691162,17.0,29.0,16.0,13.0,30.0,5.0
1.8696333169937134,25.0,34.0,12.0,11.0,15.0,24.0
1.8709332942962646,19.0,0.0,20.0,22.0,0.0,27.0
1.8722333908081055,22.0,18.0,21.0,29.0,5.0,34.0
1.8736000061035156,25.0,35.0,29.0,28.0,8.0,27.0
1.874899983406067,25.0,41.0,21.0,27.0,10.0,20.0
1.8761999607086182,5.0,0.0,13.0,8.0,16.0,28.0
1.877500057220459,20.0,15.0,42.0,0.0,20.0,19.0
1.8788000345230103,49.0,25.0,34.0,24.0,24.0,10.0
1.8801000118255615,46.0,36.0,25.0,16.0,16.0,19.0
1.8813999891281128,39.0,10.0,0.0,18.0,39.0,12.0
1.882699966430664,31.0,709.0,0.0,19.0,35.0,9.0
1.8839999437332153,26.0,767.0,5.0,31.0,30.0,5.0
1.8853000402450562,20.0,14.0,9.0,28.0,23.0,5.0
1.8866000175476074,22.0,18.0,7.0,0.0,16.0,15.0
1.8878999948501587,8.0,220.0,5.0,28.0,5.0,21.0
1.88919997215271,18.0,0.0,15.0,45.0,11.0,14.0
1.8905500173568726,21.0,5.0,15.0,12.0,17.0,6.0
1.8918499946594238,22.0,64.0,16.0,55.0,24.0,15.0
1.8931666612625122,23.0,369.0,13.0,10.0,23.0,24.0
1.8944499492645264,6.0,194.0,17.0,15.0,27.0,18.0
1.8957500457763672,10.0,19.0,20.0,0.0,26.0,19.0
1.8970667123794556,17.0,5.0,19.0,14.0,26.0,33.0
1.8983500003814697,23.0,954.0,18.0,28.0,27.0,30.0
1.899649977684021,46.0,726.0,38.0,36.0,16.0,27.0
1.9009499549865723,47.0,18.0,32.0,25.0,18.0,44.0
1.902250051498413,0.0,1360.0,25.0,13.0,10.0,27.0
1.9035500288009644,25.0,69.0,33.0,26.0,0.0,11.0
1.9048500061035156,11.0,18.0,12.0,25.0,7.0,29.0
1.906149983406067,13.0,44.0,27.0,32.0,14.0,20.0
1.9075167179107666,15.0,26.0,27.0,20.0,5.0,20.0
1.9088166952133179,28.0,5.0,24.0,8.0,5.0,10.0
1.9101166725158691,30.0,3.0,10.0,7.0,5.0,7.0
1.9114166498184204,32.0,0.0,11.0,5.0,18.0,11.0
1.9127166271209717,33.0,227.0,12.0,9.0,26.0,20.0
1.9140167236328125,30.0,131.0,12.0,22.0,25.0,20.0
1.9153167009353638,26.0,35.0,11.0,23.0,24.0,19.0
1.916616678237915,15.0,43.0,23.0,23.0,15.0,21.0
1.9179166555404663,10.0,27.0,39.0,20.0,8.0,15.0
1.9192166328430176,11.0,12.0,36.0,5.0,0.0,8.0
1.9205166101455688,11.0,26.0,32.0,15.0,21.0,44.0
1.9218167066574097,0.0,12.0,29.0,11.0,53.0,27.0
1.923116683959961,0.0,7.0,42.0,18.0,26.0,11.0
1.924466609954834,0.0,7.0,0.0,17.0,0.0,130.0
1.9257667064666748,0.0,15.0,23.0,31.0,11.0,76.0
1.927066683769226,12.0,23.0,16.0,27.0,10.0,22.0
1.9283666610717773,12.0,30.0,5.0,27.0,13.0,33.0
1.9296666383743286,11.0,45.0,11.0,38.0,35.0,12.0
1.9309666156768799,39.0,632.0,668.0,7.0,30.0,11.0
1.9322667121887207,32.0,489.0,345.0,5.0,0.0,10.0
1.933566689491272,10.0,93.0,22.0,11.0,5.0,10.0
1.9348666667938232,19.0,16.0,15.0,12.0,35.0,15.0
1.9361666440963745,12.0,538.0,55.0,10.0,219.0,13.0
1.9374666213989258,5.0,271.0,0.0,7.0,266.0,10.0
1.9387667179107666,28.0,5.0,8.0,11.0,68.0,13.0
1.9400666952133179,17.0,394.0,16.0,12.0,5.0,21.0
1.941433310508728,5.0,532.0,33.0,45.0,0.0,49.0
1.9427332878112793,14.0,5.0,33.0,36.0,14.0,53.0
1.9440333843231201,21.0,14.0,27.0,38.0,5.0,37.0
1.9453333616256714,20.0,437.0,24.0,37.0,8.0,27.0
1.9466333389282227,23.0,82.0,37.0,32.0,7.0,24.0
1.947933316230774,25.0,22.0,35.0,29.0,6.0,10.0
1.9492332935333252,20.0,54.0,5.0,25.0,3.0,5.0
1.950533390045166,15.0,59.0,5.0,31.0,0.0,5.0
1.9518333673477173,20.0,11.0,38.0,38.0,19.0,6.0
1.9531333446502686,31.0,13.0,16.0,41.0,38.0,6.0
1.9544333219528198,21.0,15.0,29.0,45.0,30.0,19.0
1.955733299255371,10.0,50.0,20.0,39.0,23.0,19.0
1.9570332765579224,38.0,47.0,18.0,33.0,0.0,18.0
1.958383321762085,25.0,45.0,15.0,5.0,22.0,13.0
1.9596832990646362,9.0,15.0,43.0,18.0,0.0,12.0
1.9609832763671875,15.0,27.0,43.0,31.0,26.0,38.0
1.9622833728790283,6.0,12.0,43.0,24.0,10.0,28.0
1.9635833501815796,3.0,22.0,22.0,43.0,21.0,18.0
1.9648833274841309,0.0,30.0,21.0,0.0,21.0,15.0
1.9661833047866821,5.0,41.0,11.0,16.0,0.0,24.0
1.9674832820892334,10.0,33.0,0.0,31.0,0.0,15.0
1.9687833786010742,8.0,25.0,16.0,54.0,13.0,5.0
1.9701000452041626,5.0,47.0,26.0,40.0,25.0,0.0
1.9714000225067139,10.0,11.0,36.0,12.0,23.0,51.0
1.9726999998092651,15.0,33.0,8.0,18.0,19.0,34.0
1.9739999771118164,16.0,13.0,10.0,20.0,17.0,18.0
1.9753166437149048,7.0,16.0,54.0,22.0,14.0,0.0
1.9766333103179932,17.0,19.0,38.0,19.0,15.0,36.0
1.9779332876205444,11.0,11.0,41.0,12.0,15.0,36.0
1.9792333841323853,5.0,50.0,33.0,76.0,8.0,27.0
1.9805333614349365,10.0,1255.0,11.0,64.0,0.0,19.0
1.9818166494369507,18.0,1110.0,11.0,53.0,8.0,0.0
1.983133316040039,25.0,22.0,10.0,49.0,16.0,58.0
1.9844332933425903,40.0,55.0,13.0,45.0,11.0,43.0
1.9857333898544312,54.0,53.0,15.0,18.0,16.0,0.0
1.9870333671569824,41.0,21.0,28.0,51.0,20.0,26.0
1.9883333444595337,20.0,26.0,29.0,19.0,30.0,10.0
1.9896166324615479,0.0,38.0,29.0,15.0,31.0,5.0
1.9909332990646362,5.0,19.0,13.0,79.0,31.0,8.0
1.9922666549682617,10.0,0.0,10.0,60.0,10.0,11.0
1.993566632270813,13.0,46.0,36.0,42.0,5.0,23.0
1.9948666095733643,21.0,0.0,25.0,43.0,7.0,21.0
1.996150016784668,28.0,28.0,17.0,45.0,24.0,19.0
1.9974666833877563,24.0,19.0,9.0,36.0,18.0,17.0
1.9987499713897705,0.0,49.0,24.0,27.0,12.0,19.0
