,335.2099914550781,336.2099914550781,337.2099914550781,338.2099914550781,339.2099914550781,340.2099914550781,341.2099914550781,342.2099914550781,343.2099914550781,344.2099914550781,345.2099914550781
5.702383518218994,24.0,20.0,37.0,15.0,10.0,5.0,0.0,20.0,57.0,30.0,38.0
5.704766750335693,11.0,26.0,43.0,12.0,55.0,10.0,27.0,1127.0,60.0,5.0,20.0
5.707149982452393,15.0,15.0,51.0,17.0,25.0,160.0,33.0,27.0,19.0,16.0,33.0
5.709533214569092,5.0,20.0,26.0,51.0,53.0,98.0,0.0,40.0,21.0,23.0,25.0
5.711916446685791,14.0,28.0,44.0,35.0,33.0,37.0,36.0,25.0,0.0,11.0,0.0
5.714300155639648,27.0,24.0,8.0,19.0,28.0,32.0,10.0,25.0,37.0,32.0,7.0
5.716683387756348,40.0,20.0,49.0,17.0,0.0,13.0,33.0,26.0,41.0,0.0,5.0
5.719133377075195,31.0,23.0,39.0,26.0,32.0,20.0,5.0,13.0,10.0,8.0,0.0
5.7215166091918945,18.0,38.0,29.0,24.0,23.0,18.0,11.0,28.0,22.0,15.0,3.0
5.723899841308594,40.0,0.0,55.0,22.0,14.0,12.0,18.0,38.0,41.0,11.0,6.0
5.726283550262451,25.0,5.0,20.0,26.0,11.0,26.0,51.0,29.0,11.0,7.0,10.0
5.72866678237915,9.0,12.0,38.0,20.0,8.0,24.0,34.0,38.0,21.0,11.0,11.0
5.73105001449585,25.0,40.0,50.0,18.0,4.0,22.0,16.0,34.0,0.0,15.0,37.0
5.733433246612549,20.0,31.0,20.0,21.0,0.0,22.0,16.0,12.0,14.0,16.0,28.0
5.7358832359313965,10.0,43.0,54.0,12.0,33.0,21.0,16.0,43.0,41.0,16.0,18.0
5.738266468048096,14.0,20.0,18.0,20.0,32.0,22.0,0.0,54.0,32.0,15.0,12.0
5.740650177001953,18.0,830.0,0.0,16.0,41.0,22.0,13.0,64.0,58.0,14.0,13.0
5.743033409118652,14.0,1105.0,12.0,12.0,16.0,32.0,26.0,22.0,5.0,16.0,12.0
5.745416641235352,10.0,6.0,14.0,53.0,0.0,32.0,47.0,23.0,0.0,15.0,10.0
5.747799873352051,21.0,31.0,7.0,38.0,10.0,33.0,52.0,78.0,18.0,14.0,24.0
5.75018310546875,33.0,16.0,0.0,23.0,8.0,19.0,20.0,24.0,16.0,13.0,23.0
5.752616882324219,43.0,8.0,11.0,10.0,0.0,16.0,20.0,0.0,14.0,12.0,22.0
5.755000114440918,65.0,17.0,14.0,30.0,22.0,28.0,15.0,21.0,11.0,12.0,14.0
5.757383346557617,63.0,14.0,10.0,24.0,39.0,48.0,22.0,27.0,22.0,12.0,5.0
5.759766578674316,35.0,11.0,7.0,18.0,50.0,49.0,25.0,29.0,34.0,21.0,14.0
5.762149810791016,77.0,13.0,17.0,32.0,37.0,10.0,15.0,36.0,27.0,21.0,22.0
5.764533519744873,66.0,14.0,16.0,27.0,21.0,21.0,12.0,37.0,15.0,20.0,31.0
5.766916751861572,15.0,17.0,15.0,21.0,18.0,18.0,6.0,42.0,7.0,13.0,40.0
5.76936674118042,36.0,14.0,14.0,48.0,5.0,43.0,0.0,56.0,0.0,35.0,50.0
5.771749973297119,34.0,10.0,13.0,58.0,15.0,37.0,5.0,10.0,25.0,38.0,8.0
5.774133205413818,17.0,17.0,21.0,16.0,27.0,31.0,12.0,29.0,20.0,7.0,13.0
5.776516437530518,27.0,25.0,27.0,5.0,22.0,11.0,10.0,27.0,14.0,39.0,17.0
5.778900146484375,11.0,54.0,26.0,0.0,17.0,12.0,8.0,0.0,16.0,15.0,5.0
5.781283378601074,21.0,47.0,26.0,0.0,12.0,23.0,16.0,25.0,6.0,10.0,12.0
5.783666610717773,18.0,44.0,22.0,0.0,14.0,44.0,17.0,401.0,14.0,91.0,19.0
5.786116600036621,15.0,5.0,19.0,3.0,15.0,28.0,15.0,206.0,22.0,52.0,0.0
5.78849983215332,30.0,12.0,21.0,5.0,5.0,12.0,0.0,10.0,41.0,12.0,26.0
5.790883541107178,37.0,11.0,23.0,13.0,13.0,36.0,16.0,9.0,50.0,21.0,24.0
5.793266773223877,44.0,12.0,26.0,22.0,20.0,23.0,17.0,15.0,42.0,0.0,21.0
5.795650005340576,5.0,9.0,18.0,16.0,5.0,10.0,18.0,0.0,6.0,3.0,28.0
5.798033237457275,15.0,6.0,10.0,11.0,5.0,0.0,10.0,10.0,5.0,5.0,0.0
5.800416469573975,0.0,17.0,41.0,0.0,8.0,16.0,11.0,15.0,39.0,33.0,42.0
5.802849769592285,0.0,17.0,33.0,3.0,10.0,14.0,12.0,43.0,31.0,54.0,28.0
5.805233478546143,0.0,16.0,26.0,5.0,17.0,12.0,0.0,50.0,28.0,37.0,11.0
5.807616710662842,8.0,8.0,22.0,5.0,24.0,19.0,14.0,0.0,28.0,32.0,12.0
5.810016632080078,15.0,0.0,0.0,5.0,41.0,48.0,30.0,13.0,27.0,0.0,0.0
5.81238317489624,37.0,0.0,32.0,7.0,23.0,41.0,27.0,34.0,27.0,32.0,3.0
5.814766883850098,59.0,0.0,22.0,8.0,5.0,50.0,29.0,30.0,19.0,31.0,5.0
5.817150115966797,95.0,0.0,35.0,11.0,40.0,37.0,32.0,20.0,5.0,39.0,38.0
5.8196001052856445,131.0,7.0,33.0,13.0,52.0,31.0,11.0,0.0,10.0,27.0,32.0
5.821983337402344,65.0,11.0,31.0,12.0,0.0,37.0,35.0,6.0,6.0,14.0,30.0
5.824366569519043,0.0,10.0,0.0,5.0,39.0,13.0,31.0,11.0,6.0,5.0,28.0
5.826749801635742,16.0,26.0,26.0,0.0,32.0,5.0,27.0,6.0,5.0,34.0,24.0
5.8291335105896,32.0,22.0,25.0,10.0,29.0,9.0,7.0,0.0,12.0,0.0,19.0
5.831516742706299,35.0,17.0,16.0,13.0,8.0,12.0,10.0,10.0,16.0,20.0,54.0
5.833899974822998,32.0,22.0,13.0,39.0,13.0,9.0,6.0,0.0,24.0,27.0,60.0
5.836349964141846,29.0,28.0,17.0,23.0,28.0,5.0,10.0,15.0,25.0,34.0,53.0
5.838733196258545,24.0,5.0,11.0,7.0,23.0,8.0,7.0,31.0,27.0,11.0,16.0
5.841116428375244,29.0,23.0,24.0,20.0,11.0,11.0,14.0,31.0,11.0,21.0,19.0
5.843500137329102,24.0,0.0,32.0,27.0,33.0,19.0,10.0,44.0,6.0,13.0,6.0
5.845883369445801,18.0,5.0,55.0,0.0,47.0,27.0,6.0,38.0,39.0,9.0,13.0
5.8482666015625,17.0,32.0,67.0,23.0,33.0,29.0,10.0,33.0,618.0,17.0,20.0
5.850649833679199,10.0,16.0,15.0,16.0,12.0,0.0,29.0,38.0,317.0,26.0,14.0
5.853099822998047,11.0,49.0,67.0,16.0,38.0,26.0,37.0,18.0,16.0,24.0,8.0
5.855483531951904,5.0,35.0,30.0,23.0,10.0,17.0,33.0,47.0,27.0,14.0,11.0
5.8578667640686035,7.0,18.0,20.0,29.0,41.0,19.0,9.0,35.0,661.0,15.0,14.0
5.860249996185303,15.0,32.0,0.0,35.0,20.0,13.0,6.0,24.0,561.0,16.0,5.0
5.862633228302002,23.0,36.0,47.0,12.0,13.0,19.0,26.0,26.0,2386.0,22.0,11.0
5.865016460418701,25.0,37.0,43.0,21.0,39.0,15.0,21.0,29.0,2073.0,64.0,17.0
5.867400169372559,11.0,10.0,64.0,42.0,35.0,12.0,16.0,16.0,2609.0,223.0,18.0
5.869816780090332,5.0,35.0,5.0,23.0,53.0,31.0,28.0,14.0,914.0,124.0,19.0
5.8722333908081055,0.0,6.0,51.0,5.0,42.0,34.0,20.0,11.0,695.0,25.0,12.0
5.874616622924805,10.0,0.0,60.0,43.0,58.0,25.0,5.0,17.0,1671.0,29.0,5.0
5.876999855041504,20.0,25.0,49.0,5.0,20.0,15.0,19.0,29.0,1825.0,34.0,29.0
5.879383563995361,23.0,15.0,31.0,22.0,21.0,16.0,219.0,22.0,2297.0,5.0,34.0
5.8817667961120605,0.0,5.0,13.0,39.0,0.0,17.0,125.0,14.0,550.0,16.0,29.0
5.88415002822876,37.0,42.0,32.0,6.0,18.0,17.0,31.0,7.0,1352.0,22.0,38.0
5.886533260345459,36.0,48.0,34.0,0.0,22.0,27.0,31.0,5.0,21.0,141.0,14.0
5.8889665603637695,36.0,36.0,17.0,23.0,27.0,20.0,31.0,22.0,1035.0,78.0,39.0
5.891349792480469,5.0,49.0,10.0,0.0,50.0,13.0,36.0,16.0,928.0,14.0,36.0
5.893733501434326,8.0,37.0,29.0,0.0,49.0,18.0,31.0,10.0,1707.0,17.0,34.0
5.896116733551025,53.0,43.0,0.0,12.0,14.0,5.0,26.0,34.0,38.0,15.0,19.0
5.898499965667725,36.0,0.0,3.0,18.0,21.0,5.0,38.0,284.0,18.0,10.0,19.0
5.900883197784424,7.0,10.0,5.0,24.0,17.0,28.0,13.0,534.0,999.0,32.0,14.0
5.90328311920166,17.0,12.0,14.0,21.0,13.0,33.0,5.0,1018.0,888.0,25.0,155.0
5.905716896057129,33.0,34.0,17.0,18.0,10.0,37.0,21.0,1531.0,851.0,17.0,91.0
5.908100128173828,36.0,17.0,11.0,31.0,56.0,42.0,20.0,1826.0,46.0,25.0,27.0
5.910483360290527,26.0,0.0,6.0,42.0,46.0,40.0,19.0,2120.0,996.0,5.0,38.0
5.912866592407227,10.0,7.0,0.0,53.0,36.0,45.0,26.0,851.0,55.0,51.0,66.0
5.915249824523926,0.0,0.0,25.0,10.0,13.0,5.0,33.0,2905.0,30.0,57.0,23.0
5.917633533477783,22.0,14.0,18.0,19.0,25.0,27.0,48.0,314.0,33.0,63.0,15.0
5.920016765594482,5.0,15.0,25.0,17.0,14.0,7.0,43.0,3099.0,379.0,54.0,34.0
5.92246675491333,27.0,16.0,20.0,42.0,17.0,27.0,18.0,889.0,195.0,47.0,39.0
5.924849987030029,12.0,20.0,27.0,35.0,20.0,14.0,16.0,4630.0,10.0,6.0,27.0
5.9272332191467285,9.0,24.0,19.0,38.0,25.0,0.0,27.0,3412.0,1184.0,28.0,26.0
5.929616451263428,5.0,0.0,12.0,20.0,10.0,21.0,16.0,1088.0,1158.0,34.0,26.0
5.932000160217285,19.0,19.0,12.0,32.0,0.0,20.0,5.0,845.0,1552.0,32.0,18.0
5.934383392333984,12.0,16.0,39.0,0.0,10.0,27.0,26.0,816.0,31.0,37.0,10.0
5.936766624450684,5.0,12.0,40.0,15.0,10.0,18.0,0.0,1065.0,20.0,41.0,6.0
5.939199924468994,8.0,36.0,11.0,33.0,11.0,10.0,15.0,482.0,17.0,27.0,8.0
5.941583156585693,11.0,18.0,41.0,12.0,11.0,32.0,20.0,714.0,20.0,12.0,9.0
5.943966865539551,18.0,0.0,41.0,14.0,11.0,14.0,26.0,946.0,0.0,29.0,10.0
5.94635009765625,26.0,26.0,0.0,16.0,51.0,8.0,30.0,5.0,18.0,32.0,10.0
5.948733329772949,0.0,19.0,41.0,15.0,160.0,75.0,34.0,48.0,8.0,41.0,21.0
5.951116561889648,7.0,12.0,34.0,17.0,98.0,38.0,34.0,678.0,4.0,32.0,33.0
5.953499794006348,13.0,421.0,27.0,1232.0,36.0,0.0,660.0,51.0,0.0,57.0,134.0
5.955949783325195,14.0,306.0,16.0,2657.0,2110.0,149.0,1286.0,13.0,23.0,52.0,82.0
5.958333492279053,15.0,190.0,2818.0,4750.0,2065.0,3627.0,956.0,1466.0,889.0,47.0,30.0
5.960716724395752,17.0,2644.0,3058.0,4962.0,2774.0,4289.0,627.0,2118.0,1507.0,76.0,27.0
5.963099956512451,10.0,6320.0,7176.0,11416.0,8304.0,3950.0,6123.0,1368.0,1638.0,58.0,19.0
5.96548318862915,8.0,5512.0,13748.0,13060.0,12700.0,8184.0,10812.0,2381.0,1770.0,40.0,5.0
5.967866897583008,5.0,11116.0,24060.0,16000.0,16596.0,12944.0,16524.0,3394.0,4041.0,2890.0,729.0
5.970250129699707,3.0,21856.0,39584.0,35264.0,28652.0,21396.0,20800.0,8844.0,8384.0,2316.0,1518.0
5.972700119018555,0.0,23940.0,40128.0,50576.0,39632.0,40672.0,27832.0,10184.0,6889.0,5092.0,1136.0
5.975083351135254,41.0,38928.0,71168.0,54784.0,54752.0,42000.0,32652.0,17764.0,9536.0,4204.0,755.0
5.977466583251953,38.0,59808.0,100848.0,83984.0,88544.0,54016.0,43200.0,19196.0,8660.0,5752.0,3136.0
5.979849815368652,36.0,55808.0,100352.0,100624.0,91216.0,81760.0,58704.0,34448.0,14856.0,5649.0,4773.0
5.98223352432251,28.0,72928.0,150528.0,135616.0,110144.0,76816.0,85088.0,35856.0,20644.0,14428.0,4501.0
5.984616756439209,21.0,98992.0,189696.0,164672.0,137536.0,90912.0,84464.0,38208.0,24184.0,14220.0,5560.0
5.986999988555908,27.0,121216.0,233408.0,184640.0,150208.0,132672.0,100384.0,43984.0,28456.0,8804.0,3540.0
5.989449977874756,32.0,134464.0,231488.0,237056.0,188352.0,160000.0,99552.0,49776.0,30460.0,16880.0,4371.0
5.991833209991455,27.0,151872.0,238272.0,218944.0,195648.0,165632.0,99968.0,69392.0,32076.0,15376.0,5203.0
5.994216442108154,21.0,154368.0,244800.0,260672.0,221440.0,161600.0,100400.0,64672.0,32896.0,22292.0,4133.0
5.996600151062012,56.0,155136.0,257344.0,288000.0,206912.0,166592.0,104640.0,73632.0,33712.0,18708.0,5022.0
5.998983383178711,60.0,155840.0,269888.0,288256.0,228864.0,160448.0,108896.0,50160.0,32928.0,13124.0,5911.0
6.00136661529541,42.0,161664.0,263552.0,228800.0,193152.0,156864.0,104688.0,69120.0,32140.0,9868.0,3073.0
6.003749847412109,50.0,160640.0,257280.0,248640.0,171392.0,135040.0,100480.0,56592.0,25096.0,5283.0,3236.0
6.006149768829346,52.0,152320.0,244800.0,200704.0,170944.0,127936.0,90368.0,67664.0,27144.0,8704.0,4183.0
6.008533477783203,33.0,101904.0,227776.0,185472.0,165376.0,121408.0,92368.0,47792.0,28772.0,3902.0,4787.0
6.010916709899902,36.0,126112.0,199744.0,159104.0,133696.0,123088.0,79872.0,40912.0,21684.0,7061.0,6816.0
6.013299942016602,11.0,105872.0,158144.0,155264.0,111584.0,94816.0,61744.0,30920.0,12208.0,7184.0,1028.0
6.015683174133301,20.0,78032.0,147008.0,124496.0,97856.0,72592.0,50608.0,33632.0,20048.0,7989.0,457.0
6.018066883087158,37.0,72448.0,116064.0,104672.0,85552.0,63184.0,37936.0,16704.0,10172.0,5342.0,2021.0
6.020450115203857,25.0,58016.0,84976.0,81680.0,77568.0,54128.0,37808.0,19456.0,10736.0,5269.0,1352.0
6.022900104522705,0.0,53152.0,67264.0,77312.0,35696.0,43504.0,14868.0,13076.0,5067.0,3373.0,1074.0
6.025283336639404,3.0,30804.0,49024.0,34240.0,40560.0,23736.0,19992.0,7629.0,3060.0,3064.0,283.0
6.0276665687561035,5.0,24264.0,34048.0,47520.0,22480.0,22028.0,19580.0,7205.0,1260.0,749.0,981.0
6.030049800872803,59.0,16552.0,27056.0,31628.0,22336.0,16208.0,11676.0,10340.0,1780.0,2089.0,5.0
6.03243350982666,60.0,19956.0,22528.0,20428.0,17192.0,16568.0,8904.0,3681.0,1662.0,695.0,20.0
6.034816741943359,60.0,16216.0,15356.0,18788.0,17316.0,5186.0,4711.0,2173.0,1487.0,10.0,0.0
6.037199974060059,27.0,3987.0,13964.0,15368.0,13588.0,5530.0,3462.0,2723.0,1312.0,31.0,66.0
6.039633274078369,55.0,7424.0,12828.0,11940.0,7577.0,4247.0,54.0,2272.0,0.0,223.0,990.0
6.042016506195068,8.0,5488.0,10660.0,5430.0,3228.0,6125.0,2870.0,2026.0,1775.0,824.0,981.0
6.044400215148926,51.0,1691.0,10224.0,7132.0,7866.0,8002.0,3322.0,597.0,902.0,426.0,24.0
6.046783447265625,30.0,1936.0,10964.0,3360.0,3742.0,2045.0,1742.0,1822.0,29.0,28.0,291.0
6.049183368682861,26.0,3365.0,4716.0,5890.0,903.0,846.0,1329.0,605.0,1051.0,64.0,495.0
6.051549911499023,20.0,1860.0,5593.0,4289.0,2758.0,781.0,916.0,1194.0,1558.0,50.0,19.0
6.05394983291626,13.0,607.0,1763.0,3542.0,2371.0,835.0,2614.0,1299.0,1025.0,52.0,43.0
6.05638313293457,17.0,1590.0,1088.0,3092.0,3493.0,669.0,2975.0,79.0,1002.0,54.0,29.0
6.058766841888428,39.0,1429.0,4896.0,2546.0,4101.0,503.0,1820.0,800.0,1038.0,42.0,14.0
6.061150074005127,46.0,1268.0,2508.0,1479.0,1723.0,882.0,1171.0,37.0,30.0,10.0,31.0
6.063533306121826,15.0,1809.0,3189.0,4313.0,3438.0,1261.0,28.0,789.0,664.0,27.0,10.0
6.065916538238525,23.0,1700.0,4433.0,3412.0,3701.0,1227.0,31.0,323.0,706.0,41.0,44.0
6.068299770355225,0.0,1592.0,3750.0,1128.0,2120.0,807.0,665.0,359.0,20.0,33.0,32.0
6.070683479309082,10.0,883.0,1514.0,646.0,3300.0,476.0,1034.0,395.0,140.0,25.0,53.0
6.073116779327393,28.0,469.0,3261.0,2794.0,2607.0,1948.0,1403.0,206.0,26.0,29.0,10.0
6.075516700744629,0.0,443.0,2527.0,2694.0,17.0,1791.0,465.0,16.0,17.0,33.0,41.0
6.077899932861328,17.0,417.0,1515.0,2240.0,137.0,1633.0,1534.0,960.0,14.0,34.0,38.0
6.080283164978027,5.0,1313.0,1969.0,211.0,1580.0,2731.0,18.0,663.0,11.0,35.0,34.0
6.082666873931885,24.0,1172.0,2235.0,865.0,2982.0,473.0,852.0,366.0,29.0,35.0,19.0
6.085050106048584,43.0,1778.0,2500.0,1402.0,1857.0,712.0,2059.0,261.0,37.0,33.0,5.0
6.087433338165283,45.0,1175.0,2268.0,23.0,21.0,2047.0,41.0,910.0,21.0,32.0,13.0
6.089816570281982,17.0,612.0,2148.0,915.0,22.0,2382.0,25.0,6.0,5.0,30.0,18.0
6.09226655960083,25.0,50.0,2790.0,1807.0,1171.0,61.0,6.0,16.0,34.0,28.0,22.0
6.094649791717529,32.0,1014.0,1403.0,462.0,457.0,932.0,16.0,697.0,34.0,13.0,19.0
6.097033500671387,291.0,636.0,658.0,35.0,1840.0,911.0,18.0,17.0,35.0,54.0,41.0
6.099416732788086,157.0,11.0,32.0,835.0,1365.0,889.0,12.0,629.0,42.0,58.0,44.0
6.101799964904785,24.0,382.0,382.0,1328.0,1024.0,5.0,5.0,1092.0,50.0,44.0,47.0
6.104183197021484,25.0,576.0,732.0,1907.0,49.0,1327.0,748.0,50.0,8.0,25.0,26.0
6.106566429138184,12.0,1978.0,1044.0,8.0,255.0,863.0,394.0,81.0,14.0,5.0,5.0
6.1090168952941895,5.0,2235.0,1227.0,894.0,1517.0,751.0,40.0,5.0,14.0,34.0,34.0
6.111400127410889,7.0,26.0,1409.0,848.0,994.0,19.0,48.0,36.0,14.0,8.0,84.0
6.113783359527588,35.0,79.0,45.0,441.0,105.0,559.0,36.0,39.0,15.0,26.0,57.0
6.116166591644287,25.0,1027.0,650.0,0.0,881.0,57.0,25.0,42.0,16.0,5.0,30.0
6.118549823760986,15.0,40.0,61.0,1088.0,681.0,39.0,12.0,0.0,8.0,11.0,13.0
6.120933532714844,35.0,552.0,538.0,606.0,738.0,685.0,0.0,36.0,0.0,17.0,0.0
6.123316764831543,6.0,27.0,29.0,124.0,795.0,34.0,7.0,42.0,16.0,28.0,20.0
6.125766754150391,24.0,23.0,102.0,16.0,56.0,20.0,21.0,14.0,12.0,14.0,15.0
6.12814998626709,37.0,20.0,58.0,7.0,17.0,27.0,35.0,20.0,6.0,0.0,9.0
6.130533218383789,19.0,16.0,37.0,13.0,18.0,53.0,47.0,26.0,0.0,26.0,0.0
6.132916450500488,17.0,12.0,15.0,17.0,33.0,27.0,0.0,32.0,20.0,28.0,3.0
6.135300159454346,19.0,38.0,8.0,20.0,14.0,0.0,35.0,24.0,15.0,31.0,5.0
6.137683391571045,30.0,206.0,0.0,140.0,10.0,15.0,37.0,16.0,10.0,31.0,10.0
6.140066623687744,28.0,375.0,148.0,70.0,5.0,31.0,18.0,36.0,17.0,32.0,15.0
6.142499923706055,26.0,444.0,94.0,0.0,10.0,37.0,46.0,45.0,25.0,11.0,41.0
6.144883155822754,21.0,15.0,41.0,242.0,22.0,43.0,13.0,55.0,30.0,36.0,32.0
6.147266864776611,25.0,0.0,23.0,138.0,35.0,20.0,12.0,31.0,36.0,22.0,24.0
6.1496500968933105,29.0,51.0,5.0,35.0,1524.0,13.0,11.0,11.0,17.0,9.0,10.0
6.15203332901001,5.0,156.0,351.0,25.0,1397.0,5.0,8.0,38.0,12.0,8.0,28.0
6.154416561126709,12.0,98.0,697.0,14.0,18.0,24.0,35.0,41.0,7.0,60.0,16.0
6.156799793243408,32.0,41.0,950.0,1158.0,19.0,37.0,45.0,45.0,24.0,37.0,5.0
6.15921688079834,0.0,557.0,34.0,1064.0,38.0,51.0,56.0,5.0,20.0,14.0,19.0
6.161600112915039,15.0,291.0,5.0,157.0,19.0,6.0,0.0,38.0,16.0,18.0,12.0
6.163983345031738,0.0,26.0,771.0,5.0,0.0,44.0,14.0,10.0,29.0,27.0,23.0
6.1663665771484375,0.0,36.0,47.0,1013.0,9.0,16.0,0.0,16.0,0.0,7.0,22.0
6.168749809265137,15.0,30.0,40.0,577.0,10.0,19.0,271.0,37.0,8.0,15.0,21.0
6.171133518218994,30.0,25.0,65.0,33.0,10.0,42.0,196.0,19.0,16.0,24.0,40.0
6.173516750335693,33.0,37.0,12.0,44.0,22.0,15.0,121.0,20.0,17.0,21.0,0.0
6.175966739654541,10.0,1651.0,9.0,53.0,19.0,13.0,5.0,20.0,6.0,18.0,39.0
6.17834997177124,12.0,1845.0,6.0,14.0,5.0,10.0,5.0,27.0,20.0,16.0,37.0
6.1807332038879395,13.0,604.0,15.0,15.0,17.0,59.0,18.0,23.0,15.0,40.0,25.0
6.183116436004639,23.0,44.0,25.0,18.0,29.0,50.0,14.0,19.0,16.0,29.0,55.0
6.185500144958496,20.0,457.0,40.0,18.0,22.0,25.0,10.0,0.0,16.0,17.0,9.0
6.187883377075195,16.0,27.0,29.0,17.0,15.0,330.0,24.0,8.0,18.0,6.0,55.0
6.1902666091918945,18.0,21.0,11.0,31.0,17.0,178.0,15.0,15.0,39.0,6.0,7.0
6.192716598510742,25.0,81.0,44.0,45.0,18.0,26.0,5.0,7.0,29.0,0.0,7.0
6.195099830627441,32.0,7.0,42.0,171.0,26.0,14.0,25.0,30.0,18.0,23.0,7.0
6.197483539581299,5.0,39.0,40.0,122.0,24.0,20.0,39.0,23.0,15.0,45.0,7.0
