,289.1099853515625,290.1099853515625,291.1099853515625,292.1099853515625,293.1099853515625,294.1099853515625
2.551300048828125,30.0,68.0,2707.0,1049.0,60.0,14.0
2.5525999069213867,32.0,849.0,1817.0,2111.0,357.0,34.0
2.5539000034332275,24.0,1406.0,1556.0,2014.0,28.0,55.0
2.5552000999450684,23.0,705.0,1667.0,1359.0,1451.0,30.0
2.55649995803833,32.0,5.0,1778.0,672.0,1109.0,26.0
2.557800054550171,25.0,950.0,1424.0,774.0,1542.0,32.0
2.5590999126434326,18.0,2015.0,1071.0,2443.0,1842.0,29.0
2.5604000091552734,25.0,2401.0,1343.0,1647.0,72.0,27.0
2.5617001056671143,33.0,2860.0,1616.0,850.0,38.0,207.0
2.562999963760376,57.0,3014.0,1896.0,2547.0,1596.0,135.0
2.564300060272217,66.0,1078.0,1691.0,47.0,2046.0,63.0
2.5655999183654785,76.0,1299.0,1487.0,1501.0,2960.0,47.0
2.5669000148773193,49.0,941.0,3753.0,2568.0,1021.0,59.0
2.5682666301727295,23.0,1267.0,6019.0,1319.0,1398.0,52.0
2.5695667266845703,44.0,1151.0,4738.0,3075.0,3728.0,31.0
2.570866584777832,22.0,1035.0,1204.0,978.0,362.0,11.0
2.572166681289673,26.0,3787.0,412.0,3043.0,1945.0,1365.0
2.5734667778015137,40.0,3283.0,4098.0,2099.0,936.0,1210.0
2.5747666358947754,33.0,2779.0,2278.0,762.0,282.0,289.0
2.576066732406616,37.0,1593.0,3564.0,2603.0,24.0,781.0
2.577366590499878,38.0,668.0,2071.0,2002.0,1189.0,84.0
2.5786666870117188,31.0,1829.0,1805.0,1540.0,2034.0,25.0
2.5799667835235596,32.0,2760.0,4107.0,1078.0,3018.0,714.0
2.5812666416168213,33.0,3629.0,2721.0,1582.0,2768.0,13.0
2.582566738128662,17.0,1991.0,1335.0,2050.0,1466.0,1190.0
2.583866596221924,10.0,3410.0,5542.0,2370.0,1703.0,742.0
2.585216760635376,21.0,2164.0,4479.0,296.0,2627.0,1325.0
2.5865166187286377,29.0,2082.0,4132.0,3246.0,713.0,629.0
2.5878167152404785,30.0,2275.0,3003.0,2203.0,2469.0,683.0
2.5891165733337402,0.0,1855.0,3793.0,625.0,1008.0,47.0
2.590416669845581,16.0,1436.0,3103.0,3838.0,3067.0,30.0
2.591716766357422,16.0,2101.0,3670.0,1491.0,2540.0,33.0
2.5930166244506836,20.0,2767.0,4079.0,1611.0,1096.0,39.0
2.5943167209625244,16.0,2356.0,4487.0,1266.0,29.0,22.0
2.595616579055786,12.0,1944.0,5165.0,1071.0,1042.0,356.0
2.596916675567627,17.0,1835.0,1449.0,751.0,250.0,194.0
2.5982167720794678,17.0,1726.0,941.0,2629.0,1517.0,32.0
2.5995166301727295,16.0,898.0,3252.0,2354.0,1257.0,327.0
2.6008167266845703,0.0,2439.0,1636.0,1423.0,997.0,87.0
2.6021833419799805,2.0,3011.0,2157.0,1663.0,628.0,40.0
2.6034834384918213,5.0,1160.0,2678.0,1904.0,441.0,0.0
2.604783296585083,16.0,1295.0,2166.0,1949.0,253.0,69.0
2.606083393096924,27.0,1412.0,1260.0,1995.0,577.0,138.0
2.6073832511901855,35.0,4736.0,2135.0,759.0,900.0,71.0
2.6086833477020264,11.0,4387.0,1451.0,2060.0,1058.0,5.0
2.609983444213867,45.0,1430.0,741.0,2530.0,1215.0,8.0
2.611283302307129,58.0,2674.0,31.0,1336.0,1356.0,12.0
2.6125833988189697,49.0,2985.0,2216.0,1122.0,292.0,6.0
2.6138832569122314,36.0,3009.0,2089.0,4221.0,374.0,0.0
2.6151833534240723,59.0,1796.0,1963.0,4012.0,457.0,12.0
2.616483449935913,12.0,1096.0,1373.0,980.0,1358.0,24.0
2.617783308029175,59.0,2639.0,1266.0,4131.0,701.0,551.0
2.619149923324585,41.0,1857.0,2912.0,2933.0,43.0,1077.0
2.620450019836426,24.0,682.0,1693.0,487.0,2183.0,589.0
2.6217501163482666,11.0,3616.0,475.0,681.0,1921.0,101.0
2.6230499744415283,27.0,4038.0,2449.0,1079.0,5.0,1388.0
2.624350070953369,5.0,1538.0,993.0,53.0,1427.0,466.0
2.625649929046631,34.0,731.0,1227.0,22.0,659.0,0.0
2.6269500255584717,34.0,716.0,1462.0,292.0,406.0,746.0
2.6282498836517334,34.0,1946.0,26.0,300.0,1021.0,37.0
2.629549980163574,37.0,2413.0,988.0,308.0,895.0,906.0
2.630850076675415,5.0,1345.0,1107.0,366.0,470.0,709.0
2.6321499347686768,15.0,1689.0,53.0,1541.0,45.0,512.0
2.6334500312805176,42.0,1505.0,663.0,1437.0,25.0,341.0
2.6347498893737793,24.0,1123.0,741.0,35.0,1277.0,947.0
2.6361000537872314,5.0,741.0,852.0,1803.0,1115.0,957.0
2.637399911880493,12.0,390.0,964.0,602.0,1453.0,649.0
2.638716697692871,20.0,39.0,1752.0,2067.0,1004.0,311.0
2.640000104904175,12.0,1129.0,1614.0,3169.0,284.0,791.0
2.6412999629974365,5.0,2219.0,1783.0,2275.0,12.0,577.0
2.6426167488098145,17.0,2818.0,2263.0,2689.0,522.0,22.0
2.643899917602539,30.0,1232.0,2421.0,2078.0,1032.0,352.0
2.64520001411438,23.0,3417.0,2137.0,1575.0,1005.0,683.0
2.6465001106262207,28.0,3563.0,1852.0,573.0,1542.0,38.0
2.6477999687194824,34.0,2014.0,20.0,1244.0,12.0,60.0
2.6491000652313232,40.0,2696.0,791.0,1016.0,530.0,47.0
2.650399923324585,217.0,1361.0,776.0,25.0,1048.0,34.0
2.651700019836426,111.0,1120.0,405.0,17.0,23.0,88.0
2.653066635131836,5.0,878.0,388.0,40.0,59.0,752.0
2.6543667316436768,137.0,961.0,371.0,296.0,95.0,1084.0
2.6556665897369385,270.0,1267.0,337.0,553.0,146.0,1518.0
2.6569666862487793,495.0,1395.0,302.0,354.0,197.0,41.0
2.65826678276062,720.0,1524.0,5.0,155.0,103.0,41.0
2.659566640853882,1557.0,1633.0,105.0,544.0,10.0,1194.0
2.6608667373657227,2954.0,1743.0,56.0,0.0,16.0,701.0
2.6621665954589844,3005.0,1333.0,6.0,638.0,51.0,207.0
2.663466691970825,11.0,923.0,18.0,1276.0,1254.0,1722.0
2.664766550064087,424.0,1510.0,38.0,1056.0,1479.0,1358.0
2.6660666465759277,1591.0,624.0,434.0,69.0,28.0,2560.0
2.6673667430877686,333.0,583.0,217.0,1471.0,72.0,169.0
2.6686666011810303,492.0,574.0,0.0,501.0,23.0,49.0
2.6700332164764404,574.0,686.0,333.0,45.0,11.0,2025.0
2.6713333129882812,1317.0,1072.0,194.0,707.0,322.0,32.0
2.672633409500122,1706.0,1023.0,54.0,1055.0,633.0,1191.0
2.673933267593384,119.0,933.0,46.0,5.0,423.0,29.0
2.6752333641052246,1201.0,6.0,35.0,618.0,21.0,1526.0
2.6765332221984863,854.0,809.0,24.0,8.0,53.0,18.0
2.677833318710327,433.0,35.0,65.0,26.0,32.0,595.0
2.679133415222168,12.0,1221.0,32.0,13.0,51.0,315.0
2.6804332733154297,504.0,1006.0,0.0,52.0,33.0,35.0
2.6817333698272705,996.0,21.0,13.0,43.0,46.0,41.0
2.6830332279205322,500.0,484.0,25.0,47.0,26.0,925.0
2.684333324432373,5.0,245.0,25.0,50.0,1740.0,1035.0
2.685633420944214,646.0,5.0,24.0,44.0,1444.0,540.0
2.686983346939087,559.0,565.0,5.0,28.0,10.0,777.0
2.6882834434509277,472.0,304.0,20.0,12.0,0.0,391.0
2.6895833015441895,709.0,43.0,36.0,48.0,1923.0,5.0
2.6908833980560303,729.0,360.0,2263.0,37.0,35.0,26.0
2.692183256149292,906.0,759.0,2372.0,26.0,19.0,18.0
2.693483352661133,1084.0,667.0,806.0,20.0,38.0,47.0
2.6947834491729736,943.0,725.0,53.0,8.0,21.0,31.0
2.6960833072662354,622.0,782.0,909.0,24.0,5.0,15.0
2.697383403778076,875.0,18.0,70.0,14.0,1411.0,21.0
2.698683261871338,1115.0,21.0,26.0,5.0,1127.0,39.0
2.700000047683716,1355.0,21.0,19.0,0.0,21.0,39.0
2.7012832164764404,363.0,21.0,164.0,28.0,39.0,38.0
2.7025833129882812,1212.0,423.0,412.0,25.0,57.0,1429.0
2.7039499282836914,2060.0,414.0,309.0,22.0,23.0,1146.0
2.7052500247955322,2627.0,406.0,207.0,50.0,11.0,58.0
2.706549882888794,2013.0,666.0,5.0,395.0,14.0,730.0
2.7078499794006348,44.0,13.0,31.0,216.0,45.0,890.0
2.7091500759124756,20.0,941.0,43.0,36.0,30.0,515.0
2.7104499340057373,395.0,787.0,33.0,23.0,15.0,14.0
2.711750030517578,317.0,993.0,23.0,241.0,11.0,37.0
2.71304988861084,240.0,825.0,28.0,38.0,24.0,60.0
2.7143499851226807,139.0,1307.0,34.0,26.0,37.0,30.0
2.7156500816345215,39.0,1788.0,340.0,50.0,43.0,23.0
2.716949939727783,1715.0,180.0,170.0,36.0,49.0,297.0
2.718250036239624,1466.0,1397.0,0.0,15.0,33.0,179.0
2.7195498943328857,1322.0,14.0,48.0,46.0,16.0,61.0
2.720916748046875,932.0,16.0,10.0,41.0,13.0,56.0
2.7222166061401367,542.0,55.0,20.0,36.0,10.0,32.0
2.7235167026519775,1170.0,6.0,22.0,6.0,251.0,22.0
2.7248165607452393,1055.0,33.0,23.0,39.0,134.0,13.0
2.72611665725708,941.0,1167.0,24.0,50.0,18.0,66.0
2.727416753768921,481.0,874.0,28.0,165.0,0.0,44.0
2.7287166118621826,22.0,580.0,287.0,281.0,41.0,21.0
2.7300167083740234,163.0,10.0,546.0,447.0,278.0,25.0
2.731316566467285,304.0,1333.0,783.0,659.0,336.0,29.0
2.732616662979126,611.0,2913.0,1020.0,1684.0,394.0,1733.0
2.733916759490967,919.0,3172.0,2732.0,3106.0,1572.0,1377.0
2.7352166175842285,4261.0,2703.0,5963.0,5036.0,2750.0,1021.0
2.7365167140960693,3836.0,5347.0,6948.0,5665.0,2946.0,1677.0
2.7378666400909424,1014.0,12188.0,14356.0,8744.0,3925.0,1132.0
2.739166736602783,1192.0,17484.0,23448.0,13604.0,8332.0,2165.0
2.740466594696045,880.0,22544.0,24960.0,16700.0,12744.0,3199.0
2.7417666912078857,1289.0,31024.0,37776.0,23292.0,15460.0,5315.0
2.7430665493011475,1245.0,34544.0,51040.0,28996.0,17680.0,12256.0
2.7443666458129883,25.0,52064.0,69552.0,48816.0,39296.0,17556.0
2.745666742324829,42.0,62720.0,89504.0,55792.0,45616.0,13284.0
2.746966600418091,25.0,56528.0,121552.0,69712.0,47216.0,17496.0
2.7482666969299316,798.0,86736.0,127328.0,77760.0,50864.0,20492.0
2.7495665550231934,458.0,130128.0,161152.0,108960.0,58096.0,22768.0
2.750866651535034,117.0,142016.0,219456.0,133120.0,108240.0,29468.0
2.752166748046875,888.0,156864.0,256768.0,158144.0,126784.0,30008.0
2.7534666061401367,396.0,229824.0,280064.0,191872.0,136640.0,34032.0
2.754833221435547,674.0,223296.0,351040.0,195392.0,162496.0,38064.0
2.7561333179473877,774.0,326656.0,436096.0,238400.0,173568.0,55200.0
2.7574334144592285,89.0,356160.0,452544.0,298240.0,226048.0,59104.0
2.7587332725524902,391.0,352704.0,538880.0,285632.0,215616.0,72064.0
2.760033369064331,870.0,429696.0,639744.0,329600.0,241152.0,82000.0
2.7613332271575928,62.0,463424.0,664064.0,391104.0,296896.0,85968.0
2.7626333236694336,56.0,542464.0,724480.0,428032.0,290560.0,93376.0
2.7639334201812744,51.0,559616.0,795392.0,511680.0,320192.0,117760.0
2.765233278274536,94.0,680448.0,882944.0,469760.0,336960.0,114128.0
2.766533374786377,707.0,708352.0,939264.0,533504.0,398528.0,97040.0
2.7678332328796387,1321.0,641280.0,1022976.0,589568.0,423808.0,132480.0
2.7691333293914795,1699.0,754432.0,1180160.0,681216.0,432960.0,129296.0
2.7704334259033203,1539.0,805888.0,1206016.0,621824.0,478784.0,153408.0
2.7718000411987305,1379.0,887808.0,1288704.0,657408.0,488000.0,126400.0
2.773099899291992,65.0,889856.0,1239808.0,754176.0,546048.0,159488.0
2.774399995803833,130.0,971520.0,1303296.0,751872.0,558592.0,141952.0
2.775700092315674,1069.0,1005824.0,1362688.0,785920.0,566016.0,176768.0
2.7769999504089355,179.0,1041408.0,1447424.0,833792.0,570880.0,164800.0
2.7783000469207764,212.0,1095424.0,1454592.0,836608.0,631296.0,185408.0
2.779599905014038,1245.0,1178112.0,1471232.0,839424.0,630784.0,178496.0
2.780900001525879,936.0,1148416.0,1561344.0,865024.0,646912.0,214592.0
2.7822000980377197,627.0,1175552.0,1657856.0,888064.0,649984.0,205952.0
2.7834999561309814,138.0,1169152.0,1746944.0,911104.0,653056.0,208384.0
2.7848000526428223,125.0,1162496.0,1721600.0,943104.0,623616.0,184960.0
2.786099910736084,146.0,1326848.0,1828352.0,1060352.0,762624.0,234112.0
2.787400007247925,148.0,1330432.0,1909504.0,1019392.0,819712.0,238016.0
2.788766622543335,151.0,1473536.0,1970176.0,1037824.0,792832.0,253120.0
2.7900500297546387,425.0,1486848.0,1994240.0,1172480.0,800768.0,243904.0
2.7913498878479004,698.0,1521408.0,2147328.0,1135616.0,803584.0,255552.0
2.792649984359741,1031.0,1493760.0,2123776.0,1173504.0,826112.0,269632.0
2.793950080871582,1227.0,1671168.0,2271232.0,1255680.0,848384.0,288192.0
2.7952499389648438,158.0,1722368.0,2206720.0,1270528.0,872192.0,227072.0
2.7965500354766846,1492.0,1643008.0,2143232.0,1208832.0,856576.0,249088.0
2.7978498935699463,649.0,1641472.0,2273280.0,1249792.0,925440.0,289920.0
2.799149990081787,612.0,1637376.0,2317312.0,1274624.0,961280.0,269184.0
2.800450086593628,300.0,1622784.0,2435072.0,1299456.0,920320.0,276928.0
2.8017666339874268,518.0,1662208.0,2438144.0,1311488.0,929792.0,293696.0
2.8030500411987305,370.0,1701632.0,2461696.0,1323520.0,964608.0,283264.0
2.804349899291992,223.0,1745664.0,2472960.0,1409280.0,959744.0,263808.0
2.8057167530059814,213.0,1789696.0,2484224.0,1417728.0,955136.0,303936.0
2.807016611099243,203.0,1747712.0,2403328.0,1340928.0,976640.0,297536.0
2.808316707611084,101.0,1766144.0,2403328.0,1373696.0,969984.0,304960.0
2.8096165657043457,315.0,1784320.0,2402304.0,1293824.0,963584.0,289280.0
2.8109166622161865,881.0,1788416.0,2441216.0,1475584.0,1005568.0,291072.0
2.8122167587280273,1007.0,1792512.0,2480128.0,1422592.0,987904.0,240384.0
2.813516616821289,1176.0,1830656.0,2461696.0,1414656.0,969984.0,299008.0
2.81481671333313,219.0,1857792.0,2491392.0,1452032.0,969216.0,274304.0
2.8161165714263916,208.0,1892608.0,2489344.0,1366016.0,906752.0,272960.0
2.8174166679382324,1572.0,1846528.0,2487296.0,1461760.0,1011712.0,292032.0
2.8187167644500732,881.0,1911552.0,2521088.0,1291264.0,952064.0,237312.0
2.820016622543335,1110.0,1810944.0,2443264.0,1323776.0,929024.0,254656.0
2.821316719055176,241.0,1835008.0,2400256.0,1386496.0,1012992.0,295680.0
2.822683334350586,550.0,1710336.0,2515968.0,1271808.0,945920.0,287552.0
2.8239834308624268,813.0,1814784.0,2454528.0,1406464.0,990208.0,299776.0
2.8252832889556885,273.0,1775616.0,2416640.0,1339648.0,896256.0,293312.0
2.8265833854675293,186.0,1779968.0,2486272.0,1302272.0,931584.0,270656.0
2.827883243560791,867.0,1710080.0,2274304.0,1229568.0,968960.0,253888.0
2.829183340072632,365.0,1717248.0,2380800.0,1243392.0,929792.0,300992.0
2.8304834365844727,464.0,1673472.0,2291712.0,1240832.0,946944.0,275392.0
2.8317832946777344,425.0,1596928.0,2112512.0,1111808.0,761344.0,243840.0
2.833083391189575,277.0,1612800.0,2351104.0,1232896.0,870656.0,274496.0
2.834383249282837,921.0,1521664.0,2115584.0,1154048.0,827648.0,232704.0
2.8356833457946777,568.0,1420032.0,2024448.0,1200384.0,897792.0,264064.0
2.8369834423065186,215.0,1574656.0,2120704.0,1074432.0,822272.0,215424.0
2.8382833003997803,202.0,1555200.0,2119680.0,1214720.0,894976.0,212544.0
2.8396332263946533,272.0,1352960.0,1908736.0,976128.0,788992.0,220736.0
2.8409500122070312,239.0,1489152.0,2087680.0,1149696.0,783360.0,218496.0
2.842250108718872,206.0,1363200.0,1940992.0,1087744.0,784896.0,216256.0
2.8435332775115967,216.0,1488896.0,1931776.0,1055488.0,737536.0,222656.0
2.8448333740234375,226.0,1406976.0,2001920.0,1068288.0,774144.0,207360.0
2.846133232116699,221.0,1371392.0,1875712.0,1069312.0,753920.0,212672.0
2.84743332862854,217.0,1388544.0,1945856.0,1059840.0,761600.0,218048.0
2.848750114440918,257.0,1395456.0,1840640.0,1062656.0,740864.0,226432.0
2.8500499725341797,221.0,1387776.0,1885440.0,1036032.0,720128.0,237120.0
2.8513333797454834,186.0,1381120.0,1952512.0,1061632.0,676096.0,192640.0
2.852633237838745,205.0,1374208.0,1775360.0,988928.0,699904.0,211520.0
2.853933334350586,329.0,1298432.0,1800192.0,924160.0,709376.0,205696.0
2.8552334308624268,275.0,1236736.0,1659392.0,985600.0,690688.0,212096.0
2.856600046157837,220.0,1330176.0,1684480.0,975360.0,665856.0,217600.0
2.8578999042510986,207.0,1244160.0,1604096.0,892416.0,673280.0,173056.0
2.8592000007629395,193.0,1225472.0,1694976.0,947712.0,668416.0,187968.0
2.8605000972747803,195.0,1179904.0,1603072.0,902656.0,579840.0,207040.0
2.861799955368042,208.0,1214464.0,1615872.0,869888.0,656640.0,188352.0
2.863100051879883,203.0,1161472.0,1669888.0,898304.0,673280.0,177408.0
2.8643999099731445,199.0,1187072.0,1630976.0,834816.0,615680.0,169664.0
2.8657000064849854,199.0,1129728.0,1598720.0,883456.0,632064.0,179776.0
2.867000102996826,198.0,1175040.0,1591296.0,795136.0,629504.0,171456.0
2.868299961090088,189.0,1107712.0,1487616.0,809984.0,568576.0,163072.0
2.8696000576019287,179.0,1104896.0,1546240.0,831488.0,586240.0,165952.0
2.8708999156951904,196.0,1101056.0,1494016.0,775424.0,546560.0,170944.0
2.8722000122070312,213.0,1036800.0,1440000.0,830976.0,534528.0,162112.0
2.8735666275024414,217.0,996352.0,1355264.0,663040.0,514688.0,148800.0
2.8748667240142822,117.0,897792.0,1361920.0,707072.0,496064.0,154560.0
2.876166582107544,147.0,918528.0,1342976.0,727552.0,481536.0,135872.0
2.8774666786193848,177.0,904704.0,1234688.0,696832.0,529920.0,132480.0
2.8787667751312256,181.0,878080.0,1198336.0,677888.0,449536.0,128624.0
2.8800666332244873,184.0,873984.0,1106176.0,586240.0,449536.0,129744.0
2.881366729736328,187.0,782336.0,1027072.0,580864.0,392064.0,120288.0
2.88266658782959,204.0,742912.0,1001216.0,504192.0,342272.0,94192.0
2.8839666843414307,111.0,690944.0,879360.0,547584.0,345536.0,103968.0
2.8852667808532715,188.0,635392.0,917504.0,456704.0,354944.0,106880.0
2.886566638946533,187.0,595200.0,753152.0,416192.0,283968.0,90624.0
2.887866735458374,196.0,605440.0,796672.0,387008.0,313216.0,73648.0
2.8891665935516357,220.0,543744.0,706048.0,382592.0,252736.0,71312.0
2.890516757965088,119.0,446848.0,638208.0,360640.0,241024.0,63472.0
2.8918166160583496,133.0,401728.0,543744.0,299776.0,240256.0,62064.0
2.8931167125701904,146.0,362176.0,518016.0,298944.0,218688.0,43184.0
2.894416570663452,105.0,346752.0,496704.0,243968.0,187776.0,40768.0
2.895716667175293,185.0,295488.0,447552.0,244416.0,153856.0,41792.0
2.897016763687134,215.0,293184.0,371776.0,210048.0,136128.0,37328.0
2.8983166217803955,108.0,276096.0,350784.0,192576.0,126128.0,32864.0
2.8996167182922363,88.0,234368.0,308032.0,192000.0,134208.0,30936.0
2.900916576385498,68.0,214336.0,326400.0,156288.0,107296.0,36512.0
2.902216672897339,123.0,217536.0,279872.0,160000.0,120336.0,17760.0
2.9035167694091797,128.0,174912.0,199680.0,133568.0,91376.0,24844.0
2.9048166275024414,134.0,155392.0,230976.0,116384.0,74032.0,15032.0
2.9061167240142822,121.0,138688.0,180672.0,92176.0,71360.0,18092.0
2.9074833393096924,109.0,137472.0,166080.0,97968.0,57104.0,18444.0
2.908783435821533,88.0,103856.0,126320.0,78880.0,59728.0,14468.0
2.910083293914795,98.0,90960.0,125312.0,67040.0,41376.0,15836.0
2.9113833904266357,109.0,87568.0,116624.0,56592.0,33280.0,12732.0
2.9126832485198975,111.0,89760.0,115136.0,46784.0,29148.0,11504.0
2.9139833450317383,114.0,58352.0,81904.0,56144.0,35344.0,6802.0
2.915283441543579,79.0,49808.0,84608.0,39200.0,35712.0,6392.0
2.916583299636841,58.0,52624.0,65936.0,37648.0,32120.0,11368.0
2.9178833961486816,34.0,39408.0,60896.0,31072.0,23304.0,8540.0
2.9191832542419434,43.0,39088.0,54848.0,30232.0,27480.0,5638.0
2.920483350753784,52.0,40496.0,55856.0,25928.0,19808.0,6090.0
2.921783447265625,77.0,29056.0,31168.0,32004.0,19920.0,1829.0
2.9230833053588867,72.0,31728.0,26024.0,20112.0,10676.0,3593.0
2.924449920654297,49.0,18876.0,30084.0,16292.0,10564.0,2271.0
2.9257500171661377,46.0,20676.0,22832.0,10492.0,14716.0,2574.0
2.9270501136779785,34.0,19640.0,30200.0,17332.0,11504.0,661.0
2.9283499717712402,51.0,16992.0,22676.0,13036.0,8436.0,1672.0
2.929650068283081,69.0,16936.0,29220.0,12056.0,4932.0,2834.0
2.9309499263763428,85.0,14136.0,20784.0,4152.0,7867.0,1975.0
2.9322500228881836,78.0,17116.0,18056.0,9452.0,5372.0,1855.0
2.9335498809814453,72.0,17748.0,18604.0,10372.0,8364.0,2752.0
2.934849977493286,55.0,13964.0,18020.0,6867.0,9596.0,2401.0
2.936150074005127,47.0,18440.0,17432.0,3381.0,6007.0,1840.0
2.9374499320983887,39.0,9540.0,13564.0,10816.0,8696.0,3789.0
2.9387500286102295,52.0,10356.0,12048.0,10152.0,4481.0,721.0
2.940049886703491,66.0,6747.0,10532.0,7055.0,8856.0,2280.0
2.9414000511169434,10.0,8224.0,11956.0,6292.0,4287.0,2155.0
2.942699909210205,85.0,9700.0,16120.0,11160.0,5360.0,56.0
2.944000005722046,98.0,12576.0,18148.0,5258.0,4331.0,899.0
2.9453165531158447,141.0,12768.0,17904.0,2455.0,3321.0,1123.0
2.9465999603271484,40.0,6638.0,9584.0,9492.0,4225.0,303.0
2.9479000568389893,346.0,7530.0,12744.0,6682.0,4352.0,1194.0
2.949199914932251,652.0,7478.0,14880.0,6597.0,5167.0,1100.0
2.950500011444092,570.0,5323.0,8604.0,8768.0,2546.0,1671.0
2.9518001079559326,74.0,7575.0,11396.0,5662.0,7596.0,1512.0
2.9531166553497314,82.0,6774.0,13312.0,4005.0,6583.0,600.0
2.954400062561035,43.0,5379.0,10548.0,4113.0,2701.0,193.0
2.955699920654297,49.0,3984.0,16524.0,5198.0,6122.0,1179.0
2.9570000171661377,56.0,8808.0,3740.0,4589.0,6083.0,527.0
2.958366632461548,55.0,8125.0,13964.0,7251.0,3849.0,1303.0
2.9596667289733887,402.0,3633.0,10564.0,6720.0,3476.0,753.0
2.9609665870666504,211.0,6105.0,10724.0,5086.0,3569.0,1024.0
2.962266683578491,21.0,5930.0,8131.0,4283.0,3473.0,1295.0
2.963566780090332,62.0,5755.0,8964.0,6886.0,3377.0,543.0
2.9648666381835938,63.0,7452.0,9800.0,6778.0,5692.0,668.0
2.9661667346954346,64.0,1993.0,9076.0,6670.0,4826.0,793.0
2.9674665927886963,37.0,9548.0,8352.0,4029.0,3959.0,822.0
2.968766689300537,55.0,6419.0,7664.0,3655.0,2595.0,431.0
2.970066785812378,73.0,4535.0,6974.0,3210.0,3627.0,40.0
2.9713666439056396,5.0,8133.0,8816.0,4198.0,4962.0,1076.0
2.9726667404174805,41.0,8408.0,7461.0,5186.0,2055.0,532.0
2.973966598510742,39.0,3148.0,6108.0,5257.0,4732.0,1153.0
2.9753334522247314,26.0,6006.0,7623.0,2907.0,4095.0,1008.0
2.976633310317993,67.0,6460.0,7739.0,5915.0,3262.0,863.0
2.977933406829834,84.0,3649.0,7484.0,5098.0,3129.0,1028.0
2.9792332649230957,100.0,4184.0,7229.0,3931.0,3303.0,1676.0
2.9805333614349365,60.0,3995.0,7244.0,3684.0,2545.0,37.0
2.9818332195281982,71.0,3806.0,7258.0,1566.0,1787.0,1887.0
2.983133316040039,61.0,4171.0,6271.0,2215.0,1156.0,2673.0
2.98443341255188,51.0,4537.0,5284.0,3637.0,821.0,1015.0
2.9857332706451416,31.0,8832.0,6672.0,964.0,486.0,95.0
2.9870333671569824,11.0,9328.0,6328.0,1531.0,1472.0,543.0
2.988333225250244,24.0,5523.0,5984.0,2057.0,2457.0,37.0
2.989633321762085,60.0,5370.0,5376.0,2583.0,3178.0,1140.0
2.990933418273926,95.0,4636.0,9652.0,6205.0,1256.0,583.0
2.992283344268799,87.0,5075.0,9216.0,6010.0,1537.0,27.0
2.9935834407806396,79.0,5400.0,4722.0,4167.0,1819.0,562.0
2.9948999881744385,1472.0,5725.0,5199.0,2526.0,897.0,297.0
2.996183395385742,1315.0,7176.0,7436.0,3486.0,1535.0,80.0
2.997499942779541,52.0,6787.0,8352.0,2192.0,2672.0,80.0
2.9987833499908447,21.0,3490.0,4089.0,2244.0,2241.0,600.0
3.0000834465026855,49.0,2579.0,6255.0,2297.0,1339.0,474.0
3.0013833045959473,55.0,3448.0,3642.0,1466.0,438.0,349.0
3.002683401107788,61.0,4317.0,3986.0,3316.0,1156.0,560.0
3.00398325920105,59.0,1271.0,3945.0,4594.0,1875.0,772.0
3.0053000450134277,81.0,1881.0,4275.0,5029.0,37.0,637.0
3.0065834522247314,23.0,1510.0,4604.0,16.0,4510.0,39.0
3.007883310317993,28.0,1139.0,5138.0,1881.0,3449.0,893.0
3.0092499256134033,33.0,2660.0,5022.0,1488.0,1958.0,610.0
3.010550022125244,53.0,4181.0,4905.0,1023.0,2230.0,44.0
3.011850118637085,346.0,4573.0,5242.0,3463.0,1954.0,136.0
3.0131499767303467,195.0,4667.0,5579.0,3630.0,1677.0,228.0
3.0144500732421875,44.0,4761.0,3719.0,4108.0,582.0,501.0
3.015749931335449,49.0,4472.0,6507.0,3090.0,2802.0,284.0
3.01705002784729,54.0,4182.0,6139.0,3800.0,2220.0,67.0
3.0183498859405518,57.0,2924.0,4822.0,4626.0,1801.0,476.0
3.0196499824523926,59.0,6336.0,4921.0,5452.0,3490.0,1196.0
3.0209500789642334,31.0,6171.0,5021.0,6087.0,3512.0,983.0
3.022249937057495,40.0,3499.0,7491.0,7113.0,679.0,1262.0
3.023550033569336,49.0,2475.0,6737.0,2245.0,5314.0,1240.0
3.0248498916625977,1644.0,4536.0,5984.0,1680.0,2825.0,1219.0
3.026216745376587,1684.0,10148.0,7365.0,3286.0,3558.0,331.0
3.0275166034698486,16.0,8820.0,8556.0,2942.0,1927.0,881.0
3.0288166999816895,810.0,6107.0,9744.0,3565.0,3225.0,738.0
3.030116558074951,71.0,4261.0,9684.0,1447.0,1496.0,379.0
3.031416654586792,47.0,7307.0,8796.0,2438.0,3264.0,20.0
3.032716751098633,252.0,3935.0,8524.0,3966.0,2310.0,964.0
3.0340166091918945,23.0,6381.0,8436.0,5494.0,681.0,57.0
3.0353167057037354,115.0,5564.0,6665.0,5650.0,2057.0,1437.0
3.036616563796997,208.0,4747.0,11544.0,1762.0,1464.0,1451.0
3.037916660308838,1315.0,4999.0,10776.0,2104.0,2697.0,1464.0
3.0392167568206787,1302.0,5250.0,11844.0,2657.0,3111.0,1412.0
3.0405166149139404,66.0,4982.0,6846.0,4456.0,2654.0,675.0
3.0418167114257812,12.0,3779.0,7184.0,4791.0,4067.0,39.0
3.0431666374206543,29.0,5006.0,5764.0,5125.0,1022.0,10.0
3.044466733932495,728.0,4698.0,5643.0,5862.0,2419.0,741.0
3.045766592025757,995.0,4753.0,5521.0,5670.0,2422.0,814.0
3.0470666885375977,1501.0,4809.0,6139.0,1674.0,2426.0,708.0
3.0483667850494385,38.0,5139.0,6758.0,6355.0,2997.0,629.0
3.0496666431427,3018.0,5469.0,6442.0,4057.0,3567.0,661.0
3.050966739654541,2760.0,1712.0,6125.0,5917.0,2545.0,347.0
3.0522665977478027,1033.0,3182.0,8091.0,4616.0,1522.0,32.0
3.0535666942596436,30.0,4652.0,7847.0,6559.0,2053.0,775.0
3.0548665523529053,267.0,2707.0,7528.0,1963.0,2836.0,566.0
3.056166648864746,1098.0,2194.0,6553.0,2931.0,2673.0,356.0
3.057466745376587,140.0,1681.0,8023.0,7465.0,2511.0,398.0
3.0587666034698486,310.0,4150.0,8208.0,7658.0,281.0,440.0
3.060133218765259,476.0,3575.0,9400.0,6620.0,3638.0,35.0
3.0614333152770996,610.0,3000.0,7535.0,698.0,3677.0,251.0
3.0627334117889404,321.0,5218.0,5672.0,6287.0,773.0,467.0
3.064033269882202,32.0,4512.0,6828.0,4225.0,3114.0,897.0
3.065333366394043,70.0,8131.0,5158.0,8788.0,2727.0,1327.0
3.0666332244873047,698.0,7635.0,3487.0,5579.0,2249.0,1367.0
3.0679333209991455,1326.0,8212.0,7212.0,3654.0,3629.0,1397.0
3.0692334175109863,686.0,5886.0,9424.0,1471.0,1501.0,870.0
3.070533275604248,47.0,5074.0,7956.0,3338.0,2913.0,14.0
3.071833372116089,18.0,4008.0,4134.0,2407.0,4325.0,49.0
3.0731332302093506,54.0,4616.0,5799.0,2461.0,3271.0,217.0
3.0744333267211914,70.0,3302.0,6517.0,4074.0,3288.0,148.0
3.0757334232330322,529.0,4558.0,8428.0,5304.0,4057.0,79.0
3.0771000385284424,296.0,3831.0,7624.0,4052.0,4826.0,572.0
3.078399896621704,62.0,3104.0,7522.0,2399.0,4833.0,1967.0
3.079699993133545,36.0,7214.0,10512.0,5669.0,3583.0,1489.0
3.0810000896453857,11.0,7578.0,10500.0,2800.0,2472.0,568.0
3.0822999477386475,36.0,4681.0,7322.0,1171.0,3073.0,646.0
3.0836000442504883,36.0,6779.0,7067.0,2183.0,705.0,285.0
3.08489990234375,38.0,4710.0,9392.0,474.0,3169.0,551.0
3.086199998855591,41.0,5542.0,5559.0,2611.0,2775.0,816.0
3.0875000953674316,925.0,4387.0,5687.0,4479.0,3147.0,53.0
3.0887999534606934,813.0,5118.0,7641.0,3925.0,3439.0,888.0
3.090100049972534,701.0,5849.0,2688.0,3372.0,2562.0,788.0
3.091399908065796,783.0,2740.0,7489.0,558.0,1050.0,36.0
3.0927000045776367,655.0,2198.0,2714.0,5694.0,4540.0,10.0
3.0940499305725098,1255.0,3436.0,6412.0,6668.0,3086.0,442.0
3.0953500270843506,32.0,2336.0,7797.0,5767.0,840.0,20.0
3.0966498851776123,17.0,2336.0,4705.0,6077.0,2441.0,12.0
3.097949981689453,1012.0,2025.0,4895.0,3752.0,1715.0,18.0
3.099250078201294,53.0,1715.0,7587.0,3267.0,988.0,23.0
3.1005499362945557,24.0,1541.0,6387.0,3485.0,4011.0,28.0
3.1018500328063965,275.0,3320.0,7740.0,3468.0,3325.0,148.0
3.103149890899658,5.0,3189.0,9092.0,2188.0,37.0,268.0
3.104449987411499,922.0,1324.0,3670.0,908.0,4561.0,153.0
3.10575008392334,482.0,2550.0,3972.0,57.0,1940.0,37.0
3.1070499420166016,42.0,432.0,3400.0,1869.0,3269.0,36.0
3.1083667278289795,823.0,719.0,1212.0,2331.0,89.0,29.0
3.109649896621704,63.0,3226.0,3398.0,3214.0,85.0,22.0
3.1110167503356934,573.0,936.0,3075.0,1513.0,1158.0,441.0
3.112316608428955,5.0,2395.0,3974.0,1131.0,959.0,467.0
3.113616704940796,612.0,2649.0,2046.0,819.0,759.0,26.0
3.1149165630340576,10.0,762.0,1837.0,26.0,746.0,27.0
3.1162166595458984,30.0,57.0,2617.0,507.0,732.0,6.0
3.1175167560577393,34.0,600.0,15.0,988.0,34.0,50.0
3.118816614151001,27.0,870.0,2102.0,5.0,282.0,42.0
3.120116710662842,23.0,48.0,1470.0,1329.0,9.0,44.0
3.1214165687561035,24.0,1061.0,988.0,1097.0,16.0,27.0
3.1227166652679443,20.0,53.0,29.0,31.0,22.0,29.0
3.124016761779785,90.0,998.0,127.0,37.0,44.0,32.0
3.125316619873047,79.0,56.0,225.0,0.0,42.0,22.0
3.1266167163848877,36.0,5.0,22.0,5.0,41.0,13.0
3.127983331680298,27.0,403.0,338.0,164.0,30.0,17.0
3.1292834281921387,41.0,215.0,184.0,323.0,20.0,10.0
3.1305832862854004,34.0,28.0,30.0,359.0,24.0,28.0
3.131883382797241,28.0,29.0,16.0,49.0,28.0,27.0
3.133183240890503,28.0,19.0,46.0,36.0,29.0,25.0
3.1344833374023438,28.0,38.0,24.0,32.0,30.0,12.0
3.1357834339141846,29.0,65.0,638.0,17.0,28.0,26.0
3.1370832920074463,27.0,40.0,1024.0,43.0,17.0,40.0
3.138383388519287,25.0,14.0,871.0,25.0,11.0,32.0
3.139683246612549,35.0,27.0,44.0,7.0,5.0,16.0
3.1409833431243896,16.0,41.0,1736.0,21.0,24.0,30.0
3.1422834396362305,25.0,44.0,1332.0,24.0,43.0,43.0
3.143583297729492,35.0,19.0,31.0,27.0,39.0,38.0
3.1449332237243652,17.0,46.0,142.0,24.0,35.0,46.0
3.146233320236206,0.0,40.0,257.0,22.0,45.0,18.0
3.147533416748047,42.0,35.0,197.0,22.0,62.0,16.0
3.1488332748413086,27.0,35.0,136.0,16.0,15.0,46.0
3.1501333713531494,44.0,26.0,35.0,71.0,22.0,24.0
3.151433229446411,5.0,10.0,54.0,51.0,40.0,18.0
3.152733325958252,10.0,26.0,42.0,31.0,58.0,44.0
3.1540334224700928,8.0,19.0,29.0,57.0,48.0,25.0
3.1553332805633545,5.0,12.0,43.0,34.0,37.0,44.0
3.1566333770751953,23.0,35.0,37.0,12.0,5.0,12.0
3.157933235168457,41.0,89.0,30.0,27.0,97.0,55.0
3.159250020980835,34.0,1109.0,53.0,21.0,60.0,44.0
3.1605334281921387,28.0,1055.0,805.0,5.0,24.0,32.0
3.161900043487549,36.0,26.0,1064.0,14.0,10.0,21.0
3.1631999015808105,54.0,52.0,687.0,24.0,13.0,29.0
3.1644999980926514,42.0,35.0,41.0,37.0,30.0,14.0
3.165800094604492,30.0,10.0,58.0,49.0,47.0,22.0
3.167099952697754,27.0,27.0,30.0,38.0,55.0,31.0
3.1684000492095947,18.0,34.0,55.0,27.0,20.0,15.0
3.1696999073028564,11.0,404.0,22.0,23.0,28.0,24.0
3.1710000038146973,32.0,207.0,1152.0,35.0,44.0,24.0
3.172300100326538,16.0,11.0,947.0,23.0,41.0,24.0
3.1735999584198,0.0,414.0,16.0,12.0,39.0,18.0
3.1749000549316406,6.0,26.0,73.0,7.0,15.0,25.0
3.1761999130249023,12.0,34.0,783.0,12.0,29.0,6.0
3.177500009536743,49.0,46.0,56.0,9.0,44.0,6.0
3.1788666248321533,35.0,16.0,14.0,5.0,49.0,25.0
3.180166721343994,21.0,28.0,27.0,64.0,19.0,42.0
3.181466579437256,33.0,41.0,40.0,1239.0,610.0,38.0
3.1827666759490967,45.0,688.0,24.0,647.0,318.0,46.0
3.1840667724609375,6.0,367.0,1052.0,56.0,26.0,61.0
3.185366630554199,15.0,46.0,903.0,21.0,50.0,76.0
3.18666672706604,12.0,23.0,7.0,527.0,75.0,81.0
3.1879665851593018,8.0,46.0,27.0,666.0,32.0,26.0
3.1892666816711426,10.0,68.0,1252.0,675.0,28.0,26.0
3.1905667781829834,12.0,55.0,1546.0,341.0,37.0,78.0
3.191866636276245,296.0,7.0,30.0,8.0,9.0,66.0
3.193166732788086,580.0,10.0,136.0,496.0,26.0,38.0
3.1944665908813477,1028.0,1209.0,35.0,22.0,42.0,48.0
3.1958167552948,4379.0,625.0,20.0,21.0,34.0,34.0
3.1971166133880615,5601.0,41.0,39.0,25.0,26.0,38.0
3.1984167098999023,3456.0,191.0,26.0,25.0,46.0,42.0
