,245.0800018310547,246.0800018310547,247.0800018310547,248.0800018310547
2.1012165546417236,21.0,20.0,27.0,16.0
2.102299928665161,5.0,0.0,34.0,10.0
2.1046833992004395,11.0,20.0,41.0,17.0
2.1070666313171387,40.0,18.0,20.0,20.0
2.109499931335449,37.0,15.0,28.0,23.0
2.1118834018707275,16.0,10.0,25.0,17.0
2.1142666339874268,41.0,15.0,22.0,10.0
2.116666555404663,15.0,16.0,15.0,17.0
2.1190500259399414,34.0,14.0,18.0,24.0
2.1214332580566406,54.0,14.0,21.0,18.0
2.123816728591919,17.0,14.0,0.0,12.0
2.1262166500091553,12.0,11.0,25.0,11.0
2.1285998821258545,39.0,0.0,6.0,10.0
2.130983352661133,15.0,10.0,0.0,364.0
2.133383274078369,5.0,20.0,28.0,186.0
2.1357667446136475,21.0,34.0,53.0,7.0
2.1381499767303467,22.0,42.0,66.0,5.0
2.140533447265625,5.0,29.0,39.0,11.0
2.1429333686828613,28.0,38.0,0.0,14.0
2.1453332901000977,18.0,47.0,13.0,17.0
2.147716760635376,34.0,0.0,29.0,17.0
2.150099992752075,10.0,57.0,14.0,16.0
2.1524832248687744,40.0,66.0,0.0,16.0
2.1548666954040527,23.0,30.0,0.0,16.0
2.157249927520752,0.0,22.0,0.0,35.0
2.1596500873565674,31.0,30.0,5.0,32.0
2.1620333194732666,18.0,38.0,29.0,26.0
2.164416551589966,0.0,45.0,26.0,16.0
2.166800022125244,0.0,37.0,13.0,39.0
2.1691999435424805,21.0,28.0,7.0,0.0
2.171583414077759,53.0,31.0,31.0,9.0
2.173966646194458,54.0,29.0,5.0,17.0
2.1763665676116943,24.0,28.0,0.0,17.0
2.1787500381469727,37.0,15.0,7.0,16.0
2.181133270263672,5.0,16.0,14.0,18.0
2.18351674079895,49.0,11.0,16.0,20.0
2.1859166622161865,18.0,23.0,42.0,427.0
2.1882998943328857,20.0,31.0,40.0,225.0
2.190683364868164,31.0,34.0,33.0,23.0
2.1930832862854004,25.0,12.0,26.0,6.0
2.1954667568206787,19.0,32.0,0.0,156.0
2.197849988937378,22.0,28.0,8.0,306.0
2.2002499103546143,13.0,35.0,16.0,166.0
2.2026333808898926,10.0,41.0,11.0,26.0
2.205016613006592,5.0,52.0,24.0,0.0
2.20740008354187,0.0,11.0,16.0,0.0
2.2098000049591064,5.0,19.0,7.0,22.0
2.2121832370758057,5.0,26.0,6.0,16.0
2.214566707611084,5.0,20.0,5.0,10.0
2.216949939727783,5.0,10.0,10.0,15.0
2.2193334102630615,6.0,0.0,0.0,16.0
2.221733331680298,7.0,5.0,3.0,16.0
2.224116563796997,0.0,26.0,5.0,14.0
2.2265167236328125,21.0,39.0,5.0,11.0
2.2288999557495117,42.0,51.0,3.0,15.0
2.23128342628479,31.0,0.0,0.0,18.0
2.2336666584014893,23.0,6.0,10.0,17.0
2.2360498905181885,10.0,53.0,20.0,5.0
2.238433361053467,15.0,40.0,24.0,12.0
2.240816593170166,19.0,25.0,5.0,31.0
2.2432665824890137,22.0,22.0,12.0,34.0
2.245650053024292,11.0,19.0,6.0,0.0
2.248033285140991,0.0,11.0,6.0,22.0
2.2504167556762695,32.0,0.0,13.0,44.0
2.2527999877929688,19.0,11.0,6.0,38.0
2.255183219909668,5.0,27.0,0.0,26.0
2.2575666904449463,19.0,22.0,5.0,5.0
2.259999990463257,21.0,35.0,11.0,10.0
2.262383222579956,22.0,16.0,17.0,13.0
2.2647833824157715,28.0,24.0,18.0,16.0
2.2671666145324707,39.0,32.0,19.0,15.0
2.269550085067749,27.0,9.0,22.0,14.0
2.2719333171844482,16.0,10.0,25.0,12.0
2.2743165493011475,38.0,12.0,27.0,5.0
2.276750087738037,17.0,19.0,29.0,27.0
2.2791333198547363,19.0,16.0,31.0,27.0
2.2815165519714355,23.0,13.0,33.0,35.0
2.283900022506714,5.0,15.0,33.0,0.0
2.286283254623413,33.0,17.0,34.0,11.0
2.2886667251586914,23.0,5.0,29.0,23.0
2.2910499572753906,8.0,40.0,17.0,7.0
2.293466567993164,10.0,211.0,19.0,34.0
2.2958834171295166,0.0,1125.0,19.0,32.0
2.298266649246216,17.0,3032.0,15.0,1389.0
2.300649881362915,12.0,7122.0,509.0,1446.0
2.3030333518981934,7.0,25636.0,263.0,5357.0
2.3054165840148926,6.0,37456.0,17.0,9268.0
2.307800054550171,5.0,70352.0,3261.0,16868.0
2.31018328666687,44.0,114272.0,13540.0,25696.0
2.3125998973846436,35.0,176640.0,12280.0,34624.0
2.314983367919922,10.0,280960.0,22832.0,52720.0
2.317366600036621,6.0,341312.0,37072.0,87856.0
2.3197500705718994,34.0,451264.0,31500.0,77264.0
2.3221333026885986,17.0,623360.0,44496.0,116432.0
2.324516773223877,16.0,711424.0,49216.0,134784.0
2.326900005340576,15.0,761856.0,50448.0,167488.0
2.3293166160583496,16.0,922880.0,67920.0,168128.0
2.331700086593628,30.0,957184.0,71040.0,184000.0
2.334083318710327,40.0,1017344.0,73024.0,205120.0
2.3364665508270264,31.0,1198080.0,91328.0,208640.0
2.3388500213623047,22.0,1139456.0,95344.0,211712.0
2.341233253479004,41.0,1111296.0,77632.0,209600.0
2.3436167240142822,29.0,1163520.0,75392.0,213824.0
2.3460333347320557,32.0,1090816.0,81552.0,214848.0
2.348416566848755,33.0,1132800.0,77392.0,202752.0
2.350800037384033,34.0,1052416.0,87824.0,182144.0
2.3531832695007324,29.0,986880.0,80544.0,215552.0
2.3555667400360107,24.0,1069312.0,73264.0,187520.0
2.35794997215271,31.0,1068032.0,67040.0,189696.0
2.3603334426879883,27.0,1066496.0,76352.0,210624.0
2.3627500534057617,6.0,1112320.0,100656.0,210112.0
2.365133285522461,41.0,1093888.0,94336.0,209600.0
2.3675167560577393,10.0,1075200.0,85280.0,205696.0
2.3698999881744385,18.0,1154816.0,81568.0,225984.0
2.3722832202911377,21.0,1191424.0,89040.0,221248.0
2.374666690826416,23.0,1195520.0,92560.0,216448.0
2.3770499229431152,27.0,1213696.0,120656.0,200256.0
2.3794667720794678,43.0,1344256.0,114176.0,239296.0
2.381850004196167,25.0,1324800.0,83232.0,261504.0
2.384233236312866,8.0,1362176.0,106752.0,253952.0
2.3866167068481445,41.0,1240832.0,97248.0,265088.0
2.3889999389648438,17.0,1222912.0,97072.0,221888.0
2.391383409500122,17.0,1132800.0,77360.0,236544.0
2.3937666416168213,12.0,1095424.0,73824.0,198208.0
2.3961665630340576,7.0,914176.0,74544.0,166272.0
2.398550033569336,27.0,813568.0,67456.0,166848.0
2.400933265686035,25.0,722176.0,64080.0,131392.0
2.4033334255218506,16.0,609024.0,49040.0,116848.0
2.40571665763855,7.0,503424.0,36976.0,84960.0
2.408099889755249,49.0,412352.0,22772.0,85120.0
2.4104833602905273,49.0,325312.0,25232.0,56256.0
2.412899971008301,39.0,268608.0,20748.0,45488.0
2.415283441543579,17.0,221184.0,13872.0,42368.0
2.4176666736602783,6.0,174720.0,12492.0,29356.0
2.4200499057769775,26.0,127728.0,11816.0,27732.0
2.422433376312256,20.0,102304.0,5462.0,13524.0
2.424816608428955,13.0,86624.0,8428.0,21284.0
2.4272000789642334,36.0,59280.0,6475.0,5814.0
2.429616689682007,34.0,53072.0,5218.0,7744.0
2.431999921798706,32.0,47712.0,5260.0,10176.0
2.4343833923339844,38.0,44816.0,5095.0,6742.0
2.4367666244506836,43.0,31300.0,2448.0,8224.0
2.439150094985962,35.0,38016.0,1438.0,5528.0
2.441533327102661,26.0,31736.0,1555.0,8360.0
2.4439165592193604,35.0,20104.0,982.0,3093.0
2.446316719055176,44.0,31232.0,440.0,5811.0
2.448699951171875,20.0,22136.0,1793.0,4316.0
2.4511001110076904,52.0,18176.0,21.0,3887.0
2.4534833431243896,60.0,24556.0,812.0,3458.0
2.455866575241089,50.0,8336.0,1152.0,2120.0
2.458250045776367,35.0,23640.0,801.0,942.0
2.4606332778930664,7.0,16808.0,1231.0,1780.0
2.463033437728882,10.0,13484.0,1661.0,2531.0
2.465416669845581,0.0,10952.0,2129.0,1329.0
2.4677999019622803,11.0,9368.0,81.0,1985.0
2.4702000617980957,5.0,13500.0,32.0,919.0
2.472583293914795,12.0,7719.0,692.0,1314.0
2.4749667644500732,18.0,10992.0,741.0,1710.0
2.4773499965667725,29.0,9976.0,789.0,1149.0
2.479749917984009,25.0,5861.0,903.0,989.0
2.482133388519287,20.0,3769.0,43.0,829.0
2.4845166206359863,29.0,7851.0,40.0,656.0
2.4869167804718018,31.0,5850.0,37.0,1157.0
2.489300012588501,32.0,3309.0,21.0,976.0
2.4916832447052,29.0,9284.0,6.0,978.0
2.4940667152404785,16.0,7413.0,43.0,2234.0
2.496483325958252,19.0,6343.0,351.0,1361.0
2.498866558074951,22.0,5695.0,731.0,489.0
2.501016616821289,34.0,5399.0,386.0,2165.0
2.5018832683563232,0.0,5103.0,41.0,1283.0
2.5027666091918945,20.0,3481.0,44.0,1203.0
2.5036165714263916,21.0,6513.0,29.0,1341.0
2.504483222961426,5.0,5372.0,39.0,314.0
2.505350112915039,8.0,5198.0,27.0,508.0
2.5062167644500732,0.0,5023.0,15.0,9.0
2.5070834159851074,31.0,4418.0,96.0,81.0
2.5079500675201416,41.0,5764.0,66.0,154.0
2.508816719055176,28.0,4895.0,35.0,677.0
2.50968337059021,16.0,4025.0,10.0,347.0
2.510550022125244,8.0,4729.0,25.0,16.0
2.5114500522613525,34.0,5432.0,19.0,28.0
2.5123167037963867,20.0,5382.0,1369.0,40.0
2.513183355331421,21.0,5445.0,1104.0,37.0
2.514050006866455,22.0,4255.0,1383.0,933.0
2.5149166584014893,29.0,3765.0,1237.0,480.0
2.5157833099365234,29.0,2825.0,1238.0,26.0
2.5166499614715576,18.0,2898.0,364.0,563.0
2.517516613006592,0.0,2970.0,452.0,1099.0
2.518383264541626,5.0,7852.0,468.0,645.0
2.51924991607666,0.0,7000.0,244.0,191.0
2.5201165676116943,45.0,4565.0,19.0,921.0
2.5209832191467285,42.0,4321.0,491.0,23.0
2.521850109100342,40.0,3755.0,256.0,410.0
2.522716760635376,25.0,2748.0,20.0,20.0
2.52358341217041,21.0,8820.0,620.0,633.0
2.5244500637054443,41.0,7984.0,310.0,1761.0
2.5253167152404785,32.0,3987.0,0.0,1296.0
2.5261833667755127,21.0,4672.0,45.0,1253.0
2.527050018310547,28.0,4334.0,45.0,684.0
2.5279834270477295,36.0,3053.0,35.0,15.0
2.5288500785827637,5.0,2930.0,25.0,14.0
2.529716730117798,27.0,3816.0,15.0,47.0
2.530583381652832,6.0,4563.0,5.0,33.0
2.531450033187866,25.0,3149.0,439.0,19.0
2.5323166847229004,10.0,1735.0,874.0,797.0
2.5331833362579346,10.0,6435.0,698.0,535.0
2.5340499877929688,10.0,5587.0,523.0,274.0
2.534916639328003,11.0,4739.0,47.0,766.0
2.535783290863037,12.0,4961.0,18.0,41.0
2.5366499423980713,0.0,5346.0,20.0,45.0
2.5375165939331055,13.0,2030.0,17.0,50.0
2.5383832454681396,20.0,5507.0,27.0,42.0
2.539249897003174,10.0,3282.0,34.0,34.0
2.540116548538208,9.0,4999.0,189.0,26.0
2.5409834384918213,7.0,4228.0,97.0,38.0
2.5418500900268555,16.0,2294.0,5.0,20.0
2.5427167415618896,15.0,2247.0,64.0,838.0
2.543583393096924,14.0,3100.0,43.0,2235.0
2.544450044631958,7.0,3477.0,21.0,1607.0
2.5453667640686035,0.0,4875.0,36.0,905.0
2.5462334156036377,0.0,5441.0,17.0,1803.0
2.547100067138672,11.0,4971.0,17.0,748.0
2.547966718673706,8.0,2983.0,17.0,915.0
2.5488333702087402,5.0,4062.0,294.0,1440.0
2.5497000217437744,10.0,4028.0,334.0,1688.0
2.5505666732788086,10.0,1761.0,374.0,1525.0
2.5514333248138428,10.0,3020.0,40.0,1362.0
2.552299976348877,17.0,4280.0,107.0,485.0
2.553166627883911,26.0,3515.0,38.0,764.0
2.5540332794189453,23.0,2750.0,76.0,1702.0
2.5548999309539795,20.0,4688.0,15.0,18.0
2.5557665824890137,15.0,3337.0,37.0,18.0
2.556633234024048,13.0,3652.0,23.0,15.0
2.557499885559082,16.0,2828.0,10.0,13.0
2.5583667755126953,19.0,4010.0,23.0,1476.0
2.5592334270477295,23.0,3639.0,36.0,1377.0
2.5601000785827637,16.0,3267.0,48.0,1680.0
2.560983419418335,8.0,3930.0,34.0,22.0
2.5618999004364014,18.0,1466.0,20.0,18.0
2.5627665519714355,28.0,2197.0,30.0,46.0
2.563633441925049,32.0,2928.0,40.0,15.0
2.564500093460083,36.0,2240.0,608.0,386.0
2.565366744995117,28.0,2535.0,1006.0,757.0
2.5662333965301514,32.0,2831.0,739.0,523.0
2.5671000480651855,29.0,2054.0,18.0,277.0
2.5679666996002197,26.0,2283.0,5.0,31.0
2.568833351135254,7.0,2499.0,67.0,265.0
2.569700002670288,23.0,2715.0,6.0,499.0
2.5705666542053223,25.0,1135.0,303.0,252.0
2.5714333057403564,22.0,2181.0,223.0,6.0
2.5722999572753906,27.0,3228.0,143.0,457.0
2.573166608810425,29.0,2354.0,14.0,231.0
2.574033260345459,24.0,1481.0,112.0,5.0
2.574899911880493,16.0,2138.0,11.0,56.0
2.5757665634155273,29.0,793.0,11.0,46.0
2.5766332149505615,5.0,2350.0,11.0,114.0
2.577500104904175,32.0,3260.0,11.0,61.0
2.578366756439209,18.0,840.0,10.0,8.0
2.5792832374572754,16.0,2386.0,16.0,9.0
2.5801498889923096,6.0,1845.0,13.0,21.0
2.581016778945923,3.0,2396.0,9.0,18.0
2.581883430480957,0.0,2865.0,10.0,15.0
2.582750082015991,15.0,3140.0,43.0,21.0
2.5836167335510254,8.0,1537.0,38.0,27.0
2.5844833850860596,0.0,2169.0,32.0,36.0
2.5853500366210938,17.0,2765.0,0.0,44.0
2.586233377456665,16.0,759.0,12.0,15.0
2.587083339691162,16.0,1538.0,51.0,11.0
2.5879666805267334,11.0,2317.0,31.0,7.0
2.5888166427612305,5.0,1893.0,11.0,17.0
2.5896832942962646,12.0,1432.0,6.0,26.0
2.590549945831299,12.0,971.0,26.0,35.0
2.591416597366333,12.0,1133.0,10.0,37.0
2.592283248901367,23.0,1295.0,0.0,39.0
2.5931499004364014,17.0,1093.0,34.0,10.0
2.5940165519714355,11.0,892.0,19.0,0.0
2.594883441925049,604.0,453.0,5.0,1002.0
2.5958166122436523,312.0,14.0,26.0,508.0
2.5966832637786865,20.0,475.0,25.0,14.0
2.5975499153137207,42.0,937.0,39.0,37.0
2.598416566848755,29.0,3749.0,53.0,5.0
2.599283218383789,37.0,3116.0,38.0,200.0
2.6001501083374023,46.0,2240.0,22.0,282.0
2.6010167598724365,39.0,3951.0,14.0,363.0
2.6018834114074707,32.0,1515.0,5.0,1117.0
2.602750062942505,0.0,1539.0,3.0,1009.0
2.603616714477539,17.0,3434.0,0.0,692.0
2.6044833660125732,22.0,2170.0,14.0,1021.0
2.6053500175476074,0.0,2209.0,10.0,781.0
2.6062166690826416,11.0,1318.0,5.0,754.0
2.607083320617676,18.0,189.0,27.0,5.0
2.60794997215271,12.0,3091.0,23.0,12.0
2.608816623687744,6.0,2359.0,25.0,22.0
2.6096832752227783,6.0,1627.0,27.0,20.0
2.6105499267578125,6.0,1087.0,70.0,17.0
2.6114165782928467,16.0,39.0,69.0,5.0
2.612283229827881,8.0,1151.0,68.0,10.0
2.6132166385650635,0.0,939.0,42.0,10.0
2.6140832901000977,10.0,1438.0,35.0,5.0
2.614949941635132,20.0,2420.0,27.0,27.0
2.615816593170166,15.0,1657.0,11.0,587.0
2.6166832447052,10.0,894.0,23.0,317.0
2.6175498962402344,113.0,1703.0,36.0,47.0
2.6184165477752686,76.0,2021.0,31.0,422.0
2.619283437728882,40.0,517.0,22.0,11.0
2.620150089263916,2018.0,9.0,22.0,13.0
2.62101674079895,1985.0,2282.0,35.0,749.0
2.6218833923339844,925.0,2522.0,29.0,706.0
2.6227500438690186,849.0,1870.0,24.0,782.0
2.6236166954040527,1400.0,1576.0,15.0,1091.0
2.624483346939087,1952.0,17.0,5.0,23.0
2.625349998474121,3147.0,496.0,5.0,709.0
2.6262166500091553,4280.0,2145.0,17.0,48.0
2.6270833015441895,3322.0,871.0,28.0,29.0
2.6279499530792236,3182.0,450.0,30.0,32.0
2.628816604614258,3041.0,29.0,10.0,342.0
2.6297333240509033,2077.0,1400.0,10.0,186.0
2.6305999755859375,2545.0,1806.0,15.0,31.0
2.6314666271209717,3014.0,28.0,13.0,16.0
2.632333278656006,3801.0,1773.0,10.0,22.0
2.63319993019104,4589.0,2165.0,16.0,47.0
2.634066581726074,8520.0,636.0,43.0,35.0
2.6349332332611084,8504.0,1006.0,26.0,22.0
2.6357998847961426,11740.0,1376.0,10.0,35.0
2.636666774749756,10480.0,894.0,40.0,7.0
2.63753342628479,13312.0,412.0,25.0,172.0
2.638400077819824,7906.0,4262.0,11.0,90.0
2.6392667293548584,9732.0,4187.0,31.0,8.0
2.6401333808898926,13628.0,1640.0,12.0,36.0
2.6410000324249268,9504.0,166.0,35.0,34.0
2.641866683959961,9648.0,1634.0,23.0,31.0
2.642733335494995,13580.0,1067.0,7.0,18.0
2.6435999870300293,14080.0,499.0,10.0,40.0
2.6444666385650635,17572.0,250.0,44.0,261.0
2.6453332901000977,17932.0,0.0,455.0,155.0
2.646199941635132,19136.0,621.0,227.0,49.0
2.6471333503723145,13788.0,1849.0,0.0,32.0
2.6480000019073486,11548.0,2249.0,59.0,15.0
2.648866653442383,12808.0,477.0,37.0,977.0
2.649733304977417,13700.0,1678.0,0.0,894.0
2.650599956512451,14192.0,2726.0,29.0,21.0
2.6514666080474854,14084.0,2695.0,57.0,45.0
2.6523332595825195,13976.0,2912.0,41.0,18.0
2.6531999111175537,14816.0,1266.0,25.0,39.0
2.654066562652588,13388.0,1559.0,64.0,5.0
2.654933214187622,11964.0,2967.0,0.0,672.0
2.6558001041412354,15224.0,944.0,53.0,1201.0
2.6566667556762695,10300.0,2182.0,19.0,1184.0
2.6575334072113037,12052.0,2535.0,5.0,12.0
2.658400058746338,14780.0,673.0,10.0,785.0
2.659266710281372,14032.0,569.0,14.0,965.0
2.6601333618164062,13284.0,4415.0,11.0,684.0
2.6610000133514404,12276.0,3038.0,6.0,39.0
2.6618666648864746,11272.0,3923.0,0.0,1289.0
2.662733316421509,12972.0,48.0,27.0,1614.0
2.6636667251586914,14736.0,13.0,26.0,652.0
2.6645333766937256,16500.0,2318.0,24.0,44.0
2.6654000282287598,15596.0,1328.0,26.0,33.0
2.666266679763794,14688.0,2894.0,28.0,26.0
2.667133331298828,12124.0,2944.0,10.0,52.0
2.6679999828338623,16868.0,1995.0,40.0,28.0
2.6688666343688965,21896.0,1432.0,5.0,5.0
2.6697332859039307,18904.0,869.0,37.0,19.0
2.670599937438965,21584.0,1101.0,41.0,733.0
2.671466588973999,16320.0,347.0,50.0,633.0
2.672333240509033,16564.0,817.0,59.0,36.0
2.6731998920440674,20996.0,1288.0,38.0,714.0
2.6740667819976807,14016.0,30.0,17.0,40.0
2.674933433532715,17028.0,29.0,35.0,0.0
2.675800085067749,17712.0,891.0,15.0,21.0
2.676666736602783,19380.0,839.0,26.0,265.0
2.6775333881378174,15496.0,786.0,9.0,509.0
2.6784000396728516,18680.0,1870.0,15.0,776.0
2.6792666912078857,20324.0,1923.0,18.0,431.0
2.68013334274292,17644.0,3228.0,0.0,15.0
2.6810500621795654,15296.0,3590.0,70.0,46.0
2.6819167137145996,18576.0,1157.0,55.0,882.0
2.682783365249634,17504.0,1023.0,0.0,598.0
2.683650016784668,16436.0,758.0,23.0,10.0
2.684516668319702,14192.0,982.0,61.0,17.0
2.6853833198547363,18380.0,1206.0,50.0,24.0
2.6862499713897705,8712.0,1574.0,39.0,15.0
2.6871166229248047,12788.0,1445.0,25.0,25.0
2.687983274459839,18100.0,1316.0,51.0,11.0
2.688849925994873,21244.0,1578.0,17.0,8.0
2.6897165775299072,20236.0,36.0,15.0,5.0
2.6905832290649414,21944.0,684.0,13.0,59.0
2.6914501190185547,21324.0,2176.0,51.0,38.0
2.692316770553589,8476.0,2712.0,75.0,17.0
2.693183422088623,11956.0,2636.0,48.0,53.0
2.6940500736236572,9656.0,1637.0,17.0,23.0
2.6949167251586914,14048.0,24.0,22.0,39.0
2.6957833766937256,12924.0,1727.0,10.0,25.0
2.6966500282287598,13296.0,0.0,8.0,12.0
2.6975834369659424,12160.0,363.0,5.0,21.0
2.6984500885009766,11028.0,727.0,0.0,30.0
2.6993167400360107,14372.0,1664.0,10.0,23.0
