,245.0800018310547,246.0800018310547,247.0800018310547,248.0800018310547
2.1012332439422607,30.0,32.0,21.0,37.0
2.1023166179656982,6.0,38.0,55.0,20.0
2.1047000885009766,30.0,64.0,49.0,16.0
2.107083320617676,13.0,56.0,29.0,26.0
2.1095333099365234,26.0,48.0,18.0,16.0
2.1119167804718018,25.0,27.0,0.0,49.0
2.114300012588501,25.0,23.0,18.0,81.0
2.1166832447052,26.0,13.0,9.0,50.0
2.1190667152404785,21.0,84.0,0.0,19.0
2.1214499473571777,29.0,57.0,34.0,47.0
2.123833417892456,36.0,30.0,55.0,10.0
2.1262834072113037,27.0,10.0,48.0,416.0
2.128666639328003,18.0,38.0,10.0,213.0
2.1310501098632812,38.0,31.0,33.0,10.0
2.1334333419799805,17.0,24.0,55.0,316.0
2.1358165740966797,45.0,364.0,34.0,174.0
2.138200044631958,19.0,188.0,372.0,33.0
2.1405832767486572,18.0,12.0,198.0,0.0
2.143033266067505,162.0,15.0,25.0,30.0
2.145416736602783,92.0,0.0,20.0,20.0
2.1477999687194824,22.0,5.0,48.0,10.0
2.1501834392547607,57.0,11.0,19.0,285.0
2.15256667137146,8.0,5.0,10.0,153.0
2.154949903488159,58.0,15.0,11.0,22.0
2.1573333740234375,32.0,26.0,26.0,19.0
2.159766674041748,35.0,448.0,33.0,27.0
2.1621499061584473,20.0,233.0,28.0,35.0
2.1645333766937256,48.0,18.0,22.0,309.0
2.166916608810425,50.0,86.0,24.0,155.0
2.169300079345703,40.0,22.0,27.0,0.0
2.1716833114624023,24.0,70.0,19.0,14.0
2.1740667819976807,18.0,42.0,35.0,28.0
2.1765167713165283,42.0,15.0,40.0,512.0
2.1789000034332275,36.0,31.0,5.0,1359.0
2.1812832355499268,13.0,100.0,34.0,975.0
2.183666706085205,25.0,70.0,16.0,1039.0
2.1860499382019043,22.0,39.0,0.0,1410.0
2.1884334087371826,19.0,20.0,5.0,32.0
2.190816640853882,10.0,5.0,5.0,56.0
2.1932666301727295,45.0,23.0,20.0,323.0
2.195650100708008,25.0,14.0,29.0,167.0
2.198033332824707,6.0,5.0,25.0,11.0
2.2004165649414062,20.0,17.0,29.0,43.0
2.2028000354766846,0.0,37.0,33.0,22.0
2.205183267593384,8.0,35.0,31.0,1017.0
2.207566738128662,19.0,28.0,52.0,522.0
2.2100167274475098,23.0,15.0,67.0,27.0
2.212399959564209,12.0,29.0,68.0,822.0
2.2147834300994873,0.0,22.0,24.0,617.0
2.2171833515167236,55.0,403.0,45.0,31.0
2.219566583633423,69.0,225.0,30.0,28.0
2.221950054168701,38.0,47.0,16.0,899.0
2.2243332862854004,17.0,62.0,36.0,752.0
2.226749897003174,11.0,39.0,27.0,22.0
2.229133367538452,36.0,51.0,5.0,1270.0
2.2315165996551514,46.0,24.0,17.0,946.0
2.2339000701904297,6.0,17.0,30.0,5.0
2.236283302307129,41.0,40.0,21.0,37.0
2.2386667728424072,33.0,45.0,13.0,49.0
2.2410500049591064,5.0,50.0,6.0,61.0
2.24346661567688,15.0,35.0,0.0,29.0
2.245850086212158,47.0,19.0,27.0,19.0
2.2482333183288574,57.0,20.0,26.0,34.0
2.2506165504455566,17.0,20.0,25.0,25.0
2.253000020980835,24.0,22.0,10.0,16.0
2.255383253097534,22.0,15.0,0.0,27.0
2.2577667236328125,25.0,109.0,2.0,43.0
2.260183334350586,16.0,210.0,5.0,438.0
2.262566566467285,14.0,311.0,48.0,833.0
2.2649500370025635,27.0,1225.0,27.0,635.0
2.2673332691192627,14.0,5324.0,5.0,436.0
2.269716739654541,20.0,15876.0,2050.0,8153.0
2.2720999717712402,26.0,32116.0,3169.0,15408.0
2.2744834423065186,10.0,67616.0,4442.0,20476.0
2.276900053024292,28.0,111808.0,8057.0,37664.0
2.279283285140991,21.0,196416.0,20116.0,61280.0
2.2816667556762695,0.0,351808.0,31012.0,101760.0
2.2840499877929688,23.0,560896.0,65552.0,134528.0
2.286433219909668,20.0,847360.0,80544.0,225472.0
2.2888166904449463,13.0,1218560.0,119632.0,305408.0
2.2911999225616455,17.0,1509120.0,148800.0,376640.0
2.293616771697998,22.0,1866752.0,168576.0,526080.0
2.2960000038146973,26.0,2353152.0,214400.0,579584.0
2.2983832359313965,30.0,2830336.0,247296.0,698368.0
2.300766706466675,16.0,3145728.0,273856.0,743680.0
2.303149938583374,31.0,3482624.0,288960.0,824064.0
2.3055334091186523,60.0,3702784.0,334400.0,926976.0
2.3079166412353516,52.0,3733504.0,315968.0,858624.0
2.310333251953125,44.0,4381696.0,412096.0,1108736.0
2.3127167224884033,137.0,4425728.0,427264.0,1033984.0
2.3150999546051025,115.0,4668416.0,456768.0,1092096.0
2.317483425140381,41.0,4648960.0,426624.0,1154304.0
2.31986665725708,78.0,4441088.0,421824.0,1118720.0
2.3222498893737793,128.0,4636672.0,408768.0,1060096.0
2.3246333599090576,176.0,4911104.0,423808.0,1110016.0
2.327049970626831,415.0,4808704.0,420672.0,1142784.0
2.3294334411621094,228.0,5056512.0,417600.0,1213440.0
2.3318166732788086,41.0,5027840.0,476480.0,1213440.0
2.334199905395508,145.0,5163008.0,443712.0,1253120.0
2.336583375930786,572.0,4995072.0,410880.0,1195008.0
2.3389666080474854,976.0,5161984.0,455040.0,1219840.0
2.3413500785827637,632.0,5358592.0,471616.0,1240064.0
2.343766689300537,57.0,5250048.0,436544.0,1260544.0
2.3461499214172363,82.0,5163008.0,461888.0,1273344.0
2.3485333919525146,88.0,5427200.0,483328.0,1286144.0
2.350916624069214,93.0,5300224.0,496128.0,1215488.0
2.353300094604492,120.0,5214208.0,493440.0,1291008.0
2.3556833267211914,119.0,5070848.0,464192.0,1330944.0
2.3580665588378906,117.0,5328896.0,488128.0,1358848.0
2.360483407974243,168.0,5376000.0,494336.0,1346048.0
2.3628666400909424,215.0,5424128.0,500608.0,1355520.0
2.3652501106262207,910.0,5490688.0,470720.0,1317632.0
2.36763334274292,503.0,5456896.0,483136.0,1348864.0
2.370016574859619,97.0,5423104.0,453248.0,1350912.0
2.3724000453948975,177.0,5382144.0,487424.0,1280000.0
2.3747832775115967,474.0,5091328.0,439040.0,1177856.0
2.37719988822937,436.0,5167104.0,472768.0,1216000.0
2.3795833587646484,62.0,5279744.0,439104.0,1249792.0
2.3819665908813477,154.0,4955136.0,454272.0,1213952.0
2.384350061416626,247.0,4910080.0,460928.0,1184512.0
2.386733293533325,579.0,4872192.0,408128.0,1109760.0
2.3891167640686035,328.0,4713472.0,426112.0,1189888.0
2.3914999961853027,77.0,4660224.0,427520.0,1073920.0
2.393916606903076,138.0,4504576.0,366528.0,1097216.0
2.3963000774383545,117.0,4321280.0,396672.0,1061632.0
2.3986833095550537,96.0,4444160.0,376000.0,993536.0
2.401066780090332,122.0,4111360.0,370048.0,988416.0
2.4034500122070312,148.0,3935232.0,376192.0,888576.0
2.4058332443237305,775.0,3709952.0,326656.0,775424.0
2.408216714859009,421.0,3731456.0,300736.0,899328.0
2.4106333255767822,68.0,3561472.0,329856.0,838144.0
2.4130165576934814,61.0,3495936.0,342976.0,789248.0
2.4154000282287598,133.0,3387392.0,280128.0,833024.0
2.417783260345459,88.0,3261440.0,282688.0,689152.0
2.4201667308807373,59.0,3256320.0,295424.0,730880.0
2.4225499629974365,101.0,2984960.0,257152.0,719104.0
2.424933433532715,518.0,3031040.0,247232.0,693248.0
2.4273500442504883,324.0,2958336.0,265536.0,674560.0
2.4297332763671875,130.0,2684928.0,241664.0,645376.0
2.432116746902466,114.0,2759680.0,233536.0,603648.0
2.434499979019165,78.0,2541568.0,215168.0,622592.0
2.4368834495544434,66.0,2336768.0,213632.0,519168.0
2.4392666816711426,98.0,2343936.0,188096.0,491264.0
2.441649913787842,102.0,2078720.0,176704.0,487424.0
2.4440667629241943,105.0,1964800.0,171968.0,449536.0
2.4464499950408936,104.0,1863424.0,166912.0,455424.0
2.4488332271575928,105.0,1752576.0,162176.0,345600.0
2.451216697692871,107.0,1475072.0,144192.0,352064.0
2.4535999298095703,49.0,1470976.0,119136.0,335040.0
2.4559834003448486,65.0,1356544.0,120528.0,290752.0
2.458366632461548,82.0,1076480.0,104240.0,243904.0
2.4607832431793213,1011.0,1075456.0,87248.0,228288.0
2.4631667137145996,964.0,951808.0,77184.0,216512.0
2.465549945831299,58.0,810496.0,70192.0,198144.0
2.467933416366577,87.0,629504.0,58288.0,145152.0
2.4703166484832764,61.0,610560.0,48224.0,122112.0
2.4727001190185547,18.0,473728.0,32832.0,104496.0
2.475083351135254,815.0,393792.0,30656.0,89536.0
2.4774999618530273,446.0,315712.0,22872.0,64688.0
2.4798834323883057,76.0,300352.0,25488.0,53920.0
2.482266664505005,131.0,254720.0,25048.0,70336.0
2.484649896621704,33.0,222080.0,17424.0,46144.0
2.4870333671569824,71.0,218880.0,15268.0,48448.0
2.4894165992736816,37.0,171520.0,17048.0,47936.0
2.49180006980896,29.0,153408.0,10272.0,27684.0
2.4942166805267334,21.0,152448.0,15600.0,23184.0
2.4965999126434326,54.0,133440.0,10416.0,28616.0
2.498983383178711,54.0,117024.0,9608.0,26932.0
2.5009334087371826,47.0,125472.0,11836.0,27384.0
2.5017833709716797,63.0,113648.0,11932.0,21448.0
2.502650022506714,62.0,122208.0,12032.0,26676.0
2.503516674041748,61.0,116144.0,11036.0,24216.0
2.5043833255767822,27.0,117888.0,9776.0,21276.0
2.5052499771118164,86.0,112576.0,12864.0,22224.0
2.5061166286468506,95.0,85136.0,4348.0,23176.0
2.5069832801818848,56.0,114752.0,5396.0,18180.0
2.507849931716919,15.0,84960.0,6989.0,13188.0
2.508716583251953,48.0,80592.0,5228.0,25564.0
2.5095832347869873,51.0,100016.0,4400.0,21060.0
2.5104832649230957,58.0,90080.0,8564.0,18404.0
2.51134991645813,53.0,87744.0,10340.0,22544.0
2.512216567993164,48.0,77312.0,8532.0,20752.0
2.5130832195281982,7.0,100016.0,8560.0,18964.0
2.5139501094818115,19.0,95840.0,9448.0,19260.0
2.5148167610168457,40.0,77328.0,5722.0,19556.0
2.51568341255188,38.0,80256.0,5131.0,17996.0
2.516550064086914,40.0,85712.0,7202.0,17396.0
2.5174167156219482,38.0,75344.0,7443.0,16800.0
2.5182833671569824,36.0,66400.0,7764.0,16468.0
2.5191500186920166,46.0,66400.0,2933.0,16136.0
2.520016670227051,56.0,71856.0,4824.0,18520.0
2.520883321762085,62.0,77328.0,5882.0,17308.0
2.521749973297119,76.0,58896.0,8628.0,16100.0
2.5226166248321533,34.0,74336.0,6706.0,21488.0
2.5234832763671875,39.0,74304.0,3576.0,21336.0
2.5243499279022217,21.0,74784.0,6265.0,14492.0
2.525216579437256,22.0,63168.0,4768.0,10184.0
2.52608323097229,23.0,77424.0,5676.0,21844.0
2.5269999504089355,42.0,69952.0,4168.0,22724.0
2.527883291244507,54.0,70576.0,4677.0,14872.0
2.528749942779541,65.0,63536.0,6989.0,20756.0
2.529616594314575,42.0,65088.0,6788.0,12480.0
2.5304832458496094,44.0,56192.0,5723.0,16556.0
2.5313498973846436,46.0,59536.0,7836.0,16336.0
2.5322165489196777,51.0,56416.0,4770.0,16648.0
2.533083438873291,18.0,60576.0,5392.0,11212.0
2.533950090408325,39.0,64736.0,5004.0,17112.0
2.5348167419433594,32.0,67424.0,4506.0,13812.0
2.5356833934783936,44.0,64656.0,4008.0,13984.0
2.5365500450134277,42.0,61888.0,3844.0,8392.0
2.537416696548462,40.0,57360.0,2651.0,10260.0
2.538283348083496,42.0,65536.0,1457.0,13736.0
2.5391499996185303,32.0,42208.0,5501.0,12360.0
2.5400166511535645,36.0,62368.0,4878.0,11192.0
2.5408833026885986,41.0,53200.0,4910.0,9900.0
2.541749954223633,81.0,51440.0,5243.0,8592.0
2.542616605758667,421.0,48256.0,2173.0,7284.0
2.543483257293701,453.0,55648.0,5818.0,13096.0
2.544416666030884,484.0,41536.0,7518.0,11684.0
2.545283317565918,272.0,55136.0,9336.0,8073.0
2.546149969100952,73.0,48480.0,4362.0,7236.0
2.5470166206359863,25.0,42672.0,2386.0,10488.0
2.5478832721710205,38.0,50448.0,1735.0,10224.0
2.5487499237060547,51.0,44576.0,2358.0,12496.0
2.549616575241089,65.0,49088.0,379.0,12996.0
2.550483226776123,750.0,43536.0,1845.0,13492.0
2.5513501167297363,432.0,37984.0,3310.0,13080.0
2.5522167682647705,114.0,40688.0,4376.0,10940.0
2.5530834197998047,39.0,43392.0,3172.0,11284.0
2.553950071334839,1044.0,41104.0,2520.0,10816.0
2.554816722869873,1806.0,38816.0,2204.0,10348.0
2.5556833744049072,3235.0,42464.0,1291.0,10504.0
2.5565500259399414,2892.0,46112.0,2669.0,10656.0
2.5574166774749756,3359.0,44800.0,4048.0,9356.0
2.5582833290100098,1956.0,48176.0,3571.0,6182.0
2.559149980545044,3759.0,44384.0,5479.0,6667.0
2.560016632080078,1940.0,40608.0,4656.0,7153.0
2.5609166622161865,1725.0,39776.0,3941.0,5466.0
2.561816692352295,1087.0,40624.0,4592.0,8736.0
2.562683343887329,1685.0,40496.0,2950.0,10728.0
2.5635499954223633,2283.0,40368.0,2506.0,12724.0
2.5644166469573975,5067.0,40240.0,4845.0,8740.0
2.5652832984924316,6675.0,33792.0,1103.0,6677.0
2.566149950027466,8716.0,43520.0,2940.0,6180.0
2.5670166015625,2257.0,24512.0,5277.0,7972.0
2.567883253097534,4715.0,32592.0,1772.0,7027.0
2.5687499046325684,10344.0,32216.0,2338.0,6082.0
2.5696165561676025,6446.0,37920.0,2903.0,6562.0
2.570483446121216,4488.0,36704.0,2740.0,7041.0
2.57135009765625,3011.0,42880.0,3080.0,6926.0
2.572216749191284,4964.0,41248.0,2559.0,6811.0
2.5730834007263184,5208.0,37440.0,4608.0,6880.0
2.5739500522613525,5453.0,37072.0,670.0,6949.0
2.5748167037963867,5654.0,30624.0,910.0,8308.0
2.575683355331421,5854.0,29876.0,1150.0,9664.0
2.576550006866455,6002.0,29132.0,1850.0,10452.0
2.5774166584014893,6150.0,32568.0,1822.0,8021.0
2.5783333778381348,5565.0,30172.0,1795.0,7582.0
2.579200029373169,4980.0,27780.0,3456.0,7943.0
2.580066680908203,8396.0,31580.0,3439.0,7511.0
2.5809333324432373,11816.0,35376.0,4542.0,5693.0
2.5817999839782715,10560.0,32992.0,3822.0,8188.0
2.5826666355133057,9308.0,30592.0,1557.0,7177.0
2.58353328704834,13240.0,26412.0,456.0,6166.0
2.584399938583374,9604.0,27096.0,2122.0,7614.0
2.585266590118408,5974.0,28412.0,1320.0,8308.0
2.5861332416534424,9424.0,20704.0,518.0,2685.0
2.5869998931884766,11828.0,28560.0,3708.0,7371.0
2.58786678314209,12332.0,21276.0,4016.0,5825.0
2.588733434677124,13552.0,29752.0,1530.0,4474.0
2.589600086212158,12196.0,26348.0,2910.0,7573.0
2.5904667377471924,11228.0,27852.0,1803.0,5333.0
2.5913333892822266,10400.0,29352.0,1019.0,6362.0
2.5922000408172607,19108.0,29612.0,2450.0,7574.0
2.593083381652832,16964.0,26604.0,678.0,8260.0
2.593933343887329,12800.0,24268.0,1137.0,3711.0
2.5948333740234375,19992.0,26480.0,1595.0,6561.0
2.5957000255584717,13340.0,22380.0,1381.0,6164.0
2.596566677093506,12908.0,23004.0,1324.0,6172.0
2.59743332862854,18764.0,24352.0,1686.0,3810.0
2.598299980163574,16264.0,25576.0,2047.0,3941.0
2.5991666316986084,13380.0,26656.0,1865.0,4072.0
2.6000332832336426,19916.0,27736.0,2698.0,2082.0
2.6008999347686768,14516.0,29428.0,2141.0,8380.0
2.601766586303711,17948.0,28984.0,1583.0,9484.0
2.602633237838745,19924.0,28544.0,2880.0,5207.0
2.6034998893737793,14500.0,20288.0,2718.0,5794.0
2.6043667793273926,16376.0,34224.0,2557.0,8054.0
2.6052334308624268,13468.0,22788.0,3423.0,1848.0
2.606100082397461,16532.0,20268.0,783.0,6796.0
2.606966733932495,11164.0,17212.0,1893.0,9276.0
2.6078333854675293,12792.0,12900.0,349.0,2545.0
2.6087000370025635,10644.0,27956.0,243.0,8892.0
2.6095666885375977,17404.0,24752.0,510.0,7575.0
2.610433340072632,17216.0,27580.0,778.0,8972.0
2.611299991607666,17028.0,17328.0,1105.0,4385.0
2.6122334003448486,17240.0,22048.0,877.0,5108.0
2.613100051879883,17452.0,24140.0,648.0,3890.0
2.613966703414917,18556.0,20020.0,563.0,1246.0
2.614833354949951,19664.0,17592.0,478.0,4794.0
2.6157000064849854,20772.0,25536.0,521.0,5624.0
2.6165666580200195,13120.0,22580.0,564.0,4253.0
2.6174333095550537,21236.0,22412.0,1666.0,2064.0
2.618299961090088,20296.0,15636.0,1444.0,5542.0
2.619166612625122,13712.0,16800.0,2193.0,2129.0
2.6200332641601562,24496.0,18328.0,1563.0,4845.0
2.6208999156951904,24960.0,15260.0,1550.0,6317.0
2.6217665672302246,20088.0,15460.0,1538.0,5595.0
2.622633218765259,16444.0,15660.0,1212.0,4599.0
2.623500108718872,22728.0,15032.0,653.0,3145.0
2.6243667602539062,24424.0,16936.0,981.0,8029.0
2.6252334117889404,16240.0,15888.0,1309.0,6777.0
2.6261000633239746,26044.0,14844.0,1504.0,3268.0
2.626966714859009,21392.0,17044.0,1331.0,3942.0
2.627833366394043,17740.0,18028.0,1157.0,1623.0
2.6287667751312256,15200.0,20216.0,1483.0,4240.0
2.6296167373657227,17820.0,7124.0,1809.0,7790.0
2.630483388900757,15848.0,23508.0,1989.0,9380.0
2.631350040435791,18836.0,17888.0,2170.0,4566.0
2.632216691970825,16704.0,21284.0,547.0,1795.0
2.6330833435058594,19900.0,16424.0,694.0,8600.0
2.6339499950408936,18948.0,13256.0,15.0,3223.0
2.6348166465759277,15204.0,22924.0,100.0,4611.0
2.635683298110962,18596.0,12540.0,870.0,4084.0
2.636549949645996,11328.0,14296.0,2196.0,3937.0
2.6374166011810303,13436.0,19560.0,2894.0,3317.0
2.6382832527160645,17544.0,15320.0,3914.0,2346.0
2.6391499042510986,14708.0,17576.0,519.0,3062.0
2.640016555786133,16740.0,19220.0,4000.0,3779.0
2.640883445739746,18308.0,13540.0,1043.0,4442.0
2.6417665481567383,17568.0,13648.0,1257.0,3665.0
2.6426167488098145,7712.0,15628.0,3241.0,2889.0
2.6434834003448486,13036.0,15568.0,1784.0,4573.0
2.644350051879883,16048.0,15504.0,3040.0,2664.0
2.645233392715454,11968.0,9724.0,1229.0,3203.0
2.6461167335510254,10988.0,18912.0,712.0,3326.0
2.6469833850860596,15352.0,15412.0,41.0,3945.0
2.6478500366210938,8043.0,11908.0,1819.0,1315.0
2.648716688156128,13744.0,11076.0,1165.0,2894.0
2.649583339691162,12984.0,9492.0,4905.0,3923.0
2.6504499912261963,11944.0,17124.0,3842.0,1704.0
2.6513166427612305,10092.0,14700.0,1564.0,4521.0
2.6521832942962646,6850.0,12276.0,705.0,2006.0
2.653049945831299,10196.0,6209.0,2008.0,2747.0
2.653916597366333,7525.0,6631.0,2802.0,4066.0
2.654783248901367,5396.0,10268.0,1880.0,3182.0
2.6556499004364014,7251.0,9344.0,0.0,2297.0
2.6565165519714355,8424.0,7877.0,1240.0,2772.0
2.657383441925049,9208.0,9932.0,559.0,2248.0
2.658250093460083,5062.0,11360.0,619.0,1723.0
2.659116744995117,5274.0,13248.0,2188.0,3218.0
2.6599833965301514,9740.0,11916.0,1851.0,3589.0
2.6608500480651855,9704.0,10580.0,1328.0,866.0
2.6617166996002197,8972.0,12332.0,1115.0,1990.0
2.6626501083374023,12160.0,9280.0,25.0,3986.0
2.6635167598724365,5309.0,9388.0,991.0,3176.0
2.6643834114074707,8228.0,10424.0,1529.0,2222.0
2.665250062942505,7694.0,2393.0,1312.0,4640.0
2.666116714477539,5070.0,5424.0,1770.0,2007.0
2.6669833660125732,9592.0,10132.0,1399.0,3131.0
2.6678500175476074,7743.0,12548.0,1255.0,2270.0
2.6687166690826416,6358.0,6656.0,29.0,2583.0
2.669583320617676,4222.0,9928.0,31.0,3060.0
2.67044997215271,4874.0,9868.0,76.0,2173.0
2.671316623687744,5525.0,10504.0,843.0,2128.0
2.6721832752227783,4596.0,5139.0,758.0,1468.0
2.6730499267578125,2099.0,9236.0,672.0,1693.0
2.6739165782928467,4222.0,11092.0,627.0,3327.0
2.674783229827881,6318.0,10912.0,581.0,2831.0
2.675649881362915,4798.0,10136.0,872.0,1817.0
2.6765167713165283,4915.0,9716.0,1161.0,1612.0
2.6773834228515625,5033.0,7256.0,856.0,1407.0
2.6782500743865967,5591.0,7032.0,550.0,1936.0
2.679150104522705,5115.0,5755.0,27.0,737.0
2.6800334453582764,4639.0,8960.0,1001.0,1226.0
2.6809000968933105,4298.0,9172.0,299.0,1916.0
2.681783437728882,3958.0,8548.0,158.0,1816.0
2.682633399963379,2967.0,10192.0,18.0,2165.0
2.683500051498413,3903.0,5460.0,46.0,2015.0
2.6843667030334473,3916.0,5160.0,73.0,1865.0
2.6852333545684814,3929.0,9224.0,45.0,2673.0
2.6861000061035156,2319.0,7315.0,17.0,884.0
2.68696665763855,1060.0,5575.0,422.0,1465.0
2.687833309173584,3116.0,4335.0,734.0,3327.0
2.688699960708618,3242.0,5448.0,1047.0,2525.0
2.6895666122436523,3745.0,3846.0,33.0,19.0
2.6904332637786865,4248.0,2244.0,61.0,1329.0
2.6912999153137207,3763.0,4980.0,709.0,1325.0
2.692166566848755,3277.0,5587.0,50.0,2191.0
2.693033218383789,2646.0,3995.0,27.0,2391.0
2.6939001083374023,1552.0,7082.0,12.0,1158.0
2.6947667598724365,4625.0,7006.0,34.0,1672.0
2.6956334114074707,5208.0,6608.0,56.0,2231.0
2.696533441543579,2753.0,6210.0,1217.0,2789.0
2.6974000930786133,3909.0,6140.0,1569.0,457.0
2.6982667446136475,5604.0,4787.0,522.0,1894.0
2.6991333961486816,561.0,4259.0,537.0,2975.0
