,486.2099914550781,487.2099914550781,488.2099914550781,489.2099914550781,490.2099914550781,491.2099914550781,492.2099914550781,493.2099914550781
5.101733207702637,5.0,18.0,10.0,57.0,17.0,5.0,5.0,59.0
5.103466510772705,7.0,10.0,0.0,25.0,26.0,15.0,45.0,26.0
5.105199813842773,56.0,23.0,33.0,14.0,38.0,1292.0,25.0,27.0
5.106933116912842,29.0,18.0,29.0,67.0,12.0,19.0,30.0,56.0
5.108666896820068,17.0,22.0,21.0,42.0,28.0,70.0,13.0,21.0
5.110400199890137,0.0,20.0,24.0,21.0,43.0,17.0,18.0,28.0
5.112133502960205,10.0,29.0,5.0,21.0,43.0,24.0,22.0,0.0
5.113866806030273,27.0,34.0,11.0,55.0,17.0,13.0,15.0,40.0
5.115600109100342,14.0,7.0,18.0,45.0,16.0,41.0,0.0,25.0
5.117400169372559,0.0,32.0,20.0,23.0,7.0,49.0,27.0,32.0
5.119133472442627,10.0,15.0,19.0,29.0,10.0,38.0,26.0,34.0
5.120866775512695,13.0,8.0,18.0,26.0,22.0,30.0,24.0,22.0
5.122600078582764,15.0,0.0,0.0,23.0,14.0,21.0,21.0,37.0
5.124333381652832,11.0,18.0,15.0,5.0,6.0,15.0,26.0,0.0
5.1260666847229,7.0,16.0,38.0,10.0,14.0,8.0,27.0,30.0
5.127799987792969,25.0,20.0,35.0,8.0,10.0,9.0,27.0,47.0
5.129533290863037,22.0,24.0,0.0,6.0,5.0,13.0,27.0,7.0
5.1312665939331055,11.0,28.0,24.0,13.0,13.0,16.0,5.0,17.0
5.132999897003174,0.0,11.0,48.0,10.0,14.0,14.0,17.0,5.0
5.1347832679748535,11.0,24.0,23.0,7.0,15.0,12.0,21.0,18.0
5.136533260345459,14.0,17.0,43.0,5.0,28.0,24.0,17.0,10.0
5.13824987411499,17.0,10.0,14.0,28.0,31.0,22.0,13.0,15.0
5.139983177185059,21.0,28.0,7.0,17.0,25.0,20.0,5.0,19.0
5.141716480255127,24.0,17.0,19.0,5.0,28.0,17.0,23.0,20.0
5.143449783325195,25.0,33.0,27.0,0.0,29.0,5.0,25.0,24.0
5.145183563232422,14.0,10.0,36.0,10.0,28.0,5.0,27.0,27.0
5.146933555603027,14.0,34.0,33.0,21.0,25.0,22.0,11.0,27.0
5.148650169372559,13.0,19.0,30.0,31.0,20.0,13.0,29.0,20.0
5.150383472442627,11.0,7.0,5.0,18.0,14.0,28.0,0.0,21.0
5.152183532714844,21.0,5.0,26.0,14.0,18.0,15.0,10.0,25.0
5.153916835784912,19.0,11.0,35.0,30.0,22.0,0.0,20.0,33.0
5.1556501388549805,16.0,17.0,22.0,10.0,5.0,34.0,10.0,29.0
5.157383441925049,14.0,20.0,5.0,15.0,30.0,6.0,0.0,24.0
5.159116744995117,15.0,22.0,5.0,7.0,43.0,6.0,16.0,15.0
5.1608500480651855,16.0,16.0,5.0,0.0,0.0,20.0,10.0,5.0
5.162583351135254,8.0,22.0,3.0,8.0,16.0,24.0,12.0,60.0
5.164316654205322,0.0,27.0,0.0,7.0,0.0,27.0,5.0,49.0
5.166049957275391,38.0,24.0,22.0,5.0,5.0,25.0,5.0,15.0
5.167783260345459,40.0,20.0,28.0,5.0,10.0,16.0,5.0,11.0
5.169583320617676,32.0,28.0,15.0,52.0,25.0,24.0,20.0,27.0
5.171316623687744,14.0,17.0,30.0,50.0,26.0,19.0,20.0,12.0
5.1730499267578125,18.0,19.0,12.0,30.0,26.0,25.0,20.0,18.0
5.174783229827881,0.0,21.0,12.0,7.0,5.0,13.0,17.0,12.0
5.176516532897949,18.0,19.0,10.0,10.0,10.0,0.0,25.0,5.0
5.178249835968018,10.0,16.0,13.0,12.0,13.0,28.0,26.0,34.0
5.179983139038086,49.0,25.0,16.0,5.0,15.0,9.0,26.0,32.0
5.181716442108154,46.0,5.0,14.0,11.0,44.0,29.0,19.0,10.0
5.183450222015381,14.0,31.0,11.0,16.0,27.0,19.0,12.0,37.0
5.185233116149902,9.0,12.0,15.0,20.0,10.0,26.0,25.0,49.0
5.186966896057129,18.0,13.0,11.0,40.0,16.0,5.0,24.0,16.0
5.188700199127197,5.0,17.0,7.0,37.0,13.0,16.0,21.0,28.0
5.190433502197266,17.0,20.0,10.0,26.0,10.0,20.0,18.0,31.0
5.192183494567871,29.0,13.0,8.0,22.0,11.0,17.0,14.0,25.0
5.193900108337402,37.0,5.0,16.0,13.0,10.0,14.0,10.0,18.0
5.195633411407471,22.0,11.0,10.0,5.0,9.0,5.0,24.0,30.0
5.197366714477539,18.0,16.0,5.0,7.0,0.0,11.0,15.0,16.0
5.199100017547607,24.0,19.0,18.0,9.0,20.0,16.0,5.0,20.0
5.202633380889893,29.0,10.0,23.0,15.0,64.0,17.0,16.0,24.0
5.206099987030029,26.0,0.0,14.0,20.0,65.0,6.0,17.0,5.0
5.209566593170166,22.0,12.0,5.0,24.0,27.0,6.0,17.0,6.0
5.213033199310303,11.0,11.0,23.0,5.0,25.0,5.0,23.0,6.0
5.2164998054504395,15.0,11.0,18.0,26.0,46.0,17.0,20.0,3.0
5.220033168792725,11.0,22.0,10.0,9.0,5.0,21.0,17.0,0.0
5.223499774932861,6.0,21.0,25.0,30.0,21.0,11.0,10.0,24.0
5.226966857910156,8.0,0.0,38.0,14.0,0.0,25.0,5.0,26.0
5.230433464050293,10.0,10.0,142.0,13.0,16.0,20.0,18.0,16.0
5.23390007019043,20.0,0.0,78.0,5.0,11.0,33.0,12.0,41.0
5.237433433532715,13.0,32.0,13.0,22.0,5.0,33.0,5.0,34.0
5.240900039672852,5.0,34.0,6.0,39.0,26.0,13.0,15.0,27.0
5.244366645812988,46.0,27.0,48.0,27.0,25.0,26.0,15.0,0.0
5.247833251953125,44.0,20.0,0.0,18.0,17.0,23.0,15.0,22.0
5.251299858093262,29.0,48.0,40.0,5.0,0.0,26.0,15.0,38.0
5.25481653213501,15.0,75.0,0.0,31.0,24.0,21.0,22.0,32.0
5.2582831382751465,13.0,46.0,27.0,25.0,26.0,21.0,0.0,32.0
5.261750221252441,21.0,16.0,24.0,18.0,41.0,18.0,17.0,12.0
5.265216827392578,16.0,26.0,38.0,13.0,29.0,14.0,24.0,0.0
5.268683433532715,35.0,54.0,38.0,7.0,17.0,12.0,12.0,32.0
5.272216796875,40.0,33.0,34.0,15.0,21.0,10.0,0.0,21.0
5.275683403015137,29.0,0.0,30.0,22.0,25.0,18.0,13.0,35.0
5.279150009155273,30.0,6.0,0.0,14.0,0.0,19.0,10.0,21.0
5.28261661529541,26.0,14.0,7.0,5.0,23.0,19.0,6.0,23.0
5.286083221435547,22.0,0.0,18.0,10.0,31.0,29.0,13.0,13.0
5.289616584777832,0.0,20.0,37.0,13.0,38.0,31.0,15.0,21.0
5.293083190917969,29.0,12.0,21.0,15.0,0.0,11.0,22.0,19.0
5.2965497970581055,0.0,6.0,5.0,5.0,69.0,6.0,24.0,19.0
5.3000168800354,19.0,0.0,0.0,6.0,53.0,0.0,16.0,34.0
5.303483486175537,35.0,22.0,5.0,21.0,18.0,7.0,19.0,35.0
5.306983470916748,35.0,11.0,10.0,32.0,5.0,5.0,22.0,49.0
5.310450077056885,35.0,0.0,12.0,21.0,29.0,14.0,16.0,40.0
5.3139166831970215,22.0,20.0,48.0,36.0,27.0,17.0,32.0,47.0
5.317383289337158,30.0,0.0,35.0,46.0,21.0,19.0,0.0,41.0
5.320899963378906,10.0,5.0,22.0,37.0,18.0,0.0,12.0,37.0
5.324366569519043,10.0,26.0,5.0,23.0,12.0,27.0,6.0,32.0
5.32783317565918,5.0,7.0,0.0,10.0,17.0,0.0,22.0,11.0
5.331299781799316,0.0,16.0,0.0,33.0,5.0,6.0,11.0,13.0
5.334766864776611,23.0,24.0,0.0,29.0,42.0,13.0,0.0,13.0
5.3383002281188965,20.0,69.0,0.0,18.0,30.0,9.0,16.0,12.0
5.341766834259033,16.0,46.0,3.0,17.0,19.0,5.0,32.0,11.0
5.34523344039917,5.0,22.0,5.0,13.0,19.0,8.0,23.0,11.0
5.348700046539307,13.0,36.0,5.0,14.0,5.0,11.0,15.0,12.0
5.352166652679443,12.0,13.0,16.0,21.0,28.0,11.0,20.0,28.0
5.355683326721191,27.0,21.0,8.0,18.0,15.0,10.0,50.0,27.0
5.359149932861328,21.0,0.0,0.0,14.0,15.0,11.0,63.0,29.0
5.362616539001465,0.0,0.0,5.0,41.0,14.0,12.0,0.0,30.0
5.366083145141602,30.0,0.0,9.0,42.0,16.0,13.0,23.0,41.0
5.3695502281188965,21.0,26.0,13.0,42.0,16.0,13.0,7.0,5.0
5.373083114624023,11.0,13.0,9.0,19.0,15.0,12.0,5.0,0.0
5.3765668869018555,13.0,0.0,5.0,6.0,20.0,11.0,16.0,13.0
5.380033493041992,15.0,11.0,6.0,47.0,7.0,13.0,17.0,14.0
5.383500099182129,44.0,21.0,17.0,40.0,7.0,15.0,18.0,14.0
5.386966705322266,42.0,0.0,16.0,0.0,16.0,16.0,21.0,0.0
5.390483379364014,13.0,6.0,15.0,6.0,22.0,17.0,19.0,12.0
5.39394998550415,43.0,11.0,16.0,16.0,27.0,5.0,16.0,10.0
5.397416591644287,37.0,21.0,17.0,11.0,35.0,38.0,13.0,11.0
5.400883197784424,17.0,17.0,12.0,5.0,43.0,19.0,9.0,16.0
5.4043498039245605,25.0,15.0,12.0,12.0,48.0,0.0,17.0,21.0
5.407883167266846,15.0,16.0,11.0,19.0,19.0,10.0,18.0,19.0
5.411349773406982,19.0,16.0,5.0,22.0,53.0,35.0,18.0,18.0
5.414816856384277,22.0,30.0,10.0,17.0,0.0,42.0,21.0,17.0
5.418283462524414,29.0,15.0,14.0,19.0,15.0,31.0,18.0,20.0
5.421750068664551,22.0,0.0,19.0,20.0,22.0,40.0,15.0,5.0
5.425283432006836,15.0,26.0,22.0,6.0,11.0,30.0,5.0,0.0
5.428750038146973,16.0,54.0,25.0,18.0,0.0,55.0,11.0,18.0
5.432216644287109,5.0,398.0,42.0,15.0,29.0,9.0,11.0,15.0
5.435683250427246,31.0,742.0,697.0,12.0,681.0,9.0,10.0,11.0
5.43916654586792,55.0,2349.0,1231.0,348.0,556.0,2210.0,40.0,6.0
5.442633152008057,51.0,2927.0,9116.0,3996.0,3668.0,1958.0,1048.0,503.0
5.446100234985352,11.0,8524.0,9692.0,9596.0,7254.0,3589.0,1952.0,1000.0
5.449566841125488,55.0,6906.0,10240.0,11532.0,10568.0,8116.0,2634.0,1051.0
5.453033447265625,37.0,16832.0,19332.0,23440.0,21032.0,12152.0,6923.0,1101.0
5.45656681060791,19.0,17612.0,29548.0,41840.0,31364.0,24272.0,6194.0,1970.0
5.460033416748047,17.0,30048.0,56800.0,60368.0,61712.0,24788.0,8916.0,3324.0
5.463500022888184,42.0,31856.0,66400.0,60272.0,54736.0,29276.0,11568.0,4965.0
5.46696662902832,17.0,42752.0,80688.0,97936.0,74240.0,35664.0,14220.0,5882.0
5.470433235168457,20.0,55344.0,94048.0,103072.0,73264.0,35520.0,20832.0,6425.0
5.473966598510742,47.0,68592.0,110736.0,104928.0,82448.0,53520.0,17492.0,6969.0
5.477433204650879,54.0,64432.0,109136.0,119600.0,93712.0,53072.0,20648.0,5400.0
5.480899810791016,53.0,75616.0,111744.0,119984.0,92448.0,50368.0,17116.0,7930.0
5.4843668937683105,46.0,46560.0,114352.0,120352.0,79344.0,50032.0,12880.0,2942.0
5.487833499908447,10.0,41184.0,82384.0,109472.0,88208.0,44752.0,21316.0,2721.0
5.491350173950195,12.0,40864.0,74944.0,81072.0,66448.0,31316.0,10524.0,4483.0
5.494833469390869,25.0,33216.0,64016.0,75968.0,46944.0,34784.0,12392.0,5032.0
5.498300075531006,29.0,34768.0,50592.0,59696.0,36736.0,19016.0,6640.0,4144.0
5.501766681671143,22.0,24904.0,42576.0,36944.0,29260.0,22984.0,8788.0,394.0
5.505233287811279,12.0,18732.0,31696.0,31580.0,26496.0,15416.0,4084.0,802.0
5.508749961853027,38.0,14312.0,24380.0,19788.0,23416.0,9300.0,1830.0,1176.0
5.512216567993164,32.0,10652.0,16576.0,12780.0,11192.0,4293.0,1775.0,554.0
5.515683174133301,27.0,5384.0,12292.0,8908.0,10016.0,5587.0,988.0,657.0
5.5191497802734375,13.0,3326.0,9840.0,10044.0,11100.0,4284.0,5.0,12.0
5.522616863250732,28.0,1379.0,3374.0,3200.0,7415.0,4104.0,65.0,31.0
5.526150226593018,10.0,4760.0,2531.0,4583.0,5012.0,2964.0,720.0,538.0
5.529616832733154,36.0,2691.0,2306.0,3375.0,4277.0,1135.0,368.0,20.0
5.533083438873291,32.0,1053.0,1892.0,2894.0,5021.0,2394.0,15.0,261.0
5.536550045013428,0.0,1004.0,5390.0,2816.0,386.0,742.0,12.0,502.0
5.5400166511535645,14.0,2606.0,3000.0,1119.0,3814.0,1653.0,19.0,18.0
5.54355001449585,10.0,565.0,610.0,49.0,1189.0,412.0,35.0,509.0
5.547016620635986,24.0,1110.0,3590.0,558.0,272.0,874.0,22.0,310.0
5.550483226776123,49.0,11.0,1109.0,1410.0,782.0,769.0,8.0,111.0
5.55394983291626,27.0,17.0,2157.0,1087.0,352.0,663.0,358.0,25.0
5.5574164390563965,5.0,14.0,2482.0,763.0,26.0,20.0,194.0,25.0
5.560916900634766,41.0,11.0,1789.0,712.0,41.0,25.0,29.0,24.0
5.564383506774902,36.0,186.0,503.0,1162.0,188.0,593.0,42.0,22.0
5.567850112915039,43.0,95.0,36.0,1416.0,105.0,531.0,38.0,19.0
5.571316719055176,32.0,5.0,1157.0,1629.0,22.0,379.0,35.0,15.0
5.574833393096924,18.0,12.0,1072.0,6.0,1813.0,227.0,33.0,47.0
5.5782999992370605,0.0,18.0,1470.0,27.0,1766.0,82.0,31.0,43.0
5.581766605377197,30.0,8.0,748.0,18.0,17.0,523.0,29.0,26.0
5.585233211517334,6.0,1391.0,1492.0,10.0,72.0,20.0,26.0,17.0
5.588699817657471,9.0,1217.0,0.0,21.0,1197.0,56.0,36.0,29.0
5.592233180999756,26.0,12.0,659.0,31.0,21.0,304.0,28.0,33.0
5.595699787139893,43.0,20.0,230.0,412.0,0.0,44.0,19.0,19.0
