,325.2099914550781,326.2099914550781,327.2099914550781,328.2099914550781,329.2099914550781,330.2099914550781,331.2099914550781,332.2099914550781
2.302150011062622,98.0,16.0,33.0,49.0,38.0,21.0,27.0,30.0
2.3045833110809326,14.0,5.0,27.0,48.0,5.0,0.0,5.0,5.0
2.307849884033203,22.0,32.0,68.0,29.0,28.0,10.0,5.0,18.0
2.3111000061035156,29.0,35.0,25.0,34.0,41.0,0.0,11.0,0.0
2.314349889755249,21.0,31.0,23.0,36.0,10.0,0.0,16.0,5.0
2.3176000118255615,16.0,28.0,48.0,17.0,8.0,11.0,11.0,8.0
2.320849895477295,12.0,25.0,5.0,5.0,15.0,8.0,5.0,20.0
2.324166774749756,8.0,18.0,21.0,10.0,0.0,5.0,5.0,15.0
2.3274166584014893,30.0,10.0,13.0,14.0,57.0,10.0,5.0,10.0
2.3306667804718018,27.0,29.0,5.0,15.0,44.0,10.0,5.0,14.0
2.333916664123535,29.0,26.0,17.0,15.0,18.0,9.0,3.0,18.0
2.3371665477752686,6.0,24.0,15.0,27.0,27.0,14.0,0.0,10.0
2.3404667377471924,29.0,9.0,13.0,30.0,5.0,35.0,20.0,0.0
2.343716621398926,22.0,8.0,17.0,32.0,12.0,24.0,19.0,7.0
2.3469834327697754,8.0,15.0,18.0,12.0,19.0,13.0,17.0,13.0
2.350233316421509,20.0,15.0,18.0,14.0,20.0,15.0,11.0,17.0
2.3534834384918213,28.0,15.0,5.0,5.0,20.0,39.0,32.0,9.0
2.356783390045166,30.0,17.0,13.0,3.0,16.0,36.0,37.0,0.0
2.3600332736968994,14.0,18.0,20.0,0.0,12.0,32.0,22.0,11.0
2.363283395767212,15.0,23.0,28.0,12.0,0.0,25.0,22.0,11.0
2.3665332794189453,15.0,27.0,23.0,45.0,12.0,40.0,21.0,10.0
2.369783401489258,25.0,10.0,17.0,41.0,6.0,20.0,30.0,5.0
2.3731000423431396,23.0,5.0,21.0,54.0,15.0,16.0,35.0,55.0
2.376349925994873,20.0,22.0,24.0,13.0,19.0,11.0,0.0,65.0
2.3796000480651855,18.0,27.0,25.0,22.0,30.0,16.0,12.0,49.0
2.382849931716919,15.0,25.0,706.0,31.0,30.0,6.0,6.0,33.0
2.3861000537872314,21.0,128.0,353.0,192.0,29.0,11.0,3.0,19.0
2.389383316040039,27.0,582.0,0.0,1049.0,19.0,20.0,0.0,0.0
2.3926665782928467,8.0,2220.0,38.0,1656.0,500.0,28.0,754.0,13.0
2.395916700363159,11.0,3040.0,2210.0,2492.0,3021.0,1232.0,719.0,18.0
2.3991665840148926,16.0,3859.0,3757.0,4144.0,3797.0,929.0,685.0,23.0
2.402416706085205,16.0,5299.0,7664.0,5133.0,3481.0,627.0,2854.0,164.0
2.4056665897369385,21.0,6740.0,7564.0,6641.0,2276.0,1839.0,2749.0,304.0
2.4089667797088623,25.0,9184.0,7949.0,8149.0,3506.0,2506.0,870.0,576.0
2.4122166633605957,13.0,21420.0,8332.0,8548.0,9032.0,3173.0,834.0,847.0
2.415466785430908,0.0,19204.0,13096.0,9132.0,10460.0,848.0,568.0,1928.0
2.4187166690826416,3.0,17740.0,14948.0,11072.0,11360.0,1102.0,302.0,1350.0
2.421966552734375,5.0,20416.0,12388.0,11264.0,7580.0,1357.0,989.0,773.0
2.425283432006836,10.0,18900.0,5715.0,7553.0,7427.0,2128.0,1301.0,231.0
2.4285333156585693,19.0,17388.0,14692.0,10396.0,6604.0,1964.0,1613.0,1358.0
2.431783437728882,20.0,13532.0,10056.0,9488.0,7552.0,1800.0,1827.0,0.0
2.4350333213806152,11.0,13380.0,13780.0,10884.0,8344.0,2196.0,2042.0,2110.0
2.4382834434509277,0.0,17884.0,11784.0,11424.0,8592.0,2592.0,1637.0,1792.0
2.4415833950042725,10.0,17616.0,9788.0,10884.0,7725.0,3275.0,1232.0,35.0
2.444833278656006,5.0,15996.0,12900.0,10340.0,8476.0,3958.0,1855.0,43.0
2.4480834007263184,0.0,15092.0,12848.0,11288.0,8528.0,4146.0,2478.0,476.0
2.4513332843780518,0.0,18696.0,12796.0,11020.0,8584.0,4334.0,4317.0,1791.0
2.4545834064483643,0.0,20220.0,13728.0,17036.0,5724.0,2337.0,4089.0,2140.0
2.457900047302246,15.0,21744.0,14660.0,15696.0,4663.0,2987.0,5863.0,1645.0
2.4611499309539795,42.0,12872.0,9312.0,10520.0,3797.0,3636.0,5591.0,438.0
2.464400053024292,35.0,15904.0,8712.0,13180.0,4630.0,2773.0,3387.0,19.0
2.4676499366760254,52.0,14308.0,8936.0,4266.0,4621.0,1910.0,3287.0,36.0
2.470900058746338,18.0,8472.0,7455.0,10588.0,4612.0,439.0,1862.0,16.0
2.4741833209991455,24.0,8724.0,5975.0,3376.0,1563.0,2564.0,3301.0,35.0
2.477466583251953,7.0,8208.0,11.0,5115.0,2993.0,841.0,1962.0,48.0
2.4807167053222656,0.0,5816.0,2432.0,1434.0,1142.0,577.0,1954.0,26.0
2.483966588973999,43.0,3369.0,2925.0,4554.0,2071.0,1907.0,1938.0,5.0
2.4872167110443115,26.0,1886.0,16.0,921.0,264.0,0.0,6.0,13.0
2.490466594696045,40.0,1394.0,1340.0,2534.0,645.0,96.0,18.0,34.0
2.4937334060668945,27.0,2138.0,1082.0,935.0,52.0,27.0,552.0,20.0
2.496983289718628,10.0,992.0,1085.0,624.0,392.0,31.0,429.0,7.0
2.5002334117889404,14.0,33.0,0.0,769.0,732.0,35.0,44.0,30.0
2.503483295440674,0.0,974.0,0.0,13.0,8.0,24.0,164.0,5.0
2.5067334175109863,6.0,811.0,25.0,10.0,0.0,30.0,25.0,0.0
2.510050058364868,12.0,763.0,18.0,536.0,26.0,30.0,18.0,11.0
2.5132999420166016,16.0,832.0,40.0,26.0,17.0,26.0,5.0,21.0
2.516550064086914,8.0,901.0,20.0,25.0,7.0,22.0,11.0,20.0
2.5197999477386475,0.0,14.0,16.0,23.0,4.0,23.0,18.0,50.0
2.52305006980896,8.0,23.0,11.0,0.0,0.0,24.0,20.0,39.0
2.5263500213623047,13.0,286.0,17.0,942.0,0.0,37.0,18.0,28.0
2.529616594314575,18.0,99.0,15.0,882.0,385.0,28.0,15.0,0.0
2.5328667163848877,17.0,5.0,12.0,8.0,200.0,20.0,25.0,39.0
2.536116600036621,15.0,3.0,0.0,15.0,15.0,5.0,18.0,19.0
2.5393667221069336,5.0,0.0,16.0,9.0,130.0,16.0,12.0,28.0
2.5426666736602783,21.0,50.0,32.0,0.0,244.0,11.0,14.0,23.0
2.5459165573120117,0.0,31.0,24.0,0.0,37.0,5.0,16.0,22.0
2.549166679382324,38.0,12.0,15.0,0.0,18.0,23.0,18.0,0.0
2.5524165630340576,34.0,57.0,22.0,5.0,26.0,22.0,21.0,6.0
2.55566668510437,29.0,33.0,19.0,55.0,26.0,10.0,5.0,16.0
2.558983325958252,17.0,10.0,10.0,27.0,16.0,30.0,10.0,26.0
2.5622334480285645,5.0,5.0,15.0,0.0,6.0,8.0,10.0,21.0
2.565483331680298,27.0,20.0,19.0,26.0,0.0,33.0,78.0,16.0
2.5687332153320312,23.0,36.0,16.0,40.0,5.0,19.0,51.0,5.0
2.5719833374023438,26.0,27.0,10.0,61.0,493.0,12.0,23.0,10.0
2.575233221054077,29.0,21.0,15.0,47.0,272.0,5.0,23.0,7.0
2.578533411026001,13.0,15.0,20.0,33.0,51.0,13.0,22.0,10.0
2.5817832946777344,5.0,11.0,26.0,38.0,38.0,14.0,17.0,13.0
2.585033416748047,18.0,7.0,33.0,16.0,7.0,13.0,30.0,5.0
2.5882999897003174,5.0,4.0,19.0,21.0,855.0,12.0,19.0,14.0
2.59155011177063,13.0,0.0,5.0,16.0,783.0,10.0,8.0,22.0
2.5948500633239746,0.0,39.0,13.0,10.0,479.0,16.0,26.0,20.0
2.598099946975708,5.0,47.0,20.0,10.0,454.0,27.0,22.0,18.0
2.6013500690460205,0.0,21.0,15.0,10.0,20.0,23.0,17.0,15.0
2.604599952697754,7.0,13.0,9.0,5.0,320.0,16.0,18.0,18.0
2.6078500747680664,3.0,5.0,9.0,27.0,619.0,16.0,17.0,17.0
2.6111667156219482,0.0,0.0,8.0,27.0,14.0,0.0,28.0,16.0
2.6144165992736816,3.0,5.0,22.0,14.0,292.0,10.0,25.0,15.0
2.617666721343994,5.0,7.0,22.0,31.0,569.0,17.0,22.0,21.0
2.6209166049957275,18.0,22.0,21.0,18.0,19.0,11.0,15.0,27.0
2.62416672706604,35.0,23.0,16.0,5.0,5.0,5.0,10.0,32.0
2.6274666786193848,38.0,7.0,23.0,8.0,499.0,21.0,38.0,13.0
2.630716562271118,34.0,5.0,17.0,11.0,633.0,12.0,37.0,31.0
2.6339666843414307,29.0,17.0,20.0,12.0,12.0,5.0,35.0,20.0
2.637216567993164,16.0,20.0,22.0,12.0,817.0,19.0,34.0,20.0
2.6404666900634766,22.0,22.0,12.0,13.0,22.0,15.0,33.0,20.0
2.6437833309173584,11.0,19.0,14.0,10.0,10.0,10.0,7.0,15.0
2.647033214569092,0.0,15.0,12.0,23.0,172.0,5.0,51.0,11.0
2.6502833366394043,8.0,20.0,18.0,11.0,12.0,5.0,22.0,0.0
2.6535332202911377,16.0,32.0,15.0,0.0,17.0,5.0,20.0,23.0
2.65678334236145,16.0,28.0,12.0,0.0,27.0,17.0,17.0,34.0
2.6600332260131836,16.0,23.0,19.0,34.0,11.0,15.0,12.0,35.0
2.6633501052856445,32.0,17.0,13.0,23.0,11.0,12.0,33.0,24.0
2.666599988937378,25.0,18.0,6.0,13.0,13.0,5.0,39.0,0.0
2.6698501110076904,18.0,14.0,29.0,5.0,15.0,17.0,11.0,21.0
2.673099994659424,16.0,30.0,23.0,5.0,16.0,16.0,41.0,6.0
2.6763501167297363,13.0,20.0,21.0,11.0,5.0,13.0,13.0,16.0
2.679650068283081,27.0,10.0,26.0,16.0,0.0,17.0,47.0,27.0
2.6828999519348145,31.0,19.0,29.0,18.0,7.0,8.0,21.0,33.0
2.686150074005127,0.0,16.0,31.0,23.0,6.0,5.0,0.0,17.0
2.6894166469573975,0.0,13.0,15.0,20.0,6.0,9.0,13.0,21.0
2.69266676902771,0.0,22.0,42.0,17.0,6.0,13.0,5.0,24.0
2.6959333419799805,3.0,21.0,0.0,20.0,5.0,48.0,10.0,12.0
2.699183225631714,5.0,20.0,0.0,22.0,6.0,41.0,10.0,0.0
2.7024333477020264,10.0,20.0,0.0,24.0,6.0,29.0,14.0,19.0
2.705699920654297,14.0,19.0,0.0,0.0,6.0,17.0,12.0,22.0
2.7089500427246094,15.0,28.0,0.0,15.0,47.0,16.0,10.0,24.0
2.712249994277954,16.0,21.0,10.0,13.0,47.0,15.0,17.0,20.0
2.7155001163482666,15.0,14.0,20.0,10.0,13.0,21.0,18.0,10.0
2.71875,13.0,7.0,18.0,6.0,5.0,21.0,18.0,17.0
2.7219998836517334,11.0,0.0,19.0,12.0,46.0,22.0,13.0,24.0
2.725250005722046,12.0,8.0,30.0,17.0,36.0,22.0,7.0,35.0
2.7285499572753906,12.0,5.0,5.0,19.0,51.0,5.0,21.0,46.0
2.731800079345703,16.0,5.0,20.0,20.0,15.0,8.0,34.0,5.0
2.7350499629974365,16.0,5.0,35.0,23.0,38.0,14.0,35.0,7.0
2.738316774368286,16.0,17.0,25.0,26.0,19.0,19.0,28.0,25.0
2.7415666580200195,16.0,16.0,15.0,9.0,10.0,27.0,0.0,18.0
2.744816780090332,17.0,19.0,10.0,21.0,30.0,0.0,7.0,10.0
2.7481000423431396,5.0,0.0,11.0,34.0,28.0,24.0,16.0,12.0
2.751349925994873,5.0,19.0,36.0,6.0,26.0,23.0,7.0,10.0
2.7546000480651855,0.0,19.0,23.0,40.0,6.0,26.0,0.0,7.0
2.757849931716919,17.0,19.0,10.0,5.0,0.0,28.0,0.0,11.0
2.7611000537872314,23.0,19.0,6.0,28.0,16.0,32.0,31.0,14.0
2.764400005340576,10.0,15.0,6.0,23.0,20.0,35.0,21.0,0.0
2.7676498889923096,17.0,10.0,6.0,27.0,24.0,7.0,10.0,3.0
2.770900011062622,13.0,31.0,8.0,55.0,6.0,19.0,16.0,5.0
2.7741498947143555,15.0,27.0,41.0,54.0,0.0,9.0,12.0,11.0
2.777400016784668,17.0,29.0,32.0,10.0,46.0,11.0,8.0,68.0
2.78071665763855,0.0,10.0,45.0,8.0,36.0,43.0,12.0,67.0
2.7839667797088623,21.0,5.0,57.0,37.0,33.0,41.0,21.0,19.0
2.7872166633605957,22.0,33.0,5.0,5.0,16.0,25.0,23.0,12.0
2.790466785430908,6.0,24.0,0.0,13.0,23.0,10.0,24.0,0.0
2.7937166690826416,10.0,32.0,18.0,16.0,30.0,0.0,10.0,30.0
2.7970166206359863,14.0,26.0,26.0,20.0,1112.0,24.0,14.0,24.0
2.800266742706299,16.0,6.0,20.0,24.0,1185.0,26.0,14.0,18.0
2.8035166263580322,38.0,6.0,14.0,22.0,1642.0,27.0,14.0,12.0
2.8067667484283447,32.0,5.0,17.0,14.0,20.0,26.0,20.0,0.0
2.810016632080078,26.0,14.0,20.0,5.0,39.0,25.0,545.0,5.0
2.81333327293396,34.0,14.0,7.0,27.0,40.0,34.0,289.0,22.0
2.8165833950042725,41.0,19.0,10.0,32.0,42.0,25.0,33.0,18.0
2.819833278656006,0.0,0.0,36.0,6.0,431.0,16.0,17.0,18.0
2.8230834007263184,74.0,10.0,39.0,18.0,917.0,16.0,0.0,17.0
2.8263332843780518,54.0,21.0,13.0,29.0,1828.0,16.0,23.0,0.0
2.8296167850494385,21.0,20.0,12.0,30.0,1859.0,34.0,14.0,10.0
2.832900047302246,30.0,19.0,11.0,24.0,1410.0,24.0,377.0,25.0
2.8361499309539795,5.0,11.0,6.0,0.0,3181.0,14.0,739.0,29.0
2.839400053024292,44.0,19.0,0.0,15.0,2457.0,10.0,1698.0,21.0
2.8426499366760254,41.0,26.0,3.0,19.0,1733.0,5.0,2962.0,20.0
2.845900058746338,19.0,5.0,6.0,22.0,1238.0,12.0,3465.0,0.0
2.8491666316986084,16.0,24.0,21.0,39.0,2742.0,9.0,5426.0,500.0
2.852416753768921,41.0,20.0,19.0,19.0,2755.0,5.0,10176.0,1054.0
2.8556666374206543,21.0,13.0,16.0,0.0,24.0,0.0,12760.0,1638.0
2.858916759490967,5.0,28.0,22.0,0.0,768.0,36.0,18568.0,1376.0
2.8621666431427,50.0,21.0,27.0,5.0,961.0,21.0,24788.0,1797.0
2.865483283996582,0.0,13.0,25.0,3.0,825.0,6.0,27952.0,1534.0
2.8687334060668945,7.0,5.0,23.0,0.0,740.0,6.0,31116.0,1270.0
2.871983289718628,41.0,5.0,14.0,8.0,654.0,22.0,38944.0,1038.0
2.8752334117889404,25.0,15.0,5.0,5.0,49.0,16.0,42384.0,4691.0
2.878483295440674,19.0,30.0,11.0,11.0,5.0,16.0,44752.0,4151.0
2.8817832469940186,5.0,26.0,17.0,6.0,867.0,16.0,48512.0,1498.0
2.885033369064331,23.0,18.0,12.0,0.0,35.0,6.0,47056.0,3666.0
2.8882832527160645,21.0,10.0,7.0,38.0,8.0,20.0,45600.0,1568.0
2.891533374786377,13.0,17.0,6.0,41.0,0.0,13.0,45392.0,1985.0
2.8947999477386475,33.0,23.0,5.0,0.0,12.0,6.0,45168.0,1712.0
2.898099899291992,5.0,28.0,6.0,33.0,21.0,7.0,44496.0,1439.0
2.9013500213623047,40.0,47.0,5.0,60.0,25.0,4.0,43808.0,1663.0
2.904599905014038,16.0,34.0,19.0,44.0,28.0,0.0,32132.0,1888.0
2.9078500270843506,15.0,20.0,25.0,22.0,27.0,10.0,38400.0,1170.0
2.911099910736084,5.0,5.0,31.0,64.0,26.0,11.0,30352.0,452.0
2.914416551589966,5.0,29.0,0.0,10.0,5.0,11.0,23708.0,229.0
2.9176666736602783,49.0,7.0,32.0,15.0,8.0,13.0,12612.0,5.0
2.9209165573120117,47.0,15.0,21.0,23.0,10.0,15.0,13848.0,16.0
2.924166679382324,25.0,22.0,41.0,5.0,14.0,0.0,7192.0,26.0
2.9274165630340576,29.0,46.0,19.0,27.0,10.0,3.0,2471.0,19.0
2.93066668510437,43.0,40.0,13.0,17.0,6.0,5.0,3659.0,11.0
2.933966636657715,0.0,21.0,0.0,5.0,13.0,10.0,7178.0,8.0
2.9372167587280273,0.0,32.0,20.0,25.0,19.0,14.0,477.0,20.0
2.940483331680298,11.0,11.0,10.0,24.0,12.0,16.0,0.0,24.0
2.9437332153320312,5.0,12.0,8.0,23.0,5.0,17.0,45.0,28.0
2.9469833374023438,14.0,13.0,5.0,15.0,5.0,28.0,20.0,0.0
2.9502832889556885,0.0,13.0,23.0,10.0,5.0,39.0,484.0,27.0
2.953533411026001,8.0,12.0,20.0,5.0,5.0,30.0,479.0,32.0
2.9567832946777344,16.0,20.0,21.0,13.0,5.0,21.0,474.0,10.0
2.960033416748047,15.0,33.0,24.0,20.0,5.0,5.0,45.0,14.0
2.9632833003997803,13.0,36.0,0.0,13.0,13.0,7.0,236.0,12.0
2.966599941253662,9.0,53.0,6.0,5.0,9.0,37.0,427.0,9.0
2.9698500633239746,5.0,5.0,18.0,7.0,5.0,21.0,700.0,6.0
2.973099946975708,27.0,23.0,5.0,0.0,15.0,5.0,974.0,18.0
2.9763500690460205,24.0,12.0,23.0,5.0,12.0,21.0,19.0,30.0
2.979599952697754,15.0,23.0,0.0,12.0,9.0,5.0,1052.0,48.0
2.9828999042510986,33.0,29.0,0.0,14.0,5.0,485.0,982.0,39.0
2.986150026321411,28.0,15.0,11.0,16.0,14.0,253.0,43.0,12.0
2.9893999099731445,5.0,14.0,20.0,27.0,10.0,21.0,613.0,37.0
2.992650032043457,3.0,10.0,18.0,14.0,5.0,31.0,26.0,5.0
2.9959166049957275,0.0,5.0,20.0,0.0,10.0,23.0,24.0,18.0
