,285.1600036621094,286.1600036621094,287.1600036621094,288.1600036621094,289.1600036621094,290.1600036621094,291.1600036621094
3.001516580581665,34.0,20.0,20.0,10.0,58.0,4386.0,8976.0
3.003033399581909,52.0,22.0,190.0,44.0,212.0,5312.0,6389.0
3.004549980163574,24.0,50.0,181.0,25.0,1003.0,3643.0,2764.0
3.0060665607452393,38.0,39.0,93.0,31.0,1261.0,5808.0,4644.0
3.0075833797454834,59.0,5.0,21.0,21.0,5.0,825.0,6992.0
3.0090999603271484,5.0,14.0,28.0,11.0,24.0,5541.0,4076.0
3.0106167793273926,63.0,35.0,25.0,29.0,1576.0,4027.0,7944.0
3.0121333599090576,38.0,22.0,0.0,36.0,1410.0,7887.0,4847.0
3.0136499404907227,6.0,10.0,26.0,16.0,396.0,4159.0,9240.0
3.015166759490967,64.0,19.0,23.0,17.0,18.0,1351.0,7611.0
3.016683340072632,7.0,29.0,43.0,18.0,190.0,8972.0,5998.0
3.0182666778564453,25.0,40.0,25.0,49.0,108.0,5590.0,4384.0
3.0197832584381104,46.0,51.0,7.0,47.0,27.0,4783.0,7747.0
3.0213000774383545,5.0,32.0,28.0,370.0,30.0,786.0,7456.0
3.0228166580200195,14.0,13.0,72.0,1114.0,216.0,4444.0,5776.0
3.0243332386016846,30.0,20.0,70.0,1057.0,402.0,3420.0,4096.0
3.0258500576019287,5.0,27.0,12.0,5.0,487.0,6613.0,7446.0
3.0273666381835938,31.0,25.0,35.0,50.0,509.0,5811.0,6909.0
3.028883218765259,47.0,23.0,58.0,25.0,531.0,8176.0,5992.0
3.030400037765503,48.0,67.0,23.0,10.0,49.0,7248.0,6923.0
3.031916618347168,24.0,61.0,6.0,51.0,36.0,9292.0,7854.0
3.033433437347412,6.0,33.0,15.0,554.0,23.0,3247.0,4504.0
3.0350000858306885,29.0,11.0,31.0,282.0,15.0,7382.0,8604.0
3.0365166664123535,27.0,30.0,21.0,10.0,362.0,7743.0,6704.0
3.0380332469940186,25.0,37.0,22.0,181.0,1513.0,6205.0,4803.0
3.0395500659942627,29.0,37.0,13.0,26.0,1630.0,8624.0,9924.0
3.0410666465759277,20.0,724.0,17.0,24.0,1622.0,3568.0,6141.0
3.0425832271575928,10.0,387.0,9.0,32.0,17.0,6654.0,6638.0
3.044100046157837,17.0,50.0,27.0,30.0,53.0,7962.0,5191.0
3.045616626739502,21.0,19.0,27.0,28.0,1237.0,7442.0,5799.0
3.047133445739746,40.0,22.0,33.0,20.0,350.0,6139.0,6585.0
3.048650026321411,34.0,18.0,47.0,17.0,238.0,1537.0,7371.0
3.050166606903076,29.0,15.0,40.0,14.0,1163.0,6472.0,8688.0
3.0517165660858154,13.0,18.0,33.0,5.0,685.0,8868.0,7967.0
3.0532333850860596,29.0,21.0,36.0,5.0,410.0,4542.0,11816.0
3.0547499656677246,25.0,33.0,40.0,506.0,47.0,10148.0,10872.0
3.0562667846679688,22.0,38.0,31.0,262.0,642.0,9432.0,10424.0
3.057783365249634,25.0,44.0,18.0,18.0,21.0,5803.0,11264.0
3.059299945831299,28.0,39.0,5.0,24.0,32.0,9492.0,8424.0
3.060816764831543,60.0,41.0,15.0,52.0,43.0,7148.0,6552.0
3.062333345413208,42.0,10.0,26.0,64.0,20.0,4720.0,3470.0
3.063849925994873,24.0,39.0,38.0,46.0,189.0,4688.0,4887.0
3.065366744995117,24.0,35.0,44.0,29.0,357.0,4656.0,3416.0
3.0668833255767822,37.0,34.0,7.0,34.0,194.0,5687.0,1946.0
3.0684666633605957,10.0,31.0,28.0,20.0,32.0,6129.0,12124.0
3.0699832439422607,8.0,43.0,46.0,18.0,321.0,6498.0,13416.0
3.071500062942505,23.0,55.0,33.0,116.0,1226.0,3492.0,10460.0
3.07301664352417,38.0,5.0,36.0,73.0,1619.0,4831.0,3193.0
3.074533224105835,38.0,20.0,21.0,30.0,40.0,5188.0,12152.0
3.076050043106079,39.0,28.0,6.0,27.0,1177.0,4873.0,4863.0
3.077566623687744,0.0,18.0,86.0,385.0,691.0,3373.0,5421.0
3.0790834426879883,32.0,19.0,53.0,451.0,13.0,5327.0,7832.0
3.0806000232696533,17.0,45.0,19.0,12.0,0.0,5664.0,5336.0
3.0821166038513184,29.0,35.0,32.0,59.0,27.0,6001.0,8178.0
3.0836334228515625,37.0,26.0,38.0,41.0,21.0,5199.0,3674.0
3.085216760635376,32.0,40.0,170.0,24.0,15.0,4396.0,5844.0
3.086733341217041,40.0,35.0,794.0,35.0,8.0,1135.0,5948.0
3.088249921798706,12.0,17.0,903.0,5.0,22.0,5699.0,4605.0
3.08976674079895,21.0,32.0,468.0,11.0,35.0,5709.0,7240.0
3.0912833213806152,23.0,20.0,32.0,12.0,46.0,6433.0,6266.0
3.0927999019622803,19.0,8.0,31.0,11.0,57.0,6003.0,4893.0
3.0943167209625244,16.0,7.0,566.0,10.0,21.0,5574.0,5391.0
3.0958333015441895,26.0,10.0,59.0,0.0,12.0,3136.0,5456.0
3.0973498821258545,37.0,30.0,0.0,12.0,41.0,4192.0,5522.0
3.0988667011260986,31.0,17.0,11.0,52.0,7.0,5856.0,5745.0
3.1003832817077637,13.0,5.0,49.0,59.0,11.0,1555.0,4587.0
3.101966619491577,0.0,20.0,62.0,66.0,25.0,3967.0,4104.0
3.1034834384918213,12.0,23.0,21.0,12.0,11.0,3310.0,5968.0
3.1050000190734863,24.0,26.0,52.0,44.0,10.0,4468.0,4892.0
3.1065165996551514,26.0,17.0,23.0,5.0,9.0,2973.0,2859.0
3.1080334186553955,28.0,28.0,48.0,31.0,289.0,1726.0,4362.0
3.1095499992370605,37.0,17.0,19.0,36.0,150.0,2596.0,4134.0
3.1110665798187256,36.0,23.0,19.0,41.0,11.0,2927.0,4027.0
3.1125833988189697,35.0,24.0,20.0,29.0,22.0,1609.0,1749.0
3.1140999794006348,34.0,26.0,23.0,18.0,33.0,1227.0,5325.0
3.1156165599823,23.0,46.0,28.0,22.0,29.0,1208.0,68.0
3.117133378982544,25.0,38.0,34.0,64.0,5.0,482.0,2144.0
3.118683338165283,6.0,30.0,0.0,32.0,44.0,58.0,179.0
3.1202166080474854,32.0,28.0,29.0,0.0,5.0,24.0,843.0
3.1217334270477295,31.0,19.0,38.0,28.0,32.0,817.0,32.0
3.1232500076293945,12.0,38.0,0.0,35.0,39.0,1610.0,331.0
3.1247665882110596,15.0,36.0,24.0,12.0,46.0,1639.0,729.0
3.1262834072113037,31.0,30.0,51.0,32.0,49.0,46.0,19.0
3.1277999877929688,0.0,24.0,34.0,19.0,56.0,17.0,119.0
3.129316568374634,18.0,24.0,0.0,17.0,0.0,0.0,27.0
3.130833387374878,9.0,15.0,62.0,15.0,8.0,24.0,6.0
3.132349967956543,0.0,5.0,123.0,23.0,16.0,20.0,38.0
3.133866548538208,6.0,58.0,74.0,31.0,52.0,16.0,26.0
3.135383367538452,12.0,47.0,26.0,21.0,41.0,19.0,15.0
3.1369667053222656,18.0,16.0,38.0,11.0,37.0,13.0,0.0
3.1384832859039307,25.0,32.0,19.0,13.0,35.0,88.0,35.0
3.140000104904175,24.0,5.0,22.0,15.0,20.0,99.0,23.0
3.14151668548584,24.0,43.0,26.0,16.0,25.0,28.0,11.0
3.143033266067505,25.0,22.0,22.0,17.0,31.0,58.0,0.0
3.144550085067749,6.0,21.0,27.0,17.0,28.0,88.0,20.0
3.146066665649414,5.0,20.0,25.0,17.0,25.0,77.0,40.0
3.147583246231079,5.0,16.0,15.0,15.0,12.0,65.0,275.0
3.1491000652313232,42.0,18.0,6.0,14.0,21.0,28.0,158.0
3.1506166458129883,59.0,20.0,47.0,12.0,18.0,36.0,41.0
3.1521332263946533,28.0,21.0,62.0,20.0,16.0,10.0,496.0
3.153716564178467,41.0,25.0,77.0,23.0,19.0,19.0,284.0
3.155233383178711,69.0,27.0,11.0,25.0,22.0,49.0,71.0
3.156749963760376,19.0,27.0,28.0,19.0,13.0,44.0,11.0
3.15826678276062,24.0,15.0,44.0,12.0,13.0,39.0,23.0
3.159783363342285,31.0,5.0,9.0,6.0,13.0,776.0,21.0
3.16129994392395,38.0,30.0,22.0,0.0,40.0,660.0,13.0
3.1628167629241943,38.0,0.0,18.0,5.0,42.0,10.0,5.0
3.1643333435058594,31.0,35.0,17.0,12.0,32.0,26.0,31.0
3.1658499240875244,24.0,0.0,19.0,20.0,25.0,14.0,32.0
3.1673667430877686,44.0,34.0,13.0,131.0,18.0,106.0,18.0
3.1688833236694336,47.0,72.0,10.0,82.0,19.0,58.0,5.0
3.170466661453247,44.0,47.0,7.0,33.0,15.0,10.0,0.0
3.171983242034912,7.0,25.0,14.0,41.0,16.0,17.0,7.0
3.1735000610351562,7.0,59.0,21.0,12.0,28.0,18.0,38.0
3.1750166416168213,23.0,26.0,17.0,15.0,35.0,5.0,31.0
3.1765332221984863,39.0,16.0,33.0,17.0,43.0,0.0,24.0
3.1780500411987305,31.0,33.0,30.0,56.0,23.0,12.0,7.0
3.1795666217803955,20.0,36.0,28.0,52.0,24.0,23.0,50.0
3.1810834407806396,22.0,16.0,26.0,30.0,22.0,17.0,43.0
3.1826000213623047,34.0,19.0,25.0,39.0,20.0,12.0,36.0
3.1841166019439697,33.0,30.0,0.0,5.0,0.0,8.0,0.0
3.185633420944214,36.0,42.0,47.0,15.0,11.0,5.0,1006.0
3.1872000694274902,39.0,39.0,611.0,45.0,22.0,13.0,803.0
3.1887166500091553,41.0,37.0,803.0,76.0,23.0,11.0,13.0
3.1902332305908203,23.0,18.0,766.0,240.0,24.0,10.0,78.0
3.1917667388916016,33.0,160.0,1126.0,404.0,15.0,7.0,51.0
3.1932666301727295,26.0,302.0,1485.0,593.0,563.0,5.0,5.0
3.1947834491729736,34.0,196.0,1983.0,783.0,798.0,154.0,839.0
3.1963000297546387,26.0,91.0,2481.0,3259.0,1151.0,878.0,664.0
3.1978166103363037,18.0,2537.0,2990.0,4276.0,3107.0,1602.0,34.0
3.199333429336548,22.0,1857.0,3498.0,7218.0,5064.0,1673.0,1264.0
3.200850009918213,26.0,1176.0,11264.0,6291.0,7559.0,1744.0,556.0
3.202383279800415,26.0,2885.0,11592.0,5364.0,6925.0,8524.0,46.0
3.2039499282836914,27.0,4593.0,13664.0,19544.0,13980.0,7369.0,1362.0
3.2054667472839355,18.0,9076.0,30756.0,19332.0,15888.0,7290.0,1115.0
3.2069833278656006,10.0,6848.0,32116.0,25376.0,17340.0,12508.0,2157.0
3.2084999084472656,37.0,14304.0,38704.0,45040.0,25732.0,11224.0,5009.0
3.2100167274475098,26.0,19452.0,45856.0,57792.0,33376.0,21120.0,4760.0
3.211533308029175,16.0,22136.0,63120.0,69728.0,59120.0,23328.0,4383.0
3.21304988861084,31.0,29376.0,64528.0,80464.0,53392.0,22372.0,3723.0
3.214566707611084,37.0,45328.0,101856.0,95696.0,73888.0,21412.0,3063.0
3.216083288192749,21.0,57840.0,117680.0,125472.0,75184.0,28040.0,6955.0
3.217600107192993,5.0,72096.0,125760.0,146688.0,99808.0,38896.0,8292.0
3.219116687774658,15.0,86080.0,154368.0,182912.0,113904.0,61424.0,9628.0
3.2207000255584717,16.0,83904.0,172544.0,178560.0,139328.0,60896.0,16376.0
3.2222166061401367,12.0,87008.0,214656.0,243328.0,136832.0,66144.0,17036.0
3.223733425140381,15.0,98640.0,213184.0,235520.0,188736.0,69776.0,24172.0
3.225250005722046,47.0,110256.0,260672.0,255168.0,186240.0,86912.0,19864.0
3.226766586303711,44.0,140736.0,309504.0,346112.0,198080.0,85376.0,18840.0
3.228283405303955,42.0,169664.0,366272.0,340800.0,279872.0,75856.0,22604.0
3.22979998588562,40.0,170496.0,351360.0,426112.0,271360.0,102912.0,26608.0
3.231316566467285,60.0,183552.0,396032.0,390464.0,276864.0,108080.0,28044.0
3.2328333854675293,65.0,215104.0,452416.0,475776.0,316480.0,138752.0,29476.0
3.2343499660491943,32.0,246976.0,479232.0,489216.0,345280.0,124784.0,27176.0
3.2358667850494385,58.0,260416.0,506432.0,515584.0,352768.0,141376.0,30456.0
3.2374167442321777,54.0,246272.0,549632.0,555008.0,366848.0,134336.0,33728.0
3.23895001411438,53.0,273600.0,559616.0,556288.0,377408.0,154624.0,34688.0
3.240466594696045,52.0,272640.0,543744.0,615680.0,402048.0,167040.0,35744.0
3.241983413696289,57.0,254080.0,585216.0,668416.0,408064.0,167680.0,36800.0
3.243499994277954,54.0,269888.0,597504.0,637952.0,408768.0,168320.0,43040.0
3.245016574859619,50.0,285696.0,577792.0,635392.0,409408.0,152448.0,41184.0
3.2465333938598633,149.0,281664.0,632576.0,628480.0,437696.0,161216.0,39312.0
3.2480499744415283,118.0,277696.0,681472.0,632320.0,455872.0,172672.0,42768.0
3.2495665550231934,87.0,273792.0,645376.0,636416.0,448704.0,176896.0,40608.0
3.2510833740234375,72.0,269952.0,587008.0,668160.0,447552.0,168576.0,32832.0
3.2525999546051025,103.0,276096.0,694528.0,650240.0,446336.0,160640.0,33168.0
3.2541167736053467,133.0,282304.0,631552.0,632064.0,357248.0,154432.0,33520.0
3.25570011138916,121.0,291584.0,612096.0,651776.0,403072.0,156928.0,38240.0
3.257216691970825,91.0,287232.0,655616.0,659968.0,417216.0,161408.0,38160.0
3.2587332725524902,40.0,282880.0,627712.0,668160.0,426368.0,156736.0,37936.0
3.2602500915527344,76.0,291072.0,604672.0,673792.0,390720.0,152000.0,37728.0
3.2617666721343994,113.0,288064.0,560896.0,631552.0,412736.0,133824.0,33008.0
3.2632832527160645,89.0,285056.0,613376.0,678912.0,386560.0,163008.0,36464.0
3.2648000717163086,66.0,251904.0,554752.0,541696.0,383744.0,145280.0,30168.0
3.2663166522979736,22.0,266432.0,557568.0,600320.0,317760.0,151168.0,30168.0
3.2678332328796387,197.0,245568.0,576256.0,572160.0,366464.0,126336.0,26848.0
3.269350051879883,139.0,275584.0,491712.0,568832.0,334976.0,137472.0,33552.0
3.270866632461548,82.0,265088.0,468800.0,504512.0,337600.0,121520.0,35328.0
3.2724499702453613,43.0,245568.0,502400.0,483648.0,306688.0,114304.0,26632.0
3.2739665508270264,132.0,239680.0,491712.0,516096.0,332800.0,110272.0,33312.0
3.2754833698272705,70.0,233472.0,467840.0,450176.0,290176.0,115952.0,24648.0
3.2769999504089355,77.0,225600.0,425600.0,427840.0,332992.0,121632.0,32784.0
3.2785167694091797,119.0,208960.0,434880.0,478656.0,301696.0,99312.0,23104.0
3.2800333499908447,120.0,163520.0,411712.0,406208.0,288832.0,101040.0,26124.0
3.2815499305725098,121.0,198656.0,381952.0,413440.0,312256.0,87888.0,22204.0
3.283066749572754,40.0,180352.0,406976.0,391808.0,264192.0,98224.0,20128.0
3.284583330154419,61.0,185152.0,356032.0,356416.0,233792.0,91808.0,24344.0
3.286099910736084,72.0,182848.0,367040.0,372224.0,260672.0,90880.0,23208.0
3.287616729736328,64.0,168448.0,373888.0,395648.0,265856.0,84752.0,17420.0
3.2892000675201416,84.0,173120.0,354240.0,327424.0,226304.0,78304.0,17060.0
3.2907166481018066,75.0,180224.0,312640.0,374144.0,249600.0,93504.0,19492.0
3.2922332286834717,66.0,153856.0,337600.0,354560.0,216576.0,92800.0,17760.0
3.293750047683716,46.0,178432.0,361344.0,370816.0,234880.0,86672.0,16028.0
3.295266628265381,28.0,171456.0,377664.0,367296.0,248320.0,91632.0,19952.0
3.296783447265625,19.0,152256.0,361920.0,372160.0,236544.0,82928.0,19032.0
3.29830002784729,54.0,152512.0,345216.0,335104.0,245696.0,97712.0,18116.0
3.299816608428955,59.0,160384.0,329408.0,377664.0,228672.0,99312.0,20652.0
3.301333427429199,63.0,149440.0,331904.0,355712.0,231872.0,84736.0,23192.0
3.3028500080108643,63.0,154496.0,392256.0,370112.0,230720.0,88896.0,26236.0
3.3043665885925293,44.0,159552.0,378176.0,360320.0,255104.0,84992.0,27888.0
3.3059332370758057,71.0,178176.0,380288.0,367232.0,260672.0,98576.0,23372.0
3.30745005607605,73.0,176960.0,358912.0,374144.0,242432.0,111248.0,24004.0
3.308983325958252,64.0,175232.0,381440.0,379392.0,242112.0,107168.0,23948.0
3.310499906539917,55.0,181248.0,403776.0,384640.0,241792.0,106752.0,23892.0
3.312016725540161,69.0,187264.0,407552.0,480576.0,247936.0,106352.0,29816.0
3.313533306121826,45.0,199488.0,411328.0,459264.0,254144.0,109792.0,28592.0
3.315049886703491,20.0,203520.0,406144.0,439360.0,302144.0,106432.0,23060.0
3.3165667057037354,58.0,204736.0,400960.0,422464.0,311808.0,103072.0,23664.0
3.3180832862854004,59.0,203008.0,431232.0,400320.0,310016.0,113584.0,24272.0
3.3196001052856445,42.0,201280.0,427840.0,453248.0,309504.0,124016.0,23828.0
3.3211166858673096,49.0,202496.0,424448.0,434816.0,311104.0,133312.0,25148.0
3.3226499557495117,56.0,195072.0,423232.0,496640.0,300992.0,117248.0,22428.0
3.324166774749756,55.0,207360.0,431104.0,470656.0,313088.0,105712.0,21800.0
3.325683355331421,53.0,221312.0,430976.0,490368.0,325952.0,127584.0,23228.0
3.327199935913086,106.0,217792.0,430848.0,455616.0,288128.0,117232.0,24660.0
3.32871675491333,122.0,227328.0,414336.0,479616.0,283392.0,115472.0,24204.0
3.330233335494995,138.0,219904.0,390720.0,410112.0,290496.0,108144.0,24248.0
3.33174991607666,104.0,168896.0,384768.0,413632.0,280768.0,109344.0,22844.0
3.3332667350769043,44.0,180736.0,405120.0,363392.0,247616.0,122208.0,23880.0
3.3347833156585693,56.0,174080.0,335488.0,419136.0,259264.0,85248.0,28012.0
3.3362998962402344,6.0,180288.0,333632.0,327680.0,229376.0,77280.0,16748.0
3.3378167152404785,74.0,138112.0,273728.0,293696.0,195200.0,66416.0,20552.0
3.339400053024292,70.0,152768.0,334464.0,284608.0,212288.0,64048.0,23436.0
3.340916633605957,50.0,129424.0,296128.0,289280.0,169792.0,68928.0,19788.0
3.342433214187622,61.0,134976.0,236352.0,240000.0,171776.0,64656.0,17196.0
3.343950033187866,72.0,151872.0,255168.0,252288.0,156672.0,62064.0,15700.0
3.3454666137695312,26.0,99568.0,228864.0,210496.0,148160.0,50768.0,14552.0
3.3469834327697754,92.0,96368.0,182272.0,176512.0,127280.0,42768.0,10476.0
3.3485000133514404,75.0,83952.0,179264.0,170048.0,131264.0,35360.0,8352.0
3.3500165939331055,40.0,82864.0,173184.0,154176.0,97264.0,50112.0,12292.0
3.3515334129333496,72.0,66096.0,164864.0,129728.0,111456.0,40320.0,7245.0
3.3530499935150146,76.0,51664.0,132800.0,116160.0,101680.0,44672.0,7610.0
3.3545665740966797,79.0,48432.0,103872.0,134784.0,82432.0,28904.0,9020.0
3.356149911880493,0.0,43344.0,101680.0,100160.0,64656.0,37616.0,4733.0
3.3576667308807373,78.0,45664.0,107152.0,90112.0,71744.0,20144.0,7167.0
3.3591833114624023,82.0,39664.0,79520.0,77680.0,49632.0,23432.0,6576.0
3.3606998920440674,74.0,39008.0,65488.0,79904.0,46384.0,16344.0,7341.0
3.3622167110443115,65.0,37120.0,83904.0,56384.0,52304.0,15692.0,7909.0
3.3637332916259766,42.0,30352.0,63040.0,62672.0,36048.0,7274.0,6747.0
3.3652501106262207,19.0,18632.0,56352.0,42608.0,41248.0,22384.0,5585.0
3.3667666912078857,53.0,21820.0,43168.0,52368.0,37248.0,18152.0,5584.0
3.368283271789551,46.0,28916.0,35040.0,50496.0,29196.0,13792.0,4981.0
3.369800090789795,40.0,18536.0,47616.0,40304.0,23560.0,9368.0,5159.0
3.37131667137146,11.0,18772.0,41184.0,34992.0,26324.0,14524.0,5338.0
3.372866630554199,57.0,23708.0,27896.0,29156.0,19788.0,8568.0,6374.0
3.3743999004364014,31.0,12368.0,22584.0,37760.0,14748.0,6128.0,3295.0
3.3759167194366455,26.0,6600.0,25444.0,29200.0,18436.0,4486.0,3372.0
3.3774333000183105,37.0,11288.0,23708.0,22396.0,10468.0,4274.0,2895.0
3.3789501190185547,6.0,10304.0,26004.0,19372.0,20436.0,6044.0,3826.0
3.3804666996002197,50.0,10072.0,19972.0,34672.0,16460.0,7813.0,4757.0
3.3819832801818848,44.0,9844.0,20380.0,28752.0,15892.0,6743.0,5979.0
3.383500099182129,31.0,7314.0,20792.0,18372.0,17112.0,5112.0,5562.0
3.385016679763794,31.0,8232.0,20320.0,29088.0,14968.0,5727.0,5216.0
3.386533260345459,31.0,8700.0,19844.0,23408.0,17708.0,6342.0,4871.0
3.388050079345703,29.0,9356.0,21172.0,25472.0,13732.0,10204.0,3874.0
3.389566659927368,29.0,10440.0,15512.0,15984.0,11344.0,10272.0,2876.0
3.3911499977111816,23.0,6779.0,15092.0,17008.0,10608.0,5299.0,2824.0
3.3926665782928467,20.0,7264.0,16144.0,14384.0,8844.0,7038.0,2149.0
3.394183397293091,18.0,12292.0,15120.0,8960.0,10660.0,7696.0,2110.0
3.395699977874756,17.0,3074.0,9208.0,16708.0,9684.0,6253.0,2070.0
3.397216558456421,19.0,4233.0,13420.0,17304.0,8712.0,5536.0,1871.0
3.398733377456665,32.0,6533.0,14180.0,13432.0,9216.0,4819.0,2198.0
3.40024995803833,45.0,6506.0,16332.0,16488.0,5811.0,7287.0,1987.0
3.4017832279205322,51.0,4940.0,16284.0,18500.0,11060.0,3242.0,1824.0
3.4032833576202393,29.0,6057.0,12500.0,14412.0,8328.0,1761.0,2187.0
3.4047999382019043,47.0,7175.0,10024.0,18320.0,8788.0,4832.0,1645.0
3.4063334465026855,65.0,6774.0,14960.0,19100.0,6598.0,7887.0,1102.0
3.4078667163848877,10.0,6373.0,7256.0,11580.0,10212.0,6235.0,2106.0
3.40939998626709,36.0,2629.0,7646.0,13712.0,7556.0,5344.0,3110.0
3.410900115966797,23.0,2074.0,13972.0,8860.0,4899.0,674.0,4251.0
3.412416696548462,25.0,3756.0,8040.0,10572.0,7571.0,6301.0,4223.0
3.413933277130127,0.0,4016.0,9036.0,9404.0,3074.0,2345.0,3870.0
3.415450096130371,8.0,4595.0,6479.0,8232.0,6618.0,4200.0,3517.0
3.4169833660125732,39.0,4784.0,7922.0,10340.0,7942.0,4139.0,4057.0
3.4184999465942383,29.0,2486.0,7730.0,8876.0,3667.0,3598.0,4220.0
3.4200167655944824,39.0,1574.0,8768.0,7409.0,4836.0,3056.0,2497.0
3.4215333461761475,45.0,6085.0,9808.0,7747.0,8392.0,2143.0,882.0
3.4230499267578125,10.0,3893.0,10288.0,6684.0,5547.0,3364.0,4440.0
3.4245998859405518,53.0,4733.0,5160.0,10484.0,5862.0,2478.0,3069.0
3.426116704940796,42.0,5592.0,9120.0,6533.0,7379.0,3917.0,1497.0
3.427633285522461,26.0,3884.0,6007.0,2581.0,6003.0,1611.0,348.0
3.429150104522705,26.0,2923.0,6567.0,10284.0,2074.0,3451.0,472.0
3.43066668510437,33.0,3004.0,5562.0,6288.0,8360.0,3655.0,4311.0
3.432183265686035,40.0,3927.0,4549.0,7150.0,2158.0,3860.0,4862.0
3.4337000846862793,10.0,2138.0,5752.0,9688.0,5845.0,2631.0,2420.0
3.4352166652679443,33.0,1956.0,8336.0,8169.0,4951.0,2437.0,4119.0
3.4367332458496094,32.0,1650.0,8070.0,6052.0,3287.0,1009.0,1661.0
3.4382500648498535,15.0,2094.0,7802.0,8572.0,5220.0,2682.0,4395.0
3.4397666454315186,8.0,1995.0,6619.0,6165.0,2905.0,1940.0,1183.0
3.441333293914795,5.0,1896.0,8596.0,3758.0,1689.0,1199.0,653.0
3.442850112915039,5.0,3125.0,6898.0,7310.0,1070.0,2102.0,4396.0
3.444366693496704,9.0,2896.0,9884.0,6511.0,5107.0,3005.0,4875.0
3.445883274078369,14.0,2668.0,4178.0,5712.0,3864.0,3184.0,951.0
3.4474000930786133,12.0,2284.0,5006.0,6168.0,2620.0,872.0,1363.0
3.4489166736602783,20.0,4607.0,8828.0,6623.0,5926.0,3903.0,4385.0
3.4504332542419434,18.0,4776.0,7165.0,2445.0,2001.0,2699.0,2160.0
3.4519500732421875,16.0,3367.0,5030.0,3199.0,1941.0,3246.0,3072.0
3.4534666538238525,21.0,3506.0,5730.0,7638.0,6006.0,3172.0,2560.0
3.4549832344055176,17.0,3458.0,3012.0,6289.0,2187.0,18.0,1977.0
3.4565000534057617,28.0,1907.0,6643.0,5866.0,5196.0,3627.0,1395.0
3.458050012588501,29.0,2526.0,5667.0,5802.0,814.0,5082.0,2885.0
3.459566593170166,29.0,1532.0,5989.0,3525.0,2301.0,2506.0,542.0
3.46108341217041,5.0,1721.0,3451.0,3534.0,3788.0,537.0,1002.0
3.462599992752075,15.0,1910.0,7132.0,3001.0,2952.0,44.0,549.0
3.4641165733337402,18.0,1732.0,5229.0,2468.0,4221.0,3515.0,1593.0
3.4656333923339844,22.0,1554.0,4325.0,2180.0,1508.0,1930.0,1439.0
3.4671499729156494,20.0,982.0,6650.0,385.0,1382.0,293.0,1285.0
3.4686665534973145,15.0,411.0,6828.0,2567.0,3033.0,3202.0,1683.0
3.4701833724975586,18.0,657.0,4430.0,2781.0,1910.0,1744.0,2082.0
3.4716999530792236,21.0,903.0,5655.0,2995.0,1500.0,2497.0,1529.0
3.4732167720794678,17.0,1862.0,2134.0,2965.0,914.0,1944.0,975.0
3.4748001098632812,22.0,2599.0,3733.0,7922.0,329.0,1391.0,1276.0
3.4763166904449463,28.0,1650.0,2374.0,5812.0,5000.0,2225.0,1738.0
3.4778332710266113,27.0,701.0,3532.0,3703.0,4586.0,951.0,960.0
3.4793500900268555,25.0,875.0,4690.0,4224.0,1769.0,249.0,879.0
3.4808666706085205,5.0,998.0,1468.0,3200.0,673.0,5.0,799.0
3.4823832511901855,31.0,387.0,2919.0,4045.0,2031.0,851.0,459.0
3.4839000701904297,5.0,519.0,2031.0,2565.0,1678.0,765.0,795.0
3.4854166507720947,5.0,7.0,1115.0,2259.0,1034.0,697.0,47.0
3.4869332313537598,33.0,21.0,917.0,2218.0,36.0,358.0,301.0
3.488450050354004,22.0,34.0,1278.0,1849.0,595.0,20.0,555.0
3.489966630935669,58.0,33.0,1083.0,1643.0,61.0,740.0,621.0
3.4915499687194824,36.0,32.0,888.0,1437.0,20.0,582.0,318.0
3.4930665493011475,15.0,5.0,688.0,727.0,41.0,37.0,15.0
3.4945833683013916,55.0,5.0,30.0,18.0,49.0,23.0,46.0
3.4960999488830566,35.0,5.0,2015.0,46.0,27.0,35.0,413.0
3.497616767883301,15.0,5.0,1033.0,10.0,6.0,703.0,210.0
3.499133348464966,10.0,7.0,51.0,29.0,12.0,716.0,6.0
3.500649929046631,42.0,10.0,34.0,47.0,25.0,23.0,47.0
3.502166748046875,18.0,14.0,566.0,24.0,40.0,77.0,31.0
3.50368332862854,11.0,18.0,475.0,0.0,26.0,53.0,36.0
3.505199909210205,51.0,22.0,41.0,21.0,12.0,20.0,0.0
3.506716728210449,5.0,27.0,17.0,8.0,22.0,42.0,20.0
3.5082833766937256,5.0,34.0,41.0,33.0,1065.0,30.0,20.0
3.5097999572753906,5.0,5.0,11.0,16.0,821.0,6.0,21.0
3.5113332271575928,13.0,34.0,10.0,0.0,42.0,14.0,31.0
3.5128333568573,21.0,19.0,15.0,37.0,513.0,41.0,42.0
3.514349937438965,42.0,53.0,15.0,55.0,20.0,25.0,35.0
3.515866756439209,37.0,32.0,16.0,73.0,711.0,26.0,57.0
3.517383337020874,10.0,11.0,25.0,431.0,361.0,35.0,5.0
3.518899917602539,0.0,23.0,34.0,225.0,11.0,55.0,7.0
3.520416736602783,33.0,27.0,26.0,20.0,58.0,47.0,43.0
3.5219333171844482,20.0,29.0,18.0,359.0,35.0,39.0,12.0
3.5234498977661133,7.0,36.0,5.0,47.0,61.0,40.0,31.0
3.5250332355499268,49.0,27.0,58.0,6.0,34.0,40.0,28.0
3.526550054550171,37.0,19.0,40.0,12.0,17.0,38.0,17.0
3.528066635131836,28.0,23.0,23.0,14.0,10.0,36.0,29.0
3.529583215713501,24.0,27.0,25.0,72.0,318.0,77.0,36.0
3.531100034713745,21.0,32.0,5.0,71.0,175.0,64.0,43.0
3.53261661529541,27.0,26.0,10.0,173.0,32.0,52.0,33.0
3.5341334342956543,0.0,20.0,42.0,100.0,31.0,11.0,10.0
3.5356500148773193,25.0,23.0,230.0,28.0,31.0,19.0,17.0
3.5371665954589844,23.0,26.0,118.0,49.0,7.0,18.0,0.0
3.5386834144592285,40.0,21.0,5.0,6.0,17.0,20.0,0.0
3.5401999950408936,0.0,19.0,38.0,31.0,22.0,22.0,37.0
3.54176664352417,5.0,17.0,14.0,29.0,287.0,35.0,41.0
3.543299913406372,28.0,366.0,33.0,25.0,147.0,20.0,34.0
3.544816732406616,19.0,203.0,22.0,26.0,6.0,5.0,28.0
3.5463333129882812,10.0,40.0,43.0,28.0,333.0,13.0,37.0
3.5478498935699463,16.0,69.0,64.0,21.0,660.0,22.0,49.0
3.5493667125701904,23.0,48.0,62.0,29.0,446.0,19.0,11.0
3.5508832931518555,24.0,6.0,60.0,51.0,464.0,16.0,6.0
3.5524001121520996,22.0,27.0,0.0,64.0,7.0,23.0,35.0
3.5539166927337646,19.0,20.0,47.0,49.0,10.0,28.0,5.0
3.5554332733154297,25.0,24.0,43.0,34.0,13.0,33.0,25.0
3.556950092315674,31.0,28.0,19.0,59.0,5.0,42.0,20.0
3.558466672897339,27.0,13.0,366.0,14.0,10.0,38.0,16.0
3.5600333213806152,18.0,8.0,713.0,11.0,15.0,35.0,6.0
3.5615499019622803,17.0,46.0,368.0,20.0,29.0,41.0,16.0
3.5630667209625244,15.0,38.0,24.0,30.0,43.0,0.0,27.0
3.5645833015441895,13.0,30.0,573.0,46.0,40.0,16.0,16.0
3.5660998821258545,18.0,22.0,24.0,37.0,16.0,22.0,5.0
3.5676167011260986,28.0,57.0,28.0,28.0,26.0,29.0,32.0
3.5691332817077637,40.0,75.0,49.0,27.0,35.0,34.0,27.0
3.570650100708008,43.0,56.0,21.0,33.0,36.0,39.0,22.0
3.572166681289673,34.0,36.0,39.0,40.0,36.0,16.0,27.0
3.573683261871338,35.0,38.0,28.0,41.0,35.0,12.0,18.0
3.575200080871582,44.0,39.0,32.0,24.0,59.0,32.0,0.0
3.5767834186553955,19.0,40.0,12.0,20.0,41.0,209.0,5.0
3.5782999992370605,29.0,12.0,26.0,5.0,23.0,385.0,6.0
3.5798165798187256,27.0,9.0,41.0,13.0,5.0,220.0,7.0
3.5813333988189697,14.0,7.0,42.0,22.0,193.0,55.0,30.0
3.5828499794006348,7.0,13.0,35.0,664.0,337.0,46.0,22.0
3.5843665599823,0.0,11.0,34.0,341.0,481.0,37.0,13.0
3.585883378982544,14.0,16.0,23.0,18.0,24.0,18.0,5.0
3.587399959564209,16.0,25.0,37.0,66.0,46.0,12.0,10.0
3.588916778564453,19.0,15.0,19.0,46.0,32.0,14.0,0.0
3.590433359146118,11.0,5.0,18.0,26.0,21.0,16.0,69.0
3.591949939727783,28.0,19.0,18.0,70.0,23.0,14.0,41.0
3.5935332775115967,32.0,31.0,25.0,10.0,16.0,13.0,13.0
3.595050096511841,36.0,18.0,6.0,5.0,10.0,9.0,55.0
3.596566677093506,5.0,5.0,17.0,35.0,10.0,5.0,39.0
3.598083257675171,10.0,10.0,28.0,59.0,11.0,398.0,22.0
