,335.2099914550781,336.2099914550781,337.2099914550781,338.2099914550781,339.2099914550781,340.2099914550781,341.2099914550781,342.2099914550781,343.2099914550781,344.2099914550781,345.2099914550781
5.702383518218994,1093.0,29.0,36.0,5.0,29.0,16.0,10.0,19.0,13.0,51.0,856.0
5.704766750335693,39.0,6.0,41.0,24.0,19.0,12.0,5.0,1008.0,19.0,23.0,31.0
5.707149982452393,737.0,619.0,5.0,956.0,895.0,65.0,29.0,34.0,12.0,892.0,539.0
5.709533214569092,756.0,16.0,5.0,631.0,17.0,18.0,54.0,33.0,35.0,5.0,24.0
5.711916446685791,56.0,16.0,25.0,27.0,11.0,35.0,62.0,17.0,23.0,7.0,21.0
5.714300155639648,48.0,740.0,20.0,7.0,10.0,65.0,36.0,7.0,10.0,852.0,24.0
5.716683387756348,40.0,42.0,16.0,0.0,26.0,40.0,10.0,33.0,30.0,20.0,15.0
5.719133377075195,20.0,549.0,20.0,24.0,22.0,23.0,38.0,10.0,37.0,6.0,19.0
5.7215166091918945,0.0,18.0,0.0,22.0,19.0,33.0,8.0,12.0,31.0,5.0,24.0
5.723899841308594,788.0,48.0,8.0,21.0,16.0,45.0,5.0,6.0,26.0,13.0,20.0
5.726283550262451,730.0,10.0,17.0,21.0,18.0,58.0,17.0,19.0,32.0,12.0,17.0
5.72866678237915,672.0,822.0,18.0,24.0,55.0,6.0,37.0,13.0,0.0,12.0,14.0
5.73105001449585,560.0,708.0,12.0,18.0,27.0,7.0,32.0,6.0,0.0,8.0,12.0
5.733433246612549,507.0,594.0,14.0,10.0,0.0,13.0,8.0,17.0,36.0,16.0,12.0
5.735866546630859,1034.0,800.0,16.0,27.0,0.0,12.0,5.0,28.0,16.0,8.0,12.0
5.738249778747559,0.0,26.0,19.0,34.0,25.0,10.0,11.0,40.0,21.0,0.0,19.0
5.740633487701416,27.0,29.0,429.0,32.0,12.0,5.0,14.0,52.0,10.0,5.0,27.0
5.743016719818115,1520.0,0.0,449.0,30.0,0.0,7.0,17.0,9.0,26.0,11.0,34.0
5.7453999519348145,1396.0,17.0,7.0,7.0,453.0,10.0,18.0,29.0,6.0,9.0,29.0
5.747783184051514,12.0,35.0,11.0,36.0,244.0,12.0,22.0,5.0,0.0,7.0,24.0
5.750166893005371,33.0,27.0,16.0,42.0,34.0,15.0,27.0,31.0,6.0,21.0,20.0
5.752616882324219,5.0,18.0,10.0,5.0,59.0,0.0,5.0,17.0,6.0,14.0,26.0
5.755000114440918,32.0,0.0,37.0,26.0,15.0,96.0,29.0,5.0,5.0,8.0,23.0
5.757383346557617,5.0,6.0,38.0,26.0,10.0,60.0,32.0,24.0,12.0,12.0,20.0
5.759766578674316,5.0,400.0,27.0,28.0,31.0,25.0,13.0,19.0,27.0,10.0,12.0
5.762149810791016,49.0,508.0,16.0,31.0,26.0,13.0,5.0,15.0,42.0,17.0,27.0
5.764533519744873,29.0,254.0,12.0,0.0,20.0,14.0,0.0,25.0,39.0,13.0,20.0
5.766916751861572,31.0,0.0,0.0,19.0,7.0,7.0,10.0,12.0,36.0,10.0,31.0
5.76936674118042,5.0,25.0,5.0,38.0,15.0,0.0,0.0,10.0,29.0,8.0,28.0
5.771749973297119,8.0,35.0,6.0,33.0,16.0,10.0,3.0,15.0,0.0,6.0,26.0
5.774133205413818,12.0,45.0,6.0,28.0,20.0,5.0,6.0,15.0,30.0,12.0,638.0
5.776516437530518,20.0,32.0,8.0,21.0,17.0,0.0,3.0,15.0,28.0,19.0,533.0
5.778900146484375,15.0,20.0,10.0,24.0,15.0,6.0,0.0,7.0,26.0,12.0,14.0
5.781283378601074,10.0,0.0,9.0,5.0,17.0,5.0,14.0,0.0,0.0,5.0,53.0
5.783666610717773,19.0,76.0,8.0,8.0,7.0,5.0,30.0,7.0,6.0,17.0,29.0
5.786116600036621,39.0,38.0,37.0,12.0,19.0,33.0,40.0,14.0,13.0,13.0,5.0
5.78849983215332,122.0,0.0,47.0,6.0,14.0,16.0,5.0,32.0,15.0,10.0,5.0
5.790883541107178,193.0,11.0,45.0,0.0,10.0,0.0,7.0,22.0,27.0,19.0,38.0
5.793266773223877,263.0,23.0,22.0,19.0,13.0,34.0,10.0,13.0,29.0,13.0,23.0
5.795650005340576,0.0,11.0,0.0,12.0,18.0,25.0,10.0,0.0,30.0,6.0,0.0
5.798033237457275,28.0,17.0,18.0,6.0,0.0,16.0,11.0,25.0,17.0,12.0,2.0
5.800416469573975,274.0,24.0,329.0,34.0,0.0,26.0,11.0,13.0,18.0,18.0,5.0
5.802849769592285,139.0,7.0,191.0,36.0,43.0,30.0,12.0,13.0,0.0,17.0,33.0
5.805233478546143,5.0,3.0,54.0,18.0,29.0,34.0,39.0,13.0,5.0,16.0,56.0
5.807616710662842,535.0,0.0,39.0,0.0,27.0,31.0,43.0,13.0,19.0,13.0,47.0
5.809999942779541,1653.0,0.0,24.0,41.0,12.0,19.0,40.0,5.0,17.0,10.0,8.0
5.81238317489624,840.0,179.0,11.0,25.0,39.0,10.0,30.0,5.0,11.0,0.0,22.0
5.814766883850098,27.0,357.0,10.0,10.0,32.0,32.0,5.0,6.0,5.0,29.0,0.0
5.817150115966797,739.0,565.0,22.0,11.0,25.0,5.0,12.0,8.0,34.0,17.0,14.0
5.8196001052856445,1066.0,525.0,206.0,0.0,0.0,18.0,21.0,17.0,37.0,6.0,20.0
5.821983337402344,0.0,486.0,390.0,23.0,25.0,24.0,30.0,32.0,41.0,7.0,26.0
5.824366569519043,153.0,598.0,202.0,14.0,8.0,16.0,26.0,26.0,67.0,8.0,24.0
5.826749801635742,24.0,710.0,14.0,5.0,36.0,33.0,23.0,41.0,48.0,10.0,22.0
5.8291335105896,44.0,656.0,294.0,7.0,33.0,33.0,7.0,11.0,29.0,16.0,0.0
5.831516742706299,754.0,603.0,575.0,9.0,29.0,5.0,14.0,33.0,12.0,21.0,18.0
5.833899974822998,957.0,503.0,610.0,12.0,0.0,13.0,26.0,36.0,10.0,19.0,14.0
5.836349964141846,326.0,651.0,18.0,13.0,0.0,20.0,15.0,0.0,8.0,16.0,32.0
5.838733196258545,11.0,17.0,29.0,5.0,18.0,36.0,5.0,5.0,492.0,11.0,30.0
5.841116428375244,10.0,11.0,28.0,29.0,37.0,36.0,43.0,11.0,251.0,53.0,29.0
5.843500137329102,529.0,16.0,5.0,30.0,26.0,24.0,52.0,17.0,11.0,40.0,8.0
5.845883369445801,277.0,17.0,23.0,17.0,16.0,21.0,9.0,29.0,13.0,27.0,24.0
5.8482666015625,26.0,18.0,18.0,5.0,28.0,38.0,10.0,26.0,15.0,32.0,21.0
5.850649833679199,20.0,11.0,13.0,33.0,10.0,23.0,31.0,24.0,0.0,12.0,0.0
5.85308313369751,14.0,5.0,17.0,12.0,5.0,8.0,24.0,24.0,9.0,0.0,13.0
5.855466842651367,47.0,24.0,21.0,33.0,10.0,26.0,8.0,25.0,19.0,5.0,49.0
5.857850074768066,34.0,23.0,26.0,25.0,15.0,16.0,35.0,26.0,24.0,2.0,40.0
5.860233306884766,22.0,22.0,323.0,34.0,0.0,22.0,9.0,0.0,18.0,0.0,31.0
5.862616539001465,22.0,20.0,186.0,27.0,11.0,10.0,5.0,12.0,12.0,11.0,24.0
5.864999771118164,22.0,18.0,50.0,28.0,23.0,16.0,10.0,9.0,175.0,12.0,26.0
5.8673834800720215,5.0,36.0,418.0,5.0,16.0,10.0,13.0,6.0,338.0,11.0,29.0
5.869816780090332,14.0,43.0,5.0,30.0,23.0,12.0,28.0,867.0,482.0,11.0,0.0
5.872216701507568,23.0,49.0,44.0,21.0,23.0,14.0,25.0,1017.0,247.0,0.0,20.0
5.874599933624268,29.0,18.0,5.0,7.0,5.0,0.0,8.0,205.0,12.0,13.0,36.0
5.876983165740967,35.0,11.0,6.0,36.0,24.0,13.0,40.0,0.0,48.0,27.0,15.0
5.879366874694824,44.0,0.0,13.0,17.0,27.0,19.0,35.0,1518.0,31.0,28.0,22.0
5.881750106811523,53.0,8.0,9.0,28.0,28.0,25.0,8.0,1428.0,15.0,16.0,25.0
5.884133338928223,179.0,16.0,6.0,34.0,17.0,0.0,20.0,1746.0,32.0,5.0,29.0
5.886516571044922,92.0,14.0,18.0,0.0,35.0,7.0,0.0,2065.0,24.0,13.0,17.0
5.8889665603637695,6.0,14.0,30.0,18.0,24.0,11.0,5.0,1423.0,17.0,16.0,16.0
5.891349792480469,45.0,15.0,20.0,36.0,13.0,17.0,43.0,782.0,42.0,335.0,702.0
5.893733501434326,18.0,0.0,10.0,34.0,5.0,35.0,22.0,2291.0,486.0,177.0,366.0
5.896116733551025,18.0,55.0,24.0,9.0,2.0,53.0,0.0,3263.0,280.0,19.0,29.0
5.898499965667725,12.0,30.0,39.0,8.0,0.0,61.0,50.0,2112.0,75.0,9.0,74.0
5.900883197784424,23.0,5.0,32.0,4.0,0.0,27.0,8.0,961.0,10.0,0.0,14.0
5.903266429901123,30.0,5.0,30.0,0.0,13.0,46.0,10.0,2546.0,10.0,25.0,26.0
5.905700206756592,23.0,29.0,32.0,5.0,13.0,14.0,43.0,3095.0,5.0,20.0,23.0
5.908083438873291,14.0,24.0,10.0,46.0,5.0,17.0,346.0,4151.0,28.0,15.0,22.0
5.91046667098999,12.0,23.0,12.0,32.0,14.0,19.0,179.0,5.0,888.0,5.0,13.0
5.9128499031066895,25.0,23.0,15.0,19.0,24.0,22.0,11.0,3989.0,618.0,25.0,6.0
5.915233135223389,9.0,1216.0,630.0,2613.0,603.0,680.0,790.0,2944.0,348.0,166.0,0.0
5.917633533477783,17.0,1083.0,2199.0,6886.0,2085.0,1477.0,839.0,2308.0,1237.0,306.0,23.0
5.920000076293945,0.0,4015.0,2266.0,7210.0,5677.0,2274.0,2332.0,707.0,14.0,561.0,75.0
5.922450065612793,2.0,6669.0,16540.0,10708.0,9348.0,6470.0,5773.0,6841.0,4053.0,815.0,672.0
5.924833297729492,5.0,9180.0,27512.0,33712.0,25760.0,14896.0,12560.0,11044.0,6025.0,1731.0,531.0
5.927216529846191,17.0,18252.0,47296.0,52592.0,49200.0,32944.0,31688.0,11956.0,8860.0,2646.0,2232.0
5.929599761962891,29.0,36144.0,81680.0,91360.0,76592.0,50064.0,48608.0,24640.0,9760.0,9208.0,3843.0
5.931983470916748,33.0,65536.0,136128.0,161920.0,138496.0,106352.0,94064.0,58896.0,24136.0,11888.0,5409.0
5.934366703033447,23.0,92112.0,233024.0,245312.0,181248.0,174592.0,131968.0,67264.0,46864.0,20848.0,6634.0
5.9367499351501465,6.0,181952.0,336576.0,343104.0,277760.0,252096.0,186688.0,114080.0,52640.0,22044.0,8768.0
5.939199924468994,11.0,245568.0,500416.0,509504.0,394240.0,335360.0,264704.0,136384.0,72768.0,32540.0,7129.0
5.941566467285156,16.0,303936.0,646144.0,599296.0,516672.0,458432.0,339776.0,168256.0,96576.0,29748.0,17672.0
5.943950176239014,21.0,378368.0,786944.0,782848.0,671232.0,525824.0,405056.0,205760.0,113152.0,54496.0,25008.0
5.946333408355713,53.0,456320.0,976896.0,971008.0,743936.0,664064.0,456384.0,249088.0,126768.0,64544.0,24036.0
5.948716640472412,55.0,595712.0,1166592.0,1048320.0,873728.0,672768.0,526592.0,275264.0,142784.0,61536.0,17888.0
5.951099872589111,47.0,636416.0,1241856.0,1194752.0,992000.0,752640.0,589312.0,293504.0,144320.0,64048.0,24708.0
5.9534831047058105,81.0,703744.0,1265152.0,1220352.0,1040640.0,833536.0,596992.0,301056.0,163328.0,66576.0,27576.0
5.955933570861816,74.0,694784.0,1452032.0,1388544.0,1158912.0,861184.0,617472.0,340160.0,182400.0,70416.0,30448.0
5.958316802978516,66.0,709632.0,1467392.0,1340160.0,1157376.0,908288.0,707072.0,361600.0,187712.0,77344.0,23268.0
5.960700035095215,76.0,756480.0,1501952.0,1424384.0,1213184.0,951040.0,690688.0,341376.0,180864.0,85872.0,29000.0
5.963083267211914,86.0,803328.0,1500928.0,1413632.0,1211648.0,906752.0,720896.0,378304.0,204544.0,79200.0,27572.0
5.965466499328613,101.0,766208.0,1616384.0,1447936.0,1219328.0,939264.0,712704.0,369280.0,214528.0,88848.0,26880.0
5.967850208282471,117.0,784640.0,1617408.0,1539072.0,1178112.0,923136.0,662272.0,356096.0,172160.0,85936.0,23364.0
5.97023344039917,106.0,809216.0,1626112.0,1534208.0,1186816.0,877824.0,688384.0,341056.0,158208.0,59296.0,29852.0
5.972683429718018,94.0,743168.0,1448704.0,1373952.0,1125888.0,942592.0,648448.0,332736.0,171712.0,54544.0,27448.0
5.975066661834717,75.0,769280.0,1434624.0,1406976.0,1124352.0,888576.0,632832.0,316672.0,164992.0,73344.0,25044.0
5.977449893951416,56.0,684032.0,1408512.0,1335296.0,1208576.0,874752.0,629248.0,276736.0,156928.0,67200.0,28668.0
5.979833126068115,59.0,656896.0,1253376.0,1193728.0,1009408.0,803072.0,560640.0,296960.0,138112.0,54176.0,19228.0
5.982216835021973,61.0,648704.0,1315072.0,1244160.0,950784.0,806912.0,572160.0,281152.0,141184.0,60272.0,31560.0
5.984600067138672,73.0,622592.0,1184000.0,1201920.0,977152.0,744192.0,513920.0,307968.0,153152.0,52400.0,27108.0
5.986983299255371,85.0,596736.0,1152768.0,1200128.0,913664.0,696320.0,518848.0,248704.0,139008.0,51136.0,26036.0
5.989416599273682,83.0,596224.0,1101568.0,1060864.0,841216.0,639488.0,493696.0,277568.0,140416.0,56544.0,23772.0
5.991799831390381,81.0,558592.0,1153536.0,971264.0,877824.0,634624.0,495744.0,259712.0,132544.0,44368.0,24340.0
5.994183540344238,55.0,562944.0,1108224.0,1032448.0,842496.0,608768.0,458560.0,248704.0,128992.0,43952.0,22636.0
5.9965667724609375,100.0,495808.0,1024256.0,1036288.0,857600.0,596480.0,447232.0,239872.0,137216.0,60496.0,16592.0
5.998950004577637,79.0,517312.0,1078272.0,1007872.0,821504.0,584448.0,413376.0,246464.0,104336.0,40768.0,16960.0
6.001333236694336,116.0,516992.0,1076480.0,987648.0,797952.0,622848.0,423040.0,209536.0,107504.0,60096.0,16328.0
6.003716468811035,109.0,512384.0,945152.0,998400.0,788992.0,564480.0,432128.0,222208.0,103952.0,49152.0,16456.0
6.006166458129883,101.0,507776.0,965632.0,962048.0,764672.0,583424.0,427904.0,239680.0,108176.0,41264.0,16588.0
6.00855016708374,104.0,522688.0,1071104.0,945664.0,769536.0,566528.0,376896.0,221888.0,106848.0,39312.0,11508.0
6.0109333992004395,107.0,519680.0,970240.0,876544.0,741632.0,539392.0,424832.0,227776.0,105504.0,44528.0,13916.0
6.013316631317139,46.0,428352.0,924416.0,850944.0,694272.0,545536.0,389376.0,212736.0,106624.0,40688.0,13580.0
6.015699863433838,82.0,485312.0,890624.0,811008.0,671232.0,494080.0,375104.0,205632.0,112224.0,36848.0,10688.0
6.018083095550537,113.0,430720.0,851456.0,719104.0,606208.0,481792.0,349184.0,189568.0,94432.0,34320.0,12740.0
6.0204668045043945,121.0,365696.0,818176.0,781568.0,665600.0,491584.0,337600.0,170176.0,94656.0,40304.0,11972.0
6.022916793823242,112.0,390784.0,744448.0,719360.0,535040.0,441088.0,328192.0,168896.0,79296.0,34928.0,4884.0
6.025300025939941,73.0,374912.0,667392.0,681984.0,537088.0,419264.0,304256.0,146944.0,69824.0,33200.0,17084.0
6.027683258056641,125.0,320384.0,628480.0,610304.0,497088.0,388544.0,279808.0,135616.0,62096.0,30276.0,5786.0
6.03006649017334,52.0,314240.0,609536.0,573952.0,453056.0,351040.0,272192.0,135808.0,75808.0,26384.0,11268.0
6.032450199127197,20.0,291008.0,525824.0,484096.0,385728.0,320320.0,231488.0,123152.0,46304.0,32472.0,12372.0
6.0348334312438965,66.0,278272.0,490304.0,445952.0,356736.0,286208.0,219072.0,110784.0,42960.0,15392.0,4533.0
6.037216663360596,74.0,230976.0,444736.0,353600.0,316672.0,252160.0,177088.0,96528.0,41872.0,12964.0,7432.0
6.039649963378906,81.0,195968.0,336000.0,328064.0,267200.0,228672.0,156416.0,70272.0,33264.0,21540.0,4115.0
6.0420331954956055,1097.0,151616.0,316416.0,308672.0,255872.0,196160.0,133824.0,65120.0,29160.0,14104.0,2823.0
6.044416904449463,925.0,135296.0,265024.0,247232.0,193600.0,168640.0,98704.0,56592.0,35200.0,8340.0,7405.0
6.046800136566162,28.0,112560.0,233600.0,199168.0,165056.0,123648.0,103152.0,35840.0,13248.0,16040.0,5591.0
6.049183368682861,26.0,87136.0,215936.0,192256.0,130384.0,117008.0,66976.0,46512.0,22984.0,11516.0,5195.0
6.0515666007995605,113.0,82816.0,169216.0,148736.0,110880.0,86912.0,65744.0,28768.0,17340.0,6621.0,4130.0
6.05394983291626,483.0,72928.0,130416.0,124192.0,95440.0,77616.0,54112.0,34544.0,13172.0,6704.0,3237.0
6.05638313293457,283.0,62496.0,122048.0,118752.0,69920.0,50816.0,46032.0,23648.0,3971.0,3813.0,1237.0
6.058783531188965,83.0,46400.0,88736.0,76560.0,63264.0,44784.0,41504.0,14580.0,8508.0,5549.0,649.0
6.061166763305664,64.0,36000.0,74880.0,69056.0,54784.0,44944.0,30332.0,10688.0,9104.0,2768.0,1724.0
6.063549995422363,51.0,39152.0,71536.0,61552.0,38512.0,38544.0,31060.0,13536.0,5921.0,3418.0,1257.0
6.0659332275390625,41.0,28276.0,65952.0,37792.0,30336.0,25504.0,18668.0,13944.0,2315.0,3753.0,565.0
6.068316459655762,30.0,21012.0,41184.0,27204.0,32356.0,18916.0,20600.0,5451.0,6545.0,1310.0,292.0
6.070700168609619,30.0,16644.0,40752.0,32912.0,32896.0,24172.0,9176.0,13588.0,4308.0,1644.0,19.0
6.073083400726318,31.0,20512.0,42832.0,36272.0,23280.0,20896.0,18320.0,4854.0,6023.0,50.0,63.0
6.075533390045166,19.0,17564.0,31288.0,34336.0,21260.0,15292.0,13008.0,1669.0,5840.0,2061.0,54.0
6.077916622161865,15.0,12720.0,26568.0,28068.0,21380.0,17660.0,7303.0,7240.0,4333.0,13.0,45.0
6.0802998542785645,7.0,16748.0,22160.0,23492.0,20704.0,15564.0,14324.0,7074.0,1336.0,32.0,816.0
6.082683563232422,0.0,9576.0,17492.0,26812.0,23136.0,18688.0,5517.0,2104.0,1004.0,844.0,673.0
6.085066795349121,35.0,8260.0,28232.0,18472.0,16904.0,16164.0,10636.0,3685.0,5024.0,1100.0,6.0
6.08745002746582,33.0,12684.0,28128.0,17336.0,19832.0,13644.0,7861.0,3016.0,2783.0,1356.0,56.0
6.0898332595825195,32.0,13500.0,16596.0,23240.0,15984.0,14268.0,5422.0,2489.0,1291.0,427.0,17.0
6.09226655960083,53.0,8844.0,17368.0,13492.0,14116.0,10296.0,4851.0,1961.0,4619.0,1486.0,37.0
6.094649791717529,55.0,12192.0,15180.0,21064.0,10888.0,9500.0,3947.0,2412.0,3908.0,2045.0,58.0
6.097033500671387,56.0,2622.0,16840.0,14124.0,8736.0,10692.0,6513.0,2863.0,2767.0,1844.0,63.0
6.099416732788086,19.0,6633.0,16588.0,12356.0,14752.0,9676.0,7074.0,2542.0,1328.0,32.0,25.0
6.101799964904785,188.0,6942.0,16332.0,16272.0,15844.0,9008.0,3000.0,2221.0,2897.0,901.0,408.0
6.104183197021484,121.0,7573.0,12628.0,12108.0,6167.0,12012.0,6723.0,3365.0,38.0,918.0,329.0
6.106566429138184,55.0,7605.0,18572.0,9056.0,6181.0,4678.0,5224.0,2793.0,1842.0,492.0,251.0
6.1090168952941895,0.0,3951.0,7765.0,10292.0,13400.0,5994.0,6029.0,2220.0,1456.0,595.0,145.0
6.111400127410889,19.0,10432.0,9248.0,14788.0,9628.0,5101.0,4313.0,2868.0,2408.0,453.0,39.0
6.113783359527588,15.0,9136.0,16324.0,13684.0,11496.0,5465.0,4919.0,1590.0,878.0,5.0,33.0
6.116166591644287,13.0,9388.0,8752.0,9996.0,7571.0,5829.0,4371.0,2119.0,27.0,562.0,63.0
6.118549823760986,12.0,6428.0,11744.0,7942.0,7816.0,4035.0,4313.0,922.0,623.0,35.0,38.0
6.120933532714844,20.0,5689.0,6155.0,11656.0,6904.0,4378.0,4662.0,1114.0,811.0,44.0,24.0
6.123316764831543,29.0,7192.0,12468.0,10944.0,7968.0,5885.0,3167.0,1627.0,651.0,54.0,16.0
6.125766754150391,24.0,4340.0,9608.0,8896.0,9232.0,7166.0,2521.0,1223.0,326.0,320.0,85.0
6.12814998626709,19.0,2055.0,8260.0,13176.0,5668.0,6710.0,4654.0,819.0,0.0,275.0,54.0
6.130533218383789,26.0,6630.0,6390.0,8608.0,6585.0,6953.0,3140.0,37.0,37.0,230.0,23.0
6.132916450500488,25.0,2246.0,5382.0,7737.0,7143.0,7270.0,3419.0,748.0,25.0,863.0,43.0
6.135300159454346,24.0,5663.0,6091.0,4961.0,4455.0,5440.0,3397.0,820.0,13.0,833.0,21.0
6.137683391571045,19.0,714.0,4409.0,7254.0,6841.0,1492.0,4253.0,892.0,16.0,60.0,0.0
6.140066623687744,36.0,2617.0,4904.0,5928.0,6851.0,3317.0,2166.0,12.0,20.0,33.0,0.0
6.142516613006592,33.0,3886.0,5400.0,4602.0,6559.0,4271.0,4602.0,786.0,29.0,874.0,40.0
6.144899845123291,30.0,4364.0,5447.0,7135.0,5116.0,2213.0,2967.0,1082.0,890.0,24.0,20.0
6.147283554077148,30.0,4842.0,5494.0,2070.0,6129.0,1828.0,1098.0,1379.0,741.0,9.0,0.0
6.149666786193848,29.0,1661.0,5710.0,3419.0,4004.0,2028.0,892.0,0.0,593.0,32.0,29.0
6.152050018310547,29.0,1257.0,4278.0,5698.0,3887.0,2228.0,2280.0,1193.0,37.0,21.0,43.0
6.154433250427246,21.0,5086.0,4949.0,3962.0,7005.0,2049.0,1015.0,1116.0,30.0,0.0,36.0
6.156816482543945,13.0,1704.0,5620.0,2676.0,5615.0,1871.0,2305.0,27.0,23.0,14.0,30.0
6.159249782562256,20.0,2960.0,1862.0,4860.0,4775.0,2069.0,1961.0,70.0,158.0,12.0,40.0
6.161633491516113,27.0,1628.0,4248.0,4802.0,4164.0,2267.0,1616.0,594.0,1185.0,20.0,51.0
6.1640167236328125,35.0,1864.0,2483.0,4486.0,2464.0,2148.0,1937.0,110.0,1193.0,16.0,6.0
6.166399955749512,32.0,2101.0,4064.0,4170.0,4974.0,3374.0,2257.0,1777.0,1020.0,12.0,22.0
6.168783187866211,28.0,571.0,3439.0,5250.0,4071.0,3072.0,894.0,2075.0,848.0,20.0,26.0
6.171183109283447,11.0,2145.0,2813.0,5249.0,3975.0,134.0,5955.0,982.0,75.0,31.0,31.0
6.173550128936768,5.0,1369.0,6537.0,2046.0,1887.0,3131.0,4847.0,2506.0,0.0,43.0,35.0
6.176000118255615,11.0,1422.0,5715.0,4348.0,1238.0,3742.0,1416.0,1063.0,29.0,43.0,23.0
6.1783833503723145,17.0,1474.0,542.0,2148.0,3803.0,612.0,3774.0,1701.0,596.0,23.0,11.0
6.180766582489014,15.0,1127.0,5256.0,6117.0,2337.0,410.0,1208.0,543.0,312.0,25.0,14.0
6.183149814605713,10.0,780.0,5007.0,4557.0,3087.0,2589.0,1707.0,1775.0,28.0,27.0,17.0
6.18553352355957,5.0,1730.0,5933.0,4549.0,3491.0,1849.0,848.0,792.0,26.0,17.0,19.0
6.1879167556762695,30.0,925.0,3810.0,2702.0,3894.0,1450.0,1448.0,14.0,25.0,8.0,22.0
6.190299987792969,17.0,1485.0,5280.0,2552.0,3700.0,1543.0,2563.0,1778.0,24.0,6.0,6.0
6.192749977111816,5.0,1574.0,4430.0,5993.0,1147.0,1636.0,2683.0,18.0,24.0,14.0,26.0
6.1951165199279785,7.0,2768.0,1454.0,4537.0,3908.0,1125.0,2224.0,1142.0,19.0,7.0,42.0
6.197500228881836,15.0,2437.0,784.0,2154.0,599.0,614.0,4321.0,572.0,15.0,0.0,78.0
