,303.1099853515625,304.1099853515625,305.1099853515625,306.1099853515625,307.1099853515625,308.1099853515625
0.5012999773025513,39.0,13.0,20.0,5.0,22.0,16.0
0.5026000142097473,318.0,10.0,18.0,159.0,34.0,10.0
0.5038999915122986,0.0,0.0,22.0,43.0,0.0,24.0
0.5052000284194946,11.0,11.0,18.0,11.0,13.0,19.0
0.5065000057220459,37.0,11.0,10.0,31.0,6.0,40.0
0.5077999830245972,15.0,10.0,5.0,42.0,6.0,29.0
0.5091000199317932,15.0,10.0,9.0,23.0,5.0,19.0
0.5103999972343445,6.0,0.0,13.0,22.0,6.0,10.0
0.5116999745368958,5.0,0.0,16.0,20.0,0.0,33.0
0.5130000114440918,12.0,0.0,14.0,14.0,15.0,43.0
0.5142999887466431,29.0,3.0,12.0,22.0,28.0,34.0
0.5156000256538391,36.0,5.0,5.0,17.0,37.0,21.0
0.5169000029563904,7.0,7.0,9.0,13.0,18.0,21.0
0.5182666778564453,43.0,6.0,13.0,5.0,0.0,0.0
0.5195666551589966,21.0,5.0,15.0,20.0,27.0,7.0
0.5208666920661926,0.0,0.0,16.0,18.0,10.0,14.0
0.5221666693687439,15.0,14.0,14.0,15.0,10.0,23.0
0.5234666466712952,20.0,10.0,12.0,17.0,16.0,19.0
0.5247666835784912,25.0,5.0,19.0,18.0,13.0,0.0
0.5260666608810425,30.0,7.0,22.0,19.0,9.0,5.0
0.5273666381835938,27.0,8.0,25.0,20.0,5.0,36.0
0.5286666750907898,23.0,7.0,0.0,10.0,20.0,18.0
0.5299666523933411,25.0,42.0,13.0,0.0,20.0,0.0
0.5312666893005371,27.0,25.0,22.0,10.0,42.0,18.0
0.5325666666030884,21.0,9.0,24.0,16.0,37.0,5.0
0.5338666439056396,0.0,19.0,12.0,21.0,5.0,0.0
0.5352166891098022,26.0,13.0,0.0,6.0,5.0,11.0
0.5365166664123535,30.0,16.0,19.0,8.0,19.0,21.0
0.5378166437149048,12.0,14.0,10.0,10.0,17.0,20.0
0.5391166806221008,0.0,11.0,0.0,23.0,23.0,16.0
0.5404166579246521,30.0,27.0,32.0,20.0,8.0,33.0
0.5417166948318481,18.0,31.0,27.0,33.0,12.0,38.0
0.5430166721343994,5.0,11.0,13.0,26.0,0.0,9.0
0.5443166494369507,25.0,34.0,14.0,35.0,26.0,27.0
0.5456166863441467,32.0,14.0,10.0,44.0,27.0,24.0
0.546916663646698,39.0,9.0,7.0,9.0,16.0,36.0
0.5482166409492493,5.0,20.0,30.0,10.0,5.0,0.0
0.5495166778564453,15.0,5.0,27.0,10.0,25.0,19.0
0.5508166551589966,24.0,24.0,10.0,17.0,13.0,47.0
0.5521833300590515,29.0,33.0,6.0,20.0,14.0,26.0
0.5534833073616028,21.0,5.0,8.0,22.0,15.0,20.0
0.5547833442687988,5.0,18.0,27.0,20.0,22.0,16.0
0.5560833215713501,0.0,32.0,27.0,17.0,14.0,11.0
0.5573833584785461,35.0,15.0,20.0,27.0,7.0,18.0
0.5586833357810974,32.0,16.0,12.0,17.0,20.0,15.0
0.5599833130836487,29.0,36.0,18.0,6.0,11.0,24.0
0.5612833499908447,14.0,0.0,24.0,11.0,12.0,19.0
0.562583327293396,12.0,11.0,30.0,25.0,12.0,13.0
0.5638833045959473,10.0,26.0,27.0,18.0,19.0,19.0
0.5651833415031433,34.0,26.0,23.0,10.0,0.0,17.0
0.5664833188056946,37.0,26.0,29.0,24.0,0.0,15.0
0.5677833557128906,15.0,22.0,0.0,0.0,6.0,27.0
0.5691499710083008,39.0,18.0,12.0,23.0,10.0,34.0
0.5704500079154968,9.0,25.0,24.0,43.0,10.0,17.0
0.5717499852180481,11.0,32.0,13.0,26.0,10.0,0.0
0.5730500221252441,33.0,32.0,30.0,9.0,21.0,15.0
0.5743499994277954,19.0,31.0,26.0,21.0,29.0,14.0
0.5756499767303467,12.0,17.0,5.0,11.0,38.0,13.0
0.5769500136375427,5.0,31.0,19.0,0.0,0.0,0.0
0.578249990940094,34.0,28.0,33.0,22.0,0.0,10.0
0.57955002784729,34.0,25.0,12.0,28.0,5.0,8.0
0.5808500051498413,11.0,15.0,0.0,35.0,5.0,6.0
0.5821499824523926,37.0,21.0,37.0,5.0,0.0,16.0
0.5834500193595886,0.0,20.0,15.0,33.0,4.0,19.0
0.5847499966621399,24.0,18.0,24.0,39.0,8.0,5.0
0.5861333608627319,0.0,18.0,22.0,47.0,9.0,12.0
0.5874166488647461,18.0,18.0,19.0,6.0,10.0,19.0
0.5887333154678345,27.0,17.0,24.0,60.0,33.0,27.0
0.5900166630744934,37.0,11.0,10.0,30.0,33.0,28.0
0.5913166403770447,38.0,23.0,5.0,37.0,12.0,28.0
0.5926333069801331,24.0,14.0,8.0,30.0,5.0,19.0
0.5939333438873291,5.0,5.0,0.0,18.0,39.0,10.0
0.595216691493988,29.0,11.0,12.0,0.0,13.0,24.0
0.5965333580970764,56.0,17.0,10.0,18.0,49.0,6.0
0.5978166460990906,40.0,22.0,12.0,9.0,17.0,23.0
0.599133312702179,24.0,11.0,13.0,0.0,11.0,26.0
0.600433349609375,18.0,0.0,12.0,0.0,21.0,6.0
0.6017333269119263,11.0,14.0,11.0,0.0,26.0,18.0
0.6030499935150146,17.0,11.0,9.0,8.0,26.0,17.0
0.6043499708175659,23.0,7.0,6.0,16.0,40.0,15.0
0.605650007724762,5.0,19.0,7.0,23.0,45.0,30.0
0.6069499850273132,7.0,18.0,10.0,21.0,23.0,0.0
0.6082500219345093,5.0,17.0,41.0,18.0,11.0,28.0
0.6095499992370605,34.0,19.0,30.0,26.0,31.0,7.0
0.6108499765396118,54.0,20.0,20.0,7.0,671.0,42.0
0.6121500134468079,36.0,20.0,12.0,6.0,336.0,21.0
0.6134499907493591,17.0,19.0,21.0,5.0,0.0,44.0
0.6147500276565552,45.0,23.0,24.0,25.0,21.0,0.0
0.6160500049591064,30.0,37.0,27.0,20.0,20.0,28.0
0.6173499822616577,13.0,0.0,11.0,15.0,5.0,25.0
0.6187000274658203,17.0,29.0,14.0,14.0,11.0,28.0
0.6200166940689087,269.0,36.0,20.0,21.0,16.0,5.0
0.62131667137146,141.0,27.0,10.0,14.0,10.0,0.0
0.6226166486740112,14.0,19.0,28.0,6.0,11.0,12.0
0.6239166855812073,0.0,10.0,33.0,24.0,7.0,23.0
0.6252166628837585,12.0,31.0,22.0,15.0,16.0,31.0
0.6265166401863098,46.0,18.0,22.0,14.0,18.0,29.0
0.6278166770935059,39.0,5.0,38.0,13.0,20.0,30.0
0.6291166543960571,31.0,13.0,0.0,18.0,16.0,28.0
0.6304166913032532,11.0,21.0,7.0,19.0,11.0,13.0
0.6317166686058044,14.0,0.0,22.0,8.0,15.0,5.0
0.6330166459083557,10.0,18.0,26.0,8.0,21.0,5.0
0.6343166828155518,5.0,31.0,0.0,7.0,27.0,14.0
0.6356499791145325,21.0,43.0,36.0,5.0,28.0,24.0
0.6369666457176208,14.0,18.0,6.0,0.0,23.0,14.0
0.6382666826248169,7.0,32.0,15.0,11.0,24.0,5.0
0.6395666599273682,10.0,40.0,8.0,16.0,27.0,28.0
0.6408666372299194,14.0,17.0,0.0,16.0,5.0,0.0
0.6421666741371155,17.0,11.0,35.0,0.0,14.0,13.0
0.6434666514396667,12.0,33.0,26.0,0.0,8.0,13.0
0.6447666883468628,6.0,26.0,17.0,19.0,6.0,12.0
0.6460666656494141,0.0,33.0,33.0,13.0,6.0,23.0
0.6473666429519653,0.0,14.0,14.0,11.0,6.0,0.0
0.6486666798591614,0.0,21.0,11.0,6.0,23.0,26.0
0.6499666571617126,24.0,13.0,14.0,29.0,76.0,34.0
0.6512666940689087,28.0,43.0,15.0,29.0,57.0,20.0
0.6526166796684265,28.0,46.0,15.0,19.0,38.0,73.0
0.6539333462715149,14.0,16.0,9.0,16.0,28.0,62.0
0.6552333235740662,0.0,22.0,18.0,28.0,5.0,28.0
0.6565333604812622,10.0,28.0,14.0,20.0,41.0,37.0
0.6578333377838135,8.0,28.0,10.0,12.0,5.0,38.0
0.6591333150863647,5.0,28.0,28.0,11.0,47.0,6.0
0.6604333519935608,19.0,9.0,47.0,11.0,18.0,10.0
0.6617333292961121,17.0,17.0,36.0,39.0,41.0,27.0
0.6630333065986633,14.0,0.0,22.0,38.0,34.0,28.0
0.6643333435058594,28.0,17.0,33.0,11.0,27.0,33.0
0.6656333208084106,20.0,21.0,6.0,31.0,10.0,40.0
0.6669333577156067,12.0,24.0,0.0,51.0,24.0,46.0
0.668233335018158,5.0,19.0,7.0,57.0,18.0,7.0
0.6695833206176758,11.0,13.0,13.0,18.0,9.0,10.0
0.6708999872207642,16.0,10.0,18.0,16.0,14.0,0.0
0.6722000241279602,24.0,16.0,19.0,36.0,10.0,14.0
0.6735000014305115,31.0,21.0,25.0,0.0,0.0,24.0
0.6747999787330627,22.0,0.0,6.0,5.0,22.0,18.0
0.6761000156402588,14.0,36.0,5.0,5.0,23.0,12.0
0.6773999929428101,0.0,32.0,31.0,3.0,23.0,6.0
0.6786999702453613,11.0,25.0,0.0,0.0,5.0,5.0
0.6800000071525574,15.0,42.0,12.0,0.0,16.0,79.0
0.6812999844551086,19.0,19.0,24.0,0.0,26.0,127.0
0.6826000213623047,16.0,31.0,15.0,13.0,36.0,176.0
0.683899998664856,13.0,58.0,6.0,10.0,24.0,17.0
0.6851999759674072,11.0,5.0,8.0,0.0,11.0,40.0
0.6865333318710327,15.0,21.0,15.0,0.0,36.0,0.0
0.6878499984741211,10.0,21.0,8.0,9.0,41.0,10.0
0.6891499757766724,5.0,24.0,0.0,5.0,25.0,22.0
0.6904500126838684,0.0,6.0,11.0,0.0,40.0,11.0
0.6917499899864197,12.0,10.0,29.0,3.0,55.0,12.0
0.6930500268936157,13.0,15.0,43.0,6.0,19.0,13.0
0.694350004196167,10.0,10.0,42.0,6.0,20.0,22.0
0.6956499814987183,6.0,5.0,13.0,5.0,28.0,19.0
0.6969500184059143,18.0,18.0,19.0,26.0,6.0,15.0
0.6982499957084656,0.0,16.0,5.0,39.0,0.0,25.0
0.6995499730110168,27.0,10.0,6.0,22.0,13.0,20.0
0.7008500099182129,32.0,8.0,6.0,5.0,9.0,14.0
0.7021499872207642,11.0,6.0,0.0,31.0,48.0,14.0
0.703499972820282,14.0,13.0,6.0,8.0,55.0,13.0
0.7048166394233704,16.0,20.0,11.0,16.0,33.0,5.0
0.7061166763305664,11.0,37.0,19.0,23.0,14.0,9.0
0.7074166536331177,6.0,28.0,22.0,19.0,14.0,10.0
0.7087166905403137,6.0,23.0,13.0,13.0,13.0,11.0
0.710016667842865,21.0,18.0,19.0,17.0,11.0,9.0
0.7113166451454163,18.0,6.0,28.0,30.0,10.0,7.0
0.7126166820526123,14.0,28.0,23.0,22.0,0.0,15.0
0.7139166593551636,7.0,22.0,0.0,13.0,5.0,0.0
0.7152166962623596,19.0,15.0,5.0,32.0,10.0,15.0
0.7165166735649109,19.0,10.0,6.0,25.0,8.0,20.0
0.7178166508674622,19.0,5.0,14.0,0.0,6.0,21.0
0.7191166877746582,20.0,19.0,21.0,31.0,10.0,22.0
0.720466673374176,13.0,12.0,11.0,22.0,8.0,19.0
0.7217833399772644,5.0,15.0,0.0,34.0,6.0,15.0
0.7230833172798157,13.0,16.0,22.0,15.0,3.0,42.0
0.7243833541870117,20.0,14.0,10.0,9.0,0.0,35.0
0.725683331489563,15.0,11.0,36.0,47.0,10.0,28.0
0.7269833087921143,21.0,8.0,18.0,27.0,40.0,27.0
0.7282833456993103,26.0,5.0,0.0,6.0,58.0,7.0
0.7295833230018616,24.0,11.0,8.0,12.0,36.0,31.0
0.7308833599090576,43.0,8.0,0.0,29.0,46.0,0.0
0.7321833372116089,62.0,5.0,36.0,29.0,12.0,25.0
0.7334833145141602,0.0,18.0,62.0,7.0,8.0,30.0
0.7347833514213562,16.0,15.0,44.0,26.0,16.0,5.0
0.7360833287239075,38.0,17.0,26.0,11.0,22.0,14.0
0.7374333143234253,13.0,19.0,26.0,12.0,28.0,27.0
0.7387499809265137,0.0,22.0,11.0,12.0,22.0,26.0
0.7400500178337097,18.0,19.0,12.0,5.0,15.0,25.0
0.741349995136261,44.0,15.0,21.0,6.0,23.0,24.0
0.7426499724388123,39.0,9.0,22.0,13.0,31.0,24.0
0.7439500093460083,11.0,14.0,20.0,18.0,0.0,20.0
0.7452499866485596,28.0,6.0,17.0,16.0,24.0,16.0
0.7465500235557556,24.0,12.0,18.0,16.0,12.0,19.0
0.7478500008583069,50.0,17.0,6.0,22.0,0.0,13.0
0.7491499781608582,37.0,0.0,0.0,16.0,24.0,24.0
0.7504500150680542,23.0,52.0,0.0,10.0,33.0,25.0
0.7517499923706055,21.0,32.0,0.0,27.0,24.0,26.0
0.7530500292778015,10.0,12.0,24.0,19.0,27.0,6.0
0.7544000148773193,0.0,12.0,25.0,15.0,29.0,12.0
0.7557166814804077,26.0,5.0,26.0,23.0,22.0,16.0
0.757016658782959,16.0,5.0,0.0,14.0,5.0,11.0
0.758316695690155,5.0,5.0,42.0,13.0,25.0,5.0
0.7596166729927063,0.0,0.0,6.0,11.0,32.0,10.0
0.7609166502952576,5.0,0.0,5.0,8.0,23.0,18.0
0.7622166872024536,55.0,7.0,44.0,5.0,42.0,26.0
0.7635166645050049,40.0,13.0,26.0,21.0,27.0,18.0
0.7648166418075562,25.0,23.0,32.0,28.0,11.0,28.0
0.7661166787147522,24.0,19.0,21.0,0.0,42.0,27.0
0.7674166560173035,25.0,20.0,7.0,37.0,17.0,26.0
0.7687166929244995,26.0,20.0,7.0,6.0,24.0,29.0
0.7700166702270508,26.0,5.0,6.0,42.0,24.0,11.0
0.7713666558265686,8.0,24.0,6.0,0.0,10.0,5.0
0.772683322429657,23.0,0.0,5.0,12.0,0.0,14.0
0.773983359336853,7.0,0.0,0.0,24.0,30.0,13.0
0.7752833366394043,27.0,0.0,0.0,24.0,29.0,7.0
0.7765833139419556,13.0,8.0,0.0,12.0,16.0,4.0
0.7778833508491516,0.0,15.0,15.0,0.0,18.0,0.0
0.7791833281517029,0.0,8.0,8.0,27.0,22.0,0.0
0.7804833054542542,6.0,0.0,0.0,47.0,17.0,0.0
0.7817833423614502,3.0,8.0,0.0,29.0,12.0,0.0
0.7830833196640015,0.0,14.0,0.0,31.0,7.0,0.0
0.7843833565711975,6.0,10.0,28.0,17.0,29.0,0.0
0.7856833338737488,11.0,5.0,14.0,16.0,23.0,0.0
0.7869833111763,24.0,0.0,0.0,12.0,16.0,39.0
0.7883333563804626,31.0,24.0,44.0,24.0,0.0,43.0
0.789650022983551,38.0,1017.0,31.0,39.0,6.0,27.0
0.7909500002861023,32.0,4614.0,3405.0,1570.0,827.0,430.0
0.7922499775886536,17.0,5288.0,7871.0,5737.0,6075.0,832.0
0.7935500144958496,7.0,28624.0,29856.0,22004.0,16672.0,5115.0
0.7948499917984009,0.0,49056.0,60544.0,41856.0,29524.0,7668.0
0.7961500287055969,15.0,137344.0,117664.0,83680.0,62272.0,19188.0
0.7974500060081482,6.0,187392.0,217152.0,129936.0,82496.0,21904.0
0.7987499833106995,0.0,291904.0,275072.0,164800.0,113952.0,28436.0
0.8000500202178955,19.0,339072.0,364992.0,192704.0,155776.0,39360.0
0.8013499975204468,10.0,414016.0,433344.0,240448.0,175296.0,58192.0
0.802649974822998,0.0,452288.0,461632.0,251648.0,181760.0,51296.0
0.8039500117301941,21.0,438656.0,504448.0,269248.0,194368.0,70624.0
0.8052833080291748,30.0,462592.0,503808.0,295680.0,194048.0,68784.0
0.8065999746322632,49.0,494144.0,505664.0,300224.0,190720.0,61744.0
0.8079166412353516,34.0,494400.0,507584.0,302656.0,191232.0,64592.0
0.8091999888420105,20.0,494144.0,494656.0,299456.0,191744.0,55696.0
0.8105000257492065,35.0,488704.0,511872.0,296320.0,193088.0,70592.0
0.8118000030517578,50.0,483264.0,529152.0,262016.0,194560.0,65376.0
0.8130999803543091,50.0,453632.0,530944.0,288000.0,202944.0,52560.0
0.8144000172615051,50.0,455488.0,518144.0,290240.0,201600.0,57088.0
0.8156999945640564,68.0,489664.0,466240.0,290176.0,199488.0,50480.0
0.8169999718666077,72.0,422592.0,516544.0,268864.0,200960.0,57168.0
0.8183000087738037,76.0,453376.0,464000.0,265792.0,199360.0,61744.0
0.8196166753768921,86.0,395648.0,482368.0,261184.0,197696.0,46400.0
0.820900022983551,83.0,404800.0,471808.0,235712.0,164928.0,49520.0
0.8222333192825317,79.0,370176.0,432256.0,213376.0,167680.0,55712.0
0.8235333561897278,56.0,344256.0,431680.0,221056.0,149696.0,38048.0
0.824833333492279,55.0,304256.0,347520.0,208128.0,157568.0,38960.0
0.8261333107948303,54.0,305344.0,355264.0,165056.0,124544.0,34064.0
0.8274333477020264,26.0,241792.0,311360.0,160064.0,111600.0,31248.0
0.8287333250045776,73.0,225024.0,243776.0,133568.0,107440.0,25244.0
0.8300333619117737,23.0,235776.0,198784.0,104208.0,80688.0,19844.0
0.831333339214325,61.0,177664.0,212288.0,92496.0,72512.0,24056.0
0.8326333165168762,75.0,147776.0,161088.0,78416.0,65952.0,12852.0
0.8339333534240723,80.0,137472.0,153216.0,66736.0,48928.0,15944.0
0.8352333307266235,41.0,94992.0,142016.0,69712.0,40368.0,12180.0
0.8365333080291748,30.0,87120.0,84432.0,60384.0,39632.0,8068.0
0.8378333449363708,37.0,70976.0,79760.0,38960.0,23856.0,5053.0
0.8392000198364258,42.0,60928.0,48368.0,25716.0,19248.0,6651.0
0.840499997138977,48.0,45984.0,40352.0,30624.0,22076.0,4046.0
0.8417999744415283,43.0,40928.0,55504.0,23448.0,15796.0,4793.0
0.8431000113487244,39.0,32512.0,36864.0,10176.0,7271.0,2218.0
0.8443999886512756,47.0,24724.0,28096.0,13692.0,8676.0,3633.0
0.8457000255584717,22.0,20364.0,27572.0,12008.0,11660.0,2276.0
0.847000002861023,24.0,14260.0,21132.0,14220.0,12300.0,2712.0
0.8482999801635742,15.0,19296.0,15640.0,13096.0,7797.0,1205.0
0.8496000170707703,5.0,14696.0,16340.0,9736.0,5197.0,2439.0
0.8508999943733215,12.0,17532.0,22380.0,12888.0,4202.0,232.0
0.8521999716758728,18.0,19832.0,11884.0,1118.0,5579.0,20.0
0.8535000085830688,25.0,21592.0,13660.0,3153.0,5044.0,12.0
0.8547999858856201,32.0,18232.0,15256.0,8628.0,4509.0,66.0
0.856166660785675,22.0,4946.0,9828.0,7047.0,3489.0,120.0
0.8574666380882263,12.0,5442.0,8220.0,6150.0,3875.0,839.0
0.8587666749954224,9.0,10652.0,6291.0,4512.0,5351.0,1558.0
0.8600666522979736,5.0,12648.0,5448.0,1729.0,2595.0,1438.0
0.8613666892051697,78.0,12892.0,8452.0,6223.0,2320.0,1229.0
0.862666666507721,71.0,5476.0,7687.0,2070.0,4946.0,1020.0
0.8639666438102722,14.0,11684.0,6471.0,3772.0,3391.0,83.0
0.8652666807174683,24.0,6778.0,6976.0,3501.0,2850.0,648.0
0.8665666580200195,10.0,6918.0,5758.0,2399.0,3256.0,301.0
0.8678666949272156,26.0,10416.0,4539.0,2770.0,4177.0,14.0
0.8691666722297668,57.0,8920.0,5475.0,3140.0,5.0,14.0
0.8704666495323181,45.0,7922.0,5997.0,4781.0,2088.0,56.0
0.8717666864395142,0.0,4911.0,4612.0,4299.0,1286.0,442.0
0.873116672039032,90.0,9200.0,3226.0,1598.0,1366.0,233.0
0.8744166493415833,88.0,7735.0,5040.0,3438.0,1285.0,25.0
0.8757166862487793,16.0,7193.0,4638.0,222.0,1179.0,31.0
0.8770166635513306,18.0,5730.0,1228.0,7153.0,405.0,38.0
0.8783166408538818,19.0,1327.0,4293.0,5081.0,1583.0,44.0
0.8796333074569702,20.0,8764.0,5778.0,3117.0,1488.0,52.0
0.8809166550636292,34.0,7531.0,1098.0,3122.0,1393.0,52.0
0.8822166919708252,0.0,4877.0,3787.0,2673.0,2210.0,53.0
0.8835166692733765,44.0,2777.0,4684.0,2373.0,3070.0,55.0
0.8848166465759277,0.0,8060.0,5682.0,2890.0,31.0,57.0
0.8861333131790161,8.0,6534.0,2755.0,3407.0,892.0,419.0
0.887416660785675,39.0,10788.0,1058.0,1372.0,3189.0,456.0
0.8887333273887634,55.0,11952.0,2775.0,2761.0,4663.0,661.0
0.8900833129882812,41.0,7091.0,2732.0,1827.0,3931.0,127.0
0.8913833498954773,15.0,9404.0,2690.0,587.0,2144.0,210.0
0.8926833271980286,40.0,6870.0,2271.0,756.0,3840.0,293.0
0.8939833045005798,29.0,2578.0,4798.0,949.0,1592.0,5.0
0.8952833414077759,30.0,8588.0,4305.0,2659.0,984.0,343.0
0.8965833187103271,37.0,6952.0,3111.0,2659.0,1981.0,681.0
0.8978833556175232,21.0,6325.0,2673.0,1659.0,1592.0,447.0
0.8991833329200745,19.0,8896.0,538.0,1883.0,1049.0,800.0
0.9004833102226257,28.0,2494.0,1642.0,2107.0,2247.0,16.0
0.9017833471298218,38.0,3707.0,2094.0,986.0,1881.0,7.0
0.903083324432373,90.0,6572.0,1690.0,2728.0,186.0,30.0
0.9043833613395691,88.0,5142.0,1649.0,2591.0,1385.0,41.0
0.9056833386421204,30.0,3711.0,1609.0,2812.0,16.0,51.0
0.9070500135421753,16.0,8352.0,1678.0,1930.0,2036.0,28.0
0.9083499908447266,27.0,6750.0,1563.0,1560.0,1636.0,27.0
0.9096500277519226,0.0,7952.0,791.0,1190.0,21.0,16.0
0.9109500050544739,8.0,7295.0,4111.0,364.0,941.0,5.0
0.9122499823570251,15.0,8904.0,5349.0,858.0,873.0,49.0
0.9135500192642212,19.0,5169.0,5047.0,17.0,34.0,260.0
0.9148499965667725,0.0,7085.0,1641.0,22.0,1925.0,881.0
0.9161499738693237,24.0,8212.0,2909.0,26.0,1595.0,452.0
0.9174500107765198,18.0,9484.0,3062.0,164.0,823.0,22.0
0.918749988079071,11.0,8260.0,1311.0,302.0,599.0,257.0
0.9200500249862671,10.0,6609.0,2761.0,176.0,684.0,19.0
0.9213500022888184,9.0,4518.0,3820.0,51.0,770.0,47.0
0.9226499795913696,18.0,8052.0,2439.0,355.0,598.0,267.0
0.9240000247955322,9.0,3608.0,729.0,659.0,640.0,133.0
0.9253000020980835,0.0,10604.0,2131.0,1939.0,683.0,0.0
0.9265999794006348,23.0,9808.0,2380.0,1959.0,1114.0,269.0
0.9279000163078308,23.0,5929.0,2629.0,1575.0,1546.0,157.0
0.9291999936103821,23.0,5904.0,2318.0,22.0,1415.0,45.0
0.9304999709129333,18.0,7466.0,2374.0,51.0,415.0,22.0
0.9318000078201294,24.0,6570.0,1173.0,633.0,6.0,7.0
0.9330999851226807,29.0,5675.0,2942.0,337.0,3440.0,270.0
0.9344000220298767,21.0,7768.0,2724.0,41.0,3641.0,411.0
0.935699999332428,12.0,8988.0,1708.0,465.0,13.0,638.0
0.9369999766349792,16.0,7563.0,936.0,889.0,1218.0,865.0
0.9383000135421753,19.0,6909.0,1501.0,1798.0,627.0,51.0
0.9395999908447266,26.0,12520.0,2067.0,1323.0,1665.0,698.0
0.9409666657447815,38.0,11036.0,1108.0,20.0,18.0,0.0
0.9422666430473328,46.0,3122.0,1449.0,466.0,3000.0,33.0
0.9435666799545288,31.0,9156.0,2988.0,1003.0,1511.0,6.0
0.9448666572570801,16.0,4515.0,2762.0,1063.0,21.0,25.0
0.9461666941642761,5.0,6445.0,2535.0,1124.0,199.0,5.0
0.9474666714668274,18.0,5300.0,2104.0,0.0,1443.0,309.0
0.9487666487693787,17.0,4887.0,3712.0,1618.0,22.0,163.0
0.9500666856765747,16.0,5585.0,834.0,1897.0,1092.0,17.0
0.951366662979126,7.0,6282.0,2781.0,2328.0,0.0,45.0
0.9526666402816772,18.0,8079.0,1313.0,1059.0,10.0,18.0
0.9539666771888733,36.0,5959.0,2658.0,1268.0,1870.0,277.0
0.9552666544914246,52.0,3839.0,1798.0,1604.0,1441.0,201.0
0.9565666913986206,33.0,5421.0,4451.0,0.0,1437.0,126.0
0.9579333066940308,28.0,7002.0,3654.0,2052.0,21.0,12.0
0.9592333436012268,38.0,3794.0,3062.0,1060.0,822.0,26.0
0.9605333209037781,67.0,5231.0,3578.0,69.0,2705.0,40.0
0.9618333578109741,40.0,4884.0,3699.0,2011.0,1948.0,40.0
0.9631333351135254,13.0,5569.0,3180.0,1819.0,77.0,40.0
0.9644333124160767,10.0,4904.0,3669.0,1114.0,964.0,28.0
0.9657333493232727,28.0,9096.0,3462.0,1025.0,2406.0,17.0
0.967033326625824,43.0,8272.0,3255.0,1638.0,1104.0,17.0
0.9683333039283752,35.0,4985.0,2084.0,10.0,0.0,16.0
0.9696333408355713,8.0,6341.0,2163.0,10.0,264.0,16.0
0.9709333181381226,0.0,5695.0,1346.0,405.0,1632.0,15.0
0.9722333550453186,24.0,5048.0,1687.0,557.0,1819.0,5.0
0.9735333323478699,23.0,5964.0,2502.0,710.0,6.0,0.0
0.9748833179473877,10.0,6227.0,2359.0,34.0,0.0,904.0
0.9761833548545837,12.0,4955.0,2215.0,2371.0,35.0,1661.0
0.977483332157135,15.0,3379.0,3497.0,2655.0,24.0,1039.0
0.9787833094596863,10.0,4209.0,5387.0,764.0,18.0,14.0
0.9800833463668823,5.0,5038.0,5963.0,2869.0,395.0,18.0
0.9813833236694336,47.0,3455.0,1556.0,1693.0,771.0,31.0
0.9826833605766296,46.0,6093.0,3116.0,1133.0,530.0,28.0
0.9839833378791809,27.0,2106.0,2989.0,1107.0,472.0,18.0
0.9852833151817322,34.0,3615.0,374.0,17.0,413.0,37.0
0.9865833520889282,31.0,5124.0,1585.0,464.0,0.0,0.0
0.9878833293914795,31.0,4711.0,1446.0,911.0,828.0,15.0
0.9891833066940308,0.0,3196.0,1007.0,1352.0,1552.0,30.0
0.9904833436012268,26.0,3372.0,568.0,1792.0,1172.0,10.0
0.9918500185012817,16.0,3548.0,1829.0,1576.0,1170.0,15.0
0.993149995803833,19.0,2261.0,4767.0,1783.0,1168.0,0.0
0.9944499731063843,12.0,5085.0,5307.0,1666.0,67.0,471.0
0.9957500100135803,24.0,6414.0,5137.0,1550.0,561.0,442.0
0.9970499873161316,21.0,4584.0,4542.0,2972.0,2183.0,381.0
0.9983500242233276,30.0,2754.0,3938.0,3021.0,1774.0,320.0
0.9996500015258789,24.0,2042.0,4380.0,1559.0,1081.0,402.0
1.0009499788284302,9.0,2155.0,4612.0,3249.0,32.0,483.0
1.0022499561309814,30.0,2269.0,1771.0,1038.0,1193.0,244.0
1.0035500526428223,22.0,2232.0,4220.0,1737.0,16.0,5.0
1.0048500299453735,11.0,2010.0,4095.0,93.0,1162.0,18.0
1.0061500072479248,0.0,1789.0,3316.0,288.0,335.0,30.0
1.007449984550476,6.0,3164.0,3378.0,484.0,170.0,43.0
1.0088167190551758,6.0,3230.0,3782.0,0.0,5.0,32.0
1.010116696357727,5.0,3682.0,1976.0,1219.0,522.0,22.0
1.0114166736602783,5.0,2285.0,3106.0,2439.0,457.0,11.0
1.0127166509628296,19.0,3029.0,3944.0,2859.0,393.0,0.0
1.0140166282653809,10.0,3772.0,3168.0,8.0,414.0,16.0
1.0153167247772217,0.0,1728.0,2923.0,212.0,435.0,324.0
1.016616702079773,18.0,3904.0,3743.0,1859.0,940.0,190.0
1.0179166793823242,23.0,2381.0,2338.0,1673.0,1624.0,55.0
1.0192166566848755,0.0,2019.0,2103.0,1486.0,1492.0,657.0
1.0205166339874268,28.0,4195.0,1887.0,1703.0,26.0,335.0
1.021816611289978,14.0,3850.0,2376.0,1528.0,2656.0,13.0
1.0231167078018188,37.0,2469.0,2865.0,1352.0,1291.0,0.0
1.0244166851043701,21.0,2215.0,6021.0,1392.0,3021.0,17.0
1.0257833003997803,0.0,1960.0,5811.0,1432.0,2535.0,47.0
1.0270832777023315,34.0,2279.0,5034.0,1230.0,5.0,399.0
1.0283833742141724,28.0,215.0,3275.0,1029.0,1719.0,205.0
1.0296833515167236,33.0,2437.0,3116.0,2297.0,1942.0,10.0
1.030983328819275,6.0,4743.0,4048.0,2644.0,2165.0,470.0
1.0322833061218262,16.0,3782.0,5148.0,2991.0,700.0,11.0
1.0335832834243774,21.0,2328.0,5043.0,3318.0,702.0,34.0
1.0348833799362183,16.0,4639.0,4340.0,1322.0,1741.0,614.0
1.0361833572387695,8.0,3317.0,3807.0,858.0,54.0,8.0
1.0374833345413208,0.0,2738.0,3546.0,1910.0,1166.0,9.0
1.038783311843872,8.0,1755.0,3927.0,2961.0,1212.0,45.0
1.0400832891464233,15.0,3630.0,4419.0,4141.0,1258.0,17.0
1.0413833856582642,16.0,3676.0,3762.0,3174.0,646.0,15.0
1.0427500009536743,27.0,3722.0,3105.0,2214.0,34.0,13.0
1.0440499782562256,31.0,2928.0,3703.0,3332.0,729.0,28.0
1.0453499555587769,8.0,2134.0,3939.0,4219.0,550.0,632.0
1.0466500520706177,23.0,2379.0,3896.0,1818.0,371.0,1967.0
1.047950029373169,31.0,4905.0,3853.0,3740.0,752.0,1775.0
1.0492500066757202,34.0,5863.0,4997.0,2300.0,714.0,846.0
1.0505499839782715,8.0,3321.0,3916.0,860.0,675.0,1197.0
1.0518499612808228,19.0,4815.0,2834.0,1702.0,697.0,44.0
1.0531500577926636,20.0,1133.0,7617.0,3132.0,719.0,24.0
1.0544500350952148,8.0,2741.0,6235.0,3310.0,1548.0,178.0
1.0557500123977661,14.0,3678.0,4151.0,1604.0,777.0,331.0
1.0570499897003174,19.0,4048.0,6067.0,2547.0,6.0,168.0
1.0583499670028687,16.0,2276.0,6276.0,4545.0,1052.0,5.0
1.0597000122070312,13.0,3995.0,5541.0,2749.0,1826.0,14.0
1.0609999895095825,15.0,5149.0,4894.0,954.0,1416.0,22.0
1.0622999668121338,12.0,3616.0,4806.0,2193.0,2243.0,5.0
1.063599944114685,30.0,5962.0,5483.0,2158.0,2048.0,0.0
1.0649000406265259,18.0,6079.0,4689.0,1936.0,1854.0,0.0
1.0662000179290771,5.0,6196.0,3896.0,2706.0,3006.0,0.0
1.0674999952316284,8.0,4446.0,5137.0,2294.0,3109.0,520.0
1.0687999725341797,30.0,6029.0,2934.0,1881.0,3211.0,1842.0
1.070099949836731,34.0,3852.0,3790.0,1680.0,1926.0,2496.0
1.0714000463485718,5.0,3864.0,4647.0,1479.0,1451.0,1500.0
1.072700023651123,31.0,4282.0,4194.0,4986.0,1251.0,614.0
1.0740000009536743,5.0,3878.0,5123.0,5669.0,1664.0,951.0
1.0752999782562256,0.0,3474.0,6873.0,2210.0,1586.0,2018.0
1.0766667127609253,10.0,3821.0,6349.0,2478.0,1508.0,13.0
1.0779666900634766,20.0,6390.0,5825.0,4655.0,1499.0,821.0
1.0792666673660278,85.0,4763.0,6851.0,1105.0,1854.0,535.0
1.080566644668579,164.0,3137.0,5235.0,2944.0,2403.0,26.0
1.0818666219711304,82.0,6176.0,7619.0,2123.0,2589.0,5.0
1.0831667184829712,0.0,1794.0,6323.0,1539.0,2133.0,254.0
1.0844666957855225,37.0,6876.0,5026.0,3176.0,1678.0,28.0
1.0857666730880737,23.0,8332.0,5255.0,5143.0,2896.0,371.0
1.087066650390625,7.0,3944.0,5483.0,5304.0,2291.0,190.0
1.0883666276931763,42.0,11068.0,6540.0,3970.0,1685.0,8.0
1.089666724205017,6.0,2577.0,7597.0,6412.0,1205.0,13.0
1.0909667015075684,35.0,4808.0,8636.0,3107.0,2023.0,18.0
1.0922666788101196,30.0,7897.0,8500.0,4057.0,2196.0,37.0
1.0936332941055298,16.0,4732.0,5193.0,3023.0,2080.0,55.0
1.0949333906173706,26.0,3639.0,4350.0,5398.0,1964.0,534.0
1.0962333679199219,9.0,7280.0,8396.0,6322.0,398.0,270.0
1.0975333452224731,20.0,6437.0,7374.0,2253.0,2056.0,5.0
1.0988333225250244,10.0,4033.0,8700.0,3338.0,1566.0,189.0
1.1001332998275757,5.0,6532.0,8784.0,4679.0,3805.0,372.0
1.101433277130127,12.0,4764.0,5609.0,4218.0,3248.0,478.0
1.1027333736419678,10.0,3741.0,6294.0,3757.0,2691.0,1060.0
1.104033350944519,20.0,7792.0,7821.0,4227.0,3782.0,3357.0
1.1053333282470703,19.0,7347.0,7396.0,4698.0,3849.0,2710.0
1.1066333055496216,17.0,4779.0,6972.0,2983.0,4239.0,0.0
1.1079332828521729,12.0,6024.0,8352.0,3569.0,2655.0,502.0
1.1092333793640137,13.0,7268.0,8988.0,4419.0,1991.0,1138.0
1.1105833053588867,14.0,5750.0,9216.0,1554.0,5920.0,873.0
1.111883282661438,7.0,5703.0,7036.0,5159.0,5091.0,608.0
1.1131833791732788,27.0,7870.0,8800.0,4326.0,1284.0,870.0
1.11448335647583,22.0,7249.0,6144.0,5229.0,2270.0,1152.0
1.1157833337783813,40.0,6628.0,6130.0,4192.0,3934.0,1433.0
1.1170833110809326,41.0,7716.0,7670.0,3156.0,3878.0,1088.0
1.1183832883834839,43.0,8804.0,9208.0,7121.0,3752.0,2126.0
1.1196833848953247,22.0,8187.0,10056.0,8576.0,3627.0,0.0
1.120983362197876,0.0,8996.0,10672.0,9656.0,4698.0,1973.0
1.1222833395004272,32.0,8636.0,11284.0,7081.0,4822.0,1937.0
1.1236000061035156,52.0,9200.0,10104.0,8712.0,4947.0,2402.0
1.1248832941055298,46.0,7183.0,8920.0,6929.0,3724.0,2508.0
1.1261999607086182,26.0,5164.0,4545.0,5410.0,5109.0,537.0
1.1275500059127808,0.0,6136.0,10308.0,4496.0,5063.0,1398.0
1.128849983215332,20.0,6775.0,16104.0,5622.0,3932.0,1936.0
1.1301499605178833,34.0,10936.0,12700.0,6749.0,5612.0,570.0
1.1314500570297241,35.0,10988.0,11032.0,6592.0,4954.0,2469.0
1.1327500343322754,45.0,8696.0,15000.0,6435.0,6223.0,914.0
1.1340500116348267,5.0,13544.0,14396.0,5198.0,6661.0,206.0
1.135349988937378,6.0,11956.0,16204.0,3961.0,5703.0,2674.0
1.1366499662399292,48.0,10364.0,11560.0,7083.0,4746.0,1772.0
1.1379499435424805,24.0,11236.0,9352.0,7466.0,5578.0,869.0
1.1392500400543213,8.0,9404.0,16340.0,7850.0,6409.0,479.0
1.1405500173568726,17.0,10040.0,16792.0,6247.0,5783.0,33.0
1.1418499946594238,0.0,10680.0,17240.0,7276.0,6587.0,15.0
1.143149971961975,5.0,14084.0,13736.0,4425.0,6721.0,699.0
1.1445167064666748,28.0,14192.0,19644.0,6467.0,5519.0,1098.0
1.145816683769226,21.0,10172.0,19928.0,8508.0,4317.0,1490.0
1.1471166610717773,19.0,14204.0,13480.0,12292.0,5645.0,1883.0
1.1484166383743286,40.0,8580.0,17812.0,11880.0,3594.0,369.0
1.1497166156768799,43.0,11636.0,14420.0,7567.0,4156.0,3687.0
1.1510167121887207,25.0,14028.0,17904.0,6543.0,4719.0,3103.0
1.152316689491272,46.0,11204.0,14136.0,9288.0,5842.0,1911.0
1.1536166667938232,5.0,12112.0,10372.0,9700.0,6965.0,2747.0
1.1549166440963745,31.0,15752.0,16784.0,8744.0,6417.0,1319.0
1.1562166213989258,14.0,15832.0,15384.0,4749.0,4513.0,1645.0
1.1575167179107666,21.0,11024.0,18120.0,5835.0,3779.0,2395.0
1.1588166952133179,18.0,16476.0,16896.0,6920.0,6603.0,874.0
1.1601166725158691,12.0,17376.0,15668.0,3717.0,6434.0,864.0
1.1614667177200317,5.0,13588.0,17116.0,4533.0,4467.0,1465.0
1.1627833843231201,14.0,9328.0,18560.0,5349.0,9336.0,2067.0
1.1640666723251343,22.0,17536.0,18480.0,7109.0,9712.0,15.0
1.1653666496276855,17.0,18180.0,18400.0,8868.0,5678.0,2666.0
1.1666666269302368,15.0,15196.0,13344.0,10980.0,10040.0,908.0
1.1679832935333252,13.0,9408.0,25336.0,12888.0,5738.0,2395.0
1.169266700744629,13.0,24712.0,26384.0,13968.0,4928.0,208.0
1.1705666780471802,19.0,19480.0,25276.0,6372.0,4064.0,2541.0
1.1718666553497314,5.0,16288.0,27028.0,9148.0,4613.0,2907.0
1.1731666326522827,14.0,16016.0,29744.0,10388.0,14620.0,2241.0
1.174466609954834,22.0,10712.0,21248.0,8860.0,13332.0,2948.0
1.1757667064666748,18.0,21424.0,30504.0,9524.0,9496.0,3654.0
1.177066683769226,14.0,20280.0,26564.0,11608.0,11520.0,3045.0
1.1784332990646362,25.0,18268.0,27948.0,11488.0,12656.0,2436.0
1.1797332763671875,20.0,15284.0,21268.0,11368.0,8804.0,2833.0
1.1810333728790283,15.0,18412.0,25724.0,10404.0,10756.0,4283.0
1.1823333501815796,11.0,16456.0,25092.0,9440.0,10024.0,4656.0
1.1836333274841309,5.0,14504.0,26844.0,14256.0,9292.0,2119.0
1.1849333047866821,11.0,17352.0,27972.0,14560.0,10420.0,451.0
1.1862332820892334,16.0,18536.0,23448.0,14328.0,6473.0,2574.0
1.1875333786010742,45.0,19720.0,30532.0,13920.0,7298.0,3032.0
1.1888333559036255,36.0,25468.0,34080.0,14976.0,8124.0,4186.0
1.1901333332061768,41.0,28236.0,22644.0,14780.0,9600.0,5446.0
1.191433310508728,12.0,15856.0,28892.0,14584.0,8352.0,472.0
1.1927332878112793,5.0,17676.0,25260.0,14156.0,7102.0,3684.0
1.1940333843231201,8.0,19944.0,26668.0,16260.0,14896.0,4034.0
1.1953833103179932,13.0,20660.0,24620.0,18516.0,15980.0,648.0
1.1966832876205444,16.0,21376.0,24788.0,18120.0,12108.0,1709.0
1.1979833841323853,19.0,19504.0,40832.0,19832.0,14032.0,2155.0
1.1992833614349365,12.0,26736.0,38512.0,21908.0,17232.0,51.0
1.2005833387374878,6.0,31572.0,39344.0,13384.0,8024.0,3641.0
1.201883316040039,20.0,33984.0,28972.0,16236.0,17112.0,4386.0
1.2031832933425903,18.0,22872.0,38384.0,24460.0,12212.0,1434.0
1.2044833898544312,26.0,17816.0,32096.0,23628.0,10912.0,4084.0
1.2057833671569824,51.0,37040.0,31744.0,13908.0,15548.0,4191.0
1.2070833444595337,65.0,27220.0,35952.0,19048.0,14488.0,3578.0
1.208383321762085,45.0,28736.0,28392.0,22968.0,14716.0,4137.0
1.2096832990646362,36.0,32832.0,33600.0,23868.0,17080.0,4696.0
1.2109832763671875,34.0,35200.0,32372.0,23820.0,17096.0,2147.0
1.2123500108718872,32.0,31352.0,31144.0,19900.0,17112.0,3580.0
1.2136499881744385,7.0,30936.0,32992.0,25256.0,17644.0,4417.0
1.2149499654769897,10.0,33712.0,34848.0,18320.0,10156.0,2293.0
1.216249942779541,19.0,32256.0,40128.0,19856.0,12964.0,1771.0
1.2175500392913818,19.0,30804.0,38352.0,27128.0,21696.0,4520.0
1.218850016593933,5.0,32944.0,36576.0,24328.0,18816.0,4915.0
1.2201499938964844,31.0,31064.0,41552.0,30420.0,14624.0,5256.0
1.2214499711990356,23.0,29192.0,43264.0,17892.0,16208.0,2857.0
1.222749948501587,37.0,30544.0,47376.0,30700.0,16944.0,5074.0
1.2240500450134277,51.0,31900.0,53216.0,20472.0,17680.0,4586.0
1.225350022315979,43.0,32928.0,52960.0,30488.0,17768.0,6537.0
1.2266499996185303,45.0,37424.0,52720.0,18472.0,17852.0,6712.0
1.2279499769210815,48.0,34144.0,48896.0,25068.0,17804.0,5369.0
1.2293167114257812,57.0,30880.0,38768.0,19492.0,17756.0,4026.0
1.2306166887283325,20.0,34704.0,48608.0,21748.0,20008.0,7567.0
1.2319166660308838,28.0,41056.0,43024.0,22248.0,20132.0,8200.0
1.233216643333435,0.0,40928.0,37424.0,22752.0,19904.0,6794.0
1.2345166206359863,37.0,36768.0,55680.0,31852.0,19680.0,3427.0
1.2358167171478271,7.0,40496.0,52592.0,31068.0,19168.0,4195.0
1.2371166944503784,25.0,43824.0,59792.0,22068.0,24008.0,4316.0
1.2384166717529297,34.0,45696.0,50448.0,27488.0,20696.0,7981.0
1.239716649055481,16.0,47568.0,44432.0,28764.0,17380.0,6148.0
1.2410166263580322,0.0,46992.0,60128.0,30044.0,25076.0,4316.0
1.242316722869873,24.0,54112.0,48720.0,35152.0,25284.0,4103.0
1.2436167001724243,31.0,50208.0,52896.0,34432.0,14936.0,3985.0
1.2449166774749756,21.0,46304.0,63616.0,27576.0,24780.0,6100.0
1.2462832927703857,0.0,55168.0,55680.0,36720.0,28928.0,6825.0
1.2475833892822266,33.0,50032.0,60544.0,41056.0,31352.0,9436.0
1.2488833665847778,22.0,52912.0,54816.0,28240.0,25568.0,8288.0
1.250183343887329,11.0,51376.0,71584.0,32724.0,19980.0,7144.0
1.2514833211898804,21.0,53632.0,74832.0,34816.0,40688.0,7029.0
1.2527832984924316,21.0,59904.0,85760.0,41456.0,42160.0,8344.0
1.254083275794983,22.0,61040.0,68832.0,40528.0,30724.0,8058.0
1.2553833723068237,12.0,50976.0,59440.0,33424.0,26964.0,7771.0
1.256683349609375,14.0,59344.0,69264.0,34352.0,42800.0,6016.0
1.2579833269119263,15.0,64960.0,68400.0,38400.0,28424.0,4262.0
1.2592833042144775,16.0,71392.0,74208.0,42448.0,31808.0,8412.0
1.2605832815170288,16.0,64368.0,74272.0,42880.0,29908.0,7461.0
1.2618833780288696,24.0,57344.0,74320.0,42368.0,34656.0,3476.0
1.2632333040237427,31.0,60208.0,75648.0,38656.0,31876.0,3950.0
1.264533281326294,42.0,61024.0,76960.0,34960.0,29096.0,4423.0
1.2658499479293823,36.0,61840.0,79136.0,42304.0,29496.0,12128.0
1.267133355140686,33.0,68192.0,85536.0,46656.0,29292.0,10068.0
1.2684333324432373,62.0,73744.0,89664.0,46848.0,29084.0,10176.0
1.2697499990463257,5.0,76928.0,94480.0,52400.0,32252.0,4329.0
1.2710332870483398,50.0,65472.0,98240.0,53776.0,32472.0,4878.0
1.2723333835601807,32.0,74016.0,99680.0,55136.0,29388.0,11156.0
1.273633360862732,0.0,70608.0,102960.0,53584.0,29652.0,7678.0
1.2749500274658203,26.0,81024.0,100000.0,52032.0,29912.0,13500.0
1.2762333154678345,26.0,78992.0,92336.0,53632.0,31476.0,13196.0
1.2775332927703857,5.0,76960.0,95152.0,51824.0,35600.0,10508.0
1.2788333892822266,5.0,68896.0,100784.0,59328.0,37424.0,11172.0
1.2802000045776367,12.0,71200.0,105376.0,58112.0,39248.0,14024.0
1.281499981880188,13.0,82096.0,102784.0,56896.0,37120.0,7589.0
1.2827999591827393,14.0,83840.0,100176.0,53440.0,33280.0,8552.0
1.28410005569458,24.0,89488.0,97744.0,62384.0,33744.0,9232.0
1.2854000329971313,0.0,92656.0,112976.0,60768.0,44208.0,10752.0
1.2867000102996826,39.0,93600.0,109488.0,59152.0,46112.0,12276.0
1.2879999876022339,41.0,91632.0,96240.0,51616.0,52608.0,7006.0
1.2892999649047852,12.0,89664.0,102032.0,72320.0,44048.0,10948.0
1.2905999422073364,50.0,99472.0,100848.0,66256.0,39056.0,10600.0
1.2919000387191772,40.0,75776.0,99664.0,72912.0,48480.0,8748.0
1.2932000160217285,31.0,100672.0,103184.0,73616.0,49296.0,13092.0
1.2944999933242798,50.0,90304.0,106688.0,59232.0,41648.0,11068.0
1.295799970626831,0.0,81616.0,106256.0,59968.0,38288.0,9048.0
1.2971667051315308,38.0,93296.0,105808.0,56544.0,41952.0,12232.0
1.298466682434082,53.0,101904.0,115120.0,57456.0,37536.0,16092.0
1.2997666597366333,54.0,95936.0,114736.0,58384.0,42512.0,15024.0
1.3010666370391846,52.0,95744.0,111504.0,64960.0,42592.0,15276.0
1.3023666143417358,49.0,94720.0,124576.0,65856.0,41616.0,14004.0
1.3036667108535767,14.0,92240.0,88032.0,57712.0,36784.0,14284.0
1.304966688156128,13.0,99024.0,131648.0,58864.0,37824.0,14568.0
1.3062666654586792,6.0,88416.0,107024.0,71056.0,35520.0,11852.0
1.3075666427612305,18.0,90160.0,105184.0,40512.0,33232.0,12360.0
1.3088666200637817,10.0,99856.0,103744.0,71056.0,43312.0,10608.0
1.3101667165756226,38.0,86624.0,102048.0,61104.0,39024.0,8852.0
1.3114666938781738,39.0,99104.0,90240.0,57584.0,34736.0,14988.0
1.312766671180725,85.0,82672.0,96864.0,55072.0,34864.0,11476.0
1.3141167163848877,51.0,75360.0,103488.0,53808.0,28412.0,7963.0
1.315416693687439,16.0,80816.0,86880.0,53984.0,38816.0,8272.0
1.3167166709899902,35.0,71024.0,100432.0,54160.0,33056.0,11248.0
1.3180166482925415,30.0,65392.0,102512.0,54720.0,38576.0,7080.0
1.3193166255950928,26.0,81424.0,91648.0,55296.0,27876.0,9436.0
1.3206167221069336,26.0,57344.0,96528.0,59904.0,21832.0,8460.0
1.3219166994094849,27.0,63360.0,78976.0,44704.0,33328.0,6897.0
1.3232166767120361,11.0,52240.0,91040.0,47120.0,29060.0,11104.0
1.3245333433151245,16.0,59104.0,78144.0,49248.0,27868.0,4363.0
1.3258333206176758,21.0,65728.0,73744.0,38592.0,27112.0,7832.0
1.32711660861969,36.0,49600.0,66896.0,40176.0,26516.0,8232.0
1.3284167051315308,39.0,53712.0,71920.0,45536.0,23020.0,7611.0
1.329716682434082,20.0,60592.0,76944.0,40448.0,19520.0,5106.0
1.3310832977294922,25.0,55936.0,67344.0,28780.0,16572.0,7877.0
1.3323832750320435,52.0,42880.0,64096.0,30792.0,27468.0,3700.0
1.3336833715438843,58.0,48160.0,60592.0,24080.0,24132.0,9068.0
1.3349833488464355,9.0,40640.0,57088.0,25384.0,20792.0,6283.0
1.3362833261489868,23.0,45360.0,59104.0,26688.0,22588.0,3483.0
1.337583303451538,43.0,36704.0,60352.0,24068.0,20956.0,3116.0
1.3388832807540894,38.0,33872.0,56112.0,21444.0,21756.0,2708.0
1.3401833772659302,33.0,40112.0,47792.0,18988.0,22556.0,2718.0
1.3414833545684814,57.0,36240.0,52608.0,20168.0,19020.0,2531.0
1.3427833318710327,6.0,32380.0,47920.0,21352.0,13860.0,2344.0
1.344083309173584,17.0,35616.0,42384.0,23256.0,16276.0,3122.0
1.3453832864761353,29.0,37712.0,39536.0,25156.0,20644.0,3900.0
1.346683382987976,22.0,32220.0,51392.0,24184.0,14508.0,3960.0
1.3480499982833862,24.0,26772.0,28448.0,23208.0,13224.0,4020.0
1.3493499755859375,21.0,27256.0,37088.0,20856.0,8260.0,2174.0
1.3506499528884888,8.0,29784.0,34992.0,15432.0,13180.0,3599.0
1.3519500494003296,11.0,26016.0,36288.0,11588.0,7710.0,2981.0
1.3532500267028809,14.0,29656.0,26536.0,12076.0,11836.0,2363.0
1.3545500040054321,10.0,28248.0,25596.0,16636.0,6066.0,3107.0
1.3558499813079834,9.0,19616.0,26096.0,12024.0,8105.0,3850.0
1.3571499586105347,8.0,23076.0,27260.0,11572.0,5683.0,1086.0
1.3584500551223755,16.0,16856.0,30328.0,9108.0,6445.0,4784.0
1.3597500324249268,12.0,15656.0,18484.0,6214.0,7208.0,3076.0
1.361050009727478,8.0,21320.0,21400.0,9960.0,6855.0,1891.0
1.3623499870300293,39.0,16244.0,19868.0,8504.0,6502.0,3614.0
1.3636499643325806,47.0,9448.0,17708.0,7044.0,5746.0,1936.0
1.3650000095367432,0.0,9812.0,12284.0,10020.0,4989.0,2251.0
1.3662999868392944,46.0,10564.0,18024.0,9040.0,5280.0,1647.0
1.3675999641418457,28.0,12104.0,12708.0,8061.0,5572.0,1343.0
1.368899941444397,11.0,12088.0,17228.0,8141.0,6205.0,1039.0
1.3702000379562378,14.0,12072.0,14164.0,4839.0,3909.0,27.0
1.371500015258789,28.0,10788.0,13584.0,5813.0,5894.0,25.0
1.3727999925613403,15.0,9568.0,8952.0,6940.0,5183.0,1867.0
1.3740999698638916,0.0,10632.0,9384.0,6445.0,3610.0,1476.0
1.3753999471664429,18.0,6104.0,7215.0,7433.0,2925.0,649.0
1.3767000436782837,0.0,4134.0,10512.0,5285.0,3312.0,1962.0
1.378000020980835,20.0,6781.0,11300.0,2827.0,3699.0,41.0
1.3792999982833862,39.0,5436.0,8412.0,7838.0,2782.0,529.0
1.3805999755859375,48.0,5612.0,10600.0,1182.0,4900.0,759.0
1.381933331489563,8.0,6634.0,7646.0,2542.0,956.0,250.0
1.3832333087921143,24.0,2832.0,5961.0,3312.0,2000.0,148.0
1.3845332860946655,13.0,5833.0,12084.0,3115.0,3044.0,46.0
1.3858333826065063,17.0,8103.0,5450.0,3719.0,3294.0,23.0
1.3871333599090576,31.0,2625.0,6312.0,3858.0,3088.0,0.0
1.3884333372116089,25.0,2428.0,2834.0,2689.0,1645.0,19.0
1.3897333145141602,19.0,4461.0,4199.0,5075.0,627.0,22.0
1.3910332918167114,40.0,3830.0,5564.0,4422.0,1647.0,25.0
1.3923333883285522,41.0,3285.0,2147.0,2984.0,1297.0,10.0
1.3936333656311035,26.0,3100.0,5665.0,2746.0,947.0,1319.0
1.3949333429336548,48.0,2116.0,1773.0,1576.0,500.0,1282.0
1.396233320236206,5.0,5078.0,4244.0,282.0,822.0,1246.0
1.3975332975387573,29.0,5066.0,7537.0,12.0,731.0,289.0
1.398900032043457,32.0,3340.0,7293.0,1677.0,628.0,529.0
1.4002000093460083,5.0,1613.0,1164.0,1602.0,1113.0,56.0
1.4014999866485596,46.0,0.0,1542.0,1084.0,1598.0,26.0
1.4027999639511108,13.0,2988.0,4491.0,2245.0,1286.0,27.0
1.404099941253662,22.0,3382.0,1517.0,3406.0,1641.0,12.0
1.405400037765503,15.0,964.0,3089.0,3412.0,2054.0,22.0
1.4067000150680542,6.0,2799.0,1976.0,2993.0,20.0,864.0
1.4079999923706055,14.0,3980.0,937.0,550.0,982.0,916.0
1.4092999696731567,5.0,3293.0,3046.0,2046.0,18.0,62.0
1.410599946975708,8.0,2541.0,5389.0,1713.0,2514.0,1559.0
1.4119000434875488,10.0,1287.0,4237.0,574.0,1937.0,803.0
1.4132000207901,18.0,787.0,891.0,1234.0,2131.0,47.0
1.4144999980926514,17.0,1420.0,3133.0,24.0,1727.0,981.0
1.415850043296814,15.0,3685.0,2152.0,936.0,572.0,25.0
1.4171500205993652,10.0,3246.0,1727.0,593.0,20.0,180.0
1.4184499979019165,41.0,2992.0,2148.0,306.0,1134.0,26.0
1.4197499752044678,45.0,2843.0,2440.0,20.0,2612.0,447.0
1.421049952507019,0.0,732.0,2654.0,427.0,2476.0,236.0
1.4223500490188599,31.0,400.0,1823.0,834.0,1606.0,25.0
1.4236500263214111,12.0,67.0,1323.0,914.0,49.0,619.0
1.4249666929244995,0.0,358.0,1176.0,814.0,593.0,5.0
1.4262499809265137,0.0,32.0,17.0,714.0,554.0,18.0
1.427549958229065,9.0,43.0,1202.0,530.0,16.0,747.0
1.4288666248321533,17.0,53.0,2388.0,26.0,892.0,796.0
1.430150032043457,14.0,1222.0,3224.0,267.0,46.0,193.0
1.4314500093460083,34.0,2455.0,24.0,507.0,755.0,101.0
1.4328166246414185,36.0,1946.0,2804.0,787.0,652.0,8.0
1.4341167211532593,34.0,2092.0,33.0,482.0,1466.0,39.0
1.4354166984558105,55.0,1171.0,677.0,177.0,1297.0,22.0
1.4367166757583618,5.0,7.0,905.0,1050.0,1128.0,5.0
1.438016653060913,7.0,1001.0,1132.0,52.0,1000.0,100.0
1.4393166303634644,8.0,2014.0,1411.0,577.0,16.0,65.0
1.4406166076660156,32.0,1709.0,1159.0,29.0,951.0,29.0
1.4419167041778564,57.0,1403.0,1751.0,0.0,1004.0,21.0
1.4432166814804077,46.0,11.0,2343.0,975.0,27.0,30.0
1.444516658782959,25.0,1555.0,2071.0,982.0,7.0,39.0
1.4458166360855103,30.0,816.0,1353.0,988.0,17.0,15.0
1.4471166133880615,41.0,679.0,28.0,23.0,727.0,107.0
1.4484167098999023,14.0,775.0,1490.0,435.0,813.0,944.0
1.4497833251953125,40.0,577.0,23.0,847.0,899.0,852.0
1.4510833024978638,29.0,298.0,1622.0,19.0,11.0,61.0
1.452383279800415,15.0,19.0,2330.0,1773.0,287.0,43.0
1.4536833763122559,5.0,29.0,1550.0,1691.0,563.0,589.0
1.4549833536148071,23.0,39.0,3317.0,1536.0,234.0,62.0
1.4562833309173584,18.0,43.0,12.0,32.0,506.0,61.0
1.4575833082199097,6.0,47.0,834.0,28.0,52.0,10.0
1.458883285522461,8.0,110.0,13.0,23.0,714.0,34.0
1.4601833820343018,33.0,612.0,958.0,476.0,747.0,58.0
1.461483359336853,37.0,438.0,956.0,887.0,225.0,41.0
1.4627833366394043,5.0,264.0,955.0,563.0,140.0,23.0
1.4640833139419556,24.0,794.0,18.0,238.0,371.0,41.0
1.4653832912445068,0.0,409.0,1649.0,1006.0,189.0,32.0
1.4667333364486694,17.0,25.0,1268.0,1404.0,7.0,24.0
1.4680333137512207,0.0,13.0,1032.0,1358.0,12.0,577.0
1.469333291053772,15.0,0.0,9.0,20.0,135.0,749.0
1.4706333875656128,29.0,15.0,774.0,527.0,258.0,19.0
1.471933364868164,34.0,17.0,78.0,278.0,147.0,12.0
1.4732333421707153,52.0,405.0,10.0,29.0,37.0,13.0
1.4745333194732666,0.0,687.0,799.0,7.0,338.0,5.0
1.4758332967758179,40.0,969.0,556.0,13.0,62.0,107.0
1.4771332740783691,60.0,1317.0,14.0,19.0,318.0,56.0
1.47843337059021,12.0,1669.0,551.0,11.0,177.0,5.0
1.4797333478927612,5.0,13.0,675.0,30.0,36.0,76.0
1.4810500144958496,24.0,5.0,799.0,50.0,284.0,16.0
1.4823333024978638,15.0,14.0,23.0,1201.0,145.0,12.0
1.4837000370025635,5.0,20.0,153.0,981.0,5.0,235.0
1.4850000143051147,12.0,25.0,42.0,51.0,19.0,134.0
1.486299991607666,16.0,34.0,83.0,30.0,33.0,33.0
1.4875999689102173,0.0,239.0,125.0,9.0,36.0,20.0
1.4888999462127686,5.0,308.0,76.0,1028.0,31.0,0.0
1.4902000427246094,10.0,377.0,28.0,1055.0,27.0,5.0
1.4915000200271606,46.0,1056.0,790.0,1082.0,36.0,169.0
1.492799997329712,48.0,535.0,426.0,563.0,44.0,89.0
1.4940999746322632,33.0,13.0,62.0,291.0,694.0,10.0
1.4953999519348145,37.0,583.0,5.0,19.0,917.0,62.0
1.4967000484466553,12.0,14.0,33.0,0.0,1703.0,0.0
1.4980000257492065,39.0,880.0,363.0,309.0,1247.0,11.0
1.4993000030517578,0.0,831.0,184.0,1225.0,864.0,22.0
1.500666618347168,28.0,9.0,5.0,1351.0,599.0,0.0
1.5019667148590088,5.0,38.0,41.0,0.0,989.0,0.0
1.50326669216156,28.0,10.0,28.0,27.0,34.0,0.0
1.5045666694641113,25.0,1692.0,17.0,45.0,16.0,33.0
1.5058666467666626,16.0,1340.0,21.0,0.0,837.0,31.0
1.5071666240692139,5.0,562.0,15.0,26.0,291.0,30.0
1.5084667205810547,30.0,1347.0,13.0,30.0,20.0,13.0
1.509766697883606,16.0,1480.0,11.0,5.0,1236.0,16.0
1.5110666751861572,36.0,186.0,190.0,22.0,897.0,18.0
1.5123666524887085,29.0,601.0,101.0,25.0,49.0,12.0
1.5136666297912598,34.0,0.0,12.0,27.0,637.0,5.0
1.514966607093811,39.0,342.0,26.0,28.0,932.0,6.0
1.5162667036056519,42.0,787.0,41.0,34.0,238.0,7.0
1.517616629600525,24.0,745.0,54.0,40.0,29.0,7.0
1.5189167261123657,38.0,702.0,271.0,215.0,32.0,35.0
1.520216703414917,33.0,968.0,158.0,390.0,40.0,21.0
1.5215166807174683,29.0,1367.0,46.0,360.0,20.0,8.0
1.5228166580200195,0.0,8.0,13.0,330.0,0.0,37.0
1.5241166353225708,22.0,1495.0,35.0,438.0,27.0,25.0
1.525416612625122,55.0,67.0,27.0,547.0,595.0,13.0
1.526716709136963,32.0,203.0,357.0,40.0,837.0,9.0
1.5280166864395142,10.0,135.0,687.0,17.0,830.0,16.0
1.5293166637420654,6.0,319.0,962.0,30.0,743.0,23.0
1.5306166410446167,25.0,175.0,659.0,571.0,655.0,35.0
1.531916618347168,25.0,30.0,355.0,595.0,337.0,31.0
1.5332167148590088,6.0,25.0,25.0,54.0,18.0,26.0
1.534583330154419,66.0,20.0,834.0,0.0,60.0,7.0
1.5358833074569702,36.0,14.0,1087.0,327.0,699.0,21.0
1.5371832847595215,5.0,78.0,414.0,198.0,636.0,16.0
1.5384833812713623,20.0,47.0,506.0,68.0,17.0,8.0
1.5397833585739136,24.0,16.0,769.0,90.0,15.0,6.0
1.5410833358764648,5.0,18.0,25.0,64.0,0.0,5.0
1.5423833131790161,23.0,10.0,901.0,8.0,19.0,19.0
1.5436832904815674,10.0,20.0,1200.0,23.0,35.0,22.0
1.5449833869934082,5.0,22.0,33.0,0.0,161.0,25.0
1.5462833642959595,0.0,23.0,827.0,117.0,89.0,39.0
1.5475833415985107,9.0,5.0,437.0,61.0,17.0,52.0
1.548883318901062,9.0,49.0,47.0,6.0,15.0,29.0
1.5501832962036133,10.0,30.0,489.0,25.0,25.0,6.0
1.551550030708313,5.0,11.0,0.0,882.0,36.0,23.0
1.5528500080108643,6.0,26.0,823.0,1113.0,30.0,42.0
1.5541499853134155,7.0,40.0,444.0,51.0,23.0,5.0
1.5554499626159668,16.0,34.0,65.0,12.0,38.0,6.0
1.5567500591278076,18.0,28.0,24.0,73.0,14.0,0.0
1.5580500364303589,11.0,372.0,60.0,30.0,14.0,0.0
1.5593500137329102,0.0,717.0,6.0,0.0,14.0,18.0
1.5606499910354614,22.0,565.0,87.0,11.0,8.0,12.0
1.5619499683380127,30.0,414.0,376.0,27.0,30.0,5.0
1.563249945640564,38.0,14.0,489.0,56.0,23.0,11.0
1.5645500421524048,13.0,15.0,591.0,453.0,17.0,23.0
1.565850019454956,15.0,8.0,5.0,246.0,24.0,23.0
1.5671499967575073,22.0,4.0,31.0,39.0,961.0,23.0
1.5685166120529175,28.0,0.0,5.0,24.0,864.0,27.0
1.5698000192642212,0.0,1002.0,11.0,335.0,10.0,30.0
1.5710999965667725,5.0,821.0,17.0,190.0,817.0,29.0
1.5723999738693237,8.0,52.0,5.0,46.0,23.0,16.0
1.573699951171875,10.0,1334.0,13.0,15.0,313.0,20.0
1.5750166177749634,5.0,592.0,21.0,14.0,709.0,33.0
1.5763167142868042,0.0,623.0,7.0,5.0,6.0,33.0
1.5776000022888184,16.0,0.0,0.0,13.0,851.0,32.0
1.5788999795913696,10.0,93.0,10.0,21.0,11.0,20.0
1.580199956893921,11.0,42.0,20.0,16.0,55.0,29.0
1.5815000534057617,11.0,38.0,10.0,10.0,26.0,37.0
1.582800030708313,18.0,35.0,0.0,8.0,10.0,19.0
1.5841000080108643,0.0,16.0,21.0,5.0,5.0,8.0
1.5854666233062744,13.0,19.0,11.0,0.0,10.0,5.0
1.5867667198181152,0.0,247.0,0.0,12.0,11.0,14.0
1.5880666971206665,17.0,475.0,17.0,15.0,12.0,22.0
1.5893666744232178,0.0,800.0,35.0,11.0,66.0,27.0
1.590666651725769,0.0,1124.0,21.0,7.0,37.0,32.0
1.5919666290283203,7.0,797.0,8.0,5.0,8.0,41.0
1.5932667255401611,16.0,1458.0,29.0,18.0,18.0,34.0
1.5945667028427124,24.0,19.0,10.0,26.0,27.0,36.0
1.5958666801452637,25.0,20.0,11.0,30.0,25.0,34.0
1.597166657447815,27.0,46.0,12.0,6.0,22.0,21.0
1.5984666347503662,5.0,12.0,577.0,3.0,0.0,11.0
1.5997666120529175,0.0,5.0,709.0,0.0,0.0,43.0
1.6010667085647583,37.0,28.0,46.0,0.0,38.0,10.0
1.6024333238601685,19.0,0.0,14.0,7.0,21.0,44.0
1.6037333011627197,45.0,11.0,33.0,13.0,43.0,13.0
1.605033278465271,7.0,21.0,19.0,13.0,5.0,5.0
1.6063333749771118,30.0,23.0,5.0,12.0,30.0,19.0
1.607633352279663,41.0,0.0,11.0,15.0,31.0,33.0
1.6089333295822144,6.0,26.0,16.0,17.0,27.0,28.0
1.6102499961853027,9.0,36.0,19.0,14.0,23.0,13.0
1.611533284187317,25.0,22.0,21.0,11.0,18.0,13.0
1.6128499507904053,40.0,486.0,1346.0,53.0,35.0,41.0
1.614133358001709,39.0,950.0,844.0,44.0,53.0,33.0
1.6154500246047974,16.0,639.0,343.0,35.0,26.0,26.0
1.6167500019073486,49.0,23.0,427.0,40.0,0.0,0.0
1.6180499792099,35.0,63.0,1021.0,22.0,55.0,5.0
1.6194000244140625,57.0,10.0,7.0,22.0,43.0,0.0
1.6207000017166138,15.0,7.0,1259.0,21.0,5.0,18.0
1.621999979019165,10.0,8.0,0.0,11.0,79.0,15.0
1.6232999563217163,17.0,5.0,54.0,0.0,53.0,15.0
1.6246000528335571,17.0,5.0,516.0,3.0,26.0,15.0
1.6259000301361084,5.0,5.0,16.0,5.0,10.0,0.0
1.6272000074386597,25.0,15.0,29.0,10.0,27.0,0.0
1.628499984741211,49.0,25.0,19.0,14.0,18.0,9.0
1.6297999620437622,37.0,21.0,27.0,559.0,8.0,17.0
1.631100058555603,25.0,33.0,16.0,449.0,26.0,17.0
1.6324167251586914,57.0,10.0,5.0,22.0,45.0,21.0
1.6337167024612427,15.0,0.0,14.0,199.0,32.0,8.0
1.6349999904632568,5.0,14.0,22.0,11.0,20.0,5.0
1.636383295059204,11.0,27.0,14.0,74.0,25.0,0.0
1.637683391571045,13.0,26.0,5.0,33.0,17.0,30.0
1.6389833688735962,15.0,29.0,16.0,31.0,8.0,38.0
1.6402666568756104,7.0,19.0,16.0,54.0,4.0,5.0
1.6415666341781616,20.0,56.0,570.0,54.0,0.0,10.0
1.642866611480713,25.0,33.0,1422.0,54.0,11.0,14.0
1.6441667079925537,30.0,10.0,1144.0,5.0,8.0,17.0
1.645466685295105,22.0,53.0,780.0,17.0,24.0,19.0
1.6467833518981934,17.0,517.0,350.0,28.0,15.0,7.0
1.6480666399002075,25.0,275.0,34.0,36.0,5.0,21.0
1.6493666172027588,7.0,33.0,5.0,44.0,26.0,19.0
1.6506667137145996,32.0,381.0,11.0,27.0,7.0,18.0
1.651983380317688,36.0,20.0,6.0,11.0,0.0,17.0
1.653333306312561,6.0,383.0,0.0,53.0,3.0,10.0
1.6546332836151123,13.0,583.0,0.0,22.0,5.0,19.0
1.6559333801269531,0.0,10.0,33.0,15.0,6.0,17.0
1.6572333574295044,0.0,24.0,53.0,9.0,24.0,14.0
1.6585333347320557,0.0,37.0,26.0,13.0,52.0,24.0
1.659833312034607,0.0,30.0,0.0,237.0,38.0,19.0
1.6611332893371582,0.0,15.0,12.0,124.0,5.0,14.0
1.662433385848999,16.0,15.0,5.0,10.0,29.0,7.0
1.6637333631515503,14.0,14.0,6.0,22.0,0.0,0.0
1.6650333404541016,11.0,16.0,7.0,18.0,0.0,10.0
1.6663333177566528,19.0,18.0,17.0,0.0,4.0,0.0
1.667633295059204,27.0,20.0,36.0,3.0,8.0,11.0
1.668933391571045,22.0,24.0,25.0,6.0,11.0,12.0
1.670300006866455,23.0,32.0,15.0,0.0,9.0,12.0
1.6715999841690063,25.0,44.0,15.0,5.0,22.0,20.0
1.6728999614715576,9.0,32.0,15.0,0.0,13.0,0.0
1.6742000579833984,23.0,21.0,5.0,9.0,5.0,42.0
1.6755000352859497,19.0,46.0,27.0,18.0,10.0,31.0
1.676800012588501,20.0,15.0,29.0,24.0,15.0,0.0
1.6780999898910522,20.0,16.0,31.0,36.0,6.0,15.0
1.6793999671936035,10.0,5.0,15.0,37.0,33.0,21.0
1.6806999444961548,0.0,42.0,0.0,38.0,16.0,5.0
1.6820000410079956,21.0,75.0,0.0,19.0,0.0,35.0
1.6833000183105469,13.0,53.0,13.0,0.0,17.0,43.0
1.6845999956130981,5.0,30.0,0.0,194.0,12.0,25.0
1.6858999729156494,5.0,23.0,21.0,116.0,20.0,11.0
1.6872667074203491,32.0,17.0,582.0,39.0,16.0,6.0
1.6885666847229004,34.0,11.0,733.0,37.0,12.0,15.0
1.6898666620254517,12.0,11.0,14.0,55.0,24.0,8.0
1.691166639328003,25.0,11.0,45.0,30.0,16.0,0.0
1.6924666166305542,38.0,17.0,57.0,32.0,7.0,156.0
1.693766713142395,7.0,12.0,51.0,33.0,7.0,94.0
1.6950666904449463,5.0,7.0,46.0,7.0,0.0,33.0
1.6963666677474976,36.0,16.0,15.0,27.0,7.0,37.0
1.6976666450500488,37.0,451.0,21.0,31.0,14.0,7.0
1.6989666223526,5.0,538.0,36.0,16.0,42.0,21.0
1.700266718864441,25.0,625.0,49.0,0.0,39.0,36.0
1.7015666961669922,21.0,410.0,304.0,13.0,6.0,40.0
1.7028666734695435,37.0,66.0,169.0,219.0,7.0,24.0
1.7042332887649536,5.0,5.0,34.0,124.0,40.0,0.0
1.7055333852767944,33.0,17.0,39.0,29.0,15.0,6.0
1.7068333625793457,14.0,7.0,39.0,21.0,46.0,22.0
1.708133339881897,24.0,42.0,36.0,6.0,5.0,19.0
1.7094333171844482,5.0,39.0,34.0,27.0,37.0,30.0
1.7107332944869995,18.0,36.0,7.0,60.0,42.0,41.0
1.7120333909988403,0.0,8.0,7.0,422.0,47.0,34.0
1.7133333683013916,0.0,51.0,6.0,425.0,0.0,16.0
1.7146333456039429,10.0,34.0,10.0,368.0,39.0,0.0
1.7159333229064941,20.0,17.0,13.0,312.0,22.0,44.0
1.7172333002090454,38.0,14.0,19.0,7.0,7.0,7.0
1.7185332775115967,27.0,5.0,12.0,0.0,12.0,476.0
1.7198333740234375,42.0,16.0,5.0,0.0,0.0,238.0
1.7211999893188477,16.0,227.0,22.0,24.0,27.0,0.0
1.722499966621399,0.0,321.0,17.0,12.0,749.0,26.0
1.7237999439239502,5.0,415.0,0.0,0.0,382.0,18.0
1.725100040435791,6.0,19.0,35.0,16.0,14.0,5.0
1.7264000177383423,0.0,15.0,15.0,21.0,11.0,0.0
1.7276999950408936,25.0,362.0,29.0,25.0,43.0,14.0
1.7289999723434448,19.0,190.0,44.0,20.0,23.0,225.0
1.730299949645996,13.0,17.0,28.0,25.0,40.0,139.0
1.731600046157837,0.0,71.0,12.0,30.0,45.0,53.0
1.7329000234603882,7.0,17.0,5.0,0.0,50.0,0.0
1.7342000007629395,13.0,15.0,11.0,0.0,33.0,17.0
1.7354999780654907,6.0,5.0,192.0,13.0,20.0,5.0
1.736799955368042,8.0,0.0,114.0,32.0,35.0,19.0
1.7381333112716675,16.0,5.0,37.0,27.0,620.0,5.0
1.7394332885742188,22.0,0.0,67.0,12.0,648.0,7.0
1.7407333850860596,27.0,8.0,6.0,7.0,15.0,10.0
1.7420333623886108,22.0,5.0,33.0,6.0,25.0,8.0
1.743333339691162,16.0,15.0,11.0,27.0,36.0,6.0
1.7446333169937134,20.0,22.0,13.0,27.0,17.0,22.0
1.7459332942962646,24.0,28.0,15.0,27.0,24.0,19.0
1.7472333908081055,6.0,18.0,6.0,9.0,5.0,16.0
1.7485333681106567,9.0,0.0,20.0,46.0,11.0,23.0
1.749833345413208,11.0,28.0,5.0,31.0,11.0,30.0
1.7511333227157593,8.0,49.0,16.0,17.0,15.0,8.0
1.7524333000183105,5.0,27.0,26.0,13.0,18.0,17.0
1.7537332773208618,6.0,5.0,21.0,5.0,18.0,19.0
1.7551000118255615,14.0,44.0,15.0,5.0,17.0,22.0
1.7563999891281128,22.0,20.0,7.0,18.0,13.0,22.0
1.757699966430664,20.0,0.0,16.0,9.0,12.0,10.0
1.7589999437332153,16.0,25.0,13.0,0.0,19.0,173.0
1.7603000402450562,12.0,41.0,10.0,47.0,25.0,104.0
1.7616000175476074,14.0,50.0,469.0,35.0,0.0,34.0
1.7628999948501587,15.0,17.0,256.0,24.0,15.0,5.0
1.76419997215271,10.0,36.0,43.0,10.0,5.0,17.0
1.7654999494552612,13.0,44.0,7.0,5.0,0.0,9.0
1.766800045967102,16.0,5.0,40.0,0.0,30.0,11.0
1.7681000232696533,15.0,0.0,35.0,26.0,22.0,13.0
1.7694000005722046,13.0,17.0,30.0,27.0,14.0,13.0
1.7706999778747559,6.0,5.0,10.0,14.0,5.0,12.0
1.7720667123794556,10.0,3.0,26.0,0.0,11.0,6.0
1.7733666896820068,21.0,0.0,0.0,0.0,16.0,0.0
1.774666666984558,17.0,34.0,8.0,41.0,0.0,40.0
1.7759666442871094,12.0,59.0,23.0,33.0,3.0,46.0
1.7772666215896606,0.0,36.0,7.0,43.0,5.0,29.0
1.7785667181015015,0.0,23.0,12.0,172.0,12.0,5.0
1.7798666954040527,9.0,12.0,16.0,97.0,19.0,16.0
1.781166672706604,0.0,19.0,17.0,21.0,41.0,26.0
1.7824666500091553,3.0,26.0,5.0,15.0,41.0,5.0
1.7837666273117065,5.0,19.0,3.0,14.0,55.0,13.0
1.7850667238235474,27.0,20.0,0.0,12.0,43.0,22.0
1.7863667011260986,43.0,310.0,24.0,9.0,31.0,25.0
1.78766667842865,46.0,161.0,47.0,13.0,0.0,27.0
1.78903329372406,5.0,11.0,70.0,16.0,24.0,9.0
1.7903333902359009,23.0,549.0,45.0,23.0,10.0,8.0
1.7916333675384521,32.0,847.0,19.0,30.0,23.0,6.0
1.7929333448410034,21.0,902.0,37.0,15.0,22.0,13.0
1.7942333221435547,10.0,10.0,18.0,0.0,7.0,12.0
1.795533299446106,14.0,29.0,44.0,11.0,664.0,11.0
1.7968332767486572,10.0,174.0,27.0,22.0,338.0,13.0
1.798133373260498,8.0,15.0,234.0,5.0,12.0,14.0
1.7994333505630493,5.0,0.0,130.0,10.0,0.0,0.0
1.8007333278656006,8.0,37.0,25.0,21.0,24.0,18.0
1.8020333051681519,11.0,0.0,10.0,17.0,49.0,11.0
1.8033332824707031,13.0,55.0,0.0,26.0,48.0,5.0
1.804633378982544,14.0,39.0,17.0,26.0,24.0,13.0
1.805999994277954,0.0,26.0,26.0,26.0,0.0,20.0
1.8072999715805054,14.0,10.0,17.0,10.0,5.0,0.0
1.8085999488830566,14.0,12.0,7.0,8.0,33.0,24.0
1.8099000453948975,15.0,31.0,7.0,6.0,52.0,5.0
1.8112000226974487,15.0,5.0,5.0,9.0,37.0,11.0
1.8125,14.0,11.0,3.0,12.0,21.0,13.0
1.8137999773025513,13.0,42.0,0.0,21.0,26.0,13.0
1.8150999546051025,11.0,41.0,7.0,33.0,39.0,12.0
1.8164000511169434,0.0,17.0,13.0,33.0,21.0,9.0
1.8177000284194946,6.0,32.0,24.0,8.0,17.0,5.0
1.819000005722046,11.0,23.0,18.0,46.0,35.0,5.0
1.8202999830245972,37.0,25.0,12.0,29.0,36.0,26.0
1.8215999603271484,39.0,13.0,6.0,0.0,35.0,27.0
1.8229666948318481,34.0,10.0,31.0,6.0,35.0,28.0
1.8242666721343994,11.0,19.0,26.0,6.0,21.0,48.0
1.8255666494369507,26.0,14.0,12.0,5.0,11.0,33.0
1.826866626739502,15.0,10.0,10.0,11.0,0.0,18.0
1.8281667232513428,31.0,21.0,36.0,19.0,15.0,10.0
1.829466700553894,11.0,13.0,0.0,26.0,26.0,34.0
1.8307666778564453,5.0,5.0,7.0,20.0,37.0,26.0
1.8320666551589966,30.0,19.0,6.0,21.0,0.0,18.0
1.8333666324615479,15.0,13.0,36.0,47.0,36.0,11.0
1.8346666097640991,25.0,26.0,47.0,34.0,26.0,5.0
1.83596670627594,35.0,17.0,62.0,21.0,16.0,11.0
1.8372666835784912,9.0,19.0,7.0,65.0,29.0,0.0
1.8385666608810425,17.0,13.0,33.0,0.0,5.0,16.0
1.839916706085205,18.0,6.0,10.0,25.0,7.0,19.0
1.8412166833877563,44.0,23.0,30.0,16.0,631.0,22.0
1.8425333499908447,33.0,0.0,5.0,16.0,669.0,27.0
1.8438166379928589,22.0,0.0,44.0,21.0,39.0,32.0
1.8451166152954102,11.0,0.0,32.0,25.0,34.0,5.0
1.846416711807251,52.0,24.0,21.0,19.0,5.0,12.0
1.8477166891098022,44.0,48.0,154.0,13.0,43.0,29.0
1.8490166664123535,22.0,35.0,106.0,51.0,7.0,0.0
1.8503166437149048,14.0,898.0,57.0,45.0,17.0,3.0
1.851616621017456,18.0,870.0,38.0,20.0,10.0,5.0
1.8529332876205444,18.0,22.0,0.0,33.0,16.0,15.0
1.8542166948318481,17.0,1140.0,3.0,26.0,13.0,10.0
1.8555166721343994,23.0,39.0,6.0,19.0,10.0,5.0
1.8568832874298096,29.0,23.0,5.0,36.0,16.0,20.0
1.8581833839416504,8.0,31.0,14.0,0.0,0.0,16.0
1.8594833612442017,32.0,9.0,23.0,16.0,9.0,12.0
1.860783338546753,36.0,12.0,38.0,0.0,17.0,11.0
1.8620833158493042,12.0,26.0,52.0,10.0,19.0,18.0
1.8633832931518555,14.0,6.0,56.0,16.0,0.0,18.0
1.8646833896636963,15.0,5.0,46.0,10.0,27.0,10.0
1.8659833669662476,0.0,30.0,37.0,8.0,26.0,10.0
1.8672833442687988,28.0,5.0,33.0,5.0,0.0,10.0
1.86858332157135,34.0,0.0,28.0,8.0,22.0,8.0
1.8698832988739014,40.0,4.0,28.0,10.0,0.0,5.0
1.8711832761764526,5.0,7.0,31.0,11.0,19.0,27.0
1.8724833726882935,15.0,61.0,48.0,11.0,20.0,20.0
1.8738499879837036,25.0,52.0,52.0,8.0,30.0,13.0
1.8751499652862549,37.0,27.0,28.0,5.0,31.0,25.0
1.8764499425888062,44.0,26.0,5.0,13.0,35.0,18.0
1.877750039100647,10.0,41.0,18.0,14.0,24.0,45.0
1.8790500164031982,24.0,38.0,6.0,15.0,13.0,25.0
1.8803499937057495,15.0,35.0,20.0,6.0,23.0,5.0
1.8816499710083008,5.0,25.0,10.0,0.0,23.0,8.0
1.882949948310852,7.0,15.0,0.0,35.0,23.0,10.0
1.8842500448226929,6.0,31.0,17.0,38.0,22.0,55.0
1.8855500221252441,5.0,5.0,34.0,5.0,6.0,48.0
1.8868499994277954,21.0,25.0,29.0,9.0,5.0,42.0
1.8881499767303467,17.0,18.0,24.0,12.0,10.0,0.0
1.889449954032898,13.0,22.0,16.0,11.0,16.0,14.0
1.8907999992370605,37.0,26.0,8.0,25.0,21.0,30.0
1.8920999765396118,29.0,5.0,65.0,21.0,14.0,29.0
1.893399953842163,21.0,11.0,32.0,16.0,7.0,28.0
1.894700050354004,14.0,17.0,0.0,0.0,0.0,16.0
1.8960000276565552,7.0,14.0,43.0,27.0,0.0,33.0
1.8973000049591064,23.0,16.0,24.0,39.0,9.0,28.0
1.8985999822616577,20.0,16.0,56.0,5.0,17.0,23.0
1.899899959564209,32.0,16.0,63.0,44.0,20.0,20.0
1.9012000560760498,17.0,8.0,10.0,40.0,10.0,17.0
1.902500033378601,7.0,15.0,12.0,31.0,0.0,36.0
1.9038000106811523,26.0,14.0,7.0,34.0,9.0,34.0
1.9050999879837036,5.0,12.0,18.0,37.0,17.0,25.0
1.9063999652862549,21.0,29.0,28.0,30.0,14.0,29.0
1.9077666997909546,27.0,307.0,14.0,24.0,13.0,33.0
1.9090666770935059,8.0,171.0,0.0,32.0,15.0,25.0
1.9103666543960571,7.0,35.0,5.0,13.0,17.0,18.0
1.9116666316986084,28.0,24.0,42.0,9.0,22.0,33.0
1.9129666090011597,25.0,0.0,57.0,5.0,24.0,26.0
1.9142667055130005,22.0,23.0,18.0,16.0,18.0,33.0
1.9155666828155518,31.0,21.0,16.0,23.0,12.0,23.0
1.916866660118103,23.0,5.0,14.0,26.0,17.0,14.0
1.9181666374206543,14.0,0.0,30.0,28.0,13.0,23.0
1.9194666147232056,20.0,11.0,46.0,15.0,0.0,25.0
1.9207667112350464,25.0,26.0,25.0,15.0,0.0,27.0
1.9220666885375977,17.0,18.0,5.0,15.0,0.0,20.0
1.923366665840149,17.0,10.0,14.0,0.0,18.0,22.0
1.924733281135559,16.0,13.0,6.0,14.0,17.0,29.0
1.9260333776474,39.0,19.0,12.0,11.0,15.0,18.0
1.9273333549499512,46.0,21.0,18.0,8.0,10.0,0.0
1.9286333322525024,0.0,23.0,25.0,18.0,5.0,38.0
1.9299333095550537,15.0,968.0,18.0,61.0,18.0,44.0
1.931233286857605,47.0,895.0,24.0,69.0,9.0,49.0
1.9325333833694458,0.0,5.0,15.0,42.0,0.0,28.0
1.933833360671997,9.0,31.0,21.0,15.0,35.0,0.0
1.9351333379745483,18.0,12.0,29.0,22.0,43.0,13.0
1.9364333152770996,24.0,29.0,19.0,29.0,19.0,25.0
1.9377332925796509,29.0,35.0,8.0,30.0,15.0,21.0
1.9390333890914917,11.0,0.0,25.0,30.0,10.0,13.0
1.940333366394043,50.0,44.0,13.0,30.0,12.0,24.0
1.941683292388916,41.0,22.0,0.0,15.0,167.0,25.0
1.9429833889007568,39.0,0.0,10.0,24.0,100.0,26.0
1.9443000555038452,29.0,8.0,23.0,31.0,34.0,11.0
1.9455833435058594,31.0,15.0,37.0,9.0,32.0,12.0
1.9468833208084106,10.0,314.0,76.0,14.0,44.0,12.0
1.948183298110962,21.0,157.0,43.0,32.0,39.0,13.0
1.9494832754135132,5.0,0.0,11.0,22.0,35.0,10.0
1.950783371925354,5.0,225.0,40.0,5.0,19.0,36.0
1.9520833492279053,5.0,781.0,12.0,9.0,7.0,30.0
1.9533833265304565,0.0,731.0,20.0,15.0,7.0,39.0
1.9546833038330078,15.0,43.0,42.0,0.0,13.0,31.0
1.9559999704360962,16.0,250.0,28.0,17.0,9.0,5.0
1.9572999477386475,7.0,12.0,41.0,0.0,5.0,0.0
1.95864999294281,7.0,6.0,33.0,7.0,6.0,17.0
1.9599499702453613,24.0,0.0,25.0,13.0,6.0,14.0
1.9612499475479126,61.0,13.0,53.0,12.0,6.0,10.0
1.9625500440597534,50.0,29.0,32.0,30.0,11.0,11.0
1.9638500213623047,37.0,31.0,11.0,40.0,15.0,27.0
1.965149998664856,5.0,867.0,11.0,33.0,14.0,38.0
1.9664499759674072,16.0,964.0,23.0,23.0,11.0,46.0
1.9677499532699585,23.0,21.0,28.0,12.0,5.0,14.0
1.9690500497817993,29.0,339.0,0.0,16.0,569.0,19.0
1.9703500270843506,17.0,6.0,38.0,5.0,294.0,56.0
1.9716500043869019,10.0,32.0,27.0,24.0,19.0,18.0
1.9729499816894531,17.0,35.0,16.0,24.0,56.0,16.0
1.9742499589920044,16.0,31.0,30.0,37.0,13.0,0.0
1.975616693496704,14.0,5.0,21.0,5.0,5.0,7.0
1.9769166707992554,0.0,15.0,12.0,12.0,15.0,13.0
1.9782166481018066,39.0,25.0,0.0,19.0,6.0,16.0
1.979516625404358,43.0,12.0,24.0,16.0,17.0,20.0
1.9808167219161987,56.0,11.0,20.0,9.0,35.0,23.0
1.98211669921875,31.0,13.0,23.0,44.0,30.0,25.0
1.9834166765213013,0.0,48.0,25.0,37.0,46.0,18.0
1.9847166538238525,24.0,46.0,12.0,19.0,36.0,6.0
1.9860166311264038,13.0,46.0,41.0,18.0,36.0,29.0
1.987316608428955,6.0,15.0,29.0,17.0,46.0,5.0
1.988616704940796,12.0,48.0,18.0,18.0,0.0,17.0
1.9899166822433472,14.0,20.0,22.0,45.0,9.0,21.0
1.9912166595458984,26.0,20.0,0.0,569.0,25.0,24.0
1.9925832748413086,41.0,12.0,29.0,804.0,7.0,12.0
1.9938833713531494,45.0,8.0,42.0,686.0,14.0,18.0
1.9951833486557007,31.0,11.0,54.0,0.0,21.0,23.0
1.996483325958252,8.0,9.0,26.0,6.0,5.0,19.0
1.9977833032608032,11.0,6.0,18.0,31.0,21.0,7.0
