,285.1600036621094,286.1600036621094,287.1600036621094,288.1600036621094,289.1600036621094,290.1600036621094,291.1600036621094
3.001516580581665,28.0,47.0,42.0,707.0,23.0,4447.0,8472.0
3.003033399581909,7.0,17.0,47.0,67.0,10.0,5542.0,6794.0
3.004549980163574,28.0,31.0,406.0,71.0,623.0,3437.0,8904.0
3.0060665607452393,24.0,43.0,15.0,65.0,52.0,5120.0,6159.0
3.0075833797454834,19.0,48.0,36.0,43.0,479.0,4695.0,5615.0
3.0090999603271484,14.0,75.0,56.0,27.0,48.0,5423.0,5374.0
3.0106167793273926,19.0,48.0,24.0,12.0,815.0,4867.0,2767.0
3.0121333599090576,19.0,22.0,58.0,12.0,620.0,1736.0,6596.0
3.0136499404907227,20.0,82.0,5.0,14.0,11.0,3140.0,7764.0
3.015166759490967,0.0,1167.0,28.0,26.0,828.0,1034.0,5004.0
3.016683340072632,27.0,1295.0,5.0,24.0,423.0,2795.0,4906.0
3.018233299255371,25.0,69.0,12.0,23.0,19.0,3558.0,4529.0
3.0197501182556152,23.0,38.0,45.0,33.0,13.0,4319.0,4153.0
3.0212666988372803,37.0,56.0,34.0,36.0,441.0,2159.0,4872.0
3.0227832794189453,42.0,44.0,17.0,14.0,37.0,3014.0,2529.0
3.0243000984191895,45.0,33.0,32.0,12.0,40.0,3868.0,5508.0
3.0258166790008545,48.0,15.0,47.0,10.0,65.0,3104.0,8055.0
3.0273332595825195,0.0,47.0,281.0,70.0,23.0,4563.0,7628.0
3.0288500785827637,5.0,0.0,141.0,958.0,5.0,3926.0,5652.0
3.0303666591644287,17.0,11.0,0.0,840.0,48.0,3288.0,5450.0
3.0318832397460938,20.0,10.0,21.0,290.0,21.0,5128.0,5716.0
3.033400058746338,24.0,20.0,43.0,21.0,22.0,4139.0,5982.0
3.0349833965301514,36.0,30.0,31.0,16.0,23.0,2405.0,5217.0
3.0364999771118164,47.0,707.0,10.0,24.0,45.0,2198.0,2768.0
3.0380165576934814,43.0,876.0,11.0,42.0,64.0,1850.0,5587.0
3.0395333766937256,30.0,5.0,133.0,931.0,54.0,1502.0,6855.0
3.0410499572753906,24.0,6.0,255.0,1212.0,44.0,3236.0,5282.0
3.0425667762756348,34.0,14.0,138.0,631.0,30.0,4970.0,5186.0
3.0440833568573,25.0,22.0,22.0,494.0,43.0,4798.0,7106.0
3.045599937438965,17.0,20.0,5.0,5.0,37.0,3314.0,4413.0
3.047116756439209,16.0,22.0,24.0,540.0,70.0,3524.0,8560.0
3.048633337020874,14.0,24.0,29.0,97.0,57.0,3733.0,8368.0
3.050149917602539,12.0,15.0,35.0,32.0,43.0,1562.0,6452.0
3.0517332553863525,15.0,37.0,11.0,194.0,42.0,2555.0,6121.0
3.0532500743865967,25.0,31.0,31.0,356.0,16.0,3714.0,6155.0
3.0547666549682617,22.0,25.0,31.0,471.0,39.0,3710.0,2609.0
3.0562832355499268,23.0,13.0,30.0,465.0,62.0,3706.0,6559.0
3.057800054550171,25.0,29.0,25.0,441.0,67.0,2944.0,7565.0
3.059316635131836,21.0,50.0,20.0,417.0,31.0,4473.0,8904.0
3.060833215713501,18.0,49.0,17.0,16.0,39.0,4215.0,751.0
3.062350034713745,28.0,48.0,379.0,42.0,47.0,3956.0,6120.0
3.06386661529541,16.0,39.0,221.0,23.0,22.0,3873.0,1370.0
3.0653834342956543,17.0,14.0,62.0,6.0,40.0,2878.0,2892.0
3.0669000148773193,19.0,15.0,55.0,36.0,57.0,1882.0,6369.0
3.0684666633605957,16.0,21.0,24.0,0.0,35.0,258.0,5698.0
3.0699832439422607,13.0,21.0,19.0,51.0,10.0,242.0,8880.0
3.071516752243042,42.0,28.0,15.0,46.0,23.0,226.0,6365.0
3.07301664352417,34.0,33.0,20.0,5.0,30.0,3467.0,5691.0
3.074549913406372,27.0,29.0,16.0,29.0,33.0,3026.0,6467.0
3.076050043106079,26.0,26.0,29.0,40.0,12.0,2585.0,6056.0
3.0775833129882812,22.0,37.0,42.0,55.0,39.0,2851.0,5511.0
3.0790834426879883,30.0,42.0,55.0,27.0,30.0,3801.0,6175.0
3.0806167125701904,37.0,19.0,39.0,51.0,22.0,3686.0,6609.0
3.0821332931518555,43.0,31.0,0.0,11.0,18.0,2215.0,6323.0
3.0836501121520996,46.0,51.0,67.0,38.0,25.0,4787.0,4140.0
3.0851833820343018,16.0,13.0,48.0,56.0,32.0,2275.0,5861.0
3.086699962615967,13.0,12.0,29.0,10.0,6.0,5448.0,5308.0
3.088216781616211,0.0,44.0,5.0,24.0,31.0,6620.0,4754.0
3.089733362197876,2.0,37.0,18.0,6.0,24.0,5203.0,3387.0
3.091249942779541,5.0,15.0,30.0,16.0,11.0,6111.0,6399.0
3.092766761779785,25.0,22.0,47.0,20.0,5.0,2406.0,5745.0
3.09428334236145,27.0,49.0,62.0,24.0,8.0,3245.0,5916.0
3.0957999229431152,29.0,35.0,45.0,393.0,28.0,2899.0,3431.0
3.0973167419433594,34.0,5.0,21.0,209.0,32.0,1921.0,6594.0
3.0988333225250244,35.0,25.0,31.0,26.0,49.0,2031.0,2727.0
3.1003499031066895,36.0,44.0,33.0,10.0,31.0,2046.0,5204.0
3.101933240890503,39.0,27.0,36.0,23.0,13.0,2062.0,3870.0
3.103450059890747,28.0,10.0,25.0,28.0,35.0,2190.0,3970.0
3.104966640472412,18.0,33.0,14.0,28.0,24.0,3123.0,5104.0
3.106483221054077,13.0,22.0,49.0,28.0,13.0,2841.0,1828.0
3.1080000400543213,8.0,28.0,33.0,30.0,11.0,2560.0,4588.0
3.1095166206359863,34.0,35.0,17.0,363.0,15.0,2656.0,3816.0
3.1110334396362305,36.0,35.0,22.0,192.0,21.0,2753.0,5864.0
3.1125500202178955,38.0,5.0,5.0,21.0,0.0,1807.0,3392.0
3.1140666007995605,34.0,6.0,16.0,10.0,32.0,944.0,682.0
3.1155834197998047,30.0,38.0,8.0,5.0,31.0,2085.0,639.0
3.1171000003814697,35.0,23.0,0.0,13.0,34.0,0.0,1544.0
3.118683338165283,41.0,24.0,18.0,22.0,40.0,55.0,1675.0
3.1201999187469482,5.0,46.0,14.0,51.0,43.0,33.0,642.0
3.1217167377471924,46.0,35.0,23.0,50.0,59.0,25.0,51.0
3.1232333183288574,36.0,6.0,19.0,50.0,16.0,10.0,73.0
3.1247498989105225,36.0,24.0,16.0,31.0,22.0,26.0,1199.0
3.1262667179107666,25.0,43.0,10.0,28.0,27.0,27.0,1195.0
3.1277832984924316,23.0,11.0,5.0,34.0,6.0,28.0,421.0
3.129300117492676,21.0,36.0,23.0,27.0,15.0,25.0,0.0
3.130816698074341,21.0,50.0,22.0,20.0,0.0,742.0,20.0
3.132333278656006,21.0,5.0,70.0,22.0,42.0,1384.0,404.0
3.13385009765625,26.0,50.0,58.0,33.0,55.0,698.0,32.0
3.1354000568389893,43.0,20.0,46.0,31.0,10.0,11.0,531.0
3.1369333267211914,24.0,40.0,31.0,29.0,81.0,61.0,71.0
3.1384499073028564,5.0,18.0,17.0,14.0,5.0,34.0,15.0
3.1399834156036377,41.0,18.0,27.0,0.0,56.0,19.0,20.0
3.1414999961853027,37.0,0.0,23.0,20.0,5.0,5.0,47.0
3.1429998874664307,6.0,22.0,0.0,17.0,5.0,34.0,28.0
3.144533395767212,48.0,29.0,22.0,25.0,72.0,39.0,18.0
3.146049976348877,24.0,15.0,7.0,19.0,62.0,43.0,30.0
3.147566556930542,35.0,31.0,65.0,13.0,26.0,25.0,29.0
3.149083375930786,12.0,39.0,67.0,33.0,12.0,30.0,24.0
3.150599956512451,19.0,38.0,70.0,30.0,34.0,35.0,20.0
3.1521167755126953,26.0,37.0,56.0,15.0,38.0,0.0,30.0
3.1536500453948975,27.0,46.0,43.0,24.0,34.0,41.0,12.0
3.1551666259765625,27.0,5.0,52.0,22.0,18.0,45.0,21.0
3.1566834449768066,27.0,25.0,5.0,16.0,14.0,49.0,30.0
3.1582000255584717,48.0,32.0,47.0,11.0,10.0,50.0,36.0
3.1597166061401367,55.0,11.0,0.0,15.0,11.0,24.0,11.0
3.161233425140381,23.0,0.0,23.0,21.0,12.0,30.0,16.0
3.162750005722046,30.0,34.0,70.0,28.0,8.0,42.0,29.0
3.164266586303711,46.0,29.0,38.0,5.0,5.0,30.0,29.0
3.165783405303955,29.0,19.0,51.0,25.0,30.0,960.0,29.0
3.16729998588562,21.0,10.0,41.0,39.0,37.0,899.0,26.0
3.168816566467285,13.0,9.0,30.0,42.0,15.0,25.0,23.0
3.1703999042510986,30.0,5.0,42.0,34.0,22.0,36.0,37.0
3.1719167232513428,12.0,0.0,8.0,45.0,29.0,22.0,29.0
3.173433303833008,63.0,5.0,15.0,44.0,23.0,149.0,22.0
3.174949884414673,32.0,10.0,16.0,70.0,18.0,277.0,36.0
3.176466703414917,0.0,10.0,18.0,5.0,20.0,146.0,44.0
3.177983283996582,62.0,21.0,18.0,28.0,10.0,15.0,35.0
3.179500102996826,35.0,47.0,19.0,25.0,0.0,14.0,32.0
3.181016683578491,24.0,42.0,23.0,34.0,15.0,37.0,29.0
3.1825332641601562,20.0,0.0,27.0,43.0,0.0,30.0,36.0
3.1840500831604004,32.0,21.0,42.0,52.0,5.0,23.0,43.0
3.1855666637420654,27.0,41.0,38.0,18.0,11.0,20.0,190.0
3.187150001525879,21.0,16.0,34.0,40.0,18.0,18.0,100.0
3.188666582107544,26.0,28.0,15.0,30.0,25.0,5.0,10.0
3.190183401107788,18.0,40.0,603.0,746.0,28.0,32.0,44.0
3.191699981689453,14.0,45.0,955.0,934.0,751.0,45.0,24.0
3.193216562271118,10.0,197.0,1306.0,1374.0,856.0,25.0,24.0
3.1947333812713623,27.0,502.0,17.0,1456.0,960.0,9.0,33.0
3.1962499618530273,44.0,1018.0,3201.0,2960.0,1611.0,20.0,43.0
3.1977667808532715,41.0,1398.0,5669.0,3295.0,2101.0,1373.0,54.0
3.1992833614349365,39.0,1965.0,6695.0,3461.0,7583.0,1946.0,43.0
3.2007999420166016,42.0,3831.0,5210.0,11204.0,6023.0,2519.0,33.0
3.2023167610168457,27.0,3753.0,9484.0,13984.0,7067.0,2466.0,548.0
3.203900098800659,12.0,3675.0,12180.0,10924.0,12224.0,2420.0,701.0
3.205399990081787,10.0,4863.0,16188.0,20792.0,17536.0,2375.0,853.0
3.206916570663452,15.0,9796.0,25232.0,33808.0,18864.0,7337.0,1068.0
3.2084333896636963,21.0,18212.0,30936.0,34880.0,26332.0,8760.0,2487.0
3.2099666595458984,0.0,15204.0,27528.0,53088.0,43872.0,20420.0,3907.0
3.2114665508270264,33.0,25576.0,52256.0,54160.0,41088.0,17868.0,4739.0
3.2129833698272705,18.0,28920.0,66640.0,82640.0,56976.0,17244.0,4256.0
3.2144999504089355,22.0,45440.0,100352.0,100912.0,78032.0,23128.0,7900.0
3.2160167694091797,23.0,52112.0,95008.0,103136.0,90528.0,33696.0,7527.0
3.217550039291382,25.0,47056.0,124112.0,143424.0,84128.0,37136.0,6575.0
3.2190499305725098,29.0,60288.0,137856.0,157312.0,126832.0,51856.0,9192.0
3.220599889755249,33.0,76080.0,185344.0,195328.0,155648.0,51744.0,12916.0
3.222116708755493,30.0,107056.0,206848.0,231424.0,146880.0,47856.0,19328.0
3.223633289337158,25.0,101328.0,217088.0,260864.0,174272.0,75568.0,19164.0
3.2251501083374023,20.0,107136.0,263424.0,273088.0,209472.0,83200.0,13152.0
3.2266666889190674,23.0,135936.0,290240.0,318592.0,208896.0,82832.0,28688.0
3.2281832695007324,26.0,153856.0,333312.0,327232.0,231488.0,95408.0,26556.0
3.2297000885009766,41.0,197696.0,363904.0,373376.0,266176.0,100336.0,22184.0
3.2312166690826416,43.0,196032.0,418368.0,390272.0,255360.0,105280.0,29104.0
3.2327332496643066,46.0,202368.0,420864.0,417216.0,281024.0,105024.0,28864.0
3.234250068664551,24.0,205376.0,439744.0,436672.0,315008.0,126144.0,18756.0
3.235766649246216,61.0,211968.0,447104.0,479872.0,314304.0,126864.0,34704.0
3.237316608428955,69.0,218624.0,447872.0,480000.0,352960.0,126448.0,49456.0
3.238833427429199,78.0,222848.0,448640.0,480128.0,360192.0,126048.0,41664.0
3.2403500080108643,55.0,247296.0,562944.0,577024.0,393088.0,139584.0,35504.0
3.2418665885925293,76.0,259584.0,539904.0,592384.0,383040.0,153088.0,37200.0
3.2433834075927734,50.0,242240.0,507520.0,536832.0,382976.0,161728.0,35536.0
3.2448999881744385,42.0,264320.0,624128.0,608768.0,396032.0,158080.0,31036.0
3.2464165687561035,35.0,238400.0,590336.0,632320.0,393152.0,168000.0,35360.0
3.2479333877563477,51.0,269504.0,617216.0,590592.0,390272.0,140096.0,34368.0
3.2494499683380127,37.0,259456.0,617216.0,606464.0,371008.0,172224.0,33376.0
3.2509665489196777,23.0,284416.0,582912.0,594176.0,421568.0,146496.0,37152.0
3.252483367919922,34.0,267264.0,552448.0,601600.0,416320.0,151552.0,27504.0
3.2540667057037354,44.0,241728.0,520320.0,534016.0,354304.0,141760.0,39888.0
3.2555832862854004,45.0,248320.0,474816.0,540672.0,326400.0,142848.0,39216.0
3.2571001052856445,58.0,232704.0,545024.0,548864.0,375872.0,146624.0,26136.0
3.2586166858673096,70.0,246080.0,496192.0,506048.0,335872.0,153024.0,28072.0
3.2601332664489746,92.0,259456.0,499712.0,511872.0,320896.0,127072.0,28432.0
3.2616500854492188,77.0,254336.0,531456.0,524800.0,351808.0,149184.0,26012.0
3.263166666030884,51.0,249152.0,509312.0,510016.0,333824.0,110976.0,23588.0
3.264683246612549,54.0,211200.0,440640.0,495360.0,319232.0,122400.0,22032.0
3.266200065612793,80.0,217984.0,469696.0,461376.0,284864.0,135488.0,26788.0
3.267716646194458,106.0,219392.0,448704.0,458240.0,342784.0,112144.0,28672.0
3.269233226776123,107.0,207744.0,461632.0,499968.0,317312.0,136192.0,30556.0
3.2708165645599365,63.0,192768.0,440000.0,412480.0,276928.0,108048.0,29084.0
3.2723333835601807,73.0,204224.0,386560.0,467968.0,280256.0,100832.0,23844.0
3.2738499641418457,78.0,182464.0,403712.0,394496.0,277824.0,110944.0,28016.0
3.27536678314209,59.0,201920.0,431424.0,439296.0,279488.0,114880.0,24552.0
3.276883363723755,41.0,161088.0,381824.0,376512.0,263488.0,96688.0,24260.0
3.27839994430542,79.0,180672.0,367040.0,419072.0,201152.0,94768.0,26924.0
3.279916763305664,58.0,179072.0,349312.0,318144.0,230336.0,94752.0,18932.0
3.281433343887329,76.0,152512.0,327424.0,339648.0,226176.0,78992.0,29192.0
3.282949924468994,73.0,165376.0,340608.0,324224.0,200576.0,78128.0,19020.0
3.2844667434692383,71.0,159040.0,310528.0,329408.0,211712.0,81984.0,25324.0
3.2859833240509033,32.0,158208.0,309632.0,331712.0,208576.0,76832.0,13940.0
3.287566661834717,76.0,157376.0,320256.0,316800.0,230400.0,82240.0,24640.0
3.2890665531158447,48.0,148608.0,296512.0,305984.0,175040.0,80496.0,18312.0
3.290583372116089,47.0,152896.0,302528.0,308544.0,212992.0,73488.0,17320.0
3.292099952697754,43.0,137024.0,261632.0,297408.0,188736.0,75232.0,16120.0
3.293616771697998,51.0,151744.0,268160.0,300096.0,172928.0,71328.0,15028.0
3.295133352279663,63.0,123344.0,305088.0,302848.0,193408.0,62208.0,15468.0
3.2966666221618652,75.0,115216.0,311296.0,298240.0,185216.0,73072.0,15908.0
3.2981667518615723,64.0,141504.0,274560.0,293568.0,192064.0,72672.0,17728.0
3.2996833324432373,44.0,133312.0,281664.0,293504.0,191488.0,72272.0,10916.0
3.3011999130249023,30.0,128432.0,291776.0,293440.0,187776.0,58160.0,21524.0
3.3027167320251465,44.0,137856.0,288704.0,313152.0,202304.0,66768.0,19712.0
3.304283380508423,59.0,136384.0,285632.0,332928.0,167040.0,75392.0,14580.0
3.305816650390625,61.0,135168.0,289984.0,353216.0,191104.0,86320.0,25184.0
3.30733323097229,81.0,133952.0,294400.0,344192.0,191680.0,82720.0,19976.0
3.308850049972534,66.0,167552.0,316160.0,340032.0,210560.0,75200.0,16352.0
3.310366630554199,50.0,177536.0,316736.0,343168.0,210432.0,93296.0,21008.0
3.3118834495544434,12.0,155648.0,317312.0,362816.0,210304.0,89088.0,18600.0
3.3134000301361084,90.0,167936.0,336320.0,373696.0,232448.0,97216.0,29164.0
3.3149166107177734,45.0,158848.0,355264.0,384640.0,258752.0,103648.0,27428.0
3.3164334297180176,60.0,197696.0,348224.0,407424.0,278656.0,100752.0,24696.0
3.3179500102996826,75.0,205120.0,341120.0,413312.0,246592.0,84720.0,23964.0
3.3194665908813477,90.0,201472.0,423808.0,441600.0,236160.0,97264.0,24152.0
3.320983409881592,73.0,210496.0,412800.0,462272.0,248384.0,108128.0,25132.0
3.3225667476654053,57.0,206720.0,445952.0,470336.0,243968.0,117424.0,26112.0
3.3240833282470703,87.0,190528.0,409664.0,414720.0,239488.0,106400.0,25688.0
3.3255999088287354,62.0,220160.0,434944.0,428736.0,304448.0,122880.0,24432.0
3.3271167278289795,40.0,216384.0,386624.0,439680.0,290112.0,115104.0,23176.0
3.3286333084106445,65.0,213760.0,385152.0,449920.0,306240.0,105920.0,24252.0
3.3301498889923096,53.0,177472.0,383680.0,446272.0,272640.0,120016.0,23904.0
3.3316667079925537,41.0,208704.0,412800.0,435392.0,281216.0,98048.0,23556.0
3.3331832885742188,59.0,194688.0,408576.0,410752.0,249536.0,97840.0,20452.0
3.334700107574463,77.0,181952.0,364608.0,400064.0,286144.0,97648.0,23252.0
3.336216688156128,67.0,183232.0,388928.0,373504.0,281728.0,93488.0,22672.0
3.337733268737793,84.0,189440.0,340160.0,373504.0,254144.0,89344.0,22096.0
3.3392999172210693,81.0,170048.0,327488.0,353344.0,216192.0,88384.0,18872.0
3.3408167362213135,56.0,168384.0,280832.0,322816.0,203072.0,88112.0,21220.0
3.3423333168029785,77.0,155840.0,300736.0,300288.0,204992.0,84096.0,11084.0
3.3438498973846436,55.0,132544.0,277056.0,289216.0,201088.0,84320.0,13084.0
3.345383405685425,33.0,146240.0,253504.0,253376.0,163904.0,50240.0,23416.0
3.3468832969665527,27.0,107104.0,250368.0,262720.0,141888.0,57408.0,12660.0
3.348416566848755,22.0,152448.0,223808.0,237568.0,127376.0,59264.0,10868.0
3.349916696548462,39.0,78256.0,218624.0,223040.0,126848.0,52048.0,9104.0
3.351433277130127,56.0,92752.0,192192.0,196224.0,130080.0,39296.0,12392.0
3.352950096130371,52.0,85456.0,179776.0,180224.0,101840.0,31928.0,11804.0
3.354466676712036,64.0,75728.0,163968.0,150144.0,88544.0,38752.0,11864.0
3.3560166358947754,22.0,65600.0,116096.0,147712.0,89616.0,45008.0,6012.0
3.3575332164764404,26.0,53584.0,102496.0,114368.0,72480.0,23616.0,6699.0
3.3590500354766846,76.0,61488.0,116688.0,108032.0,71472.0,28020.0,7961.0
3.3605666160583496,65.0,40176.0,99088.0,106832.0,68320.0,15236.0,12420.0
3.3620834350585938,41.0,44352.0,81280.0,86400.0,53248.0,18412.0,14304.0
3.363600015640259,71.0,35120.0,78416.0,78608.0,40832.0,19924.0,6787.0
3.365116596221924,57.0,25728.0,61744.0,69664.0,43328.0,20172.0,5027.0
3.366633415222168,61.0,37344.0,57296.0,65792.0,32112.0,21020.0,8344.0
3.368149995803833,24.0,28396.0,41232.0,55440.0,35024.0,19872.0,3691.0
3.369666576385498,46.0,24644.0,47568.0,54768.0,28624.0,14036.0,4043.0
3.371183395385742,68.0,20060.0,42608.0,59984.0,36096.0,13572.0,4394.0
3.3727667331695557,42.0,27312.0,39936.0,44096.0,31172.0,10920.0,2481.0
3.3742833137512207,81.0,21968.0,38272.0,40576.0,25808.0,12944.0,6376.0
3.3757998943328857,19.0,24216.0,39056.0,35152.0,23060.0,14832.0,6866.0
3.37731671333313,53.0,9400.0,32708.0,38288.0,15896.0,6010.0,4219.0
3.378833293914795,60.0,14080.0,29448.0,38064.0,21144.0,9660.0,4878.0
3.380350112915039,64.0,5296.0,29696.0,35936.0,20200.0,12608.0,790.0
3.381866693496704,46.0,16732.0,30580.0,26900.0,20004.0,3445.0,4448.0
3.383383274078369,47.0,14212.0,22600.0,21108.0,10192.0,4416.0,4190.0
3.3849000930786133,21.0,14496.0,18720.0,23648.0,18540.0,5021.0,1392.0
3.3864166736602783,51.0,14648.0,21516.0,19268.0,10756.0,4977.0,4632.0
3.3879332542419434,37.0,10808.0,23460.0,19188.0,18184.0,4933.0,4740.0
3.389516592025757,16.0,5508.0,16132.0,19104.0,8212.0,5341.0,2467.0
3.391016721725464,29.0,6302.0,18156.0,13760.0,3577.0,5748.0,2407.0
3.392533302307129,37.0,9276.0,13308.0,16704.0,10704.0,5655.0,1540.0
3.394049882888794,46.0,6863.0,17220.0,17868.0,11944.0,3568.0,672.0
3.395583391189575,68.0,6626.0,16580.0,19032.0,13216.0,1494.0,2327.0
3.397083282470703,68.0,4730.0,15944.0,17088.0,11552.0,4730.0,998.0
3.3986001014709473,32.0,4453.0,14232.0,16012.0,10936.0,4091.0,469.0
3.4001166820526123,27.0,4176.0,9276.0,14936.0,8296.0,4569.0,2184.0
3.4016332626342773,45.0,6273.0,10368.0,22544.0,13072.0,5048.0,1366.0
3.4031667709350586,21.0,6279.0,14192.0,20900.0,6332.0,2499.0,730.0
3.4046666622161865,26.0,5088.0,8692.0,14820.0,9540.0,1606.0,1931.0
3.40625,31.0,5443.0,11144.0,11464.0,5813.0,4494.0,2280.0
3.407766580581665,17.0,1105.0,13104.0,17760.0,12972.0,3009.0,3938.0
3.409283399581909,44.0,7633.0,8872.0,15428.0,10868.0,3747.0,2444.0
3.410799980163574,0.0,7578.0,10292.0,10300.0,7668.0,4244.0,951.0
3.4123165607452393,37.0,6524.0,13316.0,14456.0,7026.0,4742.0,1404.0
3.4138333797454834,61.0,2885.0,8244.0,13724.0,5336.0,4623.0,1431.0
3.4153499603271484,10.0,5798.0,14588.0,6638.0,6317.0,3882.0,435.0
3.4168667793273926,60.0,6813.0,8192.0,5697.0,5898.0,40.0,1286.0
3.4183833599090576,16.0,2537.0,8065.0,12064.0,7037.0,5232.0,78.0
3.4198999404907227,28.0,3734.0,16644.0,12836.0,7259.0,3112.0,1543.0
3.421416759490967,28.0,3394.0,4411.0,10904.0,3904.0,3221.0,1545.0
3.4230000972747803,28.0,2866.0,6164.0,12172.0,8988.0,815.0,1546.0
3.4245166778564453,28.0,2337.0,6224.0,7257.0,5479.0,2265.0,1374.0
3.4260332584381104,25.0,2405.0,6389.0,12036.0,8612.0,1190.0,1201.0
3.4275500774383545,38.0,2358.0,5441.0,9692.0,7599.0,1851.0,2000.0
3.4290666580200195,60.0,1828.0,4307.0,7452.0,2671.0,1988.0,2133.0
3.4305832386016846,55.0,1297.0,3172.0,9560.0,3477.0,2125.0,2265.0
3.4321000576019287,20.0,3127.0,6382.0,7364.0,4165.0,1507.0,2199.0
3.4336166381835938,12.0,2871.0,6097.0,5814.0,3576.0,1768.0,2134.0
3.435133218765259,5.0,2615.0,5811.0,5049.0,2987.0,2029.0,510.0
3.436650037765503,23.0,3262.0,7641.0,8117.0,3463.0,1839.0,1218.0
3.438166618347168,29.0,2302.0,7438.0,4156.0,3335.0,1649.0,1927.0
3.4397332668304443,19.0,4727.0,2444.0,3915.0,5572.0,3467.0,1251.0
3.4412667751312256,10.0,441.0,3849.0,4076.0,5068.0,4028.0,576.0
3.4427833557128906,19.0,1414.0,4208.0,4238.0,4563.0,323.0,1486.0
3.4442999362945557,28.0,2463.0,4929.0,4683.0,2302.0,2274.0,2395.0
3.4458167552948,33.0,2090.0,4990.0,5835.0,4866.0,3046.0,4292.0
3.447333335876465,28.0,1201.0,5403.0,6988.0,4714.0,3967.0,4044.0
3.44884991645813,0.0,452.0,5892.0,5955.0,5839.0,2275.0,935.0
3.450366735458374,18.0,1265.0,2453.0,3036.0,5248.0,2064.0,1331.0
3.451883316040039,35.0,424.0,5646.0,5877.0,3252.0,546.0,447.0
3.453399896621704,35.0,1019.0,5643.0,4710.0,2572.0,3579.0,1628.0
3.4549167156219482,35.0,1614.0,2454.0,5144.0,4405.0,2365.0,872.0
3.4564332962036133,27.0,47.0,5213.0,5579.0,4292.0,2122.0,851.0
3.4580166339874268,24.0,513.0,9020.0,5737.0,3275.0,2856.0,829.0
3.459533214569092,22.0,978.0,8007.0,5896.0,4820.0,2634.0,432.0
3.461050033569336,21.0,1933.0,5992.0,4980.0,4447.0,2413.0,35.0
3.462566614151001,59.0,1224.0,1577.0,5079.0,1167.0,493.0,39.0
3.464083433151245,81.0,514.0,4020.0,4036.0,2533.0,2361.0,44.0
3.46560001373291,57.0,679.0,3775.0,2993.0,2034.0,1642.0,620.0
3.467116594314575,37.0,843.0,6275.0,3219.0,2107.0,2254.0,1196.0
3.4686334133148193,25.0,1049.0,5886.0,3807.0,3411.0,3355.0,1598.0
3.4701499938964844,30.0,1254.0,2682.0,2840.0,3132.0,3420.0,1071.0
3.4716665744781494,26.0,1686.0,6102.0,1873.0,2853.0,1226.0,852.0
3.4731833934783936,21.0,2118.0,6419.0,4319.0,2823.0,2623.0,633.0
3.474766731262207,16.0,2679.0,4890.0,4248.0,350.0,4183.0,360.0
3.476283311843872,23.0,2171.0,5820.0,3030.0,3765.0,798.0,87.0
3.477799892425537,21.0,1663.0,2467.0,5351.0,3099.0,1755.0,54.0
3.4793167114257812,20.0,3241.0,4052.0,2231.0,1320.0,1005.0,20.0
3.4808332920074463,36.0,624.0,1966.0,2131.0,1082.0,354.0,20.0
3.4823501110076904,33.0,32.0,3081.0,315.0,393.0,1860.0,200.0
3.4838666915893555,49.0,2538.0,3324.0,587.0,3638.0,512.0,103.0
3.4853832721710205,59.0,2574.0,22.0,61.0,2923.0,1416.0,7.0
3.4869000911712646,12.0,19.0,3934.0,1129.0,44.0,419.0,858.0
3.4884166717529297,41.0,1779.0,1636.0,1354.0,34.0,33.0,432.0
3.4899332523345947,28.0,820.0,925.0,1579.0,2276.0,936.0,6.0
3.491516590118408,46.0,20.0,33.0,768.0,365.0,104.0,8.0
3.4930334091186523,31.0,1091.0,1410.0,193.0,38.0,21.0,15.0
3.4945499897003174,15.0,278.0,2028.0,10.0,1407.0,507.0,23.0
3.4960665702819824,27.0,31.0,47.0,584.0,23.0,15.0,42.0
3.4975833892822266,39.0,651.0,36.0,417.0,72.0,36.0,53.0
3.4990999698638916,35.0,64.0,14.0,10.0,30.0,5.0,51.0
3.5006165504455566,35.0,0.0,25.0,28.0,11.0,0.0,38.0
3.502133369445801,35.0,26.0,37.0,13.0,16.0,25.0,27.0
3.503649950027466,25.0,53.0,21.0,15.0,22.0,27.0,50.0
3.50516676902771,16.0,48.0,19.0,18.0,27.0,30.0,39.0
3.506683349609375,39.0,43.0,17.0,29.0,29.0,90.0,29.0
3.5082666873931885,28.0,56.0,14.0,27.0,38.0,51.0,27.0
3.5097832679748535,21.0,50.0,12.0,7.0,70.0,12.0,28.0
3.5113000869750977,41.0,44.0,28.0,26.0,62.0,44.0,30.0
3.5128166675567627,10.0,10.0,38.0,34.0,55.0,43.0,30.0
3.5143332481384277,13.0,25.0,43.0,35.0,72.0,41.0,0.0
3.515850067138672,11.0,28.0,15.0,35.0,42.0,43.0,25.0
3.517366647720337,18.0,31.0,519.0,22.0,37.0,46.0,39.0
3.518883228302002,25.0,22.0,270.0,16.0,23.0,29.0,35.0
3.520400047302246,34.0,13.0,22.0,30.0,26.0,10.0,32.0
3.521916627883911,25.0,25.0,17.0,44.0,12.0,12.0,28.0
3.5234334468841553,16.0,37.0,23.0,52.0,12.0,39.0,24.0
3.5250167846679688,32.0,35.0,27.0,45.0,40.0,35.0,14.0
3.526533365249634,32.0,7.0,0.0,608.0,45.0,30.0,5.0
3.528049945831299,33.0,10.0,13.0,426.0,51.0,15.0,13.0
3.529566764831543,33.0,20.0,22.0,243.0,46.0,28.0,9.0
3.531083345413208,33.0,19.0,18.0,13.0,45.0,21.0,5.0
3.532599925994873,34.0,19.0,17.0,69.0,34.0,24.0,42.0
3.534116744995117,0.0,37.0,17.0,67.0,363.0,20.0,32.0
3.5356333255767822,30.0,31.0,20.0,10.0,196.0,42.0,23.0
3.5371499061584473,24.0,26.0,23.0,16.0,29.0,65.0,39.0
3.5386667251586914,6.0,33.0,5.0,13.0,336.0,53.0,23.0
3.5401833057403564,36.0,35.0,23.0,46.0,41.0,28.0,47.0
3.541749954223633,20.0,25.0,33.0,42.0,28.0,10.0,36.0
3.543266773223877,17.0,16.0,60.0,38.0,13.0,23.0,26.0
3.544800043106079,14.0,17.0,69.0,48.0,53.0,32.0,24.0
3.546299934387207,10.0,18.0,30.0,39.0,33.0,64.0,17.0
3.547816753387451,32.0,15.0,54.0,31.0,46.0,72.0,10.0
3.549333333969116,37.0,19.0,33.0,246.0,60.0,93.0,34.0
3.5508499145507812,53.0,38.0,12.0,153.0,52.0,39.0,36.0
3.5523667335510254,38.0,36.0,30.0,60.0,44.0,26.0,27.0
3.5538833141326904,59.0,34.0,48.0,31.0,15.0,18.0,19.0
3.5553998947143555,6.0,34.0,40.0,26.0,30.0,5.0,39.0
3.5569167137145996,6.0,34.0,32.0,8.0,53.0,35.0,29.0
3.558483362197876,15.0,34.0,24.0,13.0,37.0,41.0,43.0
3.560016632080078,38.0,28.0,17.0,15.0,21.0,48.0,41.0
3.5615334510803223,71.0,22.0,52.0,18.0,56.0,35.0,40.0
3.5630500316619873,58.0,17.0,48.0,14.0,45.0,26.0,29.0
3.5645666122436523,45.0,12.0,44.0,10.0,14.0,23.0,23.0
3.5660834312438965,45.0,25.0,47.0,5.0,44.0,0.0,33.0
3.5676000118255615,77.0,21.0,50.0,0.0,20.0,29.0,25.0
3.5691165924072266,15.0,17.0,50.0,10.0,33.0,35.0,18.0
3.5706334114074707,28.0,13.0,51.0,26.0,39.0,0.0,37.0
3.5721499919891357,92.0,20.0,34.0,33.0,45.0,41.0,20.0
3.573666572570801,53.0,41.0,18.0,21.0,47.0,11.0,39.0
3.575183391571045,16.0,56.0,30.0,10.0,5.0,22.0,31.0
3.5767667293548584,22.0,31.0,23.0,15.0,23.0,48.0,22.0
3.5782833099365234,28.0,5.0,16.0,13.0,45.0,41.0,31.0
3.5797998905181885,42.0,32.0,20.0,11.0,17.0,16.0,40.0
3.5813167095184326,39.0,43.0,21.0,17.0,26.0,50.0,25.0
3.5828332901000977,37.0,37.0,23.0,24.0,36.0,50.0,10.0
3.584350109100342,11.0,42.0,30.0,51.0,35.0,51.0,49.0
3.585866689682007,46.0,27.0,36.0,67.0,39.0,35.0,29.0
3.587383270263672,6.0,21.0,43.0,51.0,43.0,36.0,22.0
3.588900089263916,43.0,0.0,34.0,79.0,26.0,37.0,21.0
3.590416669845581,15.0,43.0,24.0,11.0,17.0,16.0,29.0
3.591933250427246,10.0,31.0,5.0,8.0,19.0,24.0,23.0
3.5935165882110596,5.0,20.0,30.0,11.0,15.0,33.0,17.0
3.5950334072113037,27.0,21.0,10.0,15.0,12.0,28.0,29.0
3.5965499877929688,28.0,23.0,770.0,12.0,8.0,24.0,15.0
3.598066568374634,29.0,16.0,707.0,10.0,5.0,32.0,0.0
