,316.2099914550781,317.2099914550781,318.2099914550781,319.2099914550781,320.2099914550781,321.2099914550781,322.2099914550781
2.051500082015991,0.0,35.0,44.0,25.0,8.0,619.0,16.0
2.0530166625976562,20.0,0.0,6.0,5.0,16.0,12.0,8.0
2.0545332431793213,16.0,20.0,513.0,23.0,25.0,733.0,10.0
2.0560500621795654,24.0,13.0,6.0,29.0,41.0,16.0,0.0
2.0575666427612305,9.0,15.0,17.0,26.0,56.0,20.0,25.0
2.0590832233428955,17.0,0.0,36.0,29.0,38.0,5.0,39.0
2.0606000423431396,13.0,4.0,18.0,14.0,20.0,8.0,24.0
2.0621166229248047,16.0,7.0,0.0,35.0,42.0,11.0,8.0
2.063633441925049,22.0,21.0,10.0,20.0,11.0,18.0,0.0
2.065150022506714,18.0,32.0,19.0,5.0,21.0,16.0,21.0
2.066666603088379,14.0,16.0,24.0,20.0,30.0,14.0,29.0
2.0682499408721924,16.0,0.0,28.0,34.0,22.0,12.0,37.0
2.0697667598724365,12.0,0.0,14.0,645.0,13.0,18.0,20.0
2.0712833404541016,31.0,14.0,0.0,325.0,11.0,19.0,42.0
2.0727999210357666,30.0,11.0,28.0,5.0,14.0,20.0,25.0
2.0743167400360107,29.0,8.0,40.0,5.0,0.0,5.0,28.0
2.075833320617676,9.0,19.0,24.0,9.0,21.0,17.0,29.0
2.077349901199341,0.0,20.0,8.0,10.0,43.0,8.0,30.0
2.078866720199585,5.0,0.0,5.0,10.0,46.0,11.0,12.0
2.08038330078125,0.0,19.0,14.0,15.0,30.0,33.0,11.0
2.081899881362915,9.0,31.0,15.0,11.0,15.0,31.0,18.0
2.083416700363159,22.0,23.0,16.0,7.0,33.0,10.0,22.0
2.0849833488464355,26.0,11.0,0.0,10.0,25.0,5.0,25.0
2.0864999294281006,30.0,11.0,10.0,13.0,16.0,38.0,28.0
2.0880167484283447,13.0,7.0,20.0,6.0,7.0,12.0,30.0
2.0895333290100098,19.0,11.0,31.0,11.0,10.0,5.0,0.0
2.091049909591675,5.0,14.0,38.0,11.0,42.0,31.0,12.0
2.092566728591919,3.0,18.0,44.0,31.0,31.0,47.0,7.0
2.094083309173584,0.0,21.0,22.0,25.0,21.0,49.0,12.0
2.095616579055786,9.0,24.0,5.0,19.0,33.0,13.0,16.0
2.097116708755493,18.0,23.0,25.0,31.0,27.0,16.0,20.0
2.098633289337158,13.0,5.0,16.0,26.0,21.0,19.0,20.0
2.1001501083374023,16.0,0.0,40.0,21.0,20.0,21.0,5.0
2.101733446121216,12.0,26.0,26.0,27.0,39.0,23.0,5.0
2.103250026702881,7.0,21.0,13.0,33.0,0.0,26.0,5.0
2.104766607284546,4.0,0.0,27.0,42.0,68.0,28.0,12.0
2.10628342628479,0.0,0.0,33.0,52.0,168.0,21.0,13.0
2.107800006866455,4.0,18.0,35.0,7.0,91.0,13.0,14.0
2.10931658744812,7.0,24.0,37.0,9.0,13.0,653.0,24.0
2.1108334064483643,9.0,13.0,21.0,10.0,21.0,728.0,22.0
2.1123499870300293,11.0,7.0,22.0,15.0,28.0,12.0,10.0
2.1138665676116943,28.0,0.0,25.0,20.0,14.0,23.0,21.0
2.1153833866119385,20.0,3.0,20.0,19.0,0.0,49.0,13.0
2.1168999671936035,11.0,5.0,0.0,18.0,48.0,5.0,18.0
2.118483304977417,8.0,19.0,12.0,14.0,34.0,31.0,22.0
2.119999885559082,5.0,37.0,24.0,9.0,5.0,34.0,20.0
2.121516704559326,13.0,33.0,17.0,20.0,227.0,13.0,15.0
2.123033285140991,0.0,15.0,10.0,22.0,124.0,25.0,9.0
2.1245501041412354,5.0,6.0,17.0,24.0,20.0,23.0,19.0
2.1260666847229004,8.0,31.0,24.0,15.0,19.0,21.0,7.0
2.1275832653045654,5.0,25.0,39.0,5.0,103.0,76.0,17.0
2.1291000843048096,21.0,24.0,28.0,19.0,759.0,368.0,5.0
2.1306166648864746,29.0,16.0,17.0,22.0,815.0,189.0,15.0
2.1321332454681396,19.0,0.0,22.0,24.0,871.0,9.0,11.0
2.133650064468384,33.0,33.0,16.0,13.0,441.0,24.0,19.0
2.13521671295166,12.0,11.0,9.0,139.0,10.0,20.0,10.0
2.136733293533325,39.0,29.0,15.0,264.0,641.0,24.0,17.0
2.1382665634155273,5.0,10.0,21.0,284.0,1272.0,27.0,23.0
2.1397666931152344,0.0,6.0,19.0,304.0,1501.0,29.0,1258.0
2.1412832736968994,0.0,5.0,15.0,160.0,1010.0,487.0,1256.0
2.1428000926971436,7.0,18.0,18.0,16.0,1737.0,944.0,2039.0
2.1443166732788086,15.0,23.0,21.0,8.0,944.0,894.0,765.0
2.1458332538604736,26.0,28.0,18.0,18.0,151.0,845.0,615.0
2.1473500728607178,32.0,21.0,14.0,14.0,564.0,3213.0,71.0
2.148866653442383,25.0,13.0,6.0,9.0,697.0,3137.0,26.0
2.150383234024048,5.0,10.0,29.0,19.0,4412.0,547.0,558.0
2.151949882507324,30.0,24.0,23.0,30.0,4823.0,400.0,660.0
2.1534833908081055,16.0,15.0,26.0,29.0,2197.0,232.0,13.0
2.1549999713897705,34.0,5.0,5.0,645.0,3749.0,732.0,1324.0
2.1565165519714355,42.0,5.0,494.0,330.0,128.0,378.0,966.0
2.1580333709716797,0.0,10.0,267.0,15.0,3751.0,23.0,353.0
2.1595499515533447,20.0,23.0,40.0,0.0,2540.0,906.0,440.0
2.161066770553589,12.0,36.0,1453.0,387.0,4899.0,1304.0,13.0
2.162583351135254,28.0,20.0,1155.0,199.0,2791.0,673.0,219.0
2.164099931716919,19.0,5.0,473.0,10.0,2131.0,43.0,425.0
2.165616750717163,9.0,19.0,895.0,491.0,2935.0,488.0,234.0
2.167133331298828,16.0,20.0,24.0,246.0,3252.0,934.0,44.0
2.168649911880493,11.0,11.0,604.0,0.0,3569.0,663.0,24.0
2.1702332496643066,14.0,237.0,5.0,13.0,1750.0,2072.0,5.0
2.171750068664551,16.0,136.0,546.0,26.0,3493.0,1738.0,13.0
2.173266649246216,17.0,35.0,27.0,234.0,4379.0,1443.0,21.0
2.174783229827881,18.0,23.0,27.0,441.0,2588.0,1348.0,16.0
2.176300048828125,22.0,25.0,17.0,241.0,1680.0,1253.0,11.0
2.17781662940979,25.0,10.0,45.0,42.0,2429.0,3375.0,6.0
2.179333448410034,7.0,21.0,86.0,749.0,750.0,2900.0,0.0
2.180850028991699,29.0,6.0,128.0,378.0,2936.0,1550.0,23.0
2.1823666095733643,25.0,0.0,72.0,6.0,3137.0,1304.0,183.0
2.1838834285736084,20.0,0.0,17.0,16.0,2271.0,1309.0,343.0
2.1854000091552734,16.0,942.0,10.0,12.0,3529.0,1314.0,180.0
2.18696665763855,11.0,775.0,10.0,943.0,3083.0,473.0,16.0
2.188483238220215,19.0,406.0,17.0,1061.0,2520.0,1047.0,23.0
2.190000057220459,6.0,6.0,13.0,446.0,3424.0,1627.0,619.0
2.191516637802124,23.0,5.0,9.0,31.0,3326.0,1451.0,708.0
2.193033218383789,0.0,42.0,716.0,11.0,3227.0,1169.0,553.0
2.194550037384033,15.0,33.0,641.0,24.0,1676.0,888.0,397.0
2.1960666179656982,31.0,24.0,437.0,8.0,3405.0,797.0,676.0
2.1975834369659424,21.0,33.0,244.0,165.0,2621.0,2016.0,1034.0
2.1991167068481445,35.0,15.0,52.0,322.0,1837.0,1969.0,15.0
2.2006165981292725,5.0,1168.0,10.0,174.0,1013.0,1921.0,20.0
2.2021334171295166,28.0,1060.0,43.0,25.0,5937.0,604.0,1026.0
2.20371675491333,12.0,1063.0,219.0,466.0,5248.0,2066.0,41.0
2.205233335494995,13.0,30.0,113.0,267.0,758.0,645.0,97.0
2.20674991607666,13.0,31.0,7.0,68.0,3285.0,635.0,946.0
2.2082667350769043,10.0,132.0,11.0,30.0,4499.0,971.0,485.0
2.2097833156585693,6.0,16.0,14.0,23.0,1972.0,1939.0,26.0
2.2112998962402344,5.0,5.0,14.0,498.0,2121.0,2614.0,27.0
2.2128167152404785,18.0,5.0,10.0,956.0,1815.0,30.0,0.0
2.2143332958221436,16.0,5.0,26.0,484.0,1127.0,170.0,555.0
2.2158501148223877,16.0,39.0,25.0,12.0,2736.0,2208.0,435.0
2.2173666954040527,8.0,29.0,23.0,296.0,532.0,401.0,564.0
2.2188832759857178,0.0,20.0,15.0,579.0,376.0,1088.0,694.0
2.2204666137695312,15.0,16.0,20.0,11.0,1584.0,20.0,15.0
2.2219834327697754,29.0,12.0,25.0,771.0,298.0,49.0,28.0
2.2235000133514404,21.0,18.0,13.0,1189.0,301.0,291.0,839.0
2.2250165939331055,21.0,16.0,0.0,5.0,569.0,149.0,18.0
2.2265334129333496,21.0,14.0,27.0,5.0,291.0,7.0,8.0
2.2280499935150146,9.0,18.0,6.0,0.0,14.0,28.0,4.0
2.2295665740966797,52.0,19.0,48.0,0.0,22.0,341.0,0.0
2.231083393096924,53.0,20.0,75.0,5.0,29.0,170.0,16.0
2.232599973678589,54.0,16.0,40.0,7.0,330.0,0.0,8.0
2.234116554260254,29.0,12.0,5.0,8.0,630.0,47.0,0.0
2.235633373260498,10.0,0.0,12.0,27.0,504.0,36.0,33.0
2.2372000217437744,23.0,5.0,22.0,53.0,157.0,24.0,19.0
2.2387166023254395,22.0,3.0,25.0,38.0,725.0,10.0,5.0
2.2402334213256836,21.0,0.0,18.0,25.0,419.0,27.0,19.0
2.2417666912078857,28.0,25.0,23.0,44.0,213.0,27.0,28.0
2.2432665824890137,36.0,19.0,0.0,0.0,6.0,15.0,27.0
2.244783401489258,8.0,12.0,27.0,30.0,14.0,31.0,25.0
2.246299982070923,21.0,5.0,25.0,66.0,10.0,5.0,14.0
2.247816562652588,17.0,11.0,34.0,45.0,23.0,36.0,23.0
2.249333381652832,12.0,30.0,30.0,12.0,34.0,23.0,25.0
2.250866651535034,6.0,18.0,26.0,0.0,45.0,7.0,27.0
2.252366781234741,10.0,5.0,19.0,664.0,7.0,30.0,5.0
2.2539501190185547,17.0,31.0,583.0,332.0,10.0,0.0,13.0
2.2554666996002197,23.0,15.0,295.0,0.0,13.0,25.0,21.0
2.2569832801818848,21.0,26.0,7.0,6.0,25.0,18.0,23.0
2.258500099182129,7.0,36.0,20.0,65.0,12.0,24.0,12.0
2.260016679763794,19.0,410.0,17.0,11.0,0.0,11.0,0.0
2.261533260345459,30.0,555.0,31.0,20.0,29.0,17.0,11.0
2.263050079345703,31.0,700.0,34.0,0.0,22.0,12.0,0.0
2.264566659927368,24.0,639.0,10.0,28.0,15.0,7.0,0.0
2.266083240509033,16.0,667.0,5.0,22.0,15.0,30.0,5.0
2.2676000595092773,31.0,1179.0,29.0,23.0,15.0,19.0,16.0
2.2691166400909424,5.0,0.0,23.0,36.0,12.0,7.0,12.0
2.2706665992736816,3.0,1022.0,17.0,33.0,14.0,17.0,7.0
2.272216558456421,0.0,860.0,29.0,29.0,15.0,26.0,18.0
2.273733377456665,17.0,1561.0,42.0,34.0,33.0,36.0,28.0
2.27524995803833,13.0,1015.0,5.0,15.0,29.0,46.0,37.0
2.276766777038574,9.0,291.0,0.0,651.0,934.0,31.0,31.0
2.2782833576202393,19.0,1097.0,44.0,499.0,871.0,17.0,25.0
2.2797999382019043,28.0,828.0,24.0,18.0,15.0,0.0,26.0
2.2813167572021484,71.0,559.0,5.0,22.0,34.0,17.0,25.0
2.2828333377838135,89.0,1510.0,17.0,5.0,0.0,16.0,0.0
2.2843499183654785,18.0,43.0,22.0,36.0,41.0,14.0,36.0
2.2858667373657227,15.0,21.0,23.0,36.0,64.0,15.0,38.0
2.2873833179473877,14.0,15.0,23.0,25.0,88.0,16.0,10.0
2.288949966430664,17.0,16.0,39.0,14.0,57.0,0.0,9.0
2.290466785430908,19.0,16.0,24.0,34.0,52.0,21.0,23.0
2.2919833660125732,0.0,2317.0,8.0,7.0,47.0,23.0,18.0
2.2935166358947754,21.0,1523.0,20.0,30.0,5.0,22.0,12.0
2.2950332164764404,30.0,730.0,20.0,21.0,5.0,20.0,34.0
2.2965500354766846,40.0,46.0,16.0,12.0,28.0,22.0,35.0
2.2980666160583496,33.0,519.0,6.0,10.0,10.0,24.0,32.0
2.2995834350585938,5.0,1290.0,32.0,5.0,29.0,0.0,29.0
2.302833318710327,0.0,852.0,25.0,13.0,48.0,7.0,18.0
2.3060998916625977,19.0,414.0,26.0,27.0,24.0,13.0,11.0
2.30935001373291,29.0,42.0,27.0,70.0,0.0,21.0,11.0
2.3125998973846436,18.0,303.0,27.0,57.0,13.0,28.0,24.0
2.315850019454956,12.0,338.0,0.0,44.0,25.0,0.0,23.0
2.3190999031066895,5.0,374.0,14.0,35.0,16.0,0.0,24.0
2.3224167823791504,5.0,19.0,38.0,29.0,15.0,0.0,19.0
2.325666666030884,5.0,1710.0,27.0,7.0,22.0,0.0,13.0
2.328916549682617,5.0,2060.0,34.0,0.0,12.0,0.0,24.0
2.3321666717529297,17.0,22.0,39.0,51.0,23.0,0.0,18.0
2.335416555404663,8.0,25.0,5.0,63.0,17.0,6.0,28.0
2.338733434677124,0.0,455.0,34.0,12.0,16.0,11.0,20.0
2.3419833183288574,12.0,13.0,18.0,0.0,14.0,16.0,12.0
2.34523344039917,15.0,5.0,24.0,18.0,22.0,19.0,37.0
2.3484833240509033,17.0,26.0,17.0,5.0,15.0,18.0,21.0
2.351733446121216,11.0,21.0,11.0,26.0,8.0,17.0,5.0
2.354983329772949,26.0,16.0,5.0,33.0,17.0,31.0,31.0
2.358266592025757,22.0,8.0,19.0,27.0,25.0,45.0,0.0
2.3615167140960693,27.0,0.0,38.0,10.0,27.0,55.0,16.0
2.3647665977478027,24.0,7.0,35.0,0.0,27.0,37.0,20.0
2.3680167198181152,18.0,13.0,32.0,17.0,20.0,40.0,0.0
2.3712666034698486,26.0,25.0,34.0,15.0,22.0,25.0,11.0
2.3745665550231934,19.0,18.0,42.0,25.0,14.0,10.0,22.0
2.377816677093506,19.0,10.0,34.0,13.0,6.0,13.0,9.0
2.3810665607452393,19.0,21.0,26.0,0.0,42.0,28.0,13.0
2.3843166828155518,10.0,31.0,5.0,6.0,36.0,27.0,16.0
2.387566566467285,0.0,22.0,0.0,19.0,30.0,25.0,29.0
2.390883445739746,0.0,13.0,10.0,16.0,28.0,28.0,15.0
2.3941333293914795,6.0,40.0,29.0,44.0,17.0,31.0,0.0
2.397383451461792,12.0,26.0,37.0,40.0,6.0,5.0,38.0
2.4006333351135254,11.0,48.0,33.0,34.0,25.0,21.0,7.0
2.403883218765259,10.0,12.0,28.0,21.0,33.0,15.0,39.0
2.4072000980377197,15.0,5.0,0.0,39.0,25.0,10.0,13.0
2.410449981689453,23.0,28.0,18.0,18.0,21.0,5.0,37.0
2.4137001037597656,14.0,20.0,15.0,11.0,10.0,22.0,46.0
2.416949987411499,5.0,0.0,12.0,24.0,24.0,15.0,22.0
2.4202001094818115,3.0,29.0,13.0,19.0,40.0,9.0,19.0
2.4235000610351562,0.0,19.0,22.0,7.0,38.0,49.0,28.0
2.4267666339874268,3.0,10.0,11.0,16.0,30.0,43.0,22.0
2.4300167560577393,1.0,0.0,0.0,24.0,19.0,38.0,5.0
2.4332666397094727,0.0,17.0,5.0,5.0,28.0,15.0,29.0
2.436516761779785,5.0,18.0,3.0,5.0,20.0,23.0,28.0
2.4398000240325928,5.0,12.0,0.0,21.0,11.0,12.0,26.0
2.4430832862854004,5.0,27.0,17.0,16.0,22.0,11.0,27.0
2.446333408355713,12.0,38.0,23.0,11.0,27.0,14.0,27.0
2.4495832920074463,19.0,49.0,28.0,18.0,31.0,13.0,0.0
2.452833414077759,20.0,27.0,5.0,25.0,21.0,11.0,36.0
2.456083297729492,11.0,5.0,31.0,35.0,10.0,6.0,15.0
2.459350109100342,13.0,7.0,25.0,31.0,6.0,0.0,17.0
2.462599992752075,14.0,41.0,18.0,27.0,19.0,33.0,10.0
2.4658501148223877,6.0,26.0,20.0,30.0,16.0,29.0,18.0
2.469099998474121,6.0,5.0,22.0,33.0,12.0,5.0,13.0
2.4723498821258545,27.0,0.0,12.0,27.0,0.0,0.0,9.0
2.4756667613983154,21.0,0.0,30.0,20.0,8.0,30.0,8.0
2.478916645050049,14.0,25.0,5.0,0.0,18.0,13.0,7.0
2.4821667671203613,11.0,31.0,11.0,17.0,10.0,35.0,21.0
2.4854166507720947,8.0,0.0,15.0,5.0,5.0,31.0,51.0
2.4886667728424072,7.0,0.0,22.0,14.0,13.0,46.0,28.0
2.491983413696289,5.0,34.0,0.0,19.0,20.0,11.0,5.0
2.4952332973480225,0.0,36.0,22.0,19.0,24.0,36.0,12.0
2.498483419418335,43.0,15.0,33.0,20.0,17.0,12.0,30.0
2.5017333030700684,43.0,33.0,19.0,20.0,10.0,23.0,20.0
2.504983425140381,0.0,50.0,5.0,15.0,19.0,16.0,20.0
2.5083000659942627,13.0,33.0,0.0,10.0,0.0,22.0,20.0
2.511549949645996,11.0,8.0,8.0,5.0,14.0,25.0,11.0
2.5148000717163086,13.0,16.0,14.0,0.0,25.0,32.0,19.0
2.518049955368042,15.0,12.0,16.0,9.0,17.0,19.0,27.0
2.5213000774383545,17.0,7.0,18.0,17.0,45.0,6.0,0.0
2.5246167182922363,18.0,18.0,17.0,19.0,72.0,33.0,20.0
2.5278666019439697,21.0,17.0,0.0,0.0,64.0,17.0,0.0
2.5311167240142822,23.0,16.0,14.0,17.0,0.0,28.0,14.0
2.5343666076660156,32.0,15.0,27.0,23.0,35.0,25.0,18.0
2.537616729736328,5.0,20.0,31.0,29.0,48.0,39.0,13.0
2.5408666133880615,13.0,34.0,0.0,27.0,12.0,0.0,8.0
2.5441832542419434,21.0,33.0,25.0,17.0,17.0,7.0,8.0
2.547433376312256,28.0,32.0,10.0,17.0,10.0,20.0,48.0
2.5506832599639893,17.0,31.0,18.0,0.0,5.0,24.0,59.0
2.5539333820343018,5.0,0.0,13.0,50.0,0.0,16.0,13.0
2.557183265686035,48.0,30.0,15.0,27.0,18.0,9.0,16.0
2.56048321723938,48.0,25.0,19.0,5.0,21.0,22.0,25.0
2.5637333393096924,31.0,11.0,19.0,14.0,13.0,14.0,37.0
2.566983222961426,7.0,10.0,0.0,11.0,5.0,19.0,36.0
2.5702333450317383,33.0,9.0,13.0,12.0,13.0,0.0,36.0
2.5734832286834717,41.0,8.0,25.0,17.0,10.0,18.0,23.0
2.5768001079559326,25.0,13.0,17.0,17.0,9.0,14.0,17.0
2.580049991607666,16.0,15.0,34.0,0.0,7.0,10.0,25.0
2.5833165645599365,0.0,13.0,27.0,0.0,30.0,8.0,19.0
2.586566686630249,20.0,10.0,43.0,28.0,22.0,5.0,19.0
2.5898165702819824,7.0,11.0,11.0,40.0,13.0,12.0,6.0
2.5931167602539062,0.0,6.0,31.0,42.0,29.0,13.0,30.0
2.5963666439056396,0.0,0.0,31.0,12.0,28.0,13.0,21.0
2.599616765975952,7.0,16.0,72.0,45.0,17.0,34.0,46.0
2.6028666496276855,14.0,11.0,61.0,29.0,5.0,29.0,25.0
2.606116771697998,11.0,14.0,77.0,8.0,18.0,13.0,5.0
2.60943341255188,7.0,16.0,20.0,0.0,12.0,24.0,11.0
2.6126832962036133,0.0,10.0,0.0,44.0,9.0,34.0,10.0
2.615933418273926,0.0,23.0,16.0,43.0,5.0,23.0,0.0
2.619183301925659,0.0,27.0,0.0,48.0,15.0,12.0,11.0
2.6224334239959717,0.0,0.0,15.0,42.0,24.0,29.0,15.0
2.625683307647705,3.0,38.0,19.0,10.0,21.0,31.0,18.0
2.628999948501587,5.0,0.0,15.0,21.0,17.0,28.0,28.0
2.6322500705718994,17.0,0.0,10.0,21.0,13.0,24.0,20.0
2.635499954223633,61.0,24.0,5.0,21.0,18.0,24.0,12.0
2.6387500762939453,46.0,24.0,0.0,17.0,32.0,48.0,33.0
2.6419999599456787,32.0,8.0,10.0,13.0,47.0,37.0,0.0
2.6452832221984863,18.0,0.0,0.0,26.0,38.0,26.0,46.0
2.648533344268799,0.0,5.0,5.0,40.0,30.0,5.0,28.0
2.6517832279205322,29.0,5.0,10.0,22.0,22.0,13.0,18.0
2.6550333499908447,40.0,5.0,31.0,5.0,25.0,10.0,48.0
2.658283233642578,51.0,6.0,50.0,13.0,10.0,6.0,48.0
2.661566734313965,39.0,17.0,33.0,14.0,11.0,29.0,20.0
2.6648166179656982,15.0,20.0,12.0,15.0,57.0,35.0,18.0
2.6680667400360107,55.0,23.0,5.0,19.0,71.0,0.0,15.0
2.671316623687744,25.0,17.0,26.0,28.0,28.0,0.0,12.0
2.6745834350585938,36.0,33.0,7.0,24.0,27.0,44.0,13.0
2.6778500080108643,15.0,6.0,27.0,20.0,25.0,7.0,14.0
2.6810998916625977,25.0,33.0,0.0,35.0,6.0,24.0,13.0
2.68435001373291,36.0,10.0,7.0,5.0,10.0,33.0,11.0
2.6875998973846436,7.0,18.0,0.0,11.0,5.0,43.0,17.0
2.690850019454956,12.0,10.0,0.0,24.0,0.0,6.0,23.0
2.694166660308838,10.0,0.0,11.0,18.0,8.0,18.0,27.0
2.6974167823791504,21.0,24.0,22.0,11.0,16.0,20.0,15.0
2.700666666030884,17.0,12.0,65.0,47.0,23.0,17.0,6.0
2.703916549682617,13.0,34.0,48.0,56.0,29.0,14.0,18.0
2.7071666717529297,6.0,44.0,0.0,65.0,38.0,5.0,13.0
2.7104666233062744,6.0,47.0,14.0,0.0,10.0,60.0,8.0
2.713733434677124,6.0,10.0,0.0,0.0,34.0,41.0,5.0
2.7169833183288574,19.0,33.0,30.0,12.0,6.0,21.0,0.0
2.72023344039917,33.0,18.0,20.0,38.0,23.0,0.0,24.0
2.7234833240509033,32.0,0.0,6.0,27.0,20.0,5.0,21.0
2.726749897003174,20.0,8.0,50.0,17.0,0.0,9.0,33.0
2.7300500869750977,5.0,15.0,36.0,24.0,37.0,13.0,26.0
2.733299970626831,13.0,11.0,21.0,31.0,20.0,26.0,39.0
2.7365500926971436,22.0,14.0,43.0,6.0,6.0,20.0,11.0
2.739799976348877,31.0,25.0,5.0,9.0,23.0,13.0,19.0
2.7430500984191895,27.0,38.0,34.0,39.0,0.0,24.0,12.0
2.7463667392730713,23.0,21.0,31.0,48.0,30.0,10.0,10.0
2.7496166229248047,0.0,5.0,28.0,24.0,16.0,0.0,7.0
2.752866744995117,8.0,5.0,10.0,37.0,22.0,5.0,11.0
2.7561166286468506,17.0,27.0,22.0,37.0,27.0,0.0,8.0
2.759366750717163,20.0,23.0,23.0,10.0,14.0,27.0,6.0
2.762683391571045,28.0,19.0,24.0,14.0,0.0,43.0,5.0
2.7659332752227783,26.0,12.0,27.0,28.0,23.0,51.0,6.0
2.769183397293091,23.0,6.0,29.0,36.0,19.0,57.0,6.0
2.772433280944824,26.0,0.0,25.0,29.0,11.0,27.0,6.0
2.7756834030151367,25.0,10.0,20.0,21.0,29.0,37.0,12.0
2.7789833545684814,24.0,5.0,17.0,13.0,41.0,35.0,17.0
2.782233238220215,29.0,0.0,20.0,26.0,0.0,28.0,16.0
2.7854833602905273,0.0,0.0,0.0,5.0,0.0,21.0,15.0
2.7887332439422607,32.0,0.0,25.0,14.0,14.0,26.0,24.0
2.7919833660125732,64.0,29.0,39.0,22.0,7.0,31.0,33.0
2.795266628265381,44.0,22.0,9.0,18.0,5.0,24.0,24.0
2.7985498905181885,12.0,14.0,5.0,13.0,11.0,44.0,15.0
2.801800012588501,33.0,7.0,21.0,59.0,5.0,8.0,10.0
2.8050498962402344,140.0,0.0,11.0,60.0,12.0,0.0,67.0
2.808300018310547,89.0,21.0,36.0,35.0,17.0,42.0,49.0
2.8115499019622803,39.0,13.0,23.0,17.0,21.0,18.0,31.0
2.81481671333313,20.0,6.0,10.0,56.0,0.0,0.0,31.0
2.8180665969848633,30.0,16.0,18.0,0.0,11.0,798.0,31.0
2.821316719055176,18.0,14.0,18.0,0.0,10.0,969.0,24.0
2.824566602706909,12.0,51.0,17.0,20.0,8.0,40.0,12.0
2.827833414077759,6.0,42.0,168.0,0.0,51.0,0.0,9.0
2.8311333656311035,31.0,34.0,102.0,11.0,28.0,11.0,17.0
2.834383249282837,18.0,28.0,37.0,11.0,5.0,24.0,18.0
2.8376333713531494,5.0,22.0,0.0,11.0,38.0,0.0,14.0
2.840883255004883,37.0,0.0,25.0,15.0,35.0,0.0,20.0
2.8441333770751953,7.0,3.0,19.0,19.0,32.0,40.0,10.0
2.847450017929077,36.0,5.0,15.0,37.0,19.0,20.0,0.0
2.8506999015808105,22.0,5.0,23.0,34.0,48.0,40.0,20.0
2.853950023651123,7.0,5.0,0.0,31.0,10.0,31.0,10.0
2.8571999073028564,13.0,13.0,20.0,6.0,18.0,16.0,5.0
2.860450029373169,22.0,25.0,30.0,34.0,25.0,0.0,8.0
2.8637166023254395,864.0,13.0,40.0,62.0,25.0,0.0,11.0
2.866966724395752,828.0,0.0,17.0,48.0,8.0,17.0,15.0
2.8702166080474854,7.0,6.0,15.0,44.0,14.0,17.0,14.0
2.873466730117798,35.0,21.0,19.0,34.0,19.0,16.0,14.0
2.8767166137695312,44.0,20.0,0.0,24.0,15.0,19.0,13.0
2.880033254623413,24.0,15.0,14.0,10.0,10.0,18.0,0.0
2.8832833766937256,18.0,0.0,51.0,8.0,9.0,17.0,8.0
2.886533260345459,11.0,14.0,54.0,15.0,7.0,17.0,15.0
2.8897833824157715,23.0,23.0,30.0,22.0,38.0,9.0,5.0
2.893033266067505,5.0,24.0,24.0,24.0,27.0,0.0,0.0
2.8962833881378174,8.0,24.0,26.0,25.0,15.0,13.0,19.0
2.899600028991699,11.0,24.0,35.0,0.0,15.0,22.0,16.0
2.9028499126434326,12.0,24.0,30.0,23.0,7.0,40.0,12.0
2.906100034713745,13.0,22.0,18.0,20.0,0.0,26.0,0.0
2.9093499183654785,36.0,20.0,12.0,17.0,13.0,25.0,7.0
2.912600040435791,33.0,28.0,14.0,6.0,0.0,32.0,13.0
2.915916681289673,12.0,17.0,7.0,22.0,0.0,27.0,5.0
2.9191665649414062,7.0,34.0,15.0,33.0,0.0,29.0,11.0
2.9224166870117188,15.0,41.0,25.0,44.0,0.0,31.0,25.0
2.925666570663452,14.0,19.0,15.0,13.0,0.0,17.0,17.0
2.9289166927337646,12.0,13.0,5.0,25.0,13.0,46.0,8.0
2.9322166442871094,17.0,7.0,31.0,41.0,12.0,0.0,0.0
2.935466766357422,21.0,10.0,5.0,22.0,11.0,19.0,24.0
2.9387166500091553,35.0,12.0,18.0,18.0,6.0,39.0,13.0
2.9419667720794678,39.0,11.0,30.0,0.0,0.0,25.0,50.0
2.945216655731201,39.0,10.0,23.0,10.0,23.0,11.0,37.0
2.948533296585083,40.0,18.0,16.0,28.0,29.0,39.0,0.0
2.9517834186553955,15.0,12.0,19.0,22.0,12.0,5.0,16.0
2.955033302307129,23.0,5.0,12.0,8.0,34.0,0.0,20.0
2.9582834243774414,0.0,24.0,0.0,54.0,25.0,26.0,18.0
2.961533308029175,27.0,32.0,3.0,49.0,22.0,7.0,16.0
2.9648499488830566,31.0,19.0,5.0,21.0,19.0,14.0,17.0
2.968100070953369,35.0,13.0,5.0,34.0,0.0,23.0,5.0
2.9713499546051025,46.0,19.0,5.0,21.0,5.0,14.0,43.0
2.974600076675415,9.0,6.0,12.0,32.0,19.0,16.0,32.0
2.9778499603271484,33.0,17.0,18.0,22.0,5.0,17.0,22.0
2.981100082397461,42.0,11.0,22.0,13.0,0.0,21.0,31.0
2.9844167232513428,34.0,5.0,11.0,13.0,3.0,25.0,0.0
2.987666606903076,24.0,6.0,26.0,5.0,6.0,23.0,7.0
2.9909167289733887,20.0,3.0,6.0,6.0,11.0,17.0,18.0
2.994166612625122,15.0,0.0,20.0,7.0,15.0,11.0,5.0
