,301.2099914550781,302.2099914550781,303.2099914550781,304.2099914550781,305.2099914550781,306.2099914550781,307.2099914550781,308.2099914550781
5.202216625213623,34.0,51.0,2497.0,13.0,808.0,8.0,26.0,49.0
5.204383373260498,37.0,57.0,2130.0,250.0,34.0,34.0,5.0,969.0
5.207849979400635,44.0,42.0,3959.0,16.0,0.0,16.0,0.0,28.0
5.2113165855407715,14.0,45.0,343.0,31.0,28.0,15.0,14.0,10.0
5.214783191680908,11.0,12.0,13.0,40.0,46.0,14.0,28.0,54.0
5.218249797821045,16.0,16.0,1519.0,49.0,7.0,13.0,29.0,21.0
5.22178316116333,22.0,50.0,940.0,204.0,7.0,0.0,31.0,68.0
5.225249767303467,28.0,14.0,362.0,108.0,0.0,428.0,37.0,19.0
5.228716850280762,34.0,33.0,781.0,12.0,6.0,650.0,39.0,26.0
5.232183456420898,33.0,6.0,1199.0,28.0,34.0,364.0,12.0,18.0
5.235650062561035,29.0,5.0,965.0,5.0,34.0,27.0,17.0,38.0
5.239150047302246,26.0,15.0,980.0,17.0,29.0,13.0,24.0,59.0
5.242616653442383,20.0,13.0,431.0,19.0,16.0,16.0,15.0,52.0
5.2460832595825195,10.0,12.0,1148.0,21.0,38.0,19.0,44.0,5.0
5.249549865722656,0.0,0.0,15.0,24.0,38.0,63.0,48.0,48.0
5.253066539764404,42.0,9.0,5.0,22.0,38.0,56.0,44.0,7.0
5.256533145904541,1408.0,18.0,758.0,37.0,16.0,33.0,37.0,15.0
5.260000228881836,1376.0,39.0,781.0,53.0,43.0,10.0,31.0,8.0
5.263466835021973,872.0,36.0,398.0,53.0,34.0,0.0,72.0,6.0
5.266933441162109,16.0,23.0,16.0,0.0,25.0,16.0,1199.0,10.0
5.2704668045043945,0.0,29.0,16.0,36.0,14.0,32.0,1164.0,12.0
5.273933410644531,11.0,27.0,17.0,20.0,17.0,25.0,22.0,15.0
5.277400016784668,16.0,26.0,22.0,5.0,21.0,0.0,994.0,11.0
5.280866622924805,58.0,22.0,35.0,22.0,14.0,261.0,59.0,43.0
5.284333229064941,51.0,37.0,48.0,5.0,8.0,136.0,103.0,37.0
5.287866592407227,24.0,9.0,61.0,9.0,59.0,11.0,19.0,36.0
5.291333198547363,6.0,5.0,540.0,14.0,45.0,31.0,0.0,36.0
5.2947998046875,61.0,20.0,285.0,31.0,31.0,51.0,17.0,26.0
5.298266887664795,17.0,35.0,30.0,63.0,34.0,19.0,50.0,31.0
5.301733493804932,5.0,38.0,30.0,44.0,26.0,827.0,32.0,5.0
5.3052167892456055,11.0,24.0,30.0,26.0,19.0,435.0,15.0,16.0
5.308683395385742,5.0,10.0,32.0,32.0,9.0,43.0,756.0,41.0
5.312150001525879,0.0,11.0,32.0,12.0,27.0,25.0,408.0,34.0
5.315616607666016,12.0,5.0,32.0,24.0,47.0,0.0,60.0,10.0
5.319083213806152,10.0,0.0,31.0,20.0,67.0,44.0,8.0,13.0
5.3226165771484375,372.0,63.0,30.0,20.0,73.0,6.0,31.0,13.0
5.326083183288574,1846.0,73.0,20.0,20.0,15.0,5.0,19.0,16.0
5.329549789428711,1803.0,0.0,10.0,23.0,15.0,5.0,27.0,20.0
5.333016872406006,27.0,5.0,22.0,23.0,63.0,17.0,32.0,22.0
5.336483478546143,18.0,8.0,20.0,24.0,37.0,38.0,38.0,24.0
5.340016841888428,35.0,11.0,18.0,12.0,12.0,60.0,26.0,22.0
5.3434834480285645,47.0,20.0,18.0,0.0,46.0,45.0,15.0,24.0
5.346950054168701,60.0,51.0,19.0,29.0,25.0,73.0,20.0,10.0
5.350416660308838,49.0,55.0,21.0,29.0,5.0,60.0,33.0,31.0
5.353883266448975,34.0,604.0,24.0,30.0,5.0,1003.0,608.0,33.0
5.35741662979126,38.0,1574.0,4242.0,2110.0,985.0,1395.0,1182.0,35.0
5.3608832359313965,51.0,1918.0,8162.0,12688.0,9760.0,9220.0,4161.0,1083.0
5.364349842071533,15.0,10168.0,21892.0,24440.0,22028.0,11644.0,7027.0,890.0
5.36781644821167,105.0,24064.0,59232.0,75920.0,59440.0,40960.0,13944.0,4374.0
5.371333122253418,55.0,69504.0,137984.0,171712.0,124240.0,54256.0,25580.0,11332.0
5.374800205230713,5.0,117808.0,263232.0,310016.0,252160.0,133888.0,64720.0,12472.0
5.37826681137085,28.0,209536.0,489344.0,503680.0,393280.0,215104.0,99984.0,19368.0
5.381733417510986,32.0,302016.0,729856.0,792064.0,593664.0,312640.0,136064.0,33792.0
5.385200023651123,36.0,398016.0,922880.0,1092096.0,776960.0,393792.0,177792.0,35280.0
5.388733386993408,11.0,495680.0,1137664.0,1325824.0,1000448.0,515520.0,219072.0,45392.0
5.392199993133545,48.0,649216.0,1323264.0,1426432.0,1060864.0,585728.0,244288.0,37840.0
5.395666599273682,82.0,619264.0,1518592.0,1573120.0,1262848.0,675072.0,264192.0,38768.0
5.399133205413818,69.0,695296.0,1576960.0,1824768.0,1332736.0,701952.0,270400.0,39680.0
5.402599811553955,1500.0,818176.0,1595648.0,1739264.0,1247232.0,729856.0,251456.0,53824.0
5.40613317489624,1158.0,764672.0,1634560.0,1754368.0,1356032.0,716544.0,279040.0,60864.0
5.409599781036377,1386.0,754176.0,1613824.0,1812224.0,1313024.0,732928.0,287360.0,48464.0
5.413066864013672,607.0,784640.0,1593088.0,1758720.0,1270016.0,692224.0,295680.0,43872.0
5.416533470153809,27.0,730624.0,1483008.0,1683200.0,1248256.0,660736.0,263552.0,55184.0
5.420000076293945,61.0,647680.0,1420032.0,1427968.0,1073920.0,616960.0,216640.0,50176.0
5.4235334396362305,55.0,546048.0,1225216.0,1344256.0,946432.0,569600.0,211264.0,38832.0
5.427000045776367,95.0,459520.0,1015296.0,1117184.0,811008.0,441984.0,156160.0,36400.0
5.430466651916504,73.0,395200.0,795648.0,862464.0,636928.0,305728.0,123088.0,28136.0
5.433933258056641,50.0,327552.0,745728.0,823296.0,541440.0,277632.0,123664.0,19024.0
5.437399864196777,42.0,301760.0,647680.0,615424.0,532736.0,265088.0,94128.0,22680.0
5.440916538238525,67.0,219392.0,539648.0,645632.0,422016.0,243008.0,93296.0,16364.0
5.444383144378662,77.0,249280.0,482240.0,566016.0,420800.0,222336.0,105120.0,19616.0
5.447850227355957,88.0,221120.0,440384.0,432704.0,363712.0,171392.0,86624.0,23920.0
5.451316833496094,132.0,214208.0,465216.0,481600.0,324096.0,173568.0,58672.0,19720.0
5.4547834396362305,100.0,170240.0,446912.0,442944.0,360896.0,176256.0,66448.0,11424.0
5.458316802978516,69.0,178368.0,364480.0,393728.0,298432.0,164480.0,60592.0,17728.0
5.461783409118652,85.0,154112.0,337856.0,383808.0,298816.0,172736.0,66688.0,10332.0
5.465250015258789,70.0,132480.0,330176.0,365632.0,280704.0,172288.0,60032.0,14192.0
5.468716621398926,55.0,149632.0,365888.0,331392.0,260352.0,137920.0,61280.0,10196.0
5.4721832275390625,132.0,137664.0,288000.0,327936.0,256256.0,130656.0,56992.0,11528.0
5.475716590881348,109.0,136384.0,310784.0,325056.0,246272.0,119872.0,52640.0,8724.0
5.479183197021484,87.0,137152.0,310144.0,330048.0,272640.0,131456.0,53264.0,9732.0
5.482649803161621,68.0,133504.0,280000.0,352960.0,268736.0,150400.0,53872.0,10740.0
5.486116886138916,49.0,135040.0,331904.0,350208.0,241472.0,145536.0,50928.0,5324.0
5.489583492279053,32.0,136576.0,304064.0,332224.0,273600.0,145856.0,52576.0,8628.0
5.493116855621338,38.0,134336.0,307456.0,354176.0,272320.0,150336.0,52192.0,8492.0
5.496583461761475,70.0,132160.0,298240.0,307520.0,245248.0,132800.0,50864.0,5931.0
5.500050067901611,70.0,123888.0,268352.0,292032.0,250688.0,132288.0,49536.0,5227.0
5.503516674041748,28.0,139456.0,314112.0,313088.0,236288.0,116224.0,52480.0,6921.0
5.507033348083496,52.0,139264.0,294400.0,281600.0,240896.0,115232.0,43104.0,10308.0
5.510499954223633,76.0,113664.0,242176.0,280064.0,204288.0,111360.0,45056.0,9596.0
5.5139665603637695,77.0,122240.0,263168.0,253120.0,210752.0,111952.0,34080.0,4831.0
5.517433166503906,72.0,91088.0,196352.0,244096.0,165760.0,92672.0,27272.0,4047.0
5.520899772644043,68.0,79168.0,197632.0,200128.0,136384.0,93936.0,29768.0,5673.0
5.524433135986328,54.0,93184.0,190592.0,190016.0,164096.0,81552.0,25068.0,3974.0
5.527900218963623,32.0,68544.0,175872.0,178688.0,156928.0,84560.0,29864.0,2276.0
5.53136682510376,48.0,81824.0,172480.0,207808.0,196352.0,116064.0,40160.0,10508.0
5.5348334312438965,55.0,104192.0,248448.0,348160.0,310208.0,182848.0,51248.0,15120.0
5.538300037384033,62.0,126288.0,365824.0,471808.0,425600.0,254464.0,81952.0,20640.0
5.541833400726318,61.0,179008.0,470912.0,672512.0,614400.0,321536.0,100160.0,16524.0
5.545300006866455,65.0,312704.0,705280.0,971008.0,855808.0,458048.0,173760.0,29036.0
5.548766613006592,69.0,342144.0,906240.0,1362688.0,1161984.0,577792.0,218432.0,38576.0
5.5522332191467285,56.0,405888.0,1105152.0,1402112.0,1201664.0,702976.0,284608.0,57808.0
5.555699825286865,43.0,502912.0,1255936.0,1913088.0,1553664.0,870144.0,326592.0,66768.0
5.559199810028076,99.0,522112.0,1388800.0,2007808.0,1653504.0,1006592.0,304064.0,66144.0
5.562666893005371,155.0,598528.0,1536256.0,2100224.0,1733376.0,929280.0,337280.0,62736.0
5.566133499145508,112.0,615680.0,1522432.0,2267136.0,1803264.0,1073408.0,352832.0,67664.0
5.5696001052856445,69.0,658432.0,1701632.0,2368512.0,2058496.0,1103360.0,349504.0,60624.0
5.573066711425781,24.0,625408.0,1700864.0,2545664.0,2091264.0,1124096.0,360256.0,69136.0
5.576550006866455,103.0,667392.0,1713152.0,2409472.0,2171904.0,1113600.0,355648.0,54624.0
5.580016613006592,98.0,698368.0,1669888.0,2344960.0,2022144.0,1103360.0,350976.0,67216.0
5.5834832191467285,94.0,711936.0,1658112.0,2397184.0,1994496.0,1107200.0,342272.0,72288.0
5.586949825286865,102.0,604416.0,1646080.0,2296832.0,1952512.0,1067008.0,327936.0,55712.0
5.590416431427002,140.0,616960.0,1570816.0,2148352.0,1798912.0,1036544.0,355712.0,61840.0
5.593949794769287,27.0,659968.0,1600000.0,2106368.0,1759232.0,1039360.0,311552.0,51840.0
