,317.1099853515625,318.1099853515625,319.1099853515625,320.1099853515625,321.1099853515625,322.1099853515625,323.1099853515625
0.6015166640281677,19.0,18.0,15.0,15.0,37.0,76.0,21.0
0.6030333042144775,5.0,13.0,18.0,23.0,18.0,31.0,26.0
0.6045500040054321,29.0,17.0,6.0,34.0,0.0,32.0,21.0
0.6060666441917419,26.0,0.0,15.0,21.0,22.0,10.0,0.0
0.6075833439826965,12.0,7.0,34.0,8.0,19.0,22.0,20.0
0.6090999841690063,17.0,13.0,26.0,5.0,15.0,5.0,5.0
0.6106166839599609,21.0,9.0,18.0,32.0,11.0,5.0,12.0
0.6121333241462708,10.0,5.0,9.0,26.0,7.0,40.0,18.0
0.6136500239372253,7.0,7.0,0.0,47.0,6.0,33.0,22.0
0.6151666641235352,23.0,8.0,0.0,37.0,5.0,12.0,5.0
0.616683304309845,15.0,36.0,0.0,24.0,17.0,0.0,18.0
0.6182666420936584,6.0,27.0,18.0,0.0,23.0,0.0,19.0
0.619783341884613,42.0,17.0,18.0,38.0,31.0,0.0,17.0
0.6212999820709229,53.0,11.0,22.0,16.0,32.0,10.0,0.0
0.6228166818618774,0.0,0.0,17.0,29.0,17.0,33.0,29.0
0.6243333220481873,24.0,22.0,0.0,11.0,6.0,33.0,26.0
0.6258500218391418,23.0,18.0,7.0,28.0,0.0,28.0,23.0
0.6273666620254517,8.0,14.0,9.0,24.0,42.0,17.0,0.0
0.6288833618164062,25.0,15.0,7.0,5.0,37.0,5.0,34.0
0.6304000020027161,24.0,5.0,5.0,11.0,7.0,12.0,7.0
0.6319166421890259,12.0,36.0,12.0,34.0,30.0,21.0,12.0
0.6334333419799805,0.0,30.0,0.0,17.0,16.0,10.0,10.0
0.635016679763794,26.0,29.0,17.0,0.0,28.0,28.0,0.0
0.6365333199501038,19.0,42.0,9.0,20.0,35.0,28.0,0.0
0.6380500197410583,20.0,6.0,0.0,5.0,0.0,27.0,14.0
0.6395666599273682,8.0,28.0,5.0,0.0,41.0,38.0,15.0
0.6410833597183228,13.0,9.0,32.0,16.0,0.0,14.0,10.0
0.6425999999046326,6.0,0.0,24.0,21.0,41.0,46.0,13.0
0.6441166400909424,11.0,16.0,16.0,16.0,9.0,21.0,16.0
0.645633339881897,15.0,11.0,28.0,10.0,10.0,77.0,15.0
0.6471499800682068,14.0,5.0,23.0,21.0,12.0,64.0,6.0
0.6486666798591614,13.0,5.0,18.0,29.0,8.0,50.0,0.0
0.6501833200454712,18.0,15.0,34.0,40.0,15.0,18.0,8.0
0.6517500281333923,0.0,11.0,32.0,32.0,5.0,18.0,7.0
0.6532666683197021,31.0,6.0,11.0,0.0,21.0,17.0,5.0
0.654783308506012,21.0,0.0,5.0,0.0,31.0,23.0,5.0
0.6563000082969666,6.0,14.0,11.0,39.0,41.0,21.0,5.0
0.6578166484832764,10.0,28.0,10.0,40.0,28.0,19.0,60.0
0.659333348274231,20.0,19.0,9.0,6.0,5.0,10.0,72.0
0.6608666777610779,13.0,5.0,5.0,5.0,7.0,0.0,0.0
0.6623666882514954,5.0,6.0,10.0,13.0,0.0,3.0,5.0
0.6638833284378052,30.0,19.0,14.0,12.0,5.0,5.0,5.0
0.6654000282287598,34.0,12.0,38.0,0.0,10.0,7.0,5.0
0.6669166684150696,5.0,5.0,43.0,16.0,5.0,8.0,3.0
0.6685000061988831,16.0,0.0,40.0,32.0,0.0,10.0,0.0
0.6700166463851929,5.0,5.0,46.0,43.0,14.0,12.0,35.0
0.6715333461761475,5.0,16.0,23.0,12.0,20.0,10.0,29.0
0.6730499863624573,5.0,8.0,41.0,10.0,25.0,7.0,13.0
0.6745666861534119,5.0,0.0,26.0,25.0,25.0,10.0,16.0
0.6760833263397217,27.0,25.0,13.0,16.0,25.0,0.0,0.0
0.6776000261306763,25.0,30.0,0.0,6.0,12.0,11.0,0.0
0.6791166663169861,22.0,0.0,29.0,11.0,0.0,31.0,0.0
0.6806333065032959,24.0,11.0,5.0,0.0,16.0,35.0,7.0
0.6821500062942505,7.0,10.0,11.0,5.0,0.0,40.0,13.0
0.6836666464805603,11.0,14.0,17.0,37.0,12.0,17.0,16.0
0.6852499842643738,15.0,17.0,15.0,21.0,6.0,27.0,5.0
0.6867666840553284,18.0,5.0,12.0,5.0,3.0,36.0,16.0
0.6882833242416382,21.0,20.0,10.0,39.0,0.0,0.0,15.0
0.6898000240325928,7.0,15.0,0.0,25.0,3.0,0.0,14.0
0.6913166642189026,4.0,0.0,9.0,0.0,5.0,24.0,14.0
0.6928333044052124,0.0,10.0,19.0,10.0,6.0,7.0,14.0
0.694350004196167,0.0,19.0,12.0,9.0,7.0,5.0,20.0
0.6958666443824768,3.0,0.0,5.0,8.0,513.0,15.0,19.0
0.6973833441734314,5.0,11.0,22.0,8.0,283.0,16.0,13.0
0.6988999843597412,34.0,21.0,15.0,0.0,54.0,17.0,0.0
0.7004166841506958,28.0,23.0,28.0,31.0,15.0,24.0,5.0
0.7019666433334351,14.0,51.0,40.0,19.0,5.0,31.0,14.0
0.703499972820282,0.0,52.0,33.0,7.0,21.0,30.0,22.0
0.7050166726112366,12.0,7.0,25.0,6.0,47.0,18.0,23.0
0.7065333127975464,23.0,10.0,35.0,5.0,40.0,0.0,24.0
0.708050012588501,23.0,21.0,29.0,10.0,19.0,24.0,18.0
0.7095666527748108,40.0,14.0,19.0,14.0,24.0,70.0,0.0
0.7110833525657654,30.0,6.0,13.0,15.0,29.0,43.0,5.0
0.7126166820526123,19.0,12.0,7.0,15.0,33.0,16.0,5.0
0.7141166925430298,5.0,5.0,27.0,17.0,30.0,23.0,31.0
0.7156333327293396,15.0,6.0,24.0,18.0,26.0,10.0,45.0
0.7171499729156494,20.0,6.0,22.0,6.0,0.0,11.0,27.0
0.718666672706604,14.0,5.0,20.0,17.0,473.0,15.0,27.0
0.7202500104904175,8.0,5.0,40.0,11.0,242.0,13.0,41.0
0.7217666506767273,20.0,19.0,42.0,5.0,11.0,16.0,10.0
0.7232833504676819,0.0,20.0,29.0,6.0,37.0,10.0,0.0
0.7247999906539917,27.0,21.0,30.0,7.0,29.0,21.0,48.0
0.7263166904449463,23.0,22.0,28.0,4.0,20.0,5.0,23.0
0.7278333306312561,19.0,23.0,10.0,0.0,13.0,12.0,10.0
0.7293499708175659,21.0,16.0,0.0,68.0,5.0,5.0,24.0
0.7308666706085205,14.0,18.0,26.0,44.0,18.0,14.0,20.0
0.7323833107948303,10.0,0.0,27.0,20.0,6.0,13.0,13.0
0.7339000105857849,21.0,0.0,16.0,15.0,6.0,11.0,6.0
0.7354166507720947,5.0,0.0,18.0,14.0,5.0,18.0,44.0
0.7369999885559082,24.0,19.0,11.0,7.0,5.0,26.0,46.0
0.7385166883468628,11.0,23.0,6.0,11.0,15.0,0.0,47.0
0.7400333285331726,14.0,26.0,0.0,14.0,13.0,0.0,48.0
0.7415500283241272,14.0,33.0,0.0,7.0,10.0,5.0,0.0
0.743066668510437,26.0,40.0,7.0,0.0,13.0,44.0,19.0
0.7445833086967468,23.0,9.0,13.0,10.0,19.0,33.0,0.0
0.7461000084877014,21.0,25.0,14.0,11.0,22.0,20.0,0.0
0.7476166486740112,5.0,23.0,14.0,11.0,23.0,16.0,3.0
0.7491333484649658,10.0,15.0,15.0,7.0,11.0,11.0,5.0
0.7506499886512756,8.0,7.0,15.0,11.0,6.0,20.0,8.0
0.7521666884422302,5.0,5.0,19.0,14.0,26.0,19.0,11.0
0.7537333369255066,43.0,75.0,7.0,21.0,24.0,22.0,13.0
0.7552499771118164,31.0,51.0,20.0,13.0,34.0,18.0,15.0
0.756766676902771,19.0,28.0,14.0,5.0,9.0,18.0,29.0
0.7582833170890808,26.0,36.0,18.0,46.0,5.0,17.0,30.0
0.7598000168800354,11.0,20.0,21.0,45.0,59.0,23.0,23.0
0.7613166570663452,10.0,11.0,13.0,14.0,46.0,23.0,6.0
0.7628333568572998,8.0,42.0,5.0,16.0,19.0,22.0,68.0
0.7643666863441467,13.0,11.0,10.0,21.0,14.0,23.0,72.0
0.7658833265304565,13.0,21.0,10.0,0.0,46.0,22.0,7.0
0.7674000263214111,20.0,10.0,5.0,15.0,11.0,20.0,17.0
0.768916666507721,16.0,9.0,7.0,19.0,28.0,45.0,23.0
0.7704499959945679,13.0,8.0,11.0,23.0,40.0,41.0,29.0
0.7719666957855225,0.0,7.0,14.0,0.0,0.0,29.0,25.0
0.7734833359718323,9.0,5.0,26.0,3.0,23.0,16.0,24.0
0.7749999761581421,18.0,10.0,30.0,6.0,25.0,25.0,23.0
0.7765166759490967,23.0,14.0,31.0,11.0,0.0,10.0,26.0
0.7780333161354065,0.0,7.0,25.0,24.0,12.0,22.0,29.0
0.7795500159263611,9.0,0.0,18.0,27.0,31.0,10.0,5.0
0.7810666561126709,21.0,9.0,11.0,33.0,17.0,15.0,11.0
0.7825833559036255,16.0,7.0,19.0,29.0,8.0,7.0,5.0
0.7840999960899353,14.0,5.0,20.0,24.0,11.0,22.0,8.0
0.7856166958808899,26.0,0.0,20.0,14.0,12.0,35.0,10.0
0.7871999740600586,38.0,21.0,5.0,20.0,12.0,18.0,22.0
0.7887166738510132,31.0,24.0,9.0,26.0,12.0,0.0,13.0
0.790233314037323,23.0,26.0,474.0,5.0,2672.0,0.0,5.0
0.7917500138282776,17.0,330.0,2813.0,5662.0,7607.0,504.0,282.0
0.7932666540145874,30.0,633.0,18248.0,16140.0,17652.0,2893.0,471.0
0.794783353805542,6.0,21972.0,43312.0,54032.0,36320.0,21720.0,2751.0
0.7962999939918518,22.0,45808.0,105712.0,121552.0,75824.0,39168.0,4531.0
0.7978166937828064,25.0,88496.0,159488.0,168512.0,120048.0,58288.0,13224.0
0.7993333339691162,19.0,92928.0,230528.0,277184.0,162304.0,58208.0,16044.0
0.800849974155426,22.0,165312.0,310656.0,294400.0,204928.0,91296.0,24352.0
0.8023666739463806,25.0,201472.0,364352.0,381952.0,269632.0,102400.0,25172.0
0.8039500117301941,24.0,173120.0,400128.0,427200.0,257280.0,104016.0,27348.0
0.8054666519165039,23.0,227264.0,448640.0,445568.0,299776.0,104912.0,32484.0
0.8069833517074585,38.0,230912.0,463872.0,490496.0,320960.0,105808.0,31004.0
0.8084999918937683,46.0,212672.0,427392.0,536832.0,304832.0,150016.0,28560.0
0.8100166916847229,8.0,219904.0,485760.0,505344.0,324864.0,147904.0,26112.0
0.8115333318710327,21.0,227136.0,471936.0,508160.0,357888.0,131776.0,29452.0
0.8130499720573425,33.0,254592.0,506176.0,508352.0,349888.0,136640.0,32784.0
0.8145666718482971,56.0,180800.0,484416.0,486720.0,313600.0,133056.0,21252.0
0.8160833120346069,39.0,253184.0,452224.0,456128.0,345600.0,143232.0,21900.0
0.8176000118255615,70.0,217024.0,450368.0,452160.0,304000.0,115520.0,29480.0
0.8191166520118713,74.0,214720.0,401600.0,460480.0,283648.0,117312.0,17152.0
0.8206999897956848,33.0,201984.0,441728.0,434176.0,280512.0,96304.0,32376.0
0.8222166895866394,33.0,180992.0,386432.0,402816.0,239936.0,110912.0,19984.0
0.8237333297729492,78.0,178944.0,314496.0,359040.0,203072.0,74864.0,27228.0
0.8252500295639038,33.0,165312.0,317824.0,334720.0,209088.0,85552.0,17600.0
0.8267666697502136,27.0,170240.0,278720.0,294976.0,164224.0,65872.0,20808.0
0.8282833099365234,44.0,112512.0,252800.0,263360.0,151232.0,70544.0,14704.0
0.829800009727478,45.0,120448.0,204800.0,212544.0,156992.0,55008.0,11056.0
0.8313166499137878,47.0,96752.0,147328.0,196288.0,111136.0,49744.0,9992.0
0.8328333497047424,19.0,76416.0,126592.0,161536.0,124624.0,40752.0,12932.0
0.8343499898910522,38.0,64816.0,130080.0,129200.0,65904.0,38752.0,8212.0
0.8358666896820068,52.0,54240.0,102288.0,101280.0,60160.0,25876.0,1274.0
0.8374166488647461,52.0,39728.0,78928.0,56736.0,52080.0,24596.0,3898.0
0.838949978351593,19.0,31488.0,67728.0,59728.0,42160.0,15280.0,3932.0
0.8404666781425476,33.0,27824.0,47184.0,59568.0,30132.0,9964.0,783.0
0.8419833183288574,48.0,27544.0,29268.0,39168.0,21252.0,6836.0,5451.0
0.843500018119812,34.0,18852.0,31380.0,40224.0,11664.0,11544.0,40.0
0.8450166583061218,21.0,18348.0,32320.0,24620.0,19268.0,8260.0,1437.0
0.8465499877929688,33.0,13600.0,26432.0,18436.0,12332.0,7240.0,878.0
0.8480666875839233,6.0,14308.0,21108.0,21224.0,12200.0,6219.0,1879.0
0.8495833277702332,0.0,8644.0,13208.0,14144.0,15312.0,4134.0,639.0
0.8510833382606506,10.0,12552.0,13940.0,14604.0,11352.0,3645.0,1497.0
0.8525999784469604,38.0,4847.0,19936.0,21944.0,9536.0,2363.0,21.0
0.854116678237915,32.0,1816.0,12456.0,12156.0,4585.0,1980.0,930.0
0.8556666374206543,46.0,9408.0,15032.0,12928.0,10664.0,3663.0,397.0
0.8571833372116089,48.0,3060.0,5781.0,7847.0,8256.0,2920.0,219.0
0.8586999773979187,53.0,6498.0,12424.0,12384.0,6871.0,2178.0,42.0
0.8602166771888733,17.0,3659.0,9328.0,12168.0,6955.0,1439.0,33.0
0.8617333173751831,20.0,2727.0,7970.0,3744.0,4598.0,1364.0,23.0
0.8632500171661377,47.0,3721.0,4233.0,7895.0,3688.0,2850.0,29.0
0.8647666573524475,36.0,3961.0,6867.0,6228.0,5456.0,455.0,6.0
0.8662833571434021,25.0,4202.0,8504.0,10968.0,2110.0,1142.0,21.0
0.8677999973297119,28.0,1988.0,3574.0,10012.0,4720.0,1714.0,35.0
0.8693166375160217,13.0,2356.0,5028.0,7489.0,2448.0,16.0,28.0
0.8708333373069763,24.0,4419.0,5267.0,5443.0,4184.0,1024.0,20.0
0.8724166750907898,30.0,2402.0,4868.0,6974.0,3823.0,1843.0,21.0
0.8739333152770996,12.0,3908.0,4468.0,7039.0,4134.0,1696.0,23.0
0.8754500150680542,38.0,2184.0,6088.0,8061.0,1724.0,1549.0,18.0
0.876966655254364,44.0,1584.0,6191.0,3243.0,5450.0,2192.0,12.0
0.8784833550453186,34.0,1759.0,3937.0,5829.0,2961.0,597.0,23.0
0.8799999952316284,26.0,1935.0,6228.0,8768.0,5621.0,1323.0,21.0
0.881516695022583,47.0,3453.0,5679.0,5797.0,2138.0,579.0,20.0
0.8830333352088928,18.0,3362.0,6082.0,5762.0,1959.0,869.0,19.0
0.8845499753952026,35.0,1594.0,5237.0,5358.0,4257.0,1388.0,17.0
0.8860666751861572,52.0,4229.0,3567.0,4955.0,1733.0,809.0,13.0
0.887583315372467,47.0,3418.0,3890.0,2049.0,4826.0,231.0,12.0
0.8891666531562805,24.0,3918.0,4180.0,1676.0,4322.0,269.0,22.0
0.8906833529472351,27.0,2063.0,4471.0,6646.0,3955.0,306.0,31.0
0.8921999931335449,6.0,4132.0,4864.0,4762.0,5676.0,1880.0,922.0
0.8937166929244995,42.0,1028.0,5089.0,7982.0,2872.0,1721.0,850.0
0.8952333331108093,0.0,2588.0,3964.0,2924.0,3030.0,1281.0,23.0
0.8967499732971191,24.0,2620.0,2838.0,4168.0,2007.0,1687.0,26.0
0.8982666730880737,36.0,301.0,2388.0,7020.0,881.0,1892.0,16.0
0.8997833132743835,28.0,456.0,1922.0,1715.0,1279.0,1344.0,13.0
0.9013000130653381,18.0,1011.0,1760.0,3691.0,1678.0,499.0,28.0
0.902816653251648,48.0,817.0,1599.0,4534.0,1287.0,1308.0,30.0
0.9043333530426025,6.0,623.0,2298.0,2944.0,897.0,51.0,0.0
0.9059000015258789,16.0,2114.0,2998.0,6025.0,709.0,586.0,26.0
0.9074166417121887,0.0,1502.0,2934.0,5360.0,520.0,1121.0,37.0
0.9089333415031433,12.0,889.0,3677.0,7067.0,747.0,1485.0,21.0
0.9104499816894531,23.0,1378.0,2508.0,2456.0,974.0,1785.0,24.0
0.9119833111763,5.0,184.0,1340.0,3425.0,1512.0,1549.0,20.0
0.9134833216667175,39.0,1418.0,3484.0,6729.0,1782.0,285.0,15.0
0.9150000214576721,51.0,1140.0,2363.0,2837.0,28.0,30.0,10.0
0.9165166616439819,7.0,863.0,1241.0,4375.0,2247.0,1045.0,28.0
0.9180333614349365,60.0,966.0,2513.0,1137.0,2490.0,25.0,0.0
0.9195500016212463,36.0,219.0,3784.0,2751.0,13.0,8.0,0.0
0.9210833311080933,33.0,11.0,4642.0,1994.0,3748.0,812.0,5.0
0.9226499795913696,11.0,1154.0,5196.0,2406.0,3369.0,1620.0,18.0
0.9241666793823242,53.0,38.0,4911.0,2817.0,2075.0,1856.0,14.0
0.925683319568634,51.0,1557.0,2382.0,2629.0,1969.0,1799.0,5.0
0.9272000193595886,48.0,2081.0,2943.0,1581.0,1735.0,26.0,41.0
0.9287166595458984,27.0,1836.0,2701.0,1385.0,867.0,2975.0,49.0
0.930233359336853,10.0,902.0,2905.0,2445.0,0.0,3148.0,57.0
0.9317499995231628,63.0,649.0,2530.0,3505.0,3092.0,5.0,42.0
0.9332666397094727,29.0,396.0,2155.0,3306.0,2649.0,715.0,5.0
0.9347833395004272,28.0,2067.0,2088.0,3107.0,795.0,28.0,25.0
0.9362999796867371,28.0,1915.0,18.0,4797.0,840.0,939.0,45.0
0.9378166794776917,19.0,863.0,2707.0,1423.0,656.0,0.0,26.0
0.9394000172615051,0.0,2263.0,1211.0,3362.0,1106.0,54.0,16.0
0.9409166574478149,24.0,830.0,1383.0,1681.0,993.0,1657.0,5.0
0.9424333572387695,12.0,2548.0,1556.0,1774.0,880.0,2498.0,29.0
0.9439499974250793,13.0,3230.0,501.0,1866.0,1894.0,1250.0,12.0
0.9454666376113892,14.0,2358.0,1604.0,2190.0,2506.0,6.0,13.0
0.9469833374023438,8.0,882.0,2707.0,2813.0,2484.0,2326.0,14.0
0.9484999775886536,5.0,7.0,3347.0,3436.0,388.0,24.0,5.0
0.9500166773796082,24.0,1280.0,3024.0,3746.0,3079.0,5.0,14.0
0.951533317565918,36.0,701.0,2701.0,3538.0,3238.0,1948.0,12.0
0.9530500173568726,48.0,1008.0,2444.0,3330.0,9.0,37.0,10.0
0.9545666575431824,41.0,1315.0,1792.0,1570.0,2021.0,1325.0,24.0
0.9561333060264587,23.0,38.0,4108.0,4364.0,1248.0,815.0,37.0
0.9576500058174133,18.0,1878.0,5750.0,4433.0,1222.0,1641.0,37.0
0.9591666460037231,0.0,268.0,5638.0,3739.0,1197.0,1322.0,36.0
0.9606999754905701,25.0,1586.0,1444.0,5356.0,1419.0,1154.0,5.0
0.9621999859809875,13.0,1043.0,4924.0,5986.0,1642.0,900.0,8.0
0.9637166857719421,118.0,957.0,4230.0,3520.0,1504.0,18.0,17.0
0.965233325958252,83.0,760.0,5625.0,393.0,1367.0,1009.0,11.0
0.9667500257492065,48.0,1640.0,3452.0,2343.0,2645.0,67.0,37.0
0.9682666659355164,7.0,1516.0,2960.0,5758.0,1817.0,171.0,40.0
0.9697833061218262,6.0,1677.0,2525.0,4175.0,989.0,274.0,17.0
0.9713166952133179,33.0,1838.0,1462.0,2285.0,1015.0,140.0,52.0
0.9728500247001648,7.0,802.0,3116.0,1426.0,20.0,6.0,42.0
0.9743666648864746,9.0,1338.0,4516.0,3030.0,10.0,1430.0,32.0
0.9758833050727844,11.0,1009.0,4158.0,3251.0,0.0,1246.0,31.0
0.977400004863739,5.0,1575.0,4523.0,3471.0,910.0,1907.0,5.0
0.9789166450500488,6.0,608.0,3068.0,1269.0,4215.0,1580.0,6.0
0.9804333448410034,6.0,1290.0,4010.0,3842.0,3217.0,1105.0,31.0
0.9819499850273132,7.0,1052.0,4217.0,3953.0,2219.0,401.0,16.0
0.9834666848182678,35.0,1370.0,1302.0,4991.0,3474.0,1054.0,0.0
0.9849833250045776,22.0,951.0,1876.0,5334.0,2416.0,545.0,3.0
0.9865000247955322,10.0,532.0,3753.0,5601.0,656.0,1023.0,5.0
0.988016664981842,16.0,976.0,2566.0,5183.0,3118.0,1542.0,35.0
0.9895833134651184,16.0,959.0,1606.0,4765.0,1070.0,41.0,29.0
0.9911166429519653,15.0,943.0,2072.0,4056.0,4322.0,583.0,5.0
0.9926333427429199,10.0,1279.0,2854.0,2584.0,3205.0,1124.0,5.0
0.9941499829292297,19.0,1616.0,3637.0,5293.0,2086.0,52.0,5.0
0.9956666827201843,18.0,2040.0,14.0,2317.0,1556.0,87.0,3.0
0.9971833229064941,16.0,2463.0,936.0,2462.0,922.0,315.0,0.0
0.9987000226974487,15.0,487.0,1216.0,3934.0,1728.0,173.0,15.0
1.0002167224884033,13.0,254.0,1122.0,3492.0,2545.0,31.0,29.0
1.0017333030700684,45.0,2215.0,1028.0,3980.0,2260.0,483.0,23.0
1.003250002861023,49.0,2657.0,2389.0,4469.0,3912.0,1658.0,16.0
1.0047667026519775,24.0,562.0,2844.0,2681.0,4104.0,908.0,14.0
1.0062832832336426,45.0,674.0,3299.0,3486.0,2704.0,158.0,11.0
1.0078500509262085,26.0,3786.0,4129.0,3550.0,1133.0,665.0,11.0
1.0093666315078735,7.0,4353.0,4342.0,3614.0,3061.0,1246.0,10.0
1.0108833312988281,42.0,624.0,3067.0,2947.0,1589.0,1744.0,8.0
1.0124000310897827,15.0,2272.0,2345.0,3879.0,1072.0,1924.0,6.0
1.0139166116714478,33.0,1842.0,1623.0,4811.0,1354.0,2379.0,23.0
1.0154333114624023,30.0,1780.0,3051.0,4943.0,2095.0,12.0,21.0
1.016950011253357,34.0,1718.0,3221.0,4162.0,2836.0,1467.0,21.0
1.0184667110443115,5.0,2250.0,2489.0,3381.0,5960.0,323.0,11.0
1.0199832916259766,26.0,2813.0,2391.0,4355.0,4949.0,13.0,0.0
1.0215166807174683,13.0,341.0,2294.0,3112.0,1369.0,542.0,31.0
1.0230333805084229,0.0,3052.0,7357.0,1869.0,2730.0,919.0,19.0
1.0246000289916992,32.0,1839.0,6305.0,973.0,2780.0,1101.0,6.0
1.0261166095733643,17.0,2608.0,2284.0,2633.0,2685.0,1284.0,924.0
1.0276333093643188,9.0,115.0,2810.0,2673.0,2171.0,1097.0,878.0
1.0291500091552734,0.0,1636.0,3908.0,2713.0,3197.0,911.0,1016.0
1.030666708946228,11.0,1219.0,3608.0,3080.0,2263.0,5.0,67.0
1.032183289527893,27.0,2426.0,1587.0,3446.0,1329.0,942.0,22.0
1.0336999893188477,14.0,22.0,3566.0,1591.0,2117.0,730.0,33.0
1.0352166891098022,0.0,1195.0,1525.0,6122.0,2905.0,1561.0,5.0
1.0367333889007568,6.0,2369.0,2523.0,5020.0,660.0,949.0,594.0
1.0382499694824219,42.0,2515.0,3521.0,4807.0,1446.0,58.0,314.0
1.0397666692733765,62.0,2450.0,1780.0,3623.0,3616.0,1531.0,34.0
1.04135000705719,54.0,2384.0,2156.0,6383.0,2662.0,1865.0,584.0
1.0428667068481445,22.0,1299.0,3903.0,5502.0,2325.0,1187.0,14.0
1.0443832874298096,58.0,22.0,3450.0,4621.0,533.0,50.0,39.0
1.0458999872207642,63.0,2360.0,504.0,2936.0,3682.0,321.0,20.0
1.0474166870117188,25.0,13.0,2235.0,3364.0,30.0,495.0,21.0
1.0489333868026733,18.0,596.0,5466.0,2065.0,1717.0,11.0,563.0
1.0504499673843384,65.0,1374.0,6317.0,1970.0,1114.0,2549.0,288.0
1.051966667175293,41.0,964.0,3174.0,3326.0,1200.0,1984.0,13.0
1.0534833669662476,8.0,554.0,5350.0,2924.0,1286.0,37.0,1002.0
1.0549999475479126,50.0,117.0,1152.0,2522.0,3069.0,1904.0,820.0
1.0565166473388672,891.0,2336.0,3178.0,1810.0,2624.0,2170.0,0.0
1.0580832958221436,669.0,2832.0,1369.0,3131.0,1749.0,720.0,26.0
1.0595999956130981,38.0,1374.0,4308.0,4452.0,1979.0,2010.0,58.0
1.0611166954040527,43.0,2308.0,4362.0,3828.0,2208.0,1746.0,6.0
1.0626332759857178,11.0,1279.0,4417.0,3205.0,3408.0,995.0,5.0
1.0641666650772095,6.0,996.0,4386.0,4727.0,2793.0,244.0,13.0
1.065666675567627,21.0,759.0,4224.0,5656.0,2178.0,438.0,13.0
1.0671833753585815,15.0,271.0,2343.0,5014.0,482.0,744.0,8.0
1.0686999559402466,10.0,1010.0,4257.0,5623.0,2780.0,579.0,15.0
1.0702166557312012,5.0,1049.0,5156.0,4942.0,4984.0,1683.0,21.0
1.0717333555221558,3.0,2470.0,3681.0,5593.0,4198.0,1545.0,604.0
1.0732500553131104,0.0,2382.0,3779.0,3763.0,2859.0,1184.0,322.0
1.0748332738876343,0.0,1072.0,3125.0,4344.0,5835.0,78.0,39.0
1.0763499736785889,0.0,3620.0,3371.0,3591.0,5203.0,695.0,13.0
1.0778666734695435,0.0,59.0,3616.0,5921.0,4579.0,1640.0,68.0
1.079383373260498,4.0,2705.0,5993.0,4493.0,5223.0,2000.0,44.0
1.080899953842163,8.0,1615.0,6916.0,3065.0,1436.0,2677.0,20.0
1.0824166536331177,23.0,2129.0,1704.0,4912.0,6352.0,2029.0,15.0
1.0839333534240723,38.0,2930.0,4193.0,4993.0,2972.0,50.0,8.0
1.0854500532150269,33.0,1050.0,5302.0,5074.0,1543.0,1119.0,0.0
1.086966633796692,0.0,3594.0,2056.0,6665.0,2646.0,1014.0,15.0
1.0884833335876465,0.0,1622.0,2307.0,2646.0,3611.0,1216.0,8.0
1.090000033378601,5.0,1542.0,2559.0,6653.0,3796.0,844.0,0.0
1.0915833711624146,9.0,2252.0,3728.0,7857.0,2391.0,761.0,394.0
1.0930999517440796,13.0,1297.0,3671.0,3595.0,3839.0,648.0,788.0
1.0946166515350342,11.0,3020.0,3613.0,8460.0,3259.0,1806.0,1056.0
1.0961333513259888,18.0,4051.0,2515.0,4483.0,2679.0,1533.0,49.0
1.0976500511169434,23.0,2932.0,3263.0,6075.0,2335.0,1261.0,382.0
1.0991666316986084,27.0,1251.0,9276.0,8712.0,1468.0,1181.0,603.0
1.100683331489563,31.0,3105.0,8029.0,1448.0,600.0,258.0,635.0
1.1022000312805176,0.0,32.0,9028.0,3641.0,1383.0,1468.0,53.0
1.1037166118621826,5.0,3023.0,3234.0,7923.0,2166.0,2025.0,329.0
1.1052333116531372,6.0,1730.0,4981.0,8576.0,2529.0,1944.0,605.0
1.1067500114440918,12.0,2421.0,3200.0,2381.0,3098.0,786.0,11.0
1.108299970626831,17.0,2549.0,2071.0,7533.0,2793.0,2628.0,0.0
1.1098333597183228,23.0,1910.0,3465.0,2862.0,2488.0,3493.0,13.0
1.1113500595092773,19.0,938.0,3644.0,5195.0,3420.0,2091.0,33.0
1.1128666400909424,16.0,2295.0,3823.0,5849.0,1929.0,3149.0,37.0
1.114383339881897,5.0,3651.0,3011.0,4443.0,3298.0,11.0,25.0
1.1159000396728516,5.0,2714.0,4062.0,5959.0,2316.0,1220.0,177.0
1.1174166202545166,10.0,1778.0,3992.0,5561.0,3451.0,1976.0,88.0
1.1189333200454712,20.0,2375.0,3922.0,5162.0,2721.0,288.0,0.0
1.1204500198364258,30.0,1610.0,3644.0,4762.0,2529.0,961.0,6.0
1.1219667196273804,26.0,1410.0,5144.0,3941.0,663.0,2397.0,18.0
1.1234999895095825,21.0,1277.0,6644.0,5141.0,1174.0,2316.0,29.0
1.125016689300537,39.0,1144.0,6889.0,7796.0,1684.0,35.0,792.0
1.1265499591827393,38.0,2349.0,6396.0,7283.0,1479.0,234.0,706.0
1.1280666589736938,14.0,1767.0,5903.0,6849.0,4425.0,949.0,8.0
1.1295833587646484,13.0,1186.0,8256.0,5969.0,4880.0,1319.0,30.0
1.131100058555603,12.0,3934.0,7458.0,5064.0,3514.0,944.0,11.0
1.132616639137268,14.0,4882.0,6659.0,6658.0,1896.0,1403.0,106.0
1.1341333389282227,15.0,2328.0,3730.0,5065.0,3935.0,1862.0,56.0
1.1356500387191772,8.0,696.0,7030.0,5136.0,3831.0,1840.0,5.0
1.1371666193008423,0.0,2883.0,8760.0,5208.0,3727.0,1819.0,7.0
1.1386833190917969,28.0,2675.0,7546.0,8928.0,3470.0,671.0,9.0
1.1402000188827515,28.0,2480.0,6952.0,8572.0,2621.0,580.0,8.0
1.141716718673706,27.0,1208.0,9320.0,9596.0,3296.0,1988.0,706.0
1.1433000564575195,29.0,1100.0,6439.0,6385.0,3404.0,2148.0,1540.0
1.1448166370391846,41.0,992.0,4398.0,10344.0,3558.0,2446.0,1421.0
1.1463333368301392,10.0,4859.0,8492.0,5207.0,2397.0,2745.0,423.0
1.1478500366210938,22.0,5592.0,9136.0,7313.0,3396.0,579.0,146.0
1.1493666172027588,0.0,3929.0,6748.0,2991.0,4394.0,3485.0,29.0
1.1508833169937134,5.0,733.0,3629.0,4207.0,4021.0,2767.0,19.0
1.152400016784668,13.0,2412.0,7881.0,3365.0,3893.0,3515.0,20.0
1.1539167165756226,25.0,5915.0,6628.0,7500.0,4637.0,2231.0,21.0
1.1554332971572876,13.0,4421.0,6177.0,8117.0,6568.0,1469.0,27.0
1.1569499969482422,0.0,2653.0,3683.0,5106.0,5897.0,4248.0,277.0
1.1584666967391968,11.0,4741.0,5317.0,6225.0,5125.0,1575.0,158.0
1.1600500345230103,22.0,7203.0,6952.0,7345.0,4103.0,2565.0,38.0
1.1615666151046753,23.0,6128.0,6355.0,7688.0,4319.0,1546.0,639.0
1.1630833148956299,23.0,4519.0,5758.0,8032.0,2223.0,1666.0,858.0
1.1646000146865845,0.0,4318.0,5312.0,7980.0,2961.0,2160.0,1269.0
1.166116714477539,0.0,4094.0,5923.0,5883.0,3700.0,2655.0,983.0
1.167633295059204,0.0,5619.0,7621.0,6297.0,4383.0,2773.0,697.0
1.1691499948501587,11.0,5413.0,9320.0,8484.0,5067.0,3357.0,21.0
1.1706666946411133,22.0,573.0,8149.0,7547.0,5080.0,1037.0,64.0
1.1721832752227783,25.0,3346.0,9968.0,8852.0,1914.0,1174.0,0.0
1.173699975013733,6.0,2067.0,6822.0,7723.0,6888.0,3707.0,31.0
1.1752166748046875,54.0,5607.0,4435.0,9624.0,2446.0,1898.0,0.0
1.1767833232879639,45.0,4677.0,7622.0,9300.0,4838.0,1992.0,1513.0
1.1783000230789185,15.0,6437.0,5415.0,8980.0,1797.0,3060.0,1450.0
1.1798332929611206,16.0,6666.0,6388.0,3195.0,3282.0,2459.0,455.0
1.181333303451538,19.0,1657.0,7361.0,4756.0,4767.0,1858.0,49.0
1.1828500032424927,10.0,4052.0,3673.0,10240.0,4715.0,1588.0,21.0
1.1843667030334473,0.0,1176.0,8772.0,8672.0,3340.0,1318.0,0.0
1.1858832836151123,16.0,4639.0,11620.0,7108.0,1828.0,1620.0,35.0
1.187399983406067,39.0,4412.0,7733.0,5550.0,2799.0,1922.0,30.0
1.1889166831970215,30.0,3673.0,8077.0,3934.0,4879.0,2020.0,26.0
1.190433382987976,30.0,3695.0,10120.0,7516.0,6271.0,2118.0,21.0
1.1919499635696411,6.0,3255.0,9888.0,7757.0,8161.0,3493.0,34.0
1.1935333013534546,39.0,3065.0,10488.0,7998.0,6549.0,226.0,46.0
1.1950500011444092,5.0,2875.0,5325.0,15612.0,4937.0,2367.0,28.0
1.1965667009353638,16.0,3584.0,9040.0,14120.0,5763.0,936.0,9.0
1.1980832815170288,0.0,4301.0,6761.0,11660.0,7895.0,386.0,447.0
1.1995999813079834,15.0,2012.0,7033.0,6624.0,2939.0,1578.0,227.0
1.201116681098938,0.0,5381.0,7306.0,8264.0,11000.0,1424.0,7.0
1.2026333808898926,9.0,5211.0,7356.0,8556.0,7812.0,2506.0,20.0
1.2041499614715576,12.0,5306.0,7406.0,8844.0,9276.0,2921.0,27.0
1.2056666612625122,15.0,4834.0,3743.0,8316.0,4141.0,2297.0,669.0
1.2071833610534668,18.0,5949.0,8784.0,8154.0,6960.0,1552.0,1082.0
1.2086999416351318,12.0,3251.0,9188.0,7994.0,7934.0,1457.0,1311.0
1.2102832794189453,5.0,2998.0,9592.0,4652.0,4679.0,854.0,1058.0
1.2117999792099,31.0,2744.0,7703.0,11440.0,3923.0,1081.0,1165.0
1.2133166790008545,28.0,2949.0,10584.0,8900.0,3167.0,2600.0,651.0
1.214833378791809,25.0,3154.0,10528.0,9492.0,3509.0,2207.0,33.0
1.2163499593734741,12.0,3930.0,10008.0,5408.0,5523.0,1813.0,22.0
1.2178666591644287,0.0,4705.0,9200.0,11768.0,7537.0,2925.0,20.0
1.2193833589553833,11.0,3861.0,7249.0,10064.0,7252.0,2867.0,720.0
1.220900058746338,15.0,3017.0,9088.0,9912.0,7773.0,15.0,829.0
1.222416639328003,40.0,3921.0,9628.0,7717.0,4391.0,2913.0,108.0
1.2239333391189575,30.0,4825.0,7912.0,9864.0,8812.0,693.0,409.0
1.225450038909912,30.0,5556.0,9360.0,10488.0,5507.0,3851.0,710.0
1.2270166873931885,5.0,6286.0,8956.0,8468.0,7727.0,5165.0,22.0
1.228533387184143,20.0,1356.0,8548.0,10232.0,4691.0,2041.0,872.0
1.2300666570663452,43.0,5142.0,9380.0,9948.0,4427.0,3326.0,467.0
1.2315666675567627,0.0,6041.0,10212.0,9660.0,6009.0,3207.0,835.0
1.2330833673477173,23.0,5004.0,13824.0,10136.0,6367.0,3087.0,0.0
1.2345999479293823,0.0,3216.0,14720.0,9800.0,6724.0,1515.0,231.0
1.236116647720337,23.0,4096.0,2831.0,9468.0,5834.0,2044.0,8.0
1.2376333475112915,13.0,6414.0,11080.0,7404.0,4945.0,2572.0,500.0
1.239150047302246,23.0,6280.0,7644.0,9372.0,9748.0,2522.0,993.0
1.2406666278839111,12.0,8119.0,11528.0,9100.0,7469.0,2808.0,844.0
1.2421833276748657,26.0,6236.0,11600.0,8828.0,5191.0,3094.0,968.0
1.243749976158142,31.0,8196.0,12680.0,12020.0,11132.0,3629.0,1211.0
1.2452833652496338,35.0,9096.0,11000.0,11432.0,7463.0,4165.0,990.0
1.2467999458312988,38.0,9996.0,9124.0,10844.0,8968.0,3894.0,768.0
1.2483166456222534,15.0,6587.0,10584.0,9364.0,13524.0,3483.0,905.0
1.249833345413208,8.0,3055.0,12048.0,12228.0,13944.0,3071.0,910.0
1.2513500452041626,6.0,5163.0,12200.0,12916.0,8824.0,4431.0,915.0
1.2528666257858276,16.0,5102.0,8740.0,10624.0,3029.0,4285.0,567.0
1.2543833255767822,17.0,4870.0,13896.0,11836.0,7677.0,3005.0,591.0
1.2559000253677368,15.0,4637.0,7895.0,13052.0,5810.0,5279.0,0.0
1.2574167251586914,32.0,4522.0,14536.0,12428.0,5148.0,2409.0,30.0
1.2589333057403564,24.0,4406.0,10080.0,11808.0,4486.0,2487.0,10.0
1.260450005531311,17.0,5223.0,16480.0,13820.0,10832.0,2566.0,27.0
1.2620333433151245,29.0,5070.0,11640.0,15832.0,11468.0,2714.0,23.0
1.263550043106079,28.0,4917.0,11844.0,16032.0,7952.0,2043.0,20.0
1.2650666236877441,26.0,5107.0,9792.0,16984.0,12276.0,1966.0,29.0
1.2665833234786987,28.0,5296.0,12512.0,15204.0,8564.0,2845.0,37.0
1.2681000232696533,16.0,2869.0,12936.0,16900.0,12640.0,3724.0,420.0
1.269616723060608,33.0,4690.0,13364.0,14084.0,12108.0,3233.0,802.0
1.271133303642273,28.0,4913.0,14968.0,15756.0,9304.0,2153.0,1357.0
1.2726500034332275,20.0,5136.0,8024.0,18304.0,11644.0,765.0,944.0
1.2741667032241821,23.0,10112.0,14288.0,16504.0,11276.0,2671.0,531.0
1.2756832838058472,15.0,11680.0,8344.0,15244.0,7857.0,3350.0,844.0
1.2771999835968018,6.0,8396.0,10412.0,21428.0,11712.0,3057.0,36.0
1.2787666320800781,5.0,5915.0,16540.0,10460.0,9644.0,2236.0,582.0
1.2802833318710327,18.0,5346.0,13808.0,14056.0,12032.0,2957.0,25.0
1.2818000316619873,20.0,5045.0,16356.0,10920.0,6664.0,3678.0,33.0
1.2833166122436523,21.0,5552.0,9440.0,16848.0,8680.0,3509.0,16.0
1.284833312034607,15.0,6060.0,18572.0,18356.0,7819.0,1782.0,8.0
1.2863500118255615,8.0,11392.0,19780.0,21572.0,6004.0,4601.0,0.0
1.2878667116165161,28.0,11824.0,13644.0,12388.0,11608.0,4449.0,270.0
1.2893832921981812,20.0,3232.0,17236.0,21180.0,12136.0,4481.0,541.0
1.2908999919891357,10.0,4737.0,10764.0,19432.0,4761.0,2801.0,729.0
1.2924333810806274,5.0,8564.0,15724.0,12512.0,10852.0,2552.0,569.0
1.293933391571045,29.0,5146.0,16432.0,22264.0,9020.0,2877.0,410.0
1.2955166101455688,35.0,8164.0,17956.0,18136.0,10696.0,3201.0,26.0
1.2970333099365234,29.0,8980.0,17496.0,16776.0,9676.0,3621.0,23.0
1.298550009727478,5.0,10080.0,17036.0,15812.0,8656.0,2035.0,1138.0
1.3000667095184326,20.0,9816.0,17036.0,18452.0,7867.0,6510.0,684.0
1.3015832901000977,18.0,4315.0,16220.0,17852.0,9912.0,5000.0,231.0
1.3030999898910522,0.0,8592.0,15404.0,17256.0,10348.0,3490.0,12.0
1.3046166896820068,0.0,7163.0,13996.0,16932.0,18900.0,5182.0,29.0
1.3061333894729614,5.0,8884.0,18200.0,15600.0,18376.0,4563.0,317.0
1.3076499700546265,22.0,9536.0,17300.0,14264.0,16156.0,4019.0,672.0
1.309166669845581,25.0,10188.0,15936.0,17968.0,12824.0,3474.0,541.0
1.3106833696365356,24.0,10828.0,23132.0,14144.0,13684.0,4135.0,1203.0
1.3122667074203491,14.0,11468.0,22624.0,19140.0,11196.0,3818.0,876.0
1.3137832880020142,17.0,8240.0,18228.0,18668.0,10000.0,3501.0,549.0
1.3152999877929688,19.0,11700.0,23596.0,23332.0,17800.0,5242.0,602.0
1.3168166875839233,26.0,7543.0,29192.0,24928.0,19956.0,5345.0,654.0
1.318333387374878,32.0,6866.0,26204.0,26824.0,9656.0,5449.0,1808.0
1.319849967956543,50.0,12572.0,18852.0,23580.0,15900.0,4103.0,1802.0
1.3213666677474976,45.0,9924.0,17884.0,29424.0,14388.0,4324.0,1796.0
1.3228833675384521,40.0,9656.0,21972.0,19624.0,10800.0,4546.0,1500.0
1.3243999481201172,14.0,11120.0,19008.0,26224.0,16140.0,5231.0,75.0
1.3259166479110718,38.0,8684.0,16668.0,20408.0,12796.0,6363.0,1292.0
1.3274333477020264,33.0,9420.0,14328.0,17384.0,14252.0,7494.0,1969.0
1.3289999961853027,28.0,10156.0,18016.0,19716.0,17088.0,8324.0,1082.0
1.3305166959762573,35.0,10952.0,17480.0,19060.0,12112.0,7932.0,1089.0
1.3320499658584595,27.0,12112.0,18812.0,18408.0,10664.0,7539.0,1096.0
1.333549976348877,19.0,13268.0,20148.0,23180.0,10788.0,6872.0,924.0
1.3350666761398315,37.0,12348.0,22072.0,27952.0,14528.0,7953.0,972.0
1.3365833759307861,25.0,7998.0,23996.0,26384.0,14196.0,4576.0,856.0
1.3380999565124512,31.0,12580.0,24220.0,27528.0,13864.0,5944.0,740.0
1.3396166563034058,24.0,12436.0,26024.0,28368.0,18468.0,5765.0,1291.0
1.3411333560943604,0.0,12288.0,26036.0,24656.0,20720.0,9164.0,1842.0
1.342650055885315,21.0,12144.0,27504.0,20316.0,10088.0,9320.0,28.0
1.344183325767517,25.0,12012.0,26072.0,24324.0,20512.0,5541.0,1633.0
1.3457499742507935,25.0,11580.0,25608.0,28692.0,16492.0,9632.0,2412.0
1.347266674041748,25.0,11148.0,21856.0,31456.0,20224.0,7424.0,3219.0
1.3487833738327026,24.0,10700.0,22568.0,24844.0,15560.0,5080.0,2187.0
1.3502999544143677,15.0,10252.0,25396.0,21360.0,19880.0,8940.0,2319.0
1.3518166542053223,5.0,10336.0,28220.0,24188.0,15784.0,7927.0,1307.0
1.3533333539962769,39.0,10424.0,27140.0,27016.0,18068.0,7537.0,1050.0
1.3548500537872314,37.0,11804.0,23936.0,26672.0,20352.0,5793.0,1795.0
1.3563666343688965,5.0,13184.0,25388.0,26328.0,11840.0,5953.0,1984.0
1.357883334159851,9.0,12748.0,33056.0,27184.0,21688.0,6113.0,1771.0
1.3594000339508057,13.0,12312.0,36432.0,28036.0,13244.0,10212.0,1557.0
1.3609166145324707,10.0,14308.0,30468.0,26592.0,21728.0,11940.0,1575.0
1.3624666929244995,12.0,16304.0,36864.0,25144.0,17720.0,11952.0,1937.0
1.3640166521072388,6.0,16928.0,29740.0,40560.0,17872.0,4317.0,2299.0
1.3655333518981934,0.0,17548.0,23604.0,42160.0,17060.0,5649.0,2667.0
1.367050051689148,10.0,12876.0,35120.0,32912.0,24652.0,9716.0,3469.0
1.368566632270813,5.0,11628.0,39088.0,37392.0,26360.0,10712.0,531.0
1.3700833320617676,22.0,10384.0,31636.0,45648.0,30648.0,10768.0,4414.0
1.3716000318527222,92.0,19504.0,33824.0,45840.0,21528.0,10660.0,3580.0
1.3731166124343872,50.0,20832.0,27768.0,29304.0,23720.0,8332.0,1300.0
1.3746333122253418,8.0,12692.0,30712.0,39040.0,28564.0,7321.0,2287.0
1.3761500120162964,5.0,18132.0,31032.0,33920.0,24008.0,8720.0,3389.0
1.377666711807251,28.0,23884.0,33808.0,31356.0,26192.0,10116.0,3416.0
1.379183292388916,18.0,25352.0,34128.0,33584.0,21312.0,9184.0,1579.0
1.3807499408721924,28.0,19600.0,34432.0,35824.0,22504.0,8256.0,2616.0
1.382266640663147,27.0,12172.0,27428.0,38640.0,22860.0,8428.0,1399.0
1.3837833404541016,5.0,13116.0,33696.0,37600.0,26056.0,7117.0,1702.0
1.3853000402450562,10.0,20940.0,39984.0,36576.0,27024.0,5807.0,3061.0
1.3868166208267212,20.0,19908.0,38960.0,36992.0,24444.0,8043.0,2376.0
1.3883333206176758,17.0,18876.0,49216.0,37392.0,21864.0,10280.0,1316.0
1.3898500204086304,5.0,18456.0,47408.0,38416.0,28704.0,9532.0,1563.0
1.391366720199585,12.0,18036.0,45600.0,39440.0,33488.0,7421.0,2301.0
1.39288330078125,9.0,16764.0,44848.0,33280.0,32468.0,11868.0,4563.0
1.3944166898727417,5.0,18684.0,37536.0,47824.0,34128.0,10828.0,4008.0
1.3959167003631592,0.0,24308.0,42128.0,46496.0,40160.0,9784.0,4124.0
1.3975000381469727,22.0,24008.0,44864.0,49280.0,39280.0,11500.0,2182.0
1.3990166187286377,29.0,20436.0,39456.0,47840.0,29808.0,11148.0,3335.0
1.4005333185195923,35.0,21348.0,42624.0,43152.0,31164.0,10796.0,3906.0
1.4020500183105469,57.0,31520.0,45520.0,38464.0,34800.0,10868.0,2390.0
1.4035667181015015,48.0,30408.0,48432.0,50496.0,36640.0,15236.0,873.0
1.4050832986831665,39.0,30760.0,46688.0,50896.0,38480.0,15008.0,4278.0
1.406599998474121,23.0,23588.0,31452.0,50528.0,36880.0,9980.0,3197.0
1.4081166982650757,25.0,28728.0,38336.0,58576.0,32676.0,19040.0,4963.0
1.4096332788467407,27.0,28328.0,45232.0,54704.0,38240.0,17756.0,2467.0
1.4111499786376953,32.0,29160.0,48064.0,50816.0,33744.0,16476.0,3993.0
1.41266667842865,19.0,29996.0,59872.0,58576.0,33120.0,13512.0,1717.0
1.4142500162124634,5.0,30628.0,57616.0,53840.0,32512.0,14064.0,3895.0
1.415766716003418,10.0,26732.0,55360.0,65648.0,37008.0,10336.0,2762.0
1.417283296585083,10.0,31456.0,56832.0,70752.0,36880.0,12688.0,4741.0
1.4187999963760376,10.0,26628.0,58304.0,47792.0,36736.0,15040.0,3840.0
1.4203166961669922,30.0,27488.0,64464.0,73776.0,38864.0,17668.0,2702.0
1.4218332767486572,31.0,28348.0,70416.0,73328.0,40992.0,19096.0,3314.0
1.4233499765396118,11.0,31296.0,69792.0,71456.0,39616.0,18728.0,3802.0
1.4248666763305664,28.0,30492.0,69168.0,67936.0,41968.0,17460.0,909.0
1.426383376121521,46.0,34272.0,71136.0,65408.0,44320.0,24648.0,6060.0
1.427899956703186,40.0,33520.0,70416.0,62880.0,58272.0,23580.0,7399.0
1.4294166564941406,13.0,32944.0,69696.0,67808.0,55040.0,20088.0,6995.0
1.430983304977417,40.0,38800.0,78176.0,80608.0,49632.0,24344.0,5274.0
1.4325000047683716,0.0,37808.0,77088.0,93248.0,58416.0,23012.0,1943.0
1.4340167045593262,25.0,39920.0,82288.0,90096.0,55632.0,21200.0,5923.0
1.4355332851409912,26.0,42688.0,80096.0,89312.0,50784.0,19392.0,5683.0
1.437066674232483,54.0,43536.0,93328.0,89952.0,49056.0,21948.0,7857.0
1.4385833740234375,39.0,44400.0,103664.0,90592.0,47328.0,25760.0,3358.0
1.440083384513855,33.0,39680.0,96720.0,91200.0,58880.0,25508.0,6262.0
1.44159996509552,23.0,44560.0,89776.0,91808.0,56800.0,28724.0,4127.0
1.4431166648864746,39.0,49424.0,100880.0,111328.0,70336.0,26232.0,5063.0
1.4446500539779663,31.0,57072.0,124240.0,109776.0,75136.0,25648.0,5664.0
1.4461499452590942,10.0,52864.0,125440.0,124544.0,74240.0,28132.0,6264.0
1.4477332830429077,39.0,54256.0,125824.0,127136.0,73344.0,30616.0,2453.0
1.4492499828338623,26.0,64512.0,123664.0,130944.0,76288.0,33888.0,9956.0
1.450766682624817,12.0,67472.0,107504.0,150208.0,79232.0,37152.0,11296.0
1.4522833824157715,0.0,76096.0,126000.0,145344.0,79872.0,42256.0,5009.0
1.4537999629974365,17.0,70192.0,129568.0,124640.0,80496.0,42992.0,7528.0
1.4553166627883911,18.0,61360.0,137536.0,142656.0,97840.0,37600.0,7154.0
1.4568333625793457,17.0,50016.0,133440.0,134272.0,95712.0,47024.0,10268.0
1.4583499431610107,15.0,87424.0,132416.0,134720.0,93600.0,32012.0,9608.0
1.4598666429519653,25.0,78016.0,135616.0,160448.0,102864.0,48656.0,8948.0
1.46138334274292,5.0,69792.0,138752.0,156800.0,111600.0,41520.0,9476.0
1.4629000425338745,59.0,57152.0,140992.0,141888.0,106832.0,29616.0,9600.0
1.464483380317688,59.0,71136.0,138944.0,156992.0,94048.0,27192.0,9728.0
1.465999960899353,27.0,72992.0,143360.0,169664.0,109968.0,37808.0,8312.0
1.4675166606903076,62.0,61232.0,145152.0,169664.0,88464.0,31996.0,8884.0
1.4690333604812622,50.0,65392.0,146880.0,128144.0,97472.0,30012.0,9460.0
1.4705499410629272,31.0,71936.0,146944.0,142528.0,81712.0,32284.0,8224.0
1.4720666408538818,48.0,68848.0,133312.0,134592.0,99056.0,34560.0,8540.0
1.4735833406448364,9.0,64016.0,143104.0,156800.0,100640.0,37168.0,8576.0
1.475100040435791,37.0,59184.0,142464.0,157376.0,94336.0,36928.0,9224.0
1.476616621017456,14.0,71072.0,137152.0,167872.0,106096.0,45200.0,12540.0
1.4781333208084106,26.0,82304.0,132608.0,147008.0,87296.0,43968.0,11076.0
1.4796500205993652,28.0,75520.0,139648.0,156480.0,86928.0,53856.0,9612.0
1.4811999797821045,22.0,67264.0,151424.0,139072.0,86560.0,26688.0,9592.0
1.4827333688735962,16.0,69200.0,149760.0,148992.0,114592.0,37616.0,9568.0
1.4842499494552612,37.0,70352.0,156800.0,154944.0,108976.0,45056.0,10340.0
1.4857666492462158,43.0,75968.0,141760.0,160896.0,100368.0,41712.0,8360.0
1.4872833490371704,21.0,81600.0,153792.0,163008.0,91760.0,38368.0,7876.0
1.488800048828125,20.0,82032.0,160320.0,166080.0,98608.0,44912.0,10860.0
1.49031662940979,18.0,78048.0,166848.0,172544.0,105472.0,51440.0,11776.0
1.4918333292007446,26.0,73040.0,160832.0,169920.0,115680.0,49424.0,10916.0
1.4933500289916992,34.0,88432.0,154816.0,167360.0,110320.0,47408.0,10032.0
1.4948666095733643,7.0,84928.0,162112.0,173760.0,108784.0,41280.0,10812.0
1.4963833093643188,56.0,70896.0,160832.0,180224.0,107232.0,33360.0,11592.0
1.4979000091552734,49.0,79216.0,168384.0,171648.0,116112.0,51824.0,7988.0
1.499483346939087,55.0,91248.0,164352.0,163136.0,110384.0,39024.0,13112.0
1.5010000467300415,59.0,84240.0,145088.0,198144.0,104656.0,47296.0,14440.0
1.5025166273117065,50.0,79808.0,151936.0,187584.0,108944.0,57088.0,8392.0
1.5040333271026611,37.0,83520.0,158784.0,175424.0,113216.0,34768.0,6324.0
1.5055500268936157,5.0,82832.0,173056.0,174080.0,115488.0,43536.0,13112.0
1.5070666074752808,15.0,82128.0,156608.0,166016.0,99520.0,50080.0,12352.0
1.5085999965667725,48.0,86912.0,140160.0,177536.0,101648.0,39120.0,8228.0
1.510116696357727,36.0,72000.0,144512.0,158016.0,97376.0,42576.0,8616.0
1.511633276939392,5.0,79328.0,168128.0,158400.0,90752.0,34160.0,10212.0
1.5131499767303467,36.0,61984.0,124624.0,160832.0,92320.0,44816.0,8912.0
1.5146666765213013,10.0,65776.0,139968.0,132288.0,106592.0,36288.0,5893.0
1.5161999464035034,33.0,65952.0,113936.0,139776.0,103824.0,34848.0,6448.0
1.517716646194458,11.0,64416.0,131392.0,127456.0,92992.0,39120.0,7003.0
1.5192333459854126,49.0,62544.0,152064.0,136640.0,83152.0,34704.0,6621.0
1.5207500457763672,36.0,64304.0,109920.0,137792.0,86144.0,36800.0,6240.0
1.5222666263580322,36.0,50576.0,113264.0,117376.0,76032.0,35328.0,5717.0
1.5237833261489868,25.0,49072.0,104544.0,104576.0,65904.0,29820.0,6333.0
1.5253000259399414,36.0,51648.0,94048.0,109968.0,80192.0,19036.0,6948.0
1.526816725730896,21.0,44736.0,93264.0,112960.0,54640.0,20992.0,5106.0
1.528333306312561,32.0,37824.0,97808.0,89488.0,47600.0,22580.0,6595.0
1.5298666954040527,23.0,46640.0,64480.0,75808.0,57456.0,22440.0,2704.0
1.5313832759857178,23.0,39184.0,74032.0,83200.0,48560.0,20692.0,4572.0
1.5329166650772095,22.0,34496.0,68912.0,74272.0,55600.0,19176.0,2534.0
1.534433364868164,11.0,32960.0,48544.0,72560.0,41376.0,22448.0,3386.0
1.5359666347503662,0.0,33152.0,58048.0,63328.0,42176.0,15376.0,4778.0
1.5374833345413208,26.0,29688.0,57504.0,53600.0,35840.0,10440.0,4151.0
1.5389833450317383,17.0,32116.0,43888.0,43472.0,33936.0,9424.0,3524.0
1.5405000448226929,15.0,26720.0,41280.0,59104.0,32704.0,12856.0,3151.0
1.542033314704895,12.0,17516.0,48496.0,45888.0,29220.0,9604.0,3677.0
1.5435500144958496,9.0,18740.0,41632.0,40800.0,32660.0,6422.0,1920.0
1.5450667142868042,5.0,21416.0,38096.0,30796.0,21092.0,7443.0,4202.0
1.5465832948684692,12.0,16740.0,29648.0,33376.0,19320.0,9352.0,1414.0
1.5480999946594238,6.0,20932.0,30912.0,32764.0,19544.0,4094.0,4163.0
1.5496333837509155,0.0,8716.0,24008.0,29068.0,15728.0,6447.0,2412.0
1.5511499643325806,22.0,8604.0,23176.0,25372.0,16836.0,3312.0,1583.0
1.5526666641235352,20.0,7734.0,20808.0,20688.0,11168.0,5355.0,1268.0
1.5541833639144897,17.0,4519.0,14288.0,26148.0,11704.0,5612.0,911.0
1.5556999444961548,24.0,6839.0,23128.0,18388.0,7432.0,5009.0,1284.0
1.5572166442871094,25.0,4279.0,22564.0,23068.0,6724.0,2209.0,1310.0
1.558733344078064,26.0,7382.0,17696.0,12184.0,5363.0,2478.0,1117.0
1.5602500438690186,32.0,4043.0,8996.0,21500.0,11064.0,1927.0,925.0
1.5617666244506836,31.0,5736.0,10164.0,10748.0,10176.0,1908.0,707.0
1.5632833242416382,22.0,5091.0,12764.0,5285.0,8944.0,1888.0,856.0
1.5648000240325928,13.0,4680.0,11612.0,7816.0,4762.0,2664.0,780.0
1.5663833618164062,10.0,4982.0,6457.0,5506.0,5393.0,1952.0,20.0
1.5678999423980713,35.0,3038.0,6740.0,7497.0,5511.0,1240.0,438.0
1.5694166421890259,39.0,4491.0,3976.0,4741.0,5065.0,41.0,21.0
1.5709333419799805,31.0,3102.0,4742.0,4491.0,3836.0,122.0,30.0
1.572450041770935,37.0,5129.0,5508.0,4242.0,3382.0,203.0,18.0
1.5739666223526,41.0,4270.0,7111.0,3843.0,2928.0,30.0,5.0
1.5754833221435547,44.0,4061.0,2184.0,3444.0,0.0,596.0,15.0
1.5770000219345093,47.0,2463.0,2926.0,4007.0,4406.0,1161.0,159.0
1.5785167217254639,23.0,2272.0,3668.0,1773.0,4153.0,1278.0,304.0
1.580033302307129,18.0,2085.0,2218.0,2991.0,2387.0,690.0,152.0
1.5815500020980835,15.0,1698.0,3521.0,2275.0,6818.0,1730.0,0.0
1.583133339881897,20.0,1311.0,2725.0,3167.0,6357.0,2057.0,21.0
1.5846500396728516,12.0,1446.0,4517.0,4059.0,2723.0,1349.0,463.0
1.5861666202545166,33.0,1295.0,4441.0,3599.0,3896.0,590.0,240.0
1.5876833200454712,41.0,1145.0,2527.0,3873.0,1032.0,994.0,17.0
1.5892000198364258,33.0,1369.0,5105.0,4148.0,219.0,1108.0,22.0
1.5907167196273804,31.0,939.0,1525.0,4014.0,2041.0,843.0,26.0
1.5922333002090454,34.0,1201.0,2727.0,1725.0,2531.0,578.0,0.0
1.59375,37.0,933.0,1935.0,4589.0,1144.0,305.0,5.0
1.5952666997909546,10.0,1694.0,752.0,3341.0,2609.0,32.0,22.0
1.5967832803726196,32.0,1645.0,4220.0,2851.0,551.0,50.0,26.0
1.5982999801635742,0.0,1535.0,4189.0,2292.0,1879.0,13.0,8.0
1.5998666286468506,12.0,978.0,5890.0,1734.0,1718.0,53.0,42.0
1.6013833284378052,14.0,421.0,47.0,3719.0,1279.0,31.0,50.0
1.6029000282287598,16.0,189.0,3862.0,3356.0,2488.0,8.0,42.0
1.6044166088104248,0.0,923.0,104.0,1290.0,2187.0,309.0,5.0
1.6059333086013794,5.0,723.0,401.0,1080.0,1339.0,179.0,44.0
1.607466697692871,11.0,523.0,1896.0,3274.0,2627.0,50.0,16.0
1.6089667081832886,17.0,0.0,2159.0,1739.0,1222.0,364.0,66.0
1.6104832887649536,27.0,487.0,1508.0,1944.0,854.0,679.0,56.0
1.6119999885559082,18.0,975.0,1229.0,251.0,979.0,536.0,47.0
1.6135166883468628,10.0,960.0,1657.0,541.0,1341.0,393.0,20.0
1.6150333881378174,30.0,379.0,1795.0,1932.0,1312.0,35.0,6.0
1.6166167259216309,30.0,567.0,2168.0,1131.0,1283.0,164.0,15.0
1.618133306503296,7.0,755.0,1083.0,330.0,17.0,292.0,23.0
1.6196500062942505,17.0,1035.0,1870.0,1062.0,1437.0,149.0,12.0
1.621166706085205,19.0,680.0,2657.0,1511.0,557.0,5.0,0.0
1.6226832866668701,27.0,325.0,1664.0,1959.0,284.0,17.0,10.0
1.6241999864578247,18.0,173.0,0.0,2589.0,12.0,19.0,19.0
1.6257166862487793,33.0,20.0,359.0,474.0,173.0,284.0,16.0
1.6272333860397339,32.0,455.0,18.0,2093.0,333.0,153.0,25.0
1.628749966621399,31.0,468.0,1040.0,38.0,174.0,21.0,28.0
1.6302666664123535,16.0,482.0,741.0,10.0,14.0,21.0,31.0
1.631783366203308,0.0,20.0,443.0,422.0,124.0,20.0,18.0
1.6333667039871216,43.0,22.0,1080.0,834.0,234.0,1072.0,0.0
1.6348832845687866,31.0,555.0,901.0,704.0,0.0,999.0,14.0
1.6363999843597412,47.0,674.0,894.0,574.0,13.0,12.0,27.0
1.6379166841506958,5.0,492.0,2873.0,1750.0,25.0,22.0,38.0
1.6394333839416504,24.0,309.0,1886.0,1116.0,659.0,541.0,32.0
1.6409499645233154,45.0,698.0,898.0,482.0,358.0,977.0,25.0
1.64246666431427,15.0,560.0,516.0,591.0,57.0,1171.0,32.0
1.6439833641052246,51.0,422.0,31.0,36.0,49.0,85.0,21.0
1.6454999446868896,58.0,37.0,19.0,518.0,817.0,1013.0,15.0
1.6470166444778442,16.0,22.0,25.0,738.0,1274.0,35.0,8.0
1.6485333442687988,5.0,31.0,461.0,958.0,873.0,1197.0,15.0
1.650083303451538,5.0,39.0,417.0,1222.0,632.0,869.0,21.0
1.6516166925430298,36.0,1542.0,372.0,44.0,491.0,167.0,24.0
1.653149962425232,38.0,1177.0,161.0,5.0,1097.0,12.0,32.0
1.6546499729156494,28.0,1522.0,6.0,1055.0,1147.0,631.0,0.0
1.656166672706604,21.0,5.0,312.0,447.0,1196.0,13.0,41.0
1.6576833724975586,21.0,521.0,618.0,69.0,35.0,16.0,29.0
1.6591999530792236,26.0,1410.0,309.0,1363.0,76.0,18.0,18.0
1.6607166528701782,22.0,0.0,0.0,1484.0,8.0,5.0,20.0
1.6622333526611328,17.0,28.0,1318.0,1605.0,11.0,17.0,10.0
1.663766622543335,5.0,1065.0,1481.0,1226.0,324.0,38.0,0.0
1.6652666330337524,15.0,25.0,757.0,847.0,174.0,60.0,5.0
1.666783332824707,0.0,338.0,32.0,1276.0,25.0,38.0,10.0
1.6683332920074463,14.0,492.0,51.0,15.0,19.0,17.0,14.0
1.6698499917984009,7.0,21.0,1325.0,12.0,10.0,192.0,18.0
1.6713666915893555,0.0,29.0,808.0,1839.0,10.0,106.0,22.0
1.67288339138031,59.0,37.0,290.0,2182.0,331.0,19.0,16.0
1.674399971961975,61.0,34.0,1413.0,814.0,652.0,26.0,10.0
1.6759166717529297,40.0,5.0,816.0,1696.0,1353.0,33.0,17.0
1.6774333715438843,5.0,163.0,478.0,1053.0,1131.0,0.0,17.0
1.6789499521255493,44.0,119.0,5.0,26.0,909.0,31.0,17.0
1.680466651916504,42.0,74.0,687.0,23.0,15.0,11.0,12.0
1.6819833517074585,15.0,26.0,940.0,1025.0,1807.0,18.0,7.0
1.683500051498413,22.0,17.0,1078.0,311.0,8.0,5.0,11.0
1.6850833892822266,13.0,7.0,1105.0,74.0,1383.0,181.0,15.0
1.6865999698638916,49.0,61.0,1133.0,899.0,395.0,100.0,18.0
1.6881166696548462,40.0,497.0,900.0,16.0,827.0,18.0,21.0
1.6896333694458008,40.0,264.0,668.0,1413.0,706.0,34.0,20.0
1.6911499500274658,46.0,30.0,1212.0,930.0,536.0,50.0,21.0
1.6926666498184204,31.0,1751.0,401.0,38.0,921.0,50.0,21.0
1.694183349609375,19.0,2109.0,8.0,11.0,420.0,14.0,18.0
1.6957000494003296,14.0,886.0,28.0,622.0,17.0,427.0,23.0
1.6972166299819946,10.0,6.0,279.0,1429.0,23.0,232.0,19.0
1.6987333297729492,0.0,548.0,453.0,1723.0,26.0,36.0,15.0
1.7002500295639038,4.0,1287.0,626.0,420.0,741.0,18.0,11.0
1.7018333673477173,8.0,1284.0,13.0,1786.0,406.0,0.0,7.0
1.7033499479293823,10.0,1089.0,661.0,778.0,72.0,10.0,22.0
1.704866647720337,12.0,25.0,783.0,255.0,107.0,114.0,0.0
1.7063833475112915,9.0,24.0,41.0,1637.0,0.0,217.0,20.0
1.707900047302246,5.0,168.0,436.0,1510.0,20.0,121.0,17.0
1.7094166278839111,6.0,8.0,667.0,1947.0,48.0,25.0,25.0
1.7109333276748657,12.0,0.0,339.0,15.0,199.0,14.0,11.0
1.7124500274658203,18.0,8.0,10.0,781.0,115.0,27.0,18.0
1.7139666080474854,21.0,15.0,1110.0,960.0,31.0,26.0,378.0
1.71548330783844,24.0,22.0,929.0,656.0,20.0,25.0,201.0
1.7170000076293945,21.0,24.0,41.0,903.0,9.0,24.0,23.0
1.718566656112671,10.0,25.0,720.0,673.0,90.0,24.0,0.0
1.7200833559036255,8.0,382.0,1305.0,444.0,59.0,28.0,56.0
1.72160005569458,15.0,199.0,187.0,32.0,28.0,22.0,7.0
1.7231166362762451,0.0,15.0,254.0,31.0,25.0,15.0,25.0
1.7246500253677368,17.0,14.0,1279.0,253.0,18.0,14.0,21.0
1.7261500358581543,20.0,12.0,1085.0,474.0,18.0,12.0,13.0
1.7276666164398193,22.0,14.0,569.0,641.0,17.0,11.0,24.0
1.729183316230774,19.0,16.0,12.0,808.0,21.0,10.0,20.0
1.7307000160217285,16.0,8.0,1207.0,1623.0,32.0,14.0,11.0
1.732216715812683,20.0,15.0,6.0,1751.0,281.0,13.0,0.0
1.7337332963943481,18.0,36.0,1050.0,566.0,281.0,12.0,28.0
1.7353166341781616,15.0,21.0,1367.0,412.0,280.0,7.0,24.0
1.7368333339691162,14.0,5.0,1277.0,824.0,16.0,7.0,11.0
1.7383500337600708,7.0,471.0,1399.0,25.0,53.0,9.0,21.0
1.7398666143417358,0.0,259.0,12.0,178.0,379.0,10.0,26.0
1.7413833141326904,3.0,46.0,35.0,406.0,205.0,13.0,5.0
1.742900013923645,5.0,502.0,170.0,53.0,32.0,16.0,34.0
1.7444167137145996,10.0,282.0,53.0,41.0,15.0,23.0,22.0
1.7459332942962646,9.0,62.0,258.0,5.0,14.0,0.0,9.0
1.7474499940872192,7.0,44.0,137.0,17.0,13.0,23.0,19.0
1.7489666938781738,14.0,26.0,16.0,12.0,12.0,27.0,18.0
1.7504832744598389,20.0,24.0,19.0,6.0,745.0,36.0,12.0
1.7520666122436523,21.0,576.0,7.0,22.0,402.0,6.0,17.0
1.753583312034607,28.0,766.0,11.0,0.0,59.0,20.0,14.0
1.7551000118255615,39.0,29.0,14.0,14.0,11.0,0.0,10.0
1.7566167116165161,35.0,30.0,36.0,29.0,17.0,3.0,6.0
1.7581332921981812,42.0,50.0,35.0,30.0,12.0,5.0,5.0
1.7596499919891357,5.0,45.0,31.0,42.0,6.0,23.0,0.0
1.7611666917800903,27.0,41.0,26.0,178.0,10.0,22.0,0.0
1.762683391571045,14.0,820.0,29.0,313.0,34.0,20.0,27.0
1.76419997215271,31.0,1060.0,7.0,163.0,360.0,0.0,21.0
1.7657166719436646,5.0,32.0,18.0,13.0,180.0,18.0,15.0
1.7672333717346191,5.0,138.0,460.0,35.0,0.0,13.0,10.0
1.7688167095184326,64.0,1028.0,238.0,30.0,46.0,22.0,10.0
1.7703332901000977,46.0,920.0,15.0,414.0,347.0,0.0,10.0
1.7718499898910522,28.0,10.0,46.0,218.0,177.0,0.0,6.0
1.7733666896820068,0.0,21.0,580.0,22.0,8.0,38.0,15.0
1.7748833894729614,10.0,18.0,311.0,11.0,17.0,27.0,24.0
1.7763999700546265,18.0,23.0,43.0,0.0,26.0,80.0,19.0
1.777916669845581,6.0,28.0,57.0,18.0,5.0,159.0,23.0
1.7794333696365356,0.0,340.0,51.0,26.0,68.0,238.0,0.0
1.7809499502182007,6.0,186.0,40.0,21.0,347.0,128.0,31.0
1.7824666500091553,23.0,32.0,28.0,15.0,174.0,17.0,22.0
1.7839833498001099,40.0,10.0,28.0,11.0,0.0,39.0,5.0
1.7855333089828491,25.0,5.0,402.0,6.0,56.0,61.0,17.0
1.7870666980743408,10.0,366.0,288.0,3.0,42.0,5.0,18.0
1.7885832786560059,40.0,207.0,174.0,0.0,28.0,21.0,34.0
1.7900999784469604,28.0,49.0,492.0,9.0,32.0,14.0,44.0
1.791616678237915,32.0,19.0,11.0,18.0,10.0,18.0,50.0
1.7931333780288696,34.0,0.0,29.0,44.0,20.0,23.0,6.0
1.7946499586105347,35.0,14.0,23.0,714.0,19.0,27.0,13.0
1.7961666584014893,34.0,11.0,7.0,843.0,5.0,14.0,18.0
1.7976833581924438,33.0,8.0,14.0,39.0,10.0,0.0,26.0
1.7992000579833984,11.0,33.0,21.0,18.0,14.0,14.0,34.0
1.8007166385650635,6.0,28.0,16.0,31.0,5.0,0.0,53.0
1.802233338356018,45.0,23.0,10.0,354.0,20.0,0.0,37.0
1.8038166761398315,24.0,34.0,20.0,185.0,19.0,0.0,21.0
1.8053333759307861,50.0,27.0,22.0,16.0,18.0,3.0,32.0
1.8068499565124512,0.0,20.0,24.0,8.0,19.0,5.0,20.0
1.8083666563034058,27.0,12.0,710.0,5.0,13.0,15.0,20.0
1.8098833560943604,20.0,11.0,555.0,47.0,7.0,24.0,17.0
1.811400055885315,0.0,10.0,399.0,26.0,9.0,696.0,11.0
1.81291663646698,8.0,10.0,557.0,5.0,0.0,366.0,5.0
1.8144333362579346,20.0,10.0,17.0,20.0,28.0,35.0,14.0
1.8159500360488892,210.0,15.0,9.0,26.0,23.0,10.0,23.0
1.8174666166305542,110.0,21.0,0.0,20.0,16.0,36.0,51.0
1.8189833164215088,10.0,35.0,0.0,14.0,9.0,458.0,48.0
1.8205666542053223,16.0,32.0,0.0,23.0,21.0,247.0,46.0
1.8220833539962769,64.0,29.0,0.0,38.0,26.0,36.0,29.0
1.8236000537872314,38.0,27.0,0.0,30.0,38.0,10.0,37.0
1.8251166343688965,13.0,11.0,7.0,22.0,30.0,7.0,27.0
1.826633334159851,21.0,0.0,13.0,18.0,15.0,14.0,16.0
1.8281500339508057,29.0,0.0,62.0,90.0,0.0,21.0,44.0
1.8296666145324707,31.0,0.0,44.0,54.0,5.0,24.0,10.0
1.8311833143234253,31.0,3.0,27.0,17.0,15.0,43.0,0.0
1.8327000141143799,34.0,5.0,7.0,9.0,10.0,21.0,33.0
1.8342167139053345,60.0,15.0,5.0,0.0,5.0,0.0,7.0
1.8357332944869995,0.0,15.0,26.0,14.0,12.0,38.0,6.0
1.8372999429702759,19.0,15.0,5.0,0.0,12.0,33.0,5.0
1.8388166427612305,73.0,16.0,49.0,20.0,11.0,27.0,0.0
1.840333342552185,40.0,0.0,319.0,39.0,0.0,30.0,48.0
1.8418500423431396,6.0,62.0,169.0,53.0,3.0,29.0,39.0
1.8433666229248047,35.0,49.0,19.0,66.0,5.0,23.0,31.0
1.8448833227157593,34.0,36.0,26.0,24.0,636.0,18.0,41.0
1.8464000225067139,21.0,75.0,18.0,21.0,324.0,0.0,50.0
1.8479167222976685,25.0,21.0,57.0,22.0,12.0,7.0,12.0
1.8494333028793335,23.0,11.0,35.0,23.0,65.0,7.0,41.0
1.850950002670288,16.0,0.0,13.0,32.0,24.0,6.0,24.0
1.8524667024612427,20.0,9.0,54.0,33.0,20.0,8.0,5.0
1.8540500402450562,13.0,18.0,21.0,27.0,26.0,10.0,19.0
1.8555666208267212,5.0,34.0,23.0,20.0,20.0,19.0,10.0
1.8570833206176758,0.0,40.0,14.0,0.0,25.0,18.0,17.0
1.8586000204086304,5.0,32.0,24.0,0.0,19.0,18.0,23.0
1.860116720199585,10.0,10.0,46.0,0.0,14.0,12.0,7.0
1.86163330078125,12.0,0.0,23.0,11.0,8.0,7.0,5.0
1.8631500005722046,13.0,18.0,0.0,22.0,20.0,24.0,12.0
1.8646667003631592,15.0,9.0,3.0,23.0,20.0,31.0,6.0
1.8661832809448242,37.0,0.0,6.0,23.0,16.0,20.0,30.0
1.8676999807357788,35.0,30.0,20.0,23.0,12.0,22.0,27.0
1.8692166805267334,33.0,24.0,33.0,764.0,23.0,7.0,23.0
1.8708000183105469,22.0,27.0,32.0,389.0,19.0,14.0,72.0
1.8723167181015015,34.0,29.0,31.0,15.0,20.0,20.0,42.0
1.8738332986831665,19.0,11.0,18.0,156.0,21.0,86.0,13.0
1.875349998474121,16.0,29.0,5.0,57.0,328.0,47.0,23.0
1.8768666982650757,39.0,25.0,20.0,142.0,191.0,9.0,26.0
1.8783832788467407,0.0,21.0,0.0,41.0,54.0,22.0,29.0
1.8798999786376953,16.0,37.0,0.0,0.0,12.0,12.0,0.0
1.88141667842865,41.0,6.0,0.0,156.0,20.0,23.0,22.0
1.8829333782196045,5.0,0.0,0.0,260.0,34.0,10.0,44.0
1.8844499588012695,41.0,0.0,0.0,275.0,47.0,12.0,22.0
1.8859666585922241,62.0,3.0,431.0,39.0,37.0,14.0,34.0
1.8875333070755005,11.0,5.0,219.0,39.0,26.0,7.0,35.0
1.889050006866455,39.0,20.0,7.0,40.0,61.0,0.0,6.0
1.8905832767486572,29.0,36.0,328.0,41.0,5.0,14.0,10.0
1.8920832872390747,42.0,28.0,22.0,44.0,11.0,5.0,26.0
1.8935999870300293,26.0,19.0,198.0,36.0,16.0,541.0,10.0
1.8951166868209839,13.0,18.0,13.0,27.0,25.0,270.0,31.0
1.8966333866119385,0.0,18.0,297.0,0.0,33.0,0.0,28.0
1.8981666564941406,3.0,17.0,581.0,12.0,28.0,697.0,24.0
1.899666666984558,5.0,91.0,772.0,29.0,19.0,40.0,40.0
1.9011833667755127,0.0,57.0,386.0,21.0,19.0,13.0,6.0
1.9026999473571777,16.0,22.0,0.0,12.0,22.0,0.0,25.0
1.9042667150497437,24.0,11.0,0.0,15.0,19.0,33.0,8.0
1.9057999849319458,27.0,0.0,11.0,17.0,16.0,27.0,14.0
1.9073166847229004,0.0,4.0,13.0,28.0,23.0,20.0,20.0
1.908833384513855,22.0,7.0,12.0,39.0,5.0,5.0,23.0
1.91034996509552,10.0,7.0,5.0,0.0,16.0,5.0,27.0
1.9118666648864746,10.0,6.0,3.0,572.0,12.0,5.0,30.0
1.9133833646774292,26.0,5.0,0.0,480.0,36.0,8.0,38.0
1.9148999452590942,22.0,6.0,41.0,495.0,40.0,7.0,11.0
1.9164166450500488,31.0,7.0,647.0,23.0,43.0,5.0,14.0
1.9179333448410034,28.0,14.0,924.0,580.0,22.0,12.0,17.0
1.919450044631958,10.0,10.0,751.0,28.0,11.0,11.0,9.0
1.920966625213623,21.0,6.0,19.0,0.0,0.0,24.0,0.0
1.9225499629974365,20.0,6.0,627.0,5.0,6.0,30.0,21.0
1.9240666627883911,17.0,5.0,0.0,11.0,12.0,23.0,42.0
1.9255833625793457,15.0,57.0,7.0,16.0,10.0,0.0,32.0
1.9270999431610107,12.0,35.0,0.0,28.0,7.0,52.0,14.0
1.9286166429519653,27.0,14.0,8.0,39.0,5.0,26.0,8.0
1.93013334274292,55.0,5.0,9.0,668.0,0.0,0.0,34.0
1.9316500425338745,61.0,40.0,10.0,334.0,33.0,18.0,0.0
1.9331666231155396,15.0,6.0,468.0,0.0,20.0,13.0,0.0
1.9346833229064941,17.0,6.0,236.0,6.0,8.0,23.0,39.0
1.9362000226974487,19.0,6.0,5.0,12.0,16.0,33.0,21.0
1.9377167224884033,54.0,48.0,34.0,23.0,24.0,36.0,0.0
1.9392999410629272,53.0,37.0,17.0,33.0,17.0,34.0,15.0
1.9408166408538818,35.0,25.0,49.0,345.0,10.0,0.0,11.0
1.9423333406448364,17.0,0.0,27.0,659.0,18.0,36.0,0.0
1.943850040435791,36.0,10.0,5.0,565.0,26.0,33.0,0.0
1.945366621017456,42.0,32.0,18.0,471.0,648.0,36.0,0.0
1.9468833208084106,23.0,25.0,5.0,0.0,330.0,33.0,13.0
1.9484000205993652,5.0,19.0,11.0,43.0,12.0,18.0,10.0
1.9499167203903198,29.0,28.0,9.0,43.0,32.0,0.0,7.0
1.9514333009719849,5.0,142.0,6.0,36.0,12.0,11.0,7.0
1.9529500007629395,14.0,77.0,6.0,28.0,35.0,47.0,12.0
1.954466700553894,11.0,12.0,30.0,29.0,18.0,24.0,16.0
1.9560500383377075,31.0,8.0,53.0,22.0,13.0,0.0,15.0
1.9575666189193726,36.0,7.0,41.0,16.0,25.0,31.0,13.0
1.9590833187103271,0.0,10.0,0.0,10.0,29.0,15.0,27.0
1.9606000185012817,62.0,5.0,14.0,14.0,7.0,22.0,23.0
1.9621167182922363,46.0,0.0,27.0,5.0,36.0,7.0,18.0
1.9636332988739014,14.0,17.0,19.0,12.0,32.0,6.0,6.0
1.965149998664856,5.0,9.0,42.0,19.0,27.0,5.0,5.0
1.9666666984558105,22.0,0.0,33.0,24.0,19.0,8.0,30.0
1.9681832790374756,74.0,3.0,23.0,29.0,10.0,11.0,41.0
1.9696999788284302,48.0,5.0,27.0,29.0,28.0,13.0,23.0
1.9712166786193848,22.0,10.0,8.0,25.0,5.0,5.0,0.0
1.9727833271026611,37.0,12.0,27.0,27.0,25.0,19.0,34.0
1.9743000268936157,11.0,10.0,5.0,37.0,8.0,13.0,17.0
1.9758166074752808,30.0,7.0,25.0,5.0,32.0,7.0,0.0
1.9773333072662354,13.0,11.0,45.0,20.0,55.0,11.0,0.0
1.97885000705719,0.0,11.0,36.0,265.0,28.0,19.0,5.0
1.9803667068481445,5.0,25.0,24.0,159.0,0.0,26.0,6.0
1.9818999767303467,15.0,22.0,8.0,54.0,14.0,0.0,5.0
1.9833999872207642,19.0,19.0,6.0,37.0,13.0,30.0,3.0
1.9849166870117188,22.0,24.0,14.0,20.0,13.0,35.0,0.0
1.9864333868026733,20.0,29.0,21.0,937.0,13.0,16.0,14.0
1.9879666566848755,18.0,25.0,28.0,471.0,21.0,18.0,7.0
1.9895333051681519,19.0,21.0,32.0,5.0,29.0,6.0,0.0
1.9910500049591064,20.0,16.0,17.0,5.0,39.0,6.0,3.0
1.992566704750061,18.0,29.0,16.0,606.0,46.0,5.0,5.0
1.994083285331726,15.0,18.0,10.0,26.0,17.0,10.0,12.0
1.9955999851226807,13.0,7.0,1016.0,37.0,5.0,9.0,25.0
1.9971166849136353,10.0,51.0,839.0,10.0,10.0,7.0,37.0
1.9986333847045898,6.0,49.0,661.0,25.0,10.0,19.0,34.0
2.000149965286255,11.0,18.0,733.0,39.0,8.0,31.0,31.0
2.001666784286499,6.0,34.0,24.0,22.0,6.0,32.0,32.0
2.003183364868164,5.0,16.0,14.0,5.0,22.0,0.0,25.0
2.004699945449829,30.0,20.0,442.0,19.0,15.0,10.0,15.0
2.0062832832336426,24.0,24.0,24.0,22.0,8.0,25.0,439.0
2.0078001022338867,40.0,11.0,23.0,11.0,33.0,6.0,224.0
2.0093166828155518,11.0,11.0,12.0,29.0,37.0,18.0,10.0
2.010833263397217,32.0,45.0,28.0,36.0,0.0,14.0,16.0
2.012350082397461,19.0,36.0,14.0,32.0,31.0,10.0,40.0
2.013866662979126,5.0,27.0,14.0,27.0,39.0,5.0,56.0
2.015383243560791,17.0,38.0,11.0,0.0,47.0,9.0,36.0
2.016900062561035,21.0,19.0,6.0,40.0,38.0,13.0,29.0
2.0184166431427,19.0,0.0,0.0,23.0,29.0,12.0,34.0
2.0199332237243652,12.0,40.0,21.0,6.0,13.0,14.0,10.0
2.0214500427246094,5.0,40.0,21.0,20.0,16.0,13.0,8.0
2.0230166912078857,14.0,40.0,6.0,13.0,16.0,12.0,12.0
2.024549961090088,13.0,21.0,5.0,5.0,16.0,14.0,9.0
2.026066780090332,11.0,24.0,48.0,12.0,0.0,15.0,5.0
2.027583360671997,14.0,19.0,48.0,19.0,27.0,29.0,8.0
2.029099941253662,14.0,14.0,47.0,0.0,0.0,38.0,13.0
2.0306167602539062,14.0,15.0,54.0,37.0,16.0,36.0,18.0
2.0321333408355713,26.0,57.0,26.0,27.0,19.0,16.0,0.0
2.0336499214172363,16.0,34.0,23.0,9.0,13.0,5.0,17.0
2.0351667404174805,5.0,11.0,20.0,0.0,15.0,18.0,22.0
2.0366833209991455,34.0,5.0,9.0,0.0,0.0,16.0,23.0
2.0381999015808105,31.0,20.0,192.0,0.0,0.0,17.0,24.0
2.0397167205810547,16.0,15.0,96.0,0.0,0.0,15.0,20.0
2.041283369064331,17.0,10.0,0.0,33.0,8.0,13.0,15.0
2.042799949645996,0.0,36.0,25.0,46.0,16.0,10.0,14.0
2.0443167686462402,10.0,34.0,50.0,982.0,20.0,8.0,26.0
2.0458333492279053,0.0,23.0,44.0,1219.0,21.0,5.0,16.0
2.0473499298095703,20.0,12.0,15.0,30.0,22.0,0.0,6.0
2.0488667488098145,22.0,0.0,30.0,29.0,0.0,19.0,10.0
2.0503833293914795,24.0,6.0,30.0,11.0,30.0,36.0,0.0
2.0518999099731445,12.0,22.0,15.0,36.0,27.0,28.0,28.0
2.053433418273926,18.0,24.0,0.0,15.0,23.0,12.0,41.0
2.0549333095550537,24.0,25.0,47.0,19.0,21.0,16.0,27.0
2.056466579437256,39.0,0.0,34.0,22.0,0.0,22.0,24.0
2.0580332279205322,32.0,5.0,25.0,17.0,35.0,27.0,5.0
2.0595500469207764,24.0,5.0,16.0,11.0,22.0,22.0,29.0
2.0610666275024414,21.0,31.0,6.0,32.0,15.0,0.0,41.0
2.0625834465026855,14.0,29.0,17.0,53.0,7.0,38.0,20.0
2.0641000270843506,7.0,13.0,21.0,51.0,18.0,27.0,27.0
2.0656166076660156,10.0,38.0,16.0,36.0,9.0,29.0,30.0
2.0671334266662598,0.0,50.0,5.0,60.0,0.0,30.0,22.0
2.068650007247925,0.0,62.0,3.0,0.0,6.0,11.0,13.0
2.07016658782959,0.0,45.0,0.0,15.0,12.0,20.0,42.0
2.071683406829834,7.0,29.0,436.0,10.0,18.0,17.0,0.0
2.073199987411499,13.0,32.0,218.0,5.0,23.0,12.0,0.0
2.0747833251953125,46.0,17.0,0.0,5.0,17.0,12.0,25.0
2.0762999057769775,47.0,27.0,5.0,13.0,27.0,0.0,25.0
2.0778167247772217,5.0,0.0,27.0,21.0,27.0,31.0,19.0
2.0793333053588867,24.0,29.0,32.0,15.0,26.0,28.0,42.0
2.0808498859405518,20.0,20.0,30.0,8.0,0.0,24.0,38.0
2.082366704940796,24.0,11.0,27.0,5.0,5.0,25.0,5.0
2.083883285522461,22.0,0.0,31.0,11.0,30.0,30.0,40.0
2.085400104522705,21.0,14.0,34.0,17.0,0.0,30.0,40.0
2.08691668510437,8.0,23.0,23.0,17.0,3.0,29.0,17.0
2.088433265686035,14.0,18.0,12.0,15.0,5.0,7.0,28.0
2.0899500846862793,19.0,5.0,12.0,30.0,21.0,29.0,40.0
2.0915167331695557,8.0,19.0,11.0,15.0,37.0,17.0,43.0
2.0930333137512207,18.0,22.0,10.0,0.0,26.0,5.0,24.0
2.094566583633423,10.0,14.0,31.0,12.0,15.0,19.0,5.0
2.09606671333313,0.0,6.0,382.0,5.0,36.0,12.0,25.0
2.097599983215332,31.0,0.0,195.0,5.0,24.0,16.0,0.0
2.099100112915039,23.0,10.0,7.0,24.0,17.0,28.0,11.0
2.1015000343322754,0.0,8.0,10.0,43.0,0.0,32.0,32.0
2.1038832664489746,21.0,5.0,100.0,45.0,22.0,0.0,14.0
2.106266736984253,46.0,16.0,27.0,21.0,14.0,4.0,26.0
2.1086666584014893,72.0,27.0,62.0,28.0,5.0,8.0,20.0
2.1110498905181885,44.0,21.0,97.0,35.0,5.0,4.0,24.0
2.113433361053467,25.0,25.0,5.0,59.0,24.0,0.0,19.0
2.115816593170166,6.0,15.0,510.0,1287.0,19.0,36.0,0.0
2.1182000637054443,49.0,5.0,259.0,1643.0,7.0,40.0,15.0
2.1205832958221436,47.0,5.0,8.0,20.0,31.0,33.0,0.0
2.122966766357422,26.0,7.0,5.0,21.0,570.0,27.0,12.0
2.1254167556762695,11.0,6.0,7.0,1279.0,466.0,5.0,24.0
2.1277999877929688,16.0,5.0,8.0,914.0,34.0,42.0,110.0
2.130183219909668,28.0,9.0,10.0,742.0,232.0,13.0,91.0
2.1325666904449463,10.0,12.0,11.0,909.0,21.0,21.0,12.0
2.1349499225616455,26.0,36.0,18.0,3269.0,24.0,16.0,689.0
2.137333393096924,16.0,32.0,17.0,2320.0,264.0,10.0,353.0
2.139716625213623,0.0,35.0,17.0,1372.0,505.0,23.0,17.0
2.1421666145324707,41.0,0.0,294.0,10.0,1152.0,22.0,538.0
2.144550085067749,56.0,24.0,174.0,3817.0,1048.0,20.0,277.0
2.1469333171844482,15.0,0.0,55.0,3068.0,1967.0,888.0,15.0
2.1493165493011475,21.0,51.0,511.0,2320.0,1576.0,444.0,5.0
2.151700019836426,11.0,102.0,3431.0,3561.0,2005.0,0.0,504.0
2.154083251953125,0.0,59.0,2615.0,3942.0,2435.0,163.0,1448.0
2.1564667224884033,16.0,16.0,2180.0,3840.0,6146.0,326.0,1124.0
2.1588666439056396,31.0,15.0,211.0,2964.0,4797.0,177.0,799.0
2.161250114440918,34.0,6.0,27.0,2088.0,3448.0,28.0,883.0
2.163633346557617,96.0,10.0,1734.0,2570.0,1951.0,20.0,1131.0
2.1660165786743164,1036.0,21.0,1108.0,1728.0,782.0,1563.0,1771.0
2.1684000492095947,1225.0,31.0,788.0,887.0,1503.0,2231.0,2216.0
2.170783281326294,16.0,21.0,22.0,2451.0,1498.0,1892.0,7.0
2.1731667518615723,47.0,10.0,1439.0,2102.0,1493.0,18.0,33.0
2.17561674118042,11.0,6.0,1073.0,1966.0,1105.0,0.0,10.0
2.177999973297119,20.0,13.0,1301.0,2318.0,658.0,2388.0,1547.0
2.1803834438323975,32.0,24.0,1277.0,2671.0,1247.0,27.0,1586.0
2.1827666759490967,28.0,23.0,10.0,2741.0,1836.0,543.0,12.0
2.185149908065796,17.0,5.0,1067.0,2314.0,1324.0,22.0,1829.0
2.187533378601074,5.0,6.0,0.0,1887.0,812.0,516.0,1429.0
2.1899166107177734,10.0,6.0,699.0,1578.0,5.0,815.0,257.0
2.192366600036621,5.0,6.0,2212.0,1423.0,402.0,1115.0,44.0
2.1947500705718994,0.0,5.0,2537.0,2161.0,800.0,563.0,415.0
2.1971333026885986,15.0,5.0,1181.0,2900.0,2181.0,12.0,381.0
2.199516773223877,16.0,5.0,18.0,3507.0,1391.0,52.0,346.0
2.201900005340576,17.0,522.0,2142.0,4114.0,601.0,15.0,194.0
2.2042832374572754,0.0,294.0,1212.0,1226.0,151.0,15.0,42.0
2.2066667079925537,14.0,67.0,238.0,1107.0,89.0,9.0,10.0
2.2091000080108643,10.0,20.0,1612.0,2680.0,27.0,23.0,9.0
2.2114999294281006,0.0,0.0,914.0,2319.0,1577.0,37.0,7.0
2.213883399963379,19.0,18.0,216.0,3848.0,1106.0,458.0,842.0
2.216266632080078,18.0,0.0,340.0,4093.0,635.0,523.0,754.0
2.2186665534973145,16.0,4.0,836.0,993.0,380.0,16.0,665.0
2.2210500240325928,28.0,8.0,43.0,4468.0,15.0,38.0,701.0
2.223433256149292,22.0,18.0,388.0,1182.0,767.0,48.0,738.0
2.2258167266845703,16.0,19.0,20.0,1077.0,1518.0,19.0,27.0
2.2282333374023438,17.0,20.0,71.0,2314.0,1126.0,34.0,74.0
2.230616569519043,17.0,32.0,72.0,375.0,839.0,29.0,21.0
2.2330000400543213,16.0,44.0,74.0,782.0,0.0,29.0,58.0
2.2353832721710205,17.0,1021.0,20.0,441.0,7.0,278.0,0.0
2.237766742706299,17.0,534.0,25.0,619.0,291.0,151.0,27.0
2.240149974822998,5.0,46.0,29.0,797.0,148.0,23.0,54.0
2.2425334453582764,16.0,34.0,26.0,26.0,5.0,34.0,39.0
2.24495005607605,0.0,22.0,23.0,23.0,9.0,0.0,11.0
2.247333288192749,37.0,0.0,43.0,19.0,18.0,11.0,18.0
2.2497167587280273,32.0,40.0,24.0,31.0,13.0,37.0,17.0
2.2520999908447266,432.0,76.0,5.0,14.0,8.0,18.0,18.0
2.254483222961426,832.0,55.0,12.0,36.0,21.0,35.0,19.0
2.256866693496704,1000.0,23.0,32.0,22.0,34.0,0.0,19.0
2.2592499256134033,1167.0,11.0,40.0,43.0,39.0,26.0,17.0
2.261666774749756,359.0,0.0,20.0,12.0,44.0,9.0,15.0
2.264050006866455,646.0,23.0,0.0,0.0,25.0,26.0,15.0
2.2664332389831543,934.0,45.0,18.0,21.0,5.0,23.0,38.0
2.2688167095184326,1029.0,27.0,17.0,22.0,5.0,20.0,34.0
2.271199941635132,6.0,9.0,21.0,22.0,20.0,5.0,24.0
2.27358341217041,1382.0,17.0,19.0,14.0,17.0,53.0,14.0
2.2759666442871094,1071.0,18.0,16.0,5.0,14.0,44.0,12.0
2.278383255004883,1255.0,38.0,27.0,35.0,19.0,51.0,11.0
2.280766725540161,323.0,35.0,81.0,38.0,17.0,33.0,23.0
2.2831499576568604,1043.0,31.0,41.0,54.0,14.0,8.0,24.0
2.2855334281921387,2203.0,23.0,0.0,27.0,24.0,27.0,24.0
2.287916660308838,1859.0,15.0,9.0,5.0,41.0,21.0,18.0
2.290299892425537,2241.0,23.0,5.0,16.0,40.0,14.0,27.0
2.2926833629608154,1819.0,22.0,20.0,20.0,40.0,10.0,23.0
2.295099973678589,1397.0,20.0,31.0,20.0,13.0,20.0,23.0
2.297483444213867,1569.0,21.0,483.0,20.0,27.0,13.0,23.0
2.2998666763305664,1014.0,22.0,250.0,0.0,17.0,5.0,34.0
2.3022499084472656,515.0,8.0,17.0,14.0,13.0,12.0,44.0
2.304633378982544,17.0,44.0,15.0,796.0,5.0,19.0,5.0
2.307016611099243,2108.0,46.0,21.0,850.0,36.0,0.0,27.0
2.3094000816345215,1795.0,31.0,0.0,8.0,21.0,47.0,26.0
2.311816692352295,1922.0,15.0,38.0,11.0,6.0,39.0,0.0
2.314199924468994,163.0,11.0,40.0,25.0,11.0,0.0,32.0
2.3165833950042725,6.0,0.0,42.0,33.0,10.0,16.0,45.0
2.3189666271209717,26.0,36.0,23.0,41.0,9.0,44.0,49.0
2.32135009765625,1549.0,32.0,22.0,32.0,7.0,22.0,16.0
2.323733329772949,1702.0,27.0,29.0,19.0,5.0,8.0,29.0
2.3261165618896484,893.0,16.0,31.0,5.0,5.0,33.0,42.0
2.328533411026001,897.0,19.0,33.0,7.0,5.0,15.0,0.0
2.3309166431427,1148.0,11.0,29.0,8.0,6.0,0.0,21.0
2.3333001136779785,589.0,30.0,35.0,67.0,29.0,39.0,36.0
2.3356833457946777,30.0,35.0,30.0,68.0,51.0,19.0,30.0
2.338066577911377,82.0,38.0,25.0,69.0,49.0,24.0,27.0
2.3404500484466553,30.0,40.0,28.0,30.0,98.0,28.0,0.0
2.3428332805633545,605.0,27.0,30.0,64.0,73.0,11.0,14.0
2.345249891281128,314.0,13.0,21.0,40.0,49.0,61.0,5.0
2.3476333618164062,23.0,53.0,11.0,25.0,0.0,49.0,11.0
2.3500165939331055,813.0,42.0,9.0,21.0,65.0,20.0,17.0
2.352400064468384,29.0,32.0,6.0,49.0,53.0,12.0,14.0
2.354783296585083,261.0,70.0,22.0,75.0,26.0,35.0,10.0
2.3571667671203613,493.0,10.0,38.0,54.0,7.0,10.0,15.0
2.3595499992370605,71.0,30.0,36.0,34.0,61.0,15.0,19.0
2.361966609954834,84.0,50.0,27.0,50.0,19.0,19.0,16.0
2.3643500804901123,62.0,26.0,68.0,27.0,25.0,42.0,12.0
2.3667333126068115,79.0,20.0,68.0,40.0,58.0,36.0,30.0
2.36911678314209,104.0,13.0,6.0,55.0,31.0,44.0,52.0
2.371500015258789,94.0,23.0,5.0,820.0,36.0,0.0,74.0
2.3738832473754883,26.0,33.0,55.0,812.0,38.0,21.0,85.0
2.3762667179107666,18.0,19.0,5.0,19.0,39.0,41.0,20.0
2.37868332862854,39.0,5.0,13.0,65.0,31.0,25.0,38.0
2.3810665607452393,57.0,64.0,21.0,570.0,23.0,34.0,32.0
2.3834500312805176,74.0,43.0,28.0,5.0,32.0,27.0,8.0
2.385833263397217,76.0,21.0,35.0,46.0,17.0,34.0,64.0
2.388216733932495,78.0,61.0,36.0,73.0,25.0,41.0,53.0
2.3905999660491943,52.0,38.0,36.0,46.0,24.0,55.0,41.0
2.3929834365844727,75.0,229.0,17.0,139.0,13.0,49.0,18.0
2.395400047302246,66.0,356.0,18.0,98.0,50.0,60.0,31.0
2.3977832794189453,56.0,484.0,14.0,56.0,47.0,60.0,16.0
2.4001667499542236,61.0,38.0,10.0,42.0,44.0,23.0,26.0
2.402549982070923,66.0,100.0,49.0,71.0,48.0,40.0,33.0
2.404933214187622,40.0,136.0,39.0,73.0,53.0,45.0,51.0
2.4073166847229004,47.0,30.0,29.0,55.0,40.0,35.0,60.0
2.4096999168395996,53.0,19.0,56.0,36.0,28.0,20.0,58.0
2.412116765975952,34.0,56.0,32.0,26.0,20.0,51.0,56.0
2.4144999980926514,63.0,92.0,54.0,17.0,12.0,46.0,54.0
2.4168832302093506,54.0,86.0,13.0,5.0,65.0,41.0,50.0
2.419266700744629,71.0,50.0,73.0,7.0,75.0,20.0,47.0
2.421649932861328,28.0,15.0,5.0,8.0,12.0,52.0,12.0
2.4240334033966064,56.0,39.0,11.0,22.0,35.0,0.0,56.0
2.4264166355133057,38.0,38.0,18.0,28.0,5.0,33.0,46.0
2.428833246231079,33.0,36.0,24.0,21.0,45.0,37.0,35.0
2.4312167167663574,20.0,37.0,31.0,29.0,30.0,10.0,6.0
2.4335999488830566,45.0,22.0,38.0,18.0,19.0,47.0,21.0
2.435983419418335,50.0,32.0,24.0,17.0,36.0,33.0,16.0
2.438366651535034,55.0,39.0,10.0,15.0,17.0,43.0,43.0
2.4407498836517334,31.0,5.0,25.0,15.0,0.0,22.0,53.0
2.4431333541870117,64.0,21.0,13.0,15.0,3.0,0.0,32.0
2.445549964904785,15.0,22.0,0.0,32.0,6.0,0.0,31.0
2.4479334354400635,20.0,26.0,17.0,19.0,55.0,16.0,31.0
2.4503166675567627,32.0,30.0,14.0,5.0,48.0,23.0,45.0
2.452699899673462,31.0,15.0,10.0,29.0,66.0,30.0,26.0
2.4550833702087402,0.0,0.0,10.0,31.0,67.0,24.0,6.0
2.4574666023254395,24.0,39.0,28.0,32.0,49.0,18.0,28.0
2.4598500728607178,6.0,23.0,20.0,6.0,30.0,32.0,35.0
2.462266683578491,26.0,0.0,13.0,0.0,0.0,25.0,17.0
2.4646499156951904,10.0,0.0,22.0,16.0,31.0,25.0,12.0
2.4670333862304688,12.0,5.0,76.0,20.0,25.0,23.0,17.0
2.469416618347168,11.0,13.0,58.0,24.0,19.0,21.0,5.0
2.4718000888824463,6.0,45.0,40.0,33.0,0.0,22.0,53.0
2.4741833209991455,0.0,378.0,23.0,26.0,16.0,22.0,48.0
2.4765665531158447,16.0,204.0,20.0,18.0,20.0,12.0,55.0
2.4789834022521973,22.0,29.0,26.0,22.0,6.0,20.0,14.0
2.4813666343688965,27.0,30.0,28.0,5.0,8.0,27.0,30.0
2.483750104904175,26.0,31.0,30.0,0.0,10.0,33.0,32.0
2.486133337020874,13.0,25.0,19.0,26.0,11.0,30.0,8.0
2.4885165691375732,0.0,16.0,13.0,6.0,11.0,27.0,37.0
2.4909000396728516,15.0,6.0,7.0,27.0,0.0,34.0,13.0
2.493283271789551,11.0,15.0,22.0,66.0,5.0,20.0,38.0
2.495699882507324,6.0,0.0,7.0,42.0,10.0,29.0,13.0
