,486.2099914550781,487.2099914550781,488.2099914550781,489.2099914550781,490.2099914550781,491.2099914550781,492.2099914550781,493.2099914550781
5.101733207702637,46.0,20.0,0.0,28.0,11.0,26.0,10.0,55.0
5.103466510772705,0.0,0.0,60.0,21.0,6.0,64.0,14.0,16.0
5.105199813842773,5.0,19.0,5.0,15.0,14.0,20.0,9.0,17.0
5.106933116912842,11.0,16.0,40.0,32.0,13.0,42.0,13.0,12.0
5.108666896820068,14.0,13.0,46.0,36.0,12.0,30.0,17.0,9.0
5.110400199890137,17.0,21.0,6.0,42.0,6.0,0.0,18.0,5.0
5.112133502960205,24.0,13.0,0.0,23.0,9.0,41.0,17.0,17.0
5.113866806030273,31.0,5.0,39.0,16.0,14.0,22.0,16.0,23.0
5.115600109100342,42.0,9.0,40.0,0.0,18.0,48.0,7.0,17.0
5.117400169372559,47.0,12.0,17.0,5.0,12.0,7.0,0.0,21.0
5.119133472442627,12.0,14.0,15.0,13.0,5.0,7.0,22.0,13.0
5.120866775512695,0.0,5.0,22.0,20.0,15.0,0.0,11.0,33.0
5.122600078582764,15.0,10.0,0.0,24.0,32.0,26.0,9.0,26.0
5.124333381652832,12.0,18.0,21.0,0.0,25.0,35.0,7.0,19.0
5.1260666847229,23.0,15.0,17.0,31.0,15.0,21.0,4.0,0.0
5.127799987792969,13.0,11.0,25.0,20.0,23.0,10.0,0.0,28.0
5.129533290863037,9.0,19.0,24.0,15.0,0.0,28.0,19.0,19.0
5.1312665939331055,21.0,13.0,23.0,22.0,10.0,16.0,20.0,28.0
5.132999897003174,6.0,0.0,36.0,18.0,9.0,6.0,7.0,33.0
5.1347832679748535,34.0,25.0,5.0,13.0,8.0,15.0,0.0,27.0
5.136516571044922,33.0,19.0,31.0,7.0,7.0,26.0,4.0,21.0
5.13824987411499,5.0,36.0,42.0,0.0,5.0,13.0,8.0,14.0
5.139983177185059,5.0,15.0,21.0,23.0,17.0,0.0,14.0,6.0
5.141716480255127,3.0,38.0,8.0,18.0,29.0,12.0,20.0,10.0
5.143466472625732,0.0,7.0,5.0,13.0,25.0,6.0,26.0,20.0
5.145183563232422,10.0,21.0,6.0,26.0,20.0,0.0,21.0,33.0
5.14691686630249,23.0,24.0,5.0,0.0,5.0,0.0,20.0,39.0
5.148650169372559,23.0,18.0,6.0,20.0,11.0,5.0,20.0,44.0
5.150400161743164,0.0,84.0,6.0,13.0,16.0,10.0,29.0,39.0
5.152183532714844,5.0,49.0,18.0,13.0,15.0,16.0,37.0,33.0
5.153916835784912,47.0,13.0,21.0,15.0,33.0,10.0,34.0,30.0
5.1556501388549805,26.0,11.0,14.0,17.0,38.0,6.0,13.0,6.0
5.157383441925049,6.0,6.0,20.0,22.0,6.0,10.0,17.0,11.0
5.159116744995117,3.0,0.0,32.0,24.0,28.0,11.0,17.0,5.0
5.1608500480651855,0.0,12.0,16.0,25.0,38.0,8.0,14.0,7.0
5.162583351135254,3.0,14.0,0.0,42.0,25.0,5.0,20.0,11.0
5.164316654205322,6.0,16.0,11.0,54.0,27.0,5.0,19.0,14.0
5.166049957275391,8.0,18.0,17.0,5.0,28.0,5.0,18.0,20.0
5.167783260345459,10.0,20.0,22.0,25.0,5.0,3.0,25.0,17.0
5.169583320617676,10.0,35.0,25.0,29.0,6.0,0.0,31.0,15.0
5.171316623687744,10.0,37.0,28.0,5.0,7.0,19.0,27.0,18.0
5.1730499267578125,5.0,0.0,0.0,15.0,5.0,24.0,20.0,5.0
5.174783229827881,0.0,21.0,19.0,17.0,9.0,6.0,16.0,0.0
5.176516532897949,12.0,36.0,35.0,13.0,12.0,19.0,28.0,22.0
5.178249835968018,9.0,12.0,21.0,7.0,20.0,25.0,17.0,46.0
5.179983139038086,5.0,13.0,16.0,0.0,20.0,31.0,5.0,31.0
5.181716442108154,9.0,25.0,12.0,5.0,19.0,27.0,28.0,9.0
5.183450222015381,13.0,12.0,22.0,10.0,21.0,15.0,20.0,18.0
5.185233116149902,15.0,6.0,15.0,18.0,0.0,12.0,11.0,7.0
5.186966896057129,17.0,18.0,8.0,17.0,6.0,9.0,14.0,0.0
5.188716888427734,0.0,6.0,5.0,15.0,12.0,11.0,0.0,15.0
5.190433502197266,21.0,15.0,18.0,17.0,0.0,12.0,0.0,14.0
5.192166805267334,32.0,23.0,12.0,51.0,5.0,5.0,0.0,13.0
5.193900108337402,16.0,6.0,5.0,43.0,39.0,18.0,31.0,6.0
5.195633411407471,20.0,5.0,6.0,51.0,29.0,20.0,53.0,17.0
5.197366714477539,17.0,5.0,38.0,7.0,25.0,0.0,33.0,27.0
5.1991167068481445,5.0,0.0,33.0,5.0,21.0,7.0,22.0,32.0
5.202633380889893,29.0,6.0,28.0,5.0,15.0,13.0,21.0,5.0
5.206099987030029,25.0,3.0,35.0,3.0,10.0,29.0,30.0,0.0
5.209566593170166,22.0,0.0,23.0,0.0,5.0,25.0,17.0,11.0
5.213033199310303,29.0,9.0,17.0,7.0,21.0,21.0,23.0,19.0
5.2164998054504395,0.0,16.0,0.0,12.0,22.0,20.0,0.0,23.0
5.220033168792725,30.0,11.0,26.0,17.0,23.0,12.0,20.0,17.0
5.223499774932861,0.0,6.0,9.0,0.0,20.0,14.0,15.0,14.0
5.226966857910156,24.0,41.0,0.0,0.0,30.0,45.0,10.0,23.0
5.230433464050293,7.0,46.0,31.0,6.0,8.0,39.0,23.0,23.0
5.23390007019043,20.0,8.0,16.0,0.0,8.0,29.0,32.0,29.0
5.237433433532715,0.0,25.0,32.0,3.0,12.0,35.0,0.0,24.0
5.240900039672852,12.0,41.0,6.0,5.0,13.0,17.0,19.0,19.0
5.244366645812988,18.0,21.0,25.0,0.0,5.0,18.0,39.0,12.0
5.247833251953125,23.0,16.0,46.0,24.0,0.0,18.0,10.0,5.0
5.251299858093262,49.0,19.0,35.0,30.0,0.0,10.0,26.0,0.0
5.25481653213501,30.0,7.0,32.0,45.0,0.0,7.0,15.0,5.0
5.2582831382751465,12.0,6.0,54.0,35.0,18.0,5.0,29.0,10.0
5.261750221252441,20.0,14.0,5.0,21.0,15.0,18.0,7.0,15.0
5.265216827392578,10.0,8.0,67.0,6.0,15.0,28.0,46.0,12.0
5.268683433532715,17.0,13.0,17.0,28.0,23.0,37.0,35.0,9.0
5.272216796875,7.0,17.0,17.0,33.0,69.0,36.0,5.0,6.0
5.275683403015137,5.0,21.0,5.0,10.0,67.0,0.0,5.0,8.0
5.279150009155273,0.0,16.0,13.0,31.0,20.0,24.0,19.0,16.0
5.28261661529541,0.0,13.0,20.0,0.0,0.0,54.0,46.0,14.0
5.286083221435547,0.0,10.0,13.0,32.0,0.0,42.0,56.0,11.0
5.289616584777832,8.0,0.0,5.0,21.0,27.0,5.0,51.0,36.0
5.293083190917969,15.0,4.0,11.0,9.0,7.0,10.0,45.0,46.0
5.2965497970581055,30.0,8.0,5.0,7.0,18.0,15.0,12.0,44.0
5.3000168800354,26.0,28.0,72.0,5.0,29.0,16.0,20.0,13.0
5.303483486175537,21.0,26.0,48.0,20.0,13.0,16.0,0.0,12.0
5.306983470916748,0.0,28.0,24.0,25.0,31.0,16.0,9.0,11.0
5.310450077056885,11.0,25.0,13.0,34.0,22.0,32.0,0.0,28.0
5.3139166831970215,33.0,34.0,0.0,17.0,23.0,34.0,7.0,28.0
5.317383289337158,17.0,32.0,20.0,5.0,0.0,5.0,13.0,30.0
5.320899963378906,0.0,30.0,13.0,17.0,22.0,22.0,12.0,29.0
5.324366569519043,42.0,23.0,5.0,27.0,17.0,31.0,9.0,27.0
5.32783317565918,15.0,15.0,10.0,30.0,6.0,12.0,5.0,25.0
5.331299781799316,21.0,22.0,14.0,45.0,32.0,21.0,7.0,0.0
5.334766864776611,27.0,22.0,10.0,0.0,23.0,0.0,14.0,8.0
5.3383002281188965,29.0,5.0,5.0,6.0,41.0,10.0,29.0,23.0
5.341766834259033,10.0,12.0,5.0,6.0,5.0,27.0,28.0,27.0
5.34523344039917,42.0,12.0,0.0,22.0,22.0,21.0,27.0,37.0
5.348700046539307,5.0,5.0,29.0,44.0,45.0,30.0,20.0,7.0
5.352166652679443,29.0,32.0,29.0,22.0,5.0,14.0,23.0,10.0
5.3557000160217285,11.0,36.0,0.0,0.0,13.0,15.0,26.0,8.0
5.359166622161865,5.0,28.0,11.0,0.0,8.0,10.0,19.0,6.0
5.362633228302002,25.0,19.0,5.0,22.0,10.0,5.0,33.0,16.0
5.366099834442139,24.0,5.0,5.0,15.0,18.0,7.0,33.0,16.0
5.369566440582275,23.0,24.0,12.0,7.0,49.0,8.0,12.0,17.0
5.3730998039245605,33.0,28.0,32.0,16.0,42.0,7.0,11.0,17.0
5.3765668869018555,30.0,0.0,25.0,25.0,0.0,5.0,16.0,20.0
5.380050182342529,27.0,0.0,7.0,20.0,20.0,34.0,23.0,18.0
5.383516788482666,16.0,0.0,17.0,15.0,12.0,36.0,17.0,16.0
5.386983394622803,5.0,22.0,24.0,25.0,17.0,13.0,12.0,14.0
5.390500068664551,6.0,27.0,31.0,19.0,0.0,24.0,0.0,36.0
5.3939666748046875,6.0,20.0,26.0,24.0,44.0,24.0,4.0,35.0
5.397433280944824,39.0,31.0,26.0,15.0,35.0,68.0,8.0,0.0
5.400899887084961,33.0,16.0,25.0,22.0,22.0,62.0,7.0,0.0
5.404366493225098,27.0,0.0,20.0,0.0,9.0,55.0,6.0,48.0
5.407899856567383,7.0,13.0,15.0,0.0,5.0,48.0,0.0,29.0
5.4113664627075195,22.0,20.0,15.0,39.0,50.0,44.0,7.0,36.0
5.4148335456848145,26.0,29.0,15.0,28.0,30.0,40.0,28.0,20.0
5.418300151824951,5.0,37.0,12.0,11.0,10.0,17.0,27.0,6.0
5.421766757965088,0.0,0.0,8.0,24.0,38.0,15.0,40.0,5.0
5.425300121307373,0.0,19.0,18.0,53.0,47.0,13.0,12.0,17.0
5.42876672744751,31.0,37.0,46.0,184.0,0.0,22.0,28.0,45.0
5.4322333335876465,41.0,40.0,1269.0,315.0,21.0,44.0,9.0,29.0
5.435699939727783,28.0,43.0,1227.0,1264.0,745.0,1393.0,45.0,12.0
5.439216613769531,12.0,42.0,3536.0,3946.0,4090.0,2077.0,608.0,128.0
5.442699909210205,15.0,3987.0,6389.0,5763.0,12428.0,7349.0,1828.0,244.0
5.446166515350342,25.0,6519.0,13228.0,14516.0,13024.0,6080.0,3049.0,740.0
5.449649810791016,17.0,11416.0,23532.0,34544.0,17404.0,3684.0,6518.0,790.0
5.4531168937683105,23.0,20376.0,38480.0,42816.0,30776.0,10828.0,8612.0,1603.0
5.456633567810059,33.0,22784.0,51408.0,49856.0,41776.0,18524.0,9500.0,2821.0
5.460100173950195,29.0,28992.0,67568.0,71424.0,42128.0,32700.0,12328.0,2964.0
5.463566780090332,25.0,40016.0,81328.0,83680.0,59248.0,35616.0,18852.0,3106.0
5.467033386230469,23.0,42384.0,82912.0,87136.0,59248.0,40240.0,22032.0,5506.0
5.4704999923706055,20.0,41120.0,89984.0,90304.0,74400.0,33856.0,19956.0,4956.0
5.474033355712891,24.0,47056.0,97056.0,95392.0,93776.0,38672.0,20268.0,4770.0
5.477499961853027,11.0,48368.0,101440.0,113440.0,88064.0,43488.0,20584.0,4583.0
5.480966567993164,29.0,41792.0,105824.0,114144.0,77472.0,51936.0,18476.0,5430.0
5.484433174133301,22.0,52512.0,97232.0,119120.0,72048.0,51024.0,16368.0,4604.0
5.4878997802734375,28.0,47984.0,104464.0,92288.0,77392.0,44032.0,13152.0,3779.0
5.491433143615723,33.0,41936.0,78224.0,77328.0,64192.0,42368.0,10752.0,2614.0
5.494900226593018,29.0,31968.0,78416.0,72384.0,48512.0,35520.0,14096.0,947.0
5.498366832733154,24.0,20484.0,56480.0,70240.0,50576.0,27440.0,9212.0,2878.0
5.501833438873291,5.0,25336.0,48336.0,53920.0,46832.0,23176.0,6291.0,1099.0
5.505300045013428,39.0,11048.0,42032.0,42240.0,27196.0,15752.0,10524.0,1537.0
5.508833408355713,38.0,9276.0,29876.0,34560.0,15080.0,12096.0,5574.0,3838.0
5.51230001449585,20.0,10104.0,24248.0,21236.0,13140.0,13232.0,788.0,39.0
5.515766620635986,0.0,5824.0,11680.0,9812.0,12564.0,4000.0,1834.0,650.0
5.519233226776123,49.0,4066.0,6339.0,7327.0,5525.0,3615.0,903.0,865.0
5.52269983291626,24.0,4169.0,7327.0,9448.0,3519.0,2033.0,1970.0,1109.0
5.526216506958008,14.0,4276.0,5970.0,5770.0,2454.0,741.0,2781.0,14.0
5.5296831130981445,15.0,1908.0,1820.0,3112.0,3669.0,4203.0,0.0,21.0
5.5331501960754395,19.0,2209.0,1705.0,5311.0,2538.0,3897.0,1058.0,15.0
5.536616802215576,22.0,329.0,4439.0,3002.0,1406.0,3016.0,88.0,10.0
5.540083408355713,10.0,13.0,3226.0,2158.0,767.0,1171.0,33.0,28.0
5.543616771697998,24.0,602.0,2577.0,1604.0,3464.0,431.0,11.0,23.0
5.547083377838135,24.0,11.0,3058.0,1968.0,42.0,528.0,27.0,11.0
5.5505499839782715,7.0,691.0,950.0,1524.0,1116.0,607.0,14.0,14.0
5.554016590118408,0.0,24.0,713.0,20.0,1926.0,22.0,0.0,14.0
5.557483196258545,31.0,1296.0,667.0,2975.0,2194.0,32.0,573.0,15.0
5.56101655960083,40.0,1775.0,0.0,1425.0,462.0,585.0,318.0,15.0
5.564483165740967,71.0,1463.0,592.0,1112.0,1396.0,26.0,64.0,8.0
5.5679497718811035,69.0,24.0,18.0,160.0,23.0,592.0,405.0,0.0
5.571416854858398,68.0,612.0,746.0,5.0,847.0,35.0,19.0,46.0
5.574900150299072,23.0,36.0,415.0,29.0,471.0,184.0,25.0,50.0
5.578366756439209,57.0,23.0,507.0,53.0,0.0,33.0,30.0,23.0
5.581833362579346,17.0,11.0,40.0,706.0,24.0,26.0,244.0,51.0
5.585299968719482,26.0,13.0,257.0,1066.0,12.0,19.0,135.0,5.0
5.588766574859619,28.0,15.0,134.0,1074.0,44.0,21.0,27.0,24.0
5.592299938201904,0.0,17.0,11.0,1634.0,631.0,25.0,8.0,8.0
5.595766544342041,17.0,61.0,611.0,141.0,587.0,21.0,20.0,34.0
