,325.2099914550781,326.2099914550781,327.2099914550781,328.2099914550781,329.2099914550781,330.2099914550781,331.2099914550781,332.2099914550781
2.3020334243774414,17.0,17.0,10.0,38.0,13.0,25.0,15.0,43.0
2.304483413696289,31.0,12.0,11.0,17.0,32.0,30.0,42.0,10.0
2.3077332973480225,37.0,34.0,23.0,27.0,29.0,25.0,31.0,16.0
2.310983419418335,13.0,56.0,5.0,23.0,26.0,30.0,35.0,15.0
2.3142333030700684,0.0,71.0,30.0,19.0,5.0,35.0,40.0,15.0
2.317483425140381,9.0,5.0,20.0,14.0,11.0,46.0,24.0,15.0
2.3207833766937256,15.0,14.0,18.0,9.0,11.0,44.0,40.0,13.0
2.324033260345459,23.0,74.0,35.0,35.0,29.0,32.0,0.0,11.0
2.3272833824157715,44.0,8.0,9.0,40.0,24.0,33.0,12.0,17.0
2.330533266067505,40.0,28.0,30.0,46.0,10.0,12.0,0.0,30.0
2.3337833881378174,10.0,20.0,29.0,22.0,18.0,22.0,5.0,25.0
2.337033271789551,20.0,21.0,29.0,24.0,28.0,36.0,5.0,21.0
2.3403499126434326,37.0,26.0,10.0,24.0,6.0,24.0,31.0,16.0
2.343600034713745,0.0,24.0,21.0,11.0,27.0,13.0,43.0,11.0
2.3468499183654785,34.0,0.0,13.0,10.0,29.0,26.0,22.0,16.0
2.350100040435791,19.0,6.0,10.0,14.0,40.0,28.0,0.0,12.0
2.3533499240875244,10.0,21.0,15.0,10.0,52.0,23.0,6.0,8.0
2.3566665649414062,11.0,7.0,10.0,16.0,34.0,19.0,20.0,10.0
2.3599166870117188,5.0,35.0,0.0,0.0,16.0,5.0,10.0,9.0
2.363166570663452,0.0,27.0,20.0,32.0,17.0,31.0,0.0,0.0
2.3664166927337646,17.0,19.0,25.0,154.0,37.0,11.0,18.0,31.0
2.369666576385498,19.0,21.0,30.0,711.0,26.0,43.0,25.0,18.0
2.37298321723938,21.0,24.0,1561.0,1398.0,15.0,694.0,13.0,5.0
2.3762333393096924,0.0,784.0,2584.0,1343.0,273.0,830.0,1271.0,30.0
2.379483222961426,33.0,1006.0,3838.0,3909.0,532.0,2316.0,1091.0,250.0
2.3827333450317383,15.0,1212.0,10072.0,7011.0,2691.0,2032.0,712.0,469.0
2.3859832286834717,27.0,2240.0,11216.0,10580.0,8708.0,2814.0,3431.0,308.0
2.3892500400543213,32.0,10412.0,12184.0,14960.0,11628.0,4453.0,6667.0,1754.0
2.3924999237060547,38.0,11468.0,22084.0,19340.0,15004.0,9244.0,6864.0,2531.0
2.395750045776367,19.0,11444.0,32072.0,29884.0,17644.0,12520.0,6398.0,2602.0
2.3989999294281006,8.0,13596.0,25932.0,33136.0,18656.0,15868.0,8388.0,2673.0
2.402250051498413,8.0,15940.0,31996.0,42272.0,25948.0,8608.0,7876.0,5658.0
2.405566692352295,8.0,18572.0,46608.0,40432.0,35632.0,16980.0,7362.0,5447.0
2.4088165760040283,8.0,25660.0,46672.0,42928.0,39424.0,16628.0,12740.0,6523.0
2.412066698074341,9.0,23004.0,49120.0,52352.0,36832.0,16276.0,17960.0,9388.0
2.415316581726074,10.0,27360.0,51728.0,50112.0,31216.0,18768.0,14100.0,9448.0
2.4185667037963867,5.0,25396.0,54288.0,54800.0,47472.0,24984.0,18956.0,11304.0
2.42181658744812,0.0,23432.0,65232.0,72240.0,42480.0,28940.0,16600.0,14584.0
2.425133228302002,21.0,29992.0,68352.0,78256.0,43776.0,27124.0,18504.0,3721.0
2.4283833503723145,35.0,38720.0,79360.0,74160.0,60752.0,37120.0,20408.0,8032.0
2.431633234024048,52.0,36192.0,76864.0,96432.0,66464.0,42192.0,24260.0,6740.0
2.4348833560943604,40.0,50160.0,97040.0,97120.0,70832.0,41952.0,30564.0,9936.0
2.4381332397460938,29.0,47408.0,120112.0,96720.0,73760.0,42496.0,29084.0,10548.0
2.4414501190185547,10.0,49440.0,119184.0,96320.0,79664.0,43040.0,27464.0,17096.0
2.444700002670288,11.0,51472.0,129824.0,124384.0,80048.0,56704.0,25840.0,16112.0
2.4479498863220215,13.0,54656.0,116784.0,137024.0,90400.0,57296.0,29800.0,11892.0
2.451200008392334,19.0,54128.0,110112.0,131648.0,108256.0,57056.0,33760.0,20068.0
2.4544498920440674,18.0,59344.0,103440.0,124960.0,100368.0,48560.0,33376.0,18460.0
2.4577832221984863,17.0,64560.0,136256.0,110832.0,96640.0,56848.0,32992.0,10868.0
2.461033344268799,16.0,66688.0,142976.0,135936.0,76000.0,43648.0,33104.0,12164.0
2.4642832279205322,28.0,41168.0,121120.0,96512.0,77312.0,43504.0,33200.0,14768.0
2.4675333499908447,14.0,51280.0,108464.0,130112.0,85824.0,42448.0,28908.0,12212.0
2.470783233642578,0.0,53184.0,97312.0,105616.0,73536.0,39904.0,23168.0,10976.0
2.4740500450134277,45.0,51872.0,102304.0,106608.0,65680.0,43856.0,27064.0,10884.0
2.477299928665161,29.0,37584.0,82736.0,86032.0,68480.0,43408.0,24616.0,10792.0
2.4805500507354736,24.0,48800.0,103456.0,77952.0,56480.0,39504.0,23680.0,9156.0
2.483799934387207,22.0,43184.0,93552.0,87904.0,49488.0,32064.0,15520.0,7696.0
2.4870500564575195,20.0,33056.0,84880.0,74112.0,50768.0,39968.0,22016.0,8840.0
2.4903666973114014,24.0,37200.0,83776.0,70096.0,50896.0,32480.0,21044.0,4089.0
2.4936165809631348,23.0,33360.0,73088.0,54992.0,48512.0,25656.0,22804.0,5810.0
2.4968667030334473,22.0,25708.0,51856.0,59040.0,33248.0,17268.0,15052.0,7723.0
2.5001165866851807,0.0,28788.0,52640.0,53632.0,34224.0,16956.0,8540.0,4774.0
2.503366708755493,38.0,20744.0,53088.0,39936.0,31992.0,16804.0,9020.0,3142.0
2.506649971008301,0.0,15912.0,42768.0,37344.0,26908.0,13588.0,11232.0,4176.0
2.5099332332611084,46.0,14552.0,36176.0,41920.0,23136.0,14552.0,7176.0,2608.0
2.513183355331421,31.0,10244.0,25936.0,25564.0,12060.0,9000.0,9360.0,4763.0
2.5164332389831543,57.0,4530.0,21564.0,22392.0,18436.0,6982.0,5619.0,1663.0
2.519683361053467,12.0,9752.0,20580.0,9908.0,9732.0,6535.0,4081.0,1280.0
2.5229332447052,10.0,6036.0,16384.0,15892.0,10064.0,1856.0,3567.0,1537.0
2.52620005607605,18.0,6539.0,8212.0,19508.0,6053.0,3473.0,2541.0,1120.0
2.529449939727783,0.0,5304.0,8660.0,7539.0,7127.0,1857.0,3537.0,1509.0
2.5327000617980957,12.0,2649.0,4113.0,6387.0,7853.0,1178.0,3197.0,19.0
2.535949945449829,19.0,1970.0,2860.0,6211.0,2744.0,3170.0,1314.0,26.0
2.5392000675201416,27.0,2026.0,2557.0,4024.0,4692.0,266.0,512.0,52.0
2.5425167083740234,23.0,2154.0,4583.0,4421.0,1933.0,1588.0,641.0,62.0
2.545766592025757,19.0,712.0,446.0,4612.0,3440.0,2371.0,17.0,267.0
2.5490167140960693,16.0,2562.0,2801.0,4824.0,2675.0,978.0,757.0,473.0
2.5522665977478027,5.0,2149.0,5045.0,5037.0,676.0,233.0,21.0,762.0
2.5555167198181152,17.0,2336.0,2911.0,3530.0,1564.0,2139.0,794.0,694.0
2.558833360671997,18.0,1341.0,1835.0,3764.0,476.0,667.0,24.0,25.0
2.5620832443237305,19.0,1908.0,2216.0,454.0,1006.0,342.0,19.0,712.0
2.565333366394043,15.0,25.0,2201.0,3399.0,7.0,17.0,14.0,5.0
2.5685832500457764,11.0,851.0,2029.0,3670.0,6.0,2604.0,19.0,16.0
2.571833372116089,19.0,574.0,1856.0,1354.0,6.0,2026.0,25.0,82.0
2.5751500129699707,24.0,1982.0,1907.0,2493.0,751.0,153.0,44.0,0.0
2.578399896621704,21.0,2561.0,1958.0,989.0,1401.0,889.0,25.0,15.0
2.5816500186920166,25.0,0.0,35.0,2347.0,1539.0,717.0,6.0,28.0
2.58489990234375,31.0,659.0,2745.0,2418.0,1165.0,1113.0,5.0,24.0
2.5881500244140625,37.0,12.0,29.0,689.0,792.0,9.0,1158.0,21.0
2.5914499759674072,30.0,15.0,1764.0,16.0,123.0,30.0,881.0,0.0
2.5947000980377197,24.0,653.0,1505.0,1862.0,181.0,1198.0,34.0,26.0
2.597949981689453,5.0,646.0,240.0,1665.0,298.0,6.0,36.0,5.0
2.6012001037597656,22.0,0.0,339.0,41.0,22.0,124.0,12.0,21.0
2.604449987411499,13.0,548.0,81.0,335.0,11.0,193.0,45.0,20.0
2.6077001094818115,29.0,5.0,344.0,1138.0,0.0,27.0,37.0,19.0
2.6110167503356934,0.0,211.0,196.0,976.0,509.0,40.0,27.0,16.0
2.6142666339874268,19.0,416.0,48.0,38.0,299.0,52.0,18.0,13.0
2.6175167560577393,38.0,16.0,40.0,1976.0,89.0,29.0,0.0,5.0
2.6207666397094727,19.0,7.0,539.0,1522.0,22.0,6.0,0.0,17.0
2.624016761779785,0.0,135.0,993.0,33.0,13.0,27.0,5.0,16.0
2.627333402633667,15.0,18.0,960.0,1008.0,5.0,25.0,10.0,15.0
2.6305832862854004,17.0,10.0,154.0,317.0,9.0,23.0,8.0,14.0
2.633833408355713,35.0,5.0,108.0,47.0,14.0,7.0,7.0,23.0
2.6370832920074463,30.0,39.0,653.0,5.0,8.0,23.0,7.0,22.0
2.640333414077759,15.0,24.0,838.0,23.0,982.0,21.0,7.0,21.0
2.6436500549316406,11.0,8.0,353.0,15.0,1044.0,19.0,20.0,20.0
2.646899938583374,14.0,16.0,633.0,25.0,1042.0,12.0,33.0,21.0
2.6501500606536865,37.0,25.0,580.0,12.0,18.0,0.0,27.0,17.0
2.65339994430542,39.0,26.0,613.0,0.0,28.0,30.0,22.0,10.0
2.6566500663757324,42.0,32.0,646.0,5.0,965.0,319.0,16.0,211.0
2.6599667072296143,35.0,38.0,32.0,20.0,1057.0,160.0,10.0,125.0
2.6632165908813477,25.0,31.0,5.0,12.0,21.0,0.0,5.0,39.0
2.66646671295166,31.0,24.0,8.0,5.0,30.0,201.0,2.0,25.0
2.6697165966033936,5.0,51.0,12.0,23.0,50.0,40.0,0.0,17.0
2.672966718673706,10.0,476.0,87.0,17.0,29.0,40.0,29.0,5.0
2.676283359527588,15.0,342.0,52.0,11.0,46.0,37.0,51.0,19.0
2.6795332431793213,5.0,208.0,17.0,1140.0,38.0,37.0,35.0,13.0
2.682783365249634,5.0,507.0,0.0,1342.0,67.0,37.0,23.0,11.0
2.686033248901367,5.0,270.0,33.0,390.0,5.0,0.0,10.0,20.0
2.6892833709716797,24.0,34.0,36.0,13.0,15.0,33.0,39.0,11.0
2.692533254623413,37.0,7.0,39.0,28.0,54.0,422.0,12.0,30.0
2.695849895477295,29.0,45.0,12.0,17.0,36.0,218.0,6.0,25.0
2.6991000175476074,22.0,16.0,28.0,24.0,25.0,15.0,10.0,21.0
2.702349901199341,17.0,21.0,12.0,22.0,15.0,19.0,11.0,14.0
2.7056000232696533,22.0,5.0,8.0,11.0,12.0,115.0,13.0,12.0
2.7088499069213867,8.0,0.0,5.0,0.0,12.0,0.0,0.0,10.0
2.7121167182922363,20.0,18.0,5.0,0.0,12.0,8.0,11.0,24.0
2.7153666019439697,10.0,15.0,5.0,22.0,50.0,15.0,54.0,29.0
2.7186167240142822,44.0,31.0,9.0,14.0,30.0,22.0,514.0,50.0
2.7218666076660156,43.0,48.0,8.0,6.0,10.0,31.0,558.0,39.0
2.725116729736328,40.0,39.0,7.0,14.0,156.0,39.0,595.0,30.0
2.728450059890747,37.0,11.0,22.0,0.0,92.0,39.0,14.0,32.0
2.7316999435424805,41.0,13.0,17.0,5.0,27.0,39.0,34.0,21.0
2.734950065612793,45.0,27.0,13.0,181.0,60.0,8.0,11.0,22.0
2.7381999492645264,27.0,20.0,20.0,99.0,169.0,8.0,0.0,23.0
2.741450071334839,35.0,14.0,28.0,16.0,106.0,9.0,0.0,20.0
2.7447166442871094,16.0,10.0,26.0,18.0,44.0,40.0,18.0,0.0
2.747966766357422,30.0,14.0,23.0,30.0,5.0,24.0,18.0,25.0
2.7512166500091553,31.0,14.0,31.0,15.0,12.0,8.0,18.0,25.0
2.7544667720794678,26.0,14.0,28.0,0.0,19.0,15.0,18.0,35.0
2.7577333450317383,32.0,59.0,26.0,6.0,24.0,22.0,20.0,31.0
2.761033296585083,32.0,42.0,45.0,18.0,29.0,23.0,17.0,27.0
2.7642834186553955,31.0,25.0,51.0,32.0,13.0,10.0,15.0,10.0
2.767533302307129,7.0,17.0,397.0,29.0,14.0,5.0,19.0,23.0
2.7707834243774414,29.0,0.0,213.0,27.0,16.0,0.0,24.0,37.0
2.774033308029175,28.0,0.0,30.0,30.0,14.0,7.0,17.0,37.0
2.7773332595825195,15.0,15.0,0.0,32.0,59.0,14.0,10.0,31.0
2.7806167602539062,9.0,16.0,27.0,35.0,37.0,10.0,5.0,33.0
2.7838666439056396,15.0,17.0,0.0,53.0,16.0,7.0,0.0,0.0
2.787116765975952,8.0,38.0,7.0,42.0,25.0,5.0,12.0,207.0
2.7903666496276855,31.0,39.0,15.0,32.0,35.0,5.0,12.0,112.0
2.793616771697998,15.0,33.0,11.0,208.0,522.0,5.0,12.0,18.0
2.7968833446502686,0.0,27.0,18.0,201.0,881.0,8.0,18.0,24.0
2.800133228302002,12.0,24.0,21.0,194.0,1239.0,11.0,25.0,30.0
2.8033833503723145,8.0,5.0,24.0,40.0,513.0,16.0,250.0,198.0
2.806649923324585,10.0,26.0,29.0,115.0,600.0,21.0,720.0,367.0
2.8099000453948975,12.0,20.0,35.0,102.0,1260.0,624.0,712.0,1432.0
2.813199996948242,15.0,14.0,25.0,89.0,1920.0,756.0,1291.0,1405.0
2.8164501190185547,18.0,14.0,15.0,30.0,1321.0,11.0,2795.0,2112.0
2.819700002670288,27.0,14.0,14.0,257.0,722.0,36.0,6111.0,68.0
2.8229498863220215,21.0,9.0,11.0,137.0,1858.0,990.0,6409.0,506.0
2.826200008392334,16.0,14.0,5.0,17.0,1809.0,311.0,7361.0,1254.0
2.829516649246216,10.0,20.0,11.0,19.0,1781.0,1049.0,6246.0,979.0
2.8327667713165283,5.0,29.0,16.0,21.0,16.0,10.0,19840.0,703.0
2.8360166549682617,21.0,24.0,27.0,17.0,780.0,1066.0,20016.0,992.0
2.839266777038574,10.0,18.0,22.0,14.0,0.0,545.0,17584.0,3842.0
2.8425166606903076,0.0,10.0,18.0,18.0,175.0,24.0,17796.0,3905.0
2.8458333015441895,22.0,14.0,10.0,17.0,350.0,983.0,26664.0,3388.0
2.849083423614502,0.0,19.0,25.0,15.0,31.0,17.0,25508.0,3553.0
2.8523333072662354,5.0,14.0,0.0,23.0,587.0,19.0,24352.0,3719.0
2.855583429336548,0.0,16.0,18.0,32.0,850.0,1121.0,30532.0,2528.0
2.8588333129882812,0.0,18.0,33.0,19.0,894.0,22.0,36704.0,3683.0
2.862149953842163,0.0,19.0,11.0,6.0,464.0,1167.0,41104.0,4382.0
2.8654000759124756,0.0,46.0,11.0,12.0,35.0,627.0,46144.0,5789.0
2.868649959564209,20.0,26.0,40.0,18.0,32.0,30.0,46880.0,618.0
2.8719000816345215,28.0,7.0,24.0,39.0,30.0,644.0,47600.0,293.0
2.875149965286255,23.0,49.0,34.0,40.0,401.0,0.0,55008.0,3345.0
2.8784000873565674,6.0,27.0,19.0,40.0,208.0,34.0,49792.0,3783.0
2.881716728210449,21.0,6.0,13.0,41.0,14.0,17.0,44560.0,895.0
2.8849666118621826,19.0,17.0,7.0,42.0,103.0,24.0,38400.0,2749.0
2.888216733932495,14.0,0.0,0.0,41.0,24.0,30.0,39568.0,40.0
2.8914666175842285,19.0,10.0,5.0,40.0,26.0,36.0,35168.0,1685.0
2.894716739654541,5.0,20.0,19.0,5.0,25.0,8.0,30984.0,2669.0
2.898033380508423,5.0,12.0,15.0,2.0,25.0,17.0,20668.0,1136.0
2.9012832641601562,5.0,15.0,10.0,0.0,21.0,21.0,12032.0,2481.0
2.9045333862304688,15.0,18.0,19.0,17.0,29.0,26.0,15944.0,62.0
2.907783269882202,16.0,24.0,15.0,16.0,35.0,16.0,14408.0,2921.0
2.9110333919525146,19.0,30.0,12.0,16.0,12.0,5.0,14976.0,2105.0
2.9143500328063965,36.0,21.0,10.0,16.0,18.0,2.0,12432.0,22.0
2.91759991645813,34.0,13.0,912.0,16.0,33.0,0.0,7168.0,23.0
2.9208500385284424,32.0,0.0,714.0,21.0,14.0,21.0,6446.0,10.0
2.924099922180176,26.0,18.0,32.0,50.0,8.0,20.0,4439.0,12.0
2.9273500442504883,20.0,16.0,10.0,28.0,5.0,20.0,2492.0,15.0
2.930616617202759,26.0,21.0,58.0,5.0,6.0,0.0,3155.0,29.0
2.9338667392730713,31.0,27.0,12.0,10.0,7.0,11.0,2887.0,14.0
2.9371166229248047,5.0,6.0,35.0,36.0,6.0,6.0,1501.0,0.0
2.940366744995117,11.0,26.0,37.0,33.0,11.0,14.0,1006.0,15.0
2.9436166286468506,7.0,36.0,45.0,30.0,17.0,23.0,984.0,23.0
2.9469332695007324,15.0,10.0,34.0,15.0,33.0,28.0,68.0,30.0
2.950183391571045,11.0,15.0,24.0,23.0,50.0,13.0,924.0,36.0
2.9534332752227783,10.0,31.0,0.0,14.0,37.0,28.0,1101.0,30.0
2.956683397293091,10.0,34.0,5.0,46.0,0.0,16.0,23.0,0.0
2.959933280944824,5.0,17.0,11.0,39.0,15.0,32.0,17.0,16.0
2.9631834030151367,0.0,21.0,5.0,5.0,31.0,33.0,18.0,25.0
2.9665000438690186,0.0,190.0,0.0,31.0,22.0,35.0,186.0,0.0
2.969749927520752,18.0,106.0,12.0,58.0,0.0,37.0,107.0,5.0
2.9730000495910645,19.0,21.0,51.0,45.0,10.0,5.0,28.0,13.0
2.976249933242798,9.0,18.0,64.0,33.0,33.0,2.0,307.0,16.0
2.9795000553131104,22.0,35.0,19.0,8.0,32.0,0.0,1070.0,6.0
2.982816696166992,15.0,32.0,0.0,10.0,5.0,3.0,550.0,3.0
2.9860665798187256,5.0,30.0,56.0,19.0,13.0,7.0,30.0,0.0
2.989316701889038,16.0,34.0,0.0,16.0,0.0,21.0,35.0,6.0
2.9925665855407715,8.0,39.0,24.0,14.0,0.0,16.0,506.0,3.0
2.995816707611084,0.0,9.0,29.0,0.0,11.0,11.0,10.0,0.0
