,302.1300048828125,303.1300048828125,304.1300048828125,305.1300048828125,306.1300048828125,307.1300048828125
1.9012999534606934,65.0,61.0,5.0,24.0,20.0,87.0
1.9026000499725342,45.0,0.0,1456.0,13.0,10.0,0.0
1.9039000272750854,5.0,5.0,817.0,214.0,23.0,10.0
1.9052000045776367,37.0,37.0,18.0,14.0,23.0,20.0
1.906499981880188,27.0,17.0,30.0,31.0,23.0,27.0
1.9077999591827393,0.0,0.0,21.0,13.0,7.0,33.0
1.90910005569458,12.0,28.0,12.0,7.0,4.0,29.0
1.9104000329971313,21.0,38.0,12.0,0.0,0.0,25.0
1.9117000102996826,20.0,17.0,21.0,5.0,7.0,13.0
1.9129999876022339,19.0,19.0,30.0,95.0,50.0,5.0
1.9142999649047852,34.0,20.0,18.0,50.0,40.0,0.0
1.9155999422073364,32.0,26.0,6.0,5.0,31.0,6.0
1.9169000387191772,38.0,31.0,0.0,30.0,38.0,43.0
1.9182666540145874,10.0,35.0,5.0,55.0,46.0,42.0
1.9195666313171387,40.0,12.0,28.0,47.0,20.0,41.0
1.92086660861969,10.0,10.0,14.0,7.0,10.0,21.0
1.9221667051315308,8.0,15.0,0.0,0.0,0.0,20.0
1.923466682434082,22.0,11.0,5.0,13.0,7.0,20.0
1.9247666597366333,18.0,7.0,14.0,14.0,10.0,21.0
1.9260666370391846,13.0,6.0,23.0,15.0,5.0,22.0
1.9273666143417358,23.0,25.0,44.0,17.0,0.0,19.0
1.9286667108535767,14.0,17.0,28.0,19.0,8.0,16.0
1.929966688156128,22.0,10.0,12.0,5.0,32.0,13.0
1.9312666654586792,36.0,0.0,5.0,10.0,36.0,16.0
1.9325666427612305,35.0,22.0,5.0,14.0,17.0,18.0
1.9338666200637817,14.0,23.0,16.0,5.0,5.0,15.0
1.9352166652679443,10.0,27.0,21.0,9.0,23.0,12.0
1.9365166425704956,8.0,12.0,27.0,25.0,23.0,12.0
1.9378166198730469,12.0,10.0,0.0,145.0,23.0,11.0
1.9391167163848877,15.0,0.0,27.0,76.0,10.0,12.0
1.940416693687439,13.0,3.0,398.0,7.0,21.0,12.0
1.9417166709899902,10.0,5.0,217.0,18.0,24.0,13.0
1.9430166482925415,5.0,9.0,36.0,27.0,24.0,12.0
1.9443166255950928,0.0,8.0,14.0,25.0,24.0,11.0
1.9456167221069336,6.0,7.0,20.0,10.0,23.0,11.0
1.9469166994094849,11.0,13.0,1500.0,5.0,23.0,10.0
1.9482166767120361,16.0,19.0,1203.0,27.0,5.0,29.0
1.9495166540145874,21.0,15.0,33.0,32.0,12.0,30.0
1.9508166313171387,14.0,0.0,5.0,22.0,16.0,44.0
1.9521833658218384,14.0,5.0,6.0,30.0,11.0,31.0
1.9534833431243896,40.0,28.0,13.0,389.0,5.0,29.0
1.954783320426941,43.0,14.0,34.0,197.0,5.0,31.0
1.9560832977294922,15.0,0.0,22.0,5.0,23.0,10.0
1.9573832750320435,17.0,11.0,10.0,14.0,19.0,5.0
1.9586833715438843,13.0,11.0,0.0,6.0,26.0,22.0
1.9599833488464355,18.0,44.0,23.0,3.0,15.0,14.0
1.9612833261489868,15.0,48.0,38.0,0.0,42.0,5.0
1.962583303451538,11.0,5.0,32.0,61.0,47.0,23.0
1.9638832807540894,26.0,42.0,16.0,35.0,19.0,27.0
1.9651833772659302,31.0,46.0,0.0,8.0,17.0,24.0
1.9664833545684814,27.0,5.0,0.0,40.0,80.0,0.0
1.9677833318710327,9.0,9.0,0.0,28.0,60.0,13.0
1.9691333770751953,11.0,0.0,7.0,15.0,19.0,18.0
1.9704333543777466,10.0,0.0,3.0,25.0,7.0,22.0
1.9717333316802979,12.0,5.0,0.0,23.0,15.0,28.0
1.9730333089828491,14.0,15.0,5.0,34.0,10.0,21.0
1.9743332862854004,0.0,25.0,3.0,33.0,10.0,12.0
1.9756333827972412,11.0,20.0,0.0,32.0,10.0,5.0
1.9769333600997925,0.0,29.0,5.0,6.0,15.0,60.0
1.9782333374023438,10.0,16.0,13.0,10.0,0.0,38.0
1.979533314704895,27.0,19.0,20.0,1276.0,8.0,16.0
1.9808332920074463,58.0,21.0,14.0,1175.0,16.0,6.0
1.982133388519287,64.0,7.0,7.0,12.0,22.0,18.0
1.9834333658218384,70.0,5.0,0.0,19.0,28.0,21.0
1.9847333431243896,0.0,20.0,6.0,301.0,26.0,0.0
1.9860999584197998,0.0,21.0,11.0,332.0,0.0,10.0
1.9874000549316406,8.0,32.0,16.0,17.0,3.0,20.0
1.988700032234192,10.0,19.0,21.0,22.0,5.0,20.0
1.9900000095367432,14.0,10.0,24.0,0.0,11.0,19.0
1.9912999868392944,10.0,11.0,12.0,22.0,16.0,29.0
1.9925999641418457,5.0,12.0,0.0,44.0,12.0,30.0
1.993899941444397,16.0,12.0,0.0,31.0,7.0,5.0
1.9952000379562378,17.0,11.0,23.0,17.0,12.0,40.0
1.996500015258789,5.0,13.0,29.0,15.0,16.0,5.0
1.9977999925613403,21.0,10.0,34.0,12.0,20.0,10.0
1.9990999698638916,21.0,12.0,19.0,0.0,25.0,15.0
2.0004000663757324,21.0,14.0,5.0,0.0,22.0,13.0
2.001699924468994,7.0,29.0,22.0,7.0,20.0,11.0
2.0030500888824463,20.0,28.0,0.0,14.0,0.0,8.0
2.004349946975708,21.0,27.0,13.0,10.0,24.0,5.0
2.005650043487549,29.0,29.0,18.0,10.0,24.0,15.0
2.0069499015808105,0.0,36.0,22.0,10.0,24.0,25.0
2.0082499980926514,36.0,34.0,15.0,29.0,37.0,41.0
2.009550094604492,17.0,25.0,11.0,35.0,0.0,35.0
2.010849952697754,5.0,16.0,8.0,21.0,26.0,29.0
2.0121500492095947,5.0,5.0,5.0,19.0,25.0,17.0
2.0134499073028564,747.0,0.0,55.0,19.0,5.0,38.0
2.0147500038146973,629.0,11.0,28.0,5.0,6.0,5.0
2.016050100326538,0.0,0.0,0.0,14.0,36.0,5.0
2.0173499584198,19.0,5.0,17.0,22.0,48.0,5.0
2.0186500549316406,38.0,18.0,35.0,32.0,27.0,3.0
2.020016670227051,47.0,32.0,23.0,41.0,5.0,0.0
2.0213167667388916,0.0,21.0,15.0,47.0,14.0,14.0
2.0226166248321533,15.0,35.0,23.0,14.0,32.0,28.0
2.023916721343994,0.0,15.0,9.0,17.0,0.0,18.0
2.025216579437256,7.0,13.0,0.0,32.0,17.0,5.0
2.0265166759490967,17.0,10.0,11.0,47.0,10.0,32.0
2.0278167724609375,19.0,5.0,7.0,45.0,27.0,27.0
2.029116630554199,20.0,0.0,12.0,43.0,48.0,16.0
2.03041672706604,31.0,0.0,16.0,15.0,40.0,28.0
2.0317165851593018,35.0,0.0,15.0,5.0,5.0,12.0
2.0330166816711426,12.0,7.0,14.0,16.0,38.0,29.0
2.0343167781829834,18.0,4.0,12.0,22.0,32.0,11.0
2.035616636276245,12.0,0.0,10.0,6.0,27.0,15.0
2.036966562271118,16.0,0.0,33.0,0.0,38.0,26.0
2.038266658782959,19.0,0.0,35.0,5.0,13.0,21.0
2.0395667552948,15.0,0.0,11.0,17.0,12.0,16.0
2.0408666133880615,10.0,0.0,44.0,30.0,22.0,62.0
2.0421667098999023,0.0,20.0,13.0,28.0,11.0,43.0
2.043466567993164,4.0,16.0,49.0,27.0,0.0,23.0
2.044783353805542,7.0,398.0,27.0,7.0,15.0,29.0
2.0460667610168457,6.0,669.0,5.0,36.0,30.0,15.0
2.0473666191101074,5.0,640.0,6.0,0.0,26.0,29.0
2.0486667156219482,9.0,611.0,15.0,15.0,0.0,25.0
2.04996657371521,9.0,1117.0,8.0,23.0,0.0,21.0
2.051266670227051,8.0,16.0,0.0,16.0,0.0,22.0
2.0525667667388916,7.0,0.0,9.0,20.0,20.0,23.0
2.0539333820343018,5.0,1630.0,18.0,23.0,10.0,42.0
2.0552332401275635,5.0,2283.0,25.0,15.0,0.0,37.0
2.0565333366394043,13.0,925.0,12.0,22.0,12.0,33.0
2.057833433151245,21.0,1551.0,46.0,29.0,15.0,25.0
2.059133291244507,17.0,1449.0,51.0,6.0,12.0,17.0
2.0604333877563477,13.0,1709.0,33.0,28.0,8.0,5.0
2.0617332458496094,66.0,1453.0,12.0,10.0,5.0,8.0
2.06303334236145,52.0,1197.0,0.0,8.0,9.0,5.0
2.064333438873291,38.0,1828.0,40.0,5.0,11.0,0.0
2.0656332969665527,70.0,2459.0,47.0,9.0,10.0,15.0
2.0669333934783936,16.0,2107.0,55.0,13.0,252.0,20.0
2.0682332515716553,8.0,1756.0,0.0,34.0,168.0,24.0
2.069533348083496,15.0,3798.0,132.0,34.0,84.0,21.0
2.0708999633789062,16.0,5513.0,264.0,34.0,58.0,18.0
2.072200059890747,14.0,5652.0,367.0,0.0,22.0,9.0
2.073499917984009,5.0,3365.0,410.0,12.0,15.0,0.0
2.0748000144958496,6.0,2760.0,454.0,23.0,31.0,13.0
2.0761001110076904,6.0,1477.0,16.0,31.0,48.0,9.0
2.077399969100952,19.0,4406.0,34.0,6.0,30.0,19.0
2.078700065612793,15.0,5645.0,52.0,31.0,12.0,19.0
2.0799999237060547,10.0,3771.0,5.0,20.0,31.0,18.0
2.0813000202178955,32.0,3583.0,7.0,10.0,13.0,18.0
2.0826001167297363,36.0,4310.0,24.0,101.0,14.0,18.0
2.083899974822998,6.0,5036.0,12.0,56.0,34.0,10.0
2.085200071334839,48.0,2280.0,0.0,11.0,28.0,15.0
2.0864999294281006,26.0,3149.0,29.0,0.0,28.0,19.0
2.0878500938415527,42.0,3772.0,25.0,34.0,25.0,15.0
2.0891499519348145,0.0,3284.0,21.0,36.0,23.0,29.0
2.0904500484466553,7.0,2796.0,490.0,38.0,13.0,0.0
2.091749906539917,0.0,2782.0,263.0,15.0,10.0,31.0
2.093050003051758,16.0,4626.0,36.0,5.0,16.0,21.0
2.0943500995635986,13.0,6788.0,13.0,14.0,18.0,15.0
2.0956499576568604,12.0,6360.0,36.0,20.0,51.0,27.0
2.096950054168701,10.0,3535.0,29.0,26.0,31.0,16.0
2.098249912261963,16.0,3587.0,254.0,25.0,10.0,5.0
2.0995500087738037,0.0,2886.0,234.0,25.0,12.0,8.0
2.1008501052856445,17.0,3809.0,214.0,28.0,28.0,11.0
2.1021499633789062,7.0,2730.0,16.0,75.0,10.0,10.0
2.103450059890747,5.0,1651.0,26.0,57.0,5.0,22.0
2.1048166751861572,9.0,2307.0,7.0,39.0,23.0,25.0
2.106116771697998,13.0,2549.0,6.0,22.0,12.0,28.0
2.1074166297912598,10.0,2068.0,5.0,26.0,11.0,20.0
2.1087167263031006,6.0,2512.0,59.0,28.0,33.0,28.0
2.1100165843963623,31.0,2955.0,47.0,0.0,0.0,5.0
2.111316680908203,29.0,3640.0,35.0,13.0,26.0,20.0
2.112616777420044,0.0,3841.0,49.0,26.0,33.0,36.0
2.1139166355133057,11.0,4042.0,62.0,13.0,18.0,33.0
2.1152167320251465,12.0,3911.0,24.0,0.0,14.0,16.0
2.116516590118408,19.0,3780.0,11.0,28.0,10.0,0.0
2.117816686630249,10.0,5981.0,610.0,18.0,51.0,0.0
2.11911678314209,0.0,6171.0,529.0,6.0,67.0,4.0
2.1204166412353516,0.0,4401.0,13.0,30.0,0.0,8.0
2.1217665672302246,20.0,4167.0,294.0,15.0,5.0,19.0
2.1230666637420654,41.0,3932.0,576.0,26.0,17.0,46.0
2.1243667602539062,29.0,4300.0,33.0,27.0,30.0,37.0
2.125666618347168,11.0,4296.0,349.0,14.0,29.0,5.0
2.126966714859009,37.0,4293.0,41.0,23.0,29.0,13.0
2.1282665729522705,28.0,1921.0,30.0,609.0,14.0,0.0
2.1295666694641113,17.0,6743.0,338.0,669.0,13.0,21.0
2.130866765975952,16.0,7687.0,660.0,587.0,37.0,36.0
2.132166624069214,6.0,3429.0,989.0,19.0,21.0,21.0
2.1334667205810547,23.0,4771.0,962.0,40.0,5.0,8.0
2.1347665786743164,10.0,4191.0,421.0,35.0,31.0,13.0
2.1360666751861572,39.0,7410.0,77.0,0.0,8.0,17.0
2.137366771697998,19.0,7430.0,45.0,12.0,18.0,30.0
2.138733386993408,0.0,1113.0,14.0,23.0,21.0,24.0
2.14003324508667,52.0,1831.0,10.0,22.0,24.0,18.0
2.1413333415985107,20.0,1908.0,14.0,5.0,15.0,29.0
2.1426334381103516,22.0,2239.0,18.0,19.0,5.0,20.0
2.1439332962036133,23.0,2076.0,63.0,13.0,13.0,11.0
2.145233392715454,5.0,1913.0,107.0,7.0,5.0,34.0
2.146533250808716,20.0,1788.0,82.0,5.0,18.0,0.0
2.1478333473205566,5.0,1662.0,57.0,19.0,24.0,0.0
2.1491334438323975,36.0,1611.0,5.0,22.0,26.0,5.0
2.150433301925659,30.0,1510.0,50.0,11.0,13.0,5.0
2.1517333984375,28.0,1363.0,28.0,0.0,0.0,5.0
2.1530332565307617,26.0,1216.0,19.0,3.0,12.0,13.0
2.1543333530426025,26.0,17.0,19.0,5.0,9.0,21.0
2.1556832790374756,26.0,840.0,19.0,5.0,5.0,20.0
2.1569833755493164,45.0,1662.0,27.0,5.0,5.0,18.0
2.158283233642578,179.0,886.0,41.0,9.0,3.0,15.0
2.159583330154419,92.0,489.0,31.0,13.0,0.0,31.0
2.1608834266662598,5.0,5.0,20.0,12.0,16.0,18.0
2.1621832847595215,939.0,369.0,10.0,11.0,18.0,5.0
2.1634833812713623,771.0,589.0,0.0,19.0,20.0,0.0
2.164783239364624,5.0,301.0,12.0,50.0,26.0,7.0
2.166083335876465,591.0,12.0,23.0,42.0,31.0,6.0
2.1673834323883057,624.0,13.0,22.0,23.0,31.0,5.0
2.1686832904815674,18.0,13.0,24.0,5.0,5.0,6.0
2.169983386993408,43.0,138.0,15.0,25.0,19.0,11.0
2.17128324508667,68.0,263.0,6.0,25.0,0.0,8.0
2.172650098800659,47.0,389.0,10.0,26.0,3.0,5.0
2.173949956893921,27.0,531.0,37.0,770.0,5.0,12.0
2.1752500534057617,16.0,456.0,21.0,662.0,5.0,16.0
2.1765499114990234,5.0,5.0,5.0,23.0,0.0,19.0
2.1778500080108643,15.0,44.0,19.0,10.0,3.0,30.0
2.179150104522705,20.0,760.0,33.0,17.0,5.0,30.0
2.180449962615967,24.0,443.0,22.0,46.0,15.0,16.0
2.1817500591278076,12.0,28.0,12.0,38.0,23.0,35.0
2.1830499172210693,27.0,28.0,15.0,31.0,26.0,0.0
2.18435001373291,17.0,6.0,13.0,0.0,5.0,14.0
2.185650110244751,8.0,3.0,11.0,0.0,17.0,10.0
2.1869499683380127,25.0,0.0,16.0,55.0,18.0,12.0
2.1882500648498535,25.0,876.0,21.0,48.0,18.0,33.0
2.1895999908447266,26.0,753.0,5.0,41.0,14.0,30.0
2.1909000873565674,36.0,351.0,13.0,11.0,10.0,11.0
2.192199945449829,979.0,17.0,20.0,29.0,27.0,45.0
2.19350004196167,1121.0,554.0,17.0,20.0,21.0,100.0
2.1947999000549316,1078.0,5.0,14.0,12.0,15.0,64.0
2.1960999965667725,1340.0,22.0,5.0,20.0,15.0,29.0
2.1974000930786133,643.0,10.0,3.0,12.0,14.0,24.0
2.198716640472412,23.0,0.0,0.0,15.0,34.0,16.0
2.200000047683716,22.0,767.0,0.0,17.0,32.0,52.0
2.2012999057769775,13.0,389.0,0.0,5.0,16.0,29.0
2.2026000022888184,34.0,10.0,0.0,19.0,0.0,5.0
2.203900098800659,0.0,5.0,7.0,34.0,9.0,11.0
2.205199956893921,7.0,437.0,7.0,20.0,10.0,8.0
2.206566572189331,14.0,12.0,7.0,6.0,10.0,5.0
2.207866668701172,25.0,36.0,18.0,6.0,13.0,15.0
2.2091667652130127,36.0,28.0,32.0,5.0,16.0,11.0
2.2104666233062744,235.0,23.0,40.0,0.0,15.0,7.0
2.2117667198181152,129.0,16.0,21.0,17.0,14.0,39.0
2.213066577911377,23.0,15.0,28.0,17.0,13.0,40.0
2.2143666744232178,10.0,13.0,32.0,17.0,12.0,29.0
2.2156667709350586,26.0,12.0,36.0,14.0,37.0,28.0
2.2169666290283203,42.0,13.0,33.0,10.0,35.0,32.0
2.218266725540161,37.0,13.0,11.0,5.0,20.0,11.0
2.219566583633423,32.0,21.0,29.0,10.0,6.0,8.0
2.2208666801452637,15.0,16.0,28.0,8.0,6.0,5.0
2.2221667766571045,6.0,11.0,28.0,5.0,8.0,5.0
2.2235333919525146,78.0,11.0,0.0,13.0,7.0,5.0
2.2248332500457764,47.0,19.0,0.0,10.0,5.0,15.0
2.226133346557617,15.0,33.0,0.0,7.0,5.0,13.0
2.227433443069458,45.0,36.0,32.0,29.0,5.0,5.0
2.2287333011627197,10.0,9.0,39.0,19.0,5.0,12.0
2.2300333976745605,7.0,29.0,40.0,10.0,3.0,18.0
2.2313332557678223,15.0,21.0,7.0,5.0,0.0,0.0
2.232633352279663,0.0,20.0,28.0,10.0,14.0,12.0
2.233933448791504,0.0,18.0,28.0,24.0,16.0,32.0
2.2352333068847656,0.0,26.0,19.0,33.0,18.0,29.0
2.2365334033966064,37.0,18.0,0.0,0.0,20.0,35.0
2.237833261489868,30.0,10.0,5.0,22.0,12.0,31.0
2.239133358001709,22.0,45.0,0.0,16.0,0.0,27.0
2.240483283996582,34.0,80.0,14.0,0.0,10.0,13.0
2.241783380508423,30.0,57.0,28.0,20.0,19.0,38.0
2.2430832386016846,26.0,36.0,33.0,26.0,18.0,0.0
2.2443833351135254,22.0,28.0,11.0,17.0,14.0,27.0
2.245683431625366,24.0,27.0,9.0,10.0,0.0,46.0
2.246983289718628,26.0,10.0,6.0,26.0,6.0,23.0
2.2482833862304688,5.0,31.0,8.0,16.0,6.0,45.0
2.2495832443237305,19.0,0.0,10.0,22.0,5.0,0.0
2.2508833408355713,12.0,16.0,9.0,0.0,20.0,0.0
2.252183437347412,5.0,0.0,5.0,4.0,29.0,5.0
2.253483295440674,15.0,5.0,0.0,7.0,29.0,10.0
2.2547833919525146,16.0,7.0,0.0,15.0,8.0,11.0
2.2560832500457764,17.0,8.0,0.0,12.0,20.0,18.0
2.2574501037597656,19.0,4.0,0.0,16.0,6.0,12.0
2.2587499618530273,0.0,0.0,0.0,23.0,17.0,5.0
2.260050058364868,6.0,10.0,0.0,24.0,26.0,8.0
2.26134991645813,11.0,0.0,6.0,21.0,0.0,11.0
2.2626500129699707,17.0,23.0,12.0,17.0,5.0,6.0
2.2639501094818115,12.0,20.0,23.0,28.0,7.0,29.0
2.2652499675750732,7.0,31.0,35.0,25.0,9.0,24.0
2.266550064086914,22.0,24.0,17.0,24.0,17.0,23.0
2.267849922180176,20.0,17.0,0.0,10.0,14.0,22.0
2.2691500186920166,10.0,33.0,21.0,13.0,11.0,11.0
2.2704501152038574,7.0,16.0,0.0,14.0,10.0,5.0
2.271749973297119,22.0,8.0,10.0,12.0,15.0,60.0
2.27305006980896,17.0,13.0,19.0,10.0,19.0,59.0
2.274399995803833,11.0,13.0,20.0,17.0,0.0,26.0
2.275700092315674,5.0,13.0,10.0,6.0,13.0,6.0
2.2769999504089355,0.0,6.0,0.0,11.0,26.0,22.0
2.2783000469207764,10.0,24.0,14.0,6.0,24.0,18.0
2.279599905014038,5.0,22.0,28.0,0.0,18.0,5.0
2.280900001525879,0.0,0.0,14.0,10.0,11.0,8.0
2.2822000980377197,18.0,31.0,0.0,11.0,26.0,10.0
2.2834999561309814,35.0,21.0,46.0,6.0,32.0,5.0
2.2848000526428223,23.0,8.0,249.0,0.0,7.0,25.0
2.286099910736084,23.0,9.0,452.0,9.0,0.0,26.0
2.287400007247925,15.0,11.0,244.0,7.0,5.0,27.0
2.2887001037597656,20.0,0.0,36.0,5.0,13.0,23.0
2.2899999618530273,0.0,8.0,583.0,12.0,15.0,20.0
2.2913665771484375,23.0,15.0,18.0,19.0,16.0,22.0
2.2926666736602783,6.0,19.0,29.0,12.0,8.0,23.0
2.293966770172119,14.0,22.0,20.0,5.0,0.0,15.0
2.295266628265381,14.0,0.0,30.0,16.0,10.0,58.0
2.2965667247772217,10.0,10.0,17.0,28.0,19.0,36.0
2.2978665828704834,5.0,19.0,5.0,17.0,16.0,13.0
