,259.1700134277344,260.1700134277344,261.1700134277344,262.1700134277344,263.1700134277344
2.401383399963379,24.0,0.0,17.0,0.0,20.0
2.4031167030334473,11.0,24.0,38.0,883.0,18.0
2.405933380126953,21.0,385.0,10.0,37.0,23.0
2.408799886703491,10.0,49.0,22.0,58.0,6.0
2.411616563796997,0.0,0.0,14.0,8.0,32.0
2.414433240890503,2.0,42.0,14.0,29.0,5.0
2.417249917984009,5.0,0.0,10.0,0.0,0.0
2.4200665950775146,5.0,10.0,16.0,6.0,19.0
2.4228832721710205,16.0,18.0,15.0,12.0,15.0
2.425766706466675,11.0,23.0,14.0,12.0,16.0
2.4285833835601807,7.0,14.0,17.0,22.0,10.0
2.4314000606536865,8.0,6.0,5.0,11.0,14.0
2.4342167377471924,0.0,10.0,5.0,0.0,18.0
2.4370334148406982,11.0,15.0,0.0,31.0,8.0
2.439850091934204,0.0,12.0,19.0,20.0,6.0
2.4427332878112793,3.0,12.0,39.0,5.0,5.0
2.445549964904785,6.0,40.0,31.0,0.0,0.0
2.448366641998291,6.0,20.0,15.0,31.0,2.0
2.451183319091797,37.0,0.0,26.0,19.0,5.0
2.4539999961853027,31.0,12.0,7.0,14.0,10.0
2.4568166732788086,42.0,24.0,36.0,8.0,16.0
2.459683418273926,11.0,43.0,31.0,36.0,24.0
2.4625000953674316,29.0,553.0,21.0,18.0,21.0
2.4653167724609375,0.0,1263.0,29.0,0.0,18.0
2.4681334495544434,5.0,1619.0,26.0,13.0,20.0
2.47094988822937,29.0,1240.0,24.0,6.0,21.0
2.473766565322876,25.0,31.0,34.0,0.0,45.0
2.4766499996185303,14.0,13.0,29.0,0.0,42.0
2.479466676712036,30.0,52.0,24.0,0.0,46.0
2.482283353805542,47.0,0.0,44.0,0.0,0.0
2.485100030899048,37.0,27.0,37.0,20.0,29.0
2.4879167079925537,5.0,7.0,31.0,12.0,11.0
2.4907333850860596,5.0,34.0,32.0,5.0,12.0
2.4936165809631348,39.0,20.0,34.0,14.0,14.0
2.4964332580566406,39.0,15.0,7.0,28.0,13.0
2.4992499351501465,0.0,11.0,48.0,42.0,12.0
2.5020666122436523,32.0,34.0,13.0,21.0,0.0
2.504883289337158,37.0,58.0,29.0,0.0,6.0
2.507699966430664,16.0,465.0,15.0,8.0,12.0
2.5105834007263184,23.0,886.0,21.0,7.0,18.0
2.513400077819824,5.0,450.0,28.0,7.0,14.0
2.51621675491333,10.0,14.0,8.0,11.0,17.0
2.519033432006836,7.0,353.0,13.0,5.0,20.0
2.521850109100342,5.0,689.0,19.0,0.0,18.0
2.5246665477752686,5.0,1305.0,23.0,10.0,17.0
2.527549982070923,14.0,965.0,17.0,30.0,21.0
2.5303666591644287,18.0,10.0,0.0,29.0,30.0
2.5331833362579346,13.0,965.0,26.0,23.0,17.0
2.5360000133514404,12.0,549.0,16.0,7.0,5.0
2.5388166904449463,18.0,1063.0,15.0,18.0,23.0
2.541633367538452,12.0,1197.0,0.0,29.0,11.0
2.5445001125335693,5.0,1085.0,19.0,35.0,29.0
2.547316551208496,12.0,1289.0,32.0,25.0,40.0
2.550133228302002,33.0,5.0,43.0,18.0,5.0
2.552949905395508,26.0,1731.0,11.0,12.0,21.0
2.5557665824890137,25.0,771.0,5.0,13.0,38.0
2.5585832595825195,10.0,2709.0,5.0,14.0,17.0
2.561466693878174,0.0,3737.0,14.0,20.0,51.0
2.5642833709716797,5.0,3964.0,23.0,51.0,58.0
2.5671000480651855,11.0,9984.0,33.0,28.0,34.0
2.5699167251586914,14.0,14872.0,1150.0,5.0,31.0
2.5727334022521973,17.0,31408.0,4006.0,208.0,0.0
2.575550079345703,18.0,58688.0,3016.0,412.0,5.0
2.5784332752227783,18.0,89536.0,6290.0,3092.0,5.0
2.581249952316284,18.0,140288.0,5485.0,3694.0,16.0
2.58406662940979,18.0,203200.0,7990.0,614.0,27.0
2.586883306503296,0.0,281280.0,10496.0,4645.0,914.0
2.5896999835968018,6.0,314496.0,16360.0,7283.0,570.0
2.5925166606903076,13.0,417856.0,30152.0,7330.0,225.0
2.595400094985962,6.0,467136.0,27480.0,7584.0,2187.0
2.5982167720794678,0.0,541952.0,30400.0,4025.0,2199.0
2.6010334491729736,15.0,577536.0,31636.0,8828.0,2211.0
2.6038498878479004,38.0,599296.0,27168.0,8448.0,742.0
2.6066665649414062,42.0,625920.0,36208.0,6286.0,1122.0
2.609483242034912,47.0,623616.0,29812.0,6538.0,2475.0
2.6123666763305664,42.0,675072.0,23420.0,9424.0,3827.0
2.6151833534240723,37.0,749056.0,40800.0,10696.0,4576.0
2.618000030517578,33.0,779520.0,35376.0,11204.0,1784.0
2.620816707611084,30.0,764928.0,47040.0,7455.0,4577.0
2.62363338470459,28.0,802560.0,41264.0,5932.0,1081.0
2.6264500617980957,35.0,822272.0,43872.0,13808.0,2741.0
2.629316568374634,322.0,841984.0,48032.0,11268.0,3563.0
2.6321332454681396,174.0,925952.0,59472.0,12248.0,3654.0
2.6349499225616455,27.0,967680.0,58096.0,11172.0,2128.0
2.6377665996551514,39.0,1037056.0,61536.0,9144.0,2988.0
2.6405832767486572,56.0,1019648.0,44944.0,14820.0,2818.0
2.643399953842163,5.0,984832.0,54976.0,13796.0,2966.0
2.6462833881378174,12.0,1027840.0,55088.0,17748.0,4027.0
2.6491000652313232,20.0,943872.0,48608.0,11512.0,5044.0
2.651916742324829,12.0,870144.0,51840.0,15980.0,4507.0
2.654733419418335,5.0,809216.0,48592.0,13036.0,3969.0
2.657550096511841,8.0,706048.0,42720.0,11456.0,2410.0
2.6603667736053467,11.0,673024.0,31208.0,10472.0,1141.0
2.663249969482422,23.0,527360.0,23956.0,6062.0,1531.0
2.6660666465759277,36.0,460736.0,30124.0,4968.0,952.0
2.6688833236694336,27.0,452544.0,24600.0,5307.0,724.0
2.6717000007629395,18.0,354432.0,23216.0,2681.0,495.0
2.6745166778564453,634.0,360576.0,14556.0,2537.0,1772.0
2.677333354949951,323.0,338240.0,13812.0,5342.0,1338.0
2.6802165508270264,13.0,310464.0,21308.0,6264.0,904.0
2.6830332279205322,15.0,238720.0,11720.0,5271.0,26.0
2.685849905014038,39.0,236480.0,10612.0,1854.0,72.0
2.688666582107544,33.0,198400.0,8360.0,908.0,666.0
2.69148325920105,28.0,153024.0,9116.0,565.0,352.0
2.6942999362945557,29.0,160128.0,6929.0,596.0,38.0
2.6971333026885986,31.0,105616.0,7714.0,603.0,285.0
2.6999499797821045,55.0,114896.0,8500.0,1031.0,452.0
2.7027666568756104,49.0,89712.0,4643.0,919.0,260.0
2.705583333969116,39.0,57872.0,3495.0,807.0,69.0
2.708400011062622,29.0,67248.0,2684.0,490.0,27.0
2.711216688156128,40.0,44272.0,1529.0,943.0,24.0
2.714099884033203,17.0,39168.0,1595.0,23.0,12.0
2.716916561126709,8.0,37008.0,1151.0,695.0,26.0
2.719733238220215,0.0,28616.0,708.0,850.0,23.0
2.7225499153137207,20.0,21572.0,2233.0,1005.0,25.0
2.7253665924072266,41.0,16780.0,30.0,173.0,27.0
2.7281832695007324,31.0,13220.0,870.0,17.0,10.0
2.7310667037963867,13.0,17020.0,1582.0,18.0,21.0
2.7338833808898926,30.0,8496.0,47.0,12.0,39.0
2.7367000579833984,30.0,8652.0,311.0,19.0,31.0
2.7395167350769043,9.0,8028.0,528.0,21.0,23.0
2.74233341217041,20.0,9956.0,24.0,23.0,19.0
2.745150089263916,818.0,4413.0,285.0,17.0,25.0
2.748033285140991,417.0,9572.0,33.0,11.0,31.0
2.750849962234497,15.0,4508.0,36.0,11.0,20.0
2.753666639328003,24.0,7330.0,44.0,12.0,10.0
2.756483316421509,44.0,5590.0,54.0,21.0,18.0
2.7592999935150146,22.0,3947.0,64.0,22.0,24.0
2.7621166706085205,11.0,3658.0,15.0,16.0,24.0
2.7649500370025635,0.0,3396.0,34.0,19.0,24.0
2.7677667140960693,10.0,3425.0,452.0,19.0,15.0
2.770583391189575,10.0,3454.0,359.0,9.0,5.0
2.773400068283081,10.0,3900.0,59.0,15.0,11.0
2.776216745376587,11.0,3707.0,15.0,419.0,18.0
2.7790334224700928,12.0,3515.0,0.0,221.0,224.0
2.781916618347168,20.0,3677.0,5.0,24.0,429.0
2.784733295440674,0.0,2940.0,820.0,29.0,231.0
2.7875499725341797,33.0,3493.0,918.0,18.0,34.0
2.7903666496276855,21.0,15.0,719.0,81.0,35.0
2.7931833267211914,10.0,3036.0,17.0,185.0,319.0
2.7960000038146973,47.0,778.0,38.0,288.0,217.0
2.7988834381103516,27.0,678.0,17.0,144.0,115.0
2.8017001152038574,7.0,1429.0,5.0,0.0,389.0
2.804516553878784,27.0,497.0,23.0,30.0,32.0
2.80733323097229,23.0,3393.0,13.0,21.0,472.0
2.810149908065796,7.0,2887.0,53.0,19.0,318.0
2.8129665851593018,22.0,29.0,44.0,17.0,164.0
2.815850019454956,18.0,975.0,36.0,749.0,31.0
2.818666696548462,0.0,2016.0,0.0,564.0,13.0
2.8214833736419678,24.0,48.0,5.0,191.0,10.0
2.8243000507354736,15.0,2429.0,10.0,16.0,86.0
2.8271167278289795,7.0,827.0,13.0,67.0,161.0
2.8299334049224854,13.0,903.0,10.0,57.0,407.0
2.8327667713165283,19.0,2032.0,7.0,48.0,653.0
2.835583448410034,16.0,1472.0,5.0,845.0,911.0
2.838399887084961,0.0,1728.0,13.0,794.0,5.0
2.841216564178467,33.0,2224.0,22.0,152.0,27.0
2.8440332412719727,43.0,440.0,19.0,10.0,558.0
2.8468499183654785,40.0,8.0,17.0,394.0,53.0
2.849733352661133,37.0,2333.0,13.0,211.0,961.0
2.8525500297546387,6.0,1141.0,13.0,28.0,487.0
2.8553667068481445,8.0,1473.0,29.0,29.0,14.0
2.8581833839416504,32.0,1782.0,45.0,30.0,63.0
2.8610000610351562,11.0,1259.0,421.0,5.0,342.0
2.863816738128662,35.0,736.0,390.0,387.0,26.0
2.8666999340057373,0.0,2356.0,5.0,203.0,635.0
2.869516611099243,5.0,3016.0,2396.0,19.0,2494.0
2.872333288192749,22.0,4511.0,3631.0,634.0,2400.0
2.875149965286255,51.0,17440.0,12640.0,4565.0,4644.0
2.8779666423797607,44.0,35328.0,32976.0,12520.0,20004.0
2.8807833194732666,37.0,81520.0,76736.0,22192.0,43600.0
2.8836333751678467,38.0,167936.0,176000.0,42032.0,82960.0
2.8864500522613525,17.0,313856.0,336768.0,85968.0,158464.0
2.8892667293548584,22.0,563968.0,560640.0,136192.0,249792.0
2.8920834064483643,15.0,782848.0,799232.0,190144.0,364416.0
2.89490008354187,10.0,1081856.0,1153024.0,282304.0,480192.0
2.897716760635376,6.0,1380608.0,1330688.0,334208.0,557568.0
2.900599956512451,8.0,1688576.0,1657344.0,389760.0,708096.0
2.903416633605957,10.0,2012672.0,1805824.0,461952.0,802048.0
2.906233310699463,18.0,2220032.0,2118656.0,543744.0,917504.0
2.9090499877929688,26.0,2235392.0,2307072.0,572672.0,985856.0
2.9118666648864746,38.0,2580480.0,2467840.0,597248.0,1052160.0
2.9146833419799805,51.0,2856960.0,2532352.0,612608.0,1040128.0
2.9175167083740234,123.0,2991104.0,2820096.0,596224.0,1150208.0
2.9203333854675293,196.0,2839552.0,2757632.0,683776.0,1176064.0
2.923150062561035,192.0,2961408.0,2916352.0,706304.0,1206016.0
2.925966739654541,187.0,3167232.0,2923520.0,723456.0,1279488.0
2.928783416748047,1587.0,3352576.0,3101696.0,777472.0,1390592.0
2.9316000938415527,1966.0,3372032.0,3137536.0,751616.0,1379584.0
2.934483289718628,25.0,3407872.0,3310592.0,819200.0,1445632.0
2.937299966812134,107.0,3578880.0,3284992.0,810752.0,1425152.0
2.9401166439056396,188.0,3605504.0,3314688.0,852736.0,1413376.0
2.9429333209991455,135.0,3681280.0,3333120.0,853760.0,1352704.0
2.9457499980926514,83.0,3659776.0,3352576.0,819456.0,1449216.0
2.9485666751861572,75.0,3297280.0,3176448.0,724224.0,1290752.0
2.9514501094818115,99.0,3444736.0,3124224.0,750848.0,1245184.0
2.9542665481567383,124.0,3427328.0,3253248.0,754688.0,1333504.0
2.957083225250244,206.0,3354624.0,3022848.0,697344.0,1266944.0
2.95989990234375,1314.0,3175424.0,2978816.0,710144.0,1152000.0
2.962716579437256,1435.0,2998272.0,2850816.0,707328.0,1239808.0
2.9655332565307617,1777.0,2753536.0,2766848.0,672768.0,1192448.0
2.968416690826416,78.0,2662400.0,2696192.0,605952.0,1073664.0
2.971233367919922,707.0,2656256.0,2419712.0,588544.0,976128.0
2.9740500450134277,758.0,2712576.0,2392064.0,595968.0,941312.0
2.9768667221069336,73.0,2461696.0,2324480.0,582400.0,1030400.0
2.9796833992004395,76.0,2273280.0,2041600.0,510336.0,906752.0
2.9825000762939453,141.0,2428928.0,2108416.0,503424.0,883456.0
2.9853832721710205,96.0,2213888.0,2040064.0,480128.0,933888.0
2.9881999492645264,52.0,2202624.0,2002176.0,451200.0,765184.0
2.9910166263580322,62.0,1994496.0,1821696.0,463552.0,764928.0
2.993833303451538,73.0,1797120.0,1812224.0,448512.0,717568.0
2.996649980545044,87.0,1696768.0,1485312.0,376512.0,665600.0
2.99946665763855,426.0,1470720.0,1420032.0,334656.0,559616.0
3.0012166500091553,765.0,1507072.0,1333248.0,304832.0,497280.0
3.0023000240325928,958.0,1412352.0,1278464.0,312576.0,530432.0
3.0033833980560303,1228.0,1308928.0,1171456.0,274304.0,507072.0
3.0044667720794678,244.0,1313792.0,1094144.0,256896.0,477120.0
3.005549907684326,225.0,1233408.0,1139456.0,257344.0,433408.0
3.0066332817077637,234.0,1090048.0,999680.0,264768.0,412288.0
3.007716655731201,244.0,1102336.0,945408.0,234304.0,369408.0
3.0088000297546387,158.0,959744.0,899584.0,213824.0,373888.0
3.009883403778076,131.0,928512.0,868096.0,166656.0,317952.0
3.0109667778015137,105.0,841984.0,789760.0,185600.0,336832.0
3.012049913406372,114.0,741120.0,665088.0,164352.0,270208.0
3.0131332874298096,497.0,695296.0,607744.0,147328.0,275392.0
3.014216661453247,881.0,707840.0,606976.0,159552.0,240576.0
3.0153000354766846,928.0,632320.0,578560.0,119888.0,224256.0
3.016383409500122,127.0,542208.0,561920.0,141376.0,190592.0
3.0174667835235596,873.0,546816.0,542464.0,120160.0,194048.0
3.0186166763305664,1262.0,470656.0,424704.0,98720.0,190080.0
3.019700050354004,631.0,428160.0,419008.0,96656.0,164416.0
3.0207834243774414,187.0,442432.0,362688.0,92496.0,158656.0
3.0218665599823,468.0,378688.0,345152.0,79744.0,124352.0
3.0229499340057373,86.0,338112.0,339072.0,55568.0,135872.0
3.024033308029175,77.0,353152.0,275392.0,87328.0,126240.0
3.0251166820526123,544.0,311040.0,254016.0,60928.0,106848.0
3.02620005607605,689.0,254208.0,276096.0,67776.0,91392.0
3.0272834300994873,109.0,259328.0,245760.0,54240.0,88304.0
3.0283665657043457,121.0,250112.0,209792.0,43472.0,88880.0
3.029449939727783,133.0,214976.0,206528.0,42432.0,74272.0
3.0305333137512207,49.0,243072.0,198720.0,52176.0,78256.0
3.031616687774658,61.0,176896.0,179328.0,40528.0,91168.0
3.0327000617980957,73.0,191744.0,166336.0,44816.0,77584.0
3.033783435821533,44.0,178880.0,137216.0,44832.0,60304.0
3.03493332862854,35.0,163968.0,140736.0,34688.0,59648.0
3.0360167026519775,27.0,136320.0,140352.0,43392.0,45920.0
3.037100076675415,24.0,149824.0,138368.0,41872.0,52384.0
3.0381834506988525,21.0,143296.0,129328.0,32976.0,40784.0
3.039266586303711,17.0,129760.0,125232.0,29172.0,55840.0
3.0403499603271484,80.0,122160.0,128416.0,30992.0,38832.0
3.041433334350586,143.0,127648.0,102192.0,23544.0,46128.0
3.0425167083740234,506.0,119520.0,132544.0,34672.0,46192.0
3.043600082397461,394.0,88320.0,88448.0,23660.0,48720.0
3.0446832180023193,44.0,106800.0,84720.0,15712.0,46096.0
3.045766592025757,11.0,104288.0,91744.0,32712.0,42304.0
3.0468499660491943,12.0,95520.0,95952.0,29084.0,34240.0
3.047933340072632,13.0,105792.0,104160.0,25028.0,28224.0
3.0490167140960693,10.0,97040.0,96832.0,18104.0,26940.0
3.050100088119507,39.0,97536.0,93296.0,28324.0,34352.0
3.0511832237243652,39.0,79968.0,83200.0,18544.0,34624.0
3.052316665649414,39.0,76288.0,86096.0,16488.0,31136.0
3.0534000396728516,46.0,78064.0,57440.0,20376.0,20904.0
3.054483413696289,44.0,62512.0,76800.0,18384.0,31068.0
3.0555832386016846,43.0,82880.0,57328.0,10400.0,26464.0
3.056649923324585,23.0,77632.0,71968.0,18016.0,28016.0
3.0577332973480225,11.0,75840.0,67472.0,18560.0,25948.0
3.05881667137146,86.0,74048.0,63616.0,14972.0,23876.0
3.0599000453948975,71.0,66352.0,67568.0,19288.0,23784.0
3.060983419418335,55.0,63840.0,51168.0,12408.0,22480.0
3.0620665550231934,64.0,58144.0,59712.0,12428.0,21176.0
3.063149929046631,75.0,56944.0,59184.0,9428.0,20200.0
3.0642333030700684,65.0,61856.0,61200.0,11460.0,14368.0
3.065316677093506,55.0,66784.0,55744.0,13492.0,19208.0
3.0664000511169434,94.0,40864.0,51760.0,10028.0,19880.0
3.067483425140381,20.0,54720.0,51120.0,10832.0,20556.0
3.0686166286468506,33.0,62080.0,52176.0,11096.0,19740.0
3.069716691970825,46.0,61488.0,45152.0,11136.0,18928.0
3.0708000659942627,63.0,57792.0,39520.0,6895.0,22636.0
3.0718834400177,38.0,58032.0,38336.0,9132.0,21972.0
3.0729665756225586,14.0,45632.0,43952.0,6060.0,14920.0
3.074049949645996,54.0,46224.0,44816.0,5212.0,13296.0
3.0751333236694336,69.0,38272.0,45696.0,4364.0,12740.0
3.076216697692871,28.0,40352.0,34832.0,3741.0,13776.0
3.0773000717163086,42.0,36048.0,41808.0,9912.0,16052.0
3.078383445739746,50.0,31728.0,38320.0,12036.0,15624.0
3.0794665813446045,52.0,34192.0,34848.0,8748.0,15196.0
3.080549955368042,64.0,36672.0,37904.0,9440.0,12536.0
3.0816333293914795,20.0,36320.0,28348.0,7400.0,10068.0
3.082716703414917,32.0,36064.0,32912.0,9540.0,11616.0
3.0838000774383545,44.0,38720.0,36400.0,6667.0,15060.0
3.084883451461792,58.0,29344.0,34368.0,12836.0,15796.0
3.086033344268799,48.0,34096.0,35216.0,11068.0,12796.0
3.0871167182922363,83.0,33168.0,39008.0,6010.0,17464.0
3.088200092315674,48.0,29172.0,27320.0,5299.0,19296.0
3.0892832279205322,13.0,34192.0,32976.0,5676.0,14856.0
3.0903666019439697,42.0,34176.0,24276.0,5355.0,7738.0
3.0914499759674072,39.0,34160.0,32316.0,5033.0,16268.0
3.0925333499908447,30.0,36064.0,26132.0,8452.0,12256.0
3.0936167240142822,22.0,20868.0,26228.0,8280.0,10260.0
3.0947000980377197,48.0,34832.0,26324.0,3328.0,12700.0
3.095783233642578,45.0,36672.0,24792.0,7332.0,13876.0
3.0968666076660156,30.0,30024.0,30820.0,2236.0,13464.0
3.097949981689453,53.0,33376.0,18872.0,5111.0,10840.0
3.0990333557128906,23.0,27128.0,20200.0,7986.0,10140.0
3.100116729736328,15.0,34880.0,26680.0,5424.0,8672.0
3.1012001037597656,49.0,33504.0,16792.0,7748.0,10880.0
3.102283239364624,33.0,32244.0,28220.0,6041.0,9256.0
3.103416681289673,18.0,24440.0,20776.0,3176.0,7631.0
3.1045000553131104,39.0,18624.0,24452.0,8460.0,6784.0
3.105583429336548,14.0,26404.0,29048.0,3884.0,7874.0
3.1066665649414062,61.0,26516.0,22520.0,3465.0,8348.0
3.107766628265381,45.0,31380.0,26060.0,3604.0,9004.0
3.1088333129882812,69.0,35504.0,19716.0,6883.0,8724.0
3.109933376312256,94.0,20920.0,20960.0,6938.0,10276.0
3.1110000610351562,17.0,32540.0,22204.0,6522.0,10796.0
3.1120834350585938,109.0,26752.0,23892.0,3233.0,12932.0
3.113166570663452,77.0,18208.0,16340.0,4085.0,6103.0
3.1142499446868896,45.0,24700.0,24740.0,5771.0,13232.0
3.115333318710327,108.0,24888.0,18528.0,4773.0,12264.0
3.1164166927337646,34.0,18204.0,24448.0,3508.0,8756.0
3.117500066757202,12.0,22200.0,16540.0,5734.0,8232.0
3.1185834407806396,28.0,19204.0,21168.0,3909.0,11004.0
3.1197333335876465,25.0,21760.0,27716.0,6631.0,4500.0
3.120816707611084,22.0,23776.0,13340.0,6296.0,8111.0
3.1219000816345215,20.0,20032.0,20884.0,4575.0,3077.0
3.12298321723938,18.0,22932.0,17812.0,6704.0,8592.0
3.1240665912628174,22.0,16532.0,18960.0,3673.0,6115.0
3.125149965286255,26.0,11676.0,12720.0,3173.0,2994.0
3.1262333393096924,0.0,7890.0,13896.0,2032.0,2426.0
3.12731671333313,5.0,13412.0,8804.0,2749.0,3335.0
3.1284000873565674,11.0,9852.0,4991.0,2369.0,3154.0
3.129483222961426,10.0,11796.0,7706.0,1573.0,3300.0
3.1305665969848633,10.0,4921.0,4734.0,69.0,3446.0
3.131649971008301,15.0,5651.0,1349.0,512.0,4707.0
3.1327333450317383,15.0,3321.0,5350.0,10.0,37.0
3.133816719055176,14.0,3678.0,3844.0,960.0,49.0
3.1349000930786133,61.0,1082.0,6491.0,1989.0,987.0
3.1359832286834717,39.0,2410.0,1402.0,1017.0,497.0
3.1371333599090576,17.0,3982.0,2593.0,45.0,6.0
3.138216733932495,11.0,3987.0,3983.0,1389.0,112.0
3.1393001079559326,48.0,2153.0,2086.0,101.0,257.0
3.140383243560791,25.0,1484.0,3595.0,47.0,403.0
3.1414666175842285,28.0,3164.0,1373.0,1314.0,245.0
3.142549991607666,20.0,145.0,3013.0,19.0,86.0
3.1436333656311035,19.0,753.0,2259.0,15.0,62.0
3.144716739654541,18.0,753.0,665.0,28.0,37.0
3.1458001136779785,9.0,2648.0,985.0,30.0,214.0
3.146883249282837,25.0,3209.0,1080.0,32.0,392.0
3.1479666233062744,42.0,1169.0,1061.0,90.0,427.0
3.149049997329712,47.0,1783.0,818.0,65.0,461.0
3.1501333713531494,31.0,1604.0,575.0,39.0,671.0
3.151216745376587,15.0,1544.0,1097.0,325.0,881.0
3.1522998809814453,26.0,2434.0,1261.0,169.0,489.0
3.153433322906494,13.0,2275.0,1426.0,13.0,97.0
3.1545333862304688,42.0,1886.0,31.0,31.0,219.0
3.1556167602539062,38.0,1601.0,23.0,49.0,341.0
3.1566998958587646,35.0,839.0,754.0,41.0,179.0
3.157783269882202,47.0,781.0,1484.0,34.0,17.0
3.1588666439056396,0.0,1899.0,1394.0,27.0,42.0
3.159950017929077,50.0,1297.0,681.0,20.0,29.0
3.1610333919525146,55.0,2144.0,881.0,25.0,52.0
3.162116765975952,16.0,595.0,24.0,30.0,0.0
3.1631999015808105,47.0,555.0,1260.0,31.0,23.0
3.164283275604248,27.0,515.0,983.0,44.0,39.0
3.1653666496276855,52.0,2047.0,1105.0,58.0,56.0
3.166450023651123,23.0,1951.0,576.0,60.0,39.0
3.1675333976745605,26.0,2409.0,508.0,63.0,23.0
3.168616771697998,74.0,1279.0,441.0,26.0,56.0
3.1696999073028564,52.0,2328.0,820.0,0.0,52.0
3.1708333492279053,30.0,2949.0,1337.0,48.0,48.0
3.1719167232513428,59.0,0.0,896.0,26.0,23.0
3.1730000972747803,10.0,29.0,454.0,30.0,60.0
3.1740832328796387,24.0,1740.0,884.0,26.0,39.0
3.175166606903076,58.0,625.0,19.0,838.0,18.0
3.1762499809265137,10.0,1461.0,791.0,455.0,499.0
3.177333354949951,61.0,804.0,1175.0,72.0,516.0
3.1784167289733887,23.0,1473.0,592.0,193.0,365.0
3.179500102996826,37.0,2142.0,29.0,99.0,24.0
3.1805999279022217,45.0,324.0,1448.0,6.0,12.0
3.181666612625122,29.0,1342.0,1020.0,33.0,0.0
3.1827499866485596,12.0,651.0,540.0,49.0,13.0
3.183833360671997,39.0,612.0,1504.0,66.0,26.0
3.1849167346954346,37.0,328.0,263.0,36.0,22.0
3.186000108718872,35.0,45.0,19.0,5.0,18.0
3.1870832443237305,33.0,630.0,16.0,5.0,33.0
3.1882333755493164,32.0,1617.0,278.0,6.0,19.0
3.189316749572754,32.0,2768.0,210.0,8.0,5.0
3.1903998851776123,38.0,2865.0,0.0,29.0,40.0
3.19148325920105,44.0,38.0,1694.0,50.0,32.0
3.1925666332244873,23.0,24.0,2298.0,34.0,25.0
3.193650007247925,25.0,36.0,1169.0,44.0,384.0
3.1947333812713623,18.0,19.0,83.0,1221.0,202.0
3.1958167552948,18.0,5.0,491.0,1087.0,20.0
3.196899890899658,18.0,20.0,5.0,32.0,25.0
3.1979832649230957,17.0,20.0,1034.0,676.0,31.0
3.199066638946533,16.0,19.0,537.0,56.0,30.0
