,344.2099914550781,345.2099914550781,346.2099914550781,347.2099914550781,348.2099914550781,349.2099914550781,350.2099914550781,351.2099914550781
2.301816701889038,21.0,15.0,18.0,69.0,403.0,103.0,11.0,19.0
2.3035333156585693,51.0,16.0,22.0,11.0,13.0,17.0,0.0,5.0
2.305283308029175,5.0,5.0,12.0,24.0,33.0,50.0,11.0,0.0
2.307016611099243,16.0,20.0,26.0,41.0,26.0,0.0,15.0,7.0
2.3087666034698486,0.0,11.0,27.0,26.0,10.0,63.0,23.0,14.0
2.310499906539917,42.0,0.0,23.0,10.0,5.0,13.0,27.0,7.0
2.3122334480285645,31.0,53.0,11.0,24.0,13.0,21.0,10.0,0.0
2.313966751098633,61.0,43.0,22.0,23.0,7.0,27.0,20.0,0.0
2.315700054168701,33.0,17.0,27.0,5.0,0.0,39.0,22.0,56.0
2.3174333572387695,26.0,35.0,0.0,21.0,10.0,0.0,23.0,43.0
2.319166660308838,14.0,27.0,33.0,28.0,19.0,41.0,17.0,43.0
2.3208999633789062,23.0,19.0,23.0,33.0,13.0,19.0,10.0,11.0
2.3226332664489746,33.0,12.0,43.0,12.0,6.0,21.0,19.0,20.0
2.3244333267211914,15.0,16.0,38.0,5.0,16.0,24.0,12.0,65.0
2.3261666297912598,19.0,13.0,21.0,0.0,20.0,28.0,6.0,50.0
2.327899932861328,5.0,10.0,7.0,5.0,48.0,31.0,15.0,22.0
2.3296332359313965,11.0,0.0,15.0,5.0,48.0,18.0,23.0,24.0
2.331366777420044,5.0,6.0,23.0,10.0,24.0,27.0,19.0,17.0
2.3331000804901123,0.0,11.0,5.0,8.0,10.0,25.0,14.0,5.0
2.3348333835601807,0.0,5.0,0.0,5.0,20.0,42.0,0.0,7.0
2.336566686630249,7.0,3.0,8.0,11.0,19.0,42.0,5.0,16.0
2.3382999897003174,14.0,0.0,7.0,5.0,25.0,43.0,10.0,5.0
2.3400332927703857,27.0,0.0,5.0,0.0,9.0,20.0,30.0,0.0
2.3418166637420654,29.0,16.0,10.0,12.0,26.0,9.0,29.0,3.0
2.343549966812134,20.0,17.0,5.0,9.0,32.0,22.0,0.0,5.0
2.345283269882202,28.0,19.0,0.0,5.0,13.0,26.0,29.0,5.0
2.3470165729522705,68.0,20.0,16.0,11.0,36.0,41.0,5.0,8.0
2.348750114440918,59.0,14.0,8.0,29.0,34.0,32.0,20.0,7.0
2.3504834175109863,51.0,35.0,0.0,37.0,31.0,14.0,10.0,6.0
2.3522167205810547,24.0,17.0,12.0,22.0,13.0,0.0,0.0,17.0
2.353950023651123,0.0,0.0,10.0,13.0,19.0,6.0,7.0,29.0
2.3556833267211914,38.0,12.0,5.0,21.0,7.0,10.0,27.0,78.0
2.3574166297912598,29.0,10.0,0.0,11.0,0.0,35.0,25.0,45.0
2.3592166900634766,9.0,25.0,5.0,6.0,12.0,35.0,15.0,11.0
2.360949993133545,24.0,20.0,6.0,0.0,24.0,45.0,32.0,47.0
2.3626832962036133,23.0,15.0,31.0,18.0,27.0,19.0,22.0,12.0
2.3644165992736816,33.0,5.0,39.0,37.0,14.0,45.0,22.0,17.0
2.36614990234375,32.0,19.0,8.0,33.0,20.0,34.0,21.0,6.0
2.3678834438323975,21.0,19.0,19.0,29.0,17.0,0.0,22.0,7.0
2.369616746902466,10.0,19.0,40.0,0.0,23.0,29.0,22.0,25.0
2.371350049972534,17.0,54.0,5.0,22.0,39.0,26.0,19.0,22.0
2.3730833530426025,9.0,40.0,0.0,41.0,28.0,20.0,16.0,40.0
2.3748667240142822,0.0,26.0,34.0,17.0,18.0,14.0,9.0,0.0
2.3766167163848877,0.0,5.0,28.0,13.0,22.0,16.0,41.0,28.0
2.378350019454956,11.0,37.0,26.0,35.0,16.0,17.0,37.0,23.0
2.3800833225250244,22.0,5.0,24.0,22.0,10.0,27.0,26.0,20.0
2.3818166255950928,20.0,23.0,22.0,25.0,10.0,17.0,33.0,9.0
2.383549928665161,13.0,34.0,29.0,21.0,7.0,6.0,41.0,14.0
2.3852832317352295,5.0,27.0,36.0,9.0,34.0,0.0,45.0,18.0
2.387016773223877,8.0,19.0,21.0,14.0,27.0,12.0,49.0,0.0
2.3887500762939453,4.0,32.0,7.0,18.0,21.0,7.0,10.0,6.0
2.3904833793640137,0.0,21.0,16.0,0.0,0.0,27.0,28.0,28.0
2.3922834396362305,36.0,33.0,24.0,0.0,18.0,21.0,35.0,44.0
2.394016742706299,28.0,11.0,29.0,11.0,9.0,17.0,11.0,39.0
2.395750045776367,18.0,24.0,33.0,13.0,14.0,10.0,8.0,56.0
2.3974833488464355,18.0,29.0,20.0,0.0,38.0,34.0,14.0,14.0
2.399216651916504,17.0,29.0,19.0,5.0,44.0,34.0,20.0,39.0
2.4020333290100098,23.0,28.0,5.0,19.0,18.0,31.0,19.0,25.0
2.4048500061035156,28.0,23.0,20.0,15.0,23.0,28.0,17.0,17.0
2.4076666831970215,17.0,9.0,13.0,11.0,44.0,32.0,37.0,41.0
2.410566568374634,5.0,42.0,5.0,20.0,0.0,0.0,34.0,47.0
2.4133832454681396,11.0,23.0,23.0,22.0,27.0,0.0,50.0,41.0
2.4161999225616455,5.0,5.0,0.0,25.0,11.0,20.0,39.0,7.0
2.4190165996551514,25.0,28.0,15.0,0.0,9.0,18.0,5.0,50.0
2.4218332767486572,30.0,21.0,19.0,84.0,7.0,15.0,10.0,20.0
2.424649953842163,35.0,39.0,10.0,45.0,11.0,30.0,14.0,16.0
2.427483320236206,14.0,35.0,0.0,5.0,8.0,0.0,14.0,15.0
2.430299997329712,35.0,31.0,26.0,10.0,6.0,0.0,13.0,12.0
2.4331166744232178,33.0,0.0,33.0,17.0,22.0,24.0,12.0,18.0
2.4359333515167236,45.0,6.0,40.0,24.0,22.0,25.0,10.0,5.0
2.4387500286102295,16.0,14.0,26.0,23.0,0.0,25.0,13.0,10.0
2.4415667057037354,6.0,14.0,12.0,24.0,20.0,11.0,19.0,24.0
2.4444499015808105,8.0,13.0,14.0,24.0,16.0,33.0,0.0,15.0
2.4472665786743164,10.0,5.0,39.0,35.0,15.0,21.0,11.0,5.0
2.4500832557678223,55.0,16.0,45.0,5.0,13.0,10.0,21.0,24.0
2.452899932861328,65.0,12.0,44.0,5.0,12.0,36.0,32.0,42.0
2.455716609954834,59.0,7.0,7.0,24.0,10.0,15.0,20.0,36.0
2.45853328704834,138.0,15.0,23.0,0.0,5.0,28.0,13.0,5.0
2.461416721343994,123.0,11.0,15.0,17.0,38.0,26.0,12.0,23.0
2.4642333984375,5.0,7.0,0.0,0.0,42.0,23.0,24.0,14.0
2.467050075531006,65.0,13.0,26.0,0.0,59.0,20.0,19.0,12.0
2.4698667526245117,49.0,19.0,0.0,0.0,64.0,7.0,11.0,5.0
2.4726834297180176,0.0,15.0,0.0,8.0,10.0,19.0,30.0,0.0
2.4755001068115234,11.0,10.0,0.0,29.0,17.0,18.0,15.0,14.0
2.4783833026885986,10.0,17.0,25.0,23.0,17.0,9.0,10.0,7.0
2.4811999797821045,5.0,14.0,12.0,0.0,14.0,0.0,5.0,0.0
2.4840166568756104,0.0,11.0,0.0,16.0,10.0,13.0,5.0,8.0
2.486833333969116,9.0,15.0,23.0,36.0,10.0,5.0,5.0,4.0
2.489650011062622,17.0,24.0,16.0,54.0,7.0,7.0,20.0,0.0
2.492466688156128,35.0,0.0,0.0,34.0,4.0,44.0,15.0,20.0
2.495349884033203,33.0,26.0,0.0,35.0,0.0,32.0,9.0,25.0
2.498166561126709,32.0,11.0,0.0,12.0,5.0,20.0,27.0,16.0
2.500983238220215,22.0,19.0,7.0,0.0,0.0,46.0,30.0,7.0
2.5037999153137207,0.0,26.0,13.0,19.0,3.0,16.0,33.0,12.0
2.5066332817077637,48.0,34.0,10.0,38.0,5.0,23.0,8.0,20.0
2.5094499588012695,0.0,10.0,15.0,36.0,23.0,30.0,8.0,10.0
2.5122833251953125,27.0,16.0,38.0,39.0,41.0,17.0,11.0,0.0
2.5151000022888184,28.0,22.0,25.0,0.0,28.0,26.0,16.0,3.0
2.517916679382324,25.0,23.0,12.0,6.0,6.0,35.0,11.0,5.0
2.52073335647583,41.0,27.0,10.0,26.0,34.0,16.0,5.0,10.0
2.523550033569336,39.0,21.0,24.0,0.0,35.0,5.0,10.0,16.0
2.526366710662842,37.0,14.0,15.0,43.0,64.0,18.0,15.0,31.0
2.529249906539917,10.0,37.0,5.0,38.0,58.0,30.0,20.0,15.0
2.532066583633423,32.0,5.0,5.0,10.0,34.0,21.0,16.0,0.0
2.5348832607269287,19.0,28.0,14.0,13.0,5.0,5.0,11.0,45.0
2.5376999378204346,19.0,6.0,37.0,0.0,31.0,12.0,19.0,23.0
2.5405166149139404,18.0,22.0,32.0,8.0,5.0,25.0,10.0,29.0
2.5433332920074463,18.0,28.0,26.0,15.0,5.0,35.0,0.0,5.0
2.5462167263031006,18.0,15.0,10.0,5.0,17.0,28.0,15.0,39.0
2.5490334033966064,39.0,17.0,26.0,7.0,16.0,25.0,21.0,26.0
2.5518500804901123,33.0,19.0,13.0,15.0,14.0,35.0,26.0,44.0
2.554666757583618,26.0,22.0,0.0,5.0,21.0,5.0,29.0,38.0
2.557483434677124,36.0,30.0,18.0,1031.0,21.0,15.0,5.0,32.0
2.56030011177063,7.0,7.0,112.0,975.0,20.0,24.0,13.0,33.0
2.563183307647705,25.0,21.0,333.0,379.0,15.0,12.0,5.0,34.0
2.565999984741211,31.0,31.0,554.0,245.0,18.0,6.0,48.0,6.0
2.568816661834717,8.0,38.0,1381.0,56.0,20.0,43.0,42.0,28.0
2.5716333389282227,30.0,17.0,1391.0,450.0,18.0,43.0,21.0,17.0
2.5744500160217285,32.0,10.0,1374.0,239.0,23.0,41.0,40.0,5.0
2.5772666931152344,34.0,38.0,1357.0,27.0,12.0,6.0,59.0,16.0
2.5801498889923096,7.0,0.0,1244.0,11.0,0.0,10.0,0.0,0.0
2.5829665660858154,36.0,27.0,1131.0,8.0,12.0,50.0,11.0,11.0
2.5857832431793213,33.0,12.0,794.0,5.0,5.0,17.0,10.0,0.0
2.588599920272827,24.0,9.0,458.0,13.0,26.0,19.0,10.0,7.0
2.591416597366333,5.0,5.0,1968.0,20.0,13.0,21.0,0.0,14.0
2.594233274459839,42.0,3.0,2055.0,306.0,0.0,13.0,40.0,5.0
2.597116708755493,17.0,0.0,2142.0,640.0,739.0,25.0,33.0,13.0
2.599933385848999,13.0,33.0,1950.0,757.0,661.0,8.0,25.0,20.0
2.602750062942505,23.0,24.0,1757.0,5.0,37.0,5.0,5.0,13.0
2.6055667400360107,6.0,16.0,2410.0,1010.0,27.0,24.0,7.0,22.0
2.6083834171295166,0.0,0.0,1854.0,36.0,33.0,23.0,13.0,25.0
2.6112000942230225,13.0,5.0,1297.0,276.0,26.0,21.0,59.0,27.0
2.6140832901000977,29.0,18.0,1341.0,957.0,20.0,17.0,60.0,24.0
2.6168999671936035,23.0,16.0,1801.0,184.0,23.0,12.0,61.0,21.0
2.6197166442871094,17.0,14.0,2261.0,970.0,25.0,23.0,0.0,30.0
2.6225333213806152,22.0,13.0,2847.0,642.0,12.0,35.0,44.0,12.0
2.625349998474121,26.0,11.0,2595.0,23.0,0.0,37.0,42.0,23.0
2.628166675567627,19.0,0.0,1562.0,23.0,0.0,0.0,57.0,34.0
2.6310501098632812,11.0,8.0,1127.0,39.0,3.0,59.0,23.0,32.0
2.633866548538208,9.0,15.0,1566.0,11.0,1.0,30.0,5.0,31.0
2.636683225631714,21.0,43.0,37.0,23.0,0.0,36.0,18.0,42.0
2.6394999027252197,21.0,57.0,2134.0,36.0,12.0,27.0,9.0,48.0
2.6423165798187256,21.0,33.0,1518.0,19.0,37.0,10.0,10.0,24.0
2.6451332569122314,28.0,43.0,1061.0,21.0,33.0,17.0,11.0,20.0
2.6479666233062744,35.0,45.0,35.0,19.0,29.0,18.0,11.0,5.0
2.6507833003997803,35.0,22.0,0.0,17.0,31.0,18.0,13.0,16.0
2.653599977493286,35.0,36.0,21.0,539.0,12.0,25.0,7.0,14.0
2.656416654586792,62.0,0.0,22.0,409.0,12.0,31.0,0.0,43.0
2.659233331680298,0.0,50.0,22.0,58.0,1050.0,36.0,8.0,56.0
2.6620500087738037,50.0,872.0,995.0,759.0,856.0,25.0,4.0,69.0
2.664933443069458,19.0,708.0,1819.0,382.0,2429.0,728.0,0.0,31.0
2.6677498817443848,36.0,543.0,4065.0,5.0,2936.0,694.0,269.0,34.0
2.6705665588378906,64.0,1303.0,2929.0,4943.0,3401.0,136.0,158.0,53.0
2.6733832359313965,339.0,2522.0,5480.0,9520.0,7062.0,2363.0,48.0,729.0
2.6761999130249023,325.0,3120.0,9900.0,12792.0,9264.0,4682.0,36.0,402.0
2.679016590118408,40.0,3929.0,10280.0,9952.0,14596.0,5023.0,23.0,74.0
2.6819000244140625,33.0,9964.0,9640.0,26680.0,12408.0,5364.0,3355.0,364.0
2.6847167015075684,49.0,10500.0,9004.0,25600.0,14612.0,5080.0,5590.0,187.0
2.687533378601074,0.0,9540.0,20160.0,27840.0,17424.0,4796.0,5811.0,9.0
2.69035005569458,47.0,10636.0,22100.0,35216.0,24728.0,7716.0,6016.0,17.0
2.693166732788086,25.0,7754.0,36496.0,43392.0,29508.0,10636.0,5307.0,25.0
2.695983409881592,56.0,16160.0,42800.0,38544.0,28712.0,14456.0,2922.0,349.0
2.698883295059204,37.0,16832.0,36432.0,46144.0,27920.0,13112.0,6943.0,726.0
2.70169997215271,29.0,16408.0,40256.0,51664.0,38432.0,11768.0,7448.0,1391.0
2.704516649246216,22.0,13120.0,42976.0,49216.0,40592.0,21896.0,7627.0,1636.0
2.7073333263397217,36.0,9836.0,45696.0,53632.0,44752.0,20872.0,6433.0,1881.0
2.7101500034332275,53.0,13636.0,40960.0,57616.0,39360.0,22884.0,7001.0,2038.0
2.7129666805267334,5.0,17436.0,42048.0,61664.0,46192.0,23640.0,7884.0,425.0
2.7158000469207764,29.0,14740.0,43120.0,60176.0,44304.0,23764.0,8094.0,938.0
2.7186167240142822,10.0,18100.0,48144.0,58704.0,42432.0,23888.0,4530.0,240.0
2.721450090408325,62.0,14684.0,56848.0,59904.0,44944.0,27284.0,7983.0,1424.0
2.724266767501831,71.0,18104.0,53840.0,61104.0,43280.0,22552.0,5700.0,1183.0
2.727083444595337,27.0,17064.0,43056.0,44288.0,45104.0,17824.0,8692.0,942.0
2.7298998832702637,18.0,15408.0,40352.0,58800.0,46928.0,16468.0,7775.0,854.0
2.7327499389648438,7.0,16624.0,36800.0,50240.0,34928.0,13452.0,7929.0,891.0
2.7355666160583496,8.0,12500.0,32992.0,44352.0,30200.0,14204.0,4533.0,904.0
2.7383832931518555,9.0,12292.0,15980.0,25512.0,28516.0,14956.0,4778.0,475.0
2.7411999702453613,13.0,11772.0,29824.0,30180.0,19240.0,7456.0,2240.0,46.0
2.744016647338867,10.0,13788.0,17580.0,26812.0,12860.0,6250.0,4332.0,39.0
2.74685001373291,6.0,4720.0,16664.0,16408.0,11740.0,7123.0,3188.0,28.0
2.749666690826416,8.0,6372.0,12328.0,18380.0,4653.0,7914.0,919.0,489.0
2.752483367919922,10.0,2184.0,7393.0,10300.0,7692.0,7862.0,2238.0,568.0
2.7553000450134277,25.0,6840.0,7532.0,11432.0,3868.0,3670.0,24.0,53.0
2.7581167221069336,28.0,1925.0,4482.0,6375.0,5135.0,2248.0,1072.0,7.0
2.7609333992004395,16.0,778.0,3665.0,2133.0,3479.0,3624.0,5.0,661.0
2.7638165950775146,11.0,657.0,2052.0,4124.0,2442.0,954.0,1284.0,14.0
2.7666332721710205,27.0,16.0,4373.0,869.0,1808.0,3258.0,20.0,35.0
2.7694499492645264,16.0,405.0,2424.0,2289.0,1661.0,26.0,37.0,5.0
2.7722666263580322,5.0,215.0,3725.0,1695.0,626.0,2805.0,30.0,19.0
2.775083303451538,10.0,25.0,3151.0,2524.0,2160.0,1093.0,30.0,7.0
2.777899980545044,15.0,8.0,783.0,1680.0,1955.0,192.0,18.0,17.0
2.7807834148406982,10.0,24.0,819.0,1268.0,495.0,632.0,6.0,21.0
2.783600091934204,6.0,29.0,38.0,737.0,678.0,22.0,16.0,16.0
2.78641676902771,5.0,34.0,803.0,1755.0,437.0,20.0,22.0,10.0
2.789233446121216,26.0,30.0,1392.0,1193.0,967.0,680.0,6.0,11.0
2.7920498847961426,45.0,26.0,31.0,1186.0,908.0,671.0,22.0,14.0
2.7948665618896484,44.0,25.0,1805.0,1179.0,0.0,662.0,0.0,16.0
2.7977499961853027,43.0,24.0,615.0,496.0,314.0,9.0,10.0,22.0
2.8005666732788086,42.0,6.0,725.0,1623.0,31.0,10.0,19.0,24.0
2.8033833503723145,39.0,11.0,17.0,1475.0,280.0,37.0,59.0,12.0
2.8062000274658203,27.0,11.0,6.0,1757.0,529.0,28.0,41.0,36.0
2.809016704559326,29.0,21.0,366.0,390.0,356.0,51.0,23.0,5.0
2.811833381652832,27.0,14.0,158.0,0.0,15.0,0.0,12.0,31.0
2.8147165775299072,14.0,6.0,79.0,1454.0,25.0,25.0,19.0,18.0
2.817533254623413,14.0,6.0,0.0,91.0,35.0,46.0,17.0,25.0
2.820349931716919,37.0,7.0,8.0,16.0,0.0,27.0,13.0,10.0
2.823166608810425,38.0,8.0,27.0,31.0,8.0,25.0,34.0,15.0
2.8259832859039307,0.0,7.0,16.0,17.0,15.0,14.0,30.0,20.0
2.8287999629974365,5.0,5.0,5.0,5.0,20.0,5.0,27.0,30.0
2.831683397293091,17.0,7.0,10.0,32.0,25.0,3.0,44.0,31.0
2.8345000743865967,11.0,7.0,14.0,14.0,5.0,0.0,61.0,0.0
2.8373167514801025,26.0,18.0,15.0,13.0,6.0,7.0,5.0,27.0
2.8401334285736084,24.0,12.0,15.0,11.0,7.0,14.0,18.0,29.0
2.8429501056671143,22.0,7.0,70.0,14.0,6.0,27.0,7.0,27.0
2.845783233642578,27.0,28.0,125.0,7.0,23.0,25.0,15.0,11.0
2.848616600036621,24.0,23.0,105.0,0.0,21.0,5.0,0.0,0.0
2.851433277130127,20.0,13.0,57.0,3.0,18.0,20.0,31.0,42.0
2.854249954223633,15.0,15.0,10.0,5.0,18.0,12.0,26.0,25.0
2.8570666313171387,10.0,16.0,0.0,10.0,33.0,12.0,17.0,15.0
2.8598833084106445,14.0,17.0,231.0,11.0,37.0,30.0,35.0,24.0
2.8626999855041504,17.0,12.0,122.0,26.0,20.0,38.0,8.0,16.0
2.8655834197998047,15.0,19.0,13.0,40.0,295.0,22.0,45.0,17.0
2.8684000968933105,17.0,5.0,7.0,53.0,150.0,11.0,0.0,18.0
2.8712167739868164,19.0,6.0,0.0,0.0,6.0,26.0,31.0,12.0
2.8740334510803223,25.0,5.0,17.0,9.0,34.0,19.0,0.0,6.0
2.876849889755249,24.0,10.0,11.0,18.0,0.0,21.0,44.0,9.0
2.879666566848755,12.0,10.0,0.0,8.0,0.0,22.0,28.0,12.0
2.882550001144409,15.0,12.0,7.0,120.0,18.0,14.0,12.0,0.0
2.885366678237915,23.0,36.0,14.0,60.0,37.0,5.0,6.0,5.0
2.888183355331421,23.0,26.0,20.0,0.0,38.0,12.0,17.0,18.0
2.8910000324249268,0.0,16.0,14.0,16.0,24.0,29.0,9.0,17.0
2.8938167095184326,13.0,38.0,7.0,39.0,24.0,19.0,0.0,12.0
2.8966333866119385,23.0,21.0,48.0,579.0,0.0,10.0,57.0,7.0
2.8995165824890137,12.0,5.0,128.0,620.0,25.0,13.0,49.0,13.0
2.9023332595825195,0.0,9.0,78.0,43.0,29.0,15.0,24.0,18.0
2.9051499366760254,29.0,12.0,28.0,41.0,0.0,66.0,0.0,28.0
2.9079666137695312,11.0,23.0,10.0,23.0,45.0,33.0,5.0,23.0
2.910783290863037,9.0,21.0,25.0,6.0,42.0,0.0,14.0,23.0
2.913599967956543,7.0,19.0,0.0,45.0,15.0,22.0,7.0,18.0
2.9164834022521973,15.0,12.0,22.0,309.0,26.0,120.0,0.0,13.0
2.919300079345703,23.0,27.0,28.0,236.0,5.0,155.0,12.0,19.0
2.922116756439209,39.0,32.0,34.0,163.0,44.0,31.0,7.0,16.0
2.924933433532715,54.0,39.0,34.0,103.0,38.0,106.0,21.0,12.0
2.9277501106262207,37.0,40.0,34.0,43.0,36.0,38.0,23.0,20.0
2.9305665493011475,19.0,50.0,32.0,65.0,17.0,56.0,25.0,17.0
2.9334499835968018,49.0,82.0,31.0,52.0,17.0,75.0,0.0,14.0
2.9362666606903076,40.0,72.0,37.0,55.0,23.0,24.0,49.0,14.0
2.9390833377838135,32.0,62.0,44.0,22.0,22.0,5.0,33.0,13.0
2.9419000148773193,87.0,62.0,38.0,21.0,35.0,38.0,16.0,38.0
2.944716691970825,79.0,63.0,32.0,23.0,22.0,44.0,35.0,54.0
2.947533369064331,70.0,53.0,40.0,25.0,8.0,22.0,35.0,43.0
2.9504165649414062,65.0,43.0,39.0,44.0,22.0,27.0,36.0,33.0
2.953233242034912,60.0,29.0,39.0,872.0,37.0,32.0,52.0,49.0
2.956049919128418,102.0,43.0,38.0,480.0,21.0,37.0,48.0,10.0
2.958866596221924,133.0,75.0,81.0,87.0,6.0,34.0,45.0,44.0
2.9616832733154297,146.0,94.0,78.0,83.0,43.0,5.0,59.0,27.0
2.9644999504089355,22.0,78.0,34.0,77.0,81.0,20.0,781.0,30.0
2.9673333168029785,51.0,63.0,58.0,74.0,62.0,49.0,1257.0,33.0
2.9701499938964844,75.0,49.0,83.0,70.0,43.0,31.0,957.0,31.0
2.9729666709899902,64.0,56.0,24.0,11.0,71.0,24.0,50.0,30.0
2.975783348083496,75.0,578.0,7.0,102.0,51.0,19.0,31.0,29.0
2.978600025177002,77.0,529.0,25.0,56.0,48.0,21.0,26.0,29.0
2.981416702270508,78.0,62.0,34.0,50.0,45.0,24.0,32.0,29.0
2.984299898147583,66.0,35.0,24.0,50.0,20.0,26.0,38.0,38.0
2.987116575241089,68.0,15.0,14.0,51.0,28.0,18.0,36.0,45.0
2.9899332523345947,10.0,74.0,58.0,36.0,6.0,10.0,37.0,13.0
2.9927499294281006,37.0,35.0,68.0,61.0,36.0,16.0,38.0,11.0
2.9955666065216064,71.0,30.0,24.0,62.0,389.0,22.0,7.0,19.0
