,344.2099914550781,345.2099914550781,346.2099914550781,347.2099914550781,348.2099914550781,349.2099914550781,350.2099914550781,351.2099914550781
2.3017332553863525,17.0,40.0,0.0,5.0,28.0,44.0,30.0,20.0
2.303466558456421,17.0,5.0,5.0,24.0,39.0,35.0,34.0,44.0
2.3052000999450684,30.0,48.0,0.0,13.0,34.0,42.0,392.0,5.0
2.306983232498169,43.0,10.0,11.0,30.0,57.0,14.0,60.0,33.0
2.3087167739868164,47.0,46.0,25.0,29.0,49.0,7.0,59.0,5.0
2.3104500770568848,0.0,0.0,15.0,49.0,42.0,8.0,32.0,0.0
2.312183380126953,15.0,12.0,5.0,52.0,5.0,10.0,19.0,24.0
2.3139166831970215,29.0,12.0,5.0,37.0,10.0,13.0,19.0,11.0
2.31564998626709,5.0,24.0,5.0,21.0,19.0,17.0,25.0,55.0
2.317383289337158,10.0,28.0,14.0,52.0,27.0,24.0,5.0,60.0
2.3191165924072266,13.0,24.0,23.0,44.0,18.0,20.0,30.0,10.0
2.320849895477295,16.0,24.0,24.0,25.0,10.0,15.0,24.0,0.0
2.3225834369659424,5.0,24.0,25.0,21.0,5.0,12.0,12.0,41.0
2.32438325881958,11.0,10.0,20.0,23.0,37.0,32.0,0.0,9.0
2.3261165618896484,11.0,49.0,35.0,20.0,42.0,48.0,0.0,13.0
2.327850103378296,11.0,40.0,25.0,10.0,20.0,47.0,5.0,27.0
2.3295834064483643,507.0,51.0,16.0,15.0,27.0,57.0,20.0,5.0
2.3313167095184326,264.0,63.0,24.0,13.0,16.0,45.0,18.0,23.0
2.333050012588501,21.0,0.0,5.0,23.0,33.0,23.0,0.0,31.0
2.3347833156585693,20.0,55.0,66.0,23.0,33.0,25.0,35.0,41.0
2.3365166187286377,8.0,48.0,33.0,5.0,24.0,19.0,27.0,43.0
2.338249921798706,33.0,40.0,0.0,5.0,17.0,5.0,5.0,37.0
2.3399832248687744,37.0,30.0,44.0,5.0,44.0,17.0,26.0,19.0
2.341766595840454,15.0,20.0,55.0,53.0,49.0,19.0,37.0,0.0
2.3434998989105225,46.0,38.0,65.0,65.0,12.0,33.0,46.0,17.0
2.34523344039917,28.0,27.0,44.0,37.0,10.0,41.0,22.0,22.0
2.3469667434692383,55.0,13.0,22.0,8.0,22.0,55.0,43.0,31.0
2.3487000465393066,6.0,0.0,21.0,36.0,24.0,11.0,11.0,41.0
2.350433349609375,0.0,5.0,47.0,15.0,22.0,23.0,35.0,7.0
2.3521666526794434,26.0,30.0,13.0,21.0,21.0,5.0,28.0,7.0
2.3538999557495117,25.0,45.0,11.0,16.0,10.0,36.0,21.0,6.0
2.35563325881958,25.0,32.0,54.0,29.0,38.0,27.0,15.0,5.0
2.3574166297912598,7.0,35.0,50.0,30.0,28.0,12.0,17.0,35.0
2.3591666221618652,0.0,23.0,45.0,30.0,17.0,10.0,18.0,22.0
2.3608999252319336,16.0,22.0,41.0,10.0,15.0,15.0,23.0,8.0
2.362633228302002,16.0,19.0,48.0,0.0,10.0,11.0,17.0,16.0
2.3643667697906494,241.0,23.0,32.0,35.0,10.0,8.0,12.0,16.0
2.3661000728607178,139.0,27.0,25.0,23.0,10.0,5.0,31.0,17.0
2.367833375930786,37.0,10.0,31.0,11.0,7.0,2.0,47.0,17.0
2.3695666790008545,75.0,5.0,5.0,5.0,5.0,0.0,35.0,18.0
2.371299982070923,40.0,12.0,32.0,5.0,19.0,30.0,34.0,15.0
2.373033285140991,5.0,8.0,28.0,5.0,9.0,52.0,53.0,8.0
2.374833345413208,30.0,5.0,24.0,5.0,0.0,38.0,19.0,7.0
2.3765666484832764,20.0,5.0,36.0,22.0,0.0,10.0,41.0,5.0
2.3782999515533447,10.0,5.0,33.0,28.0,14.0,10.0,52.0,18.0
2.380033254623413,29.0,32.0,54.0,16.0,24.0,39.0,26.0,19.0
2.3817665576934814,15.0,32.0,6.0,5.0,26.0,28.0,21.0,20.0
2.383500099182129,18.0,24.0,0.0,21.0,21.0,17.0,11.0,10.0
2.3852334022521973,14.0,15.0,10.0,27.0,16.0,13.0,54.0,40.0
2.3869667053222656,22.0,10.0,46.0,34.0,23.0,10.0,34.0,34.0
2.388700008392334,22.0,5.0,42.0,33.0,17.0,7.0,14.0,28.0
2.3904333114624023,18.0,14.0,22.0,27.0,11.0,9.0,18.0,32.0
2.392216682434082,13.0,7.0,43.0,47.0,30.0,11.0,22.0,0.0
2.3939499855041504,21.0,0.0,43.0,30.0,15.0,10.0,26.0,9.0
2.3956832885742188,11.0,36.0,48.0,13.0,0.0,19.0,23.0,10.0
2.397416591644287,5.0,36.0,28.0,6.0,40.0,61.0,20.0,23.0
2.3991498947143555,26.0,37.0,33.0,37.0,42.0,35.0,40.0,30.0
2.4019832611083984,7.0,10.0,37.0,23.0,43.0,10.0,33.0,0.0
2.4047999382019043,26.0,24.0,18.0,29.0,7.0,5.0,25.0,22.0
2.40761661529541,0.0,32.0,64.0,10.0,51.0,36.0,40.0,24.0
2.4104833602905273,7.0,8.0,46.0,10.0,21.0,6.0,23.0,17.0
2.413300037384033,15.0,22.0,27.0,10.0,22.0,29.0,0.0,10.0
2.416116714477539,6.0,5.0,21.0,47.0,25.0,10.0,5.0,16.0
2.418933391571045,31.0,35.0,15.0,49.0,26.0,10.0,23.0,32.0
2.421750068664551,39.0,40.0,5.0,51.0,27.0,5.0,17.0,28.0
2.4245667457580566,50.0,44.0,14.0,0.0,10.0,2.0,10.0,25.0
2.427449941635132,38.0,13.0,12.0,32.0,34.0,0.0,54.0,7.0
2.4302666187286377,32.0,59.0,9.0,57.0,17.0,20.0,571.0,12.0
2.4330832958221436,19.0,21.0,7.0,32.0,49.0,14.0,438.0,17.0
2.4358999729156494,33.0,26.0,5.0,28.0,33.0,8.0,46.0,13.0
2.4387166500091553,48.0,13.0,12.0,20.0,28.0,19.0,43.0,5.0
2.441533327102661,50.0,16.0,20.0,42.0,26.0,32.0,19.0,44.0
2.4444000720977783,26.0,896.0,17.0,0.0,33.0,68.0,5.0,34.0
2.447216749191284,5.0,785.0,15.0,21.0,17.0,55.0,43.0,22.0
2.45003342628479,24.0,44.0,10.0,16.0,18.0,24.0,0.0,10.0
2.452850103378296,42.0,719.0,14.0,29.0,15.0,15.0,5.0,0.0
2.4556667804718018,26.0,10.0,18.0,7.0,21.0,22.0,9.0,34.0
2.4584832191467285,13.0,771.0,0.0,10.0,21.0,19.0,13.0,35.0
2.461366653442383,14.0,25.0,23.0,19.0,12.0,16.0,9.0,36.0
2.4641833305358887,12.0,23.0,14.0,28.0,10.0,0.0,6.0,48.0
2.4670000076293945,18.0,27.0,7.0,117.0,30.0,7.0,10.0,60.0
2.4698166847229004,17.0,25.0,0.0,68.0,30.0,20.0,5.0,33.0
2.4726333618164062,20.0,7.0,10.0,20.0,29.0,22.0,5.0,5.0
2.475450038909912,17.0,33.0,16.0,10.0,22.0,26.0,5.0,17.0
2.4783332347869873,5.0,28.0,22.0,25.0,30.0,14.0,40.0,31.0
2.481149911880493,7.0,22.0,451.0,11.0,14.0,28.0,45.0,25.0
2.483966588973999,10.0,5.0,342.0,36.0,25.0,27.0,11.0,19.0
2.486783266067505,5.0,27.0,187.0,36.0,35.0,25.0,15.0,27.0
2.4895999431610107,16.0,37.0,33.0,36.0,5.0,26.0,14.0,35.0
2.4924166202545166,27.0,24.0,438.0,28.0,314.0,27.0,13.0,28.0
2.495283365249634,33.0,19.0,291.0,11.0,164.0,682.0,36.0,22.0
2.4981000423431396,39.0,15.0,156.0,132.0,15.0,885.0,23.0,18.0
2.5009167194366455,22.0,20.0,20.0,254.0,29.0,22.0,10.0,29.0
2.5037333965301514,5.0,26.0,95.0,129.0,33.0,28.0,0.0,0.0
2.5065500736236572,20.0,23.0,11.0,5.0,18.0,25.0,25.0,36.0
2.509366750717163,25.0,19.0,14.0,17.0,6.0,28.0,50.0,10.0
2.5122499465942383,21.0,14.0,18.0,29.0,29.0,32.0,74.0,5.0
2.515066623687744,18.0,276.0,20.0,26.0,23.0,30.0,48.0,21.0
2.517899990081787,17.0,147.0,22.0,23.0,11.0,29.0,22.0,24.0
2.520716667175293,22.0,19.0,15.0,52.0,0.0,38.0,21.0,27.0
2.523533344268799,26.0,6.0,5.0,45.0,5.0,21.0,34.0,30.0
2.5263500213623047,27.0,52.0,743.0,39.0,7.0,18.0,47.0,32.0
2.529216766357422,19.0,33.0,388.0,46.0,13.0,15.0,0.0,31.0
2.5320334434509277,14.0,23.0,34.0,26.0,18.0,15.0,7.0,34.0
2.5348498821258545,9.0,12.0,1202.0,5.0,42.0,15.0,31.0,31.0
2.5376665592193604,5.0,26.0,960.0,201.0,29.0,6.0,25.0,28.0
2.540483236312866,5.0,24.0,1162.0,370.0,17.0,20.0,19.0,761.0
2.543299913406372,5.0,22.0,32.0,370.0,28.0,34.0,21.0,576.0
2.5461833477020264,15.0,0.0,1522.0,309.0,40.0,24.0,24.0,25.0
2.5490000247955322,15.0,19.0,1762.0,461.0,546.0,14.0,5.0,666.0
2.551816701889038,16.0,25.0,1369.0,53.0,283.0,38.0,11.0,26.0
2.554633378982544,5.0,34.0,976.0,42.0,21.0,32.0,27.0,15.0
2.55745005607605,25.0,20.0,1785.0,70.0,192.0,599.0,42.0,11.0
2.5602667331695557,60.0,6.0,2303.0,21.0,314.0,617.0,32.0,0.0
2.563149929046631,143.0,25.0,2792.0,1130.0,436.0,5.0,21.0,29.0
2.5659666061401367,119.0,0.0,2058.0,911.0,711.0,690.0,23.0,20.0
2.5687832832336426,94.0,15.0,590.0,5.0,361.0,55.0,50.0,10.0
2.5715999603271484,41.0,7.0,1725.0,59.0,10.0,52.0,42.0,10.0
2.5744166374206543,34.0,10.0,1858.0,1165.0,37.0,41.0,34.0,26.0
2.57723331451416,27.0,14.0,1992.0,55.0,37.0,30.0,0.0,20.0
2.5801167488098145,42.0,18.0,2920.0,1100.0,387.0,1035.0,0.0,36.0
2.5829334259033203,18.0,29.0,2260.0,1462.0,885.0,546.0,2.0,33.0
2.585750102996826,49.0,30.0,1599.0,1658.0,881.0,57.0,5.0,29.0
2.588566780090332,0.0,30.0,1113.0,21.0,518.0,52.0,5.0,14.0
2.591383218765259,33.0,30.0,4295.0,24.0,825.0,47.0,6.0,0.0
2.5941998958587646,5.0,23.0,3715.0,798.0,44.0,15.0,13.0,27.0
2.5970332622528076,57.0,5.0,2614.0,546.0,14.0,41.0,20.0,31.0
2.5998499393463135,34.0,33.0,1614.0,38.0,539.0,411.0,89.0,28.0
2.6026666164398193,10.0,24.0,3018.0,467.0,1065.0,381.0,53.0,29.0
2.605483293533325,35.0,18.0,3268.0,246.0,753.0,226.0,17.0,26.0
2.608299970626831,51.0,19.0,2043.0,25.0,606.0,70.0,5.0,40.0
2.611116647720337,12.0,56.0,753.0,19.0,939.0,364.0,17.0,54.0
2.614000082015991,53.0,60.0,1110.0,1375.0,19.0,67.0,13.0,57.0
2.616816759109497,68.0,64.0,1734.0,1029.0,458.0,1117.0,10.0,38.0
2.619633436203003,51.0,24.0,3814.0,1804.0,803.0,867.0,22.0,18.0
2.622450113296509,33.0,38.0,3320.0,849.0,631.0,10.0,34.0,32.0
2.6252665519714355,29.0,26.0,636.0,1246.0,1647.0,475.0,29.0,0.0
2.6280832290649414,60.0,13.0,3944.0,1642.0,1683.0,1021.0,24.0,269.0
2.6309666633605957,0.0,1386.0,2376.0,3287.0,4814.0,1566.0,16.0,154.0
2.6337833404541016,38.0,2467.0,7594.0,8148.0,5916.0,2491.0,888.0,38.0
2.6366000175476074,68.0,2815.0,10920.0,12356.0,12304.0,3416.0,1841.0,34.0
2.6394166946411133,12.0,8568.0,19452.0,24588.0,21536.0,8304.0,1612.0,30.0
2.642233371734619,64.0,13064.0,23328.0,49152.0,27544.0,18496.0,3088.0,0.0
2.645050048828125,38.0,11756.0,39904.0,46544.0,42464.0,13980.0,7356.0,589.0
2.6479332447052,85.0,22792.0,55328.0,65360.0,50240.0,24596.0,6845.0,451.0
2.650749921798706,50.0,19928.0,71920.0,84432.0,69632.0,32256.0,5908.0,27.0
2.653566598892212,37.0,21960.0,73440.0,88224.0,75712.0,34912.0,8908.0,1156.0
2.6563832759857178,34.0,29076.0,82288.0,111392.0,84064.0,46688.0,10380.0,605.0
2.6591999530792236,30.0,41120.0,96848.0,114736.0,94400.0,50912.0,14404.0,54.0
2.6620166301727295,5.0,43792.0,113088.0,133696.0,101808.0,46832.0,14908.0,2288.0
2.6648833751678467,14.0,51568.0,118304.0,141248.0,106768.0,61904.0,12904.0,3325.0
2.6677000522613525,23.0,50064.0,123392.0,137472.0,134528.0,60704.0,10900.0,3132.0
2.6705167293548584,24.0,48560.0,129440.0,147776.0,145472.0,60048.0,13916.0,2884.0
2.6733334064483643,32.0,51264.0,126624.0,179136.0,125008.0,64016.0,20108.0,3276.0
2.67615008354187,28.0,66688.0,123808.0,184000.0,131264.0,60208.0,25008.0,2469.0
2.678966760635376,24.0,77040.0,152192.0,186240.0,137984.0,56400.0,21920.0,2231.0
2.681849956512451,33.0,65584.0,173184.0,195136.0,144640.0,72288.0,32360.0,1993.0
2.684666633605957,16.0,74192.0,153472.0,197120.0,160256.0,69056.0,30584.0,1649.0
2.687483310699463,0.0,74896.0,172288.0,203392.0,153536.0,75248.0,24580.0,2566.0
2.6902999877929688,35.0,81120.0,174144.0,209664.0,157440.0,77520.0,19272.0,2267.0
2.6931166648864746,43.0,73072.0,162048.0,204864.0,161344.0,76080.0,23856.0,1969.0
2.6959333419799805,47.0,72896.0,165440.0,225280.0,160576.0,74656.0,20188.0,4211.0
2.6988167762756348,38.0,72704.0,176640.0,224704.0,159808.0,73616.0,26940.0,4514.0
2.7016332149505615,29.0,86960.0,187776.0,224192.0,158528.0,72576.0,28352.0,3142.0
2.7044498920440674,80.0,90160.0,192192.0,237696.0,157248.0,76416.0,29760.0,477.0
2.7072665691375732,73.0,67568.0,200384.0,251200.0,165952.0,80256.0,25500.0,4057.0
2.710083246231079,66.0,87888.0,193536.0,250944.0,172224.0,77216.0,30096.0,2905.0
2.712899923324585,64.0,77984.0,188608.0,235072.0,171840.0,74160.0,21940.0,6595.0
2.7157833576202393,40.0,75856.0,184448.0,218176.0,157952.0,89824.0,31984.0,5995.0
2.718600034713745,65.0,78512.0,178880.0,216704.0,174016.0,86384.0,24844.0,4333.0
2.721416711807251,27.0,72176.0,164544.0,196032.0,148416.0,90192.0,23272.0,8536.0
2.724233388900757,26.0,84608.0,176640.0,224832.0,165376.0,79712.0,23200.0,351.0
2.7270500659942627,25.0,64416.0,188672.0,227392.0,168384.0,88400.0,21644.0,1800.0
2.7298667430877686,26.0,64400.0,179072.0,182592.0,147008.0,71392.0,16088.0,643.0
2.7327332496643066,27.0,70512.0,159360.0,198656.0,142144.0,88960.0,20296.0,1511.0
2.7355499267578125,39.0,62096.0,166784.0,197504.0,149184.0,60960.0,19092.0,4443.0
2.7383666038513184,41.0,69696.0,147072.0,191104.0,125952.0,78592.0,20440.0,3853.0
2.741183280944824,49.0,66528.0,146752.0,184640.0,100752.0,63456.0,20196.0,1574.0
2.74399995803833,16.0,68832.0,135360.0,186048.0,125216.0,64832.0,19948.0,3245.0
2.746816635131836,18.0,64208.0,127616.0,166784.0,102704.0,70320.0,15708.0,3470.0
2.7497000694274902,58.0,57584.0,119104.0,158656.0,123632.0,56256.0,21484.0,3695.0
2.752516746520996,52.0,60208.0,120656.0,153216.0,125872.0,47568.0,24608.0,3202.0
2.755333423614502,47.0,38800.0,113376.0,139392.0,89760.0,57760.0,13120.0,4807.0
2.758150100708008,39.0,50112.0,114096.0,133056.0,102832.0,46352.0,24388.0,1668.0
2.7609667778015137,36.0,39232.0,94752.0,138048.0,100928.0,50368.0,18068.0,4581.0
2.7637832164764404,30.0,45456.0,104432.0,131776.0,88784.0,33120.0,18308.0,2179.0
2.7666666507720947,0.0,42832.0,87328.0,103328.0,73040.0,55664.0,10508.0,16.0
2.7694833278656006,23.0,41568.0,82176.0,99632.0,84384.0,38224.0,12940.0,1838.0
2.7723000049591064,49.0,22204.0,101600.0,115984.0,85760.0,45360.0,17580.0,1645.0
2.7751166820526123,48.0,29840.0,70416.0,81408.0,59568.0,39632.0,12756.0,31.0
2.777933359146118,23.0,35232.0,69248.0,83088.0,49088.0,30444.0,13940.0,234.0
2.780750036239624,12.0,34240.0,72240.0,86064.0,52432.0,32864.0,14396.0,436.0
2.783633232116699,43.0,20012.0,69104.0,65584.0,50304.0,31996.0,5483.0,555.0
2.786449909210205,15.0,19004.0,60736.0,73344.0,48192.0,28256.0,8524.0,673.0
2.789266586303711,28.0,29024.0,55664.0,60176.0,33872.0,19404.0,3283.0,353.0
2.792083263397217,30.0,21416.0,42864.0,63408.0,42976.0,22404.0,3626.0,33.0
2.7948999404907227,33.0,16636.0,37952.0,58544.0,28400.0,16388.0,3121.0,1011.0
2.7977166175842285,24.0,20236.0,44640.0,37472.0,32036.0,14868.0,2617.0,1364.0
2.8005833625793457,0.0,13848.0,37184.0,40528.0,25416.0,11060.0,3166.0,976.0
2.8034000396728516,18.0,5395.0,39136.0,30968.0,23032.0,8472.0,4284.0,1376.0
2.8062167167663574,15.0,5345.0,27548.0,23200.0,13992.0,5835.0,2741.0,994.0
2.8090333938598633,27.0,5257.0,16372.0,26764.0,16264.0,7237.0,1198.0,546.0
2.811850070953369,70.0,2846.0,22316.0,11372.0,16096.0,8908.0,1109.0,10.0
2.814666748046875,74.0,4907.0,8700.0,14676.0,11704.0,8186.0,716.0,49.0
2.81754994392395,22.0,4991.0,10296.0,15164.0,14652.0,2213.0,1005.0,684.0
2.820366621017456,22.0,2668.0,3080.0,4648.0,6736.0,4845.0,1283.0,378.0
2.823183298110962,15.0,6088.0,6267.0,10348.0,5349.0,4195.0,1537.0,72.0
2.8259999752044678,20.0,1027.0,3711.0,6455.0,8328.0,1827.0,8.0,446.0
2.8288166522979736,23.0,2941.0,5153.0,3526.0,3630.0,5734.0,103.0,40.0
2.8316333293914795,25.0,3228.0,3720.0,5125.0,4022.0,1452.0,1034.0,10.0
2.834516763687134,31.0,1567.0,3999.0,4046.0,5612.0,2233.0,830.0,10.0
2.8373334407806396,34.0,2509.0,4279.0,3773.0,3347.0,2630.0,756.0,10.0
2.8401501178741455,29.0,1735.0,2516.0,5303.0,2657.0,37.0,508.0,20.0
2.8429665565490723,28.0,562.0,4022.0,2797.0,3942.0,414.0,42.0,21.0
2.845783233642578,27.0,1366.0,1140.0,4899.0,1481.0,5.0,436.0,22.0
2.848599910736084,29.0,1264.0,4147.0,4863.0,2540.0,969.0,605.0,28.0
2.851466655731201,31.0,1350.0,1405.0,22.0,2647.0,949.0,48.0,34.0
2.854283332824707,5.0,15.0,877.0,6000.0,1603.0,1589.0,25.0,10.0
2.857100009918213,18.0,812.0,2742.0,3401.0,1325.0,1786.0,37.0,19.0
2.8599166870117188,43.0,1686.0,1271.0,2575.0,1447.0,29.0,17.0,29.0
2.8627333641052246,22.0,1232.0,2421.0,3410.0,28.0,554.0,17.0,22.0
2.8655500411987305,0.0,631.0,3266.0,1065.0,1591.0,423.0,18.0,30.0
2.8684332370758057,34.0,31.0,1368.0,1236.0,1916.0,223.0,11.0,30.0
2.8712499141693115,23.0,69.0,996.0,1048.0,1386.0,22.0,5.0,34.0
2.8740665912628174,11.0,20.0,1715.0,1527.0,915.0,48.0,36.0,29.0
2.8768832683563232,13.0,17.0,382.0,1330.0,12.0,6.0,40.0,16.0
2.879699945449829,34.0,62.0,4077.0,1134.0,44.0,28.0,44.0,63.0
2.882516622543335,55.0,286.0,3378.0,1645.0,26.0,51.0,38.0,51.0
2.8854000568389893,81.0,161.0,3579.0,1529.0,312.0,39.0,41.0,10.0
2.888216733932495,81.0,35.0,950.0,1573.0,598.0,28.0,43.0,5.0
2.891033411026001,92.0,187.0,870.0,1617.0,344.0,547.0,57.0,34.0
2.893850088119507,102.0,124.0,162.0,2056.0,90.0,1067.0,62.0,63.0
2.8966667652130127,106.0,60.0,1394.0,2494.0,67.0,1081.0,46.0,59.0
2.8994834423065186,110.0,159.0,576.0,520.0,911.0,1180.0,30.0,67.0
2.9023666381835938,143.0,698.0,397.0,761.0,1148.0,1278.0,629.0,66.0
2.9051833152770996,175.0,813.0,1296.0,2943.0,1384.0,83.0,376.0,64.0
2.9079999923706055,238.0,383.0,716.0,1316.0,1114.0,52.0,122.0,61.0
2.9108166694641113,186.0,121.0,938.0,189.0,135.0,725.0,45.0,64.0
2.913633346557617,135.0,96.0,914.0,2695.0,722.0,178.0,105.0,72.0
2.916450023651123,202.0,135.0,1314.0,106.0,417.0,115.0,103.0,80.0
2.919283390045166,197.0,173.0,1381.0,122.0,111.0,52.0,348.0,95.0
2.922100067138672,192.0,170.0,73.0,1657.0,426.0,80.0,218.0,93.0
2.9249167442321777,263.0,160.0,218.0,890.0,293.0,156.0,88.0,91.0
2.9277334213256836,302.0,161.0,1078.0,158.0,160.0,162.0,127.0,115.0
2.9305500984191895,259.0,162.0,1028.0,778.0,699.0,169.0,421.0,89.0
2.9333667755126953,224.0,145.0,1360.0,127.0,842.0,111.0,263.0,63.0
2.9362499713897705,235.0,148.0,186.0,507.0,984.0,851.0,105.0,104.0
2.9390666484832764,236.0,151.0,1521.0,807.0,124.0,878.0,263.0,146.0
2.9418833255767822,238.0,210.0,1133.0,94.0,1072.0,700.0,163.0,139.0
2.944700002670288,149.0,231.0,121.0,157.0,604.0,1099.0,63.0,133.0
2.947516679763794,200.0,192.0,206.0,175.0,137.0,124.0,1055.0,96.0
2.9503333568573,251.0,164.0,162.0,192.0,258.0,769.0,555.0,60.0
2.953216552734375,233.0,181.0,152.0,135.0,379.0,633.0,56.0,156.0
2.956033229827881,216.0,202.0,160.0,79.0,1373.0,597.0,165.0,94.0
2.9588499069213867,283.0,223.0,167.0,86.0,1205.0,561.0,107.0,32.0
2.9616665840148926,285.0,132.0,167.0,92.0,1037.0,874.0,1095.0,114.0
2.9644832611083984,191.0,169.0,152.0,260.0,113.0,64.0,1444.0,105.0
2.9672999382019043,139.0,132.0,165.0,180.0,906.0,1043.0,550.0,1342.0
2.9701833724975586,203.0,96.0,178.0,100.0,545.0,880.0,73.0,1752.0
2.9730000495910645,118.0,473.0,183.0,96.0,184.0,690.0,138.0,143.0
2.9758167266845703,266.0,315.0,156.0,124.0,143.0,47.0,151.0,1092.0
2.978633403778076,279.0,157.0,110.0,152.0,102.0,93.0,164.0,74.0
2.981450080871582,206.0,89.0,62.0,132.0,224.0,795.0,147.0,74.0
2.984266757965088,226.0,201.0,135.0,112.0,1235.0,105.0,89.0,806.0
2.987116575241089,227.0,120.0,235.0,116.0,2958.0,103.0,333.0,101.0
2.9899332523345947,197.0,166.0,1226.0,120.0,2925.0,470.0,208.0,205.0
2.9927499294281006,173.0,898.0,681.0,130.0,2234.0,278.0,83.0,175.0
2.9955666065216064,149.0,1098.0,137.0,139.0,63.0,85.0,72.0,121.0
