,486.2099914550781,487.2099914550781,488.2099914550781,489.2099914550781,490.2099914550781,491.2099914550781,492.2099914550781,493.2099914550781
5.101733207702637,15.0,43.0,19.0,17.0,48.0,35.0,5.0,5.0
5.103466510772705,5.0,18.0,14.0,36.0,29.0,18.0,11.0,0.0
5.105199813842773,32.0,23.0,22.0,43.0,20.0,19.0,17.0,0.0
5.106933116912842,26.0,21.0,14.0,42.0,0.0,30.0,20.0,18.0
5.108666896820068,18.0,14.0,6.0,40.0,23.0,5.0,24.0,22.0
5.110400199890137,47.0,7.0,15.0,41.0,6.0,30.0,17.0,17.0
5.112133502960205,0.0,5.0,0.0,43.0,0.0,12.0,10.0,12.0
5.113866806030273,57.0,0.0,20.0,27.0,26.0,13.0,31.0,5.0
5.115600109100342,42.0,30.0,7.0,12.0,10.0,14.0,23.0,5.0
5.117400169372559,64.0,34.0,21.0,27.0,8.0,0.0,34.0,17.0
5.119133472442627,5.0,13.0,5.0,16.0,6.0,14.0,12.0,30.0
5.120866775512695,5.0,38.0,20.0,5.0,3.0,17.0,19.0,25.0
5.122600078582764,40.0,12.0,27.0,15.0,0.0,10.0,26.0,28.0
5.124333381652832,5.0,58.0,34.0,0.0,7.0,15.0,0.0,40.0
5.1260666847229,49.0,41.0,18.0,5.0,4.0,20.0,17.0,46.0
5.127799987792969,18.0,7.0,10.0,11.0,0.0,21.0,26.0,44.0
5.129533290863037,21.0,0.0,39.0,8.0,15.0,22.0,37.0,13.0
5.1312665939331055,53.0,0.0,12.0,7.0,46.0,64.0,26.0,67.0
5.132999897003174,43.0,14.0,34.0,6.0,37.0,49.0,42.0,13.0
5.1347832679748535,34.0,12.0,50.0,11.0,29.0,35.0,0.0,53.0
5.136516571044922,52.0,6.0,54.0,0.0,38.0,10.0,37.0,19.0
5.13824987411499,37.0,0.0,12.0,0.0,35.0,12.0,24.0,12.0
5.139983177185059,53.0,10.0,20.0,45.0,32.0,19.0,27.0,11.0
5.141716480255127,5.0,24.0,19.0,43.0,16.0,9.0,30.0,15.0
5.143449783325195,49.0,36.0,6.0,30.0,13.0,0.0,34.0,12.0
5.145183563232422,17.0,32.0,18.0,16.0,31.0,10.0,41.0,10.0
5.14691686630249,16.0,0.0,40.0,48.0,15.0,21.0,15.0,17.0
5.148650169372559,16.0,30.0,33.0,13.0,0.0,36.0,28.0,5.0
5.150383472442627,71.0,10.0,14.0,48.0,0.0,43.0,25.0,0.0
5.152183532714844,65.0,13.0,0.0,44.0,0.0,19.0,33.0,13.0
5.153916835784912,102.0,14.0,5.0,19.0,6.0,9.0,30.0,15.0
5.1556501388549805,72.0,15.0,10.0,25.0,5.0,30.0,5.0,10.0
5.157383441925049,42.0,0.0,16.0,11.0,5.0,19.0,48.0,5.0
5.159116744995117,34.0,17.0,18.0,22.0,2.0,23.0,5.0,12.0
5.1608500480651855,21.0,15.0,20.0,0.0,0.0,18.0,35.0,15.0
5.162583351135254,26.0,18.0,10.0,0.0,10.0,5.0,27.0,19.0
5.164316654205322,22.0,0.0,30.0,0.0,20.0,23.0,15.0,0.0
5.166049957275391,14.0,0.0,50.0,0.0,23.0,20.0,0.0,3.0
5.167783260345459,10.0,14.0,58.0,10.0,26.0,20.0,21.0,7.0
5.169583320617676,0.0,15.0,13.0,232.0,12.0,20.0,5.0,11.0
5.171316623687744,13.0,16.0,5.0,129.0,20.0,11.0,16.0,15.0
5.1730499267578125,8.0,19.0,35.0,26.0,33.0,21.0,27.0,12.0
5.174783229827881,7.0,22.0,19.0,20.0,22.0,0.0,25.0,22.0
5.176516532897949,3.0,5.0,33.0,10.0,12.0,10.0,28.0,33.0
5.178249835968018,0.0,13.0,35.0,28.0,15.0,14.0,16.0,30.0
5.179983139038086,0.0,5.0,37.0,11.0,18.0,25.0,5.0,27.0
5.181716442108154,0.0,13.0,10.0,20.0,20.0,18.0,5.0,5.0
5.183450222015381,7.0,21.0,36.0,17.0,7.0,17.0,38.0,36.0
5.185233116149902,7.0,26.0,5.0,14.0,11.0,5.0,38.0,6.0
5.186966896057129,8.0,5.0,11.0,30.0,16.0,21.0,38.0,36.0
5.188700199127197,16.0,36.0,18.0,31.0,24.0,5.0,42.0,7.0
5.190433502197266,24.0,10.0,18.0,32.0,21.0,5.0,26.0,3.0
5.192166805267334,24.0,35.0,24.0,0.0,19.0,5.0,10.0,0.0
5.193900108337402,23.0,28.0,29.0,5.0,65.0,5.0,30.0,7.0
5.195650100708008,21.0,21.0,29.0,10.0,68.0,5.0,29.0,15.0
5.197366714477539,20.0,16.0,29.0,8.0,17.0,13.0,19.0,22.0
5.199100017547607,20.0,11.0,0.0,6.0,95.0,21.0,10.0,18.0
5.202633380889893,11.0,23.0,41.0,6.0,74.0,13.0,5.0,15.0
5.206099987030029,9.0,41.0,17.0,7.0,0.0,5.0,17.0,5.0
5.209566593170166,7.0,36.0,20.0,8.0,5.0,18.0,55.0,15.0
5.213033199310303,0.0,0.0,5.0,22.0,16.0,31.0,45.0,26.0
5.2164998054504395,7.0,12.0,5.0,29.0,19.0,23.0,13.0,42.0
5.220033168792725,14.0,31.0,12.0,36.0,5.0,19.0,16.0,29.0
5.223499774932861,19.0,11.0,19.0,23.0,9.0,15.0,23.0,23.0
5.226966857910156,0.0,10.0,31.0,14.0,13.0,10.0,0.0,47.0
5.23045015335083,37.0,10.0,31.0,23.0,8.0,0.0,14.0,14.0
5.233916759490967,30.0,22.0,29.0,19.0,17.0,24.0,28.0,11.0
5.237416744232178,24.0,20.0,27.0,14.0,27.0,16.0,34.0,38.0
5.2408833503723145,33.0,10.0,0.0,18.0,24.0,10.0,23.0,0.0
5.244349956512451,15.0,0.0,32.0,22.0,10.0,5.0,19.0,0.0
5.247816562652588,10.0,15.0,25.0,23.0,10.0,16.0,16.0,24.0
5.251283168792725,19.0,10.0,11.0,11.0,38.0,8.0,10.0,6.0
5.2547831535339355,8.0,18.0,17.0,0.0,29.0,0.0,13.0,19.0
5.2582502365112305,7.0,26.0,38.0,12.0,19.0,8.0,15.0,8.0
5.261716842651367,7.0,25.0,36.0,17.0,99.0,16.0,17.0,34.0
5.265183448791504,17.0,12.0,42.0,14.0,62.0,44.0,14.0,30.0
5.268650054931641,20.0,33.0,0.0,11.0,26.0,51.0,11.0,27.0
5.2721333503723145,42.0,17.0,34.0,14.0,28.0,36.0,10.0,46.0
5.275599956512451,21.0,17.0,11.0,17.0,35.0,15.0,10.0,5.0
5.279066562652588,0.0,0.0,0.0,7.0,32.0,16.0,10.0,11.0
5.282533168792725,10.0,0.0,12.0,0.0,37.0,38.0,10.0,25.0
5.286049842834473,0.0,39.0,0.0,20.0,6.0,35.0,21.0,22.0
5.289549827575684,8.0,42.0,14.0,41.0,10.0,14.0,18.0,19.0
5.29301643371582,0.0,33.0,25.0,33.0,44.0,26.0,15.0,23.0
5.296483516693115,10.0,0.0,36.0,18.0,12.0,0.0,10.0,27.0
5.299950122833252,5.0,40.0,31.0,14.0,8.0,14.0,7.0,22.0
5.303466796875,0.0,5.0,25.0,10.0,48.0,6.0,0.0,17.0
5.306933403015137,17.0,6.0,0.0,17.0,30.0,16.0,5.0,10.0
5.310400009155273,14.0,7.0,24.0,53.0,20.0,17.0,0.0,16.0
5.31386661529541,12.0,9.0,11.0,26.0,0.0,19.0,2.0,15.0
5.317333221435547,0.0,11.0,21.0,0.0,27.0,21.0,5.0,13.0
5.320866584777832,3.0,15.0,20.0,9.0,30.0,21.0,21.0,12.0
5.324333190917969,7.0,10.0,20.0,11.0,29.0,20.0,28.0,11.0
5.3277997970581055,0.0,5.0,15.0,0.0,29.0,25.0,16.0,13.0
5.3312668800354,0.0,17.0,10.0,51.0,5.0,5.0,5.0,5.0
5.334733486175537,20.0,37.0,20.0,34.0,15.0,14.0,10.0,14.0
5.338266849517822,12.0,38.0,0.0,17.0,26.0,26.0,10.0,41.0
5.341733455657959,5.0,40.0,3.0,5.0,13.0,18.0,10.0,37.0
5.345200061798096,8.0,28.0,6.0,5.0,0.0,36.0,11.0,20.0
5.348666667938232,11.0,24.0,0.0,5.0,25.0,40.0,0.0,5.0
5.352133274078369,18.0,5.0,23.0,8.0,15.0,37.0,20.0,26.0
5.355683326721191,11.0,38.0,14.0,12.0,19.0,10.0,18.0,0.0
5.359149932861328,5.0,37.0,6.0,21.0,0.0,5.0,18.0,21.0
5.362616539001465,13.0,6.0,25.0,13.0,10.0,40.0,7.0,7.0
5.366083145141602,27.0,24.0,33.0,5.0,13.0,14.0,10.0,28.0
5.3695502281188965,23.0,43.0,30.0,10.0,17.0,13.0,6.0,23.0
5.37303352355957,20.0,18.0,30.0,22.0,13.0,7.0,5.0,18.0
5.376500129699707,28.0,28.0,30.0,15.0,7.0,0.0,5.0,20.0
5.379966735839844,29.0,21.0,19.0,8.0,10.0,9.0,8.0,25.0
5.3834333419799805,36.0,5.0,8.0,32.0,13.0,18.0,12.0,30.0
5.386899948120117,10.0,7.0,23.0,23.0,6.0,18.0,0.0,17.0
5.390433311462402,33.0,30.0,21.0,15.0,0.0,19.0,10.0,5.0
5.393899917602539,37.0,36.0,0.0,29.0,15.0,6.0,13.0,11.0
5.397366523742676,39.0,42.0,73.0,14.0,93.0,14.0,17.0,12.0
5.4008331298828125,42.0,0.0,56.0,0.0,142.0,19.0,17.0,26.0
5.404300212860107,42.0,79.0,79.0,5.0,108.0,20.0,17.0,25.0
5.407833099365234,43.0,50.0,51.0,48.0,73.0,21.0,22.0,24.0
5.411300182342529,82.0,74.0,41.0,54.0,82.0,82.0,17.0,66.0
5.414766788482666,122.0,69.0,703.0,103.0,23.0,67.0,12.0,58.0
5.418233394622803,122.0,48.0,544.0,2852.0,743.0,59.0,59.0,49.0
5.421750068664551,111.0,1547.0,1178.0,3207.0,2369.0,950.0,69.0,39.0
5.4252166748046875,118.0,1312.0,1812.0,3578.0,4319.0,7425.0,2512.0,1150.0
5.428683280944824,141.0,6620.0,22660.0,25040.0,13480.0,11784.0,6305.0,1279.0
5.432149887084961,51.0,18092.0,30480.0,56976.0,30956.0,22048.0,11352.0,1408.0
5.435616493225098,58.0,36672.0,84320.0,69376.0,82224.0,43936.0,11876.0,3295.0
5.439149856567383,74.0,47520.0,131072.0,152064.0,101872.0,62720.0,30428.0,8340.0
5.4426164627075195,127.0,91696.0,183744.0,185088.0,162368.0,89856.0,35056.0,16988.0
5.4460835456848145,121.0,95408.0,225600.0,249024.0,184832.0,110064.0,53648.0,16556.0
5.449550151824951,22.0,149248.0,275072.0,294272.0,222720.0,137920.0,52272.0,22600.0
5.453016757965088,101.0,145600.0,345216.0,307200.0,266560.0,162816.0,63264.0,24228.0
5.456550121307373,98.0,147392.0,345728.0,373952.0,312896.0,178176.0,70592.0,20604.0
5.46001672744751,38.0,145856.0,354112.0,361600.0,294144.0,170560.0,65968.0,21848.0
5.4634833335876465,46.0,144384.0,340160.0,340928.0,293952.0,149824.0,70528.0,18532.0
5.466949939727783,54.0,161088.0,330368.0,381568.0,301888.0,189440.0,64784.0,16040.0
5.47041654586792,62.0,163712.0,352640.0,322112.0,286272.0,147136.0,61856.0,22180.0
5.473949909210205,32.0,130528.0,310208.0,352256.0,256064.0,152064.0,61904.0,16932.0
5.477416515350342,25.0,147520.0,289344.0,303232.0,225536.0,127600.0,67136.0,19456.0
5.4808831214904785,39.0,124368.0,286272.0,273600.0,229248.0,118832.0,46048.0,8144.0
5.484350204467773,78.0,100272.0,252032.0,294464.0,232128.0,129488.0,52864.0,10964.0
5.48781681060791,93.0,109168.0,250240.0,279488.0,205312.0,98816.0,54304.0,8964.0
5.491350173950195,67.0,116304.0,258048.0,234304.0,208256.0,121440.0,50336.0,13836.0
5.494816780090332,85.0,94272.0,200000.0,219392.0,176320.0,121392.0,47952.0,12616.0
5.498283386230469,42.0,97552.0,228352.0,259648.0,178944.0,86272.0,47008.0,10816.0
5.5017499923706055,37.0,102432.0,196864.0,211968.0,177856.0,105792.0,46080.0,16564.0
5.505216598510742,12.0,99936.0,228416.0,222016.0,163328.0,97360.0,51840.0,15020.0
5.508749961853027,60.0,97440.0,211456.0,235968.0,160000.0,109104.0,34624.0,15344.0
5.512216567993164,74.0,100288.0,207936.0,223296.0,172544.0,91072.0,42288.0,6427.0
5.515683174133301,70.0,93856.0,207936.0,210560.0,125072.0,96304.0,36400.0,13084.0
5.5191497802734375,55.0,87264.0,163200.0,186624.0,165888.0,83440.0,24624.0,10052.0
5.522616863250732,40.0,69936.0,164224.0,181760.0,120880.0,69472.0,27924.0,8940.0
5.5261335372924805,35.0,67936.0,154560.0,178304.0,117632.0,80736.0,29096.0,8171.0
5.529600143432617,38.0,49600.0,114304.0,135616.0,90384.0,53360.0,26192.0,9796.0
5.533066749572754,41.0,60416.0,130960.0,90544.0,82752.0,51280.0,16016.0,7205.0
5.536533355712891,50.0,45696.0,96016.0,105024.0,73584.0,52096.0,15948.0,6518.0
5.539999961853027,0.0,35136.0,73824.0,90128.0,56768.0,47488.0,14196.0,5051.0
5.5435333251953125,28.0,28980.0,93328.0,77264.0,57072.0,23660.0,13076.0,2633.0
5.546999931335449,48.0,19388.0,54496.0,64512.0,30596.0,28496.0,7878.0,2970.0
5.550466537475586,31.0,22844.0,40880.0,40608.0,30108.0,21068.0,4907.0,2513.0
5.553933143615723,35.0,18936.0,17520.0,37872.0,33248.0,15088.0,5349.0,2056.0
5.557466506958008,40.0,13276.0,29404.0,24732.0,18980.0,11648.0,2393.0,1108.0
5.5609331130981445,33.0,12156.0,20536.0,21068.0,14452.0,5581.0,4708.0,892.0
5.5644001960754395,104.0,4885.0,14964.0,21116.0,9340.0,6005.0,1489.0,812.0
5.567866802215576,110.0,5918.0,9920.0,11296.0,9168.0,7735.0,256.0,71.0
5.571333408355713,57.0,7485.0,4636.0,8069.0,8636.0,2947.0,2002.0,43.0
5.574850082397461,94.0,3997.0,3512.0,9668.0,3020.0,2452.0,69.0,16.0
5.578316688537598,131.0,4810.0,4047.0,5378.0,6622.0,3094.0,138.0,72.0
5.581783294677734,134.0,3741.0,2750.0,4434.0,1995.0,2270.0,1605.0,70.0
5.585249900817871,138.0,2532.0,6021.0,3494.0,3062.0,1445.0,48.0,68.0
5.588716506958008,242.0,2423.0,5201.0,3212.0,707.0,1916.0,80.0,69.0
5.592249870300293,240.0,399.0,4774.0,3062.0,2026.0,2524.0,1953.0,67.0
5.59571647644043,212.0,726.0,3452.0,4031.0,3031.0,1773.0,1222.0,106.0
