,351.2099914550781,352.2099914550781,353.2099914550781,354.2099914550781,355.2099914550781,356.2099914550781,357.2099914550781,358.2099914550781,359.2099914550781,360.2099914550781,361.2099914550781
3.902383327484131,29.0,15.0,15.0,10.0,5.0,56.0,877.0,0.0,7.0,1625.0,16.0
3.90476655960083,8.0,6.0,31.0,19.0,29.0,17.0,18.0,11.0,0.0,19.0,28.0
3.9071500301361084,0.0,17.0,33.0,22.0,15.0,15.0,29.0,720.0,19.0,10.0,39.0
3.9095332622528076,19.0,18.0,30.0,18.0,5.0,13.0,20.0,52.0,5.0,18.0,21.0
3.911916732788086,20.0,24.0,28.0,25.0,21.0,17.0,27.0,59.0,23.0,25.0,5.0
3.914299964904785,40.0,21.0,30.0,0.0,36.0,6.0,29.0,12.0,23.0,6.0,17.0
3.9166834354400635,40.0,19.0,36.0,11.0,33.0,31.0,0.0,18.0,24.0,11.0,0.0
3.919133424758911,36.0,19.0,15.0,0.0,6.0,29.0,28.0,0.0,24.0,8.0,17.0
3.9215166568756104,27.0,15.0,6.0,18.0,20.0,37.0,34.0,11.0,17.0,20.0,5.0
3.9238998889923096,27.0,27.0,12.0,57.0,36.0,19.0,40.0,23.0,11.0,33.0,2.0
3.926283359527588,24.0,30.0,10.0,58.0,14.0,26.0,15.0,24.0,16.0,27.0,0.0
3.928666591644287,12.0,5.0,6.0,12.0,22.0,14.0,0.0,13.0,55.0,27.0,20.0
3.9310500621795654,0.0,0.0,5.0,29.0,21.0,18.0,24.0,0.0,35.0,29.0,15.0
3.9334332942962646,6.0,9.0,5.0,28.0,18.0,0.0,0.0,12.0,16.0,23.0,10.0
3.935866594314575,12.0,5.0,5.0,13.0,16.0,5.0,12.0,8.0,28.0,17.0,15.0
3.9382500648498535,13.0,18.0,0.0,10.0,21.0,12.0,6.0,5.0,14.0,19.0,21.0
3.9406332969665527,14.0,17.0,11.0,8.0,34.0,9.0,0.0,17.0,0.0,17.0,14.0
3.943016767501831,6.0,16.0,20.0,15.0,47.0,5.0,13.0,23.0,31.0,16.0,7.0
3.9453999996185303,32.0,13.0,13.0,22.0,45.0,9.0,9.0,30.0,10.0,33.0,10.0
3.9477832317352295,38.0,9.0,5.0,24.0,7.0,14.0,5.0,21.0,13.0,16.0,13.0
3.950166702270508,40.0,6.0,5.0,17.0,0.0,26.0,10.0,23.0,17.0,0.0,50.0
3.9526166915893555,17.0,12.0,0.0,5.0,35.0,22.0,8.0,20.0,16.0,14.0,28.0
3.9549999237060547,0.0,25.0,5.0,23.0,5.0,9.0,4.0,18.0,20.0,15.0,7.0
3.957383394241333,42.0,26.0,7.0,5.0,11.0,22.0,0.0,22.0,24.0,16.0,13.0
3.9597666263580322,41.0,34.0,32.0,28.0,11.0,10.0,11.0,26.0,8.0,28.0,19.0
3.9621500968933105,50.0,0.0,27.0,6.0,6.0,30.0,21.0,5.0,47.0,32.0,20.0
3.9645333290100098,59.0,16.0,49.0,35.0,0.0,22.0,40.0,20.0,47.0,39.0,22.0
3.966916561126709,6.0,46.0,25.0,20.0,21.0,0.0,32.0,31.0,0.0,31.0,0.0
3.9693665504455566,7.0,15.0,0.0,12.0,37.0,11.0,23.0,20.0,0.0,7.0,0.0
3.971750020980835,20.0,50.0,39.0,5.0,35.0,17.0,11.0,22.0,0.0,25.0,6.0
3.974133253097534,34.0,13.0,31.0,13.0,22.0,24.0,0.0,25.0,0.0,17.0,3.0
3.9765167236328125,19.0,23.0,9.0,21.0,52.0,21.0,13.0,5.0,6.0,22.0,0.0
3.9788999557495117,5.0,37.0,11.0,24.0,40.0,18.0,26.0,76.0,5.0,58.0,17.0
3.98128342628479,9.0,38.0,8.0,21.0,29.0,23.0,18.0,58.0,5.0,34.0,35.0
3.9836666584014893,14.0,29.0,5.0,12.0,17.0,29.0,13.0,40.0,12.0,10.0,24.0
3.9860999584198,14.0,19.0,2.0,48.0,41.0,41.0,8.0,22.0,8.0,25.0,0.0
3.9885001182556152,15.0,10.0,0.0,44.0,12.0,54.0,0.0,5.0,5.0,15.0,7.0
3.9908666610717773,23.0,0.0,2.0,12.0,43.0,0.0,11.0,15.0,0.0,5.0,41.0
3.9932498931884766,16.0,15.0,1.0,22.0,5.0,30.0,22.0,5.0,16.0,19.0,20.0
3.995633363723755,10.0,26.0,0.0,16.0,51.0,33.0,33.0,7.0,15.0,20.0,0.0
3.998016595840454,18.0,110.0,0.0,17.0,0.0,7.0,36.0,6.0,25.0,5.0,15.0
4.0004167556762695,5.0,63.0,25.0,21.0,35.0,6.0,39.0,5.0,15.0,5.0,5.0
4.00285005569458,17.0,16.0,19.0,13.0,13.0,6.0,49.0,5.0,6.0,5.0,20.0
4.005233287811279,16.0,5.0,14.0,27.0,12.0,35.0,17.0,5.0,40.0,12.0,13.0
4.0076165199279785,15.0,17.0,31.0,28.0,6.0,80.0,0.0,10.0,44.0,8.0,10.0
4.010000228881836,15.0,11.0,0.0,30.0,0.0,40.0,5.0,10.0,64.0,5.0,7.0
4.012383460998535,15.0,5.0,15.0,30.0,4.0,0.0,9.0,10.0,17.0,5.0,3.0
4.014766693115234,15.0,35.0,31.0,40.0,9.0,17.0,14.0,21.0,45.0,13.0,0.0
4.017149925231934,12.0,27.0,30.0,10.0,0.0,7.0,102.0,22.0,73.0,21.0,0.0
4.019583225250244,10.0,10.0,0.0,0.0,36.0,22.0,51.0,23.0,41.0,14.0,0.0
4.0219831466674805,0.0,18.0,6.0,6.0,27.0,13.0,0.0,24.0,37.0,7.0,5.0
4.024350166320801,0.0,32.0,13.0,12.0,18.0,5.0,0.0,5.0,5.0,3.0,5.0
4.026750087738037,25.0,14.0,22.0,6.0,16.0,6.0,28.0,13.0,14.0,0.0,12.0
4.029116630554199,23.0,7.0,21.0,3.0,12.0,7.0,0.0,52.0,13.0,8.0,19.0
4.031499862670898,34.0,18.0,6.0,0.0,6.0,3.0,10.0,30.0,8.0,12.0,17.0
4.033883571624756,12.0,11.0,5.0,10.0,12.0,0.0,5.0,8.0,26.0,17.0,7.0
4.0363335609436035,18.0,7.0,15.0,20.0,19.0,31.0,25.0,14.0,30.0,23.0,12.0
4.038716793060303,22.0,15.0,25.0,19.0,19.0,28.0,35.0,7.0,33.0,18.0,18.0
4.041100025177002,12.0,17.0,22.0,39.0,20.0,26.0,17.0,8.0,33.0,23.0,0.0
4.043483257293701,11.0,25.0,20.0,23.0,15.0,35.0,0.0,10.0,20.0,11.0,30.0
4.0458664894104,11.0,31.0,14.0,8.0,5.0,44.0,29.0,0.0,8.0,12.0,26.0
4.048250198364258,8.0,37.0,0.0,12.0,12.0,11.0,0.0,8.0,18.0,10.0,5.0
4.050633430480957,5.0,37.0,0.0,17.0,19.0,12.0,23.0,16.0,37.0,10.0,31.0
4.053083419799805,8.0,0.0,0.0,8.0,32.0,21.0,10.0,15.0,52.0,22.0,69.0
4.055466651916504,9.0,32.0,10.0,0.0,23.0,10.0,12.0,14.0,216.0,21.0,60.0
4.057849884033203,11.0,5.0,69.0,383.0,14.0,7.0,14.0,21.0,379.0,8.0,20.0
4.060233116149902,9.0,732.0,1255.0,1185.0,2486.0,5.0,765.0,28.0,654.0,5.0,12.0
4.06261682510376,8.0,1491.0,2610.0,1287.0,3170.0,1738.0,2294.0,683.0,1919.0,34.0,18.0
4.065000057220459,9.0,1226.0,8412.0,6943.0,6931.0,4027.0,3822.0,2747.0,2122.0,146.0,0.0
4.067383289337158,11.0,8180.0,14264.0,16072.0,13888.0,11392.0,7371.0,2347.0,2324.0,1561.0,5.0
4.069816589355469,12.0,9664.0,32332.0,34496.0,17484.0,14928.0,14092.0,13928.0,4634.0,3015.0,716.0
4.072216510772705,14.0,22776.0,48512.0,54816.0,60624.0,37888.0,16296.0,16508.0,10908.0,4995.0,2310.0
4.0746002197265625,14.0,34416.0,85952.0,89248.0,90672.0,65408.0,49088.0,33840.0,15708.0,7808.0,2200.0
4.076983451843262,14.0,69968.0,133696.0,142528.0,139584.0,104224.0,72272.0,42992.0,36384.0,10208.0,4018.0
4.079366683959961,18.0,100352.0,204992.0,209984.0,206784.0,148224.0,125392.0,65760.0,32976.0,12912.0,5296.0
4.08174991607666,38.0,137472.0,304448.0,330816.0,269248.0,212928.0,158016.0,82208.0,55264.0,15616.0,5596.0
4.084133148193359,45.0,210688.0,399232.0,463296.0,360768.0,306304.0,241920.0,126976.0,69840.0,25412.0,7973.0
4.086516857147217,86.0,238080.0,547328.0,516480.0,520896.0,352256.0,239616.0,141952.0,82256.0,32640.0,18412.0
4.0889668464660645,233.0,306752.0,612864.0,620288.0,515008.0,399360.0,304384.0,174528.0,103264.0,55296.0,15044.0
4.091350078582764,135.0,386368.0,777216.0,740352.0,627968.0,461888.0,341312.0,198208.0,114784.0,56224.0,13880.0
4.093733310699463,38.0,419328.0,924672.0,834048.0,689152.0,528128.0,400192.0,241408.0,114512.0,52704.0,14664.0
4.096116542816162,41.0,488640.0,1030144.0,903424.0,778496.0,638720.0,440448.0,251008.0,124912.0,46944.0,15448.0
4.098499774932861,613.0,527104.0,943360.0,909568.0,862208.0,634624.0,513984.0,236224.0,125856.0,59440.0,12748.0
4.100883483886719,685.0,541184.0,1106432.0,992768.0,866816.0,669440.0,499136.0,256512.0,136896.0,68416.0,24464.0
4.103266716003418,82.0,589056.0,1048064.0,1050112.0,921344.0,655360.0,519040.0,248064.0,140416.0,63664.0,21724.0
4.105716705322266,60.0,568064.0,1160704.0,1095168.0,860672.0,641536.0,474432.0,239552.0,141568.0,46368.0,26396.0
4.108099937438965,84.0,546048.0,1044736.0,995840.0,843008.0,674304.0,500800.0,244096.0,139136.0,60112.0,19308.0
4.110483169555664,62.0,546560.0,1114880.0,1085952.0,882176.0,676096.0,477120.0,248640.0,119392.0,55680.0,17816.0
4.1128668785095215,1187.0,572672.0,1138176.0,1072896.0,836352.0,649728.0,500288.0,224960.0,129424.0,64464.0,29200.0
4.115250110626221,1506.0,551168.0,1104128.0,1039872.0,927232.0,626688.0,445888.0,221504.0,120960.0,57872.0,17656.0
4.11763334274292,1084.0,514752.0,996864.0,969216.0,729088.0,581888.0,459840.0,245312.0,112240.0,49136.0,15272.0
4.120016574859619,1272.0,531968.0,1050368.0,898304.0,747776.0,639744.0,469376.0,239616.0,98960.0,51104.0,19500.0
4.122466564178467,1088.0,489856.0,960256.0,895744.0,742656.0,573184.0,447680.0,198016.0,111984.0,41184.0,18552.0
4.124849796295166,1042.0,427584.0,930048.0,777984.0,739072.0,578048.0,403392.0,192000.0,92240.0,46720.0,18096.0
4.127233505249023,1044.0,451520.0,839936.0,873728.0,735488.0,560640.0,406912.0,197376.0,114560.0,41056.0,17624.0
4.129616737365723,114.0,474560.0,882176.0,848384.0,659200.0,506176.0,333184.0,181952.0,105424.0,36592.0,13904.0
4.131999969482422,704.0,429376.0,858368.0,781568.0,653312.0,491648.0,391104.0,195584.0,97872.0,29812.0,17552.0
4.134383201599121,55.0,428736.0,770560.0,789248.0,610304.0,513600.0,370752.0,191936.0,110224.0,40352.0,15092.0
4.13676643371582,868.0,401984.0,766976.0,756224.0,644096.0,480832.0,344768.0,168192.0,92208.0,36160.0,15820.0
4.139200210571289,323.0,408320.0,781056.0,747264.0,618752.0,503168.0,323392.0,177664.0,106608.0,31972.0,15748.0
4.141583442687988,1094.0,404672.0,724224.0,738304.0,593664.0,403328.0,323456.0,186304.0,87968.0,36592.0,13544.0
4.1439666748046875,143.0,403584.0,758528.0,758016.0,591104.0,413184.0,303040.0,156608.0,89504.0,36016.0,16988.0
4.146366596221924,1214.0,359232.0,754688.0,669184.0,552448.0,450688.0,298112.0,173184.0,86784.0,35456.0,18256.0
4.148733139038086,94.0,351488.0,680192.0,663040.0,542464.0,435712.0,304064.0,166720.0,81712.0,32400.0,11068.0
4.151116847991943,366.0,374208.0,739328.0,693760.0,547840.0,433728.0,310080.0,136576.0,72880.0,29344.0,17896.0
4.153500080108643,1488.0,346176.0,705536.0,630528.0,526848.0,378688.0,286976.0,161664.0,87792.0,25936.0,11292.0
4.15595006942749,77.0,333248.0,605184.0,635392.0,449792.0,380224.0,291072.0,138688.0,75920.0,30636.0,11512.0
4.1583333015441895,369.0,322496.0,656128.0,585984.0,494016.0,377600.0,274176.0,144000.0,55232.0,28736.0,13256.0
4.160716533660889,72.0,292992.0,605952.0,548864.0,471552.0,347648.0,222464.0,154752.0,64480.0,24872.0,11768.0
4.163099765777588,58.0,288960.0,560640.0,496192.0,451264.0,304128.0,231744.0,126480.0,81936.0,28892.0,10772.0
4.165483474731445,497.0,247744.0,479232.0,489344.0,361280.0,258624.0,206528.0,118096.0,63536.0,33392.0,9776.0
4.1678667068481445,290.0,246336.0,461888.0,418112.0,343040.0,267840.0,210944.0,96976.0,54736.0,18912.0,4321.0
4.170249938964844,84.0,197504.0,386048.0,379712.0,278720.0,218240.0,176000.0,85408.0,41408.0,19324.0,9272.0
4.172699928283691,54.0,199744.0,368832.0,340352.0,268352.0,174592.0,165952.0,84592.0,30656.0,21532.0,2588.0
4.175083160400391,67.0,160064.0,317632.0,269184.0,202176.0,164032.0,105600.0,69808.0,23684.0,12116.0,2265.0
4.177466869354248,80.0,147456.0,258304.0,279872.0,189120.0,133312.0,116768.0,65040.0,24112.0,13380.0,7135.0
4.179850101470947,177.0,102944.0,208960.0,210944.0,166208.0,124832.0,69600.0,43104.0,20612.0,10588.0,5143.0
4.1822333335876465,149.0,93504.0,194176.0,179648.0,122960.0,82752.0,82288.0,37808.0,22888.0,9080.0,3240.0
4.184616565704346,122.0,87840.0,147136.0,137728.0,97488.0,88384.0,57632.0,20564.0,16076.0,9524.0,321.0
4.186999797821045,99.0,64912.0,135360.0,115664.0,87616.0,58976.0,51248.0,30876.0,16856.0,8384.0,630.0
4.1894330978393555,76.0,56096.0,107520.0,84448.0,73024.0,53008.0,46240.0,17816.0,10396.0,2802.0,1162.0
4.19183349609375,27.0,43808.0,75248.0,75392.0,61088.0,39920.0,30764.0,15640.0,8464.0,3133.0,1223.0
4.194200038909912,59.0,26388.0,72480.0,62832.0,44512.0,33392.0,20520.0,10520.0,13896.0,4007.0,805.0
4.196583271026611,86.0,32928.0,70048.0,55424.0,49968.0,31944.0,16412.0,7653.0,3624.0,712.0,108.0
4.1989665031433105,31.0,25912.0,45328.0,37712.0,29760.0,31572.0,19308.0,7824.0,8844.0,3030.0,839.0
4.201350212097168,31.0,21416.0,35536.0,32784.0,27508.0,25472.0,18220.0,8600.0,3440.0,40.0,845.0
4.203733444213867,20.0,18640.0,37696.0,30100.0,28204.0,19308.0,13616.0,6884.0,3671.0,953.0,310.0
4.206183433532715,24.0,16660.0,24220.0,32136.0,25412.0,24044.0,9024.0,5605.0,2832.0,2270.0,469.0
4.208566665649414,29.0,9008.0,23780.0,18548.0,19640.0,15024.0,10896.0,8436.0,628.0,18.0,674.0
4.210949897766113,33.0,14320.0,24340.0,28480.0,18124.0,12480.0,13264.0,6355.0,2595.0,1317.0,691.0
4.2133331298828125,28.0,11816.0,18280.0,20884.0,9376.0,9852.0,8804.0,5486.0,2300.0,1285.0,750.0
4.21571683883667,24.0,5369.0,19852.0,19988.0,17744.0,9172.0,7147.0,1256.0,2006.0,1899.0,6.0
4.218100070953369,10.0,8540.0,20588.0,14668.0,15096.0,14996.0,13340.0,1389.0,1203.0,31.0,24.0
4.220483303070068,24.0,10492.0,16876.0,20364.0,15592.0,17380.0,5631.0,4178.0,2940.0,562.0,27.0
4.222916603088379,22.0,8804.0,19348.0,12136.0,13060.0,7744.0,7313.0,2475.0,3540.0,1378.0,49.0
4.225299835205078,0.0,8444.0,8848.0,19856.0,13108.0,9776.0,3957.0,3842.0,4113.0,937.0,50.0
4.2276835441589355,0.0,5439.0,11268.0,14224.0,12180.0,7781.0,6895.0,3110.0,1784.0,46.0,52.0
4.230066776275635,24.0,4244.0,12864.0,6096.0,12812.0,8920.0,4196.0,901.0,381.0,565.0,65.0
4.232450008392334,17.0,5117.0,9520.0,5913.0,9840.0,6161.0,5536.0,4215.0,1666.0,406.0,22.0
4.234833240509033,10.0,3647.0,9628.0,14700.0,9260.0,5728.0,5543.0,2372.0,1558.0,36.0,43.0
4.237216472625732,23.0,5009.0,9740.0,12924.0,8712.0,2892.0,2659.0,2162.0,1624.0,45.0,14.0
4.23966646194458,27.0,955.0,7490.0,6512.0,6097.0,4776.0,7496.0,1953.0,1690.0,48.0,13.0
4.2420501708984375,29.0,3311.0,5240.0,6800.0,6569.0,2083.0,6551.0,2730.0,1700.0,51.0,31.0
4.244433403015137,32.0,3300.0,9616.0,4682.0,6874.0,2391.0,7530.0,1578.0,54.0,46.0,19.0
4.246816635131836,5.0,2471.0,9336.0,6678.0,3817.0,2698.0,5158.0,1961.0,1560.0,107.0,41.0
4.249199867248535,21.0,1102.0,1909.0,9752.0,2347.0,3394.0,4054.0,4215.0,847.0,169.0,110.0
4.251583099365234,0.0,1489.0,11116.0,11332.0,3614.0,3058.0,2969.0,2678.0,41.0,457.0,262.0
4.253966808319092,45.0,3150.0,4420.0,8208.0,3778.0,3341.0,4528.0,1141.0,1693.0,860.0,134.0
4.256400108337402,91.0,2594.0,2983.0,8023.0,4200.0,3624.0,4820.0,713.0,1560.0,1263.0,6.0
4.258800029754639,81.0,2037.0,7452.0,6628.0,2499.0,913.0,2894.0,279.0,1275.0,1146.0,5.0
4.261183261871338,24.0,2957.0,6563.0,5237.0,2951.0,3527.0,2122.0,528.0,72.0,16.0,37.0
4.263566493988037,12.0,1541.0,2985.0,6613.0,3975.0,4009.0,3956.0,776.0,349.0,43.0,68.0
4.2659502029418945,0.0,2431.0,9580.0,4179.0,2647.0,619.0,4227.0,952.0,1621.0,36.0,50.0
4.268350124359131,19.0,3322.0,3662.0,2419.0,3418.0,3922.0,4498.0,1129.0,1257.0,38.0,23.0
4.27073335647583,18.0,1594.0,4208.0,2343.0,2988.0,1880.0,965.0,1212.0,594.0,16.0,41.0
4.273116588592529,19.0,2338.0,5857.0,2267.0,2558.0,2466.0,2149.0,701.0,17.0,22.0,32.0
4.275533199310303,20.0,383.0,4812.0,2518.0,2033.0,1404.0,250.0,206.0,579.0,28.0,25.0
4.277916431427002,14.0,1219.0,2584.0,2769.0,1925.0,3097.0,901.0,70.0,491.0,21.0,30.0
4.280283451080322,12.0,238.0,2568.0,2532.0,5389.0,3052.0,951.0,808.0,385.0,40.0,997.0
4.282683372497559,11.0,1856.0,645.0,2295.0,6024.0,3663.0,639.0,816.0,278.0,38.0,965.0
4.285083293914795,39.0,1729.0,2251.0,2928.0,2150.0,3162.0,937.0,824.0,370.0,23.0,39.0
4.287466526031494,33.0,603.0,697.0,3561.0,5592.0,2860.0,1469.0,415.0,200.0,22.0,35.0
4.289850234985352,54.0,2245.0,2608.0,1484.0,2853.0,3300.0,23.0,5.0,30.0,55.0,77.0
4.292250156402588,10.0,788.0,4520.0,3879.0,5172.0,857.0,889.0,519.0,17.0,54.0,20.0
4.294633388519287,0.0,2649.0,5263.0,4404.0,897.0,1331.0,1755.0,1340.0,5.0,53.0,28.0
4.297016620635986,22.0,707.0,1444.0,1348.0,4079.0,944.0,1518.0,1188.0,1374.0,37.0,17.0
