,259.1700134277344,260.1700134277344,261.1700134277344,262.1700134277344,263.1700134277344
2.4013166427612305,27.0,397.0,13.0,15.0,52.0
2.403066635131836,13.0,12.0,26.0,38.0,29.0
2.405883312225342,14.0,42.0,0.0,16.0,7.0
2.408733367919922,21.0,17.0,20.0,10.0,0.0
2.411566734313965,13.0,20.0,30.0,66.0,34.0
2.414400100708008,18.0,9.0,0.0,33.0,12.0
2.4172167778015137,20.0,10.0,25.0,0.0,0.0
2.4200332164764404,22.0,10.0,5.0,24.0,35.0
2.4228498935699463,0.0,20.0,21.0,0.0,43.0
2.4256999492645264,0.0,18.0,0.0,16.0,0.0
2.4285333156585693,15.0,10.0,14.0,45.0,20.0
2.431349992752075,12.0,25.0,0.0,75.0,20.0
2.434183359146118,28.0,40.0,21.0,54.0,5.0
2.437000036239624,24.0,177.0,29.0,0.0,16.0
2.43981671333313,20.0,314.0,5.0,8.0,13.0
2.44266676902771,6.0,392.0,38.0,15.0,10.0
2.445516586303711,16.0,14.0,50.0,0.0,8.0
2.448333263397217,27.0,30.0,0.0,0.0,6.0
2.4511499404907227,23.0,20.0,16.0,9.0,11.0
2.4539666175842285,20.0,37.0,21.0,17.0,15.0
2.4567832946777344,16.0,26.0,17.0,17.0,14.0
2.4596333503723145,12.0,15.0,19.0,21.0,21.0
2.4624834060668945,36.0,0.0,20.0,7.0,28.0
2.4653000831604004,26.0,8.0,21.0,23.0,28.0
2.4681167602539062,15.0,16.0,24.0,29.0,30.0
2.470933437347412,12.0,10.0,27.0,17.0,33.0
2.473750114440918,16.0,0.0,14.0,6.0,7.0
2.476599931716919,15.0,214.0,31.0,27.0,32.0
2.479449987411499,21.0,429.0,30.0,28.0,13.0
2.482266664505005,22.0,234.0,12.0,5.0,18.0
2.4850833415985107,22.0,40.0,30.0,11.0,0.0
2.4879000186920166,32.0,33.0,0.0,0.0,35.0
2.4907166957855225,5.0,23.0,31.0,0.0,61.0
2.4935667514801025,17.0,22.0,5.0,5.0,38.0
2.4964165687561035,18.0,26.0,5.0,10.0,15.0
2.4992332458496094,18.0,167.0,5.0,8.0,6.0
2.5020499229431152,22.0,87.0,14.0,7.0,26.0
2.504866600036621,27.0,7.0,27.0,6.0,0.0
2.507683277130127,5.0,0.0,27.0,0.0,45.0
2.510533332824707,23.0,171.0,22.0,15.0,30.0
2.513383388519287,20.0,342.0,18.0,38.0,5.0
2.516200065612793,13.0,1260.0,21.0,36.0,17.0
2.519016742706299,16.0,915.0,21.0,17.0,18.0
2.5218334197998047,18.0,569.0,22.0,20.0,12.0
2.5246500968933105,20.0,561.0,5.0,13.0,5.0
2.5274999141693115,0.0,791.0,0.0,0.0,17.0
2.5303499698638916,5.0,809.0,20.0,26.0,29.0
2.5331666469573975,10.0,828.0,23.0,5.0,26.0
2.5359833240509033,15.0,671.0,10.0,8.0,0.0
2.538800001144409,20.0,527.0,29.0,10.0,6.0
2.541616678237915,0.0,853.0,25.0,8.0,11.0
2.544466733932495,0.0,1192.0,21.0,5.0,13.0
2.547316551208496,11.0,1530.0,7.0,9.0,14.0
2.550133228302002,17.0,1357.0,0.0,12.0,16.0
2.552949905395508,14.0,1183.0,3.0,16.0,11.0
2.5557665824890137,10.0,1946.0,5.0,12.0,6.0
2.5585832595825195,5.0,12.0,10.0,8.0,6.0
2.5614333152770996,33.0,1723.0,15.0,4.0,5.0
2.5642833709716797,36.0,1024.0,24.0,0.0,11.0
2.5671000480651855,31.0,141.0,28.0,12.0,17.0
2.5699167251586914,44.0,616.0,31.0,9.0,41.0
2.5727334022521973,16.0,565.0,19.0,14.0,40.0
2.575550079345703,22.0,5.0,0.0,17.0,21.0
2.578399896621704,41.0,45.0,20.0,19.0,8.0
2.581249952316284,10.0,5.0,6.0,16.0,10.0
2.58406662940979,5.0,28.0,5.0,26.0,18.0
2.586883306503296,20.0,17.0,18.0,38.0,32.0
2.5896999835968018,30.0,34.0,20.0,31.0,31.0
2.5925166606903076,30.0,10.0,21.0,23.0,33.0
2.5953667163848877,7.0,21.0,15.0,16.0,41.0
2.5982167720794678,15.0,21.0,40.0,31.0,37.0
2.6010334491729736,13.0,13.0,882.0,10.0,33.0
2.6038498878479004,17.0,28.0,871.0,37.0,17.0
2.6066665649414062,20.0,39.0,841.0,45.0,28.0
2.609483242034912,0.0,30.0,11.0,19.0,10.0
2.612316608428955,6.0,6810.0,737.0,34.0,5.0
2.615133285522461,28.0,6210.0,774.0,10.0,5.0
2.617949962615967,22.0,18904.0,781.0,19.0,17.0
2.6207666397094727,16.0,45616.0,789.0,28.0,26.0
2.6235833168029785,28.0,85904.0,2130.0,216.0,30.0
2.6263999938964844,10.0,120272.0,8548.0,443.0,20.0
2.6292834281921387,28.0,212096.0,8680.0,1066.0,11.0
2.6321001052856445,20.0,300928.0,17252.0,1078.0,441.0
2.6349167823791504,29.0,422272.0,17316.0,2765.0,221.0
2.637733221054077,38.0,489344.0,17960.0,2284.0,0.0
2.64056658744812,7.0,605696.0,18604.0,2171.0,247.0
2.643383264541626,18.0,731648.0,27444.0,2059.0,546.0
2.646216630935669,44.0,780800.0,29008.0,4255.0,665.0
2.649033308029175,53.0,883200.0,38400.0,3282.0,582.0
2.6518499851226807,38.0,925440.0,37904.0,2309.0,651.0
2.6546666622161865,920.0,920576.0,39264.0,2316.0,79.0
2.6574833393096924,756.0,945920.0,35328.0,3503.0,967.0
2.6603000164031982,28.0,979712.0,44080.0,4690.0,31.0
2.6631834506988525,1111.0,1031424.0,46944.0,7383.0,62.0
2.6659998893737793,77.0,1028352.0,42288.0,6408.0,93.0
2.668816566467285,33.0,1003520.0,44832.0,5433.0,81.0
2.671633243560791,0.0,1012992.0,41824.0,6327.0,69.0
2.674449920654297,29.0,1000704.0,41488.0,6057.0,60.0
2.6772665977478027,38.0,1027072.0,41168.0,4126.0,50.0
2.68013334274292,25.0,1025536.0,40272.0,4210.0,793.0
2.682950019836426,30.0,885504.0,27188.0,4295.0,645.0
2.6857833862304688,19.0,786176.0,32516.0,3766.0,10.0
2.6886000633239746,17.0,691456.0,29008.0,3237.0,72.0
2.6914167404174805,27.0,530944.0,26448.0,2144.0,994.0
2.6942334175109863,28.0,467200.0,17992.0,3606.0,1279.0
2.6970667839050293,30.0,365120.0,9804.0,2337.0,64.0
2.699883222579956,33.0,277056.0,11972.0,1069.0,1100.0
2.702699899673462,37.0,242304.0,9308.0,1612.0,54.0
2.7055165767669678,10.0,171520.0,9404.0,21.0,7.0
2.7083332538604736,7.0,120800.0,1889.0,1693.0,37.0
2.7111499309539795,15.0,85984.0,4085.0,27.0,40.0
2.714033365249634,22.0,64896.0,582.0,19.0,10.0
2.7168500423431396,19.0,58368.0,972.0,40.0,21.0
2.7196667194366455,16.0,38256.0,1022.0,47.0,13.0
2.7224833965301514,25.0,37056.0,628.0,11.0,7.0
2.7253000736236572,26.0,21772.0,355.0,30.0,9.0
2.728116750717163,28.0,25676.0,52.0,43.0,54.0
2.7309999465942383,12.0,21876.0,694.0,16.0,47.0
2.733816623687744,22.0,24984.0,2206.0,15.0,8.0
2.73663330078125,23.0,17612.0,1809.0,31.0,5.0
2.739449977874756,25.0,14756.0,473.0,31.0,35.0
2.7422666549682617,27.0,14396.0,49.0,21.0,37.0
2.7450833320617676,12.0,12712.0,24.0,12.0,33.0
2.7479500770568848,22.0,11028.0,16.0,15.0,30.0
2.7507667541503906,21.0,6620.0,11.0,29.0,0.0
2.7535834312438965,17.0,11592.0,5.0,17.0,5.0
2.7564001083374023,13.0,10824.0,409.0,6.0,9.0
2.759216785430908,12.0,10056.0,615.0,30.0,10.0
2.762033224105835,11.0,11580.0,313.0,34.0,10.0
2.7649166584014893,10.0,7373.0,12.0,39.0,12.0
2.767733335494995,10.0,13404.0,240.0,16.0,35.0
2.770550012588501,10.0,5723.0,367.0,20.0,50.0
2.773366689682007,10.0,8380.0,11.0,29.0,41.0
2.7761833667755127,10.0,11528.0,0.0,6.0,6.0
2.7790000438690186,8.0,5487.0,11.0,0.0,9.0
2.7818665504455566,5.0,8884.0,19.0,50.0,5.0
2.7846832275390625,11.0,6103.0,231.0,100.0,22.0
2.7874999046325684,5.0,3762.0,442.0,53.0,21.0
2.7903332710266113,0.0,3392.0,319.0,6.0,20.0
2.793149948120117,17.0,4519.0,197.0,50.0,10.0
2.795966625213623,17.0,5646.0,14.0,35.0,5.0
2.7988333702087402,5.0,6489.0,15.0,28.0,0.0
2.801650047302246,25.0,4987.0,15.0,12.0,8.0
2.804466724395752,18.0,3772.0,15.0,13.0,26.0
2.807283401489258,10.0,3371.0,5.0,11.0,13.0
2.8101000785827637,28.0,7.0,19.0,16.0,0.0
2.8129167556762695,13.0,3663.0,34.0,15.0,600.0
2.8157999515533447,19.0,2553.0,60.0,15.0,801.0
2.8186166286468506,26.0,4071.0,50.0,10.0,5.0
2.8214333057403564,23.0,1493.0,40.0,5.0,15.0
2.8242499828338623,6.0,767.0,0.0,14.0,650.0
2.827066659927368,28.0,3044.0,14.0,23.0,331.0
2.829883337020874,15.0,1845.0,15.0,33.0,12.0
2.832750082015991,8.0,2885.0,5.0,32.0,38.0
2.835566759109497,0.0,1909.0,20.0,5.0,31.0
2.838383436203003,17.0,1604.0,10.0,46.0,27.0
2.841216564178467,24.0,1021.0,0.0,12.0,16.0
2.8440332412719727,28.0,1801.0,27.0,43.0,32.0
2.8468499183654785,18.0,1321.0,6.0,34.0,21.0
2.8497166633605957,9.0,1092.0,12.0,25.0,13.0
2.8525333404541016,14.0,863.0,28.0,30.0,5.0
2.8553500175476074,8.0,1575.0,36.0,20.0,14.0
2.8581666946411133,24.0,718.0,45.0,0.0,6.0
2.860983371734619,28.0,825.0,28.0,10.0,19.0
2.863800048828125,33.0,932.0,10.0,708.0,12.0
2.8666832447052,10.0,3551.0,21.0,363.0,5.0
2.869499921798706,18.0,3042.0,26.0,17.0,0.0
2.872316598892212,12.0,1037.0,26.0,19.0,3.0
2.8751332759857178,0.0,3339.0,26.0,27.0,5.0
2.8779499530792236,36.0,2016.0,31.0,27.0,8.0
2.8807666301727295,25.0,1047.0,10.0,27.0,11.0
2.8836333751678467,0.0,449.0,37.0,34.0,34.0
2.8864500522613525,10.0,2968.0,15.0,16.0,30.0
2.8892667293548584,25.0,2159.0,32.0,22.0,0.0
2.8920834064483643,18.0,1088.0,29.0,11.0,5.0
2.89490008354187,5.0,17.0,27.0,31.0,0.0
2.897716760635376,10.0,2608.0,28.0,15.0,26.0
2.900599956512451,14.0,1281.0,21.0,0.0,577.0
2.903416633605957,19.0,3107.0,493.0,10.0,452.0
2.906233310699463,21.0,2836.0,1414.0,19.0,1042.0
2.9090499877929688,5.0,11172.0,5743.0,1461.0,5106.0
2.9118666648864746,30.0,15240.0,11864.0,3112.0,6185.0
2.9146833419799805,17.0,30628.0,17428.0,6519.0,9924.0
2.9175500869750977,0.0,57520.0,57328.0,11548.0,26108.0
2.9203667640686035,29.0,89376.0,82464.0,18516.0,46800.0
2.9231834411621094,28.0,158848.0,146048.0,27352.0,69440.0
2.9260001182556152,13.0,222784.0,224064.0,60976.0,105344.0
2.928816556930542,40.0,366336.0,348160.0,68256.0,140352.0
2.931633234024048,20.0,422080.0,473984.0,107552.0,173696.0
2.934516668319702,0.0,588288.0,530688.0,137344.0,244992.0
2.937333345413208,10.0,689664.0,634368.0,153728.0,260224.0
2.940150022506714,44.0,789760.0,660480.0,158720.0,292544.0
2.9429666996002197,39.0,872704.0,766464.0,175168.0,328704.0
2.9457833766937256,25.0,994048.0,870400.0,197376.0,357440.0
2.9486000537872314,35.0,1035008.0,895488.0,222528.0,399872.0
2.9514665603637695,29.0,1018880.0,958464.0,214272.0,406720.0
2.9542832374572754,34.0,1061632.0,901888.0,235840.0,404608.0
2.9570999145507812,39.0,1104640.0,1034496.0,231360.0,402560.0
2.959916591644287,20.0,1091584.0,999168.0,239424.0,411008.0
2.962733268737793,10.0,1094656.0,974080.0,235328.0,412416.0
2.965549945831299,0.0,1076224.0,961280.0,238720.0,379840.0
2.968433380126953,87.0,944128.0,820480.0,192576.0,355008.0
2.971250057220459,54.0,898816.0,817152.0,195776.0,309184.0
2.974066734313965,21.0,734976.0,689920.0,145024.0,255424.0
2.9768834114074707,15.0,677888.0,567040.0,140608.0,229568.0
2.9797000885009766,41.0,573184.0,495936.0,118512.0,225408.0
2.9825167655944824,33.0,483456.0,442624.0,91696.0,161216.0
2.9853999614715576,25.0,355072.0,301888.0,76704.0,116832.0
2.9882166385650635,5.0,241024.0,213184.0,45424.0,84496.0
2.9910333156585693,14.0,200384.0,150272.0,48032.0,54176.0
2.993849992752075,28.0,155840.0,119216.0,22336.0,54720.0
2.996666669845581,41.0,112032.0,110320.0,12224.0,34832.0
2.999483346939087,34.0,79280.0,65760.0,23720.0,32180.0
3.0012166500091553,39.0,66800.0,56400.0,11964.0,32344.0
3.002366781234741,20.0,57504.0,55568.0,9832.0,20872.0
3.0034499168395996,38.0,49184.0,31032.0,11040.0,16656.0
3.004533290863037,23.0,41200.0,40448.0,8860.0,32380.0
3.0056166648864746,24.0,41552.0,27088.0,5401.0,12936.0
3.006700038909912,26.0,31568.0,31576.0,9420.0,19952.0
3.0077834129333496,13.0,25524.0,22056.0,9560.0,16224.0
3.008866548538208,30.0,34496.0,34736.0,8094.0,13388.0
3.0099499225616455,47.0,36672.0,34768.0,5655.0,10704.0
3.011033296585083,64.0,30216.0,29812.0,5030.0,15732.0
3.0121166706085205,0.0,29792.0,30504.0,7878.0,10900.0
3.013200044631958,9.0,28068.0,23656.0,4652.0,14800.0
3.0142834186553955,17.0,21428.0,27312.0,1129.0,4572.0
3.015366554260254,15.0,26884.0,25400.0,5402.0,7901.0
3.0164499282836914,47.0,23572.0,23640.0,6110.0,7169.0
3.017533302307129,79.0,20256.0,15916.0,3079.0,4303.0
3.0186500549316406,97.0,23464.0,21068.0,3815.0,6611.0
3.0197665691375732,115.0,20012.0,15912.0,4259.0,7659.0
3.0208499431610107,13.0,23156.0,14576.0,2612.0,8824.0
3.0219333171844482,56.0,18268.0,15996.0,5077.0,4418.0
3.0230166912078857,25.0,18700.0,12708.0,2675.0,5630.0
3.0241000652313232,38.0,14000.0,17188.0,2865.0,5856.0
3.0251834392547607,34.0,23312.0,12360.0,5545.0,5878.0
3.026266574859619,33.0,27016.0,17740.0,3984.0,6079.0
3.0273499488830566,25.0,19340.0,18852.0,2143.0,6661.0
3.028433322906494,17.0,21796.0,16072.0,3611.0,6259.0
3.0295166969299316,32.0,16788.0,16804.0,2710.0,5857.0
3.030600070953369,26.0,14032.0,15212.0,6344.0,8135.0
3.0316834449768066,52.0,18332.0,8620.0,5672.0,9220.0
3.032766580581665,41.0,14240.0,12376.0,2384.0,4073.0
3.0338499546051025,30.0,15296.0,13340.0,2408.0,2905.0
3.03493332862854,10.0,16240.0,8540.0,3727.0,2616.0
3.036083221435547,33.0,10472.0,10132.0,3665.0,2614.0
3.0371665954589844,38.0,12656.0,7365.0,3619.0,2125.0
3.038249969482422,15.0,10908.0,11872.0,4001.0,1637.0
3.0393333435058594,12.0,11876.0,11084.0,4034.0,2399.0
3.040416717529297,5.0,12848.0,9260.0,4068.0,1745.0
3.0415000915527344,27.0,7313.0,7431.0,1252.0,4984.0
3.0425832271575928,30.0,12064.0,8664.0,3111.0,4499.0
3.0436666011810303,42.0,12304.0,8852.0,2054.0,4692.0
3.0447499752044678,45.0,14104.0,9040.0,1634.0,4886.0
3.0458333492279053,48.0,8540.0,4730.0,2763.0,2072.0
3.0469167232513428,14.0,7684.0,10088.0,480.0,598.0
3.0480000972747803,27.0,11752.0,1825.0,1735.0,3355.0
3.0490832328796387,41.0,10304.0,5515.0,1931.0,2420.0
3.050166606903076,13.0,9224.0,5456.0,1738.0,1925.0
3.0512499809265137,36.0,8141.0,7709.0,31.0,539.0
3.0523500442504883,32.0,6491.0,6485.0,2799.0,3152.0
3.053450107574463,16.0,10516.0,7181.0,1675.0,2460.0
3.0545332431793213,17.0,9456.0,7876.0,1143.0,1769.0
3.055616617202759,14.0,7735.0,2975.0,1046.0,439.0
3.0566999912261963,10.0,11172.0,5061.0,778.0,1028.0
3.057783365249634,7.0,4473.0,3399.0,119.0,1170.0
3.0588667392730713,13.0,6581.0,5858.0,725.0,1312.0
3.059950113296509,13.0,5981.0,5904.0,1005.0,2109.0
3.061033248901367,5.0,8624.0,3537.0,1285.0,2473.0
3.0621166229248047,11.0,8272.0,4638.0,1648.0,2836.0
3.063199996948242,21.0,5994.0,5738.0,310.0,528.0
3.0642833709716797,15.0,4010.0,1218.0,39.0,2960.0
3.065366744995117,9.0,6291.0,6145.0,13.0,433.0
3.0664501190185547,5.0,6871.0,8316.0,593.0,1429.0
3.067533254623413,0.0,7041.0,2162.0,564.0,712.0
3.0686166286468506,5.0,1715.0,3482.0,536.0,1855.0
3.0697667598724365,3.0,5122.0,993.0,289.0,1283.0
3.070849895477295,0.0,8912.0,3086.0,43.0,711.0
3.0719332695007324,21.0,5649.0,3511.0,31.0,1365.0
3.07301664352417,13.0,3706.0,3935.0,1382.0,982.0
3.0741000175476074,5.0,5278.0,3836.0,1148.0,564.0
3.075183391571045,0.0,617.0,3628.0,686.0,10.0
3.0762667655944824,10.0,4752.0,3301.0,816.0,1557.0
3.077349901199341,0.0,3796.0,1085.0,1108.0,1725.0
3.0784332752227783,18.0,3816.0,2022.0,1185.0,1941.0
3.079516649246216,18.0,4738.0,2959.0,1262.0,1450.0
3.0806000232696533,10.0,2008.0,3151.0,1802.0,1355.0
3.081683397293091,41.0,4057.0,3342.0,415.0,1260.0
3.0827667713165283,48.0,1707.0,2741.0,17.0,1249.0
3.0838499069213867,57.0,2980.0,2139.0,27.0,1239.0
3.084933280944824,0.0,1997.0,2085.0,9.0,531.0
3.0860166549682617,5.0,3318.0,2158.0,286.0,904.0
3.0871500968933105,30.0,4169.0,2053.0,158.0,967.0
3.088233232498169,23.0,1326.0,2069.0,31.0,146.0
3.0893166065216064,32.0,1880.0,1665.0,1006.0,469.0
3.090399980545044,40.0,1376.0,1261.0,875.0,122.0
3.0914833545684814,60.0,1687.0,1655.0,744.0,65.0
3.092566728591919,0.0,1997.0,2048.0,1043.0,9.0
3.0936501026153564,0.0,6321.0,3183.0,1180.0,220.0
3.094733238220215,37.0,6077.0,5753.0,23.0,200.0
3.0958166122436523,21.0,3254.0,7078.0,778.0,180.0
3.09689998626709,37.0,655.0,955.0,529.0,93.0
3.0979833602905273,42.0,3629.0,1816.0,270.0,5.0
3.099066734313965,48.0,3625.0,790.0,10.0,1802.0
3.1001501083374023,21.0,3852.0,2292.0,18.0,1800.0
3.1012332439422607,0.0,2012.0,2402.0,26.0,1935.0
3.1023166179656982,24.0,3749.0,1149.0,15.0,39.0
3.103466749191284,16.0,2290.0,2007.0,5.0,244.0
3.1045498847961426,15.0,1493.0,2601.0,23.0,295.0
3.10563325881958,18.0,4176.0,2286.0,41.0,15.0
3.1067166328430176,21.0,4556.0,3560.0,440.0,95.0
3.107800006866455,17.0,2225.0,20.0,243.0,174.0
3.1088833808898926,12.0,643.0,3461.0,45.0,252.0
3.10996675491333,23.0,2419.0,4265.0,246.0,149.0
3.1110498905181885,24.0,1465.0,628.0,828.0,46.0
3.112133264541626,14.0,2713.0,3142.0,436.0,10.0
3.1132166385650635,27.0,2012.0,1934.0,43.0,1254.0
3.114300012588501,17.0,2669.0,1042.0,489.0,1961.0
3.1153833866119385,7.0,1855.0,2164.0,493.0,2663.0
3.116466760635376,4.0,22.0,1737.0,823.0,9.0
3.1175498962402344,0.0,768.0,1310.0,622.0,1603.0
3.118633270263672,19.0,5507.0,2263.0,5.0,408.0
3.1197166442871094,10.0,6286.0,899.0,8.0,200.0
3.120833396911621,0.0,2356.0,606.0,4.0,678.0
3.1219167709350586,11.0,2658.0,1526.0,0.0,561.0
3.122999906539917,21.0,2331.0,1187.0,5.0,443.0
3.1240832805633545,16.0,3969.0,847.0,39.0,231.0
3.125166654586792,18.0,3797.0,2935.0,24.0,19.0
3.1262500286102295,20.0,3625.0,2259.0,10.0,6.0
3.127333402633667,21.0,2146.0,1584.0,5.0,107.0
3.1284167766571045,31.0,4375.0,2170.0,0.0,29.0
3.129499912261963,7.0,2049.0,2757.0,6.0,11.0
3.1305832862854004,19.0,604.0,475.0,11.0,729.0
3.131666660308838,17.0,4089.0,1049.0,12.0,385.0
3.1327500343322754,16.0,2822.0,1671.0,12.0,41.0
3.133833408355713,0.0,2121.0,1859.0,11.0,1725.0
3.1349167823791504,26.0,1053.0,2038.0,661.0,1796.0
3.135999917984009,13.0,3110.0,1600.0,1408.0,754.0
3.1371500492095947,5.0,2288.0,1085.0,1129.0,782.0
3.1382334232330322,10.0,1466.0,1529.0,34.0,408.0
3.1393165588378906,14.0,1819.0,1364.0,422.0,34.0
3.140399932861328,31.0,2172.0,8.0,17.0,13.0
3.1414833068847656,25.0,1319.0,1719.0,1260.0,45.0
3.142566680908203,19.0,465.0,876.0,1238.0,78.0
3.1436500549316406,5.0,2709.0,1488.0,23.0,209.0
3.144733428955078,0.0,1035.0,78.0,969.0,415.0
3.1458165645599365,0.0,795.0,770.0,766.0,223.0
3.146899938583374,17.0,2143.0,335.0,39.0,31.0
3.1479833126068115,24.0,2000.0,831.0,23.0,383.0
3.149066686630249,23.0,2206.0,2420.0,63.0,408.0
3.1501500606536865,16.0,1110.0,2215.0,99.0,433.0
3.151233434677124,8.0,1838.0,868.0,52.0,15.0
3.1523165702819824,14.0,2566.0,361.0,5.0,22.0
3.15339994430542,7.0,899.0,1834.0,72.0,12.0
3.154550075531006,16.0,2040.0,318.0,23.0,13.0
3.1556334495544434,5.0,1187.0,16.0,11.0,7.0
3.1567165851593018,0.0,6.0,7.0,20.0,0.0
3.1577999591827393,20.0,41.0,0.0,29.0,22.0
3.1588833332061768,19.0,22.0,15.0,14.0,21.0
3.1599667072296143,17.0,356.0,31.0,0.0,20.0
3.1610500812530518,6.0,190.0,38.0,37.0,22.0
3.16213321685791,7.0,23.0,45.0,36.0,12.0
3.1632165908813477,11.0,715.0,13.0,35.0,24.0
3.164299964904785,14.0,875.0,19.0,27.0,36.0
3.1653833389282227,0.0,346.0,25.0,18.0,34.0
3.16646671295166,5.0,176.0,17.0,10.0,0.0
3.1675500869750977,9.0,5.0,10.0,36.0,11.0
3.168633222579956,14.0,5.0,11.0,44.0,21.0
3.1697165966033936,19.0,5.0,16.0,5.0,30.0
3.1708500385284424,0.0,14.0,20.0,8.0,11.0
3.171950101852417,16.0,28.0,38.0,28.0,16.0
3.1730332374572754,16.0,42.0,33.0,37.0,20.0
3.174116611480713,5.0,208.0,0.0,35.0,0.0
3.1751999855041504,15.0,110.0,14.0,15.0,10.0
3.176283359527588,24.0,12.0,26.0,27.0,8.0
3.1773667335510254,18.0,13.0,15.0,32.0,5.0
3.178450107574463,13.0,23.0,5.0,38.0,3.0
3.1795332431793213,21.0,57.0,29.0,16.0,0.0
3.180616617202759,7.0,91.0,23.0,19.0,17.0
3.1816999912261963,52.0,74.0,18.0,0.0,35.0
3.182783365249634,30.0,57.0,17.0,13.0,45.0
3.1838667392730713,8.0,5.0,17.0,26.0,23.0
3.184950113296509,18.0,3.0,18.0,6.0,21.0
3.186033248901367,11.0,0.0,19.0,17.0,46.0
3.1871166229248047,28.0,10.0,12.0,9.0,16.0
3.1882333755493164,33.0,15.0,5.0,0.0,11.0
3.189316749572754,5.0,20.0,29.0,17.0,5.0
3.1903998851776123,0.0,67.0,23.0,17.0,16.0
3.19148325920105,18.0,55.0,18.0,16.0,24.0
3.1925666332244873,19.0,42.0,5.0,29.0,29.0
3.193650007247925,18.0,473.0,19.0,23.0,5.0
3.1947333812713623,16.0,385.0,17.0,18.0,5.0
3.1958167552948,23.0,35.0,0.0,46.0,8.0
3.196899890899658,35.0,23.0,28.0,40.0,11.0
3.1979832649230957,44.0,22.0,19.0,34.0,34.0
3.199066638946533,44.0,35.0,12.0,13.0,35.0
