,319.2099914550781,320.2099914550781,321.2099914550781,322.2099914550781,323.2099914550781,324.2099914550781,325.2099914550781
4.501800060272217,1173.0,252.0,149.0,1008.0,203.0,105.0,110.0
4.50439977645874,259.0,201.0,335.0,240.0,113.0,109.0,168.0
4.50748348236084,181.0,247.0,140.0,96.0,133.0,557.0,123.0
4.51051664352417,1109.0,113.0,71.0,103.0,159.0,103.0,81.0
4.5135498046875,1389.0,130.0,106.0,155.0,114.0,160.0,119.0
4.516583442687988,234.0,67.0,142.0,163.0,141.0,190.0,96.0
4.519616603851318,204.0,135.0,125.0,127.0,86.0,173.0,73.0
4.522716522216797,194.0,204.0,108.0,168.0,68.0,115.0,59.0
4.525750160217285,118.0,311.0,123.0,57.0,79.0,59.0,71.0
4.528783321380615,144.0,182.0,165.0,49.0,88.0,105.0,84.0
4.531816482543945,171.0,52.0,49.0,83.0,93.0,163.0,118.0
4.534850120544434,173.0,176.0,183.0,80.0,81.0,129.0,107.0
4.537883281707764,676.0,141.0,98.0,77.0,54.0,95.0,97.0
4.540983200073242,1442.0,50.0,79.0,95.0,85.0,123.0,106.0
4.5440168380737305,1263.0,175.0,80.0,113.0,83.0,37.0,83.0
4.5470499992370605,970.0,123.0,84.0,125.0,82.0,92.0,107.0
4.550083160400391,78.0,130.0,84.0,136.0,94.0,152.0,42.0
4.553116798400879,107.0,137.0,84.0,154.0,93.0,178.0,150.0
4.556149959564209,139.0,147.0,63.0,129.0,93.0,63.0,123.0
4.559216499328613,102.0,114.0,85.0,105.0,111.0,123.0,58.0
4.562250137329102,66.0,82.0,102.0,99.0,31.0,154.0,92.0
4.565283298492432,86.0,136.0,134.0,119.0,79.0,157.0,54.0
4.568316459655762,604.0,116.0,167.0,79.0,87.0,70.0,59.0
4.57135009765625,610.0,97.0,121.0,83.0,58.0,116.0,63.0
4.574416637420654,616.0,132.0,76.0,98.0,78.0,76.0,57.0
4.577449798583984,91.0,58.0,161.0,82.0,55.0,49.0,52.0
4.580483436584473,80.0,801.0,95.0,67.0,76.0,23.0,57.0
4.583516597747803,47.0,829.0,74.0,109.0,48.0,53.0,42.0
4.586550235748291,59.0,857.0,53.0,110.0,59.0,41.0,55.0
4.589583396911621,71.0,189.0,73.0,72.0,70.0,29.0,44.0
4.592649936676025,76.0,87.0,66.0,83.0,52.0,91.0,58.0
4.5956830978393555,97.0,515.0,59.0,95.0,76.0,102.0,73.0
4.598716735839844,89.0,101.0,43.0,42.0,86.0,51.0,102.0
4.601749897003174,81.0,58.0,27.0,102.0,74.0,45.0,88.0
4.604783535003662,104.0,15.0,12.0,37.0,37.0,20.0,50.0
4.607850074768066,92.0,567.0,5.0,34.0,34.0,31.0,56.0
4.6108832359313965,81.0,334.0,301.0,14.0,21.0,31.0,32.0
4.613916873931885,73.0,101.0,199.0,31.0,32.0,32.0,51.0
4.616950035095215,106.0,72.0,97.0,49.0,31.0,34.0,70.0
4.619983196258545,68.0,43.0,31.0,46.0,30.0,26.0,22.0
4.623016834259033,31.0,26.0,37.0,43.0,33.0,19.0,65.0
4.6260833740234375,43.0,233.0,15.0,54.0,32.0,13.0,21.0
4.629116535186768,55.0,144.0,20.0,66.0,47.0,44.0,65.0
4.632150173187256,80.0,55.0,25.0,91.0,48.0,76.0,40.0
4.635183334350586,5.0,64.0,39.0,321.0,49.0,81.0,64.0
4.638216495513916,45.0,304.0,1770.0,1105.0,1323.0,70.0,75.0
4.6412835121154785,25.0,544.0,3265.0,1666.0,1649.0,787.0,62.0
4.644316673278809,29.0,734.0,5837.0,6989.0,6421.0,1687.0,49.0
4.647349834442139,64.0,3334.0,21808.0,25760.0,4964.0,4023.0,1836.0
4.650383472442627,48.0,9964.0,29392.0,44496.0,27468.0,11096.0,5207.0
4.653416633605957,32.0,29584.0,68528.0,79152.0,61712.0,27316.0,17740.0
4.656449794769287,688.0,48944.0,125344.0,164096.0,99504.0,51792.0,17028.0
4.65951681137085,855.0,88880.0,229568.0,263360.0,167616.0,100240.0,24824.0
4.66254997253418,28.0,156032.0,349824.0,353600.0,252928.0,157312.0,56640.0
4.66558313369751,106.0,242496.0,520832.0,548352.0,326144.0,217664.0,60496.0
4.668616771697998,1780.0,280448.0,671232.0,694272.0,454016.0,254528.0,72880.0
4.671649932861328,2282.0,372608.0,843520.0,836096.0,555776.0,270464.0,81952.0
4.674716472625732,453.0,430976.0,1099008.0,1057792.0,624640.0,372096.0,108848.0
4.677750110626221,46.0,477632.0,1167872.0,1062656.0,732672.0,387072.0,118032.0
4.680783271789551,518.0,554752.0,1288704.0,1218304.0,744704.0,465856.0,129328.0
4.683816432952881,56.0,539904.0,1345792.0,1295104.0,885760.0,529408.0,135104.0
4.686850070953369,77.0,609024.0,1394688.0,1254144.0,824064.0,499712.0,140288.0
4.689883232116699,99.0,565248.0,1388544.0,1243136.0,886528.0,505280.0,132992.0
4.6929497718811035,126.0,653824.0,1382400.0,1321216.0,826112.0,459840.0,125712.0
4.695983409881592,121.0,625408.0,1407488.0,1335040.0,897024.0,519232.0,137088.0
4.699016571044922,85.0,523520.0,1395200.0,1296128.0,886528.0,528384.0,115888.0
4.70205020904541,1340.0,597248.0,1383168.0,1257216.0,810240.0,484416.0,120304.0
4.70508337020874,1178.0,545280.0,1358848.0,1262336.0,825088.0,504320.0,135232.0
4.7081499099731445,159.0,560896.0,1219584.0,1242880.0,818432.0,462720.0,123024.0
4.711183547973633,78.0,523072.0,1292288.0,1164032.0,817408.0,454144.0,122096.0
4.714216709136963,148.0,483136.0,1259264.0,1146368.0,756736.0,414336.0,121168.0
4.717249870300293,142.0,485696.0,1176064.0,1048320.0,668160.0,407936.0,110416.0
4.720283508300781,136.0,460608.0,1159680.0,1079296.0,703232.0,407872.0,111136.0
4.723316669464111,75.0,485952.0,1106688.0,1053184.0,611584.0,391296.0,103744.0
4.726383209228516,392.0,450176.0,1097216.0,1050112.0,625920.0,383168.0,104432.0
4.729416847229004,708.0,444672.0,997888.0,1089280.0,669952.0,337408.0,79424.0
4.732450008392334,402.0,458880.0,1020928.0,928768.0,604160.0,308992.0,91584.0
4.735483169555664,95.0,371648.0,929792.0,851968.0,556288.0,302784.0,80704.0
4.738516807556152,747.0,349184.0,876032.0,832768.0,549888.0,348224.0,94064.0
4.741583347320557,145.0,358976.0,798208.0,712704.0,478528.0,272960.0,71552.0
4.744616508483887,247.0,307200.0,848384.0,716544.0,497856.0,267200.0,70480.0
4.747650146484375,335.0,295168.0,734464.0,747264.0,483456.0,268032.0,77440.0
4.750683307647705,423.0,296256.0,691712.0,612352.0,421184.0,254464.0,64944.0
4.753716468811035,585.0,303296.0,747776.0,648704.0,469824.0,234752.0,65664.0
4.756750106811523,748.0,297472.0,646400.0,643840.0,380544.0,235200.0,63744.0
4.759816646575928,387.0,250816.0,656896.0,622592.0,408960.0,225600.0,60240.0
4.762849807739258,26.0,264384.0,630528.0,625152.0,373312.0,228672.0,59760.0
4.765883445739746,527.0,251648.0,666624.0,641024.0,401792.0,208768.0,52960.0
4.768916606903076,305.0,238016.0,651776.0,571904.0,385856.0,230912.0,68336.0
4.771949768066406,83.0,238592.0,665088.0,588288.0,374464.0,228928.0,69440.0
4.775016784667969,124.0,262144.0,594432.0,582144.0,379392.0,245760.0,64048.0
4.778049945831299,91.0,264128.0,677120.0,580096.0,371904.0,227712.0,55056.0
4.781083106994629,57.0,258496.0,643328.0,597504.0,368256.0,213504.0,58608.0
4.784116744995117,33.0,263296.0,648448.0,615168.0,364608.0,186432.0,70048.0
4.787149906158447,335.0,268096.0,592128.0,520448.0,355904.0,220608.0,64960.0
4.7901835441589355,211.0,242176.0,539392.0,496320.0,339328.0,180288.0,59168.0
4.79325008392334,87.0,212608.0,484736.0,474880.0,308096.0,179584.0,46032.0
4.79628324508667,561.0,239680.0,511424.0,450752.0,279296.0,175168.0,51648.0
4.799316883087158,438.0,203648.0,461376.0,400064.0,294528.0,153472.0,41280.0
4.801700115203857,315.0,179392.0,417728.0,409856.0,250880.0,153216.0,43472.0
4.803199768066406,325.0,164608.0,397632.0,352256.0,220992.0,149504.0,38960.0
4.8047332763671875,63.0,165824.0,375360.0,376128.0,234880.0,142592.0,32408.0
4.8062334060668945,40.0,146304.0,365376.0,288384.0,181312.0,101296.0,33056.0
4.807816505432129,18.0,143552.0,276224.0,287552.0,199424.0,116112.0,31460.0
4.809333324432373,24.0,124080.0,291456.0,300160.0,180992.0,103792.0,23628.0
4.810850143432617,31.0,127024.0,288832.0,239232.0,149632.0,78576.0,20428.0
4.812366485595703,35.0,112640.0,248960.0,249472.0,124992.0,68576.0,19716.0
4.813883304595947,113.0,104528.0,252736.0,218688.0,145088.0,77920.0,18348.0
4.815400123596191,87.0,105168.0,233472.0,230016.0,118800.0,65808.0,18856.0
4.816916465759277,62.0,80864.0,198272.0,182464.0,104736.0,68816.0,19364.0
4.8184332847595215,69.0,71840.0,189248.0,162752.0,95184.0,67424.0,12820.0
4.819950103759766,69.0,75616.0,153088.0,164416.0,89184.0,47184.0,21164.0
4.821466445922852,70.0,69360.0,127632.0,120272.0,67056.0,37024.0,12896.0
4.822983264923096,27.0,48704.0,116560.0,105712.0,82320.0,34544.0,14932.0
4.824566841125488,49.0,47168.0,103072.0,119632.0,56256.0,44944.0,8652.0
4.826083183288574,21.0,44800.0,113888.0,87248.0,58720.0,34256.0,7448.0
4.827600002288818,33.0,49216.0,82560.0,78784.0,49056.0,41136.0,8368.0
4.8291168212890625,45.0,38576.0,85536.0,67936.0,33984.0,17788.0,5399.0
4.830633163452148,75.0,38480.0,77456.0,58048.0,57856.0,24460.0,6010.0
4.832149982452393,54.0,24616.0,69648.0,68704.0,34160.0,26656.0,5391.0
4.833666801452637,33.0,27164.0,50032.0,61792.0,37328.0,15468.0,3643.0
4.835183143615723,33.0,22880.0,51200.0,51616.0,35648.0,25136.0,4521.0
4.836699962615967,41.0,22912.0,57984.0,42240.0,41936.0,17780.0,6196.0
4.838216781616211,50.0,15248.0,44480.0,43584.0,18096.0,11652.0,4061.0
4.839733123779297,46.0,17712.0,48336.0,31860.0,27520.0,16740.0,1926.0
4.841300010681152,60.0,15212.0,34784.0,32556.0,16384.0,7561.0,4618.0
4.8428168296813965,404.0,11656.0,32124.0,34176.0,26752.0,12984.0,1725.0
4.8443498611450195,438.0,12208.0,24072.0,35792.0,22312.0,10708.0,1880.0
4.845849990844727,231.0,13520.0,33744.0,24764.0,22596.0,10096.0,4000.0
4.847366809844971,24.0,9100.0,17684.0,29964.0,17444.0,12112.0,2729.0
4.848883152008057,72.0,10952.0,24240.0,22868.0,18620.0,7652.0,2361.0
4.850399971008301,46.0,13408.0,27096.0,16600.0,14380.0,7750.0,1186.0
4.851916790008545,56.0,9292.0,24016.0,25628.0,15952.0,12084.0,2587.0
4.853433132171631,67.0,11172.0,15532.0,23452.0,11404.0,12552.0,1300.0
4.854966640472412,58.0,7113.0,24252.0,24388.0,17860.0,7793.0,853.0
4.856466770172119,27.0,10048.0,20596.0,12628.0,13664.0,8960.0,36.0
4.858033180236816,56.0,4989.0,18984.0,14728.0,10792.0,6502.0,1246.0
4.859566688537598,79.0,3796.0,18384.0,23232.0,5789.0,6537.0,1877.0
4.861083507537842,69.0,5635.0,16808.0,17120.0,10820.0,7382.0,2098.0
4.862599849700928,41.0,4482.0,12544.0,15904.0,11916.0,7682.0,1645.0
4.864133358001709,1519.0,3330.0,13096.0,19620.0,7132.0,9008.0,1191.0
4.865650177001953,1153.0,3995.0,15412.0,16956.0,11492.0,4149.0,1953.0
4.867166519165039,38.0,4660.0,10328.0,16124.0,7191.0,2213.0,1474.0
4.868683338165283,50.0,7378.0,14184.0,9804.0,7316.0,9880.0,995.0
4.870200157165527,50.0,7672.0,12708.0,10760.0,8150.0,2584.0,947.0
4.871716499328613,37.0,1984.0,14324.0,19592.0,5268.0,2634.0,898.0
4.873233318328857,74.0,4211.0,11976.0,15696.0,5345.0,4140.0,1697.0
4.874750137329102,16.0,7729.0,9624.0,9020.0,5423.0,3019.0,2496.0
4.876299858093262,23.0,7979.0,12300.0,15560.0,7530.0,3425.0,1915.0
4.877816677093506,46.0,5456.0,17736.0,17508.0,10856.0,3559.0,87.0
4.87933349609375,448.0,5957.0,16824.0,8236.0,9936.0,3692.0,1351.0
4.880849838256836,493.0,6336.0,15916.0,8174.0,5713.0,3489.0,67.0
4.88236665725708,12.0,7425.0,11780.0,7674.0,7329.0,2299.0,335.0
4.883883476257324,38.0,2102.0,16664.0,13020.0,8340.0,2567.0,24.0
4.88539981842041,74.0,2783.0,10848.0,14200.0,6734.0,4618.0,333.0
4.886916637420654,39.0,5172.0,12388.0,14212.0,6310.0,5075.0,2086.0
4.888433456420898,37.0,5288.0,11432.0,13500.0,7150.0,6774.0,2004.0
4.889949798583984,35.0,3643.0,13728.0,8123.0,7991.0,1699.0,463.0
4.8914666175842285,20.0,3157.0,14436.0,6391.0,5320.0,4796.0,1106.0
4.893016815185547,0.0,2671.0,9876.0,8388.0,9568.0,3008.0,1468.0
4.894533157348633,8.0,3467.0,10128.0,10436.0,4121.0,1853.0,21.0
4.896049976348877,17.0,3794.0,10228.0,9032.0,5909.0,2074.0,26.0
4.897550106048584,30.0,4703.0,9224.0,6173.0,4528.0,2479.0,705.0
4.89906644821167,44.0,5611.0,9316.0,5034.0,1758.0,2884.0,365.0
4.900583267211914,40.0,4771.0,9900.0,9616.0,4098.0,2474.0,25.0
4.902100086212158,36.0,4152.0,5386.0,12300.0,3363.0,2064.0,1070.0
4.903633117675781,49.0,3005.0,12480.0,15764.0,4674.0,2776.0,773.0
4.905149936676025,53.0,1800.0,5473.0,3245.0,3906.0,1221.0,940.0
4.9066667556762695,43.0,3840.0,12008.0,6864.0,1566.0,3156.0,892.0
4.908166885375977,22.0,4405.0,7044.0,6130.0,5706.0,2182.0,845.0
4.909716606140137,38.0,4970.0,8944.0,8612.0,5720.0,949.0,13.0
4.911233425140381,37.0,4900.0,8484.0,8468.0,3632.0,4129.0,963.0
4.912749767303467,23.0,4829.0,8027.0,4298.0,5646.0,2961.0,723.0
4.914266586303711,33.0,2462.0,11220.0,7117.0,4604.0,1793.0,382.0
4.915783405303955,43.0,5581.0,4732.0,2230.0,3707.0,2554.0,203.0
4.917300224304199,6.0,2871.0,5698.0,4407.0,135.0,1699.0,24.0
4.918816566467285,29.0,2629.0,5864.0,2427.0,2000.0,2220.0,49.0
4.920333385467529,51.0,3138.0,2799.0,2803.0,2909.0,2742.0,75.0
4.921850204467773,43.0,1516.0,6788.0,3179.0,3442.0,2090.0,40.0
4.923366546630859,35.0,1668.0,7491.0,5324.0,3634.0,2310.0,470.0
4.9248833656311035,35.0,1217.0,6013.0,6116.0,2670.0,2354.0,253.0
4.926466464996338,37.0,1449.0,6162.0,4240.0,2598.0,2397.0,37.0
4.927983283996582,39.0,1682.0,967.0,5478.0,2629.0,542.0,35.0
4.929500102996826,22.0,1491.0,5745.0,3878.0,2660.0,2414.0,30.0
4.931016445159912,50.0,2346.0,7954.0,4555.0,3492.0,929.0,31.0
4.932533264160156,44.0,2229.0,3708.0,2590.0,2697.0,2553.0,33.0
4.9340500831604,39.0,2112.0,4031.0,5292.0,1902.0,2893.0,2071.0
4.9355669021606445,47.0,1560.0,2505.0,5593.0,1236.0,1815.0,2054.0
4.9370832443237305,47.0,1300.0,2730.0,4962.0,569.0,1697.0,55.0
4.938600063323975,47.0,1041.0,2954.0,4330.0,967.0,91.0,48.0
4.940116882324219,37.0,27.0,2214.0,3101.0,3156.0,1073.0,781.0
4.941633224487305,32.0,676.0,4358.0,4370.0,2598.0,893.0,47.0
4.94320011138916,10.0,1325.0,5517.0,3232.0,2677.0,866.0,36.0
4.944716453552246,15.0,1816.0,4312.0,6290.0,402.0,839.0,65.0
4.94623327255249,20.0,30.0,3107.0,5657.0,1188.0,1327.0,44.0
4.947750091552734,13.0,2314.0,1998.0,4620.0,1733.0,1815.0,22.0
4.94926643371582,90.0,2285.0,1233.0,3616.0,1570.0,1899.0,77.0
4.9507832527160645,45.0,1381.0,1738.0,2166.0,917.0,1353.0,50.0
4.952300071716309,0.0,1145.0,8504.0,1698.0,2069.0,1766.0,60.0
4.953833103179932,632.0,728.0,8388.0,2220.0,1893.0,2178.0,70.0
4.955349922180176,640.0,1042.0,5600.0,2742.0,1717.0,69.0,50.0
4.95686674118042,330.0,1356.0,5981.0,3674.0,2351.0,1223.0,30.0
4.958366870880127,23.0,1423.0,3559.0,4818.0,2086.0,983.0,22.0
4.959949970245361,12.0,1072.0,4399.0,5209.0,1822.0,2581.0,34.0
4.9614667892456055,21.0,941.0,2991.0,6065.0,1857.0,1879.0,28.0
4.962983131408691,19.0,809.0,1438.0,2586.0,1691.0,544.0,22.0
4.9644999504089355,51.0,1968.0,2155.0,1044.0,1526.0,993.0,35.0
4.96601676940918,57.0,2067.0,2873.0,3734.0,869.0,886.0,25.0
4.967533111572266,28.0,2466.0,2969.0,108.0,1016.0,131.0,15.0
4.96904993057251,6.0,278.0,816.0,3845.0,1163.0,111.0,30.0
4.970566749572754,36.0,2741.0,3802.0,1955.0,1349.0,91.0,961.0
4.972083568572998,51.0,1811.0,4437.0,2497.0,512.0,74.0,504.0
4.973599910736084,43.0,1644.0,3942.0,4529.0,27.0,58.0,48.0
4.975116729736328,32.0,26.0,2296.0,3965.0,544.0,47.0,43.0
4.9766998291015625,21.0,2436.0,3595.0,4469.0,302.0,964.0,50.0
4.978216648101807,1003.0,3264.0,2621.0,2500.0,1325.0,971.0,36.0
4.979733467102051,903.0,3455.0,2317.0,2203.0,688.0,883.0,22.0
4.981249809265137,68.0,2978.0,2033.0,1906.0,52.0,795.0,224.0
4.982766628265381,84.0,3520.0,1750.0,2945.0,1473.0,16.0,130.0
4.984283447265625,14.0,1822.0,2734.0,1071.0,969.0,298.0,36.0
4.985799789428711,19.0,2241.0,2539.0,3595.0,651.0,580.0,12.0
4.987316608428955,74.0,1866.0,2344.0,836.0,493.0,611.0,62.0
4.988833427429199,22.0,1288.0,3419.0,3394.0,1009.0,642.0,43.0
4.990349769592285,47.0,44.0,5843.0,852.0,1063.0,1156.0,23.0
4.991866588592529,51.0,1277.0,5289.0,5869.0,1118.0,1162.0,23.0
4.993450164794922,56.0,1689.0,3153.0,4996.0,888.0,1168.0,22.0
4.994966506958008,52.0,692.0,1703.0,1560.0,658.0,962.0,36.0
4.996483325958252,48.0,1216.0,1426.0,2273.0,868.0,757.0,50.0
4.998000144958496,32.0,1977.0,1263.0,2522.0,1078.0,1111.0,34.0
