,316.2099914550781,317.2099914550781,318.2099914550781,319.2099914550781,320.2099914550781,321.2099914550781,322.2099914550781
2.051500082015991,5.0,66.0,31.0,5.0,36.0,53.0,19.0
2.0530166625976562,64.0,18.0,5.0,5.0,23.0,14.0,46.0
2.0545332431793213,17.0,51.0,35.0,24.0,733.0,12.0,53.0
2.0560500621795654,40.0,11.0,25.0,34.0,40.0,138.0,5.0
2.0575666427612305,5.0,0.0,15.0,22.0,10.0,110.0,23.0
2.0590832233428955,45.0,45.0,5.0,10.0,5.0,66.0,6.0
2.0606000423431396,19.0,10.0,25.0,28.0,0.0,22.0,0.0
2.0621166229248047,5.0,23.0,21.0,23.0,15.0,6.0,5.0
2.063633441925049,12.0,41.0,10.0,40.0,17.0,12.0,0.0
2.065150022506714,40.0,46.0,5.0,26.0,18.0,15.0,10.0
2.066666603088379,43.0,20.0,5.0,13.0,10.0,10.0,7.0
2.0682499408721924,46.0,5.0,5.0,41.0,8.0,15.0,0.0
2.0697667598724365,14.0,39.0,5.0,22.0,5.0,20.0,12.0
2.0712833404541016,13.0,44.0,13.0,25.0,11.0,6.0,30.0
2.0727999210357666,19.0,21.0,16.0,36.0,16.0,0.0,17.0
2.0743167400360107,30.0,44.0,18.0,45.0,40.0,5.0,5.0
2.075833320617676,41.0,21.0,21.0,54.0,23.0,10.0,43.0
2.077349901199341,34.0,6.0,24.0,9.0,7.0,8.0,51.0
2.078866720199585,27.0,0.0,36.0,5.0,5.0,7.0,5.0
2.08038330078125,35.0,6.0,5.0,13.0,0.0,21.0,0.0
2.081899881362915,30.0,7.0,0.0,21.0,0.0,23.0,5.0
2.083416700363159,24.0,9.0,21.0,39.0,0.0,24.0,13.0
2.0849833488464355,30.0,7.0,21.0,35.0,6.0,8.0,7.0
2.0864999294281006,36.0,5.0,21.0,33.0,12.0,36.0,0.0
2.0880167484283447,7.0,7.0,20.0,35.0,16.0,0.0,27.0
2.0895333290100098,20.0,30.0,18.0,0.0,20.0,91.0,34.0
2.091049909591675,14.0,24.0,33.0,4.0,10.0,59.0,0.0
2.092566728591919,7.0,18.0,47.0,8.0,10.0,27.0,19.0
2.094083309173584,0.0,20.0,39.0,10.0,10.0,17.0,36.0
2.095599889755249,23.0,20.0,51.0,21.0,0.0,43.0,10.0
2.097116708755493,19.0,19.0,0.0,32.0,838.0,30.0,18.0
2.098633289337158,15.0,18.0,10.0,25.0,1315.0,17.0,18.0
2.1001501083374023,35.0,11.0,16.0,19.0,1156.0,45.0,36.0
2.101733446121216,0.0,0.0,22.0,24.0,48.0,5.0,18.0
2.103250026702881,0.0,19.0,15.0,30.0,0.0,8.0,0.0
2.104766607284546,21.0,22.0,6.0,10.0,760.0,11.0,9.0
2.10628342628479,24.0,24.0,43.0,32.0,785.0,5.0,17.0
2.107800006866455,42.0,5.0,303.0,29.0,24.0,55.0,13.0
2.10931658744812,22.0,30.0,672.0,25.0,8.0,45.0,19.0
2.1108334064483643,5.0,8.0,676.0,30.0,0.0,36.0,18.0
2.1123499870300293,14.0,9.0,433.0,6.0,23.0,24.0,16.0
2.1138665676116943,22.0,10.0,29.0,29.0,5.0,50.0,24.0
2.1153833866119385,0.0,5.0,5.0,31.0,0.0,0.0,25.0
2.1168999671936035,0.0,10.0,16.0,36.0,24.0,38.0,24.0
2.11846661567688,0.0,48.0,688.0,21.0,34.0,21.0,22.0
2.119983434677124,0.0,40.0,800.0,6.0,24.0,28.0,10.0
2.121500015258789,0.0,11.0,14.0,14.0,5.0,35.0,5.0
2.123016595840454,0.0,5.0,13.0,18.0,31.0,7.0,24.0
2.1245334148406982,16.0,11.0,43.0,21.0,10.0,41.0,18.0
2.1260499954223633,12.0,0.0,5.0,21.0,26.0,26.0,11.0
2.1275665760040283,17.0,0.0,10.0,19.0,43.0,20.0,36.0
2.1290833950042725,22.0,0.0,15.0,17.0,10.0,33.0,41.0
2.1305999755859375,18.0,17.0,14.0,22.0,24.0,26.0,12.0
2.1321332454681396,13.0,13.0,13.0,22.0,19.0,19.0,6.0
2.1336333751678467,42.0,6.0,11.0,35.0,2780.0,1833.0,0.0
2.13521671295166,71.0,11.0,51.0,48.0,3080.0,1894.0,14.0
2.136733293533325,63.0,15.0,45.0,1045.0,1977.0,533.0,28.0
2.1382501125335693,9.0,15.0,39.0,1183.0,1630.0,1675.0,187.0
2.1397666931152344,34.0,14.0,7.0,1052.0,3490.0,19.0,597.0
2.1412832736968994,0.0,34.0,5.0,1341.0,3439.0,645.0,1420.0
2.1428000926971436,16.0,30.0,5.0,659.0,1030.0,713.0,1268.0
2.1443166732788086,10.0,26.0,5.0,678.0,2107.0,2133.0,1116.0
2.1458332538604736,21.0,25.0,5.0,698.0,3836.0,2111.0,517.0
2.1473500728607178,32.0,10.0,269.0,50.0,4659.0,2155.0,63.0
2.148866653442383,26.0,17.0,145.0,1456.0,4396.0,2199.0,204.0
2.150383234024048,21.0,34.0,20.0,1992.0,2214.0,2464.0,345.0
2.151933431625366,7.0,51.0,313.0,1199.0,6070.0,2350.0,5.0
2.1534667015075684,40.0,44.0,21.0,589.0,2230.0,2236.0,53.0
2.1549832820892334,0.0,38.0,39.0,20.0,6723.0,1090.0,33.0
2.1565001010894775,31.0,34.0,325.0,142.0,7089.0,3066.0,12.0
2.1580166816711426,15.0,31.0,39.0,164.0,3802.0,2795.0,250.0
2.1595332622528076,11.0,28.0,11.0,391.0,2291.0,3558.0,125.0
2.1610500812530518,0.0,25.0,37.0,204.0,1877.0,1518.0,0.0
2.162566661834717,34.0,7.0,11.0,17.0,3268.0,1725.0,656.0
2.164083242416382,37.0,24.0,11.0,441.0,3868.0,868.0,506.0
2.165600061416626,40.0,16.0,32.0,236.0,3136.0,2040.0,25.0
2.167116641998291,57.0,8.0,655.0,31.0,4155.0,1025.0,11.0
2.168633222579956,0.0,43.0,332.0,5.0,4304.0,2331.0,27.0
2.1702165603637695,37.0,52.0,9.0,3.0,2286.0,795.0,6.0
2.1717333793640137,22.0,62.0,21.0,0.0,2370.0,1009.0,11.0
2.1732499599456787,38.0,90.0,46.0,70.0,1530.0,2914.0,8.0
2.174766778945923,5.0,57.0,27.0,642.0,3367.0,2508.0,5.0
2.176283359527588,8.0,23.0,8.0,775.0,730.0,35.0,575.0
2.177799940109253,10.0,41.0,20.0,1553.0,2928.0,400.0,1144.0
2.179316759109497,0.0,29.0,7.0,1141.0,2497.0,2283.0,1117.0
2.180833339691162,19.0,32.0,4.0,125.0,2066.0,549.0,494.0
2.182349920272827,18.0,35.0,0.0,21.0,671.0,3764.0,266.0
2.1838667392730713,17.0,30.0,0.0,260.0,2909.0,3339.0,60.0
2.1853833198547363,18.0,25.0,23.0,16.0,1964.0,3212.0,17.0
2.1869499683380127,0.0,23.0,92.0,1684.0,1019.0,2158.0,1346.0
2.1884665489196777,6.0,5.0,59.0,1347.0,937.0,3345.0,1396.0
2.189983367919922,12.0,7.0,26.0,1010.0,855.0,3990.0,22.0
2.191499948501587,11.0,26.0,22.0,1024.0,1563.0,1294.0,43.0
2.193016767501831,10.0,16.0,25.0,347.0,2271.0,2045.0,92.0
2.194533348083496,15.0,6.0,23.0,25.0,1915.0,2963.0,45.0
2.196049928665161,13.0,30.0,20.0,401.0,2490.0,1891.0,0.0
2.1975667476654053,12.0,18.0,17.0,204.0,3017.0,1178.0,1314.0
2.1990833282470703,16.0,12.0,22.0,7.0,3544.0,1979.0,1044.0
2.2005999088287354,26.0,5.0,30.0,778.0,3571.0,828.0,719.0
2.2021167278289795,19.0,286.0,26.0,636.0,4751.0,906.0,5.0
2.203700065612793,12.0,567.0,21.0,856.0,1556.0,1215.0,855.0
2.205216646194458,17.0,672.0,36.0,1128.0,6493.0,1524.0,412.0
2.206733226776123,43.0,29.0,14.0,1400.0,5142.0,1823.0,889.0
2.208250045776367,38.0,39.0,30.0,27.0,5628.0,938.0,671.0
2.2097666263580322,15.0,34.0,36.0,803.0,3947.0,52.0,486.0
2.2112834453582764,45.0,34.0,998.0,5.0,1126.0,885.0,301.0
2.2128000259399414,26.0,36.0,1000.0,977.0,2572.0,979.0,9.0
2.2143166065216064,0.0,38.0,33.0,502.0,4281.0,1309.0,24.0
2.2158334255218506,14.0,19.0,5.0,28.0,1271.0,1631.0,17.0
2.2173500061035156,21.0,0.0,47.0,374.0,1871.0,1952.0,10.0
2.2188665866851807,20.0,52.0,33.0,601.0,2182.0,578.0,10.0
2.220433235168457,19.0,6.0,13.0,13.0,1096.0,2756.0,10.0
2.221950054168701,0.0,11.0,6.0,363.0,10.0,21.0,64.0
2.223466634750366,8.0,10.0,12.0,713.0,1263.0,28.0,1089.0
2.2249832153320312,15.0,14.0,0.0,5.0,2516.0,266.0,1267.0
2.2265000343322754,10.0,18.0,9.0,16.0,2770.0,1337.0,563.0
2.2280166149139404,12.0,22.0,17.0,0.0,470.0,1815.0,31.0
2.2295334339141846,5.0,39.0,18.0,0.0,1188.0,1580.0,9.0
2.2310500144958496,7.0,33.0,12.0,0.0,925.0,1744.0,15.0
2.2325665950775146,15.0,15.0,6.0,18.0,957.0,1012.0,8.0
2.234083414077759,23.0,34.0,12.0,36.0,1229.0,28.0,10.0
2.235599994659424,16.0,36.0,18.0,28.0,1071.0,1334.0,9.0
2.2371833324432373,9.0,38.0,0.0,17.0,22.0,20.0,7.0
2.2386999130249023,0.0,30.0,0.0,20.0,582.0,1150.0,21.0
2.2402167320251465,16.0,33.0,26.0,14.0,1156.0,35.0,10.0
2.2417333126068115,8.0,37.0,32.0,17.0,37.0,12.0,0.0
2.2432498931884766,0.0,47.0,5.0,20.0,503.0,12.0,5.0
2.2447667121887207,11.0,0.0,5.0,238.0,22.0,21.0,5.0
2.2462832927703857,0.0,0.0,21.0,455.0,34.0,22.0,5.0
2.24780011177063,55.0,185.0,19.0,390.0,490.0,11.0,19.0
2.249316692352295,48.0,677.0,17.0,326.0,114.0,0.0,19.0
2.25083327293396,6.0,1038.0,29.0,5.0,17.0,19.0,18.0
2.252350091934204,12.0,783.0,596.0,14.0,14.0,21.0,26.0
2.2539167404174805,17.0,529.0,483.0,54.0,13.0,22.0,23.0
2.2554333209991455,14.0,407.0,43.0,28.0,12.0,16.0,19.0
2.2569499015808105,11.0,1232.0,23.0,12.0,14.0,11.0,17.0
2.2584667205810547,43.0,2140.0,14.0,23.0,15.0,5.0,17.0
2.2599833011627197,40.0,2140.0,542.0,5.0,16.0,50.0,22.0
2.2614998817443848,12.0,2111.0,473.0,13.0,18.0,40.0,20.0
2.263016700744629,10.0,1283.0,423.0,0.0,19.0,48.0,17.0
2.264533281326294,48.0,1172.0,5.0,3.0,16.0,5.0,50.0
2.266050100326538,5.0,1926.0,12.0,6.0,12.0,21.0,34.0
2.267566680908203,7.0,1499.0,18.0,7.0,615.0,11.0,18.0
2.269083261489868,0.0,1072.0,15.0,20.0,748.0,19.0,9.0
2.2706499099731445,3.0,2539.0,11.0,34.0,10.0,31.0,23.0
2.272183418273926,5.0,3570.0,14.0,30.0,0.0,30.0,32.0
2.273699998855591,10.0,3811.0,16.0,0.0,16.0,30.0,24.0
2.275216579437256,10.0,3472.0,28.0,41.0,11.0,12.0,5.0
2.2767333984375,15.0,3133.0,44.0,14.0,6.0,31.0,29.0
2.278249979019165,24.0,1663.0,60.0,15.0,29.0,18.0,25.0
2.27976655960083,33.0,928.0,38.0,17.0,14.0,5.0,0.0
2.281283378601074,34.0,192.0,15.0,0.0,0.0,48.0,36.0
2.2827999591827393,24.0,1217.0,61.0,5.0,23.0,29.0,44.0
2.2843167781829834,33.0,1747.0,34.0,10.0,47.0,10.0,0.0
2.2858333587646484,0.0,1167.0,11.0,11.0,34.0,21.0,7.0
2.2873499393463135,11.0,587.0,14.0,10.0,21.0,33.0,42.0
2.28891658782959,18.0,1078.0,22.0,22.0,42.0,18.0,18.0
2.290433406829834,25.0,1570.0,31.0,31.0,64.0,22.0,0.0
2.291949987411499,33.0,1411.0,25.0,24.0,39.0,5.0,0.0
2.293466567993164,46.0,2816.0,20.0,16.0,14.0,13.0,6.0
2.2950000762939453,23.0,2913.0,14.0,13.0,13.0,25.0,3.0
2.2964999675750732,0.0,1838.0,23.0,12.0,31.0,22.0,0.0
2.2980165481567383,10.0,2189.0,17.0,11.0,0.0,20.0,10.0
2.2995333671569824,15.0,1188.0,10.0,12.0,29.0,30.0,5.0
2.302799940109253,19.0,187.0,170.0,20.0,19.0,12.0,0.0
2.3060998916625977,20.0,1214.0,106.0,28.0,40.0,17.0,0.0
2.3093667030334473,10.0,3367.0,42.0,324.0,25.0,22.0,5.0
2.3126165866851807,22.0,2544.0,14.0,167.0,10.0,29.0,6.0
2.315866708755493,16.0,1486.0,24.0,10.0,31.0,36.0,6.0
2.3191165924072266,49.0,428.0,34.0,17.0,129.0,5.0,0.0
2.3224167823791504,30.0,4386.0,19.0,28.0,227.0,11.0,10.0
2.325666666030884,10.0,4092.0,5.0,15.0,502.0,12.0,19.0
2.328916549682617,38.0,5102.0,276.0,21.0,574.0,19.0,21.0
2.3321666717529297,21.0,241.0,547.0,27.0,646.0,12.0,22.0
2.335416555404663,36.0,1474.0,674.0,5.0,575.0,5.0,32.0
2.338716745376587,41.0,10.0,19.0,13.0,25.0,5.0,31.0
2.3419666290283203,6.0,2474.0,284.0,377.0,11.0,5.0,16.0
2.345216751098633,23.0,1528.0,6.0,533.0,25.0,5.0,29.0
2.3484833240509033,12.0,284.0,48.0,478.0,26.0,14.0,30.0
2.351733446121216,0.0,17.0,338.0,20.0,28.0,23.0,29.0
2.354983329772949,17.0,509.0,628.0,30.0,17.0,290.0,29.0
2.358283281326294,26.0,764.0,1030.0,17.0,7.0,160.0,35.0
2.3615334033966064,19.0,969.0,914.0,17.0,0.0,31.0,42.0
2.36478328704834,22.0,6.0,0.0,17.0,20.0,529.0,49.0
2.3680334091186523,22.0,39.0,1265.0,651.0,179.0,270.0,24.0
2.3712832927703857,22.0,898.0,234.0,767.0,104.0,11.0,0.0
2.3745999336242676,0.0,989.0,1057.0,783.0,30.0,32.0,10.0
2.37785005569458,7.0,881.0,30.0,799.0,24.0,26.0,19.0
2.3810999393463135,20.0,825.0,44.0,0.0,16.0,21.0,19.0
2.384350061416626,13.0,17.0,15.0,238.0,21.0,29.0,0.0
2.3875999450683594,10.0,16.0,0.0,939.0,25.0,31.0,0.0
2.390916585922241,8.0,38.0,14.0,731.0,20.0,33.0,0.0
2.3941667079925537,6.0,13.0,28.0,619.0,14.0,7.0,5.0
2.397416591644287,3.0,15.0,19.0,18.0,22.0,39.0,10.0
2.4006667137145996,0.0,19.0,16.0,590.0,18.0,24.0,8.0
2.403916597366333,6.0,18.0,25.0,11.0,14.0,45.0,6.0
2.407233238220215,11.0,17.0,439.0,10.0,208.0,5.0,11.0
2.4104833602905273,9.0,36.0,421.0,49.0,111.0,48.0,8.0
2.4137332439422607,21.0,37.0,6.0,28.0,13.0,37.0,5.0
2.4169833660125732,23.0,38.0,28.0,7.0,5.0,30.0,15.0
2.4202332496643066,10.0,31.0,11.0,54.0,55.0,21.0,24.0
2.4235498905181885,23.0,24.0,31.0,20.0,18.0,13.0,23.0
2.426800012588501,25.0,17.0,20.0,33.0,37.0,0.0,18.0
2.4300498962402344,28.0,12.0,10.0,45.0,13.0,12.0,12.0
2.433300018310547,0.0,57.0,31.0,20.0,20.0,10.0,6.0
2.4365499019622803,12.0,36.0,31.0,47.0,31.0,10.0,0.0
2.4398000240325928,36.0,15.0,21.0,23.0,42.0,10.0,3.0
2.4430832862854004,33.0,13.0,25.0,20.0,34.0,19.0,5.0
2.446333408355713,13.0,10.0,855.0,19.0,25.0,17.0,19.0
2.4495832920074463,29.0,11.0,1027.0,15.0,0.0,11.0,10.0
2.452833414077759,29.0,0.0,27.0,10.0,33.0,28.0,0.0
2.456083297729492,23.0,23.0,31.0,0.0,15.0,28.0,0.0
2.459383249282837,14.0,24.0,82.0,36.0,19.0,0.0,18.0
2.4626333713531494,17.0,34.0,945.0,24.0,22.0,18.0,35.0
2.465883255004883,14.0,43.0,730.0,12.0,26.0,0.0,51.0
2.4691333770751953,13.0,42.0,26.0,6.0,24.0,39.0,43.0
2.4723832607269287,15.0,8.0,24.0,0.0,21.0,39.0,8.0
2.4756999015808105,10.0,22.0,36.0,19.0,0.0,12.0,14.0
2.478950023651123,16.0,12.0,32.0,17.0,12.0,11.0,12.0
2.4821999073028564,21.0,52.0,6.0,15.0,18.0,46.0,6.0
2.485450029373169,11.0,46.0,8.0,14.0,22.0,52.0,0.0
2.4886999130249023,0.0,20.0,13.0,10.0,12.0,7.0,3.0
2.492016553878784,16.0,50.0,12.0,5.0,9.0,31.0,6.0
2.4952666759490967,8.0,38.0,11.0,6.0,5.0,43.0,11.0
2.498533248901367,0.0,35.0,12.0,7.0,13.0,13.0,16.0
2.5017833709716797,12.0,51.0,12.0,6.0,21.0,23.0,22.0
2.505033254623413,24.0,13.0,5.0,5.0,21.0,24.0,29.0
2.508333444595337,37.0,13.0,23.0,11.0,20.0,28.0,30.0
2.5115833282470703,26.0,0.0,16.0,10.0,13.0,19.0,16.0
2.514849901199341,23.0,132.0,9.0,10.0,5.0,5.0,10.0
2.5181000232696533,5.0,81.0,21.0,8.0,32.0,20.0,32.0
2.5213499069213867,24.0,31.0,30.0,5.0,30.0,16.0,46.0
2.524600028991699,6.0,31.0,39.0,3.0,36.0,20.0,36.0
2.527883291244507,12.0,47.0,21.0,0.0,37.0,32.0,11.0
2.5311334133148193,6.0,24.0,0.0,3.0,25.0,34.0,17.0
2.5343832969665527,0.0,5.0,43.0,2.0,28.0,12.0,5.0
2.5376334190368652,15.0,19.0,25.0,0.0,30.0,32.0,10.0
2.5408833026885986,17.0,36.0,5.0,3.0,11.0,23.0,14.0
2.5441501140594482,20.0,22.0,33.0,6.0,0.0,15.0,14.0
2.5473999977111816,22.0,18.0,27.0,3.0,13.0,26.0,15.0
2.550649881362915,5.0,28.0,36.0,0.0,9.0,81.0,15.0
2.5539000034332275,13.0,23.0,25.0,12.0,5.0,51.0,24.0
2.557149887084961,0.0,5.0,15.0,19.0,14.0,22.0,21.0
2.560466766357422,0.0,36.0,22.0,19.0,23.0,6.0,17.0
2.5637166500091553,0.0,34.0,29.0,19.0,14.0,37.0,10.0
2.5669667720794678,10.0,26.0,5.0,18.0,5.0,0.0,19.0
2.570216655731201,31.0,19.0,55.0,18.0,10.0,0.0,8.0
2.5734667778015137,26.0,41.0,30.0,17.0,10.0,5.0,14.0
2.5767834186553955,21.0,35.0,5.0,11.0,11.0,5.0,5.0
2.580033302307129,19.0,0.0,12.0,5.0,10.0,9.0,5.0
2.5832834243774414,33.0,31.0,13.0,5.0,8.0,12.0,12.0
2.586533308029175,36.0,47.0,14.0,5.0,5.0,48.0,12.0
2.5897834300994873,25.0,28.0,16.0,5.0,5.0,43.0,12.0
2.593083381652832,29.0,19.0,17.0,3.0,0.0,28.0,21.0
2.5963332653045654,34.0,11.0,15.0,0.0,7.0,5.0,25.0
2.599583387374878,0.0,30.0,13.0,3.0,13.0,6.0,29.0
2.6028332710266113,35.0,21.0,21.0,5.0,23.0,18.0,0.0
2.606083393096924,31.0,13.0,15.0,5.0,29.0,9.0,19.0
2.6093666553497314,27.0,18.0,9.0,5.0,14.0,0.0,37.0
2.612649917602539,0.0,9.0,40.0,19.0,0.0,10.0,31.0
2.6159000396728516,26.0,5.0,20.0,36.0,5.0,20.0,24.0
2.619149923324585,18.0,24.0,0.0,29.0,43.0,13.0,10.0
2.6224000453948975,18.0,38.0,42.0,18.0,32.0,6.0,31.0
2.625649929046631,12.0,51.0,0.0,5.0,62.0,23.0,26.0
2.6289167404174805,6.0,31.0,6.0,3.0,5.0,21.0,24.0
2.632166624069214,13.0,13.0,23.0,0.0,37.0,5.0,20.0
2.6354167461395264,7.0,5.0,31.0,5.0,24.0,30.0,17.0
2.6386666297912598,13.0,18.0,10.0,10.0,12.0,18.0,13.0
2.6419167518615723,18.0,10.0,24.0,83.0,29.0,18.0,17.0
2.645233392715454,19.0,11.0,31.0,46.0,921.0,16.0,21.0
2.6484832763671875,28.0,6.0,20.0,10.0,867.0,13.0,21.0
2.6517333984375,36.0,0.0,10.0,38.0,26.0,0.0,21.0
2.6549832820892334,29.0,6.0,14.0,22.0,12.0,9.0,5.0
2.658233404159546,21.0,6.0,17.0,13.0,25.0,9.0,21.0
2.6615500450134277,26.0,6.0,20.0,30.0,23.0,9.0,0.0
2.664799928665161,32.0,0.0,13.0,40.0,20.0,22.0,21.0
2.6680500507354736,31.0,0.0,6.0,6.0,20.0,21.0,16.0
2.671299934387207,8.0,3.0,23.0,40.0,11.0,5.0,11.0
2.6745500564575195,5.0,6.0,15.0,345.0,13.0,6.0,18.0
2.67781662940979,13.0,11.0,7.0,172.0,13.0,5.0,6.0
2.6810667514801025,18.0,10.0,25.0,0.0,12.0,15.0,0.0
2.684316635131836,23.0,9.0,11.0,30.0,36.0,22.0,7.0
2.6875667572021484,0.0,0.0,37.0,9.0,38.0,29.0,25.0
2.690816640853882,11.0,4.0,29.0,12.0,0.0,5.0,20.0
2.6941332817077637,11.0,7.0,25.0,5.0,38.0,15.0,14.0
2.697383403778076,10.0,10.0,22.0,32.0,5.0,6.0,19.0
2.7006332874298096,6.0,54.0,21.0,29.0,26.0,0.0,18.0
2.703883409500122,0.0,61.0,17.0,10.0,0.0,23.0,17.0
2.7071332931518555,19.0,11.0,12.0,10.0,17.0,29.0,16.0
2.710383415222168,10.0,16.0,17.0,9.0,0.0,22.0,15.0
2.71370005607605,0.0,16.0,12.0,10.0,10.0,23.0,14.0
2.716949939727783,28.0,5.0,23.0,10.0,19.0,23.0,12.0
2.7202000617980957,34.0,15.0,19.0,15.0,15.0,7.0,35.0
2.723449945449829,35.0,67.0,14.0,18.0,10.0,31.0,25.0
2.7267000675201416,10.0,56.0,13.0,21.0,15.0,5.0,15.0
2.7300167083740234,13.0,44.0,5.0,11.0,12.0,0.0,24.0
2.733266592025757,12.0,15.0,21.0,41.0,0.0,32.0,23.0
2.7365167140960693,12.0,12.0,28.0,43.0,24.0,5.0,21.0
2.7397665977478027,11.0,20.0,17.0,37.0,20.0,5.0,19.0
2.7430167198181152,0.0,16.0,7.0,22.0,19.0,38.0,17.0
2.74631667137146,0.0,5.0,0.0,5.0,14.0,8.0,0.0
2.7495665550231934,20.0,12.0,17.0,34.0,8.0,16.0,15.0
2.752816677093506,20.0,19.0,11.0,51.0,7.0,14.0,17.0
2.7560665607452393,20.0,12.0,24.0,58.0,6.0,16.0,16.0
2.7593166828155518,46.0,5.0,29.0,32.0,30.0,16.0,16.0
2.7626333236694336,36.0,5.0,19.0,5.0,34.0,16.0,11.0
2.765883445739746,26.0,3.0,10.0,44.0,14.0,11.0,6.0
2.7691333293914795,28.0,0.0,5.0,16.0,5.0,5.0,20.0
2.772383451461792,13.0,16.0,13.0,14.0,18.0,23.0,39.0
2.7756333351135254,0.0,438.0,12.0,35.0,5.0,0.0,38.0
2.77893328666687,25.0,219.0,11.0,17.0,33.0,7.0,5.0
2.7821834087371826,29.0,0.0,41.0,0.0,25.0,16.0,61.0
2.785449981689453,23.0,8.0,27.0,0.0,9.0,11.0,5.0
2.7887001037597656,22.0,28.0,14.0,33.0,21.0,5.0,12.0
2.791949987411499,10.0,368.0,21.0,70.0,23.0,28.0,12.0
2.7952001094818115,0.0,187.0,0.0,53.0,21.0,27.0,15.0
2.798483371734619,29.0,5.0,0.0,44.0,19.0,45.0,18.0
2.8017332553863525,29.0,10.0,34.0,24.0,17.0,29.0,15.0
2.804983377456665,30.0,15.0,90.0,5.0,12.0,21.0,12.0
2.8082332611083984,465.0,35.0,55.0,14.0,6.0,10.0,12.0
2.811483383178711,305.0,707.0,20.0,22.0,5.0,7.0,13.0
2.8147833347320557,144.0,879.0,260.0,14.0,0.0,15.0,14.0
2.818033218383789,78.0,41.0,155.0,6.0,0.0,13.0,43.0
2.8212833404541016,11.0,380.0,50.0,22.0,19.0,11.0,36.0
2.824533224105835,18.0,5.0,13.0,29.0,12.0,30.0,19.0
2.8277833461761475,40.0,402.0,43.0,23.0,5.0,39.0,20.0
2.831083297729492,31.0,17.0,21.0,31.0,19.0,48.0,0.0
2.834350109100342,17.0,350.0,0.0,41.0,6.0,48.0,28.0
2.837599992752075,25.0,181.0,32.0,43.0,24.0,12.0,5.0
2.8408501148223877,18.0,12.0,30.0,45.0,42.0,22.0,30.0
2.844099998474121,14.0,557.0,29.0,0.0,29.0,33.0,25.0
2.8473665714263916,70.0,281.0,0.0,73.0,16.0,6.0,20.0
2.850616693496704,35.0,5.0,12.0,27.0,0.0,30.0,5.0
2.8538832664489746,0.0,49.0,23.0,16.0,38.0,8.0,10.0
2.857133388519287,122.0,67.0,20.0,5.0,0.0,52.0,20.0
2.8603832721710205,61.0,86.0,22.0,59.0,7.0,38.0,18.0
2.8636832237243652,0.0,0.0,25.0,48.0,23.0,37.0,16.0
2.8669333457946777,18.0,5.0,27.0,35.0,25.0,40.0,0.0
2.870183229446411,6.0,0.0,26.0,18.0,15.0,30.0,0.0
2.8734333515167236,42.0,11.0,24.0,8.0,14.0,0.0,5.0
2.876683235168457,30.0,22.0,15.0,18.0,0.0,14.0,13.0
2.880000114440918,45.0,28.0,6.0,7.0,16.0,21.0,18.0
2.8832499980926514,30.0,28.0,46.0,17.0,17.0,5.0,15.0
2.8864998817443848,15.0,29.0,44.0,28.0,18.0,5.0,11.0
2.8897500038146973,22.0,19.0,15.0,19.0,0.0,5.0,10.0
2.8929998874664307,29.0,34.0,48.0,8.0,12.0,29.0,14.0
2.896250009536743,35.0,24.0,14.0,0.0,14.0,27.0,17.0
2.899566650390625,85.0,20.0,5.0,16.0,0.0,24.0,42.0
2.9028167724609375,66.0,26.0,16.0,8.0,50.0,15.0,36.0
2.906066656112671,48.0,6.0,18.0,0.0,57.0,5.0,6.0
2.9093167781829834,65.0,21.0,9.0,5.0,15.0,12.0,11.0
2.912566661834717,14.0,30.0,12.0,22.0,20.0,6.0,32.0
2.9158666133880615,6.0,13.0,14.0,23.0,42.0,0.0,25.0
2.919116735458374,5.0,7.0,48.0,12.0,26.0,0.0,18.0
2.9223666191101074,17.0,36.0,41.0,5.0,8.0,6.0,20.0
2.92561674118042,17.0,27.0,36.0,18.0,35.0,3.0,17.0
2.9288666248321533,15.0,13.0,21.0,24.0,5.0,0.0,31.0
2.932183265686035,12.0,5.0,26.0,0.0,10.0,9.0,34.0
2.9354333877563477,21.0,0.0,31.0,20.0,25.0,62.0,32.0
2.938683271408081,16.0,22.0,16.0,22.0,17.0,72.0,23.0
2.9419333934783936,10.0,17.0,11.0,14.0,7.0,5.0,22.0
2.945183277130127,0.0,10.0,33.0,5.0,16.0,6.0,20.0
2.9484500885009766,8.0,5.0,11.0,16.0,26.0,13.0,17.0
2.95169997215271,11.0,7.0,5.0,28.0,27.0,7.0,14.0
2.9549500942230225,13.0,4.0,43.0,27.0,21.0,0.0,11.0
2.958199977874756,7.0,0.0,18.0,27.0,25.0,8.0,22.0
2.9614500999450684,0.0,6.0,5.0,25.0,23.0,17.0,23.0
2.96476674079895,16.0,5.0,15.0,30.0,0.0,12.0,31.0
2.9680166244506836,17.0,5.0,14.0,9.0,11.0,7.0,23.0
2.971266746520996,19.0,5.0,7.0,15.0,11.0,13.0,22.0
2.9745166301727295,21.0,5.0,22.0,18.0,10.0,19.0,5.0
2.977766752243042,39.0,5.0,24.0,39.0,0.0,10.0,5.0
2.9810166358947754,34.0,17.0,25.0,26.0,13.0,0.0,21.0
2.9843332767486572,32.0,15.0,24.0,13.0,10.0,14.0,8.0
2.9875833988189697,30.0,21.0,22.0,33.0,7.0,10.0,12.0
2.990833282470703,25.0,33.0,25.0,41.0,0.0,9.0,0.0
2.9940834045410156,21.0,0.0,29.0,16.0,0.0,8.0,0.0
