,325.2099914550781,326.2099914550781,327.2099914550781,328.2099914550781,329.2099914550781,330.2099914550781,331.2099914550781,332.2099914550781
2.302150011062622,32.0,43.0,5.0,14.0,17.0,0.0,50.0,0.0
2.3045666217803955,8.0,16.0,49.0,62.0,18.0,15.0,19.0,36.0
2.307849884033203,13.0,951.0,16.0,0.0,0.0,36.0,19.0,45.0
2.3111000061035156,5.0,36.0,15.0,36.0,38.0,11.0,13.0,9.0
2.314349889755249,12.0,5.0,42.0,24.0,30.0,14.0,23.0,12.0
2.3176000118255615,0.0,19.0,18.0,0.0,17.0,0.0,18.0,11.0
2.320849895477295,16.0,0.0,7.0,4.0,5.0,5.0,21.0,18.0
2.3241500854492188,16.0,6.0,10.0,8.0,20.0,5.0,5.0,18.0
2.327399969100952,10.0,38.0,13.0,12.0,29.0,7.0,19.0,18.0
2.3306500911712646,37.0,31.0,12.0,16.0,38.0,8.0,9.0,13.0
2.333899974822998,68.0,11.0,10.0,12.0,10.0,11.0,19.0,22.0
2.3371500968933105,51.0,6.0,5.0,5.0,32.0,16.0,6.0,31.0
2.3404500484466553,35.0,10.0,0.0,13.0,18.0,26.0,42.0,21.0
2.3436999320983887,10.0,11.0,3.0,5.0,5.0,16.0,21.0,11.0
2.346950054168701,55.0,12.0,5.0,27.0,0.0,5.0,0.0,22.0
2.3502166271209717,70.0,0.0,6.0,20.0,17.0,12.0,42.0,33.0
2.353466749191284,11.0,6.0,7.0,16.0,51.0,13.0,11.0,5.0
2.356766700744629,19.0,5.0,9.0,14.0,31.0,14.0,10.0,25.0
2.3600165843963623,29.0,8.0,11.0,16.0,12.0,6.0,18.0,18.0
2.363266706466675,24.0,11.0,16.0,15.0,13.0,15.0,12.0,21.0
2.366516590118408,10.0,8.0,18.0,5.0,19.0,10.0,6.0,47.0
2.3697667121887207,6.0,5.0,20.0,47.0,24.0,5.0,20.0,45.0
2.3730833530426025,16.0,5.0,12.0,51.0,20.0,0.0,5.0,22.0
2.376333236694336,8.0,5.0,13.0,35.0,28.0,9.0,3.0,18.0
2.3795833587646484,0.0,3.0,27.0,25.0,35.0,17.0,0.0,31.0
2.382833242416382,6.0,0.0,47.0,11.0,0.0,15.0,0.0,7.0
2.3860833644866943,8.0,0.0,31.0,16.0,0.0,25.0,23.0,51.0
2.389383316040039,26.0,0.0,14.0,966.0,12.0,36.0,28.0,179.0
2.3926498889923096,20.0,9.0,43.0,503.0,12.0,337.0,0.0,158.0
2.395900011062622,18.0,13.0,18.0,41.0,522.0,176.0,15.0,24.0
2.3991498947143555,16.0,1498.0,3939.0,21.0,1962.0,15.0,293.0,5.0
2.402400016784668,19.0,968.0,3311.0,1107.0,1614.0,5.0,571.0,1079.0
2.4056499004364014,16.0,437.0,2447.0,2192.0,2103.0,1373.0,2133.0,807.0
2.4089667797088623,15.0,2564.0,6476.0,7731.0,2591.0,4548.0,1677.0,694.0
2.4122166633605957,14.0,4692.0,11780.0,9512.0,6705.0,3514.0,1221.0,269.0
2.415466785430908,15.0,5838.0,9948.0,9212.0,5852.0,3606.0,1834.0,711.0
2.4187166690826416,15.0,8300.0,5150.0,7817.0,7046.0,4741.0,2448.0,1152.0
2.421966552734375,28.0,9264.0,8137.0,12936.0,9208.0,5876.0,1511.0,938.0
2.425283432006836,21.0,6762.0,10108.0,12948.0,11368.0,6243.0,574.0,1081.0
2.4285333156585693,14.0,7555.0,12080.0,17532.0,12220.0,5200.0,4679.0,1225.0
2.431783437728882,0.0,8944.0,7678.0,16392.0,11152.0,5560.0,6132.0,1407.0
2.4350333213806152,16.0,11892.0,12368.0,10096.0,10620.0,3791.0,2926.0,1061.0
2.4382834434509277,16.0,11836.0,10104.0,17764.0,7514.0,4136.0,1743.0,716.0
2.4415667057037354,16.0,13404.0,11596.0,14980.0,11004.0,3371.0,3383.0,16.0
2.4448165893554688,14.0,10056.0,13084.0,16200.0,11196.0,2607.0,1869.0,1281.0
2.4480667114257812,12.0,10088.0,14328.0,17416.0,10836.0,4209.0,2800.0,1501.0
2.4513165950775146,6.0,14532.0,15572.0,20756.0,10476.0,5456.0,3731.0,1721.0
2.454566717147827,10.0,11604.0,19356.0,11080.0,9964.0,5840.0,4022.0,1161.0
2.457866668701172,10.0,11836.0,18540.0,16936.0,9452.0,6223.0,4314.0,10.0
2.4611165523529053,10.0,12072.0,10588.0,16028.0,6117.0,1598.0,1759.0,716.0
2.4643666744232178,16.0,10980.0,11676.0,13576.0,9544.0,532.0,2271.0,705.0
2.467616558074951,0.0,6054.0,13264.0,4500.0,2282.0,4390.0,2940.0,0.0
2.4708666801452637,6.0,6785.0,4963.0,6921.0,4758.0,3132.0,3080.0,548.0
2.4741666316986084,14.0,5189.0,5798.0,5139.0,6795.0,1874.0,1399.0,830.0
2.477433443069458,6.0,2738.0,7507.0,2342.0,4653.0,1511.0,1033.0,1185.0
2.4806833267211914,11.0,2029.0,2840.0,1708.0,3693.0,2038.0,3233.0,53.0
2.483933448791504,15.0,2399.0,5837.0,2250.0,1375.0,550.0,5.0,15.0
2.4871833324432373,8.0,179.0,358.0,2950.0,1364.0,22.0,847.0,645.0
2.4904332160949707,0.0,1617.0,1250.0,814.0,11.0,1528.0,1735.0,714.0
2.4937500953674316,0.0,757.0,6.0,926.0,19.0,9.0,22.0,20.0
2.497016668319702,0.0,622.0,416.0,39.0,869.0,16.0,24.0,5.0
2.5002665519714355,17.0,487.0,5.0,81.0,743.0,23.0,39.0,30.0
2.503516674041748,9.0,8.0,15.0,123.0,248.0,13.0,36.0,17.0
2.5067665576934814,0.0,645.0,25.0,36.0,23.0,24.0,29.0,17.0
2.5100667476654053,10.0,0.0,774.0,874.0,189.0,5.0,22.0,17.0
2.5133166313171387,5.0,33.0,898.0,686.0,354.0,14.0,16.0,22.0
2.5165834426879883,0.0,40.0,1022.0,499.0,186.0,54.0,9.0,5.0
2.5198333263397217,31.0,15.0,290.0,735.0,18.0,298.0,12.0,6.0
2.523083448410034,21.0,19.0,66.0,10.0,18.0,166.0,18.0,7.0
2.526366710662842,11.0,0.0,15.0,39.0,38.0,34.0,23.0,16.0
2.529616594314575,12.0,10.0,27.0,40.0,33.0,22.0,59.0,52.0
2.5328667163848877,19.0,24.0,6.0,24.0,12.0,11.0,53.0,50.0
2.536116600036621,26.0,253.0,21.0,12.0,5.0,52.0,52.0,7.0
2.5393667221069336,23.0,142.0,18.0,9.0,27.0,43.0,5.0,44.0
2.542633295059204,19.0,32.0,14.0,5.0,23.0,34.0,34.0,22.0
2.5458834171295166,35.0,7.0,12.0,15.0,9.0,13.0,20.0,20.0
2.54913330078125,32.0,49.0,10.0,13.0,27.0,28.0,17.0,46.0
2.5523834228515625,29.0,23.0,8.0,0.0,21.0,17.0,0.0,14.0
2.555633306503296,15.0,43.0,5.0,7.0,15.0,11.0,12.0,19.0
2.5589499473571777,30.0,25.0,7.0,13.0,11.0,5.0,19.0,23.0
2.5622000694274902,0.0,25.0,8.0,9.0,17.0,11.0,37.0,16.0
2.5654499530792236,25.0,24.0,6.0,5.0,18.0,17.0,41.0,9.0
2.568700075149536,32.0,28.0,193.0,10.0,18.0,9.0,11.0,9.0
2.5719499588012695,28.0,26.0,101.0,15.0,17.0,0.0,34.0,9.0
2.575200080871582,35.0,24.0,9.0,16.0,15.0,3.0,0.0,0.0
2.578516721725464,22.0,23.0,26.0,19.0,10.0,5.0,11.0,14.0
2.5817666053771973,0.0,7.0,16.0,36.0,5.0,6.0,7.0,14.0
2.5850167274475098,15.0,15.0,0.0,48.0,21.0,7.0,17.0,13.0
2.588266611099243,5.0,27.0,12.0,32.0,79.0,15.0,24.0,0.0
2.5915167331695557,8.0,0.0,33.0,15.0,59.0,17.0,31.0,13.0
2.5948166847229004,10.0,6.0,16.0,10.0,40.0,20.0,22.0,11.0
2.598066568374634,12.0,12.0,0.0,12.0,0.0,22.0,27.0,10.0
2.6013166904449463,14.0,31.0,22.0,42.0,28.0,144.0,32.0,8.0
2.6045665740966797,7.0,24.0,0.0,47.0,12.0,83.0,12.0,6.0
2.607816696166992,0.0,10.0,12.0,53.0,6.0,22.0,739.0,11.0
2.611133337020874,0.0,12.0,22.0,26.0,0.0,19.0,375.0,12.0
2.6143832206726074,7.0,16.0,33.0,0.0,19.0,49.0,10.0,13.0
2.61763334274292,9.0,21.0,28.0,31.0,23.0,38.0,26.0,12.0
2.6208832263946533,10.0,22.0,29.0,39.0,26.0,8.0,5.0,24.0
2.624133348464966,8.0,5.0,35.0,35.0,25.0,12.0,11.0,36.0
2.6273999214172363,10.0,34.0,37.0,45.0,23.0,16.0,17.0,31.0
2.630650043487549,20.0,22.0,30.0,12.0,14.0,14.0,18.0,25.0
2.6338999271392822,30.0,20.0,26.0,20.0,5.0,12.0,18.0,7.0
2.6371500492095947,49.0,17.0,22.0,27.0,8.0,14.0,5.0,27.0
2.640399932861328,42.0,16.0,28.0,5.0,6.0,16.0,13.0,10.0
2.64371657371521,37.0,15.0,34.0,5.0,11.0,10.0,12.0,12.0
2.6469666957855225,32.0,19.0,16.0,5.0,13.0,8.0,0.0,13.0
2.650216579437256,36.0,22.0,17.0,6.0,31.0,5.0,7.0,12.0
2.6534667015075684,20.0,20.0,27.0,7.0,21.0,14.0,14.0,9.0
2.6567165851593018,5.0,18.0,16.0,11.0,12.0,23.0,30.0,5.0
2.6600000858306885,5.0,5.0,5.0,40.0,45.0,24.0,21.0,0.0
2.663283348083496,3.0,27.0,24.0,40.0,34.0,30.0,37.0,34.0
2.6665332317352295,0.0,22.0,10.0,33.0,5.0,8.0,26.0,27.0
2.669783353805542,5.0,16.0,13.0,26.0,5.0,10.0,15.0,5.0
2.6730332374572754,68.0,16.0,15.0,24.0,47.0,23.0,8.0,18.0
2.676283359527588,71.0,13.0,14.0,41.0,22.0,0.0,0.0,31.0
2.6795499324798584,19.0,14.0,7.0,13.0,18.0,24.0,3.0,31.0
2.682800054550171,6.0,13.0,11.0,34.0,0.0,35.0,5.0,5.0
2.6860499382019043,37.0,12.0,14.0,23.0,12.0,28.0,0.0,24.0
2.689300060272217,26.0,17.0,13.0,30.0,23.0,39.0,0.0,21.0
2.69254994392395,22.0,20.0,11.0,36.0,0.0,22.0,0.0,11.0
2.695866584777832,5.0,17.0,12.0,43.0,20.0,38.0,10.0,0.0
2.6991167068481445,23.0,14.0,12.0,12.0,9.0,25.0,30.0,7.0
2.702366590499878,23.0,5.0,16.0,5.0,0.0,12.0,43.0,12.0
2.7056167125701904,25.0,17.0,14.0,33.0,40.0,14.0,27.0,16.0
2.708866596221924,14.0,0.0,12.0,0.0,27.0,0.0,7.0,22.0
2.7121832370758057,12.0,35.0,9.0,11.0,32.0,29.0,21.0,19.0
2.715433359146118,10.0,47.0,5.0,22.0,5.0,25.0,36.0,15.0
2.7186832427978516,5.0,18.0,79.0,32.0,11.0,21.0,25.0,15.0
2.721933364868164,32.0,20.0,61.0,0.0,0.0,26.0,31.0,10.0
2.7251832485198975,25.0,43.0,42.0,34.0,39.0,38.0,37.0,11.0
2.7284998893737793,5.0,0.0,36.0,29.0,35.0,5.0,28.0,11.0
2.731750011444092,17.0,17.0,5.0,26.0,30.0,24.0,11.0,33.0
2.734999895095825,27.0,13.0,28.0,23.0,24.0,5.0,30.0,38.0
2.7382500171661377,30.0,10.0,15.0,20.0,8.0,13.0,8.0,30.0
2.741499900817871,5.0,6.0,34.0,17.0,6.0,20.0,22.0,10.0
2.744800090789795,17.0,20.0,9.0,24.0,29.0,0.0,16.0,13.0
2.7480499744415283,18.0,29.0,55.0,32.0,14.0,40.0,9.0,10.0
2.751300096511841,6.0,37.0,32.0,5.0,0.0,24.0,63.0,0.0
2.754549980163574,0.0,7.0,8.0,51.0,10.0,8.0,80.0,8.0
2.7578001022338867,5.0,20.0,31.0,38.0,30.0,15.0,15.0,15.0
2.76104998588562,10.0,30.0,15.0,12.0,28.0,10.0,66.0,16.0
2.764366626739502,17.0,6.0,39.0,16.0,17.0,10.0,6.0,5.0
2.7676167488098145,22.0,18.0,25.0,15.0,6.0,10.0,28.0,6.0
2.770866632461548,25.0,28.0,10.0,20.0,17.0,0.0,18.0,13.0
2.7741167545318604,25.0,37.0,18.0,23.0,0.0,20.0,22.0,21.0
2.7773666381835938,24.0,27.0,16.0,26.0,5.0,22.0,30.0,28.0
2.7806665897369385,10.0,5.0,8.0,22.0,9.0,0.0,21.0,6.0
2.783916711807251,13.0,5.0,4.0,18.0,0.0,11.0,13.0,21.0
2.7871832847595215,16.0,5.0,0.0,7.0,14.0,32.0,14.0,36.0
2.790433406829834,15.0,0.0,5.0,5.0,16.0,23.0,15.0,39.0
2.7936832904815674,10.0,5.0,21.0,13.0,5.0,5.0,22.0,13.0
2.796966552734375,19.0,0.0,16.0,17.0,0.0,0.0,29.0,8.0
2.8002166748046875,28.0,17.0,10.0,20.0,48.0,34.0,25.0,25.0
2.803466558456421,36.0,22.0,24.0,0.0,495.0,30.0,22.0,20.0
2.8067166805267334,21.0,26.0,21.0,0.0,247.0,17.0,10.0,17.0
2.809966564178467,15.0,28.0,17.0,19.0,0.0,28.0,7.0,13.0
2.8132667541503906,20.0,17.0,31.0,27.0,535.0,38.0,13.0,21.0
2.816516637802124,18.0,22.0,44.0,18.0,1070.0,1070.0,18.0,29.0
2.8197667598724365,10.0,28.0,34.0,10.0,857.0,1145.0,12.0,5.0
2.82301664352417,18.0,19.0,24.0,34.0,1043.0,15.0,5.0,8.0
2.8262667655944824,19.0,20.0,15.0,33.0,1079.0,7.0,32.0,5.0
2.829566717147827,19.0,20.0,21.0,38.0,1457.0,26.0,26.0,794.0
2.8328332901000977,10.0,26.0,9.0,37.0,1835.0,21.0,16.0,623.0
2.83608341217041,0.0,24.0,23.0,686.0,1241.0,16.0,5.0,19.0
2.8393332958221436,24.0,22.0,20.0,346.0,647.0,13.0,666.0,5.0
2.842583417892456,22.0,28.0,17.0,5.0,1711.0,614.0,734.0,13.0
2.8458333015441895,19.0,34.0,12.0,53.0,1736.0,313.0,579.0,47.0
2.849100112915039,10.0,10.0,7.0,25.0,16.0,11.0,3467.0,521.0
2.8523666858673096,14.0,17.0,0.0,35.0,1357.0,25.0,4778.0,516.0
2.855616569519043,17.0,20.0,12.0,16.0,2443.0,11.0,7150.0,906.0
2.8588666915893555,10.0,7.0,16.0,24.0,1975.0,19.0,9608.0,824.0
2.862116575241089,20.0,21.0,8.0,7.0,11.0,17.0,15848.0,568.0
2.8654167652130127,31.0,22.0,0.0,15.0,2317.0,56.0,24720.0,49.0
2.868666648864746,23.0,12.0,19.0,6.0,50.0,35.0,29008.0,1477.0
2.8719167709350586,15.0,12.0,5.0,0.0,30.0,15.0,36592.0,2407.0
2.875166654586792,25.0,12.0,3.0,10.0,57.0,22.0,41648.0,2998.0
2.8784167766571045,36.0,11.0,0.0,19.0,7.0,6.0,49232.0,3590.0
2.8817334175109863,47.0,11.0,28.0,12.0,10.0,0.0,45472.0,2635.0
2.8849833011627197,7.0,11.0,25.0,5.0,18.0,6.0,50272.0,3938.0
2.8882334232330322,33.0,11.0,32.0,5.0,9.0,26.0,51024.0,3520.0
2.8914833068847656,22.0,11.0,20.0,11.0,0.0,35.0,50912.0,3102.0
2.894733428955078,0.0,15.0,20.0,17.0,15.0,44.0,50784.0,4501.0
2.89805006980896,44.0,18.0,14.0,17.0,11.0,12.0,49648.0,6633.0
2.9012999534606934,51.0,19.0,31.0,34.0,6.0,0.0,48512.0,5617.0
2.904550075531006,36.0,19.0,31.0,32.0,15.0,32.0,38512.0,506.0
2.9077999591827393,5.0,12.0,31.0,49.0,22.0,24.0,30724.0,551.0
2.9110500812530518,23.0,10.0,18.0,30.0,17.0,17.0,25792.0,3412.0
2.9143500328063965,22.0,21.0,28.0,11.0,12.0,18.0,17472.0,1765.0
2.91759991645813,16.0,0.0,11.0,34.0,6.0,5.0,14292.0,1005.0
2.9208500385284424,26.0,25.0,25.0,0.0,19.0,7.0,9816.0,811.0
2.924099922180176,20.0,18.0,0.0,17.0,20.0,6.0,9984.0,947.0
2.9273500442504883,13.0,11.0,25.0,23.0,11.0,26.0,3473.0,668.0
2.930633306503296,16.0,10.0,23.0,19.0,20.0,19.0,2182.0,389.0
2.9339165687561035,0.0,12.0,0.0,39.0,16.0,11.0,3590.0,77.0
2.937166690826416,11.0,5.0,8.0,40.0,12.0,15.0,2161.0,26.0
2.9404165744781494,12.0,8.0,0.0,43.0,12.0,8.0,1250.0,54.0
2.943666696548462,6.0,10.0,16.0,46.0,12.0,5.0,49.0,28.0
2.9469165802001953,24.0,10.0,16.0,0.0,13.0,5.0,33.0,23.0
2.950183391571045,40.0,12.0,26.0,42.0,5.0,5.0,21.0,29.0
2.9534332752227783,37.0,15.0,0.0,14.0,10.0,3.0,28.0,26.0
2.956683397293091,28.0,17.0,41.0,23.0,0.0,0.0,34.0,158.0
2.959933280944824,34.0,0.0,28.0,12.0,0.0,9.0,32.0,149.0
2.9631834030151367,27.0,19.0,14.0,5.0,17.0,17.0,28.0,81.0
2.9665000438690186,26.0,23.0,21.0,23.0,15.0,12.0,21.0,13.0
2.969749927520752,5.0,27.0,25.0,0.0,15.0,6.0,13.0,10.0
2.9730000495910645,23.0,16.0,29.0,7.0,14.0,3.0,26.0,44.0
2.976249933242798,0.0,18.0,16.0,7.0,10.0,0.0,6.0,21.0
2.9795000553131104,11.0,19.0,30.0,6.0,15.0,6.0,19.0,37.0
2.982816696166992,17.0,17.0,24.0,3.0,19.0,33.0,15.0,5.0
2.9860665798187256,10.0,15.0,11.0,0.0,7.0,30.0,15.0,50.0
2.989316701889038,17.0,12.0,43.0,28.0,5.0,26.0,29.0,0.0
2.9925665855407715,13.0,15.0,33.0,23.0,6.0,24.0,21.0,0.0
2.995816707611084,13.0,17.0,15.0,19.0,7.0,21.0,14.0,11.0
