,317.1099853515625,318.1099853515625,319.1099853515625,320.1099853515625,321.1099853515625,322.1099853515625,323.1099853515625
0.6015166640281677,5.0,133.0,35.0,15.0,18.0,131.0,0.0
0.6030333042144775,95.0,24.0,46.0,19.0,13.0,31.0,284.0
0.6045500040054321,23.0,0.0,52.0,21.0,5.0,48.0,7.0
0.6060666441917419,23.0,22.0,5.0,10.0,12.0,20.0,32.0
0.6075833439826965,19.0,31.0,5.0,10.0,9.0,44.0,23.0
0.6090999841690063,21.0,10.0,15.0,10.0,5.0,0.0,22.0
0.6106166839599609,22.0,0.0,9.0,10.0,10.0,50.0,30.0
0.6121333241462708,0.0,12.0,18.0,23.0,5.0,0.0,35.0
0.6136500239372253,15.0,23.0,35.0,21.0,9.0,23.0,0.0
0.6151666641235352,17.0,22.0,36.0,0.0,13.0,13.0,5.0
0.616683304309845,19.0,0.0,18.0,10.0,15.0,26.0,25.0
0.6182666420936584,25.0,19.0,33.0,5.0,8.0,12.0,9.0
0.619783341884613,31.0,20.0,20.0,18.0,0.0,37.0,22.0
0.6212999820709229,7.0,21.0,14.0,23.0,4.0,0.0,12.0
0.6228166818618774,15.0,0.0,21.0,24.0,7.0,5.0,15.0
0.6243333220481873,8.0,5.0,23.0,25.0,6.0,22.0,18.0
0.6258500218391418,0.0,10.0,24.0,11.0,5.0,18.0,12.0
0.6273666620254517,23.0,0.0,12.0,0.0,12.0,42.0,15.0
0.6288833618164062,25.0,5.0,5.0,47.0,18.0,34.0,37.0
0.6304000020027161,18.0,28.0,33.0,32.0,23.0,16.0,39.0
0.6319166421890259,10.0,23.0,0.0,0.0,0.0,10.0,42.0
0.6334333419799805,18.0,37.0,9.0,0.0,17.0,10.0,23.0
0.635016679763794,18.0,19.0,7.0,6.0,11.0,9.0,27.0
0.6365333199501038,18.0,34.0,7.0,6.0,5.0,0.0,0.0
0.6380500197410583,7.0,48.0,6.0,5.0,22.0,8.0,28.0
0.6395666599273682,7.0,14.0,7.0,24.0,5.0,16.0,0.0
0.6410833597183228,0.0,8.0,22.0,23.0,29.0,27.0,14.0
0.6425999999046326,0.0,22.0,34.0,36.0,27.0,23.0,16.0
0.6441166400909424,0.0,0.0,30.0,5.0,33.0,19.0,22.0
0.645633339881897,5.0,10.0,33.0,5.0,16.0,13.0,22.0
0.6471499800682068,3.0,13.0,5.0,28.0,16.0,20.0,22.0
0.6486666798591614,0.0,17.0,0.0,31.0,54.0,19.0,25.0
0.6501833200454712,25.0,20.0,21.0,26.0,62.0,17.0,20.0
0.6517666578292847,23.0,16.0,0.0,14.0,5.0,0.0,15.0
0.6532833576202393,6.0,12.0,0.0,0.0,7.0,3.0,18.0
0.6547999978065491,6.0,12.0,44.0,13.0,0.0,6.0,48.0
0.6563166379928589,18.0,11.0,35.0,51.0,0.0,41.0,50.0
0.6578333377838135,0.0,12.0,5.0,39.0,0.0,33.0,5.0
0.6593499779701233,24.0,12.0,29.0,26.0,18.0,5.0,12.0
0.6608666777610779,11.0,7.0,20.0,28.0,33.0,5.0,6.0
0.6623833179473877,18.0,13.0,12.0,20.0,16.0,7.0,5.0
0.6639000177383423,28.0,24.0,20.0,14.0,0.0,11.0,33.0
0.6654166579246521,19.0,31.0,21.0,36.0,18.0,10.0,29.0
0.6669333577156067,10.0,5.0,6.0,29.0,16.0,9.0,26.0
0.6685000061988831,14.0,19.0,33.0,20.0,36.0,50.0,25.0
0.6700166463851929,17.0,7.0,5.0,39.0,31.0,44.0,23.0
0.6715333461761475,20.0,10.0,18.0,19.0,15.0,16.0,7.0
0.6730499863624573,21.0,20.0,23.0,18.0,19.0,29.0,0.0
0.6745666861534119,0.0,31.0,5.0,23.0,23.0,8.0,20.0
0.6760833263397217,51.0,26.0,5.0,32.0,5.0,5.0,7.0
0.6776000261306763,42.0,0.0,12.0,40.0,23.0,0.0,13.0
0.6791166663169861,0.0,16.0,17.0,76.0,192.0,0.0,37.0
0.6806333065032959,6.0,8.0,21.0,55.0,99.0,16.0,60.0
0.6821500062942505,10.0,0.0,13.0,35.0,5.0,18.0,44.0
0.6836666464805603,10.0,8.0,19.0,10.0,11.0,19.0,38.0
0.6852499842643738,9.0,15.0,20.0,22.0,23.0,10.0,39.0
0.6867666840553284,21.0,15.0,19.0,34.0,36.0,5.0,21.0
0.6882833242416382,22.0,37.0,5.0,29.0,43.0,0.0,5.0
0.6898000240325928,25.0,25.0,7.0,49.0,30.0,0.0,51.0
0.6913166642189026,24.0,14.0,9.0,59.0,17.0,0.0,33.0
0.6928333044052124,23.0,18.0,11.0,54.0,63.0,9.0,15.0
0.694350004196167,5.0,29.0,12.0,17.0,37.0,18.0,8.0
0.6958666443824768,5.0,27.0,13.0,21.0,11.0,14.0,17.0
0.6973833441734314,12.0,0.0,20.0,0.0,17.0,7.0,12.0
0.6988999843597412,6.0,0.0,18.0,4.0,21.0,27.0,9.0
0.7004166841506958,0.0,0.0,16.0,7.0,25.0,24.0,5.0
0.7019666433334351,7.0,28.0,0.0,11.0,0.0,0.0,0.0
0.703499972820282,14.0,24.0,21.0,15.0,10.0,21.0,0.0
0.7050166726112366,39.0,36.0,0.0,13.0,35.0,5.0,0.0
0.7065333127975464,33.0,12.0,11.0,10.0,0.0,8.0,5.0
0.708050012588501,23.0,6.0,21.0,0.0,39.0,11.0,10.0
0.7095666527748108,30.0,17.0,16.0,0.0,18.0,24.0,11.0
0.7110833525657654,23.0,0.0,31.0,0.0,45.0,20.0,11.0
0.7125999927520752,16.0,3.0,23.0,5.0,23.0,16.0,17.0
0.7141166925430298,8.0,5.0,16.0,17.0,0.0,16.0,26.0
0.7156333327293396,7.0,7.0,26.0,11.0,0.0,15.0,36.0
0.7171499729156494,9.0,11.0,14.0,5.0,6.0,21.0,27.0
0.718666672706604,11.0,15.0,12.0,7.0,5.0,0.0,15.0
0.7202500104904175,0.0,8.0,0.0,6.0,25.0,32.0,23.0
0.7217666506767273,5.0,0.0,11.0,5.0,22.0,27.0,33.0
0.7232833504676819,3.0,6.0,8.0,0.0,18.0,42.0,35.0
0.7247999906539917,0.0,8.0,5.0,9.0,17.0,22.0,35.0
0.7263166904449463,10.0,27.0,7.0,33.0,10.0,8.0,18.0
0.7278333306312561,8.0,16.0,9.0,37.0,36.0,27.0,18.0
0.7293499708175659,5.0,5.0,15.0,25.0,31.0,32.0,0.0
0.7308666706085205,5.0,0.0,25.0,21.0,17.0,5.0,11.0
0.7323833107948303,10.0,0.0,25.0,16.0,19.0,35.0,18.0
0.7339000105857849,10.0,0.0,13.0,5.0,7.0,7.0,23.0
0.7354166507720947,10.0,3.0,24.0,15.0,0.0,10.0,5.0
0.7369833588600159,11.0,5.0,0.0,8.0,16.0,17.0,8.0
0.7384999990463257,12.0,3.0,11.0,0.0,17.0,0.0,10.0
0.7400166392326355,19.0,0.0,21.0,14.0,24.0,30.0,44.0
0.7415333390235901,29.0,6.0,14.0,0.0,31.0,18.0,42.0
0.7430499792098999,31.0,3.0,26.0,16.0,0.0,14.0,11.0
0.7445666790008545,0.0,0.0,38.0,23.0,16.0,10.0,56.0
0.7460833191871643,25.0,0.0,0.0,31.0,28.0,11.0,44.0
0.7476000189781189,19.0,3.0,24.0,17.0,19.0,11.0,5.0
0.7491166591644287,13.0,5.0,47.0,19.0,10.0,0.0,50.0
0.7506333589553833,41.0,8.0,42.0,5.0,5.0,3.0,12.0
0.7521499991416931,51.0,11.0,0.0,18.0,0.0,6.0,21.0
0.7537333369255066,61.0,16.0,8.0,20.0,10.0,6.0,15.0
0.7552499771118164,17.0,19.0,5.0,22.0,6.0,6.0,13.0
0.756766676902771,61.0,30.0,9.0,26.0,11.0,16.0,10.0
0.7582833170890808,7.0,27.0,19.0,9.0,16.0,8.0,14.0
0.7598000168800354,14.0,24.0,16.0,14.0,14.0,0.0,14.0
0.7613166570663452,12.0,17.0,12.0,18.0,5.0,16.0,0.0
0.7628333568572998,19.0,10.0,21.0,12.0,13.0,29.0,24.0
0.7643499970436096,17.0,14.0,22.0,5.0,16.0,23.0,24.0
0.7658666372299194,12.0,0.0,17.0,17.0,22.0,0.0,46.0
0.767383337020874,0.0,12.0,24.0,41.0,13.0,20.0,71.0
0.7688999772071838,18.0,34.0,31.0,30.0,28.0,17.0,76.0
0.770466685295105,22.0,42.0,0.0,19.0,30.0,12.0,13.0
0.7719833254814148,5.0,50.0,0.0,15.0,21.0,50.0,27.0
0.7735000252723694,33.0,41.0,5.0,10.0,15.0,46.0,26.0
0.7750166654586792,40.0,30.0,10.0,30.0,8.0,5.0,16.0
0.776533305644989,8.0,15.0,25.0,21.0,43.0,16.0,15.0
0.7780500054359436,35.0,0.0,20.0,13.0,36.0,6.0,41.0
0.7795666456222534,5.0,4.0,15.0,24.0,12.0,10.0,37.0
0.781083345413208,5.0,7.0,25.0,28.0,51.0,13.0,22.0
0.7825999855995178,17.0,15.0,25.0,31.0,8.0,13.0,45.0
0.7841166853904724,50.0,18.0,24.0,11.0,7.0,6.0,45.0
0.7856500148773193,39.0,12.0,0.0,5.0,6.0,31.0,7.0
0.7872166633605957,12.0,8.0,19.0,41.0,21.0,25.0,12.0
0.7887333035469055,23.0,0.0,11.0,70.0,658.0,0.0,5.0
0.7902500033378601,41.0,10.0,717.0,2252.0,1181.0,554.0,0.0
0.7917666435241699,12.0,5430.0,8804.0,11364.0,5532.0,2334.0,2057.0
0.7932833433151245,0.0,21368.0,25480.0,38080.0,24860.0,8408.0,2427.0
0.7947999835014343,14.0,26808.0,43536.0,75200.0,32612.0,24928.0,8700.0
0.7963166832923889,5.0,53424.0,119936.0,113632.0,101952.0,36048.0,9352.0
0.7978333234786987,0.0,79600.0,157824.0,156864.0,116576.0,64304.0,13416.0
0.7993500232696533,6.0,111552.0,208640.0,222016.0,157760.0,75888.0,22224.0
0.8008666634559631,12.0,152832.0,281280.0,298304.0,187008.0,66048.0,20236.0
0.802383303642273,32.0,134592.0,259072.0,302016.0,206336.0,88688.0,14824.0
0.8039500117301941,39.0,147712.0,307200.0,335168.0,213440.0,99504.0,16556.0
0.8054666519165039,33.0,178048.0,347584.0,355136.0,220544.0,90016.0,19360.0
0.8069833517074585,27.0,179200.0,342656.0,383232.0,238080.0,84080.0,20796.0
0.8084999918937683,31.0,166144.0,337728.0,385600.0,231808.0,102784.0,22228.0
0.8100166916847229,35.0,160896.0,375360.0,353472.0,254592.0,99840.0,21244.0
0.8115333318710327,47.0,167360.0,376832.0,398912.0,266944.0,102352.0,20260.0
0.8130499720573425,59.0,165376.0,333376.0,413888.0,261312.0,104640.0,17880.0
0.8145666718482971,71.0,163328.0,350528.0,391168.0,266304.0,92656.0,15500.0
0.8160833120346069,53.0,166912.0,298240.0,386240.0,250432.0,91040.0,24180.0
0.8176000118255615,33.0,161856.0,366848.0,370880.0,232064.0,98336.0,23416.0
0.8191166520118713,51.0,161088.0,334464.0,336832.0,236800.0,93712.0,20676.0
0.8206833600997925,91.0,160384.0,338560.0,326848.0,224320.0,97568.0,25256.0
0.8222166895866394,76.0,149760.0,272768.0,317376.0,210240.0,72096.0,25492.0
0.8237333297729492,24.0,121184.0,253696.0,275072.0,159808.0,85200.0,10824.0
0.8252500295639038,44.0,133568.0,265216.0,271232.0,170496.0,61840.0,16328.0
0.8267666697502136,64.0,113120.0,220736.0,238528.0,136192.0,54272.0,10060.0
0.8282833099365234,37.0,128192.0,169472.0,177600.0,127664.0,52816.0,9072.0
0.829800009727478,40.0,84032.0,169152.0,167104.0,115584.0,36832.0,9580.0
0.8313166499137878,20.0,72992.0,154240.0,152832.0,89504.0,34288.0,8033.0
0.8328333497047424,42.0,68448.0,99456.0,111328.0,75120.0,31384.0,6486.0
0.8343499898910522,54.0,57568.0,83344.0,103200.0,79040.0,24900.0,3207.0
0.8358666896820068,38.0,36080.0,66144.0,85152.0,48304.0,14112.0,3674.0
0.8373833298683167,21.0,21496.0,65216.0,53264.0,40576.0,18264.0,796.0
0.838949978351593,14.0,23896.0,47904.0,51904.0,28328.0,11104.0,1585.0
0.8404666781425476,0.0,12800.0,33248.0,44368.0,26248.0,13564.0,4017.0
0.8419833183288574,23.0,16088.0,26876.0,26752.0,18716.0,6379.0,3499.0
0.843500018119812,33.0,9568.0,22420.0,27836.0,16816.0,5270.0,2474.0
0.8450166583061218,0.0,9016.0,19072.0,26796.0,11264.0,2105.0,0.0
0.8465333580970764,23.0,7349.0,16424.0,15276.0,8360.0,2501.0,67.0
0.8480499982833862,37.0,7145.0,10420.0,14580.0,8484.0,3460.0,1575.0
0.849566638469696,29.0,5611.0,9328.0,10928.0,5934.0,3657.0,999.0
0.8510833382606506,20.0,3985.0,10160.0,8183.0,5407.0,3546.0,1894.0
0.8525999784469604,35.0,5413.0,11968.0,5253.0,2364.0,3434.0,1765.0
0.854116678237915,6.0,5341.0,6278.0,9548.0,6313.0,7.0,1104.0
0.8557000160217285,5.0,1771.0,5448.0,7091.0,7627.0,680.0,1309.0
0.8572166562080383,5.0,3636.0,9424.0,7277.0,7815.0,1235.0,0.0
0.8587333559989929,5.0,1138.0,8046.0,7889.0,7670.0,2894.0,21.0
0.8602499961853027,13.0,1208.0,5303.0,4742.0,4550.0,2495.0,1367.0
0.8617666959762573,22.0,2682.0,5164.0,6951.0,1835.0,1630.0,6.0
0.8632833361625671,14.0,2483.0,5025.0,4807.0,40.0,1299.0,11.0
0.864799976348877,6.0,1311.0,4460.0,6057.0,986.0,250.0,21.0
0.8663166761398315,27.0,2318.0,3896.0,4564.0,4708.0,1289.0,356.0
0.8678333163261414,16.0,2225.0,4609.0,6941.0,3671.0,34.0,181.0
0.869350016117096,5.0,2132.0,4131.0,2266.0,3116.0,2040.0,6.0
0.8708666563034058,0.0,2985.0,3652.0,6079.0,4217.0,1020.0,15.0
0.8724499940872192,16.0,2604.0,3948.0,3283.0,3234.0,0.0,24.0
0.8739666938781738,24.0,2222.0,4244.0,2855.0,2251.0,1996.0,6.0
0.8754833340644836,20.0,1594.0,4370.0,3931.0,1593.0,2740.0,9.0
0.8769999742507935,13.0,519.0,4496.0,3015.0,3717.0,716.0,12.0
0.878516674041748,5.0,2389.0,2500.0,2035.0,2897.0,1106.0,15.0
0.8800333142280579,7.0,4133.0,3974.0,2619.0,2078.0,1642.0,15.0
0.8815500140190125,9.0,3091.0,19.0,4047.0,165.0,1179.0,23.0
0.8830666542053223,43.0,1213.0,3662.0,5476.0,1564.0,19.0,31.0
0.8845833539962769,55.0,609.0,1871.0,5395.0,785.0,18.0,26.0
0.8860999941825867,0.0,1912.0,1300.0,856.0,7.0,17.0,21.0
0.8876166939735413,9.0,948.0,3920.0,2295.0,1733.0,347.0,13.0
0.8891833424568176,17.0,17.0,1832.0,4914.0,1404.0,191.0,5.0
0.8906999826431274,19.0,1062.0,6147.0,2085.0,1076.0,35.0,0.0
0.892216682434082,21.0,1029.0,4459.0,3975.0,1634.0,35.0,15.0
0.8937333226203918,11.0,995.0,1186.0,4233.0,1537.0,17.0,317.0
0.8952500224113464,0.0,2046.0,3879.0,3026.0,1440.0,0.0,177.0
0.8967666625976562,8.0,1864.0,3005.0,309.0,426.0,1389.0,37.0
0.8982833623886108,17.0,933.0,2346.0,4636.0,504.0,1841.0,23.0
0.8998000025749207,27.0,3085.0,888.0,1239.0,258.0,498.0,10.0
0.9013166427612305,37.0,42.0,3209.0,2692.0,13.0,0.0,18.0
0.9028333425521851,31.0,20.0,1216.0,1665.0,1826.0,339.0,15.0
0.9043499827384949,31.0,1755.0,2224.0,2644.0,1579.0,55.0,51.0
0.9059333205223083,10.0,872.0,575.0,682.0,1482.0,47.0,42.0
0.9074500203132629,7.0,2233.0,2543.0,1821.0,1043.0,39.0,33.0
0.9089666604995728,13.0,1509.0,2320.0,2959.0,2786.0,550.0,24.0
0.9104833602905273,31.0,287.0,3002.0,2713.0,2502.0,709.0,20.0
0.9120000004768372,49.0,2314.0,845.0,115.0,1320.0,24.0,15.0
0.913516640663147,45.0,1356.0,932.0,2163.0,1363.0,834.0,33.0
0.9150333404541016,56.0,1943.0,586.0,2219.0,1124.0,654.0,27.0
0.9165499806404114,5.0,756.0,1023.0,2285.0,5.0,988.0,21.0
0.918066680431366,5.0,35.0,613.0,1389.0,0.0,650.0,14.0
0.9195833206176758,24.0,1652.0,203.0,1370.0,617.0,486.0,7.0
0.9211000204086304,8.0,773.0,1054.0,520.0,332.0,6.0,28.0
0.9226666688919067,25.0,1103.0,1762.0,1169.0,47.0,1072.0,19.0
0.9241833090782166,15.0,1434.0,2482.0,1818.0,482.0,546.0,10.0
0.9257000088691711,13.0,1520.0,1636.0,2811.0,544.0,19.0,12.0
0.927216649055481,11.0,1927.0,791.0,2110.0,605.0,12.0,13.0
0.9287333488464355,16.0,61.0,1301.0,1408.0,31.0,5.0,20.0
0.9302499890327454,15.0,460.0,1894.0,1469.0,992.0,10.0,21.0
0.9317666888237,13.0,758.0,2488.0,1453.0,2105.0,15.0,21.0
0.9332833290100098,27.0,700.0,1865.0,1469.0,1436.0,203.0,13.0
0.9348000288009644,0.0,641.0,1242.0,130.0,768.0,390.0,10.0
0.9363166689872742,32.0,1333.0,1595.0,1052.0,2875.0,883.0,21.0
0.937833309173584,22.0,1673.0,1977.0,1973.0,2058.0,444.0,30.0
0.939383327960968,0.0,1352.0,2359.0,2104.0,2157.0,6.0,39.0
0.940933346748352,21.0,2311.0,2961.0,2235.0,863.0,290.0,10.0
0.9424499869346619,34.0,44.0,3774.0,664.0,670.0,5.0,9.0
0.9439666867256165,12.0,2638.0,3423.0,2070.0,648.0,18.0,7.0
0.9454833269119263,40.0,1333.0,3904.0,2016.0,1141.0,31.0,25.0
0.9470000267028809,18.0,745.0,2631.0,3232.0,1161.0,24.0,23.0
0.9485166668891907,17.0,200.0,1800.0,3454.0,1182.0,18.0,20.0
0.9500333070755005,32.0,839.0,2525.0,1935.0,52.0,309.0,6.0
0.9515500068664551,9.0,1063.0,2879.0,3750.0,892.0,599.0,59.0
0.9530666470527649,0.0,1287.0,2650.0,1523.0,1732.0,999.0,39.0
0.9545833468437195,23.0,27.0,2504.0,2408.0,747.0,666.0,20.0
0.9560999870300293,31.0,2084.0,1861.0,2871.0,1342.0,1065.0,68.0
0.9576666951179504,10.0,1408.0,18.0,1514.0,1732.0,5.0,45.0
0.9591833353042603,64.0,1442.0,0.0,3134.0,2123.0,982.0,6.0
0.9606999754905701,55.0,1306.0,2126.0,1140.0,1241.0,347.0,21.0
0.9622166752815247,32.0,1171.0,1803.0,842.0,6.0,45.0,31.0
0.9637333154678345,44.0,817.0,2889.0,545.0,998.0,692.0,36.0
0.9652500152587891,6.0,710.0,2270.0,800.0,746.0,738.0,42.0
0.9667666554450989,0.0,602.0,4434.0,2926.0,494.0,784.0,25.0
0.9682833552360535,17.0,990.0,3788.0,2585.0,1513.0,32.0,8.0
0.9697999954223633,0.0,57.0,2990.0,3919.0,2532.0,21.0,8.0
0.9713166952133179,13.0,29.0,2048.0,2794.0,2080.0,311.0,8.0
0.9728333353996277,25.0,0.0,2208.0,1669.0,1334.0,164.0,7.0
0.9744166731834412,38.0,5.0,29.0,2980.0,1920.0,17.0,5.0
0.975933313369751,35.0,738.0,1115.0,2583.0,1638.0,11.0,5.0
0.9774500131607056,33.0,843.0,1701.0,2894.0,1369.0,5.0,5.0
0.9789666533470154,32.0,948.0,1273.0,858.0,1288.0,270.0,5.0
0.98048335313797,14.0,5.0,769.0,3133.0,727.0,503.0,5.0
0.9819999933242798,17.0,23.0,1727.0,1353.0,607.0,642.0,9.0
0.9835166931152344,20.0,545.0,2285.0,1026.0,487.0,781.0,24.0
0.9850333333015442,17.0,578.0,2939.0,2314.0,478.0,41.0,37.0
0.986549973487854,14.0,528.0,2204.0,1171.0,79.0,882.0,34.0
0.9880666732788086,18.0,478.0,2235.0,451.0,357.0,533.0,32.0
0.9895833134651184,10.0,375.0,2267.0,949.0,193.0,1276.0,38.0
0.9911500215530396,10.0,464.0,2570.0,1740.0,29.0,12.0,43.0
0.9926666617393494,23.0,388.0,1897.0,2530.0,0.0,15.0,27.0
0.994183361530304,0.0,312.0,1224.0,3514.0,694.0,16.0,40.0
0.9957000017166138,12.0,32.0,1013.0,4072.0,1389.0,228.0,24.0
0.9972166419029236,40.0,243.0,821.0,2371.0,1108.0,389.0,5.0
0.9987333416938782,36.0,454.0,1137.0,1565.0,1200.0,551.0,24.0
1.000249981880188,38.0,674.0,1452.0,653.0,1292.0,290.0,6.0
1.0017666816711426,18.0,2003.0,440.0,2378.0,1176.0,150.0,11.0
1.0032833814620972,0.0,1576.0,344.0,1126.0,1238.0,11.0,15.0
1.0047999620437622,0.0,0.0,248.0,1584.0,1673.0,11.0,18.0
1.0063166618347168,0.0,23.0,1083.0,1540.0,1602.0,31.0,12.0
1.0078999996185303,0.0,43.0,2394.0,1846.0,1531.0,33.0,5.0
1.0094166994094849,10.0,1135.0,1859.0,2834.0,507.0,785.0,36.0
1.01093327999115,5.0,1438.0,13.0,2501.0,884.0,844.0,24.0
1.0124499797821045,0.0,17.0,2187.0,2168.0,703.0,12.0,11.0
1.013966679573059,15.0,40.0,2952.0,1099.0,522.0,9.0,12.0
1.0154833793640137,11.0,553.0,3888.0,1223.0,282.0,20.0,20.0
1.0169999599456787,6.0,1047.0,1490.0,2333.0,42.0,283.0,19.0
1.0185166597366333,0.0,1542.0,977.0,1364.0,202.0,156.0,19.0
1.020033359527588,19.0,1560.0,465.0,7.0,362.0,29.0,6.0
1.0215500593185425,13.0,1577.0,426.0,4157.0,728.0,185.0,23.0
1.0230666399002075,7.0,134.0,388.0,3032.0,1344.0,341.0,24.0
1.0246332883834839,6.0,1644.0,8.0,1908.0,1145.0,563.0,24.0
1.0261499881744385,5.0,648.0,1380.0,858.0,946.0,364.0,38.0
1.027666687965393,18.0,327.0,1618.0,1176.0,2173.0,165.0,38.0
1.0291833877563477,18.0,6.0,1566.0,973.0,2134.0,329.0,27.0
1.0306999683380127,15.0,6.0,1647.0,2146.0,679.0,1297.0,16.0
1.0322166681289673,12.0,32.0,1729.0,2104.0,1733.0,668.0,7.0
1.0337333679199219,30.0,462.0,1368.0,2062.0,38.0,40.0,5.0
1.035249948501587,29.0,339.0,1008.0,1237.0,1695.0,21.0,21.0
1.0367666482925415,30.0,217.0,1498.0,1309.0,411.0,38.0,16.0
1.038283348083496,23.0,13.0,1629.0,1381.0,542.0,677.0,14.0
1.0398000478744507,38.0,413.0,1936.0,3317.0,11.0,768.0,11.0
1.0413833856582642,8.0,289.0,1241.0,2166.0,22.0,54.0,23.0
1.0428999662399292,21.0,164.0,547.0,1014.0,34.0,820.0,12.0
1.0444166660308838,13.0,457.0,551.0,2910.0,16.0,15.0,0.0
1.0459333658218384,13.0,243.0,791.0,3742.0,114.0,35.0,11.0
1.0474499464035034,12.0,28.0,1030.0,4988.0,211.0,10.0,0.0
1.048966646194458,18.0,105.0,1046.0,1971.0,1017.0,465.0,7.0
1.0504833459854126,22.0,696.0,1062.0,5662.0,997.0,921.0,14.0
1.0520000457763672,24.0,388.0,1380.0,11.0,595.0,825.0,7.0
1.0535166263580322,25.0,80.0,1699.0,1146.0,1201.0,62.0,10.0
1.0550333261489868,15.0,708.0,1623.0,1307.0,1772.0,30.0,22.0
1.0565500259399414,5.0,393.0,1546.0,3881.0,1694.0,100.0,35.0
1.0580999851226807,10.0,79.0,90.0,4460.0,2633.0,66.0,35.0
1.05964994430542,9.0,47.0,1627.0,2853.0,159.0,33.0,36.0
1.0611499547958374,8.0,16.0,3165.0,693.0,3379.0,221.0,0.0
1.062666654586792,13.0,160.0,3935.0,3661.0,1347.0,409.0,10.0
1.0641833543777466,18.0,303.0,1628.0,1652.0,676.0,647.0,19.0
1.0657000541687012,0.0,455.0,2748.0,2645.0,1185.0,885.0,20.0
1.0672166347503662,18.0,1109.0,42.0,4978.0,397.0,5.0,21.0
1.0687333345413208,0.0,570.0,609.0,3723.0,503.0,591.0,5.0
1.0702500343322754,27.0,32.0,1556.0,860.0,540.0,367.0,6.0
1.0717666149139404,12.0,1183.0,5.0,1334.0,577.0,633.0,3.0
1.073283314704895,0.0,299.0,1341.0,1808.0,1010.0,899.0,0.0
1.0748000144958496,35.0,875.0,3617.0,143.0,1575.0,50.0,0.0
1.076383352279663,6.0,1090.0,3157.0,677.0,1848.0,662.0,0.0
1.0779000520706177,10.0,1028.0,2223.0,3635.0,2121.0,796.0,28.0
1.0794166326522827,11.0,966.0,1234.0,2913.0,1243.0,930.0,55.0
1.0809333324432373,11.0,2370.0,1298.0,1709.0,971.0,1342.0,36.0
1.082450032234192,19.0,2807.0,3161.0,2073.0,1436.0,163.0,16.0
1.083966612815857,18.0,2190.0,2635.0,1094.0,3274.0,1088.0,30.0
1.0854833126068115,17.0,1573.0,3612.0,2169.0,3618.0,1606.0,52.0
1.0870000123977661,13.0,1820.0,4013.0,3244.0,63.0,18.0,44.0
1.0885167121887207,9.0,1571.0,4737.0,3225.0,2117.0,449.0,41.0
1.0900332927703857,18.0,1533.0,1694.0,3986.0,497.0,689.0,29.0
1.0915499925613403,26.0,779.0,3138.0,3988.0,2626.0,435.0,32.0
1.0931166410446167,31.0,2205.0,4003.0,3990.0,1403.0,261.0,54.0
1.0946333408355713,37.0,2489.0,4805.0,5359.0,1033.0,88.0,0.0
1.0961500406265259,29.0,700.0,2618.0,5086.0,2949.0,12.0,22.0
1.097666621208191,24.0,1429.0,4845.0,6369.0,1811.0,6.0,24.0
1.0991833209991455,19.0,855.0,1001.0,3050.0,2731.0,0.0,25.0
1.1007000207901,0.0,798.0,3898.0,4601.0,1216.0,965.0,15.0
1.1022167205810547,11.0,414.0,3104.0,5155.0,3915.0,836.0,11.0
1.1037333011627197,39.0,30.0,2985.0,3037.0,3138.0,706.0,10.0
1.1052500009536743,30.0,523.0,1662.0,1262.0,2817.0,259.0,5.0
1.106766700744629,38.0,633.0,2768.0,2501.0,1129.0,1638.0,0.0
1.108283281326294,10.0,744.0,2719.0,2322.0,2019.0,1459.0,18.0
1.1098666191101074,5.0,728.0,2836.0,3432.0,2699.0,20.0,16.0
1.111383318901062,15.0,655.0,2953.0,3614.0,3379.0,21.0,27.0
1.1129000186920166,15.0,563.0,2230.0,2947.0,3112.0,584.0,0.0
1.1144167184829712,30.0,471.0,4846.0,2629.0,2947.0,770.0,5.0
1.1159332990646362,20.0,1269.0,4252.0,2312.0,2782.0,722.0,0.0
1.1174499988555908,11.0,1757.0,4486.0,2973.0,1824.0,978.0,22.0
1.1189666986465454,6.0,1579.0,3971.0,3120.0,1971.0,1161.0,26.0
1.1204832792282104,0.0,1987.0,3404.0,2377.0,2119.0,1344.0,30.0
1.121999979019165,3.0,2528.0,1100.0,4489.0,1943.0,341.0,16.0
1.1235166788101196,5.0,2742.0,2653.0,4373.0,2868.0,619.0,20.0
1.1250333786010742,9.0,747.0,4483.0,1491.0,3794.0,1029.0,24.0
1.1266167163848877,13.0,465.0,4659.0,6363.0,608.0,516.0,19.0
1.1281332969665527,12.0,387.0,2474.0,3302.0,909.0,1698.0,14.0
1.1296499967575073,11.0,641.0,1829.0,3582.0,1728.0,1922.0,17.0
1.131166696548462,16.0,499.0,2709.0,3273.0,1437.0,804.0,20.0
1.132683277130127,13.0,373.0,3590.0,2523.0,1145.0,445.0,15.0
1.1341999769210815,10.0,809.0,2605.0,1774.0,29.0,2328.0,10.0
1.1357166767120361,9.0,1245.0,1621.0,2851.0,2353.0,1275.0,16.0
1.1372333765029907,17.0,1418.0,5228.0,2869.0,1709.0,2174.0,12.0
1.1387499570846558,29.0,1552.0,4954.0,2887.0,1258.0,2183.0,6.0
1.1402666568756104,31.0,1471.0,4929.0,2614.0,1568.0,2193.0,50.0
1.141783356666565,33.0,1390.0,2201.0,3860.0,1878.0,703.0,47.0
1.1433500051498413,26.0,565.0,3442.0,4601.0,1233.0,532.0,5.0
1.144866704940796,25.0,952.0,2053.0,5342.0,2477.0,1888.0,20.0
1.146383285522461,14.0,936.0,663.0,5897.0,2141.0,723.0,20.0
1.1478999853134155,22.0,919.0,3631.0,3445.0,1806.0,10.0,18.0
1.1494333744049072,30.0,3806.0,470.0,1383.0,3774.0,14.0,19.0
1.1509333848953247,20.0,4904.0,1824.0,7314.0,3328.0,912.0,19.0
1.1524499654769897,11.0,3413.0,4787.0,2611.0,1453.0,1811.0,5.0
1.1539666652679443,0.0,807.0,1983.0,7012.0,1960.0,2128.0,484.0
1.155483365058899,20.0,1464.0,4125.0,5305.0,2467.0,327.0,375.0
1.156999945640564,17.0,2427.0,1217.0,5286.0,2856.0,64.0,647.0
1.1585333347320557,14.0,2829.0,1614.0,3705.0,3245.0,1127.0,0.0
1.160099983215332,10.0,3231.0,2011.0,3730.0,2481.0,771.0,41.0
1.1616166830062866,0.0,2080.0,2807.0,5844.0,2251.0,1217.0,8.0
1.1631333827972412,13.0,928.0,4114.0,5059.0,2022.0,1189.0,16.0
1.1646499633789062,14.0,3899.0,4604.0,3875.0,2663.0,1161.0,5.0
1.1661666631698608,16.0,2612.0,5183.0,1357.0,2023.0,1781.0,5.0
1.1676833629608154,5.0,865.0,4300.0,1882.0,2605.0,373.0,17.0
1.1691999435424805,13.0,2781.0,3417.0,2407.0,2563.0,1597.0,608.0
1.170716643333435,17.0,2874.0,3558.0,5387.0,3770.0,25.0,309.0
1.1722333431243896,20.0,1144.0,3651.0,6504.0,3615.0,763.0,10.0
1.1737500429153442,18.0,1022.0,3743.0,2881.0,3460.0,543.0,38.0
1.1752666234970093,14.0,2027.0,4213.0,3407.0,1215.0,75.0,0.0
1.1768333911895752,10.0,2788.0,4128.0,4715.0,1608.0,58.0,19.0
1.1783666610717773,8.0,2081.0,4731.0,1222.0,882.0,67.0,39.0
1.179883360862732,5.0,1687.0,6778.0,4095.0,1797.0,1973.0,17.0
1.181399941444397,5.0,1292.0,6248.0,2079.0,2713.0,1886.0,24.0
1.1829166412353516,15.0,2727.0,4709.0,5673.0,4498.0,18.0,31.0
1.1844333410263062,24.0,2574.0,4670.0,5650.0,3964.0,2170.0,10.0
1.1859500408172607,33.0,2420.0,2649.0,5698.0,1744.0,2067.0,21.0
1.1874666213989258,33.0,2604.0,6093.0,3446.0,3104.0,2230.0,17.0
1.1889833211898804,5.0,2788.0,7524.0,4688.0,3339.0,1748.0,522.0
1.190500020980835,16.0,2360.0,6096.0,4001.0,2066.0,1266.0,625.0
1.1920167207717896,27.0,1933.0,4236.0,4060.0,4099.0,5.0,40.0
1.1935333013534546,13.0,2046.0,8668.0,4118.0,3544.0,2854.0,6.0
1.195116639137268,33.0,2160.0,4551.0,3768.0,2955.0,1646.0,7.0
1.1966333389282227,34.0,632.0,4565.0,4583.0,2366.0,2711.0,4.0
1.1981500387191772,15.0,24.0,5184.0,5398.0,2648.0,1513.0,0.0
1.1996666193008423,25.0,919.0,4740.0,5500.0,2931.0,3117.0,10.0
1.2011833190917969,0.0,1813.0,7233.0,9920.0,2109.0,1235.0,7.0
1.2027000188827515,13.0,1240.0,7620.0,8876.0,2540.0,1887.0,5.0
1.204216718673706,7.0,667.0,3753.0,7852.0,2971.0,650.0,8.0
1.205733299255371,0.0,5018.0,6383.0,7254.0,245.0,1220.0,90.0
1.2072499990463257,4.0,4678.0,9616.0,7431.0,2075.0,1291.0,49.0
1.2087666988372803,7.0,2143.0,10820.0,7113.0,1689.0,34.0,7.0
1.2102832794189453,0.0,474.0,2257.0,4729.0,3989.0,978.0,126.0
1.2118666172027588,10.0,4558.0,6723.0,4989.0,5235.0,75.0,108.0
1.2133833169937134,17.0,2979.0,2252.0,5249.0,4069.0,697.0,90.0
1.214900016784668,9.0,3916.0,3366.0,5067.0,3716.0,502.0,51.0
1.2164167165756226,0.0,3420.0,8033.0,7328.0,3363.0,255.0,12.0
1.2179332971572876,190.0,2689.0,8576.0,7495.0,1633.0,9.0,41.0
1.2194499969482422,98.0,2691.0,3835.0,6011.0,1595.0,321.0,245.0
1.2209666967391968,6.0,2694.0,9016.0,4528.0,1558.0,634.0,135.0
1.2224832773208618,7.0,3351.0,4717.0,8276.0,2169.0,2730.0,25.0
1.2239999771118164,47.0,1135.0,6838.0,8736.0,2781.0,2457.0,32.0
1.225516676902771,15.0,2025.0,7124.0,5321.0,2342.0,1189.0,5.0
1.2270333766937256,16.0,1158.0,5898.0,6052.0,1904.0,1768.0,175.0
1.228616714477539,39.0,2468.0,4589.0,10764.0,2236.0,1996.0,100.0
1.230133295059204,31.0,2986.0,3133.0,8512.0,2567.0,1234.0,24.0
1.2316499948501587,26.0,3505.0,9436.0,6255.0,2220.0,2662.0,67.0
1.2331666946411133,33.0,3324.0,8912.0,4513.0,1873.0,1950.0,42.0
1.2346832752227783,25.0,3143.0,6416.0,4839.0,3056.0,1239.0,17.0
1.236199975013733,14.0,3278.0,8332.0,5165.0,5021.0,849.0,10.0
1.2377166748046875,43.0,3521.0,6336.0,8492.0,5575.0,459.0,19.0
1.239233374595642,5.0,1302.0,5749.0,6209.0,3372.0,1402.0,528.0
1.2407499551773071,31.0,4336.0,5162.0,3926.0,4536.0,1327.0,791.0
1.2422666549682617,5.0,2173.0,5050.0,1298.0,5993.0,1251.0,1025.0
1.2437833547592163,24.0,1674.0,4938.0,7771.0,5670.0,3490.0,34.0
1.2453666925430298,17.0,2438.0,4617.0,2493.0,5347.0,3080.0,14.0
1.2468833923339844,13.0,3202.0,4296.0,5557.0,6342.0,1262.0,0.0
1.2483999729156494,0.0,615.0,6457.0,10460.0,6385.0,4012.0,8.0
1.249916672706604,32.0,5069.0,6571.0,9188.0,5914.0,2225.0,25.0
1.2514333724975586,24.0,3887.0,6684.0,6670.0,5715.0,5209.0,68.0
1.2529499530792236,17.0,1487.0,7872.0,2552.0,5516.0,4725.0,1207.0
1.2544666528701782,46.0,4238.0,7553.0,7168.0,5200.0,1275.0,604.0
1.2559833526611328,0.0,4207.0,7496.0,8716.0,4885.0,39.0,0.0
1.2575000524520874,6.0,4177.0,6940.0,7457.0,4517.0,1273.0,0.0
1.2590166330337524,12.0,2947.0,10072.0,8664.0,5426.0,1051.0,1170.0
1.260533332824707,11.0,6800.0,9460.0,3730.0,6732.0,828.0,832.0
1.2620999813079834,12.0,7575.0,11160.0,12180.0,8039.0,2954.0,8.0
1.263616681098938,12.0,3572.0,8612.0,9848.0,8556.0,2345.0,836.0
1.2651333808898926,29.0,6034.0,6712.0,12684.0,8154.0,1737.0,1663.0
1.2666499614715576,32.0,3198.0,9192.0,13472.0,5883.0,3412.0,1698.0
1.2681666612625122,33.0,3705.0,8576.0,7113.0,2931.0,1789.0,1174.0
1.2696833610534668,34.0,3249.0,9420.0,9256.0,6965.0,2833.0,47.0
1.2711999416351318,6.0,2027.0,10104.0,7681.0,6671.0,4676.0,950.0
1.2727166414260864,5.0,2765.0,10788.0,6105.0,8960.0,40.0,82.0
1.274233341217041,5.0,3503.0,9980.0,11248.0,4043.0,1184.0,2563.0
1.2757500410079956,5.0,4579.0,8464.0,12388.0,10716.0,4119.0,2245.0
1.2772666215896606,31.0,2942.0,6951.0,12312.0,10804.0,2496.0,1763.0
1.2788166999816895,19.0,1305.0,7415.0,11564.0,4821.0,873.0,646.0
1.2803332805633545,7.0,1948.0,9704.0,7039.0,4400.0,2381.0,1091.0
1.281849980354309,58.0,2231.0,13956.0,11728.0,6022.0,1617.0,1364.0
1.2833666801452637,32.0,2514.0,14884.0,12136.0,9364.0,1109.0,1942.0
1.2848833799362183,5.0,3004.0,11156.0,7250.0,8540.0,2568.0,12.0
1.2863999605178833,41.0,3106.0,12736.0,7118.0,10160.0,2480.0,49.0
1.287916660308838,5.0,3209.0,11312.0,9524.0,9400.0,2675.0,1125.0
1.2894333600997925,33.0,3063.0,11164.0,15640.0,2562.0,2146.0,14.0
1.2909499406814575,30.0,2918.0,11016.0,15660.0,6137.0,1618.0,509.0
1.292466640472412,26.0,4299.0,8900.0,10096.0,9628.0,3183.0,18.0
1.2939833402633667,22.0,5680.0,10336.0,9068.0,8696.0,4164.0,32.0
1.2955666780471802,14.0,5973.0,11776.0,10776.0,4617.0,5145.0,959.0
1.2970833778381348,10.0,5014.0,12212.0,9684.0,8228.0,7318.0,799.0
1.2985999584197998,5.0,6314.0,13028.0,10736.0,7406.0,7006.0,555.0
1.3001166582107544,16.0,5843.0,13136.0,11788.0,6585.0,3558.0,931.0
1.301633358001709,16.0,3842.0,13244.0,11900.0,6651.0,1866.0,1307.0
1.3031500577926636,15.0,3632.0,6150.0,11184.0,6146.0,5804.0,1504.0
1.3046666383743286,0.0,4816.0,14704.0,10468.0,7042.0,6439.0,1611.0
1.3061833381652832,50.0,6000.0,16184.0,10276.0,7967.0,2198.0,899.0
1.3077000379562378,43.0,5546.0,10372.0,10088.0,8892.0,2135.0,428.0
1.3092166185379028,15.0,5392.0,14640.0,8404.0,8820.0,6278.0,1839.0
1.3107333183288574,15.0,5494.0,10040.0,11740.0,8404.0,1205.0,1408.0
1.3122832775115967,7.0,7611.0,10252.0,11440.0,10420.0,5186.0,976.0
1.3138333559036255,13.0,6889.0,14928.0,7508.0,10144.0,5734.0,964.0
1.31535005569458,18.0,6167.0,10696.0,19704.0,8316.0,1839.0,27.0
1.3168666362762451,17.0,5182.0,12828.0,21432.0,9216.0,4438.0,52.0
1.3183833360671997,22.0,2816.0,13596.0,20640.0,10896.0,2811.0,76.0
1.3199000358581543,22.0,3654.0,14360.0,22144.0,11468.0,5572.0,38.0
1.3214166164398193,22.0,4492.0,13480.0,12920.0,12044.0,5020.0,0.0
1.322933316230774,11.0,8025.0,12600.0,12188.0,10892.0,2201.0,18.0
1.3244500160217285,25.0,7247.0,18888.0,13092.0,9604.0,4115.0,36.0
1.325966715812683,7.0,9184.0,18808.0,13640.0,8624.0,4641.0,26.0
1.3274832963943481,15.0,8268.0,14840.0,14436.0,13256.0,4473.0,17.0
1.3289999961853027,22.0,6864.0,14908.0,13736.0,13472.0,4306.0,1534.0
1.3305833339691162,10.0,8968.0,13708.0,14148.0,9204.0,2521.0,2045.0
1.3321000337600708,8.0,5757.0,13488.0,14564.0,9380.0,7375.0,1738.0
1.3336166143417358,5.0,3200.0,15272.0,10896.0,12460.0,6650.0,41.0
1.3351333141326904,19.0,3512.0,14980.0,13652.0,10532.0,2721.0,2239.0
1.336650013923645,10.0,8500.0,14876.0,16408.0,12836.0,8196.0,182.0
1.3381667137145996,0.0,10696.0,13788.0,14728.0,11056.0,5512.0,451.0
1.3396832942962646,22.0,8388.0,12704.0,13052.0,9280.0,3990.0,721.0
1.3411999940872192,16.0,11128.0,14084.0,17736.0,9876.0,4068.0,581.0
1.3427166938781738,21.0,7183.0,18020.0,18708.0,10476.0,4349.0,467.0
1.3442332744598389,0.0,11740.0,16428.0,21124.0,11292.0,4221.0,352.0
1.3457499742507935,8.0,6901.0,14836.0,12764.0,13080.0,4093.0,1186.0
1.3473166227340698,15.0,7581.0,16700.0,25968.0,12668.0,5265.0,600.0
1.3488333225250244,16.0,8260.0,18564.0,21612.0,12256.0,5306.0,13.0
1.350350022315979,14.0,12888.0,17140.0,29304.0,12748.0,5347.0,1662.0
1.3518667221069336,11.0,14664.0,15716.0,25712.0,13240.0,3423.0,1308.0
1.3533833026885986,15.0,13968.0,23296.0,22548.0,15152.0,1498.0,17.0
1.3549000024795532,18.0,9760.0,21576.0,17000.0,13684.0,5295.0,937.0
1.3564167022705078,25.0,8844.0,25376.0,29048.0,12216.0,4123.0,1847.0
1.3579332828521729,24.0,6928.0,19956.0,28452.0,12896.0,2952.0,1008.0
1.3594499826431274,22.0,8356.0,22544.0,28064.0,13576.0,5808.0,269.0
1.360966682434082,27.0,10396.0,22120.0,17568.0,10108.0,4998.0,580.0
1.3624833822250366,5.0,9064.0,16008.0,35248.0,12380.0,6647.0,793.0
1.3640333414077759,10.0,7731.0,25068.0,20228.0,14656.0,5786.0,1006.0
1.3655500411987305,15.0,8840.0,22916.0,27964.0,14868.0,6104.0,1137.0
1.3670666217803955,12.0,10864.0,25064.0,23064.0,17128.0,6423.0,1260.0
1.36858332157135,9.0,11524.0,26008.0,25912.0,16804.0,5473.0,436.0
1.3701000213623047,6.0,8188.0,27416.0,17788.0,16484.0,3931.0,1201.0
1.3716167211532593,28.0,9836.0,28068.0,29332.0,11616.0,4321.0,1966.0
1.3731333017349243,21.0,11484.0,26032.0,33072.0,23332.0,4710.0,1343.0
1.374650001525879,15.0,11628.0,28180.0,34208.0,19764.0,5331.0,602.0
1.3761667013168335,8.0,11196.0,27880.0,21632.0,24144.0,5953.0,1406.0
1.3776832818984985,0.0,10764.0,27580.0,26840.0,14392.0,5021.0,2977.0
1.3791999816894531,11.0,17892.0,28888.0,35344.0,16576.0,4090.0,3597.0
1.3808000087738037,22.0,16660.0,27992.0,29872.0,18948.0,7165.0,0.0
1.3823167085647583,33.0,12036.0,27100.0,33488.0,20596.0,6099.0,1637.0
1.3838332891464233,22.0,12436.0,24524.0,36416.0,19812.0,7651.0,582.0
1.385349988937378,11.0,12836.0,24184.0,30800.0,19028.0,8580.0,1143.0
1.3868666887283325,0.0,12244.0,37920.0,35344.0,17632.0,7651.0,1702.0
1.388383388519287,11.0,11656.0,37152.0,34240.0,16236.0,6723.0,2396.0
1.389883279800415,22.0,17616.0,33008.0,33136.0,18108.0,6252.0,2512.0
1.3913999795913696,29.0,22252.0,31804.0,35856.0,19980.0,5781.0,979.0
1.3929333686828613,36.0,19160.0,28060.0,37440.0,20252.0,9096.0,1602.0
1.3944499492645264,31.0,19420.0,33120.0,39376.0,20528.0,9016.0,2559.0
1.395966649055481,12.0,16992.0,32296.0,39760.0,20520.0,8932.0,462.0
1.3975166082382202,48.0,13448.0,31468.0,40160.0,20976.0,8460.0,1831.0
1.3990333080291748,39.0,19808.0,29176.0,33744.0,21436.0,7988.0,1906.0
1.4005500078201294,27.0,16180.0,36672.0,41024.0,20524.0,8384.0,1981.0
1.402066707611084,25.0,14652.0,46192.0,44800.0,19616.0,8780.0,1156.0
1.403583288192749,24.0,19928.0,41600.0,42784.0,21836.0,7528.0,331.0
1.4050999879837036,39.0,15440.0,42576.0,40656.0,21588.0,8187.0,3037.0
1.4066166877746582,0.0,19012.0,39792.0,33808.0,21340.0,9004.0,2120.0
1.4081333875656128,31.0,22584.0,36736.0,46656.0,25148.0,9820.0,1203.0
1.4096499681472778,5.0,21156.0,33680.0,40256.0,32960.0,12448.0,2436.0
1.4111666679382324,5.0,19220.0,43648.0,49152.0,28564.0,11976.0,2199.0
1.412683367729187,29.0,22080.0,45248.0,46624.0,24172.0,13440.0,2657.0
1.4142166376113892,33.0,20576.0,46848.0,52464.0,36672.0,12712.0,2590.0
1.4157333374023438,0.0,21416.0,55312.0,52720.0,40416.0,11984.0,2524.0
1.4172500371932983,7.0,22256.0,57040.0,52976.0,28956.0,12200.0,1759.0
1.4187666177749634,7.0,23988.0,50720.0,52480.0,37104.0,9460.0,2931.0
1.420283317565918,7.0,25716.0,57200.0,51984.0,36320.0,14812.0,2607.0
1.4218000173568726,10.0,25672.0,47696.0,52768.0,35936.0,13548.0,2906.0
1.4233167171478271,12.0,26328.0,53536.0,53568.0,37648.0,12872.0,2073.0
1.4248332977294922,35.0,26044.0,60608.0,60688.0,36992.0,13996.0,2446.0
1.4263499975204468,70.0,25760.0,48208.0,60080.0,36336.0,14760.0,2818.0
1.4278666973114014,56.0,30344.0,52720.0,59456.0,37024.0,15528.0,2345.0
1.4293832778930664,5.0,30368.0,57232.0,76816.0,40256.0,11040.0,1871.0
1.4309666156768799,10.0,30392.0,68080.0,75280.0,42976.0,12248.0,2447.0
1.4324833154678345,15.0,33296.0,62592.0,61808.0,40336.0,13452.0,2728.0
1.434000015258789,16.0,29732.0,62000.0,68544.0,44256.0,17100.0,3243.0
1.4355167150497437,16.0,26172.0,61424.0,61904.0,41920.0,16752.0,3205.0
1.4370332956314087,14.0,28184.0,80304.0,54704.0,39584.0,11060.0,3309.0
1.4385499954223633,12.0,35968.0,78128.0,76624.0,54480.0,16076.0,3581.0
1.4400666952133179,22.0,34208.0,73680.0,101088.0,52304.0,19604.0,3853.0
1.441583275794983,25.0,32432.0,76768.0,100752.0,57376.0,23136.0,4343.0
1.4430999755859375,24.0,42864.0,79840.0,91024.0,58272.0,28688.0,7942.0
1.444616675376892,22.0,40160.0,82128.0,104272.0,60112.0,26904.0,6470.0
1.4461333751678467,34.0,38512.0,106032.0,91376.0,61744.0,27152.0,4997.0
1.4477167129516602,28.0,36848.0,98384.0,89680.0,71968.0,26076.0,5406.0
1.4492332935333252,21.0,45808.0,90736.0,105536.0,75904.0,24996.0,5369.0
1.4507499933242798,28.0,54768.0,96656.0,113456.0,74176.0,24708.0,5333.0
1.4522666931152344,35.0,60544.0,102560.0,117296.0,75968.0,24416.0,6045.0
1.453783392906189,42.0,59040.0,100672.0,113216.0,63232.0,26276.0,3498.0
1.455299973487854,42.0,60288.0,118240.0,115904.0,74192.0,27108.0,6241.0
1.4568166732788086,13.0,60416.0,121968.0,118592.0,85136.0,29944.0,3241.0
1.4583333730697632,49.0,60544.0,122576.0,93696.0,88592.0,28936.0,5935.0
1.4598499536514282,45.0,64128.0,131136.0,128032.0,82880.0,27932.0,7325.0
1.4613666534423828,34.0,61488.0,127968.0,132352.0,84112.0,32044.0,4727.0
1.4628833532333374,5.0,58832.0,124032.0,124272.0,85344.0,36272.0,5279.0
1.4644666910171509,43.0,67408.0,125760.0,130352.0,80384.0,31800.0,7489.0
1.4659833908081055,27.0,65168.0,127488.0,122944.0,75424.0,27324.0,7777.0
1.4674999713897705,7.0,66592.0,108624.0,124912.0,84112.0,32256.0,11720.0
1.469016671180725,32.0,56912.0,111632.0,103552.0,80048.0,38240.0,12884.0
1.4705333709716797,22.0,69680.0,117472.0,142528.0,75984.0,36128.0,9360.0
1.4720499515533447,19.0,53936.0,120032.0,136832.0,101408.0,34448.0,10084.0
1.4735666513442993,36.0,62832.0,116480.0,145664.0,97328.0,29832.0,7237.0
1.475083351135254,20.0,61120.0,125088.0,129520.0,78640.0,34080.0,9496.0
1.4766000509262085,34.0,63872.0,120176.0,129472.0,92224.0,31060.0,8672.0
1.4781166315078735,47.0,57248.0,115264.0,120656.0,87216.0,32440.0,6938.0
1.4796333312988281,15.0,63216.0,113088.0,133504.0,87312.0,23460.0,8616.0
1.4811832904815674,23.0,64656.0,121408.0,135872.0,72000.0,28328.0,10296.0
1.482699990272522,32.0,70272.0,121328.0,138240.0,89792.0,31684.0,4147.0
1.4842166900634766,28.0,69968.0,121264.0,133440.0,87712.0,25284.0,6368.0
1.4857333898544312,24.0,66912.0,125760.0,141888.0,90144.0,33408.0,8592.0
1.4872499704360962,5.0,63872.0,130272.0,146432.0,92736.0,32364.0,10476.0
1.4887666702270508,40.0,63856.0,140928.0,150976.0,91792.0,37872.0,18576.0
1.4902833700180054,22.0,80576.0,143616.0,134656.0,90848.0,43376.0,16256.0
1.4917999505996704,61.0,76416.0,146240.0,144576.0,111120.0,45968.0,8904.0
1.493316650390625,75.0,71616.0,145792.0,176256.0,108112.0,41392.0,9808.0
1.4948333501815796,47.0,75776.0,145280.0,177664.0,109312.0,37008.0,11268.0
1.4963500499725342,20.0,79920.0,147264.0,164800.0,93152.0,46784.0,5988.0
1.4979166984558105,25.0,78144.0,149184.0,180864.0,99280.0,46576.0,8448.0
1.4994499683380127,16.0,78784.0,154752.0,159616.0,107472.0,39168.0,7988.0
1.5009666681289673,21.0,79424.0,155840.0,175936.0,97792.0,40224.0,7527.0
1.5024833679199219,18.0,65744.0,156928.0,171136.0,111792.0,42240.0,6219.0
1.503999948501587,15.0,88480.0,154944.0,170688.0,111472.0,42576.0,4912.0
1.5055166482925415,21.0,96704.0,152896.0,159168.0,113712.0,42912.0,7929.0
1.507033348083496,27.0,72992.0,155264.0,176128.0,106512.0,33600.0,10944.0
1.5085500478744507,17.0,87248.0,148544.0,154432.0,99632.0,35232.0,8968.0
1.5100666284561157,6.0,73104.0,156800.0,171200.0,102032.0,46944.0,10904.0
1.5115833282470703,21.0,74112.0,165056.0,173120.0,104432.0,45152.0,6669.0
1.513100028038025,21.0,80592.0,134080.0,171072.0,104000.0,47968.0,10216.0
1.51461660861969,5.0,69632.0,152064.0,147264.0,103552.0,39408.0,8312.0
1.5161833763122559,15.0,77600.0,132800.0,133824.0,78736.0,40496.0,8316.0
1.517699956893921,23.0,75248.0,140416.0,155392.0,96416.0,21704.0,8336.0
1.5192166566848755,17.0,66448.0,137472.0,156416.0,94736.0,31772.0,9036.0
1.52073335647583,11.0,62112.0,117232.0,121984.0,81584.0,34224.0,6187.0
1.5222666263580322,19.0,54288.0,115264.0,138752.0,83056.0,28272.0,6638.0
1.5237666368484497,28.0,70608.0,115168.0,116528.0,68416.0,35200.0,7090.0
1.5252833366394043,25.0,53680.0,126032.0,118640.0,64480.0,26848.0,3353.0
1.5268000364303589,29.0,51408.0,101280.0,112976.0,73728.0,25380.0,10000.0
1.528316617012024,14.0,51872.0,131840.0,113744.0,74432.0,32464.0,9356.0
1.5298333168029785,0.0,40624.0,98896.0,105168.0,65536.0,27500.0,1521.0
1.531350016593933,32.0,46768.0,88064.0,96752.0,59936.0,24360.0,8304.0
1.5329333543777466,25.0,42480.0,91552.0,77408.0,69008.0,18600.0,5934.0
1.5344500541687012,15.0,46016.0,77952.0,67088.0,50016.0,19264.0,626.0
1.5359666347503662,25.0,43696.0,72720.0,78800.0,48720.0,22444.0,4588.0
1.5374833345413208,31.0,33168.0,72832.0,63104.0,34832.0,16708.0,4245.0
1.5390000343322754,16.0,34464.0,72832.0,79056.0,39408.0,14408.0,2108.0
1.5405166149139404,24.0,37728.0,60304.0,67088.0,39520.0,18024.0,3564.0
1.542033314704895,33.0,34736.0,45776.0,81360.0,38544.0,13632.0,4575.0
1.5435667037963867,33.0,27932.0,52160.0,51424.0,31796.0,15784.0,3957.0
1.5450667142868042,36.0,19156.0,46832.0,39728.0,26704.0,10964.0,4881.0
1.5465832948684692,40.0,14920.0,39616.0,38576.0,35200.0,11768.0,977.0
1.5480999946594238,120.0,20728.0,44480.0,44576.0,22452.0,8062.0,2364.0
1.549649953842163,69.0,15588.0,31564.0,42208.0,18696.0,8029.0,5744.0
1.5511666536331177,18.0,16416.0,32272.0,27084.0,20476.0,9080.0,6024.0
1.5526833534240723,33.0,18620.0,33440.0,27756.0,21520.0,8640.0,677.0
1.5542000532150269,41.0,14584.0,20864.0,17808.0,22564.0,8644.0,886.0
1.555716633796692,5.0,12136.0,25032.0,24308.0,9760.0,7747.0,10.0
1.5572333335876465,0.0,14860.0,17196.0,23340.0,11884.0,7616.0,3207.0
1.558750033378601,19.0,6700.0,26792.0,16732.0,18444.0,2487.0,3168.0
1.5602666139602661,15.0,6102.0,15312.0,15952.0,12000.0,3403.0,1675.0
1.5617833137512207,10.0,10692.0,9524.0,18232.0,8904.0,3367.0,719.0
1.5633000135421753,16.0,7813.0,22372.0,17992.0,8564.0,700.0,252.0
1.5648167133331299,5.0,6347.0,15792.0,13940.0,9044.0,1616.0,503.0
1.5664000511169434,22.0,8696.0,10956.0,13172.0,2997.0,2532.0,263.0
1.5679166316986084,17.0,5543.0,13008.0,11452.0,6238.0,1247.0,22.0
1.569433331489563,13.0,5826.0,7585.0,13132.0,6028.0,1337.0,380.0
1.5709500312805176,0.0,3349.0,11008.0,10864.0,7281.0,1427.0,546.0
1.5724666118621826,25.0,5224.0,7241.0,11388.0,9168.0,1909.0,17.0
1.5739833116531372,21.0,3884.0,7458.0,9236.0,1252.0,1609.0,18.0
1.5755000114440918,16.0,2384.0,7333.0,4325.0,8936.0,1310.0,15.0
1.5770167112350464,21.0,2490.0,6283.0,6098.0,5917.0,1483.0,17.0
1.5785332918167114,19.0,1932.0,6576.0,6828.0,39.0,894.0,33.0
1.580049991607666,5.0,1373.0,6869.0,4770.0,6843.0,150.0,27.0
1.5815666913986206,32.0,1905.0,5294.0,4530.0,1391.0,1878.0,22.0
1.583133339881897,29.0,1726.0,4020.0,3637.0,859.0,626.0,29.0
1.5846500396728516,39.0,1973.0,8284.0,3892.0,4762.0,245.0,212.0
1.5861666202545166,34.0,2955.0,7925.0,4148.0,2977.0,1700.0,126.0
1.5876833200454712,16.0,2813.0,5878.0,3739.0,4352.0,24.0,40.0
1.5892000198364258,0.0,23.0,4377.0,1366.0,2324.0,72.0,37.0
1.5907167196273804,18.0,1303.0,1960.0,5334.0,4501.0,120.0,0.0
1.5922333002090454,17.0,1542.0,5130.0,3586.0,2520.0,79.0,35.0
1.59375,0.0,984.0,1359.0,3608.0,3612.0,38.0,70.0
1.5952666997909546,27.0,1413.0,2297.0,1951.0,2966.0,317.0,67.0
1.5967832803726196,0.0,708.0,4522.0,4723.0,484.0,733.0,5.0
1.5982999801635742,36.0,1184.0,1833.0,822.0,3715.0,1192.0,53.0
1.5998833179473877,23.0,1660.0,2313.0,5281.0,1324.0,745.0,17.0
1.6014000177383423,10.0,1252.0,2241.0,389.0,1908.0,1478.0,42.0
1.6029332876205444,18.0,844.0,1340.0,733.0,1096.0,0.0,12.0
1.604433298110962,15.0,1219.0,3159.0,2726.0,2786.0,13.0,0.0
1.6059499979019165,11.0,1002.0,3280.0,3952.0,1972.0,15.0,12.0
1.607466697692871,9.0,786.0,2444.0,2477.0,1159.0,19.0,12.0
1.6089832782745361,10.0,571.0,1993.0,2762.0,999.0,22.0,13.0
1.6104999780654907,10.0,268.0,2372.0,2904.0,1466.0,605.0,16.0
1.6120166778564453,15.0,521.0,1700.0,715.0,1354.0,974.0,16.0
1.6135333776474,28.0,690.0,1839.0,2118.0,1243.0,895.0,44.0
1.615049958229065,25.0,354.0,1700.0,2262.0,1786.0,785.0,40.0
1.6166000366210938,22.0,18.0,1392.0,1440.0,2329.0,7.0,37.0
1.6181166172027588,18.0,1776.0,1169.0,1202.0,170.0,15.0,29.0
1.6196333169937134,14.0,1586.0,946.0,687.0,1084.0,5.0,20.0
1.621150016784668,7.0,203.0,952.0,1194.0,2367.0,5.0,7.0
1.6226667165756226,14.0,944.0,958.0,1587.0,190.0,5.0,7.0
1.6241832971572876,20.0,1285.0,831.0,1447.0,2939.0,5.0,5.0
1.6256999969482422,25.0,1828.0,636.0,1221.0,548.0,5.0,9.0
1.6272166967391968,31.0,0.0,827.0,1186.0,1993.0,7.0,13.0
1.6287332773208618,0.0,1846.0,1203.0,1152.0,15.0,9.0,10.0
1.6302499771118164,0.0,1031.0,46.0,880.0,952.0,10.0,7.0
1.631766676902771,0.0,1143.0,920.0,608.0,1889.0,360.0,0.0
1.6333500146865845,13.0,611.0,1243.0,488.0,1579.0,879.0,22.0
1.634866714477539,12.0,22.0,80.0,1080.0,18.0,439.0,18.0
1.636383295059204,10.0,803.0,698.0,26.0,34.0,0.0,14.0
1.6378999948501587,6.0,298.0,1430.0,1340.0,2230.0,469.0,11.0
1.6394166946411133,23.0,552.0,1258.0,1020.0,1500.0,20.0,17.0
1.6409332752227783,21.0,23.0,1703.0,700.0,770.0,36.0,24.0
1.642449975013733,18.0,20.0,1701.0,0.0,384.0,41.0,25.0
1.6439666748046875,15.0,8.0,940.0,460.0,1477.0,46.0,28.0
1.645483374595642,11.0,0.0,905.0,920.0,1379.0,18.0,25.0
1.6469999551773071,18.0,22.0,428.0,1011.0,11.0,15.0,22.0
1.6485166549682617,24.0,44.0,315.0,1102.0,49.0,12.0,11.0
1.650066614151001,22.0,943.0,1633.0,898.0,643.0,840.0,0.0
1.6516000032424927,20.0,1382.0,1533.0,694.0,684.0,922.0,40.0
1.6531167030334473,23.0,929.0,1921.0,1145.0,724.0,607.0,27.0
1.6546332836151123,19.0,21.0,1567.0,740.0,1203.0,1119.0,14.0
1.656149983406067,16.0,34.0,440.0,335.0,6.0,376.0,52.0
1.6576666831970215,20.0,254.0,1164.0,1022.0,351.0,1550.0,9.0
1.659183382987976,23.0,475.0,1889.0,1210.0,591.0,2009.0,7.0
1.6606999635696411,22.0,262.0,1267.0,595.0,0.0,21.0,22.0
1.6622166633605957,21.0,49.0,645.0,1305.0,6.0,648.0,20.0
1.6637500524520874,22.0,1579.0,1016.0,802.0,11.0,2158.0,17.0
1.6652499437332153,10.0,1742.0,812.0,300.0,13.0,37.0,33.0
1.66676664352417,14.0,585.0,779.0,1664.0,15.0,560.0,17.0
1.6683499813079834,39.0,717.0,1164.0,14.0,0.0,56.0,0.0
1.669866681098938,42.0,1415.0,0.0,1522.0,446.0,32.0,5.0
1.6713833808898926,46.0,45.0,684.0,1584.0,594.0,5.0,0.0
1.6728999614715576,12.0,470.0,1322.0,688.0,10.0,11.0,11.0
1.6744166612625122,7.0,1458.0,1437.0,5.0,638.0,17.0,21.0
1.6759333610534668,15.0,993.0,1508.0,1090.0,31.0,16.0,32.0
1.6774499416351318,6.0,0.0,1578.0,51.0,533.0,24.0,33.0
1.6789666414260864,31.0,37.0,811.0,1599.0,280.0,18.0,34.0
1.680483341217041,23.0,52.0,1522.0,3416.0,27.0,11.0,35.0
1.6820000410079956,16.0,20.0,1501.0,3536.0,1187.0,19.0,26.0
1.6835166215896606,10.0,10.0,1940.0,26.0,947.0,28.0,18.0
1.6850666999816895,42.0,0.0,717.0,19.0,398.0,22.0,13.0
1.6865832805633545,35.0,1134.0,1492.0,914.0,27.0,16.0,25.0
1.688099980354309,10.0,995.0,21.0,0.0,15.0,10.0,13.0
1.6896166801452637,0.0,1461.0,64.0,26.0,8.0,27.0,9.0
1.6911333799362183,25.0,809.0,1439.0,565.0,0.0,43.0,5.0
1.6926499605178833,28.0,414.0,729.0,20.0,0.0,28.0,6.0
1.694166660308838,31.0,19.0,19.0,21.0,0.0,13.0,8.0
1.6956833600997925,22.0,267.0,18.0,21.0,6.0,0.0,31.0
1.6971999406814575,0.0,11.0,466.0,98.0,35.0,13.0,37.0
1.698716640472412,12.0,830.0,8.0,71.0,426.0,12.0,30.0
1.7002333402633667,22.0,653.0,9.0,44.0,632.0,67.0,23.0
1.7018166780471802,11.0,0.0,10.0,46.0,505.0,34.0,13.0
1.7033333778381348,10.0,5.0,17.0,48.0,36.0,0.0,19.0
1.7048499584197998,0.0,913.0,23.0,36.0,361.0,22.0,5.0
1.7063666582107544,0.0,1401.0,44.0,23.0,686.0,10.0,29.0
1.707883358001709,14.0,1148.0,59.0,6.0,353.0,38.0,27.0
1.7094000577926636,5.0,45.0,74.0,18.0,19.0,34.0,46.0
1.7109166383743286,34.0,5.0,140.0,30.0,43.0,31.0,33.0
1.7124333381652832,25.0,1533.0,953.0,20.0,24.0,31.0,0.0
1.7139500379562378,17.0,561.0,1032.0,630.0,5.0,12.0,5.0
1.7154666185379028,13.0,19.0,25.0,560.0,0.0,278.0,22.0
1.7169833183288574,18.0,21.0,37.0,384.0,297.0,147.0,5.0
1.7185499668121338,22.0,29.0,49.0,545.0,1227.0,15.0,10.0
1.7200666666030884,5.0,20.0,34.0,524.0,1572.0,37.0,23.0
1.721583366394043,12.0,29.0,18.0,13.0,12.0,23.0,22.0
1.723099946975708,5.0,38.0,38.0,55.0,1973.0,17.0,21.0
1.7246166467666626,8.0,781.0,33.0,28.0,1545.0,0.0,13.0
1.7261333465576172,11.0,396.0,532.0,0.0,5.0,25.0,16.0
1.7276500463485718,34.0,10.0,269.0,37.0,5.0,13.0,5.0
1.7291666269302368,17.0,5.0,6.0,12.0,1090.0,0.0,43.0
1.7306833267211914,0.0,18.0,396.0,15.0,808.0,8.0,40.0
1.732200026512146,5.0,15.0,626.0,18.0,398.0,273.0,16.0
1.733716607093811,20.0,18.0,985.0,583.0,19.0,147.0,0.0
1.7353166341781616,0.0,5.0,560.0,299.0,10.0,20.0,0.0
1.736816644668579,18.0,0.0,18.0,16.0,0.0,0.0,8.0
1.7383333444595337,31.0,21.0,0.0,46.0,18.0,9.0,16.0
1.7398500442504883,42.0,42.0,88.0,237.0,37.0,17.0,13.0
1.7413666248321533,5.0,37.0,177.0,119.0,36.0,5.0,25.0
1.742883324623108,30.0,32.0,88.0,0.0,5.0,11.0,29.0
1.7444000244140625,0.0,36.0,0.0,895.0,34.0,16.0,33.0
1.745916724205017,8.0,42.0,14.0,546.0,19.0,20.0,13.0
1.7474333047866821,13.0,15.0,27.0,196.0,12.0,23.0,5.0
1.7489500045776367,10.0,0.0,20.0,568.0,147.0,26.0,11.0
1.7504667043685913,7.0,50.0,13.0,219.0,282.0,29.0,16.0
1.7520166635513306,54.0,32.0,0.0,0.0,145.0,49.0,21.0
1.7535333633422852,61.0,12.0,291.0,921.0,8.0,55.0,26.0
1.7550499439239502,20.0,17.0,275.0,1040.0,4.0,30.0,25.0
1.7565666437149048,13.0,22.0,11.0,50.0,0.0,5.0,13.0
1.7580833435058594,18.0,6.0,23.0,634.0,5.0,12.0,23.0
1.759600043296814,15.0,37.0,14.0,622.0,5.0,18.0,34.0
1.761116623878479,19.0,25.0,5.0,479.0,5.0,26.0,5.0
1.7626333236694336,19.0,14.0,25.0,10.0,5.0,22.0,0.0
1.7641500234603882,18.0,542.0,46.0,35.0,5.0,17.0,5.0
1.7656667232513428,12.0,282.0,34.0,81.0,11.0,12.0,14.0
1.7671833038330078,5.0,21.0,22.0,54.0,17.0,6.0,7.0
1.7687666416168213,8.0,55.0,31.0,27.0,28.0,15.0,0.0
1.7702833414077759,10.0,45.0,39.0,14.0,22.0,6.0,597.0
1.7718000411987305,0.0,35.0,33.0,0.0,15.0,15.0,312.0
1.7733166217803955,21.0,31.0,27.0,8.0,25.0,30.0,27.0
1.77483332157135,17.0,26.0,27.0,0.0,35.0,24.0,7.0
1.7763500213623047,5.0,33.0,27.0,17.0,5.0,10.0,0.0
1.7778667211532593,0.0,39.0,5.0,9.0,9.0,11.0,3.0
1.7793833017349243,28.0,24.0,25.0,0.0,12.0,11.0,5.0
1.780900001525879,19.0,10.0,0.0,7.0,14.0,33.0,12.0
1.7824167013168335,28.0,16.0,0.0,11.0,12.0,42.0,24.0
1.7839332818984985,0.0,541.0,0.0,14.0,9.0,31.0,16.0
1.785516619682312,39.0,277.0,7.0,13.0,5.0,20.0,7.0
1.7870333194732666,43.0,14.0,14.0,11.0,11.0,21.0,5.0
1.7885500192642212,5.0,33.0,13.0,22.0,8.0,22.0,10.0
1.7900667190551758,25.0,16.0,988.0,20.0,6.0,11.0,15.0
1.7915832996368408,36.0,0.0,1038.0,17.0,100.0,0.0,21.0
1.7930999994277954,48.0,26.0,48.0,655.0,53.0,0.0,27.0
1.79461669921875,5.0,18.0,843.0,718.0,5.0,0.0,20.0
1.796133279800415,50.0,10.0,27.0,19.0,26.0,0.0,13.0
1.7976499795913696,20.0,5.0,5.0,209.0,47.0,18.0,9.0
1.7991666793823242,17.0,5.0,788.0,596.0,0.0,405.0,5.0
1.8006833791732788,58.0,3.0,22.0,6.0,38.0,225.0,18.0
1.8022500276565552,5.0,0.0,32.0,66.0,13.0,46.0,39.0
1.8037832975387573,27.0,5.0,1000.0,13.0,5.0,18.0,53.0
1.805299997329712,13.0,5.0,738.0,38.0,8.0,32.0,0.0
1.8068166971206665,26.0,5.0,650.0,0.0,16.0,46.0,10.0
1.8083332777023315,12.0,5.0,1475.0,21.0,24.0,55.0,7.0
1.8098499774932861,20.0,0.0,10.0,43.0,27.0,50.0,6.0
1.8113666772842407,29.0,250.0,49.0,0.0,11.0,37.0,5.0
1.8128833770751953,0.0,129.0,1023.0,11.0,23.0,24.0,14.0
1.8143999576568604,20.0,8.0,20.0,10.0,12.0,58.0,22.0
1.815916657447815,36.0,14.0,19.0,64.0,0.0,12.0,28.0
1.8174333572387695,29.0,20.0,17.0,64.0,24.0,7.0,20.0
1.8189666271209717,11.0,55.0,37.0,63.0,20.0,32.0,20.0
1.8205000162124634,13.0,30.0,29.0,53.0,15.0,26.0,18.0
1.822016716003418,5.0,5.0,21.0,43.0,5.0,20.0,13.0
1.823533296585083,8.0,27.0,27.0,24.0,42.0,23.0,5.0
1.8250499963760376,10.0,5.0,35.0,21.0,70.0,26.0,11.0
1.8265666961669922,5.0,5.0,0.0,25.0,53.0,19.0,17.0
1.8280832767486572,8.0,12.0,260.0,26.0,37.0,5.0,11.0
1.8295999765396118,11.0,11.0,519.0,27.0,18.0,6.0,5.0
1.8311166763305664,9.0,10.0,518.0,0.0,0.0,7.0,13.0
1.832633376121521,7.0,5.0,33.0,1284.0,30.0,14.0,20.0
1.834149956703186,31.0,9.0,5.0,1098.0,18.0,20.0,16.0
1.8356666564941406,42.0,0.0,14.0,15.0,21.0,30.0,7.0
1.837249994277954,35.0,10.0,392.0,240.0,23.0,15.0,17.0
1.8387666940689087,0.0,34.0,462.0,0.0,22.0,0.0,9.0
1.8402832746505737,22.0,30.0,531.0,242.0,21.0,32.0,8.0
1.8417999744415283,45.0,27.0,24.0,126.0,21.0,20.0,13.0
1.843316674232483,11.0,16.0,17.0,11.0,20.0,47.0,17.0
1.8448333740234375,6.0,6.0,643.0,50.0,17.0,24.0,24.0
1.8463499546051025,37.0,17.0,66.0,5.0,13.0,13.0,23.0
1.8478666543960571,29.0,27.0,1213.0,30.0,7.0,19.0,20.0
1.8493833541870117,27.0,14.0,976.0,0.0,0.0,29.0,16.0
1.8509000539779663,22.0,0.0,18.0,0.0,0.0,25.0,12.0
1.8524166345596313,21.0,8.0,8.0,31.0,45.0,10.0,10.0
1.8539832830429077,19.0,16.0,11.0,8.0,40.0,20.0,12.0
1.8554999828338623,0.0,10.0,21.0,29.0,23.0,5.0,14.0
1.857016682624817,34.0,5.0,32.0,59.0,7.0,27.0,17.0
1.8585333824157715,11.0,0.0,438.0,676.0,12.0,23.0,20.0
1.8600499629974365,30.0,647.0,1469.0,781.0,16.0,17.0,18.0
1.8615666627883911,45.0,541.0,740.0,494.0,15.0,23.0,6.0
1.8630833625793457,5.0,15.0,12.0,13.0,6.0,19.0,32.0
1.8645999431610107,20.0,37.0,12.0,438.0,16.0,14.0,29.0
1.8661166429519653,40.0,656.0,17.0,230.0,6.0,17.0,6.0
1.86763334274292,28.0,77.0,22.0,21.0,0.0,19.0,23.0
1.869166612625122,38.0,11.0,43.0,312.0,46.0,21.0,41.0
1.8707499504089355,19.0,38.0,47.0,180.0,46.0,23.0,27.0
1.8722666501998901,24.0,512.0,32.0,48.0,37.0,5.0,0.0
1.8737833499908447,29.0,261.0,17.0,545.0,28.0,10.0,13.0
1.8753000497817993,32.0,9.0,19.0,645.0,33.0,18.0,11.0
1.8768166303634644,32.0,0.0,5.0,39.0,0.0,25.0,8.0
1.878333330154419,33.0,37.0,11.0,16.0,12.0,43.0,5.0
1.8798500299453735,21.0,32.0,15.0,7.0,13.0,24.0,10.0
1.8813666105270386,9.0,27.0,37.0,13.0,5.0,5.0,15.0
1.8828833103179932,22.0,38.0,38.0,9.0,602.0,39.0,16.0
1.8844000101089478,25.0,44.0,40.0,6.0,308.0,0.0,13.0
1.8859167098999023,27.0,42.0,7.0,29.0,13.0,7.0,10.0
1.8875000476837158,18.0,21.0,50.0,31.0,29.0,65.0,11.0
1.8890166282653809,7.0,906.0,27.0,37.0,24.0,44.0,11.0
1.8905333280563354,10.0,1078.0,572.0,44.0,12.0,50.0,17.0
1.89205002784729,28.0,818.0,709.0,48.0,0.0,18.0,18.0
1.893566608428955,18.0,1124.0,0.0,36.0,24.0,6.0,45.0
1.8950833082199097,7.0,5.0,11.0,24.0,49.0,60.0,31.0
1.8966000080108643,6.0,48.0,49.0,29.0,44.0,34.0,17.0
1.8981167078018188,5.0,34.0,21.0,631.0,39.0,32.0,34.0
1.8996332883834839,11.0,13.0,26.0,779.0,34.0,5.0,7.0
1.9011499881744385,16.0,5.0,25.0,461.0,29.0,12.0,10.0
1.902666687965393,26.0,0.0,20.0,455.0,7.0,19.0,13.0
1.9042500257492065,29.0,10.0,15.0,0.0,12.0,13.0,17.0
1.9057667255401611,36.0,10.0,5.0,17.0,16.0,7.0,0.0
1.9072833061218262,37.0,10.0,6.0,457.0,36.0,20.0,5.0
1.9088000059127808,8.0,13.0,27.0,16.0,45.0,6.0,3.0
1.9103167057037354,0.0,15.0,30.0,437.0,5.0,7.0,0.0
1.9118332862854004,14.0,16.0,5.0,44.0,5.0,0.0,18.0
1.913349986076355,16.0,16.0,39.0,478.0,16.0,15.0,40.0
1.9148666858673096,7.0,46.0,19.0,41.0,22.0,14.0,47.0
1.9163833856582642,19.0,524.0,0.0,17.0,11.0,12.0,20.0
1.9178999662399292,12.0,268.0,31.0,12.0,0.0,10.0,7.0
1.9194166660308838,20.0,11.0,5.0,7.0,26.0,49.0,24.0
1.9210000038146973,18.0,0.0,0.0,11.0,454.0,24.0,25.0
1.9225167036056519,15.0,8.0,17.0,14.0,229.0,0.0,25.0
1.924033284187317,19.0,19.0,34.0,14.0,5.0,10.0,35.0
1.9255499839782715,23.0,30.0,19.0,14.0,27.0,9.0,0.0
1.927066683769226,0.0,30.0,5.0,26.0,49.0,7.0,14.0
1.9285833835601807,24.0,31.0,29.0,25.0,24.0,22.0,63.0
1.9300999641418457,17.0,38.0,20.0,6.0,0.0,57.0,55.0
1.9316166639328003,10.0,15.0,11.0,11.0,14.0,69.0,72.0
1.9331333637237549,14.0,13.0,6.0,16.0,52.0,81.0,15.0
1.93464994430542,18.0,10.0,11.0,83.0,39.0,14.0,0.0
1.9361666440963745,15.0,21.0,15.0,57.0,25.0,27.0,39.0
1.9377332925796509,12.0,233.0,15.0,31.0,42.0,13.0,32.0
1.9392666816711426,6.0,148.0,15.0,31.0,36.0,10.0,10.0
1.9407833814620972,13.0,63.0,0.0,31.0,31.0,9.0,25.0
1.9422999620437622,37.0,13.0,7.0,321.0,0.0,7.0,12.0
1.9438166618347168,39.0,54.0,20.0,611.0,24.0,44.0,24.0
1.9453333616256714,0.0,364.0,12.0,666.0,30.0,49.0,27.0
1.9468499422073364,18.0,191.0,16.0,481.0,37.0,24.0,27.0
1.948366641998291,23.0,17.0,45.0,558.0,10.0,45.0,5.0
1.9498833417892456,0.0,0.0,29.0,35.0,45.0,34.0,12.0
1.9514000415802002,44.0,60.0,13.0,70.0,14.0,22.0,5.0
1.9529166221618652,55.0,12.0,17.0,13.0,16.0,9.0,17.0
1.9544333219528198,16.0,19.0,25.0,37.0,6.0,9.0,18.0
1.9560166597366333,23.0,26.0,6.0,0.0,20.0,16.0,19.0
1.957533359527588,16.0,23.0,40.0,28.0,14.0,8.0,24.0
1.9590500593185425,6.0,0.0,20.0,0.0,7.0,0.0,30.0
1.9605666399002075,17.0,47.0,0.0,11.0,0.0,0.0,24.0
1.962083339691162,22.0,146.0,10.0,14.0,23.0,18.0,18.0
1.9636000394821167,26.0,353.0,20.0,19.0,20.0,20.0,12.0
1.9651166200637817,19.0,190.0,5.0,22.0,11.0,44.0,5.0
1.9666333198547363,5.0,26.0,0.0,50.0,9.0,29.0,7.0
1.968150019645691,17.0,346.0,19.0,385.0,6.0,14.0,8.0
1.9696667194366455,15.0,181.0,19.0,207.0,14.0,21.0,16.0
1.9711833000183105,13.0,15.0,19.0,30.0,22.0,16.0,15.0
1.972749948501587,20.0,10.0,22.0,33.0,23.0,10.0,13.0
1.9742666482925415,27.0,10.0,24.0,16.0,5.0,5.0,12.0
1.975783348083496,0.0,20.0,12.0,0.0,8.0,8.0,10.0
1.9773000478744507,51.0,42.0,0.0,31.0,11.0,10.0,13.0
1.9788166284561157,38.0,24.0,16.0,25.0,21.0,12.0,16.0
1.9803333282470703,40.0,7.0,5.0,20.0,19.0,11.0,5.0
1.981850028038025,7.0,23.0,12.0,15.0,17.0,10.0,16.0
1.98336660861969,10.0,85.0,18.0,10.0,7.0,10.0,0.0
1.9848833084106445,10.0,48.0,22.0,515.0,24.0,10.0,4.0
1.9864000082015991,5.0,10.0,25.0,270.0,26.0,17.0,8.0
1.9879167079925537,17.0,29.0,35.0,24.0,27.0,23.0,0.0
1.9895000457763672,9.0,5.0,26.0,192.0,5.0,32.0,0.0
1.9910166263580322,0.0,18.0,18.0,360.0,33.0,30.0,0.0
1.9925333261489868,20.0,22.0,5.0,191.0,42.0,29.0,0.0
1.9940500259399414,10.0,14.0,16.0,21.0,34.0,12.0,0.0
1.995566725730896,0.0,14.0,18.0,26.0,17.0,0.0,8.0
1.997083306312561,15.0,6.0,17.0,32.0,0.0,68.0,10.0
1.9986000061035156,14.0,6.0,20.0,438.0,15.0,47.0,11.0
2.0001165866851807,12.0,8.0,23.0,721.0,31.0,25.0,30.0
2.001633405685425,13.0,10.0,435.0,448.0,49.0,72.0,17.0
2.00314998626709,14.0,9.0,232.0,19.0,40.0,76.0,5.0
2.004666566848755,7.0,7.0,30.0,6.0,24.0,14.0,82.0
2.0062332153320312,13.0,12.0,28.0,38.0,24.0,40.0,43.0
2.0077500343322754,19.0,20.0,26.0,8.0,23.0,34.0,5.0
2.0092666149139404,5.0,27.0,45.0,11.0,15.0,24.0,0.0
2.0107834339141846,3.0,33.0,5.0,14.0,7.0,35.0,18.0
2.0123000144958496,0.0,22.0,7.0,11.0,0.0,41.0,21.0
2.0138165950775146,10.0,22.0,13.0,33.0,0.0,15.0,53.0
2.015333414077759,25.0,19.0,852.0,54.0,17.0,46.0,45.0
2.016849994659424,17.0,5.0,871.0,47.0,45.0,48.0,57.0
2.018366575241089,8.0,23.0,0.0,40.0,30.0,51.0,35.0
2.019883394241333,6.0,323.0,44.0,25.0,15.0,32.0,25.0
2.021399974822998,5.0,182.0,61.0,11.0,0.0,12.0,33.0
2.0229833126068115,3.0,40.0,12.0,8.0,21.0,5.0,19.0
2.0244998931884766,0.0,0.0,23.0,5.0,16.0,27.0,33.0
2.0260167121887207,13.0,40.0,12.0,9.0,14.0,43.0,47.0
2.0275332927703857,25.0,11.0,12.0,7.0,57.0,55.0,10.0
2.02905011177063,50.0,15.0,12.0,6.0,59.0,19.0,19.0
2.030566692352295,51.0,13.0,0.0,6.0,5.0,0.0,26.0
2.03208327293396,0.0,11.0,0.0,22.0,0.0,19.0,11.0
2.033600091934204,0.0,16.0,5.0,14.0,18.0,27.0,16.0
2.035116672515869,14.0,13.0,10.0,5.0,14.0,0.0,26.0
2.036633253097534,29.0,9.0,11.0,15.0,30.0,34.0,16.0
2.0381500720977783,45.0,8.0,11.0,21.0,17.0,27.0,7.0
2.0397167205810547,28.0,6.0,18.0,27.0,5.0,61.0,0.0
2.0412333011627197,11.0,13.0,16.0,0.0,0.0,50.0,39.0
2.0427498817443848,9.0,0.0,14.0,5.0,16.0,29.0,31.0
2.044266700744629,19.0,15.0,11.0,25.0,33.0,35.0,23.0
2.045783281326294,18.0,7.0,7.0,13.0,62.0,20.0,0.0
2.047300100326538,29.0,0.0,21.0,0.0,62.0,30.0,14.0
2.048816680908203,38.0,10.0,26.0,14.0,62.0,17.0,5.0
2.050333261489868,5.0,8.0,31.0,13.0,7.0,27.0,6.0
2.0518500804901123,7.0,5.0,191.0,17.0,17.0,5.0,38.0
2.0533666610717773,5.0,17.0,119.0,11.0,22.0,12.0,35.0
2.0548832416534424,3.0,9.0,47.0,5.0,26.0,9.0,11.0
2.0564498901367188,0.0,0.0,24.0,23.0,29.0,5.0,28.0
2.0579833984375,10.0,0.0,12.0,0.0,32.0,10.0,5.0
2.059499979019165,10.0,0.0,0.0,5.0,8.0,0.0,0.0
2.06101655960083,9.0,5.0,5.0,8.0,32.0,23.0,5.0
2.062533378601074,11.0,13.0,24.0,11.0,21.0,21.0,12.0
2.0640499591827393,8.0,22.0,22.0,11.0,10.0,24.0,6.0
2.0655667781829834,5.0,24.0,19.0,10.0,7.0,34.0,0.0
2.0670833587646484,10.0,8.0,17.0,26.0,0.0,23.0,15.0
2.0685999393463135,10.0,21.0,28.0,20.0,3.0,13.0,5.0
2.0701167583465576,10.0,25.0,16.0,14.0,6.0,31.0,0.0
2.0716333389282227,21.0,12.0,5.0,12.0,3.0,38.0,9.0
2.0731499195098877,16.0,7.0,43.0,9.0,0.0,20.0,17.0
2.074716567993164,11.0,21.0,21.0,7.0,20.0,6.0,18.0
2.076233386993408,5.0,17.0,0.0,5.0,13.0,27.0,19.0
2.0777499675750732,6.0,13.0,5.0,5.0,5.0,6.0,20.0
2.0792665481567383,7.0,10.0,11.0,18.0,22.0,15.0,21.0
2.0807833671569824,10.0,11.0,17.0,15.0,19.0,5.0,27.0
2.0822999477386475,13.0,12.0,11.0,23.0,5.0,13.0,8.0
2.0838167667388916,15.0,6.0,5.0,31.0,8.0,20.0,0.0
2.0853333473205566,17.0,0.0,601.0,28.0,23.0,10.0,14.0
2.0868499279022217,12.0,0.0,310.0,24.0,18.0,0.0,10.0
2.088366746902466,8.0,0.0,19.0,29.0,13.0,0.0,5.0
2.089883327484131,5.0,9.0,12.0,33.0,17.0,0.0,6.0
2.0914666652679443,3.0,17.0,0.0,12.0,9.0,0.0,8.0
2.0929832458496094,0.0,11.0,0.0,37.0,31.0,0.0,10.0
2.0945000648498535,40.0,5.0,0.0,17.0,25.0,3.0,8.0
2.0960166454315186,46.0,9.0,11.0,36.0,19.0,5.0,16.0
2.0975332260131836,0.0,13.0,14.0,34.0,0.0,17.0,20.0
2.0990500450134277,0.0,16.0,17.0,35.0,0.0,15.0,23.0
2.101433277130127,7.0,19.0,28.0,27.0,38.0,22.0,21.0
2.1038167476654053,0.0,32.0,25.0,10.0,45.0,0.0,24.0
2.1061999797821045,32.0,19.0,23.0,36.0,39.0,5.0,14.0
2.108633279800415,27.0,5.0,5.0,11.0,5.0,18.0,12.0
2.1110167503356934,11.0,32.0,19.0,0.0,5.0,13.0,12.0
2.1133999824523926,36.0,8.0,14.0,0.0,1369.0,7.0,11.0
2.115799903869629,12.0,50.0,9.0,0.0,685.0,4.0,6.0
2.1181833744049072,9.0,45.0,5.0,279.0,0.0,0.0,26.0
2.1205666065216064,6.0,0.0,570.0,519.0,36.0,0.0,24.0
2.1229500770568848,16.0,10.0,309.0,413.0,5.0,0.0,22.0
2.1253833770751953,8.0,5.0,48.0,307.0,46.0,5.0,10.0
2.1277666091918945,0.0,8.0,25.0,808.0,1834.0,6.0,487.0
2.130150079727173,5.0,10.0,864.0,2182.0,1780.0,6.0,537.0
2.132533311843872,10.0,5.0,585.0,2900.0,2074.0,11.0,31.0
2.1349167823791504,27.0,12.0,305.0,3633.0,1588.0,15.0,785.0
2.1373000144958496,20.0,18.0,993.0,2655.0,1177.0,33.0,18.0
2.139683246612549,13.0,35.0,11.0,4827.0,766.0,27.0,5.0
2.1421167850494385,10.0,51.0,989.0,1085.0,49.0,326.0,7.0
2.1445000171661377,23.0,40.0,491.0,3855.0,5282.0,1051.0,8.0
2.146883249282837,10.0,17.0,666.0,3783.0,5990.0,776.0,127.0
2.1492667198181152,0.0,49.0,339.0,4898.0,4501.0,676.0,174.0
2.1516666412353516,38.0,27.0,13.0,1113.0,4672.0,5.0,222.0
2.15405011177063,77.0,5.0,1268.0,3309.0,2376.0,11.0,13.0
2.156433343887329,42.0,6.0,963.0,5710.0,4689.0,6.0,40.0
2.1588666439056396,7.0,15.0,659.0,1697.0,6058.0,522.0,0.0
2.161250114440918,38.0,7.0,422.0,6399.0,2490.0,1037.0,15.0
2.163633346557617,15.0,0.0,1571.0,3456.0,2973.0,1479.0,1732.0
2.1660165786743164,5.0,0.0,1279.0,3881.0,3619.0,1363.0,873.0
2.1684000492095947,11.0,0.0,1348.0,4326.0,3534.0,1741.0,14.0
2.170783281326294,10.0,0.0,874.0,4003.0,3449.0,45.0,1356.0
2.1731667518615723,13.0,0.0,202.0,2984.0,3435.0,1249.0,5.0
2.175600051879883,5.0,0.0,1163.0,2139.0,635.0,26.0,213.0
2.177983283996582,0.0,0.0,0.0,4881.0,2828.0,1152.0,421.0
2.1803667545318604,5.0,5.0,11.0,3355.0,1360.0,16.0,1062.0
2.1827666759490967,6.0,10.0,363.0,1828.0,693.0,411.0,1041.0
2.185149908065796,7.0,15.0,436.0,5554.0,26.0,10.0,475.0
2.187533378601074,8.0,11.0,508.0,1169.0,1965.0,20.0,0.0
2.1899166107177734,361.0,8.0,260.0,5046.0,2544.0,31.0,459.0
2.192349910736084,714.0,18.0,12.0,4002.0,2026.0,990.0,918.0
2.1947333812713623,420.0,27.0,38.0,2340.0,856.0,1513.0,851.0
2.1971166133880615,127.0,23.0,858.0,3272.0,2016.0,1468.0,784.0
2.19950008392334,1131.0,40.0,454.0,2876.0,2783.0,597.0,419.0
2.201883316040039,978.0,20.0,50.0,3022.0,794.0,301.0,409.0
2.2042665481567383,5.0,0.0,1252.0,3169.0,3849.0,5.0,399.0
2.2066500186920166,13.0,17.0,1137.0,3575.0,3459.0,16.0,22.0
2.20906662940979,137.0,9.0,687.0,3982.0,710.0,767.0,28.0
2.2114832401275635,34.0,0.0,983.0,3705.0,2108.0,391.0,34.0
2.213866710662842,13.0,20.0,503.0,2195.0,1152.0,15.0,590.0
2.216249942779541,69.0,41.0,22.0,4467.0,767.0,929.0,1669.0
2.2186334133148193,44.0,25.0,16.0,5699.0,382.0,468.0,1559.0
2.2210166454315186,18.0,10.0,9.0,1049.0,552.0,7.0,396.0
2.223400115966797,34.0,0.0,32.0,406.0,722.0,34.0,249.0
2.225783348083496,19.0,37.0,29.0,2267.0,462.0,30.0,45.0
2.2281999588012695,17.0,19.0,25.0,878.0,202.0,23.0,22.0
2.230583429336548,15.0,5.0,43.0,864.0,110.0,16.0,0.0
2.232966661453247,31.0,18.0,11.0,1904.0,19.0,0.0,10.0
2.2353498935699463,18.0,0.0,48.0,1799.0,217.0,46.0,6.0
2.2377333641052246,6.0,16.0,38.0,884.0,10.0,44.0,21.0
2.240116596221924,12.0,5.0,0.0,1201.0,0.0,32.0,16.0
2.242500066757202,17.0,15.0,44.0,28.0,0.0,8.0,10.0
2.2449166774749756,9.0,13.0,8.0,24.0,5.0,24.0,11.0
2.247299909591675,0.0,11.0,31.0,1040.0,3.0,25.0,9.0
2.249683380126953,919.0,24.0,34.0,392.0,0.0,40.0,6.0
2.2520666122436523,1446.0,389.0,47.0,18.0,4.0,23.0,8.0
2.2544500827789307,1962.0,211.0,12.0,21.0,8.0,6.0,10.0
2.25683331489563,1774.0,34.0,10.0,84.0,7.0,27.0,20.0
2.259216785430908,1875.0,11.0,7.0,0.0,5.0,11.0,17.0
2.2616167068481445,557.0,22.0,10.0,5.0,3.0,30.0,13.0
2.2639999389648438,2216.0,0.0,17.0,22.0,0.0,10.0,24.0
2.266383409500122,2906.0,434.0,14.0,23.0,0.0,29.0,0.0
2.2687833309173584,4626.0,934.0,11.0,20.0,0.0,16.0,8.0
2.2711665630340576,4153.0,776.0,24.0,23.0,13.0,34.0,16.0
2.273550033569336,3680.0,30.0,12.0,5.0,13.0,14.0,22.0
2.275933265686035,4043.0,18.0,0.0,18.0,12.0,6.0,29.0
2.2783501148223877,3265.0,38.0,0.0,13.0,13.0,16.0,25.0
2.280733346939087,3791.0,14.0,0.0,15.0,573.0,11.0,22.0
2.283116579055786,3815.0,7.0,9.0,6.0,454.0,5.0,17.0
2.2855000495910645,4110.0,0.0,7.0,22.0,15.0,5.0,21.0
2.2878832817077637,3430.0,14.0,5.0,34.0,0.0,5.0,0.0
2.290266752243042,606.0,0.0,0.0,33.0,38.0,3.0,3.0
2.292649984359741,1624.0,5.0,0.0,34.0,48.0,0.0,5.0
2.2950665950775146,2405.0,15.0,0.0,36.0,58.0,16.0,22.0
2.297450065612793,3186.0,11.0,18.0,23.0,35.0,11.0,17.0
2.299833297729492,3813.0,13.0,19.0,11.0,30.0,5.0,9.0
2.3022167682647705,182.0,14.0,13.0,16.0,301.0,15.0,0.0
2.3046000003814697,1913.0,0.0,6.0,13.0,153.0,10.0,5.0
2.306983232498169,1323.0,15.0,0.0,9.0,5.0,5.0,8.0
2.3093667030334473,23.0,0.0,704.0,215.0,11.0,0.0,11.0
2.3117833137512207,2217.0,223.0,582.0,515.0,16.0,3.0,0.0
2.314166784286499,4045.0,129.0,654.0,268.0,22.0,5.0,29.0
2.3165500164031982,2784.0,35.0,15.0,21.0,28.0,15.0,55.0
2.3189332485198975,2236.0,38.0,20.0,6.0,16.0,24.0,55.0
2.321316719055176,1688.0,41.0,25.0,24.0,5.0,24.0,55.0
2.323699951171875,3858.0,272.0,439.0,27.0,953.0,27.0,52.0
2.3260834217071533,4593.0,151.0,263.0,9.0,800.0,34.0,25.0
2.3285000324249268,3142.0,31.0,88.0,6.0,19.0,38.0,21.0
2.330883264541626,3902.0,231.0,17.0,60.0,26.0,42.0,24.0
2.3332667350769043,3765.0,125.0,174.0,455.0,26.0,17.0,27.0
2.3356499671936035,1250.0,18.0,106.0,1045.0,13.0,20.0,27.0
2.338033437728882,1935.0,14.0,38.0,569.0,763.0,27.0,7.0
2.340416669845581,1512.0,419.0,24.0,93.0,391.0,26.0,37.0
2.3427999019622803,2549.0,224.0,10.0,25.0,19.0,25.0,30.0
2.345216751098633,38.0,30.0,858.0,26.0,84.0,22.0,28.0
2.347599983215332,1362.0,5.0,461.0,28.0,31.0,18.0,27.0
2.3499832153320312,88.0,1257.0,64.0,111.0,34.0,28.0,31.0
2.3523666858673096,662.0,864.0,64.0,194.0,37.0,27.0,35.0
2.354749917984009,959.0,472.0,476.0,451.0,33.0,26.0,22.0
2.357133388519287,464.0,38.0,88.0,751.0,30.0,24.0,19.0
2.3595166206359863,21.0,183.0,17.0,503.0,43.0,22.0,39.0
2.3619332313537598,959.0,329.0,32.0,255.0,15.0,37.0,53.0
2.364316701889038,89.0,47.0,47.0,79.0,28.0,28.0,43.0
2.3666999340057373,632.0,52.0,59.0,205.0,42.0,18.0,33.0
2.3690834045410156,85.0,57.0,1101.0,32.0,39.0,18.0,43.0
2.371466636657715,57.0,541.0,1060.0,50.0,17.0,46.0,33.0
2.373850107192993,45.0,286.0,81.0,68.0,21.0,42.0,23.0
2.3762333393096924,33.0,31.0,42.0,984.0,36.0,44.0,61.0
2.378649950027466,79.0,760.0,89.0,984.0,42.0,46.0,41.0
2.381033420562744,73.0,421.0,62.0,1115.0,48.0,5.0,21.0
2.3834166526794434,65.0,81.0,47.0,67.0,32.0,83.0,25.0
2.3857998847961426,49.0,53.0,45.0,1007.0,15.0,62.0,0.0
2.388183355331421,59.0,146.0,44.0,1261.0,421.0,72.0,33.0
2.39056658744812,68.0,46.0,6.0,1344.0,236.0,24.0,50.0
2.3929500579833984,65.0,365.0,37.0,32.0,51.0,75.0,48.0
2.3953499794006348,62.0,208.0,68.0,26.0,73.0,98.0,61.0
2.397733449935913,52.0,52.0,63.0,68.0,24.0,49.0,50.0
2.4001166820526123,42.0,39.0,33.0,46.0,27.0,7.0,40.0
2.4025166034698486,733.0,35.0,33.0,23.0,51.0,15.0,17.0
2.404900074005127,438.0,63.0,34.0,32.0,40.0,28.0,15.0
2.407283306121826,144.0,61.0,23.0,23.0,563.0,40.0,21.0
2.4096667766571045,87.0,59.0,13.0,35.0,297.0,37.0,55.0
2.412066698074341,5.0,62.0,23.0,20.0,31.0,36.0,54.0
2.41444993019104,19.0,61.0,34.0,5.0,41.0,36.0,50.0
2.4168500900268555,41.0,60.0,7.0,15.0,30.0,32.0,45.0
2.4192333221435547,17.0,5.0,31.0,25.0,52.0,28.0,25.0
2.421616554260254,5.0,16.0,12.0,34.0,5.0,46.0,5.0
2.4240000247955322,47.0,27.0,523.0,43.0,50.0,12.0,25.0
2.4263832569122314,25.0,29.0,288.0,55.0,58.0,21.0,10.0
2.428800106048584,34.0,18.0,54.0,10.0,38.0,25.0,37.0
2.431183338165283,38.0,7.0,12.0,31.0,55.0,5.0,49.0
2.4335665702819824,42.0,39.0,5.0,36.0,17.0,14.0,59.0
2.4359500408172607,49.0,22.0,5.0,24.0,36.0,25.0,11.0
2.43833327293396,17.0,44.0,8.0,39.0,29.0,15.0,19.0
2.4407167434692383,19.0,31.0,10.0,42.0,21.0,20.0,17.0
2.4430999755859375,39.0,15.0,13.0,45.0,8.0,25.0,25.0
2.445516586303711,36.0,0.0,16.0,43.0,24.0,23.0,31.0
2.4479000568389893,42.0,16.0,35.0,42.0,17.0,21.0,37.0
2.4502832889556885,48.0,33.0,24.0,72.0,10.0,5.0,36.0
2.452666759490967,13.0,37.0,12.0,6.0,14.0,18.0,36.0
2.455049991607666,38.0,11.0,16.0,27.0,14.0,14.0,5.0
2.4574332237243652,0.0,17.0,25.0,41.0,17.0,20.0,20.0
2.4598166942596436,17.0,16.0,32.0,35.0,20.0,47.0,45.0
2.462233304977417,20.0,5.0,31.0,9.0,25.0,54.0,33.0
2.4646167755126953,22.0,35.0,23.0,10.0,20.0,23.0,20.0
2.4670000076293945,19.0,31.0,23.0,5.0,15.0,20.0,37.0
2.4693832397460938,15.0,63.0,0.0,9.0,12.0,41.0,53.0
2.471766710281372,5.0,35.0,0.0,0.0,74.0,17.0,46.0
2.4741499423980713,33.0,6.0,0.0,19.0,47.0,13.0,24.0
2.4765334129333496,38.0,29.0,33.0,20.0,21.0,0.0,6.0
2.478933334350586,30.0,45.0,34.0,21.0,0.0,8.0,15.0
2.4813332557678223,22.0,64.0,36.0,16.0,49.0,15.0,23.0
2.4837167263031006,32.0,83.0,7.0,47.0,19.0,19.0,26.0
2.4860999584198,29.0,719.0,23.0,48.0,25.0,23.0,25.0
2.488483428955078,26.0,359.0,0.0,30.0,27.0,30.0,18.0
2.4908666610717773,16.0,0.0,20.0,27.0,41.0,37.0,39.0
2.4932498931884766,45.0,18.0,18.0,23.0,30.0,31.0,44.0
2.495650053024292,47.0,42.0,16.0,0.0,18.0,13.0,51.0
