,301.2099914550781,302.2099914550781,303.2099914550781,304.2099914550781,305.2099914550781,306.2099914550781,307.2099914550781,308.2099914550781
5.202183246612549,13.0,656.0,39.0,15.0,29.0,6.0,24.0,14.0
5.204349994659424,0.0,54.0,0.0,40.0,56.0,12.0,28.0,60.0
5.2078166007995605,5.0,6.0,26.0,37.0,14.0,13.0,1185.0,77.0
5.211283206939697,6.0,34.0,19.0,31.0,16.0,9.0,20.0,67.0
5.214749813079834,6.0,5.0,13.0,9.0,53.0,10.0,6.0,14.0
5.218216896057129,29.0,20.0,6.0,47.0,8.0,12.0,68.0,36.0
5.221749782562256,26.0,21.0,294.0,20.0,19.0,29.0,18.0,9.0
5.225216865539551,0.0,32.0,265.0,0.0,30.0,29.0,34.0,9.0
5.2286834716796875,16.0,19.0,235.0,11.0,19.0,20.0,0.0,8.0
5.232150077819824,42.0,5.0,364.0,28.0,7.0,12.0,13.0,17.0
5.235616683959961,33.0,30.0,196.0,18.0,0.0,17.0,6.0,23.0
5.239133358001709,25.0,34.0,29.0,35.0,21.0,21.0,6.0,21.0
5.242599964141846,24.0,20.0,17.0,5.0,6.0,25.0,5.0,19.0
5.246066570281982,31.0,6.0,5.0,40.0,47.0,22.0,12.0,6.0
5.249549865722656,26.0,36.0,11.0,17.0,44.0,0.0,18.0,25.0
5.253066539764404,22.0,22.0,17.0,47.0,32.0,25.0,14.0,17.0
5.256533145904541,29.0,7.0,14.0,12.0,22.0,16.0,11.0,25.0
5.260000228881836,25.0,17.0,11.0,42.0,23.0,35.0,33.0,28.0
5.263466835021973,20.0,8.0,12.0,27.0,24.0,23.0,30.0,27.0
5.266933441162109,31.0,0.0,13.0,22.0,16.0,12.0,5.0,29.0
5.270450115203857,32.0,11.0,22.0,44.0,7.0,14.0,5.0,18.0
5.273916721343994,32.0,39.0,23.0,14.0,17.0,26.0,19.0,39.0
5.277383327484131,21.0,40.0,24.0,0.0,11.0,22.0,6.0,12.0
5.280849933624268,11.0,24.0,38.0,60.0,5.0,18.0,6.0,0.0
5.284333229064941,818.0,43.0,27.0,39.0,5.0,17.0,11.0,6.0
5.2878499031066895,617.0,32.0,16.0,20.0,0.0,16.0,16.0,13.0
5.291316509246826,947.0,21.0,14.0,32.0,12.0,30.0,22.0,9.0
5.294783115386963,5.0,32.0,30.0,0.0,6.0,25.0,28.0,5.0
5.298250198364258,12.0,30.0,18.0,16.0,0.0,19.0,22.0,22.0
5.3017168045043945,28.0,16.0,18.0,12.0,0.0,130.0,26.0,26.0
5.30525016784668,11.0,17.0,18.0,21.0,23.0,79.0,22.0,29.0
5.308716773986816,11.0,16.0,39.0,0.0,46.0,27.0,17.0,21.0
5.312183380126953,12.0,28.0,26.0,4.0,39.0,27.0,12.0,25.0
5.31564998626709,20.0,17.0,13.0,7.0,32.0,95.0,6.0,29.0
5.319116592407227,28.0,5.0,24.0,16.0,25.0,56.0,23.0,15.0
5.322649955749512,22.0,19.0,7.0,24.0,46.0,17.0,26.0,23.0
5.326116561889648,17.0,40.0,13.0,18.0,43.0,40.0,28.0,31.0
5.329583168029785,18.0,32.0,31.0,22.0,29.0,42.0,6.0,29.0
5.333049774169922,20.0,29.0,30.0,11.0,6.0,5.0,27.0,26.0
5.336516857147217,26.0,16.0,29.0,13.0,18.0,12.0,10.0,0.0
5.340033531188965,13.0,12.0,12.0,24.0,18.0,32.0,42.0,38.0
5.343500137329102,0.0,17.0,42.0,12.0,16.0,16.0,37.0,26.0
5.346966743469238,63.0,93.0,32.0,0.0,15.0,0.0,22.0,14.0
5.350433349609375,48.0,49.0,15.0,3.0,10.0,6.0,15.0,0.0
5.353899955749512,59.0,5.0,12.0,6.0,5.0,5.0,14.0,18.0
5.35741662979126,55.0,28.0,5.0,27.0,6.0,17.0,7.0,0.0
5.3608832359313965,59.0,52.0,0.0,49.0,7.0,30.0,23.0,11.0
5.36436653137207,64.0,6.0,9.0,42.0,0.0,30.0,19.0,8.0
5.367833137512207,52.0,11.0,10.0,11.0,6.0,0.0,15.0,5.0
5.371300220489502,33.0,27.0,11.0,0.0,28.0,19.0,22.0,0.0
5.374783515930176,14.0,18.0,13.0,12.0,26.0,5.0,15.0,8.0
5.3782501220703125,24.0,22.0,14.0,24.0,0.0,0.0,8.0,16.0
5.381716728210449,22.0,23.0,14.0,31.0,43.0,10.0,12.0,13.0
5.385183334350586,16.0,24.0,17.0,22.0,5.0,28.0,25.0,11.0
5.388716697692871,9.0,0.0,12.0,0.0,16.0,14.0,25.0,16.0
5.392183303833008,26.0,24.0,7.0,0.0,5.0,0.0,25.0,21.0
5.3956499099731445,18.0,11.0,16.0,9.0,20.0,24.0,5.0,0.0
5.399116516113281,11.0,12.0,14.0,18.0,35.0,5.0,31.0,36.0
5.402583122253418,694.0,13.0,13.0,26.0,46.0,19.0,26.0,34.0
5.406099796295166,521.0,16.0,13.0,21.0,22.0,31.0,21.0,34.0
5.409566879272461,279.0,20.0,13.0,16.0,46.0,37.0,18.0,12.0
5.413050174713135,36.0,26.0,23.0,117.0,41.0,11.0,20.0,11.0
5.4165167808532715,48.0,5.0,18.0,65.0,58.0,8.0,22.0,19.0
5.419983386993408,29.0,36.0,14.0,13.0,36.0,15.0,28.0,17.0
5.423500061035156,54.0,0.0,14.0,14.0,0.0,22.0,7.0,12.0
5.426966667175293,59.0,10.0,21.0,38.0,22.0,28.0,15.0,13.0
5.43043327331543,8.0,21.0,21.0,16.0,48.0,40.0,17.0,9.0
5.433899879455566,0.0,32.0,18.0,46.0,20.0,37.0,20.0,28.0
5.437366485595703,5.0,52.0,19.0,31.0,23.0,18.0,0.0,28.0
5.440899848937988,5.0,1917.0,12.0,20.0,23.0,30.0,41.0,5.0
5.444366455078125,5.0,8098.0,5.0,18.0,36.0,32.0,42.0,3.0
5.44783353805542,23.0,17308.0,1284.0,365.0,0.0,26.0,0.0,0.0
5.451300144195557,25.0,47472.0,2600.0,197.0,480.0,5.0,21.0,0.0
5.454766750335693,39.0,110880.0,8082.0,29.0,260.0,28.0,27.0,0.0
5.458250045776367,35.0,269440.0,15704.0,1789.0,41.0,47.0,36.0,0.0
5.461716651916504,8.0,403264.0,29376.0,3757.0,30.0,30.0,45.0,28.0
5.465183258056641,39.0,613376.0,38304.0,3570.0,21.0,13.0,39.0,38.0
5.468649864196777,37.0,834560.0,69680.0,4156.0,12.0,19.0,19.0,46.0
5.472116470336914,35.0,950272.0,84704.0,4743.0,63.0,32.0,37.0,16.0
5.475649833679199,348.0,1103616.0,82512.0,6513.0,51.0,35.0,27.0,24.0
5.479116439819336,179.0,1121536.0,81952.0,6117.0,48.0,38.0,17.0,32.0
5.482583522796631,11.0,1130752.0,76528.0,5722.0,44.0,52.0,12.0,25.0
5.486050128936768,297.0,1005568.0,82448.0,7386.0,43.0,12.0,19.0,35.0
5.489516735076904,15.0,947456.0,59472.0,3208.0,236.0,49.0,9.0,26.0
5.493033409118652,574.0,830464.0,65536.0,6597.0,430.0,29.0,0.0,17.0
5.496500015258789,303.0,708608.0,47920.0,6837.0,395.0,9.0,21.0,47.0
5.499966621398926,32.0,561152.0,42432.0,4199.0,412.0,31.0,18.0,35.0
5.5034499168396,59.0,443200.0,27108.0,1908.0,440.0,53.0,16.0,24.0
5.506966590881348,21.0,347776.0,15860.0,5569.0,40.0,55.0,30.0,15.0
5.510433197021484,30.0,253952.0,18620.0,17.0,28.0,44.0,39.0,23.0
5.513899803161621,40.0,149760.0,10904.0,1794.0,34.0,65.0,35.0,30.0
5.517366886138916,34.0,124080.0,9688.0,1505.0,44.0,16.0,47.0,5.0
5.520833492279053,34.0,86640.0,8004.0,30.0,39.0,15.0,42.0,6.0
5.524350166320801,12.0,59744.0,4303.0,39.0,34.0,17.0,11.0,7.0
5.5278167724609375,11.0,48784.0,6181.0,81.0,56.0,12.0,28.0,22.0
5.531283378601074,59.0,30788.0,2511.0,27.0,42.0,0.0,38.0,14.0
5.534749984741211,357.0,32328.0,3143.0,30.0,28.0,25.0,50.0,5.0
5.538233280181885,351.0,28080.0,1658.0,33.0,0.0,17.0,30.0,0.0
5.541749954223633,44.0,32472.0,3659.0,7.0,17.0,17.0,16.0,5.0
5.5452165603637695,13.0,14612.0,1679.0,0.0,6.0,18.0,45.0,25.0
5.548683166503906,27.0,15596.0,392.0,14.0,43.0,21.0,6.0,29.0
5.552149772644043,30.0,15532.0,2854.0,16.0,24.0,22.0,19.0,25.0
5.555616855621338,19.0,14692.0,365.0,22.0,5.0,24.0,35.0,30.0
5.559133529663086,39.0,13852.0,8.0,0.0,53.0,18.0,23.0,8.0
5.562600135803223,48.0,10348.0,1145.0,7.0,19.0,13.0,36.0,18.0
5.566066741943359,57.0,5153.0,1143.0,14.0,40.0,24.0,43.0,27.0
5.569533348083496,37.0,9984.0,354.0,15.0,18.0,21.0,37.0,25.0
5.57301664352417,37.0,6486.0,1201.0,41.0,32.0,19.0,27.0,29.0
5.576533317565918,15.0,6543.0,620.0,50.0,6.0,16.0,22.0,11.0
5.579999923706055,16.0,7137.0,39.0,58.0,15.0,14.0,27.0,13.0
5.583466529846191,0.0,5547.0,11.0,41.0,40.0,20.0,19.0,21.0
5.586933135986328,14.0,3351.0,843.0,32.0,11.0,27.0,11.0,25.0
5.590400218963623,28.0,4441.0,1039.0,35.0,24.0,34.0,19.0,29.0
5.593916893005371,76.0,4430.0,521.0,30.0,12.0,11.0,32.0,13.0
