,317.1099853515625,318.1099853515625,319.1099853515625,320.1099853515625,321.1099853515625,322.1099853515625,323.1099853515625
0.6015166640281677,14.0,0.0,26.0,94.0,6.0,5.0,0.0
0.6030333042144775,7.0,21.0,34.0,102.0,43.0,16.0,21.0
0.6045500040054321,7.0,19.0,45.0,39.0,0.0,0.0,11.0
0.6060666441917419,11.0,9.0,14.0,0.0,13.0,0.0,0.0
0.6075833439826965,16.0,5.0,17.0,19.0,18.0,16.0,49.0
0.6090999841690063,8.0,23.0,22.0,17.0,20.0,16.0,38.0
0.6106166839599609,0.0,22.0,15.0,39.0,18.0,0.0,26.0
0.6121333241462708,45.0,0.0,16.0,41.0,25.0,45.0,22.0
0.6136500239372253,193.0,0.0,18.0,12.0,33.0,23.0,36.0
0.6151666641235352,103.0,7.0,21.0,57.0,31.0,0.0,5.0
0.616683304309845,13.0,15.0,8.0,20.0,29.0,43.0,14.0
0.6182666420936584,31.0,17.0,21.0,27.0,17.0,6.0,23.0
0.619783341884613,45.0,19.0,43.0,32.0,19.0,9.0,13.0
0.6212999820709229,41.0,13.0,48.0,33.0,15.0,16.0,9.0
0.6228166818618774,17.0,18.0,21.0,0.0,11.0,23.0,29.0
0.6243333220481873,76.0,25.0,22.0,19.0,12.0,15.0,26.0
0.6258500218391418,61.0,31.0,16.0,7.0,29.0,7.0,36.0
0.6273666620254517,47.0,6.0,15.0,15.0,30.0,20.0,12.0
0.6288833618164062,60.0,22.0,15.0,20.0,31.0,13.0,14.0
0.6304000020027161,16.0,25.0,10.0,25.0,16.0,5.0,34.0
0.6319166421890259,15.0,5.0,5.0,17.0,13.0,3.0,11.0
0.6334333419799805,0.0,33.0,7.0,11.0,6.0,0.0,36.0
0.635016679763794,24.0,21.0,6.0,17.0,14.0,7.0,13.0
0.6365333199501038,22.0,8.0,16.0,21.0,14.0,4.0,28.0
0.6380500197410583,5.0,10.0,35.0,25.0,15.0,0.0,5.0
0.6395666599273682,5.0,13.0,46.0,51.0,24.0,11.0,5.0
0.6410833597183228,0.0,16.0,29.0,59.0,32.0,23.0,10.0
0.6425999999046326,8.0,19.0,17.0,19.0,27.0,35.0,15.0
0.6441166400909424,17.0,5.0,54.0,25.0,9.0,23.0,16.0
0.645633339881897,35.0,25.0,32.0,51.0,0.0,29.0,19.0
0.6471499800682068,24.0,23.0,31.0,32.0,30.0,35.0,18.0
0.6486666798591614,13.0,32.0,25.0,14.0,32.0,0.0,17.0
0.6501833200454712,23.0,18.0,0.0,27.0,29.0,27.0,34.0
0.6517666578292847,19.0,0.0,25.0,0.0,32.0,0.0,25.0
0.6532833576202393,29.0,14.0,23.0,45.0,35.0,17.0,16.0
0.6547999978065491,28.0,15.0,20.0,55.0,34.0,5.0,0.0
0.6563166379928589,13.0,17.0,23.0,49.0,32.0,31.0,19.0
0.6578333377838135,26.0,15.0,17.0,38.0,29.0,32.0,5.0
0.6593499779701233,20.0,14.0,10.0,49.0,12.0,36.0,5.0
0.6608666777610779,27.0,20.0,6.0,42.0,30.0,31.0,16.0
0.6623833179473877,13.0,17.0,21.0,15.0,0.0,5.0,26.0
0.6639000177383423,29.0,15.0,20.0,5.0,27.0,18.0,13.0
0.6654166579246521,29.0,12.0,19.0,23.0,6.0,31.0,0.0
0.6669333577156067,5.0,22.0,26.0,9.0,8.0,11.0,12.0
0.6685000061988831,29.0,19.0,0.0,32.0,8.0,24.0,0.0
0.6700166463851929,34.0,17.0,16.0,31.0,20.0,20.0,8.0
0.6715333461761475,39.0,16.0,13.0,22.0,21.0,14.0,16.0
0.6730499863624573,26.0,15.0,11.0,28.0,22.0,7.0,27.0
0.6745666861534119,12.0,11.0,37.0,25.0,5.0,48.0,17.0
0.6760833263397217,21.0,8.0,43.0,5.0,15.0,31.0,25.0
0.6776000261306763,12.0,0.0,19.0,23.0,22.0,14.0,23.0
0.6791166663169861,12.0,3.0,9.0,25.0,29.0,5.0,21.0
0.6806333065032959,13.0,5.0,18.0,27.0,27.0,24.0,28.0
0.6821500062942505,18.0,35.0,25.0,26.0,25.0,17.0,20.0
0.6836666464805603,24.0,20.0,20.0,23.0,17.0,9.0,13.0
0.6852499842643738,21.0,5.0,15.0,5.0,37.0,7.0,10.0
0.6867666840553284,18.0,20.0,12.0,0.0,29.0,5.0,8.0
0.6882833242416382,18.0,34.0,5.0,7.0,21.0,24.0,5.0
0.6898000240325928,13.0,56.0,44.0,6.0,25.0,27.0,9.0
0.6913166642189026,0.0,43.0,25.0,5.0,25.0,20.0,14.0
0.6928333044052124,19.0,27.0,6.0,19.0,25.0,13.0,9.0
0.694350004196167,16.0,13.0,23.0,19.0,52.0,0.0,5.0
0.6958666443824768,27.0,43.0,36.0,19.0,47.0,0.0,0.0
0.6973833441734314,25.0,27.0,18.0,17.0,30.0,50.0,6.0
0.6988999843597412,22.0,10.0,18.0,15.0,50.0,42.0,12.0
0.7004166841506958,0.0,38.0,22.0,7.0,44.0,6.0,23.0
0.7019666433334351,5.0,27.0,23.0,20.0,38.0,15.0,41.0
0.703499972820282,40.0,37.0,43.0,16.0,39.0,7.0,25.0
0.7050166726112366,52.0,25.0,38.0,13.0,5.0,11.0,9.0
0.7065333127975464,25.0,39.0,24.0,6.0,42.0,21.0,9.0
0.708050012588501,32.0,33.0,6.0,5.0,19.0,23.0,32.0
0.7095666527748108,15.0,22.0,35.0,16.0,16.0,14.0,38.0
0.7110833525657654,18.0,5.0,21.0,8.0,24.0,0.0,36.0
0.7125999927520752,21.0,57.0,20.0,0.0,32.0,24.0,20.0
0.7141166925430298,14.0,72.0,15.0,15.0,27.0,19.0,26.0
0.7156333327293396,14.0,29.0,11.0,29.0,18.0,18.0,33.0
0.7171499729156494,15.0,0.0,0.0,24.0,19.0,30.0,23.0
0.718666672706604,10.0,35.0,60.0,8.0,21.0,43.0,22.0
0.7202500104904175,11.0,18.0,49.0,5.0,13.0,34.0,25.0
0.7217666506767273,12.0,14.0,27.0,28.0,16.0,24.0,17.0
0.7232833504676819,0.0,14.0,41.0,26.0,22.0,7.0,17.0
0.7247999906539917,27.0,16.0,25.0,24.0,17.0,35.0,25.0
0.7263166904449463,20.0,18.0,32.0,23.0,12.0,20.0,20.0
0.7278333306312561,14.0,14.0,19.0,29.0,0.0,6.0,16.0
0.7293499708175659,16.0,11.0,26.0,26.0,16.0,6.0,19.0
0.7308666706085205,20.0,5.0,31.0,23.0,7.0,5.0,23.0
0.7323833107948303,24.0,0.0,20.0,38.0,8.0,26.0,12.0
0.7339000105857849,53.0,7.0,20.0,5.0,8.0,16.0,20.0
0.7354166507720947,40.0,29.0,15.0,22.0,51.0,5.0,35.0
0.7369833588600159,26.0,50.0,11.0,40.0,60.0,36.0,0.0
0.7384999990463257,0.0,43.0,11.0,18.0,18.0,24.0,20.0
0.7400166392326355,23.0,37.0,13.0,22.0,6.0,19.0,16.0
0.7415333390235901,35.0,30.0,24.0,0.0,0.0,9.0,13.0
0.7430499792098999,22.0,9.0,21.0,0.0,9.0,0.0,11.0
0.7445666790008545,25.0,23.0,18.0,57.0,18.0,8.0,7.0
0.7460833191871643,0.0,35.0,5.0,47.0,28.0,17.0,16.0
0.7476000189781189,57.0,40.0,20.0,28.0,27.0,11.0,24.0
0.7491166591644287,50.0,22.0,20.0,18.0,11.0,16.0,25.0
0.7506333589553833,42.0,13.0,21.0,0.0,14.0,20.0,25.0
0.7521499991416931,12.0,18.0,7.0,18.0,30.0,24.0,32.0
0.7537333369255066,28.0,48.0,7.0,6.0,12.0,0.0,13.0
0.7552499771118164,31.0,27.0,6.0,10.0,8.0,15.0,21.0
0.756766676902771,5.0,6.0,9.0,10.0,5.0,30.0,38.0
0.7582833170890808,16.0,8.0,9.0,0.0,5.0,34.0,15.0
0.7598000168800354,5.0,31.0,8.0,7.0,3.0,36.0,12.0
0.7613166570663452,14.0,0.0,5.0,15.0,0.0,14.0,0.0
0.7628333568572998,12.0,34.0,0.0,27.0,29.0,14.0,12.0
0.7643499970436096,10.0,14.0,5.0,20.0,40.0,11.0,18.0
0.7658666372299194,14.0,5.0,11.0,33.0,62.0,24.0,54.0
0.767383337020874,17.0,11.0,41.0,27.0,33.0,26.0,63.0
0.7688999772071838,11.0,21.0,38.0,20.0,19.0,27.0,16.0
0.770466685295105,5.0,25.0,26.0,14.0,19.0,7.0,44.0
0.7719833254814148,16.0,17.0,0.0,0.0,5.0,34.0,13.0
0.7735000252723694,12.0,24.0,35.0,23.0,5.0,31.0,23.0
0.7750166654586792,0.0,22.0,26.0,16.0,0.0,34.0,24.0
0.776533305644989,36.0,19.0,5.0,16.0,24.0,11.0,24.0
0.7780500054359436,27.0,21.0,29.0,16.0,21.0,42.0,22.0
0.7795666456222534,6.0,19.0,41.0,22.0,19.0,0.0,37.0
0.781083345413208,27.0,17.0,30.0,28.0,7.0,50.0,0.0
0.7825999855995178,37.0,16.0,20.0,36.0,28.0,33.0,20.0
0.7841166853904724,47.0,15.0,36.0,5.0,5.0,16.0,18.0
0.7856333255767822,36.0,41.0,31.0,5.0,13.0,55.0,27.0
0.7872166633605957,24.0,36.0,26.0,18.0,5.0,18.0,30.0
0.7887333035469055,51.0,31.0,24.0,21.0,22.0,48.0,17.0
0.7902500033378601,22.0,311.0,18.0,24.0,32.0,25.0,41.0
0.7917666435241699,31.0,2510.0,12.0,15.0,30.0,49.0,48.0
0.7932833433151245,41.0,8588.0,1231.0,5.0,30.0,20.0,54.0
0.7947999835014343,5.0,37664.0,2187.0,37.0,30.0,0.0,27.0
0.7963166832923889,14.0,72160.0,4903.0,67.0,36.0,45.0,51.0
0.7978333234786987,25.0,128720.0,9528.0,97.0,43.0,33.0,55.0
0.7993500232696533,28.0,203712.0,15140.0,1306.0,20.0,14.0,41.0
0.8008666634559631,30.0,306752.0,26936.0,2516.0,774.0,7.0,5.0
0.802383303642273,27.0,336832.0,22268.0,4338.0,532.0,21.0,18.0
0.8039666414260864,0.0,433792.0,22376.0,4082.0,290.0,19.0,5.0
0.805483341217041,7.0,444416.0,28024.0,3537.0,157.0,18.0,12.0
0.8069999814033508,15.0,462592.0,27180.0,5064.0,25.0,20.0,42.0
0.8085166811943054,18.0,510848.0,26336.0,4826.0,408.0,23.0,42.0
0.8100333213806152,23.0,502592.0,26196.0,4588.0,220.0,36.0,21.0
0.8115500211715698,0.0,539392.0,26052.0,2672.0,32.0,37.0,22.0
0.8130666613578796,56.0,517760.0,25920.0,4246.0,16.0,37.0,31.0
0.8145833611488342,38.0,581632.0,25792.0,4990.0,0.0,19.0,30.0
0.816100001335144,19.0,564736.0,38864.0,5735.0,20.0,19.0,28.0
0.8176166415214539,20.0,511232.0,37232.0,2624.0,41.0,19.0,33.0
0.8191333413124084,33.0,461184.0,28548.0,6225.0,43.0,20.0,33.0
0.8206833600997925,32.0,486272.0,30904.0,6473.0,46.0,21.0,32.0
0.8222166895866394,30.0,421632.0,21152.0,4203.0,45.0,5.0,26.0
0.8237333297729492,23.0,415104.0,23404.0,1296.0,30.0,14.0,20.0
0.8252500295639038,29.0,396672.0,18756.0,3691.0,16.0,23.0,19.0
0.8267666697502136,20.0,320960.0,20884.0,2624.0,23.0,42.0,19.0
0.8282833099365234,17.0,287168.0,21344.0,3205.0,30.0,21.0,33.0
0.829800009727478,11.0,208192.0,16364.0,1743.0,11.0,0.0,31.0
0.8313166499137878,26.0,177728.0,12624.0,667.0,28.0,47.0,28.0
0.8328333497047424,289.0,157696.0,8276.0,456.0,17.0,0.0,26.0
0.8343499898910522,150.0,110464.0,9132.0,1853.0,19.0,12.0,29.0
0.8358666896820068,11.0,104032.0,9668.0,632.0,39.0,22.0,27.0
0.8373833298683167,29.0,79488.0,3772.0,693.0,26.0,37.0,26.0
0.8389666676521301,15.0,57760.0,3841.0,748.0,14.0,39.0,37.0
0.8404833078384399,30.0,43600.0,1523.0,894.0,16.0,27.0,8.0
0.8420000076293945,36.0,37648.0,316.0,67.0,11.0,16.0,22.0
0.8435166478157043,28.0,35344.0,1788.0,7.0,20.0,46.0,16.0
0.8450333476066589,17.0,19028.0,514.0,0.0,28.0,0.0,32.0
0.8465499877929688,29.0,24088.0,24.0,0.0,23.0,5.0,27.0
0.8480666875839233,19.0,18020.0,1366.0,0.0,23.0,34.0,21.0
0.8495833277702332,13.0,15788.0,23.0,5.0,23.0,31.0,24.0
0.8511000275611877,16.0,12056.0,517.0,24.0,20.0,27.0,26.0
0.8526166677474976,19.0,12176.0,11.0,15.0,0.0,0.0,15.0
0.8541333079338074,9.0,13284.0,42.0,5.0,5.0,6.0,21.0
0.8557166457176208,0.0,13960.0,73.0,25.0,5.0,14.0,27.0
0.8572333455085754,16.0,8848.0,283.0,5.0,39.0,14.0,23.0
0.8587499856948853,13.0,11776.0,790.0,91.0,32.0,14.0,39.0
0.8602666854858398,10.0,6198.0,408.0,68.0,45.0,25.0,47.0
0.8617833256721497,20.0,6401.0,26.0,45.0,13.0,35.0,23.0
0.8633000254631042,30.0,2757.0,14.0,72.0,32.0,50.0,0.0
0.8648166656494141,22.0,8576.0,44.0,27.0,56.0,54.0,47.0
0.8663333058357239,13.0,6617.0,42.0,15.0,19.0,15.0,16.0
0.8678500056266785,42.0,4659.0,52.0,12.0,11.0,0.0,54.0
0.8693666458129883,49.0,5583.0,31.0,5.0,34.0,25.0,20.0
0.8708833456039429,33.0,4841.0,11.0,14.0,0.0,24.0,36.0
0.8724666833877563,7.0,5881.0,34.0,34.0,10.0,0.0,33.0
0.8739833235740662,9.0,6922.0,46.0,17.0,28.0,5.0,7.0
0.8755000233650208,15.0,7086.0,29.0,0.0,17.0,24.0,14.0
0.8770166635513306,33.0,5013.0,13.0,36.0,11.0,16.0,32.0
0.8785333037376404,29.0,3503.0,9.0,18.0,5.0,13.0,19.0
0.880050003528595,23.0,7156.0,24.0,13.0,17.0,23.0,6.0
0.8815666437149048,13.0,3977.0,38.0,25.0,14.0,33.0,18.0
0.8830833435058594,21.0,2470.0,38.0,19.0,21.0,22.0,30.0
0.8845999836921692,42.0,4438.0,45.0,13.0,27.0,10.0,33.0
0.8861166834831238,39.0,3908.0,47.0,22.0,6.0,38.0,20.0
0.8876333236694336,0.0,4250.0,49.0,6.0,8.0,34.0,42.0
0.88919997215271,31.0,4100.0,6.0,23.0,42.0,26.0,16.0
0.8907166719436646,58.0,4291.0,14.0,12.0,21.0,25.0,22.0
0.8922333121299744,54.0,4668.0,7.0,0.0,0.0,5.0,17.0
0.893750011920929,7.0,3438.0,11.0,6.0,30.0,20.0,16.0
0.8952666521072388,16.0,2207.0,8.0,13.0,11.0,6.0,16.0
0.8967833518981934,24.0,1423.0,5.0,16.0,8.0,41.0,14.0
0.8982999920845032,20.0,4208.0,6.0,10.0,46.0,34.0,27.0
0.8998166918754578,17.0,2469.0,6.0,5.0,31.0,8.0,41.0
0.9013333320617676,21.0,2271.0,5.0,26.0,17.0,48.0,26.0
0.9028499722480774,22.0,2496.0,5.0,26.0,16.0,10.0,11.0
0.9043833613395691,23.0,1376.0,5.0,5.0,18.0,6.0,32.0
0.905916690826416,5.0,3065.0,5.0,20.0,21.0,36.0,11.0
0.9074333310127258,27.0,2701.0,3.0,5.0,20.0,32.0,5.0
0.9089499711990356,6.0,1608.0,0.0,11.0,19.0,25.0,5.0
0.9104666709899902,12.0,2825.0,3.0,17.0,19.0,24.0,0.0
0.9119833111763,31.0,2548.0,1.0,20.0,24.0,0.0,24.0
0.9135000109672546,36.0,2272.0,0.0,24.0,16.0,38.0,17.0
0.9150166511535645,35.0,664.0,0.0,25.0,7.0,35.0,11.0
0.916533350944519,7.0,2105.0,5.0,25.0,6.0,34.0,13.0
0.9180499911308289,24.0,1636.0,12.0,16.0,3.0,8.0,0.0
0.9195666909217834,39.0,1167.0,19.0,22.0,0.0,32.0,14.0
0.9210833311080933,40.0,2469.0,945.0,27.0,29.0,5.0,15.0
0.9226499795913696,26.0,3770.0,759.0,28.0,18.0,13.0,16.0
0.9241666793823242,32.0,3078.0,9.0,29.0,6.0,44.0,15.0
0.925683319568634,45.0,3225.0,437.0,29.0,8.0,40.0,13.0
0.9272000193595886,17.0,3492.0,5.0,20.0,50.0,15.0,11.0
0.9287166595458984,38.0,3760.0,12.0,23.0,62.0,12.0,12.0
0.930233359336853,54.0,755.0,12.0,27.0,64.0,28.0,15.0
0.9317499995231628,21.0,3682.0,26.0,19.0,47.0,21.0,11.0
0.9332666397094727,0.0,2417.0,13.0,12.0,30.0,14.0,8.0
0.9347833395004272,51.0,2619.0,0.0,30.0,24.0,16.0,32.0
0.9362999796867371,5.0,1822.0,0.0,6.0,16.0,19.0,44.0
0.9378166794776917,63.0,1759.0,0.0,17.0,24.0,17.0,26.0
0.9394000172615051,13.0,1697.0,35.0,43.0,12.0,14.0,20.0
0.9409166574478149,9.0,1130.0,116.0,44.0,0.0,20.0,19.0
0.9424333572387695,23.0,563.0,223.0,0.0,16.0,26.0,9.0
0.9439499974250793,26.0,982.0,116.0,7.0,31.0,7.0,14.0
0.9454666376113892,29.0,1401.0,9.0,5.0,29.0,6.0,18.0
0.9469833374023438,27.0,1461.0,12.0,5.0,27.0,28.0,44.0
0.9484999775886536,29.0,2170.0,7.0,5.0,17.0,14.0,40.0
0.9500166773796082,43.0,2632.0,5.0,14.0,8.0,35.0,37.0
0.951533317565918,0.0,2210.0,19.0,25.0,0.0,35.0,38.0
0.9530500173568726,10.0,2178.0,20.0,19.0,0.0,22.0,8.0
0.9545666575431824,20.0,1321.0,21.0,7.0,0.0,21.0,21.0
0.9561166763305664,31.0,1417.0,0.0,25.0,3.0,8.0,31.0
0.9576666951179504,43.0,1512.0,13.0,16.0,5.0,10.0,25.0
0.9591833353042603,0.0,3125.0,12.0,0.0,103.0,13.0,0.0
0.9606999754905701,29.0,3037.0,12.0,60.0,88.0,16.0,5.0
0.9622166752815247,24.0,2174.0,27.0,40.0,20.0,20.0,16.0
0.9637333154678345,15.0,2873.0,36.0,21.0,29.0,49.0,17.0
0.9652500152587891,5.0,891.0,45.0,0.0,29.0,41.0,18.0
0.9667666554450989,22.0,1111.0,5.0,13.0,0.0,49.0,32.0
0.9682833552360535,26.0,1162.0,33.0,134.0,34.0,18.0,28.0
0.9697999954223633,31.0,979.0,7.0,67.0,27.0,19.0,45.0
0.9713166952133179,0.0,796.0,17.0,0.0,29.0,37.0,54.0
0.9728333353996277,36.0,1401.0,18.0,30.0,17.0,34.0,63.0
0.974399983882904,12.0,3074.0,17.0,18.0,37.0,31.0,45.0
0.9759166836738586,29.0,3363.0,17.0,0.0,0.0,15.0,55.0
0.9774333238601685,37.0,497.0,17.0,27.0,34.0,27.0,66.0
0.978950023651123,44.0,22.0,14.0,21.0,12.0,28.0,22.0
0.9804666638374329,49.0,3294.0,11.0,13.0,40.0,28.0,14.0
0.9819833040237427,35.0,2180.0,8.0,25.0,24.0,17.0,17.0
0.9835000038146973,26.0,3745.0,5.0,26.0,6.0,11.0,21.0
0.9850166440010071,37.0,16.0,28.0,75.0,12.0,6.0,17.0
0.9865333437919617,25.0,3078.0,30.0,76.0,57.0,5.0,13.0
0.9880499839782715,13.0,491.0,36.0,5.0,57.0,3.0,12.0
0.9895666837692261,6.0,3735.0,0.0,24.0,7.0,0.0,22.0
0.9911500215530396,25.0,1386.0,14.0,30.0,54.0,47.0,28.0
0.9926666617393494,29.0,1117.0,27.0,22.0,26.0,60.0,33.0
0.994183361530304,27.0,1703.0,9.0,5.0,39.0,26.0,5.0
0.9957000017166138,25.0,1156.0,36.0,27.0,0.0,50.0,30.0
0.9972166419029236,46.0,1370.0,26.0,11.0,40.0,5.0,29.0
0.9987333416938782,26.0,1412.0,33.0,10.0,15.0,21.0,16.0
1.000249981880188,5.0,1636.0,23.0,9.0,12.0,14.0,38.0
1.0017666816711426,10.0,1860.0,13.0,19.0,51.0,0.0,16.0
1.0032833814620972,5.0,1718.0,24.0,13.0,41.0,5.0,14.0
1.0047999620437622,6.0,1577.0,35.0,7.0,19.0,28.0,41.0
1.0063166618347168,8.0,1084.0,35.0,0.0,27.0,40.0,32.0
1.0078999996185303,47.0,1516.0,30.0,5.0,18.0,50.0,24.0
1.0094166994094849,26.0,1948.0,25.0,12.0,0.0,20.0,16.0
1.01093327999115,5.0,2135.0,31.0,18.0,8.0,28.0,25.0
1.0124499797821045,25.0,2321.0,19.0,26.0,17.0,21.0,0.0
1.013966679573059,20.0,634.0,6.0,17.0,17.0,17.0,11.0
1.0154833793640137,28.0,914.0,22.0,7.0,17.0,33.0,23.0
1.0169999599456787,14.0,1194.0,24.0,68.0,19.0,22.0,36.0
1.0185166597366333,0.0,2817.0,26.0,68.0,22.0,12.0,28.0
1.020033359527588,37.0,2823.0,63.0,32.0,0.0,37.0,42.0
1.0215500593185425,12.0,2111.0,43.0,47.0,7.0,21.0,37.0
1.0230666399002075,19.0,2399.0,23.0,61.0,15.0,28.0,35.0
1.0246332883834839,17.0,1536.0,23.0,36.0,22.0,22.0,7.0
1.0261499881744385,15.0,2197.0,14.0,87.0,30.0,22.0,5.0
1.027666687965393,10.0,1783.0,5.0,67.0,36.0,22.0,25.0
1.0291833877563477,18.0,2328.0,6.0,46.0,21.0,18.0,5.0
1.0306999683380127,25.0,1474.0,126.0,39.0,7.0,15.0,20.0
1.0322166681289673,37.0,1910.0,247.0,92.0,15.0,17.0,20.0
1.0337333679199219,35.0,1330.0,172.0,8.0,22.0,19.0,0.0
1.035249948501587,32.0,1593.0,98.0,42.0,0.0,15.0,19.0
1.0367666482925415,9.0,1837.0,29.0,42.0,23.0,0.0,16.0
1.038283348083496,41.0,2088.0,5.0,43.0,19.0,28.0,22.0
1.0398000478744507,29.0,1911.0,41.0,23.0,27.0,46.0,16.0
1.0413833856582642,17.0,1734.0,0.0,22.0,23.0,64.0,22.0
1.0428999662399292,5.0,3137.0,38.0,16.0,18.0,19.0,18.0
1.0444166660308838,5.0,2503.0,32.0,11.0,24.0,11.0,15.0
1.0459333658218384,24.0,1869.0,26.0,16.0,20.0,56.0,30.0
1.0474499464035034,45.0,1772.0,16.0,21.0,17.0,43.0,0.0
1.048966646194458,40.0,1310.0,15.0,25.0,15.0,36.0,18.0
1.0504833459854126,29.0,1335.0,15.0,17.0,48.0,0.0,29.0
1.0520000457763672,26.0,1361.0,0.0,11.0,40.0,17.0,5.0
1.0535166263580322,0.0,1078.0,3.0,5.0,56.0,46.0,8.0
1.0550333261489868,13.0,1290.0,5.0,48.0,14.0,10.0,13.0
1.0565500259399414,10.0,1502.0,21.0,59.0,41.0,0.0,13.0
1.0581166744232178,7.0,2945.0,21.0,36.0,24.0,28.0,13.0
1.0596333742141724,29.0,3023.0,19.0,14.0,19.0,20.0,0.0
1.0611499547958374,53.0,3307.0,23.0,18.0,5.0,25.0,5.0
1.062666654586792,42.0,2327.0,24.0,11.0,23.0,30.0,13.0
1.0641833543777466,30.0,655.0,25.0,5.0,0.0,36.0,20.0
1.0657000541687012,21.0,20.0,18.0,12.0,19.0,0.0,40.0
1.0672166347503662,25.0,931.0,48.0,6.0,6.0,38.0,35.0
1.0687333345413208,10.0,4124.0,32.0,0.0,36.0,44.0,18.0
1.0702500343322754,17.0,5880.0,17.0,16.0,24.0,51.0,27.0
1.0717666149139404,21.0,2554.0,50.0,18.0,21.0,21.0,7.0
1.073283314704895,0.0,2811.0,26.0,20.0,31.0,29.0,0.0
1.0748499631881714,23.0,1324.0,32.0,17.0,19.0,39.0,5.0
1.076383352279663,26.0,1797.0,38.0,6.0,18.0,31.0,10.0
1.0779000520706177,13.0,1975.0,31.0,14.0,18.0,23.0,17.0
1.0794166326522827,11.0,3408.0,24.0,12.0,14.0,45.0,8.0
1.0809333324432373,33.0,3265.0,45.0,11.0,18.0,12.0,0.0
1.082450032234192,21.0,1068.0,59.0,5.0,12.0,13.0,0.0
1.083966612815857,25.0,3651.0,58.0,0.0,21.0,20.0,9.0
1.0854833126068115,28.0,4201.0,57.0,13.0,21.0,14.0,7.0
1.0870000123977661,14.0,1191.0,149.0,19.0,31.0,27.0,5.0
1.0885167121887207,0.0,3463.0,92.0,15.0,26.0,25.0,5.0
1.0900332927703857,25.0,4393.0,34.0,11.0,21.0,23.0,5.0
1.0915499925613403,23.0,978.0,30.0,0.0,9.0,5.0,0.0
1.0931166410446167,23.0,5119.0,25.0,5.0,35.0,8.0,17.0
1.0946333408355713,22.0,4853.0,16.0,11.0,34.0,11.0,35.0
1.0961500406265259,26.0,5035.0,27.0,12.0,15.0,16.0,34.0
1.097666621208191,17.0,1700.0,17.0,26.0,13.0,22.0,42.0
1.0991833209991455,27.0,3133.0,7.0,24.0,10.0,24.0,15.0
1.1007000207901,21.0,714.0,22.0,22.0,12.0,35.0,6.0
1.1022167205810547,17.0,952.0,18.0,13.0,10.0,0.0,18.0
1.1037333011627197,18.0,2864.0,14.0,14.0,9.0,31.0,9.0
1.1052500009536743,19.0,2486.0,27.0,20.0,0.0,42.0,0.0
1.106766700744629,13.0,2108.0,38.0,26.0,8.0,37.0,14.0
1.108283281326294,12.0,2267.0,37.0,23.0,5.0,17.0,28.0
1.1098666191101074,12.0,5.0,8.0,20.0,7.0,17.0,22.0
1.111383318901062,7.0,4191.0,16.0,5.0,9.0,33.0,5.0
1.1129000186920166,7.0,3455.0,23.0,6.0,12.0,11.0,34.0
1.1144167184829712,13.0,770.0,691.0,6.0,21.0,11.0,29.0
1.1159332990646362,20.0,3828.0,556.0,0.0,26.0,26.0,6.0
1.1174499988555908,28.0,925.0,17.0,11.0,32.0,25.0,35.0
1.1189666986465454,25.0,4606.0,0.0,23.0,16.0,12.0,17.0
1.1204832792282104,12.0,5410.0,310.0,21.0,0.0,15.0,31.0
1.121999979019165,21.0,3483.0,162.0,27.0,41.0,19.0,18.0
1.1235166788101196,7.0,1890.0,14.0,32.0,65.0,0.0,0.0
1.1250333786010742,10.0,1892.0,5.0,27.0,72.0,14.0,17.0
1.1266000270843506,37.0,2829.0,20.0,22.0,17.0,16.0,34.0
1.1281166076660156,40.0,3765.0,23.0,14.0,21.0,13.0,26.0
1.1296333074569702,38.0,4013.0,26.0,11.0,28.0,13.0,0.0
1.1311500072479248,0.0,1355.0,0.0,23.0,12.0,13.0,31.0
1.1326667070388794,14.0,3052.0,5.0,34.0,44.0,15.0,46.0
1.1341832876205444,47.0,2933.0,33.0,43.0,35.0,18.0,19.0
1.135699987411499,6.0,4518.0,61.0,11.0,44.0,30.0,40.0
1.1372166872024536,9.0,4581.0,674.0,5.0,37.0,22.0,25.0
1.1387333869934082,13.0,3810.0,1464.0,26.0,50.0,13.0,37.0
1.1402499675750732,14.0,3038.0,1009.0,27.0,25.0,30.0,14.0
1.141783356666565,15.0,1880.0,13.0,26.0,47.0,32.0,17.0
1.1433500051498413,12.0,2943.0,128.0,31.0,28.0,34.0,12.0
1.144866704940796,18.0,2838.0,25.0,9.0,16.0,30.0,22.0
1.146383285522461,19.0,2732.0,28.0,24.0,62.0,39.0,36.0
1.1478999853134155,21.0,4018.0,30.0,27.0,38.0,45.0,32.0
1.1494166851043701,7.0,5304.0,30.0,29.0,0.0,17.0,25.0
1.1509333848953247,4.0,6014.0,29.0,25.0,57.0,16.0,34.0
1.1524499654769897,0.0,4639.0,15.0,30.0,0.0,38.0,22.0
1.1539666652679443,28.0,5171.0,0.0,36.0,22.0,33.0,11.0
1.155483365058899,18.0,5810.0,19.0,40.0,0.0,27.0,39.0
1.156999945640564,8.0,4381.0,9.0,27.0,0.0,24.0,11.0
1.1585166454315186,0.0,2459.0,0.0,15.0,16.0,20.0,23.0
1.160083293914795,0.0,5231.0,16.0,29.0,0.0,26.0,16.0
1.1615999937057495,9.0,701.0,15.0,25.0,3.0,19.0,13.0
1.163116693496704,18.0,4004.0,15.0,20.0,5.0,13.0,22.0
1.1646332740783691,16.0,5137.0,27.0,26.0,5.0,6.0,21.0
1.1661499738693237,11.0,5418.0,38.0,20.0,5.0,36.0,11.0
1.1676666736602783,5.0,4189.0,42.0,15.0,6.0,22.0,22.0
1.169183373451233,10.0,5770.0,46.0,15.0,7.0,8.0,23.0
1.170699954032898,15.0,5527.0,1171.0,15.0,4.0,18.0,24.0
1.1722166538238525,18.0,5284.0,1049.0,37.0,0.0,12.0,20.0
1.1737333536148071,36.0,1853.0,722.0,106.0,4.0,8.0,24.0
1.1752500534057617,24.0,8668.0,14.0,112.0,7.0,5.0,23.0
1.1768333911895752,13.0,6009.0,329.0,118.0,5.0,19.0,22.0
1.1783499717712402,49.0,5207.0,11.0,52.0,14.0,23.0,11.0
1.1798666715621948,54.0,4517.0,15.0,32.0,15.0,18.0,23.0
1.1813833713531494,9.0,3727.0,76.0,5.0,21.0,14.0,18.0
1.1828999519348145,34.0,2855.0,56.0,38.0,13.0,31.0,18.0
1.184416651725769,46.0,3268.0,35.0,28.0,22.0,24.0,19.0
1.1859333515167236,21.0,3681.0,680.0,29.0,21.0,17.0,25.0
1.1874500513076782,13.0,4161.0,700.0,29.0,21.0,21.0,30.0
1.1889666318893433,5.0,4641.0,7.0,18.0,13.0,0.0,0.0
1.1904833316802979,37.0,3394.0,32.0,21.0,5.0,13.0,16.0
1.1920000314712524,39.0,2147.0,788.0,0.0,9.0,27.0,55.0
1.1935499906539917,36.0,3895.0,355.0,48.0,18.0,26.0,63.0
1.1950833797454834,48.0,3640.0,612.0,68.0,17.0,25.0,23.0
1.1965999603271484,11.0,6767.0,870.0,49.0,8.0,0.0,60.0
1.198116660118103,5.0,5826.0,8.0,18.0,0.0,28.0,11.0
1.1996333599090576,19.0,2399.0,38.0,51.0,43.0,14.0,45.0
1.2011499404907227,6.0,7683.0,5.0,11.0,40.0,34.0,20.0
1.2026666402816772,18.0,756.0,141.0,15.0,6.0,19.0,14.0
1.2041833400726318,12.0,3253.0,773.0,9.0,17.0,12.0,59.0
1.2057000398635864,9.0,9060.0,719.0,7.0,49.0,5.0,65.0
1.2072166204452515,22.0,4999.0,46.0,5.0,11.0,18.0,49.0
1.208733320236206,5.0,7329.0,31.0,7.0,34.0,31.0,32.0
1.2102500200271606,5.0,3434.0,16.0,0.0,11.0,30.0,43.0
1.2118333578109741,7.0,4269.0,206.0,3.0,39.0,27.0,49.0
1.2133500576019287,9.0,5105.0,115.0,5.0,30.0,21.0,5.0
1.2148666381835938,5.0,6246.0,24.0,17.0,5.0,39.0,20.0
1.2163833379745483,0.0,5323.0,51.0,23.0,17.0,12.0,25.0
1.217900037765503,4.0,4400.0,65.0,29.0,33.0,26.0,26.0
1.219416618347168,7.0,6752.0,35.0,20.0,16.0,28.0,5.0
1.2209333181381226,31.0,6757.0,28.0,11.0,0.0,12.0,73.0
1.2224500179290771,20.0,6761.0,21.0,32.0,56.0,16.0,47.0
1.2239667177200317,8.0,6046.0,0.0,24.0,48.0,14.0,21.0
1.2254832983016968,20.0,7626.0,652.0,13.0,5.0,13.0,0.0
1.2269999980926514,14.0,7618.0,329.0,28.0,52.0,14.0,44.0
1.2285666465759277,7.0,7609.0,5.0,29.0,17.0,42.0,23.0
1.2300833463668823,20.0,8093.0,0.0,15.0,11.0,61.0,32.0
1.231600046157837,7.0,8576.0,7.0,35.0,23.0,40.0,16.0
1.233116626739502,17.0,9612.0,14.0,31.0,25.0,15.0,0.0
1.2346333265304565,27.0,5319.0,16.0,14.0,11.0,15.0,43.0
1.2361500263214111,29.0,8660.0,18.0,33.0,5.0,10.0,5.0
1.2376667261123657,17.0,2922.0,45.0,28.0,18.0,6.0,27.0
1.2391833066940308,7.0,7681.0,407.0,0.0,30.0,16.0,28.0
1.2407000064849854,22.0,6664.0,236.0,16.0,24.0,10.0,17.0
1.24221670627594,26.0,7997.0,65.0,33.0,17.0,5.0,14.0
1.243749976158142,20.0,7144.0,166.0,28.0,18.0,21.0,25.0
1.2453166246414185,19.0,4310.0,86.0,18.0,31.0,14.0,6.0
1.246833324432373,15.0,5429.0,5.0,6.0,5.0,7.0,16.0
1.2483500242233276,12.0,6073.0,20.0,41.0,22.0,0.0,11.0
1.2498667240142822,14.0,7506.0,31.0,42.0,19.0,33.0,19.0
1.2513833045959473,16.0,8392.0,17.0,41.0,27.0,30.0,78.0
1.2529000043869019,26.0,3798.0,34.0,0.0,7.0,21.0,74.0
1.2544167041778564,15.0,5956.0,6.0,30.0,5.0,28.0,37.0
1.2559332847595215,5.0,7563.0,1055.0,0.0,50.0,35.0,6.0
1.257449984550476,13.0,9764.0,793.0,3.0,50.0,0.0,34.0
1.2589666843414307,39.0,9600.0,242.0,6.0,27.0,13.0,22.0
1.2604833841323853,35.0,8940.0,26.0,6.0,6.0,25.0,31.0
1.2620500326156616,13.0,8284.0,1022.0,6.0,26.0,11.0,41.0
1.2635666131973267,53.0,8652.0,1047.0,79.0,26.0,6.0,17.0
1.2650833129882812,5.0,9564.0,0.0,57.0,39.0,19.0,40.0
1.2666000127792358,28.0,10472.0,1242.0,36.0,14.0,7.0,39.0
1.2681167125701904,5.0,11204.0,0.0,5.0,0.0,51.0,0.0
1.2696332931518555,11.0,7874.0,12.0,36.0,5.0,28.0,6.0
1.27114999294281,22.0,6582.0,870.0,5.0,11.0,5.0,21.0
1.2726666927337646,17.0,11052.0,968.0,879.0,9.0,5.0,25.0
1.2741833925247192,12.0,8716.0,1425.0,920.0,7.0,12.0,29.0
1.2756999731063843,22.0,6379.0,1122.0,44.0,29.0,22.0,8.0
1.2772166728973389,26.0,8368.0,676.0,24.0,15.0,26.0,6.0
1.2788000106811523,19.0,8340.0,5.0,810.0,0.0,29.0,20.0
1.280316710472107,13.0,8316.0,23.0,12.0,0.0,12.0,11.0
1.281833291053772,24.0,8984.0,31.0,0.0,0.0,40.0,31.0
1.2833499908447266,17.0,9648.0,40.0,47.0,7.0,35.0,19.0
1.2848666906356812,8.0,9832.0,32.0,12.0,15.0,11.0,7.0
1.2863833904266357,0.0,9724.0,23.0,41.0,17.0,18.0,26.0
1.2878999710083008,0.0,7674.0,19.0,26.0,20.0,20.0,30.0
1.2894166707992554,0.0,8436.0,16.0,36.0,27.0,29.0,33.0
1.29093337059021,14.0,8009.0,16.0,34.0,24.0,24.0,30.0
1.292449951171875,17.0,13620.0,241.0,33.0,26.0,14.0,27.0
1.2939666509628296,25.0,13180.0,466.0,57.0,27.0,28.0,5.0
1.295533299446106,16.0,11048.0,1261.0,45.0,27.0,37.0,29.0
1.2970499992370605,7.0,7729.0,1257.0,34.0,26.0,32.0,19.0
1.2985666990280151,0.0,10676.0,1253.0,36.0,28.0,49.0,41.0
1.3000832796096802,15.0,9800.0,598.0,0.0,21.0,58.0,42.0
1.3015999794006348,16.0,6540.0,38.0,43.0,13.0,0.0,21.0
1.3031166791915894,17.0,13036.0,337.0,857.0,24.0,43.0,24.0
1.304633378982544,18.0,10316.0,635.0,1071.0,29.0,32.0,44.0
1.306149959564209,22.0,16112.0,705.0,14.0,27.0,5.0,0.0
1.3076666593551636,18.0,11360.0,29.0,933.0,18.0,16.0,16.0
1.3091833591461182,14.0,10896.0,57.0,37.0,17.0,28.0,60.0
1.3107000589370728,39.0,10432.0,84.0,6.0,23.0,12.0,28.0
1.3122667074203491,40.0,9556.0,494.0,36.0,30.0,17.0,47.0
1.3137999773025513,21.0,11356.0,258.0,37.0,26.0,0.0,26.0
1.3153166770935059,13.0,11448.0,22.0,49.0,0.0,3.0,42.0
1.3168333768844604,12.0,11540.0,13.0,5.0,0.0,5.0,30.0
1.3183499574661255,25.0,9212.0,486.0,7.0,0.0,3.0,37.0
1.31986665725708,37.0,10320.0,277.0,9.0,0.0,0.0,27.0
1.3213833570480347,33.0,11428.0,68.0,0.0,25.0,28.0,13.0
1.3229000568389893,5.0,13088.0,38.0,21.0,34.0,27.0,13.0
1.3244166374206543,11.0,12280.0,601.0,28.0,23.0,26.0,15.0
1.3259333372116089,11.0,11472.0,509.0,8.0,21.0,26.0,14.0
1.3274500370025635,20.0,12024.0,459.0,15.0,25.0,29.0,14.0
1.3289666175842285,19.0,12580.0,73.0,22.0,29.0,0.0,14.0
1.3305333852767944,9.0,16740.0,39.0,11.0,17.0,13.0,15.0
1.3320499658584595,11.0,18876.0,5.0,15.0,0.0,25.0,47.0
1.333566665649414,22.0,19852.0,31.0,20.0,18.0,26.0,46.0
1.3350833654403687,22.0,12008.0,313.0,13.0,30.0,25.0,20.0
1.3365999460220337,28.0,13804.0,391.0,32.0,30.0,31.0,20.0
1.3381166458129883,34.0,17516.0,483.0,36.0,28.0,47.0,5.0
1.3396333456039429,5.0,15300.0,576.0,39.0,21.0,33.0,17.0
1.3411500453948975,0.0,13084.0,292.0,24.0,14.0,19.0,29.0
1.3426666259765625,9.0,13600.0,7.0,15.0,9.0,11.0,25.0
1.344183325767517,7.0,20168.0,38.0,18.0,26.0,7.0,7.0
1.3457000255584717,5.0,19980.0,254.0,22.0,19.0,10.0,19.0
1.3472833633422852,15.0,16156.0,0.0,32.0,16.0,14.0,6.0
1.3487999439239502,24.0,12768.0,204.0,43.0,14.0,37.0,15.0
1.3503166437149048,20.0,18324.0,409.0,21.0,5.0,31.0,24.0
1.3518333435058594,17.0,15560.0,448.0,0.0,17.0,12.0,5.0
1.353350043296814,35.0,12792.0,488.0,25.0,29.0,24.0,13.0
1.354866623878479,53.0,17304.0,486.0,25.0,29.0,38.0,21.0
1.3563833236694336,45.0,16468.0,483.0,24.0,39.0,51.0,17.0
1.3579000234603882,31.0,12964.0,29.0,26.0,14.0,35.0,14.0
1.3594167232513428,24.0,20160.0,20.0,28.0,8.0,7.0,19.0
1.3609333038330078,25.0,22708.0,1081.0,14.0,7.0,12.0,0.0
1.3624500036239624,35.0,11088.0,546.0,0.0,6.0,15.0,18.0
1.3640166521072388,38.0,19552.0,11.0,14.0,5.0,18.0,9.0
1.3655333518981934,40.0,18204.0,484.0,747.0,5.0,20.0,17.0
1.367050051689148,50.0,25672.0,958.0,389.0,3.0,22.0,6.0
1.368566632270813,0.0,22588.0,1440.0,31.0,0.0,0.0,27.0
1.3700833320617676,11.0,17888.0,748.0,6.0,0.0,0.0,48.0
1.3716000318527222,31.0,18840.0,55.0,207.0,3.0,0.0,37.0
1.3731166124343872,37.0,20680.0,500.0,118.0,6.0,4.0,26.0
1.3746333122253418,5.0,22080.0,1324.0,28.0,16.0,7.0,40.0
1.3761500120162964,12.0,23484.0,1171.0,15.0,11.0,15.0,0.0
1.377666711807251,15.0,23660.0,1018.0,18.0,6.0,23.0,20.0
1.379183292388916,13.0,23836.0,677.0,22.0,16.0,20.0,51.0
1.3807666301727295,19.0,16408.0,336.0,24.0,25.0,32.0,46.0
1.382283329963684,20.0,19360.0,1100.0,26.0,31.0,0.0,35.0
1.3838000297546387,20.0,22308.0,1010.0,27.0,16.0,22.0,26.0
1.3853166103363037,5.0,35744.0,920.0,16.0,0.0,20.0,0.0
1.3868333101272583,13.0,32252.0,16.0,14.0,38.0,35.0,44.0
1.388350009918213,15.0,27832.0,1195.0,13.0,49.0,29.0,50.0
1.3898667097091675,35.0,24748.0,2369.0,373.0,27.0,22.0,57.0
1.3913832902908325,42.0,28140.0,2154.0,483.0,32.0,31.0,26.0
1.392899990081787,19.0,28652.0,1994.0,7.0,0.0,12.0,45.0
1.3944166898727417,23.0,29164.0,1869.0,37.0,22.0,19.0,29.0
1.3959333896636963,14.0,27192.0,1575.0,711.0,41.0,36.0,0.0
1.3975000381469727,20.0,25396.0,2055.0,407.0,39.0,35.0,43.0
1.3990166187286377,26.0,28864.0,1886.0,103.0,25.0,19.0,5.0
1.4005333185195923,21.0,32332.0,1717.0,782.0,50.0,17.0,34.0
1.4020500183105469,17.0,34128.0,1328.0,46.0,14.0,38.0,5.0
1.4035667181015015,19.0,30288.0,938.0,226.0,16.0,24.0,27.0
1.4050832986831665,22.0,33568.0,1607.0,40.0,19.0,0.0,48.0
1.406599998474121,5.0,30688.0,2276.0,53.0,11.0,13.0,36.0
1.4081166982650757,44.0,32636.0,3453.0,16.0,32.0,0.0,0.0
1.4096332788467407,45.0,36528.0,4698.0,165.0,38.0,21.0,23.0
1.4111499786376953,19.0,36192.0,3664.0,94.0,6.0,17.0,20.0
1.41266667842865,28.0,35072.0,2629.0,24.0,24.0,13.0,33.0
1.4142500162124634,18.0,33952.0,707.0,16.0,0.0,11.0,26.0
1.415766716003418,16.0,35792.0,2598.0,25.0,15.0,5.0,65.0
1.417283296585083,21.0,37872.0,1996.0,35.0,39.0,0.0,54.0
1.4187999963760376,27.0,41744.0,1147.0,468.0,22.0,14.0,42.0
1.4203166961669922,39.0,40000.0,2706.0,849.0,24.0,7.0,43.0
1.4218332767486572,35.0,38240.0,2787.0,1230.0,24.0,0.0,6.0
1.4233499765396118,27.0,35104.0,2408.0,618.0,20.0,22.0,5.0
1.4248666763305664,59.0,50720.0,531.0,6.0,24.0,34.0,5.0
1.426383376121521,58.0,47744.0,2815.0,304.0,28.0,22.0,9.0
1.427899956703186,47.0,47968.0,2447.0,863.0,5.0,29.0,13.0
1.4294166564941406,35.0,44320.0,2805.0,779.0,25.0,23.0,46.0
1.4309666156768799,14.0,43344.0,2217.0,695.0,15.0,16.0,26.0
1.4325000047683716,12.0,43248.0,1629.0,605.0,18.0,19.0,5.0
1.4340167045593262,28.0,44512.0,4262.0,6.0,9.0,45.0,8.0
1.4355332851409912,11.0,46176.0,4440.0,1451.0,32.0,55.0,20.0
1.4370499849319458,9.0,47824.0,2493.0,735.0,26.0,5.0,27.0
1.4385666847229004,7.0,54320.0,6603.0,19.0,20.0,15.0,34.0
1.440083384513855,10.0,54640.0,6758.0,243.0,11.0,46.0,11.0
1.44159996509552,14.0,54944.0,4277.0,18.0,15.0,46.0,0.0
1.4431166648864746,16.0,53440.0,3358.0,47.0,39.0,44.0,41.0
1.4446333646774292,19.0,64912.0,4478.0,76.0,26.0,5.0,5.0
1.4461499452590942,40.0,76384.0,5204.0,20.0,13.0,69.0,24.0
1.4476666450500488,43.0,75024.0,4586.0,35.0,28.0,28.0,23.0
1.4492499828338623,13.0,65696.0,5424.0,13.0,44.0,23.0,32.0
1.450766682624817,22.0,66176.0,3942.0,22.0,45.0,0.0,36.0
1.4522833824157715,6.0,73712.0,4758.0,31.0,54.0,5.0,31.0
1.4537999629974365,21.0,81232.0,6582.0,710.0,14.0,6.0,26.0
1.4553166627883911,19.0,86240.0,5909.0,1400.0,55.0,6.0,29.0
1.4568333625793457,25.0,82624.0,5236.0,1233.0,40.0,19.0,31.0
1.4583499431610107,25.0,93008.0,8220.0,736.0,36.0,16.0,5.0
1.4598666429519653,23.0,95680.0,7686.0,1547.0,17.0,14.0,41.0
1.46138334274292,17.0,102240.0,5300.0,1514.0,31.0,5.0,37.0
1.4629000425338745,15.0,101056.0,8456.0,898.0,19.0,15.0,26.0
1.4644166231155396,7.0,99888.0,7463.0,282.0,0.0,11.0,25.0
1.4659833908081055,28.0,117568.0,6470.0,31.0,24.0,18.0,11.0
1.4674999713897705,23.0,125984.0,5789.0,813.0,16.0,10.0,25.0
1.469016671180725,17.0,132352.0,5126.0,1790.0,8.0,8.0,11.0
1.4705499410629272,17.0,134336.0,7817.0,1544.0,11.0,5.0,48.0
1.4720499515533447,20.0,117552.0,9868.0,2422.0,20.0,3.0,44.0
1.4735666513442993,13.0,126656.0,10588.0,42.0,16.0,0.0,29.0
1.475083351135254,5.0,124000.0,9864.0,1283.0,12.0,5.0,32.0
1.4766000509262085,8.0,109696.0,9180.0,61.0,36.0,14.0,42.0
1.4781166315078735,12.0,119360.0,6102.0,1763.0,34.0,22.0,35.0
1.4796333312988281,25.0,114000.0,8012.0,741.0,32.0,43.0,37.0
1.4811500310897827,21.0,123696.0,6783.0,14.0,0.0,36.0,18.0
1.4827333688735962,0.0,118224.0,7277.0,374.0,20.0,0.0,19.0
1.4842499494552612,17.0,107440.0,7392.0,734.0,50.0,50.0,20.0
1.4857666492462158,31.0,111024.0,7506.0,389.0,33.0,39.0,26.0
1.4872833490371704,23.0,115216.0,4932.0,43.0,18.0,56.0,0.0
1.488800048828125,0.0,108688.0,6548.0,69.0,19.0,35.0,31.0
1.49031662940979,30.0,111440.0,8644.0,94.0,38.0,12.0,26.0
1.4918333292007446,54.0,114192.0,5359.0,68.0,0.0,54.0,5.0
1.4933500289916992,55.0,132864.0,6352.0,42.0,20.0,0.0,19.0
1.4948666095733643,16.0,131392.0,5490.0,59.0,44.0,28.0,34.0
1.4963833093643188,33.0,130496.0,6100.0,435.0,22.0,25.0,29.0
1.4979000091552734,14.0,137408.0,8816.0,225.0,35.0,79.0,24.0
1.4994666576385498,5.0,131520.0,2378.0,15.0,20.0,58.0,40.0
1.5009833574295044,20.0,125648.0,11144.0,356.0,30.0,37.0,41.0
1.502500057220459,26.0,131648.0,9764.0,698.0,41.0,22.0,34.0
1.504016637802124,31.0,142848.0,8344.0,358.0,22.0,7.0,11.0
1.5055333375930786,42.0,156096.0,13496.0,18.0,21.0,27.0,56.0
1.5070500373840332,52.0,151872.0,11836.0,1775.0,22.0,21.0,11.0
1.5085666179656982,14.0,153984.0,7653.0,911.0,22.0,27.0,19.0
1.5100833177566528,27.0,151744.0,7590.0,47.0,17.0,33.0,0.0
1.5116000175476074,49.0,148416.0,10936.0,1843.0,13.0,5.0,8.0
1.513116717338562,42.0,158336.0,10888.0,1300.0,13.0,23.0,16.0
1.514633297920227,34.0,154816.0,10836.0,2367.0,55.0,6.0,8.0
1.5162166357040405,7.0,146944.0,11320.0,192.0,49.0,12.0,0.0
1.5177333354949951,45.0,152832.0,6791.0,2922.0,27.0,19.0,6.0
1.5192500352859497,22.0,158656.0,10264.0,3224.0,21.0,0.0,22.0
1.5207666158676147,17.0,143360.0,10760.0,1575.0,16.0,36.0,37.0
1.5222833156585693,22.0,155136.0,11252.0,1856.0,29.0,42.0,46.0
1.523800015449524,19.0,146112.0,7684.0,45.0,43.0,43.0,48.0
1.5253167152404785,23.0,144832.0,7427.0,2433.0,94.0,13.0,44.0
1.5268499851226807,20.0,134336.0,8840.0,1871.0,73.0,7.0,20.0
1.5283666849136353,17.0,131968.0,5544.0,687.0,52.0,49.0,55.0
1.5298833847045898,0.0,123808.0,6971.0,19.0,52.0,45.0,44.0
1.5313832759857178,0.0,115648.0,6417.0,1200.0,52.0,48.0,21.0
1.5329666137695312,0.0,121040.0,7123.0,788.0,16.0,50.0,7.0
1.5344833135604858,0.0,121552.0,5075.0,377.0,13.0,5.0,32.0
1.5360000133514404,35.0,122064.0,8092.0,564.0,11.0,12.0,38.0
1.537516713142395,29.0,91488.0,4355.0,751.0,0.0,22.0,24.0
1.53903329372406,36.0,113472.0,6455.0,339.0,13.0,57.0,23.0
1.5405499935150146,42.0,99312.0,6493.0,1055.0,25.0,50.0,20.0
1.5420666933059692,38.0,102448.0,3658.0,852.0,54.0,5.0,15.0
1.5435832738876343,47.0,87552.0,5560.0,132.0,38.0,39.0,10.0
1.5450999736785889,0.0,86864.0,5637.0,78.0,22.0,46.0,45.0
1.5466166734695435,52.0,67872.0,5744.0,24.0,6.0,36.0,30.0
1.5481499433517456,12.0,74448.0,5850.0,35.0,25.0,39.0,15.0
1.5496833324432373,10.0,69008.0,2440.0,32.0,0.0,21.0,5.0
1.551200032234192,48.0,50096.0,5426.0,29.0,5.0,13.0,16.0
1.552716612815857,50.0,53472.0,2993.0,24.0,21.0,8.0,11.0
1.5542500019073486,51.0,47440.0,3434.0,15.0,61.0,21.0,66.0
1.5557667016983032,32.0,44464.0,2258.0,5.0,47.0,14.0,51.0
1.5572667121887207,15.0,41488.0,1082.0,594.0,33.0,31.0,6.0
1.5587832927703857,32.0,45200.0,2217.0,319.0,23.0,23.0,13.0
1.5602999925613403,12.0,35376.0,3351.0,44.0,13.0,16.0,20.0
1.561816692352295,27.0,31884.0,2570.0,24.0,0.0,27.0,41.0
1.5633333921432495,32.0,36112.0,704.0,778.0,32.0,21.0,58.0
1.5648666620254517,32.0,22828.0,2269.0,411.0,37.0,15.0,76.0
1.5664000511169434,50.0,27692.0,415.0,44.0,38.0,12.0,50.0
1.5679166316986084,5.0,26176.0,345.0,62.0,18.0,12.0,0.0
1.569433331489563,35.0,27636.0,275.0,41.0,17.0,5.0,39.0
1.5709500312805176,23.0,15692.0,752.0,21.0,21.0,14.0,25.0
1.5724666118621826,18.0,15396.0,914.0,31.0,21.0,23.0,29.0
1.5739833116531372,14.0,16944.0,1075.0,42.0,20.0,28.0,32.0
1.5755000114440918,24.0,12160.0,66.0,48.0,0.0,20.0,25.0
1.5770167112350464,26.0,13708.0,588.0,38.0,21.0,13.0,17.0
1.5785332918167114,28.0,14412.0,1110.0,11.0,42.0,26.0,35.0
1.580049991607666,28.0,10424.0,1120.0,5.0,36.0,19.0,25.0
1.5815666913986206,27.0,6432.0,5.0,44.0,21.0,13.0,15.0
1.5831166505813599,24.0,8604.0,43.0,32.0,7.0,20.0,31.0
1.5846666097640991,21.0,10964.0,439.0,50.0,36.0,19.0,32.0
1.5861833095550537,18.0,13036.0,6.0,243.0,35.0,18.0,34.0
1.5877000093460083,19.0,3946.0,161.0,132.0,33.0,14.0,25.0
1.589216709136963,20.0,7522.0,315.0,22.0,32.0,11.0,17.0
1.590733289718628,22.0,6425.0,546.0,12.0,31.0,12.0,42.0
1.5922499895095825,23.0,9144.0,465.0,13.0,29.0,35.0,11.0
1.593766689300537,23.0,3207.0,384.0,17.0,26.0,21.0,21.0
1.5952833890914917,56.0,7114.0,447.0,22.0,47.0,7.0,24.0
1.5967999696731567,51.0,5895.0,509.0,20.0,29.0,60.0,27.0
1.5983166694641113,0.0,5304.0,273.0,5.0,12.0,44.0,13.0
1.599833369255066,13.0,3642.0,37.0,18.0,28.0,38.0,16.0
1.6014000177383423,41.0,4120.0,16.0,25.0,25.0,5.0,19.0
1.6029167175292969,12.0,4344.0,24.0,30.0,49.0,27.0,14.0
1.604433298110962,52.0,4568.0,22.0,35.0,44.0,21.0,22.0
1.6059499979019165,29.0,4469.0,20.0,72.0,21.0,28.0,14.0
1.607466697692871,6.0,4637.0,57.0,68.0,5.0,31.0,6.0
1.6089832782745361,20.0,2395.0,52.0,19.0,0.0,22.0,5.0
1.6104999780654907,18.0,5978.0,47.0,28.0,0.0,25.0,12.0
1.6120166778564453,11.0,6110.0,57.0,5.0,0.0,28.0,6.0
1.6135333776474,12.0,5837.0,0.0,53.0,3.0,0.0,0.0
1.615049958229065,13.0,4108.0,27.0,39.0,5.0,32.0,14.0
1.6165666580200195,26.0,6545.0,12.0,20.0,12.0,37.0,22.0
1.618149995803833,30.0,2541.0,29.0,23.0,19.0,14.0,24.0
1.6196666955947876,10.0,2593.0,46.0,31.0,48.0,34.0,25.0
1.6211832761764526,40.0,1846.0,0.0,24.0,39.0,15.0,34.0
1.6226999759674072,8.0,731.0,18.0,22.0,45.0,19.0,43.0
1.6242166757583618,11.0,2983.0,18.0,22.0,22.0,32.0,53.0
1.6257333755493164,14.0,2762.0,15.0,280.0,23.0,29.0,47.0
1.6272499561309814,14.0,2540.0,13.0,157.0,29.0,9.0,42.0
1.628766655921936,14.0,1531.0,36.0,35.0,19.0,31.0,21.0
1.6302833557128906,39.0,2331.0,22.0,20.0,5.0,0.0,58.0
1.6318000555038452,23.0,2225.0,8.0,26.0,18.0,31.0,7.0
1.6333166360855103,7.0,372.0,38.0,16.0,30.0,18.0,18.0
1.6348832845687866,0.0,1293.0,13.0,11.0,36.0,13.0,8.0
1.6363999843597412,3.0,2214.0,114.0,5.0,31.0,7.0,49.0
1.6379166841506958,5.0,3933.0,140.0,35.0,24.0,6.0,41.0
1.6394333839416504,48.0,2991.0,61.0,38.0,12.0,0.0,17.0
1.6409499645233154,46.0,2579.0,34.0,27.0,5.0,0.0,0.0
1.64246666431427,0.0,2167.0,6.0,27.0,21.0,0.0,32.0
1.6439833641052246,5.0,1676.0,41.0,26.0,26.0,0.0,32.0
1.6454999446868896,0.0,2940.0,30.0,5.0,5.0,0.0,31.0
1.6470166444778442,7.0,1187.0,19.0,41.0,25.0,0.0,31.0
1.6485333442687988,14.0,1153.0,21.0,33.0,0.0,22.0,31.0
1.6500500440597534,17.0,3510.0,29.0,44.0,13.0,40.0,18.0
1.6516000032424927,20.0,3083.0,38.0,35.0,6.0,59.0,22.0
1.6531167030334473,31.0,1263.0,36.0,26.0,6.0,41.0,0.0
1.6546332836151123,49.0,18.0,35.0,35.0,18.0,0.0,17.0
1.656149983406067,67.0,3737.0,0.0,30.0,29.0,11.0,13.0
1.6576666831970215,64.0,2162.0,20.0,25.0,38.0,52.0,9.0
1.659183382987976,13.0,2481.0,40.0,38.0,30.0,39.0,19.0
1.6606999635696411,28.0,1277.0,9.0,28.0,22.0,18.0,13.0
1.6622166633605957,43.0,828.0,30.0,19.0,5.0,19.0,6.0
1.6637333631515503,5.0,687.0,18.0,16.0,13.0,31.0,13.0
1.6652499437332153,16.0,1141.0,5.0,16.0,8.0,7.0,13.0
1.66676664352417,26.0,1595.0,16.0,5.0,14.0,49.0,21.0
1.6683499813079834,0.0,1315.0,23.0,8.0,19.0,35.0,20.0
1.669866681098938,30.0,1035.0,29.0,10.0,28.0,22.0,32.0
1.6713833808898926,39.0,454.0,8.0,12.0,38.0,27.0,34.0
1.6728999614715576,59.0,1413.0,21.0,0.0,50.0,18.0,5.0
1.6744166612625122,25.0,729.0,7.0,12.0,5.0,31.0,9.0
1.6759333610534668,39.0,45.0,0.0,12.0,41.0,12.0,14.0
1.6774499416351318,0.0,955.0,25.0,7.0,17.0,16.0,10.0
1.6789666414260864,25.0,875.0,11.0,38.0,53.0,36.0,7.0
1.680483341217041,17.0,795.0,17.0,32.0,45.0,28.0,6.0
1.6820000410079956,9.0,768.0,0.0,54.0,38.0,19.0,15.0
1.6835166215896606,14.0,741.0,11.0,24.0,21.0,11.0,23.0
1.6850833892822266,18.0,510.0,13.0,15.0,15.0,29.0,38.0
1.6865999698638916,16.0,570.0,11.0,23.0,32.0,27.0,34.0
1.6881166696548462,14.0,629.0,19.0,7.0,30.0,15.0,25.0
1.6896333694458008,25.0,542.0,28.0,6.0,27.0,25.0,0.0
1.6911499500274658,21.0,967.0,25.0,31.0,43.0,25.0,32.0
1.6926666498184204,17.0,1037.0,21.0,29.0,6.0,24.0,31.0
1.694183349609375,25.0,804.0,25.0,18.0,27.0,24.0,16.0
1.6957000494003296,5.0,599.0,1260.0,60.0,20.0,32.0,43.0
1.6972166299819946,26.0,393.0,1668.0,35.0,14.0,31.0,11.0
1.6987333297729492,25.0,1159.0,874.0,11.0,31.0,5.0,17.0
1.7002500295639038,23.0,1154.0,5.0,12.0,23.0,13.0,18.0
1.7018333673477173,25.0,1209.0,28.0,5.0,18.0,47.0,12.0
1.7033499479293823,26.0,1264.0,12.0,9.0,13.0,46.0,5.0
1.704866647720337,13.0,28.0,42.0,13.0,6.0,16.0,7.0
1.7063833475112915,21.0,1158.0,30.0,5.0,0.0,52.0,8.0
1.707900047302246,31.0,530.0,24.0,52.0,24.0,20.0,8.0
1.7094166278839111,23.0,738.0,21.0,67.0,26.0,0.0,7.0
1.7109333276748657,14.0,946.0,36.0,15.0,27.0,0.0,9.0
1.7124500274658203,5.0,5.0,33.0,0.0,28.0,19.0,12.0
1.7139666080474854,14.0,3.0,30.0,5.0,29.0,15.0,18.0
1.71548330783844,17.0,0.0,35.0,16.0,11.0,12.0,16.0
1.7170000076293945,0.0,1913.0,40.0,26.0,6.0,19.0,5.0
1.718566656112671,16.0,2365.0,9.0,24.0,11.0,16.0,21.0
1.7201000452041626,26.0,1073.0,49.0,5.0,25.0,16.0,13.0
1.7216166257858276,17.0,1094.0,37.0,0.0,27.0,16.0,5.0
1.7231333255767822,20.0,1114.0,35.0,14.0,7.0,23.0,6.0
1.7246500253677368,24.0,563.0,0.0,17.0,14.0,15.0,24.0
1.7261667251586914,23.0,12.0,17.0,20.0,21.0,6.0,22.0
1.7276833057403564,22.0,6.0,43.0,23.0,18.0,12.0,5.0
1.729200005531311,28.0,1073.0,0.0,26.0,15.0,12.0,9.0
1.7307167053222656,17.0,1066.0,34.0,14.0,26.0,40.0,13.0
1.7322332859039307,6.0,1059.0,20.0,21.0,26.0,34.0,5.0
1.7337499856948853,28.0,1155.0,5.0,29.0,14.0,28.0,29.0
1.7352666854858398,43.0,478.0,19.0,5.0,0.0,13.0,24.0
1.7368333339691162,40.0,520.0,26.0,5.0,8.0,42.0,22.0
1.7383500337600708,23.0,563.0,34.0,36.0,0.0,20.0,0.0
1.7398666143417358,28.0,1252.0,14.0,34.0,5.0,19.0,9.0
1.7413833141326904,25.0,1191.0,7.0,35.0,19.0,0.0,18.0
1.742900013923645,19.0,1328.0,57.0,31.0,14.0,53.0,22.0
1.7444167137145996,14.0,899.0,70.0,14.0,26.0,39.0,25.0
1.7459332942962646,40.0,286.0,28.0,20.0,50.0,58.0,28.0
1.7474499940872192,39.0,1576.0,19.0,26.0,25.0,37.0,30.0
1.7489666938781738,5.0,2106.0,12.0,24.0,0.0,17.0,6.0
1.7504832744598389,28.0,37.0,5.0,22.0,31.0,18.0,24.0
1.7519999742507935,9.0,665.0,18.0,0.0,17.0,18.0,42.0
1.753583312034607,40.0,11.0,0.0,44.0,18.0,11.0,5.0
1.7551000118255615,22.0,16.0,25.0,29.0,0.0,8.0,16.0
1.7566167116165161,44.0,21.0,12.0,14.0,26.0,5.0,13.0
1.7581332921981812,30.0,5.0,29.0,5.0,23.0,5.0,11.0
1.7596499919891357,6.0,30.0,23.0,19.0,34.0,3.0,10.0
1.7611666917800903,11.0,1481.0,22.0,18.0,23.0,0.0,18.0
1.762683391571045,16.0,1015.0,16.0,8.0,12.0,12.0,41.0
1.76419997215271,24.0,550.0,8.0,11.0,36.0,14.0,50.0
1.7657166719436646,34.0,1233.0,12.0,21.0,40.0,19.0,0.0
1.7672333717346191,17.0,953.0,16.0,21.0,30.0,29.0,56.0
1.7687499523162842,0.0,672.0,45.0,29.0,22.0,25.0,36.0
1.77031672000885,40.0,31.0,26.0,22.0,24.0,21.0,38.0
1.7718333005905151,12.0,175.0,6.0,16.0,5.0,19.0,15.0
1.7733500003814697,14.0,12.0,55.0,25.0,44.0,22.0,12.0
1.7748667001724243,16.0,501.0,16.0,0.0,28.0,0.0,28.0
1.7763832807540894,22.0,256.0,14.0,36.0,12.0,56.0,23.0
1.777899980545044,18.0,12.0,13.0,21.0,11.0,62.0,38.0
1.7794166803359985,14.0,18.0,13.0,5.0,32.0,15.0,32.0
1.7809333801269531,19.0,24.0,13.0,25.0,28.0,0.0,20.0
1.7824499607086182,16.0,612.0,12.0,16.0,28.0,28.0,8.0
1.7839666604995728,18.0,312.0,21.0,6.0,28.0,42.0,7.0
1.7854833602905273,21.0,12.0,22.0,30.0,21.0,43.0,13.0
1.7870666980743408,22.0,877.0,22.0,44.0,17.0,34.0,9.0
1.7885832786560059,23.0,638.0,5.0,58.0,22.0,26.0,6.0
1.7900999784469604,23.0,14.0,12.0,13.0,26.0,9.0,6.0
1.791616678237915,16.0,6.0,11.0,24.0,29.0,22.0,5.0
1.7931333780288696,8.0,18.0,11.0,31.0,14.0,5.0,20.0
1.7946499586105347,5.0,29.0,18.0,15.0,7.0,31.0,16.0
1.7961666584014893,20.0,41.0,12.0,34.0,15.0,27.0,13.0
1.7976833581924438,35.0,53.0,5.0,21.0,22.0,23.0,21.0
1.7992000579833984,47.0,9.0,7.0,37.0,42.0,19.0,0.0
1.8007166385650635,27.0,5.0,24.0,32.0,35.0,37.0,22.0
1.802233338356018,38.0,30.0,41.0,0.0,27.0,0.0,41.0
1.8037999868392944,39.0,37.0,43.0,0.0,16.0,37.0,63.0
1.805316686630249,55.0,415.0,38.0,0.0,38.0,37.0,62.0
1.8068333864212036,8.0,397.0,0.0,6.0,30.0,49.0,23.0
1.8083499670028687,30.0,379.0,5.0,13.0,46.0,61.0,14.0
1.8098666667938232,46.0,23.0,48.0,15.0,27.0,54.0,37.0
1.8113833665847778,29.0,24.0,27.0,44.0,24.0,37.0,43.0
1.8128999471664429,38.0,12.0,31.0,27.0,22.0,43.0,49.0
1.8144166469573975,47.0,20.0,13.0,11.0,19.0,9.0,0.0
1.815933346748352,14.0,29.0,52.0,23.0,17.0,5.0,5.0
1.8174500465393066,5.0,24.0,63.0,22.0,19.0,41.0,17.0
1.8189666271209717,35.0,18.0,30.0,21.0,20.0,24.0,38.0
1.8205167055130005,34.0,21.0,18.0,17.0,21.0,37.0,43.0
1.8220332860946655,0.0,17.0,33.0,13.0,21.0,29.0,18.0
1.8235499858856201,7.0,14.0,33.0,18.0,25.0,32.0,50.0
1.8250666856765747,9.0,16.0,33.0,7.0,29.0,26.0,34.0
1.8265833854675293,10.0,18.0,33.0,12.0,15.0,43.0,31.0
1.8280999660491943,13.0,24.0,22.0,17.0,16.0,8.0,27.0
1.829616665840149,16.0,26.0,18.0,0.0,26.0,23.0,15.0
1.8311333656311035,14.0,27.0,20.0,7.0,7.0,11.0,41.0
1.8326499462127686,15.0,25.0,22.0,6.0,46.0,5.0,6.0
1.8341666460037231,16.0,26.0,22.0,25.0,37.0,0.0,6.0
1.8356833457946777,0.0,18.0,11.0,24.0,14.0,7.0,57.0
1.8372666835784912,53.0,10.0,5.0,11.0,39.0,14.0,28.0
1.8387833833694458,65.0,68.0,17.0,37.0,34.0,9.0,30.0
1.8402999639511108,44.0,487.0,17.0,25.0,30.0,5.0,34.0
1.8418166637420654,17.0,573.0,16.0,30.0,7.0,25.0,53.0
1.84333336353302,19.0,474.0,30.0,36.0,5.0,27.0,35.0
1.844849944114685,0.0,11.0,45.0,34.0,16.0,6.0,18.0
1.8463666439056396,5.0,14.0,45.0,31.0,14.0,0.0,12.0
1.8478833436965942,6.0,5.0,22.0,23.0,12.0,23.0,41.0
1.8494000434875488,13.0,16.0,0.0,14.0,25.0,16.0,22.0
1.8509166240692139,33.0,5.0,65.0,5.0,54.0,19.0,6.0
1.8524333238601685,41.0,41.0,30.0,11.0,40.0,9.0,26.0
1.8539832830429077,35.0,38.0,18.0,17.0,26.0,0.0,27.0
1.8555166721343994,11.0,5.0,5.0,25.0,24.0,20.0,27.0
1.857033371925354,43.0,27.0,5.0,40.0,43.0,16.0,26.0
1.858549952507019,9.0,995.0,16.0,32.0,5.0,19.0,31.0
1.8600666522979736,35.0,748.0,12.0,15.0,12.0,5.0,27.0
1.8615833520889282,5.0,43.0,5.0,0.0,5.0,7.0,23.0
1.8631000518798828,29.0,524.0,10.0,6.0,15.0,18.0,44.0
1.8646166324615479,24.0,17.0,5.0,12.0,12.0,25.0,30.0
1.8661333322525024,13.0,29.0,18.0,29.0,9.0,26.0,17.0
1.867650032043457,27.0,34.0,31.0,25.0,11.0,11.0,18.0
1.869166612625122,20.0,29.0,29.0,8.0,9.0,31.0,0.0
1.8706833124160767,13.0,23.0,20.0,18.0,7.0,0.0,0.0
1.8722666501998901,17.0,340.0,49.0,14.0,8.0,0.0,18.0
1.8737833499908447,24.0,180.0,34.0,29.0,8.0,0.0,19.0
1.8753000497817993,5.0,20.0,20.0,28.0,19.0,0.0,27.0
1.8768166303634644,31.0,0.0,39.0,8.0,12.0,9.0,23.0
1.878333330154419,21.0,17.0,8.0,20.0,5.0,19.0,28.0
1.8798500299453735,15.0,14.0,14.0,0.0,12.0,16.0,14.0
1.8813666105270386,16.0,11.0,44.0,9.0,19.0,13.0,0.0
1.8828833103179932,18.0,15.0,19.0,0.0,0.0,14.0,5.0
1.8844000101089478,0.0,20.0,15.0,13.0,36.0,16.0,27.0
1.8859167098999023,11.0,0.0,18.0,9.0,30.0,24.0,27.0
1.8874332904815674,22.0,24.0,16.0,5.0,25.0,29.0,18.0
1.8890000581741333,17.0,600.0,14.0,11.0,0.0,47.0,48.0
1.8905166387557983,22.0,739.0,19.0,8.0,11.0,38.0,41.0
1.892033338546753,21.0,13.0,0.0,5.0,21.0,28.0,33.0
1.8935500383377075,20.0,22.0,18.0,5.0,17.0,25.0,22.0
1.8950666189193726,19.0,358.0,16.0,5.0,33.0,40.0,24.0
1.8965833187103271,15.0,189.0,15.0,39.0,33.0,36.0,26.0
1.8981000185012817,11.0,20.0,11.0,44.0,20.0,31.0,15.0
1.8996167182922363,9.0,9.0,9.0,28.0,25.0,21.0,19.0
1.9011332988739014,10.0,18.0,8.0,40.0,16.0,0.0,6.0
1.902649998664856,11.0,23.0,12.0,0.0,25.0,44.0,14.0
1.9041666984558105,8.0,11.0,17.0,22.0,29.0,11.0,19.0
1.905750036239624,6.0,27.0,22.0,5.0,34.0,20.0,167.0
1.907266616821289,6.0,534.0,40.0,46.0,47.0,41.0,151.0
1.9087833166122437,13.0,654.0,40.0,53.0,46.0,39.0,210.0
1.9103000164031982,20.0,23.0,47.0,0.0,46.0,39.0,16.0
1.9118167161941528,17.0,49.0,28.0,16.0,46.0,15.0,0.0
1.9133332967758179,23.0,120.0,0.0,38.0,8.0,0.0,0.0
1.9148499965667725,28.0,18.0,35.0,38.0,17.0,40.0,0.0
1.916366696357727,31.0,12.0,11.0,40.0,0.0,22.0,0.0
1.917883276939392,32.0,931.0,25.0,6.0,0.0,8.0,5.0
1.9193999767303467,23.0,465.0,0.0,26.0,6.0,20.0,17.0
1.9209166765213013,0.0,0.0,18.0,13.0,12.0,0.0,22.0
1.9224833250045776,9.0,44.0,37.0,9.0,15.0,12.0,28.0
1.9240000247955322,25.0,11.0,20.0,5.0,18.0,32.0,11.0
1.9255167245864868,23.0,57.0,8.0,24.0,0.0,46.0,23.0
1.9270333051681519,21.0,104.0,28.0,17.0,5.0,32.0,0.0
1.9285500049591064,21.0,73.0,33.0,11.0,11.0,48.0,12.0
1.930066704750061,25.0,43.0,38.0,19.0,10.0,40.0,57.0
1.931583285331726,18.0,43.0,25.0,27.0,9.0,27.0,62.0
1.9330999851226807,38.0,43.0,12.0,31.0,20.0,51.0,62.0
1.9346166849136353,42.0,30.0,25.0,16.0,15.0,17.0,30.0
1.9361333847045898,29.0,16.0,19.0,27.0,11.0,24.0,38.0
1.9376499652862549,17.0,19.0,13.0,39.0,21.0,35.0,38.0
1.9392333030700684,0.0,12.0,26.0,13.0,22.0,16.0,42.0
1.940750002861023,28.0,5.0,26.0,23.0,14.0,16.0,50.0
1.9422667026519775,11.0,204.0,27.0,34.0,5.0,16.0,57.0
1.9437832832336426,0.0,109.0,24.0,23.0,22.0,15.0,25.0
1.9452999830245972,4.0,14.0,23.0,30.0,24.0,14.0,39.0
1.9468166828155518,7.0,49.0,28.0,32.0,36.0,16.0,6.0
1.9483333826065063,38.0,5.0,16.0,24.0,22.0,18.0,0.0
1.9498499631881714,34.0,14.0,25.0,15.0,21.0,26.0,35.0
1.951366662979126,19.0,23.0,22.0,25.0,28.0,34.0,40.0
1.9528833627700806,5.0,71.0,0.0,17.0,25.0,6.0,63.0
1.9543999433517456,34.0,166.0,0.0,15.0,36.0,5.0,30.0
1.9559667110443115,5.0,225.0,6.0,13.0,43.0,10.0,26.0
1.9574832916259766,20.0,285.0,13.0,24.0,0.0,8.0,55.0
1.9589999914169312,26.0,160.0,37.0,25.0,7.0,5.0,11.0
1.9605166912078857,31.0,36.0,36.0,26.0,16.0,5.0,0.0
1.9620333909988403,5.0,5.0,18.0,65.0,14.0,5.0,0.0
1.9635499715805054,16.0,7.0,0.0,48.0,12.0,7.0,11.0
1.96506667137146,23.0,13.0,38.0,31.0,16.0,8.0,8.0
1.9665833711624146,29.0,19.0,19.0,0.0,17.0,7.0,6.0
1.9680999517440796,12.0,12.0,31.0,25.0,20.0,16.0,3.0
1.9696166515350342,13.0,5.0,23.0,32.0,12.0,16.0,0.0
1.9711333513259888,34.0,139.0,35.0,19.0,30.0,21.0,7.0
1.9726999998092651,31.0,97.0,33.0,30.0,25.0,7.0,14.0
1.9742333889007568,5.0,54.0,33.0,18.0,15.0,15.0,13.0
1.9757499694824219,41.0,6.0,40.0,5.0,24.0,54.0,19.0
1.9772666692733765,27.0,629.0,7.0,36.0,22.0,51.0,0.0
1.978783369064331,26.0,570.0,22.0,32.0,21.0,38.0,32.0
1.980299949645996,25.0,25.0,7.0,29.0,10.0,24.0,35.0
1.9818166494369507,26.0,20.0,32.0,25.0,18.0,20.0,29.0
1.9833333492279053,26.0,12.0,24.0,45.0,13.0,17.0,21.0
1.9848500490188599,28.0,0.0,41.0,9.0,19.0,26.0,60.0
1.986366629600525,21.0,16.0,14.0,0.0,15.0,21.0,61.0
1.9878833293914795,41.0,21.0,11.0,55.0,10.0,5.0,62.0
1.989400029182434,5.0,22.0,5.0,7.0,22.0,19.0,32.0
1.9909666776657104,17.0,24.0,14.0,0.0,15.0,19.0,16.0
1.992483377456665,32.0,82.0,23.0,10.0,19.0,18.0,21.0
1.99399995803833,29.0,56.0,23.0,12.0,22.0,36.0,15.0
1.9955166578292847,5.0,29.0,26.0,14.0,7.0,42.0,44.0
1.9970333576202393,23.0,505.0,41.0,0.0,9.0,40.0,45.0
1.9985500574111938,8.0,404.0,30.0,6.0,12.0,40.0,12.0
2.0000667572021484,29.0,303.0,20.0,13.0,9.0,40.0,35.0
2.0015833377838135,39.0,11.0,21.0,15.0,7.0,41.0,5.0
2.0030999183654785,14.0,27.0,17.0,13.0,9.0,22.0,41.0
2.0046167373657227,60.0,517.0,14.0,22.0,12.0,11.0,65.0
2.0061333179473877,39.0,381.0,21.0,11.0,5.0,0.0,0.0
2.007716655731201,18.0,0.0,0.0,0.0,7.0,14.0,58.0
2.009233236312866,8.0,641.0,13.0,7.0,11.0,22.0,12.0
2.0107500553131104,21.0,6.0,35.0,14.0,15.0,20.0,37.0
2.0122666358947754,26.0,623.0,22.0,19.0,15.0,19.0,24.0
2.0137832164764404,30.0,5.0,23.0,24.0,20.0,13.0,30.0
2.0153000354766846,12.0,753.0,45.0,20.0,17.0,6.0,13.0
2.0168166160583496,9.0,38.0,0.0,26.0,14.0,17.0,19.0
2.0183334350585938,22.0,7.0,5.0,13.0,14.0,9.0,25.0
2.019850015640259,15.0,900.0,0.0,0.0,24.0,0.0,25.0
2.021366596221924,8.0,65.0,12.0,24.0,32.0,15.0,24.0
2.022883415222168,6.0,14.0,16.0,7.0,32.0,0.0,17.0
2.0244500637054443,31.0,8.0,20.0,11.0,48.0,0.0,26.0
2.0259666442871094,21.0,76.0,25.0,27.0,24.0,0.0,25.0
2.0274832248687744,11.0,44.0,30.0,12.0,0.0,5.0,15.0
2.0290000438690186,30.0,12.0,39.0,20.0,48.0,13.0,22.0
2.0305166244506836,15.0,13.0,0.0,25.0,34.0,10.0,7.0
2.0320334434509277,0.0,23.0,755.0,24.0,0.0,7.0,16.0
2.0335500240325928,6.0,19.0,967.0,22.0,12.0,36.0,25.0
2.035066604614258,43.0,18.0,16.0,60.0,0.0,36.0,11.0
2.036583423614502,51.0,18.0,22.0,41.0,0.0,47.0,15.0
2.038100004196167,57.0,957.0,38.0,21.0,0.0,47.0,10.0
2.039616584777832,70.0,1003.0,35.0,24.0,13.0,32.0,5.0
2.0411999225616455,18.0,18.0,20.0,15.0,13.0,15.0,12.0
2.0427167415618896,20.0,12.0,22.0,5.0,17.0,17.0,14.0
2.0442333221435547,20.0,8.0,11.0,49.0,30.0,14.0,7.0
2.0457499027252197,28.0,14.0,0.0,725.0,32.0,19.0,0.0
2.047266721725464,19.0,14.0,3.0,382.0,34.0,25.0,17.0
2.048783302307129,9.0,15.0,5.0,40.0,31.0,26.0,12.0
2.050299882888794,15.0,22.0,6.0,23.0,16.0,10.0,7.0
2.051816701889038,21.0,27.0,11.0,24.0,28.0,11.0,16.0
2.053333282470703,16.0,24.0,16.0,14.0,29.0,12.0,24.0
2.0548501014709473,11.0,21.0,13.0,94.0,23.0,16.0,28.0
2.0563666820526123,34.0,193.0,5.0,52.0,16.0,20.0,31.0
2.0579333305358887,41.0,108.0,14.0,9.0,12.0,22.0,0.0
2.0594499111175537,16.0,22.0,0.0,23.0,16.0,17.0,20.0
2.060966730117798,0.0,23.0,22.0,13.0,20.0,5.0,19.0
2.062483310699463,0.0,38.0,19.0,13.0,5.0,27.0,12.0
2.063999891281128,23.0,19.0,17.0,14.0,21.0,8.0,5.0
2.065516710281372,24.0,0.0,16.0,17.0,13.0,0.0,10.0
2.067033290863037,15.0,43.0,25.0,20.0,5.0,29.0,15.0
2.0685501098632812,25.0,32.0,28.0,22.0,42.0,19.0,16.0
2.0700666904449463,29.0,21.0,30.0,35.0,25.0,9.0,17.0
2.0715832710266113,30.0,23.0,20.0,48.0,7.0,0.0,16.0
2.0731000900268555,0.0,41.0,18.0,38.0,40.0,25.0,16.0
2.074683427810669,3.0,33.0,19.0,27.0,15.0,22.0,5.0
2.076200008392334,6.0,25.0,5.0,15.0,25.0,19.0,15.0
2.077716588973999,11.0,32.0,18.0,66.0,36.0,17.0,25.0
2.079233407974243,8.0,7.0,12.0,59.0,18.0,16.0,20.0
2.080749988555908,16.0,5.0,5.0,47.0,24.0,10.0,39.0
2.0822665691375732,23.0,18.0,25.0,34.0,44.0,5.0,0.0
2.0837833881378174,11.0,24.0,26.0,12.0,44.0,12.0,9.0
2.0852999687194824,0.0,29.0,26.0,24.0,5.0,11.0,19.0
2.0868165493011475,5.0,38.0,13.0,0.0,30.0,11.0,23.0
2.0883333683013916,24.0,52.0,0.0,9.0,34.0,6.0,0.0
2.0898499488830566,27.0,66.0,8.0,19.0,15.0,44.0,6.0
2.091399908065796,22.0,60.0,15.0,5.0,16.0,39.0,11.0
2.092933416366577,17.0,54.0,18.0,26.0,21.0,32.0,17.0
2.094449996948242,0.0,75.0,13.0,24.0,12.0,14.0,20.0
2.0959665775299072,5.0,43.0,22.0,22.0,38.0,44.0,24.0
2.0974833965301514,21.0,11.0,21.0,15.0,27.0,33.0,27.0
2.0989999771118164,10.0,35.0,20.0,420.0,16.0,29.0,25.0
2.1013998985290527,0.0,5.0,25.0,215.0,43.0,5.0,22.0
2.103783369064331,15.0,44.0,21.0,9.0,36.0,3.0,31.0
2.1061666011810303,29.0,29.0,18.0,21.0,12.0,0.0,5.0
2.1085667610168457,26.0,15.0,12.0,28.0,47.0,24.0,17.0
2.110949993133545,26.0,0.0,5.0,31.0,24.0,19.0,15.0
2.113333225250244,0.0,25.0,5.0,37.0,51.0,14.0,25.0
2.1157166957855225,4.0,13.0,26.0,37.0,35.0,0.0,18.0
2.1180999279022217,7.0,0.0,29.0,36.0,19.0,20.0,12.0
2.1204833984375,33.0,6.0,11.0,39.0,19.0,11.0,17.0
2.122866630554199,32.0,22.0,0.0,47.0,17.0,0.0,22.0
2.125316619873047,30.0,38.0,28.0,18.0,15.0,9.0,5.0
2.127700090408325,5.0,224.0,28.0,31.0,15.0,19.0,14.0
2.1300833225250244,6.0,143.0,13.0,29.0,24.0,34.0,18.0
2.1324665546417236,27.0,62.0,21.0,8.0,21.0,67.0,22.0
2.134850025177002,20.0,49.0,6.0,25.0,18.0,41.0,27.0
2.137233257293701,21.0,5.0,0.0,424.0,23.0,16.0,179.0
2.1396167278289795,22.0,11.0,52.0,235.0,25.0,0.0,113.0
2.142033338546753,18.0,12.0,50.0,46.0,17.0,19.0,47.0
2.1444499492645264,14.0,14.0,25.0,8.0,30.0,17.0,39.0
2.1468334197998047,21.0,13.0,0.0,45.0,33.0,15.0,38.0
2.149216651916504,28.0,29.0,7.0,680.0,36.0,13.0,5.0
2.151599884033203,14.0,17.0,15.0,801.0,15.0,9.0,51.0
2.1539833545684814,0.0,5.0,29.0,922.0,10.0,5.0,34.0
2.1563665866851807,21.0,9.0,17.0,26.0,5.0,11.0,38.0
2.158750057220459,11.0,14.0,5.0,19.0,5.0,17.0,5.0
2.1611666679382324,0.0,11.0,11.0,71.0,3.0,16.0,15.0
2.1635499000549316,5.0,6.0,34.0,82.0,0.0,15.0,13.0
2.16593337059021,0.0,0.0,32.0,14.0,24.0,30.0,10.0
2.168316602706909,25.0,11.0,31.0,44.0,15.0,28.0,7.0
2.1707000732421875,19.0,22.0,31.0,75.0,6.0,25.0,5.0
2.1730833053588867,6.0,48.0,21.0,5.0,36.0,19.0,5.0
2.175466775894165,13.0,24.0,25.0,6.0,20.0,13.0,5.0
2.1778833866119385,20.0,0.0,25.0,9.0,5.0,21.0,6.0
2.1802666187286377,13.0,251.0,24.0,7.0,0.0,22.0,6.0
2.182650089263916,5.0,135.0,36.0,21.0,6.0,22.0,19.0
2.1850333213806152,16.0,18.0,23.0,18.0,13.0,19.0,35.0
2.1874165534973145,5.0,30.0,10.0,49.0,31.0,17.0,28.0
2.1898000240325928,22.0,14.0,50.0,59.0,29.0,15.0,20.0
2.192183256149292,11.0,18.0,56.0,69.0,27.0,16.0,26.0
2.1945834159851074,0.0,11.0,18.0,26.0,27.0,18.0,19.0
2.1969666481018066,0.0,15.0,32.0,31.0,42.0,17.0,13.0
2.199350118637085,0.0,20.0,43.0,36.0,47.0,16.0,13.0
2.2017500400543213,3.0,42.0,54.0,54.0,18.0,5.0,12.0
2.2041332721710205,6.0,36.0,8.0,57.0,17.0,8.0,12.0
2.206516742706299,28.0,38.0,18.0,45.0,21.0,12.0,12.0
2.208899974822998,14.0,41.0,13.0,32.0,20.0,6.0,32.0
2.2112998962402344,0.0,46.0,18.0,18.0,16.0,0.0,32.0
2.2136833667755127,13.0,6.0,23.0,26.0,12.0,0.0,5.0
2.216066598892212,44.0,19.0,6.0,35.0,34.0,0.0,30.0
2.2184667587280273,75.0,31.0,21.0,25.0,37.0,6.0,6.0
2.2208499908447266,53.0,16.0,36.0,16.0,40.0,11.0,24.0
2.223233222961426,18.0,49.0,37.0,69.0,26.0,6.0,17.0
2.225616693496704,42.0,41.0,39.0,54.0,13.0,0.0,11.0
2.2280333042144775,0.0,32.0,15.0,40.0,0.0,5.0,11.0
2.230416774749756,15.0,33.0,39.0,15.0,13.0,11.0,11.0
2.232800006866455,26.0,37.0,41.0,43.0,15.0,13.0,17.0
2.2351832389831543,11.0,40.0,14.0,45.0,18.0,18.0,23.0
2.2375667095184326,11.0,34.0,19.0,16.0,32.0,17.0,0.0
2.239949941635132,16.0,28.0,36.0,7.0,59.0,16.0,32.0
2.24233341217041,35.0,20.0,24.0,12.0,56.0,10.0,35.0
2.2447500228881836,54.0,13.0,12.0,16.0,23.0,5.0,0.0
2.247133255004883,42.0,8.0,18.0,16.0,42.0,11.0,24.0
2.249516725540161,29.0,14.0,34.0,16.0,0.0,17.0,23.0
2.2518999576568604,16.0,20.0,33.0,12.0,38.0,14.0,13.0
2.2542834281921387,11.0,20.0,32.0,46.0,47.0,8.0,28.0
2.256666660308838,11.0,28.0,22.0,55.0,12.0,5.0,77.0
2.259049892425537,11.0,207.0,12.0,7.0,8.0,10.0,77.0
2.2614500522613525,498.0,103.0,29.0,32.0,6.0,30.0,59.0
2.2638332843780518,609.0,0.0,21.0,20.0,8.0,48.0,0.0
2.26621675491333,719.0,19.0,23.0,21.0,0.0,34.0,13.0
2.2686166763305664,11.0,38.0,11.0,11.0,51.0,23.0,17.0
2.2709999084472656,52.0,5.0,0.0,12.0,48.0,29.0,10.0
2.273383378982544,845.0,24.0,6.0,7.0,22.0,30.0,16.0
2.275766611099243,25.0,33.0,40.0,29.0,9.0,18.0,20.0
2.2781667709350586,1704.0,42.0,27.0,29.0,47.0,25.0,25.0
2.280550003051758,1168.0,51.0,15.0,29.0,27.0,19.0,15.0
2.282933235168457,1397.0,16.0,27.0,0.0,13.0,13.0,5.0
2.2853167057037354,1369.0,28.0,19.0,12.0,7.0,0.0,10.0
2.2876999378204346,312.0,36.0,11.0,10.0,0.0,37.0,12.0
2.290083408355713,1044.0,44.0,11.0,0.0,0.0,28.0,24.0
2.292483329772949,1633.0,52.0,13.0,18.0,73.0,18.0,28.0
2.2948832511901855,21.0,136.0,32.0,17.0,59.0,8.0,0.0
2.297266721725464,503.0,79.0,19.0,0.0,0.0,26.0,4.0
2.299649953842163,471.0,21.0,6.0,0.0,51.0,16.0,8.0
2.3020334243774414,38.0,38.0,14.0,29.0,21.0,10.0,4.0
2.3044333457946777,834.0,54.0,22.0,25.0,24.0,5.0,0.0
2.306816577911377,1455.0,28.0,23.0,24.0,23.0,6.0,12.0
2.3092000484466553,988.0,47.0,23.0,12.0,27.0,6.0,21.0
2.3115999698638916,521.0,35.0,15.0,12.0,30.0,6.0,30.0
2.31398344039917,1619.0,21.0,6.0,26.0,18.0,18.0,27.0
2.316366672515869,1191.0,11.0,19.0,5.0,6.0,18.0,13.0
2.3187499046325684,762.0,95.0,14.0,27.0,5.0,18.0,15.0
2.321150064468384,1573.0,50.0,27.0,17.0,17.0,19.0,18.0
2.323533296585083,23.0,5.0,22.0,6.0,29.0,25.0,37.0
2.3259167671203613,37.0,15.0,20.0,24.0,40.0,31.0,34.0
2.3283166885375977,1178.0,10.0,16.0,17.0,0.0,7.0,13.0
2.330699920654297,57.0,5.0,17.0,11.0,28.0,19.0,12.0
2.333083391189575,241.0,5.0,18.0,26.0,5.0,21.0,46.0
2.3354833126068115,1209.0,5.0,43.0,22.0,17.0,13.0,30.0
2.33786678314209,21.0,30.0,47.0,17.0,12.0,5.0,26.0
2.340250015258789,20.0,55.0,22.0,20.0,30.0,6.0,21.0
2.3426332473754883,26.0,47.0,24.0,24.0,70.0,7.0,30.0
2.3450334072113037,586.0,27.0,25.0,15.0,81.0,10.0,35.0
2.347416639328003,313.0,6.0,43.0,24.0,30.0,14.0,45.0
2.3498001098632812,40.0,27.0,0.0,32.0,121.0,14.0,40.0
2.3521833419799805,44.0,51.0,34.0,40.0,5.0,25.0,36.0
2.354583263397217,38.0,29.0,23.0,25.0,20.0,20.0,5.0
2.356966733932495,35.0,7.0,57.0,26.0,36.0,16.0,5.0
2.3593499660491943,49.0,50.0,52.0,44.0,7.0,35.0,54.0
2.3617498874664307,6.0,28.0,21.0,42.0,7.0,100.0,42.0
2.364133358001709,75.0,5.0,70.0,21.0,22.0,113.0,69.0
2.366516590118408,61.0,27.0,54.0,35.0,19.0,25.0,47.0
2.3689000606536865,11.0,0.0,39.0,7.0,26.0,59.0,21.0
2.3712832927703857,54.0,59.0,54.0,16.0,32.0,43.0,32.0
2.373666763305664,37.0,43.0,23.0,25.0,42.0,29.0,44.0
2.3760666847229004,51.0,10.0,11.0,18.0,51.0,44.0,23.0
2.3784666061401367,282.0,49.0,54.0,18.0,61.0,20.0,37.0
2.380850076675415,179.0,54.0,49.0,18.0,20.0,0.0,14.0
2.3832333087921143,77.0,62.0,11.0,12.0,78.0,16.0,29.0
2.3856167793273926,44.0,48.0,71.0,6.0,14.0,13.0,44.0
2.388016700744629,44.0,100.0,28.0,19.0,100.0,9.0,49.0
2.390399932861328,46.0,70.0,39.0,32.0,55.0,17.0,40.0
2.3927834033966064,39.0,41.0,78.0,36.0,56.0,24.0,30.0
2.39520001411438,31.0,59.0,29.0,39.0,14.0,0.0,28.0
2.397583246231079,59.0,39.0,55.0,39.0,35.0,46.0,26.0
2.3999667167663574,50.0,12.0,12.0,40.0,47.0,61.0,60.0
2.4023499488830566,41.0,51.0,18.0,32.0,28.0,27.0,72.0
2.404733419418335,44.0,41.0,12.0,27.0,26.0,55.0,53.0
2.407116651535034,0.0,21.0,25.0,18.0,20.0,57.0,19.0
2.4094998836517334,30.0,21.0,60.0,26.0,27.0,28.0,58.0
2.411916732788086,24.0,22.0,73.0,23.0,32.0,81.0,84.0
2.414299964904785,8.0,23.0,24.0,20.0,0.0,5.0,16.0
2.4166834354400635,31.0,42.0,29.0,53.0,12.0,8.0,65.0
2.4190666675567627,25.0,36.0,17.0,45.0,36.0,15.0,28.0
2.421449899673462,18.0,30.0,16.0,35.0,35.0,20.0,28.0
2.4238333702087402,8.0,15.0,15.0,29.0,36.0,18.0,40.0
2.4262166023254395,18.0,32.0,11.0,22.0,28.0,15.0,38.0
2.428633451461792,28.0,31.0,7.0,15.0,20.0,13.0,7.0
2.431016683578491,47.0,67.0,7.0,18.0,25.0,14.0,53.0
2.4333999156951904,47.0,74.0,7.0,11.0,29.0,16.0,40.0
2.4357833862304688,22.0,81.0,11.0,19.0,20.0,19.0,12.0
2.438166618347168,20.0,25.0,38.0,29.0,12.0,0.0,38.0
2.4405500888824463,14.0,34.0,27.0,39.0,0.0,14.0,8.0
2.4429333209991455,7.0,42.0,16.0,5.0,37.0,40.0,18.0
2.445333242416382,40.0,149.0,41.0,13.0,25.0,28.0,19.0
2.4477334022521973,39.0,88.0,30.0,6.0,19.0,32.0,11.0
2.4501166343688965,37.0,26.0,25.0,0.0,13.0,6.0,23.0
2.452500104904175,5.0,25.0,19.0,23.0,17.0,19.0,25.0
2.454883337020874,45.0,15.0,0.0,47.0,36.0,31.0,5.0
2.4572665691375732,41.0,10.0,33.0,47.0,25.0,34.0,6.0
2.4596500396728516,58.0,5.0,41.0,41.0,14.0,26.0,8.0
2.462066650390625,18.0,25.0,26.0,11.0,30.0,36.0,11.0
2.464449882507324,18.0,21.0,18.0,34.0,33.0,24.0,19.0
2.4668333530426025,31.0,18.0,0.0,18.0,5.0,13.0,40.0
2.4692165851593018,15.0,22.0,29.0,27.0,19.0,16.0,29.0
2.47160005569458,8.0,26.0,30.0,36.0,14.0,16.0,19.0
2.4739832878112793,7.0,34.0,21.0,27.0,5.0,26.0,38.0
2.4763667583465576,5.0,41.0,17.0,27.0,15.0,36.0,34.0
2.478783369064331,25.0,6.0,40.0,26.0,26.0,25.0,6.0
2.4811666011810303,26.0,27.0,45.0,0.0,23.0,14.0,24.0
2.4835500717163086,13.0,18.0,11.0,37.0,20.0,15.0,55.0
2.485933303833008,25.0,27.0,35.0,41.0,15.0,8.0,49.0
2.488316774368286,37.0,24.0,38.0,55.0,15.0,16.0,16.0
2.4907000064849854,39.0,21.0,37.0,16.0,16.0,24.0,53.0
2.4930832386016846,22.0,45.0,36.0,6.0,21.0,29.0,16.0
2.495500087738037,17.0,38.0,12.0,0.0,26.0,34.0,13.0
